version 1
nodes
  0 "Bip01" -1
  1 "Bip01 Pelvis" 0
  2 "Bip01 L Thigh" 1
  3 "Bip01 L Calf" 2
  4 "Bip01 L Foot" 3
  5 "Bip01 R Thigh" 1
  6 "Bip01 R Calf" 5
  7 "Bip01 R Foot" 6
  8 "Bip01 Spine" 1
  9 "Bip01 Spine1" 8
  10 "Bip01 Spine2" 9
  11 "Bip01 Spine3" 10
  12 "Bip01 Neck" 11
  13 "Bip01 L Clavicle" 12
  14 "Bip01 L UpperArm" 13
  15 "Bip01 R Clavicle" 12
  16 "Bip01 R UpperArm" 15
  17 "Bip01 Head" 12
  18 "Bip01 L Forearm" 14
  19 "Bip01 L Hand" 18
  20 "Bip01 L Finger0" 19
  21 "Bip01 L Finger01" 20
  22 "Bip01 L Finger02" 21
  23 "Bip01 L Finger1" 19
  24 "Bip01 L Finger11" 23
  25 "Bip01 L Finger12" 24
  26 "Bip01 L Finger2" 19
  27 "Bip01 L Finger21" 26
  28 "Bip01 L Finger22" 27
  29 "Bip01 L Finger3" 19
  30 "Bip01 L Finger31" 29
  31 "Bip01 L Finger32" 30
  32 "Bip01 L Finger4" 19
  33 "Bip01 L Finger41" 32
  34 "Bip01 L Finger42" 33
  35 "Bip01 R Forearm" 16
  36 "Bip01 R Hand" 35
  37 "Bip01 R Finger0" 36
  38 "Bip01 R Finger01" 37
  39 "Bip01 R Finger02" 38
  40 "Bip01 R Finger1" 36
  41 "Bip01 R Finger11" 40
  42 "Bip01 R Finger12" 41
  43 "Bip01 R Finger2" 36
  44 "Bip01 R Finger21" 43
  45 "Bip01 R Finger22" 44
  46 "Bip01 R Finger3" 36
  47 "Bip01 R Finger31" 46
  48 "Bip01 R Finger32" 47
  49 "Bip01 R Finger4" 36
  50 "Bip01 R Finger41" 49
  51 "Bip01 R Finger42" 50
  52 "R_eye" 17
  53 "L_eye" 17
  54 "E_lids" 17
  55 "Mouth" 17
  56 "p_rpg" 36
  57 "Line04" 36
end
skeleton
  time 0
    0 0.021128 -0.077259 27.631280 0.000000 0.078343 -1.570987
    1 -0.233063 0.000001 9.745319 -1.570764 -1.570457 0.000000
    2 -0.000009 0.000014 5.615740 0.000000 3.141294 -0.759254
    3 15.693467 0.000042 -0.000137 -0.000002 0.000005 -0.845854
    4 22.146626 -0.000002 0.000000 0.000000 0.000000 0.174260
    5 0.000009 -0.000011 -5.615755 0.000000 3.141198 -0.630368
    6 15.693451 0.000043 -0.000136 -0.000002 0.000005 -0.178191
    7 22.146624 -0.000001 0.000000 0.000000 0.000000 -0.399751
    8 1.384163 -0.004727 0.000003 -0.000005 0.000013 0.000796
    9 5.939812 -0.004729 0.000088 0.000000 0.000000 -0.052306
    10 5.939812 -0.003975 0.000088 0.000000 0.000000 0.000000
    11 4.991436 -0.003974 0.000074 0.000000 0.000000 0.000000
    12 4.991427 -0.001574 0.000074 0.000000 0.000009 0.000016
    13 -0.001670 0.001564 3.638373 -0.000014 -1.283609 3.140794
    14 8.842823 0.000002 0.000054 0.103599 0.666942 -1.312334
    15 0.001739 0.001585 -3.638374 -0.000014 1.283577 3.140766
    16 8.842813 0.000001 -0.000025 -0.191738 -0.778464 -1.193498
    17 1.977402 -0.000032 0.003050 0.000001 -0.000016 0.225939
    18 9.341940 0.000000 0.000009 0.000000 0.000000 -1.168786
    19 11.168410 0.000002 -0.000001 -1.628295 0.172252 0.140561
    20 1.364904 0.231181 -1.984410 1.091706 1.070777 0.188081
    21 1.748533 -0.000003 0.000002 0.000000 0.000000 0.061100
    22 1.272493 0.000001 -0.000003 0.000000 0.000000 0.061016
    23 4.525584 -0.000299 -1.850222 0.025390 0.092705 0.288969
    24 1.719874 -0.000007 0.000000 0.000000 0.000000 0.183187
    25 1.383651 0.000003 0.000001 0.000000 0.000000 0.183184
    26 4.525585 -0.000096 -0.616739 0.022715 0.047227 0.488960
    27 1.807677 -0.000001 -0.000002 0.000000 0.000000 0.383824
    28 1.614256 -0.000004 0.000003 0.000000 0.000000 0.383912
    29 4.525583 0.000106 0.616741 0.014884 0.031642 0.497483
    30 1.719871 -0.000003 0.000000 0.000000 0.000000 0.392583
    31 1.383651 -0.000001 0.000001 0.000000 0.000000 0.392582
    32 4.525584 0.000309 1.850224 -0.020855 -0.027996 0.584870
    33 1.433228 -0.000003 0.000000 0.000000 0.000000 0.479784
    34 1.153038 -0.000001 0.000000 0.000000 0.000000 0.479842
    35 9.341949 0.000000 0.000007 0.000000 0.000000 -1.213190
    36 11.168407 0.000002 0.000011 1.668334 -0.507066 0.563733
    37 1.364906 0.231175 1.984408 -3.421733 -0.129918 0.826221
    38 1.748534 0.000002 -0.000001 0.000000 0.000000 0.096094
    39 1.272493 0.000003 0.000002 0.000000 0.000000 0.095889
    40 4.525587 -0.000302 1.850221 -0.024587 -0.092921 0.280295
    41 1.719872 0.000007 0.000000 0.000000 0.000000 0.174474
    42 1.383647 0.000004 -0.000001 0.000000 0.000000 0.837557
    43 4.525585 -0.000102 0.616738 -0.034592 -0.039460 0.759844
    44 1.807677 -0.000002 -0.000002 0.000000 0.000000 0.654460
    45 1.614256 0.000001 0.000000 0.000000 0.000000 0.654446
    46 4.525587 0.000102 -0.616743 -0.025359 -0.023984 0.872714
    47 1.719867 0.000001 0.000001 0.000000 0.000000 0.767933
    48 1.383648 0.000001 -0.000001 0.000000 0.000000 0.767909
    49 4.525586 0.000303 -1.850223 0.031378 0.015460 1.055910
    50 1.433227 0.000002 0.000000 0.000000 0.000000 0.950968
    51 1.153036 0.000004 0.000000 0.000000 0.000000 0.951143
    52 7.223970 5.068054 1.800000 -3.141592 -0.000002 1.570798
    53 7.223960 5.068053 -1.800000 -3.141592 -0.000002 1.570798
    54 7.223950 5.068052 0.000000 -3.141592 -0.000002 1.570798
    55 3.723979 2.768055 -0.395205 -3.141592 -0.000098 1.570894
    56 20.747295 -0.313698 4.522630 0.003878 0.001942 1.564441
    57 2.448332 0.177352 0.168606 1.543132 0.019570 -3.045716
  time 1
    0 0.021128 -0.077259 27.513692 0.000000 0.078343 -1.570987
    1 -0.287752 0.000001 9.745319 -1.570764 -1.570457 0.000000
    2 -0.000009 0.000014 5.615740 0.000000 3.141294 -0.769193
    3 15.693467 0.000042 -0.000137 -0.000002 0.000005 -0.858659
    4 22.146626 -0.000002 0.000000 0.000000 0.000000 0.176958
    5 0.000009 -0.000011 -5.615755 0.000000 3.141198 -0.656057
    6 15.693451 0.000043 -0.000136 -0.000002 0.000005 -0.217044
    7 22.146624 -0.000001 0.000000 0.000000 0.000000 -0.386275
    8 1.384163 -0.004727 0.000003 -0.000005 0.000013 0.006788
    9 5.939812 -0.004729 0.000088 0.000000 0.000000 -0.052306
    10 5.939812 -0.003975 0.000088 0.000000 0.000000 0.000000
    11 4.991436 -0.003974 0.000074 0.000000 0.000000 0.000000
    12 4.991427 -0.001574 0.000074 0.000000 0.000009 0.000016
    13 -0.001670 0.001564 3.638373 -0.000014 -1.283609 3.140794
    14 8.842823 0.000002 0.000054 0.103599 0.665454 -1.316440
    15 0.001739 0.001585 -3.638374 -0.000014 1.283577 3.140766
    16 8.842813 0.000001 -0.000025 -0.189803 -0.776605 -1.199405
    17 1.977402 -0.000032 0.003050 0.001270 0.008592 0.226237
    18 9.341940 0.000000 0.000009 0.000000 0.000000 -1.159929
    19 11.168410 0.000002 -0.000001 -1.628295 0.172252 0.140561
    20 1.364904 0.231181 -1.984410 1.091706 1.070777 0.188081
    21 1.748533 -0.000003 0.000002 0.000000 0.000000 0.061100
    22 1.272493 0.000001 -0.000003 0.000000 0.000000 0.061016
    23 4.525584 -0.000299 -1.850222 0.025390 0.092705 0.288969
    24 1.719874 -0.000007 0.000000 0.000000 0.000000 0.183187
    25 1.383651 0.000003 0.000001 0.000000 0.000000 0.183184
    26 4.525585 -0.000096 -0.616739 0.022715 0.047227 0.488960
    27 1.807677 -0.000001 -0.000002 0.000000 0.000000 0.383824
    28 1.614256 -0.000004 0.000003 0.000000 0.000000 0.383912
    29 4.525583 0.000106 0.616741 0.014884 0.031642 0.497483
    30 1.719871 -0.000003 0.000000 0.000000 0.000000 0.392583
    31 1.383651 -0.000001 0.000001 0.000000 0.000000 0.392582
    32 4.525584 0.000309 1.850224 -0.020855 -0.027996 0.584870
    33 1.433228 -0.000003 0.000000 0.000000 0.000000 0.479784
    34 1.153038 -0.000001 0.000000 0.000000 0.000000 0.479842
    35 9.341949 0.000000 0.000007 0.000000 0.000000 -1.202864
    36 11.168407 0.000002 0.000011 1.668334 -0.507066 0.563733
    37 1.364906 0.231175 1.984408 -3.421733 -0.129918 0.826221
    38 1.748534 0.000002 -0.000001 0.000000 0.000000 0.096094
    39 1.272493 0.000003 0.000002 0.000000 0.000000 0.095889
    40 4.525587 -0.000302 1.850221 -0.024587 -0.092921 0.280295
    41 1.719872 0.000007 0.000000 0.000000 0.000000 0.174474
    42 1.383647 0.000004 -0.000001 0.000000 0.000000 0.837557
    43 4.525585 -0.000102 0.616738 -0.034592 -0.039460 0.759844
    44 1.807677 -0.000002 -0.000002 0.000000 0.000000 0.654460
    45 1.614256 0.000001 0.000000 0.000000 0.000000 0.654446
    46 4.525587 0.000102 -0.616743 -0.025359 -0.023984 0.872714
    47 1.719867 0.000001 0.000001 0.000000 0.000000 0.767933
    48 1.383648 0.000001 -0.000001 0.000000 0.000000 0.767909
    49 4.525586 0.000303 -1.850223 0.031378 0.015460 1.055910
    50 1.433227 0.000002 0.000000 0.000000 0.000000 0.950968
    51 1.153036 0.000004 0.000000 0.000000 0.000000 0.951143
    52 7.223970 5.068054 1.800000 -3.141592 -0.000002 1.570798
    53 7.223960 5.068053 -1.800000 -3.141592 -0.000002 1.570798
    54 7.223950 5.068052 0.000000 -3.141592 -0.000002 1.570798
    55 3.723979 2.768055 -0.395205 -3.141592 -0.000098 1.570894
    56 20.747295 -0.313698 4.522630 0.003878 0.001942 1.564441
    57 2.448332 0.177352 0.168606 1.543132 0.019570 -3.045716
  time 2
    0 0.021128 -0.077259 27.376506 0.000000 0.078343 -1.570987
    1 -0.358067 0.000001 9.745319 -1.570764 -1.570457 0.000000
    2 -0.000009 0.000014 5.615740 0.000000 3.141294 -0.780375
    3 15.693467 0.000042 -0.000137 -0.000002 0.000005 -0.872744
    4 22.146626 -0.000002 0.000000 0.000000 0.000000 0.179976
    5 0.000009 -0.000011 -5.615755 0.000000 3.141198 -0.681076
    6 15.693451 0.000043 -0.000136 -0.000002 0.000005 -0.254408
    7 22.146624 -0.000001 0.000000 0.000000 0.000000 -0.373768
    8 1.384163 -0.004727 0.000003 -0.000005 0.000013 0.013679
    9 5.939812 -0.004729 0.000088 0.000000 0.000000 -0.052306
    10 5.939812 -0.003975 0.000088 0.000000 0.000000 0.000000
    11 4.991436 -0.003974 0.000074 0.000000 0.000000 0.000000
    12 4.991427 -0.001574 0.000074 0.000000 0.000009 0.000016
    13 -0.001670 0.001564 3.638373 -0.000014 -1.283609 3.140794
    14 8.842823 0.000002 0.000054 0.103507 0.662849 -1.321143
    15 0.001739 0.001585 -3.638374 -0.000014 1.283577 3.140766
    16 8.842813 0.000001 -0.000025 -0.187223 -0.774392 -1.206076
    17 1.977402 -0.000032 0.003050 0.002327 0.018543 0.226287
    18 9.341940 0.000000 0.000009 0.000000 0.000000 -1.149679
    19 11.168410 0.000002 -0.000001 -1.628295 0.172252 0.140561
    20 1.364904 0.231181 -1.984410 1.091706 1.070777 0.188081
    21 1.748533 -0.000003 0.000002 0.000000 0.000000 0.061100
    22 1.272493 0.000001 -0.000003 0.000000 0.000000 0.061016
    23 4.525584 -0.000299 -1.850222 0.025390 0.092705 0.288969
    24 1.719874 -0.000007 0.000000 0.000000 0.000000 0.183187
    25 1.383651 0.000003 0.000001 0.000000 0.000000 0.183184
    26 4.525585 -0.000096 -0.616739 0.022715 0.047227 0.488960
    27 1.807677 -0.000001 -0.000002 0.000000 0.000000 0.383824
    28 1.614256 -0.000004 0.000003 0.000000 0.000000 0.383912
    29 4.525583 0.000106 0.616741 0.014884 0.031642 0.497483
    30 1.719871 -0.000003 0.000000 0.000000 0.000000 0.392583
    31 1.383651 -0.000001 0.000001 0.000000 0.000000 0.392582
    32 4.525584 0.000309 1.850224 -0.020855 -0.027996 0.584870
    33 1.433228 -0.000003 0.000000 0.000000 0.000000 0.479784
    34 1.153038 -0.000001 0.000000 0.000000 0.000000 0.479842
    35 9.341949 0.000000 0.000007 0.000000 0.000000 -1.191206
    36 11.168407 0.000002 0.000011 1.668334 -0.507066 0.563733
    37 1.364906 0.231175 1.984408 -3.421733 -0.129918 0.826221
    38 1.748534 0.000002 -0.000001 0.000000 0.000000 0.096094
    39 1.272493 0.000003 0.000002 0.000000 0.000000 0.095889
    40 4.525587 -0.000302 1.850221 -0.024587 -0.092921 0.280295
    41 1.719872 0.000007 0.000000 0.000000 0.000000 0.174474
    42 1.383647 0.000004 -0.000001 0.000000 0.000000 0.837557
    43 4.525585 -0.000102 0.616738 -0.034592 -0.039460 0.759844
    44 1.807677 -0.000002 -0.000002 0.000000 0.000000 0.654460
    45 1.614256 0.000001 0.000000 0.000000 0.000000 0.654446
    46 4.525587 0.000102 -0.616743 -0.025359 -0.023984 0.872714
    47 1.719867 0.000001 0.000001 0.000000 0.000000 0.767933
    48 1.383648 0.000001 -0.000001 0.000000 0.000000 0.767909
    49 4.525586 0.000303 -1.850223 0.031378 0.015460 1.055910
    50 1.433227 0.000002 0.000000 0.000000 0.000000 0.950968
    51 1.153036 0.000004 0.000000 0.000000 0.000000 0.951143
    52 7.223970 5.068054 1.800000 -3.141592 -0.000002 1.570798
    53 7.223960 5.068053 -1.800000 -3.141592 -0.000002 1.570798
    54 7.223950 5.068052 0.000000 -3.141592 -0.000002 1.570798
    55 3.723979 2.768055 -0.395205 -3.141592 -0.000098 1.570894
    56 20.747295 -0.313698 4.522630 0.003878 0.001942 1.564441
    57 2.448332 0.177352 0.168606 1.543132 0.019570 -3.045716
  time 3
    0 0.021128 -0.077259 27.258918 0.000000 0.078343 -1.570987
    1 -0.432288 0.000001 9.745319 -1.570764 -1.570457 0.000000
    2 -0.000009 0.000014 5.615740 0.000000 3.141294 -0.791653
    3 15.693467 0.000042 -0.000137 -0.000002 0.000005 -0.887327
    4 22.146626 -0.000002 0.000000 0.000000 0.000000 0.182994
    5 0.000009 -0.000011 -5.615755 0.000000 3.141198 -0.704081
    6 15.693451 0.000043 -0.000136 -0.000002 0.000005 -0.288274
    7 22.146624 -0.000001 0.000000 0.000000 0.000000 -0.363111
    8 1.384163 -0.004727 0.000003 -0.000005 0.000013 0.020930
    9 5.939812 -0.004729 0.000088 0.000000 0.000000 -0.052306
    10 5.939812 -0.003975 0.000088 0.000000 0.000000 0.000000
    11 4.991436 -0.003974 0.000074 0.000000 0.000000 0.000000
    12 4.991427 -0.001574 0.000074 0.000000 0.000009 0.000016
    13 -0.001670 0.001564 3.638373 -0.000014 -1.283609 3.140794
    14 8.842823 0.000002 0.000054 0.103507 0.660989 -1.326219
    15 0.001739 0.001585 -3.638374 -0.000014 1.283577 3.140766
    16 8.842813 0.000001 -0.000025 -0.185127 -0.772002 -1.213032
    17 1.977402 -0.000032 0.003050 0.002803 0.029187 0.226237
    18 9.341940 0.000000 0.000009 0.000000 0.000000 -1.139921
    19 11.168410 0.000002 -0.000001 -1.628295 0.172252 0.140561
    20 1.364904 0.231181 -1.984410 1.091706 1.070777 0.188081
    21 1.748533 -0.000003 0.000002 0.000000 0.000000 0.061100
    22 1.272493 0.000001 -0.000003 0.000000 0.000000 0.061016
    23 4.525584 -0.000299 -1.850222 0.025390 0.092705 0.288969
    24 1.719874 -0.000007 0.000000 0.000000 0.000000 0.183187
    25 1.383651 0.000003 0.000001 0.000000 0.000000 0.183184
    26 4.525585 -0.000096 -0.616739 0.022715 0.047227 0.488960
    27 1.807677 -0.000001 -0.000002 0.000000 0.000000 0.383824
    28 1.614256 -0.000004 0.000003 0.000000 0.000000 0.383912
    29 4.525583 0.000106 0.616741 0.014884 0.031642 0.497483
    30 1.719871 -0.000003 0.000000 0.000000 0.000000 0.392583
    31 1.383651 -0.000001 0.000001 0.000000 0.000000 0.392582
    32 4.525584 0.000309 1.850224 -0.020855 -0.027996 0.584870
    33 1.433228 -0.000003 0.000000 0.000000 0.000000 0.479784
    34 1.153038 -0.000001 0.000000 0.000000 0.000000 0.479842
    35 9.341949 0.000000 0.000007 0.000000 0.000000 -1.179015
    36 11.168407 0.000002 0.000011 1.668334 -0.507066 0.563733
    37 1.364906 0.231175 1.984408 -3.421733 -0.129918 0.826221
    38 1.748534 0.000002 -0.000001 0.000000 0.000000 0.096094
    39 1.272493 0.000003 0.000002 0.000000 0.000000 0.095889
    40 4.525587 -0.000302 1.850221 -0.024587 -0.092921 0.280295
    41 1.719872 0.000007 0.000000 0.000000 0.000000 0.174474
    42 1.383647 0.000004 -0.000001 0.000000 0.000000 0.837557
    43 4.525585 -0.000102 0.616738 -0.034592 -0.039460 0.759844
    44 1.807677 -0.000002 -0.000002 0.000000 0.000000 0.654460
    45 1.614256 0.000001 0.000000 0.000000 0.000000 0.654446
    46 4.525587 0.000102 -0.616743 -0.025359 -0.023984 0.872714
    47 1.719867 0.000001 0.000001 0.000000 0.000000 0.767933
    48 1.383648 0.000001 -0.000001 0.000000 0.000000 0.767909
    49 4.525586 0.000303 -1.850223 0.031378 0.015460 1.055910
    50 1.433227 0.000002 0.000000 0.000000 0.000000 0.950968
    51 1.153036 0.000004 0.000000 0.000000 0.000000 0.951143
    52 7.223970 5.068054 1.800000 -3.141592 -0.000002 1.570798
    53 7.223960 5.068053 -1.800000 -3.141592 -0.000002 1.570798
    54 7.223950 5.068052 0.000000 -3.141592 -0.000002 1.570798
    55 3.723979 2.768055 -0.395205 -3.141592 -0.000098 1.570894
    56 20.747295 -0.313698 4.522630 0.003878 0.001942 1.564441
    57 2.448332 0.177352 0.168606 1.543132 0.019570 -3.045716
  time 4
    0 0.021128 -0.077259 27.121732 0.000000 0.078343 -1.570987
    1 -0.498696 0.000001 9.745319 -1.570764 -1.570457 0.000000
    2 -0.000009 0.000014 5.615740 0.000000 3.141294 -0.803122
    3 15.693467 0.000042 -0.000137 -0.000002 0.000005 -0.901128
    4 22.146626 -0.000002 0.000000 0.000000 0.000000 0.185783
    5 0.000009 -0.000011 -5.615755 0.000000 3.141198 -0.724595
    6 15.693451 0.000043 -0.000136 -0.000002 0.000005 -0.317749
    7 22.146624 -0.000001 0.000000 0.000000 0.000000 -0.354127
    8 1.384163 -0.004727 0.000003 -0.000005 0.000013 0.027971
    9 5.939812 -0.004729 0.000088 0.000000 0.000000 -0.052306
    10 5.939812 -0.003975 0.000088 0.000000 0.000000 0.000000
    11 4.991436 -0.003974 0.000074 0.000000 0.000000 0.000000
    12 4.991427 -0.001574 0.000074 0.000000 0.000009 0.000016
    13 -0.001670 0.001564 3.638373 -0.000014 -1.283609 3.140794
    14 8.842823 0.000002 0.000054 0.103599 0.658291 -1.330997
    15 0.001739 0.001585 -3.638374 -0.000014 1.283577 3.140766
    16 8.842813 0.000001 -0.000025 -0.182869 -0.769700 -1.219892
    17 1.977402 -0.000032 0.003050 0.003966 0.039485 0.226237
    18 9.341940 0.000000 0.000009 0.000000 0.000000 -1.129260
    19 11.168410 0.000002 -0.000001 -1.628295 0.172252 0.140561
    20 1.364904 0.231181 -1.984410 1.091706 1.070777 0.188081
    21 1.748533 -0.000003 0.000002 0.000000 0.000000 0.061100
    22 1.272493 0.000001 -0.000003 0.000000 0.000000 0.061016
    23 4.525584 -0.000299 -1.850222 0.025390 0.092705 0.288969
    24 1.719874 -0.000007 0.000000 0.000000 0.000000 0.183187
    25 1.383651 0.000003 0.000001 0.000000 0.000000 0.183184
    26 4.525585 -0.000096 -0.616739 0.022715 0.047227 0.488960
    27 1.807677 -0.000001 -0.000002 0.000000 0.000000 0.383824
    28 1.614256 -0.000004 0.000003 0.000000 0.000000 0.383912
    29 4.525583 0.000106 0.616741 0.014884 0.031642 0.497483
    30 1.719871 -0.000003 0.000000 0.000000 0.000000 0.392583
    31 1.383651 -0.000001 0.000001 0.000000 0.000000 0.392582
    32 4.525584 0.000309 1.850224 -0.020855 -0.027996 0.584870
    33 1.433228 -0.000003 0.000000 0.000000 0.000000 0.479784
    34 1.153038 -0.000001 0.000000 0.000000 0.000000 0.479842
    35 9.341949 0.000000 0.000007 0.000000 0.000000 -1.167023
    36 11.168407 0.000002 0.000011 1.668334 -0.507066 0.563733
    37 1.364906 0.231175 1.984408 -3.421733 -0.129918 0.826221
    38 1.748534 0.000002 -0.000001 0.000000 0.000000 0.096094
    39 1.272493 0.000003 0.000002 0.000000 0.000000 0.095889
    40 4.525587 -0.000302 1.850221 -0.024587 -0.092921 0.280295
    41 1.719872 0.000007 0.000000 0.000000 0.000000 0.174474
    42 1.383647 0.000004 -0.000001 0.000000 0.000000 0.837557
    43 4.525585 -0.000102 0.616738 -0.034592 -0.039460 0.759844
    44 1.807677 -0.000002 -0.000002 0.000000 0.000000 0.654460
    45 1.614256 0.000001 0.000000 0.000000 0.000000 0.654446
    46 4.525587 0.000102 -0.616743 -0.025359 -0.023984 0.872714
    47 1.719867 0.000001 0.000001 0.000000 0.000000 0.767933
    48 1.383648 0.000001 -0.000001 0.000000 0.000000 0.767909
    49 4.525586 0.000303 -1.850223 0.031378 0.015460 1.055910
    50 1.433227 0.000002 0.000000 0.000000 0.000000 0.950968
    51 1.153036 0.000004 0.000000 0.000000 0.000000 0.951143
    52 7.223970 5.068054 1.800000 -3.141592 -0.000002 1.570798
    53 7.223960 5.068053 -1.800000 -3.141592 -0.000002 1.570798
    54 7.223950 5.068052 0.000000 -3.141592 -0.000002 1.570798
    55 3.723979 2.768055 -0.395205 -3.141592 -0.000098 1.570894
    56 20.747295 -0.313698 4.522630 0.003878 0.001942 1.564441
    57 2.448332 0.177352 0.168606 1.543132 0.019570 -3.045716
  time 5
    0 0.021128 -0.077259 27.004143 0.000000 0.078343 -1.570987
    1 -0.557292 0.000001 9.745319 -1.570764 -1.570457 0.000000
    2 -0.000009 0.000014 5.615740 0.000000 3.141294 -0.812965
    3 15.693467 0.000042 -0.000137 -0.000002 0.000005 -0.913577
    4 22.146626 -0.000002 0.000000 0.000000 0.000000 0.188252
    5 0.000009 -0.000011 -5.615755 0.000000 3.141198 -0.741657
    6 15.693451 0.000043 -0.000136 -0.000002 0.000005 -0.342162
    7 22.146624 -0.000001 0.000000 0.000000 0.000000 -0.346464
    8 1.384163 -0.004727 0.000003 -0.000005 0.000013 0.034323
    9 5.939812 -0.004729 0.000088 0.000000 0.000000 -0.052306
    10 5.939812 -0.003975 0.000088 0.000000 0.000000 0.000000
    11 4.991436 -0.003974 0.000074 0.000000 0.000000 0.000000
    12 4.991427 -0.001574 0.000074 0.000000 0.000009 0.000016
    13 -0.001670 0.001564 3.638373 -0.000014 -1.283609 3.140794
    14 8.842823 0.000002 0.000054 0.103599 0.656803 -1.335401
    15 0.001739 0.001585 -3.638374 -0.000014 1.283577 3.140766
    16 8.842813 0.000001 -0.000025 -0.180934 -0.767664 -1.225895
    17 1.977402 -0.000032 0.003050 0.005499 0.048487 0.226436
    18 9.341940 0.000000 0.000009 0.000000 0.000000 -1.120650
    19 11.168410 0.000002 -0.000001 -1.628295 0.172252 0.140561
    20 1.364904 0.231181 -1.984410 1.091706 1.070777 0.188081
    21 1.748533 -0.000003 0.000002 0.000000 0.000000 0.061100
    22 1.272493 0.000001 -0.000003 0.000000 0.000000 0.061016
    23 4.525584 -0.000299 -1.850222 0.025390 0.092705 0.288969
    24 1.719874 -0.000007 0.000000 0.000000 0.000000 0.183187
    25 1.383651 0.000003 0.000001 0.000000 0.000000 0.183184
    26 4.525585 -0.000096 -0.616739 0.022715 0.047227 0.488960
    27 1.807677 -0.000001 -0.000002 0.000000 0.000000 0.383824
    28 1.614256 -0.000004 0.000003 0.000000 0.000000 0.383912
    29 4.525583 0.000106 0.616741 0.014884 0.031642 0.497483
    30 1.719871 -0.000003 0.000000 0.000000 0.000000 0.392583
    31 1.383651 -0.000001 0.000001 0.000000 0.000000 0.392582
    32 4.525584 0.000309 1.850224 -0.020855 -0.027996 0.584870
    33 1.433228 -0.000003 0.000000 0.000000 0.000000 0.479784
    34 1.153038 -0.000001 0.000000 0.000000 0.000000 0.479842
    35 9.341949 0.000000 0.000007 0.000000 0.000000 -1.156298
    36 11.168407 0.000002 0.000011 1.668334 -0.507066 0.563733
    37 1.364906 0.231175 1.984408 -3.421733 -0.129918 0.826221
    38 1.748534 0.000002 -0.000001 0.000000 0.000000 0.096094
    39 1.272493 0.000003 0.000002 0.000000 0.000000 0.095889
    40 4.525587 -0.000302 1.850221 -0.024587 -0.092921 0.280295
    41 1.719872 0.000007 0.000000 0.000000 0.000000 0.174474
    42 1.383647 0.000004 -0.000001 0.000000 0.000000 0.837557
    43 4.525585 -0.000102 0.616738 -0.034592 -0.039460 0.759844
    44 1.807677 -0.000002 -0.000002 0.000000 0.000000 0.654460
    45 1.614256 0.000001 0.000000 0.000000 0.000000 0.654446
    46 4.525587 0.000102 -0.616743 -0.025359 -0.023984 0.872714
    47 1.719867 0.000001 0.000001 0.000000 0.000000 0.767933
    48 1.383648 0.000001 -0.000001 0.000000 0.000000 0.767909
    49 4.525586 0.000303 -1.850223 0.031378 0.015460 1.055910
    50 1.433227 0.000002 0.000000 0.000000 0.000000 0.950968
    51 1.153036 0.000004 0.000000 0.000000 0.000000 0.951143
    52 7.223970 5.068054 1.800000 -3.141592 -0.000002 1.570798
    53 7.223960 5.068053 -1.800000 -3.141592 -0.000002 1.570798
    54 7.223950 5.068052 0.000000 -3.141592 -0.000002 1.570798
    55 3.723979 2.768055 -0.395205 -3.141592 -0.000098 1.570894
    56 20.747295 -0.313698 4.522630 0.003878 0.001942 1.564441
    57 2.448332 0.177352 0.168606 1.543132 0.019570 -3.045716
  time 6
    0 0.021128 -0.077259 26.906153 0.000000 0.078343 -1.570987
    1 -0.608075 0.000001 9.745319 -1.570764 -1.570457 0.000000
    2 -0.000009 0.000014 5.615740 0.000000 3.141294 -0.820707
    3 15.693467 0.000042 -0.000137 -0.000002 0.000005 -0.923536
    4 22.146626 -0.000002 0.000000 0.000000 0.000000 0.190127
    5 0.000009 -0.000011 -5.615755 0.000000 3.141198 -0.755173
    6 15.693451 0.000043 -0.000136 -0.000002 0.000005 -0.360770
    7 22.146624 -0.000001 0.000000 0.000000 0.000000 -0.341620
    8 1.384163 -0.004727 0.000003 -0.000005 0.000013 0.039596
    9 5.939812 -0.004729 0.000088 0.000000 0.000000 -0.052306
    10 5.939812 -0.003975 0.000088 0.000000 0.000000 0.000000
    11 4.991436 -0.003974 0.000074 0.000000 0.000000 0.000000
    12 4.991427 -0.001574 0.000074 0.000000 0.000009 0.000016
    13 -0.001670 0.001564 3.638373 -0.000014 -1.283609 3.140794
    14 8.842823 0.000002 0.000054 0.103599 0.654663 -1.338835
    15 0.001739 0.001585 -3.638374 -0.000014 1.283577 3.140766
    16 8.842813 0.000001 -0.000025 -0.179241 -0.765982 -1.230850
    17 1.977402 -0.000032 0.003050 0.008036 0.055683 0.227131
    18 9.341940 0.000000 0.000009 0.000000 0.000000 -1.113188
    19 11.168410 0.000002 -0.000001 -1.628295 0.172252 0.140561
    20 1.364904 0.231181 -1.984410 1.091706 1.070777 0.188081
    21 1.748533 -0.000003 0.000002 0.000000 0.000000 0.061100
    22 1.272493 0.000001 -0.000003 0.000000 0.000000 0.061016
    23 4.525584 -0.000299 -1.850222 0.025390 0.092705 0.288969
    24 1.719874 -0.000007 0.000000 0.000000 0.000000 0.183187
    25 1.383651 0.000003 0.000001 0.000000 0.000000 0.183184
    26 4.525585 -0.000096 -0.616739 0.022715 0.047227 0.488960
    27 1.807677 -0.000001 -0.000002 0.000000 0.000000 0.383824
    28 1.614256 -0.000004 0.000003 0.000000 0.000000 0.383912
    29 4.525583 0.000106 0.616741 0.014884 0.031642 0.497483
    30 1.719871 -0.000003 0.000000 0.000000 0.000000 0.392583
    31 1.383651 -0.000001 0.000001 0.000000 0.000000 0.392582
    32 4.525584 0.000309 1.850224 -0.020855 -0.027996 0.584870
    33 1.433228 -0.000003 0.000000 0.000000 0.000000 0.479784
    34 1.153038 -0.000001 0.000000 0.000000 0.000000 0.479842
    35 9.341949 0.000000 0.000007 0.000000 0.000000 -1.147438
    36 11.168407 0.000002 0.000011 1.668334 -0.507066 0.563733
    37 1.364906 0.231175 1.984408 -3.421733 -0.129918 0.826221
    38 1.748534 0.000002 -0.000001 0.000000 0.000000 0.096094
    39 1.272493 0.000003 0.000002 0.000000 0.000000 0.095889
    40 4.525587 -0.000302 1.850221 -0.024587 -0.092921 0.280295
    41 1.719872 0.000007 0.000000 0.000000 0.000000 0.174474
    42 1.383647 0.000004 -0.000001 0.000000 0.000000 0.837557
    43 4.525585 -0.000102 0.616738 -0.034592 -0.039460 0.759844
    44 1.807677 -0.000002 -0.000002 0.000000 0.000000 0.654460
    45 1.614256 0.000001 0.000000 0.000000 0.000000 0.654446
    46 4.525587 0.000102 -0.616743 -0.025359 -0.023984 0.872714
    47 1.719867 0.000001 0.000001 0.000000 0.000000 0.767933
    48 1.383648 0.000001 -0.000001 0.000000 0.000000 0.767909
    49 4.525586 0.000303 -1.850223 0.031378 0.015460 1.055910
    50 1.433227 0.000002 0.000000 0.000000 0.000000 0.950968
    51 1.153036 0.000004 0.000000 0.000000 0.000000 0.951143
    52 7.223970 5.068054 1.800000 -3.141592 -0.000002 1.570798
    53 7.223960 5.068053 -1.800000 -3.141592 -0.000002 1.570798
    54 7.223950 5.068052 0.000000 -3.141592 -0.000002 1.570798
    55 3.723979 2.768055 -0.395205 -3.141592 -0.000098 1.570894
    56 20.747295 -0.313698 4.522630 0.003878 0.001942 1.564441
    57 2.448332 0.177352 0.168606 1.543132 0.019570 -3.045716
  time 7
    0 0.021128 -0.077259 26.827761 0.000000 0.078343 -1.570987
    1 -0.639326 0.000001 9.745319 -1.570764 -1.570457 0.000000
    2 -0.000009 0.000014 5.615740 0.000000 3.141294 -0.826154
    3 15.693467 0.000042 -0.000137 -0.000002 0.000005 -0.930152
    4 22.146626 -0.000002 0.000000 0.000000 0.000000 0.191453
    5 0.000009 -0.000011 -5.615755 0.000000 3.141198 -0.763512
    6 15.693451 0.000043 -0.000136 -0.000002 0.000005 -0.372679
    7 22.146624 -0.000001 0.000000 0.000000 0.000000 -0.338273
    8 1.384163 -0.004727 0.000003 -0.000005 0.000013 0.043072
    9 5.939812 -0.004729 0.000088 0.000000 0.000000 -0.052306
    10 5.939812 -0.003975 0.000088 0.000000 0.000000 0.000000
    11 4.991436 -0.003974 0.000074 0.000000 0.000000 0.000000
    12 4.991427 -0.001574 0.000074 0.000000 0.000009 0.000016
    13 -0.001670 0.001564 3.638373 -0.000014 -1.283609 3.140794
    14 8.842823 0.000002 0.000054 0.103782 0.654012 -1.341224
    15 0.001739 0.001585 -3.638374 -0.000014 1.283577 3.140766
    16 8.842813 0.000001 -0.000025 -0.178435 -0.765185 -1.234090
    17 1.977402 -0.000032 0.003050 0.011631 0.060126 0.228423
    18 9.341940 0.000000 0.000009 0.000000 0.000000 -1.107611
    19 11.168410 0.000002 -0.000001 -1.628295 0.172252 0.140561
    20 1.364904 0.231181 -1.984410 1.091706 1.070777 0.188081
    21 1.748533 -0.000003 0.000002 0.000000 0.000000 0.061100
    22 1.272493 0.000001 -0.000003 0.000000 0.000000 0.061016
    23 4.525584 -0.000299 -1.850222 0.025390 0.092705 0.288969
    24 1.719874 -0.000007 0.000000 0.000000 0.000000 0.183187
    25 1.383651 0.000003 0.000001 0.000000 0.000000 0.183184
    26 4.525585 -0.000096 -0.616739 0.022715 0.047227 0.488960
    27 1.807677 -0.000001 -0.000002 0.000000 0.000000 0.383824
    28 1.614256 -0.000004 0.000003 0.000000 0.000000 0.383912
    29 4.525583 0.000106 0.616741 0.014884 0.031642 0.497483
    30 1.719871 -0.000003 0.000000 0.000000 0.000000 0.392583
    31 1.383651 -0.000001 0.000001 0.000000 0.000000 0.392582
    32 4.525584 0.000309 1.850224 -0.020855 -0.027996 0.584870
    33 1.433228 -0.000003 0.000000 0.000000 0.000000 0.479784
    34 1.153038 -0.000001 0.000000 0.000000 0.000000 0.479842
    35 9.341949 0.000000 0.000007 0.000000 0.000000 -1.141509
    36 11.168407 0.000002 0.000011 1.668334 -0.507066 0.563733
    37 1.364906 0.231175 1.984408 -3.421733 -0.129918 0.826221
    38 1.748534 0.000002 -0.000001 0.000000 0.000000 0.096094
    39 1.272493 0.000003 0.000002 0.000000 0.000000 0.095889
    40 4.525587 -0.000302 1.850221 -0.024587 -0.092921 0.280295
    41 1.719872 0.000007 0.000000 0.000000 0.000000 0.174474
    42 1.383647 0.000004 -0.000001 0.000000 0.000000 0.837557
    43 4.525585 -0.000102 0.616738 -0.034592 -0.039460 0.759844
    44 1.807677 -0.000002 -0.000002 0.000000 0.000000 0.654460
    45 1.614256 0.000001 0.000000 0.000000 0.000000 0.654446
    46 4.525587 0.000102 -0.616743 -0.025359 -0.023984 0.872714
    47 1.719867 0.000001 0.000001 0.000000 0.000000 0.767933
    48 1.383648 0.000001 -0.000001 0.000000 0.000000 0.767909
    49 4.525586 0.000303 -1.850223 0.031378 0.015460 1.055910
    50 1.433227 0.000002 0.000000 0.000000 0.000000 0.950968
    51 1.153036 0.000004 0.000000 0.000000 0.000000 0.951143
    52 7.223970 5.068054 1.800000 -3.141592 -0.000002 1.570798
    53 7.223960 5.068053 -1.800000 -3.141592 -0.000002 1.570798
    54 7.223950 5.068052 0.000000 -3.141592 -0.000002 1.570798
    55 3.723979 2.768055 -0.395205 -3.141592 -0.000098 1.570894
    56 20.747295 -0.313698 4.522630 0.003878 0.001942 1.564441
    57 2.448332 0.177352 0.168606 1.543132 0.019570 -3.045716
  time 8
    0 0.021128 -0.077259 26.808163 0.000000 0.078343 -1.570987
    1 -0.651045 0.000001 9.745319 -1.570764 -1.570457 0.000000
    2 -0.000009 0.000014 5.615740 0.000000 3.141294 -0.828353
    3 15.693467 0.000042 -0.000137 -0.000002 0.000005 -0.932428
    4 22.146626 -0.000002 0.000000 0.000000 0.000000 0.191819
    5 0.000009 -0.000011 -5.615755 0.000000 3.141198 -0.766867
    6 15.693451 0.000043 -0.000136 -0.000002 0.000005 -0.376847
    7 22.146624 -0.000001 0.000000 0.000000 0.000000 -0.337040
    8 1.384163 -0.004727 0.000003 -0.000005 0.000013 0.044390
    9 5.939812 -0.004729 0.000088 0.000000 0.000000 -0.052306
    10 5.939812 -0.003975 0.000088 0.000000 0.000000 0.000000
    11 4.991436 -0.003974 0.000074 0.000000 0.000000 0.000000
    12 4.991427 -0.001574 0.000074 0.000000 0.000009 0.000016
    13 -0.001670 0.001564 3.638373 -0.000014 -1.283609 3.140794
    14 8.842823 0.000002 0.000054 0.103782 0.653547 -1.342045
    15 0.001739 0.001585 -3.638374 -0.000014 1.283577 3.140766
    16 8.842813 0.000001 -0.000025 -0.177951 -0.764654 -1.235329
    17 1.977402 -0.000032 0.003050 0.017234 0.060867 0.230411
    18 9.341940 0.000000 0.000009 0.000000 0.000000 -1.105807
    19 11.168410 0.000002 -0.000001 -1.628295 0.172252 0.140561
    20 1.364904 0.231181 -1.984410 1.091706 1.070777 0.188081
    21 1.748533 -0.000003 0.000002 0.000000 0.000000 0.061100
    22 1.272493 0.000001 -0.000003 0.000000 0.000000 0.061016
    23 4.525584 -0.000299 -1.850222 0.025390 0.092705 0.288969
    24 1.719874 -0.000007 0.000000 0.000000 0.000000 0.183187
    25 1.383651 0.000003 0.000001 0.000000 0.000000 0.183184
    26 4.525585 -0.000096 -0.616739 0.022715 0.047227 0.488960
    27 1.807677 -0.000001 -0.000002 0.000000 0.000000 0.383824
    28 1.614256 -0.000004 0.000003 0.000000 0.000000 0.383912
    29 4.525583 0.000106 0.616741 0.014884 0.031642 0.497483
    30 1.719871 -0.000003 0.000000 0.000000 0.000000 0.392583
    31 1.383651 -0.000001 0.000001 0.000000 0.000000 0.392582
    32 4.525584 0.000309 1.850224 -0.020855 -0.027996 0.584870
    33 1.433228 -0.000003 0.000000 0.000000 0.000000 0.479784
    34 1.153038 -0.000001 0.000000 0.000000 0.000000 0.479842
    35 9.341949 0.000000 0.000007 0.000000 0.000000 -1.139244
    36 11.168407 0.000002 0.000011 1.668334 -0.507066 0.563733
    37 1.364906 0.231175 1.984408 -3.421733 -0.129918 0.826221
    38 1.748534 0.000002 -0.000001 0.000000 0.000000 0.096094
    39 1.272493 0.000003 0.000002 0.000000 0.000000 0.095889
    40 4.525587 -0.000302 1.850221 -0.024587 -0.092921 0.280295
    41 1.719872 0.000007 0.000000 0.000000 0.000000 0.174474
    42 1.383647 0.000004 -0.000001 0.000000 0.000000 0.837557
    43 4.525585 -0.000102 0.616738 -0.034592 -0.039460 0.759844
    44 1.807677 -0.000002 -0.000002 0.000000 0.000000 0.654460
    45 1.614256 0.000001 0.000000 0.000000 0.000000 0.654446
    46 4.525587 0.000102 -0.616743 -0.025359 -0.023984 0.872714
    47 1.719867 0.000001 0.000001 0.000000 0.000000 0.767933
    48 1.383648 0.000001 -0.000001 0.000000 0.000000 0.767909
    49 4.525586 0.000303 -1.850223 0.031378 0.015460 1.055910
    50 1.433227 0.000002 0.000000 0.000000 0.000000 0.950968
    51 1.153036 0.000004 0.000000 0.000000 0.000000 0.951143
    52 7.223970 5.068054 1.800000 -3.141592 -0.000002 1.570798
    53 7.223960 5.068053 -1.800000 -3.141592 -0.000002 1.570798
    54 7.223950 5.068052 0.000000 -3.141592 -0.000002 1.570798
    55 3.723979 2.768055 -0.395205 -3.141592 -0.000098 1.570894
    56 20.747295 -0.313698 4.522630 0.003878 0.001942 1.564441
    57 2.448332 0.177352 0.168606 1.543132 0.019570 -3.045716
  time 9
    0 0.021128 -0.077259 26.847359 0.000000 0.078343 -1.570987
    1 -0.639326 0.000001 9.745319 -1.570764 -1.570457 0.000000
    2 -0.000009 0.000014 5.615740 0.000000 3.141294 -0.825485
    3 15.693467 0.000042 -0.000137 -0.000002 0.000005 -0.929298
    4 22.146626 -0.000002 0.000000 0.000000 0.000000 0.191316
    5 0.000009 -0.000011 -5.615755 0.000000 3.141198 -0.762649
    6 15.693451 0.000043 -0.000136 -0.000002 0.000005 -0.371488
    7 22.146624 -0.000001 0.000000 0.000000 0.000000 -0.338449
    8 1.384163 -0.004727 0.000003 -0.000005 0.000013 0.042742
    9 5.939812 -0.004729 0.000088 0.000000 0.000000 -0.052306
    10 5.939812 -0.003975 0.000088 0.000000 0.000000 0.000000
    11 4.991436 -0.003974 0.000074 0.000000 0.000000 0.000000
    12 4.991427 -0.001574 0.000074 0.000000 0.000009 0.000016
    13 -0.001670 0.001564 3.638373 -0.000014 -1.283609 3.140794
    14 8.842823 0.000002 0.000054 0.103782 0.654105 -1.340776
    15 0.001739 0.001585 -3.638374 -0.000014 1.283577 3.140766
    16 8.842813 0.000001 -0.000025 -0.178435 -0.765362 -1.233709
    17 1.977402 -0.000032 0.003050 0.033886 0.042539 0.228920
    18 9.341940 0.000000 0.000009 0.000000 0.000000 -1.108677
    19 11.168410 0.000002 -0.000001 -1.628295 0.172252 0.140561
    20 1.364904 0.231181 -1.984410 1.091706 1.070777 0.188081
    21 1.748533 -0.000003 0.000002 0.000000 0.000000 0.061100
    22 1.272493 0.000001 -0.000003 0.000000 0.000000 0.061016
    23 4.525584 -0.000299 -1.850222 0.025390 0.092705 0.288969
    24 1.719874 -0.000007 0.000000 0.000000 0.000000 0.183187
    25 1.383651 0.000003 0.000001 0.000000 0.000000 0.183184
    26 4.525585 -0.000096 -0.616739 0.022715 0.047227 0.488960
    27 1.807677 -0.000001 -0.000002 0.000000 0.000000 0.383824
    28 1.614256 -0.000004 0.000003 0.000000 0.000000 0.383912
    29 4.525583 0.000106 0.616741 0.014884 0.031642 0.497483
    30 1.719871 -0.000003 0.000000 0.000000 0.000000 0.392583
    31 1.383651 -0.000001 0.000001 0.000000 0.000000 0.392582
    32 4.525584 0.000309 1.850224 -0.020855 -0.027996 0.584870
    33 1.433228 -0.000003 0.000000 0.000000 0.000000 0.479784
    34 1.153038 -0.000001 0.000000 0.000000 0.000000 0.479842
    35 9.341949 0.000000 0.000007 0.000000 0.000000 -1.142242
    36 11.168407 0.000002 0.000011 1.668334 -0.507066 0.563733
    37 1.364906 0.231175 1.984408 -3.421733 -0.129918 0.826221
    38 1.748534 0.000002 -0.000001 0.000000 0.000000 0.096094
    39 1.272493 0.000003 0.000002 0.000000 0.000000 0.095889
    40 4.525587 -0.000302 1.850221 -0.024587 -0.092921 0.280295
    41 1.719872 0.000007 0.000000 0.000000 0.000000 0.174474
    42 1.383647 0.000004 -0.000001 0.000000 0.000000 0.837557
    43 4.525585 -0.000102 0.616738 -0.034592 -0.039460 0.759844
    44 1.807677 -0.000002 -0.000002 0.000000 0.000000 0.654460
    45 1.614256 0.000001 0.000000 0.000000 0.000000 0.654446
    46 4.525587 0.000102 -0.616743 -0.025359 -0.023984 0.872714
    47 1.719867 0.000001 0.000001 0.000000 0.000000 0.767933
    48 1.383648 0.000001 -0.000001 0.000000 0.000000 0.767909
    49 4.525586 0.000303 -1.850223 0.031378 0.015460 1.055910
    50 1.433227 0.000002 0.000000 0.000000 0.000000 0.950968
    51 1.153036 0.000004 0.000000 0.000000 0.000000 0.951143
    52 7.223970 5.068054 1.800000 -3.141592 -0.000002 1.570798
    53 7.223960 5.068053 -1.800000 -3.141592 -0.000002 1.570798
    54 7.223950 5.068052 0.000000 -3.141592 -0.000002 1.570798
    55 3.723979 2.768055 -0.395205 -3.141592 -0.000098 1.570894
    56 20.747295 -0.313698 4.522630 0.003878 0.001942 1.564441
    57 2.448332 0.177352 0.168606 1.543132 0.019570 -3.045716
  time 10
    0 0.021128 -0.077259 26.925751 0.000000 0.078343 -1.570987
    1 -0.596356 0.000001 9.745319 -1.570764 -1.570457 0.000000
    2 -0.000009 0.000014 5.615740 0.000000 3.141294 -0.818987
    3 15.693467 0.000042 -0.000137 -0.000002 0.000005 -0.920975
    4 22.146626 -0.000002 0.000000 0.000000 0.000000 0.189624
    5 0.000009 -0.000011 -5.615755 0.000000 3.141198 -0.751626
    6 15.693451 0.000043 -0.000136 -0.000002 0.000005 -0.355932
    7 22.146624 -0.000001 0.000000 0.000000 0.000000 -0.342941
    8 1.384163 -0.004727 0.000003 -0.000005 0.000013 0.038248
    9 5.939812 -0.004729 0.000088 0.000000 0.000000 -0.052306
    10 5.939812 -0.003975 0.000088 0.000000 0.000000 0.000000
    11 4.991436 -0.003974 0.000074 0.000000 0.000000 0.000000
    12 4.991427 -0.001574 0.000074 0.000000 0.000009 0.000016
    13 -0.001670 0.001564 3.638373 -0.000014 -1.283609 3.140794
    14 8.842823 0.000002 0.000054 0.103599 0.655128 -1.337790
    15 0.001739 0.001585 -3.638374 -0.000014 1.283577 3.140766
    16 8.842813 0.000001 -0.000025 -0.179725 -0.766336 -1.229612
    17 1.977402 -0.000032 0.003050 0.057991 0.008384 0.223156
    18 9.341940 0.000000 0.000009 0.000000 0.000000 -1.115156
    19 11.168410 0.000002 -0.000001 -1.628295 0.172252 0.140561
    20 1.364904 0.231181 -1.984410 1.091706 1.070777 0.188081
    21 1.748533 -0.000003 0.000002 0.000000 0.000000 0.061100
    22 1.272493 0.000001 -0.000003 0.000000 0.000000 0.061016
    23 4.525584 -0.000299 -1.850222 0.025390 0.092705 0.288969
    24 1.719874 -0.000007 0.000000 0.000000 0.000000 0.183187
    25 1.383651 0.000003 0.000001 0.000000 0.000000 0.183184
    26 4.525585 -0.000096 -0.616739 0.022715 0.047227 0.488960
    27 1.807677 -0.000001 -0.000002 0.000000 0.000000 0.383824
    28 1.614256 -0.000004 0.000003 0.000000 0.000000 0.383912
    29 4.525583 0.000106 0.616741 0.014884 0.031642 0.497483
    30 1.719871 -0.000003 0.000000 0.000000 0.000000 0.392583
    31 1.383651 -0.000001 0.000001 0.000000 0.000000 0.392582
    32 4.525584 0.000309 1.850224 -0.020855 -0.027996 0.584870
    33 1.433228 -0.000003 0.000000 0.000000 0.000000 0.479784
    34 1.153038 -0.000001 0.000000 0.000000 0.000000 0.479842
    35 9.341949 0.000000 0.000007 0.000000 0.000000 -1.149769
    36 11.168407 0.000002 0.000011 1.668334 -0.507066 0.563733
    37 1.364906 0.231175 1.984408 -3.421733 -0.129918 0.826221
    38 1.748534 0.000002 -0.000001 0.000000 0.000000 0.096094
    39 1.272493 0.000003 0.000002 0.000000 0.000000 0.095889
    40 4.525587 -0.000302 1.850221 -0.024587 -0.092921 0.280295
    41 1.719872 0.000007 0.000000 0.000000 0.000000 0.174474
    42 1.383647 0.000004 -0.000001 0.000000 0.000000 0.837557
    43 4.525585 -0.000102 0.616738 -0.034592 -0.039460 0.759844
    44 1.807677 -0.000002 -0.000002 0.000000 0.000000 0.654460
    45 1.614256 0.000001 0.000000 0.000000 0.000000 0.654446
    46 4.525587 0.000102 -0.616743 -0.025359 -0.023984 0.872714
    47 1.719867 0.000001 0.000001 0.000000 0.000000 0.767933
    48 1.383648 0.000001 -0.000001 0.000000 0.000000 0.767909
    49 4.525586 0.000303 -1.850223 0.031378 0.015460 1.055910
    50 1.433227 0.000002 0.000000 0.000000 0.000000 0.950968
    51 1.153036 0.000004 0.000000 0.000000 0.000000 0.951143
    52 7.223970 5.068054 1.800000 -3.141592 -0.000002 1.570798
    53 7.223960 5.068053 -1.800000 -3.141592 -0.000002 1.570798
    54 7.223950 5.068052 0.000000 -3.141592 -0.000002 1.570798
    55 3.723979 2.768055 -0.395205 -3.141592 -0.000098 1.570894
    56 20.747295 -0.313698 4.522630 0.003878 0.001942 1.564441
    57 2.448332 0.177352 0.168606 1.543132 0.019570 -3.045716
  time 11
    0 0.021128 -0.077259 27.043340 0.000000 0.078343 -1.570987
    1 -0.526041 0.000001 9.745319 -1.570764 -1.570457 0.000000
    2 -0.000009 0.000014 5.615740 0.000000 3.141294 -0.808665
    3 15.693467 0.000042 -0.000137 -0.000002 0.000005 -0.908526
    4 22.146626 -0.000002 0.000000 0.000000 0.000000 0.187246
    5 0.000009 -0.000011 -5.615755 0.000000 3.141198 -0.734755
    6 15.693451 0.000043 -0.000136 -0.000002 0.000005 -0.332263
    7 22.146624 -0.000001 0.000000 0.000000 0.000000 -0.349723
    8 1.384163 -0.004727 0.000003 -0.000005 0.000013 0.031686
    9 5.939812 -0.004729 0.000088 0.000000 0.000000 -0.052306
    10 5.939812 -0.003975 0.000088 0.000000 0.000000 0.000000
    11 4.991436 -0.003974 0.000074 0.000000 0.000000 0.000000
    12 4.991427 -0.001574 0.000074 0.000000 0.000009 0.000016
    13 -0.001670 0.001564 3.638373 -0.000014 -1.283609 3.140794
    14 8.842823 0.000002 0.000054 0.103599 0.657547 -1.333535
    15 0.001739 0.001585 -3.638374 -0.000014 1.283577 3.140766
    16 8.842813 0.000001 -0.000025 -0.181821 -0.768549 -1.223513
    17 1.977402 -0.000032 0.003050 0.069198 -0.014293 0.219578
    18 9.341940 0.000000 0.000009 0.000000 0.000000 -1.123930
    19 11.168410 0.000002 -0.000001 -1.628295 0.172252 0.140561
    20 1.364904 0.231181 -1.984410 1.091706 1.070777 0.188081
    21 1.748533 -0.000003 0.000002 0.000000 0.000000 0.061100
    22 1.272493 0.000001 -0.000003 0.000000 0.000000 0.061016
    23 4.525584 -0.000299 -1.850222 0.025390 0.092705 0.288969
    24 1.719874 -0.000007 0.000000 0.000000 0.000000 0.183187
    25 1.383651 0.000003 0.000001 0.000000 0.000000 0.183184
    26 4.525585 -0.000096 -0.616739 0.022715 0.047227 0.488960
    27 1.807677 -0.000001 -0.000002 0.000000 0.000000 0.383824
    28 1.614256 -0.000004 0.000003 0.000000 0.000000 0.383912
    29 4.525583 0.000106 0.616741 0.014884 0.031642 0.497483
    30 1.719871 -0.000003 0.000000 0.000000 0.000000 0.392583
    31 1.383651 -0.000001 0.000001 0.000000 0.000000 0.392582
    32 4.525584 0.000309 1.850224 -0.020855 -0.027996 0.584870
    33 1.433228 -0.000003 0.000000 0.000000 0.000000 0.479784
    34 1.153038 -0.000001 0.000000 0.000000 0.000000 0.479842
    35 9.341949 0.000000 0.000007 0.000000 0.000000 -1.160695
    36 11.168407 0.000002 0.000011 1.668334 -0.507066 0.563733
    37 1.364906 0.231175 1.984408 -3.421733 -0.129918 0.826221
    38 1.748534 0.000002 -0.000001 0.000000 0.000000 0.096094
    39 1.272493 0.000003 0.000002 0.000000 0.000000 0.095889
    40 4.525587 -0.000302 1.850221 -0.024587 -0.092921 0.280295
    41 1.719872 0.000007 0.000000 0.000000 0.000000 0.174474
    42 1.383647 0.000004 -0.000001 0.000000 0.000000 0.837557
    43 4.525585 -0.000102 0.616738 -0.034592 -0.039460 0.759844
    44 1.807677 -0.000002 -0.000002 0.000000 0.000000 0.654460
    45 1.614256 0.000001 0.000000 0.000000 0.000000 0.654446
    46 4.525587 0.000102 -0.616743 -0.025359 -0.023984 0.872714
    47 1.719867 0.000001 0.000001 0.000000 0.000000 0.767933
    48 1.383648 0.000001 -0.000001 0.000000 0.000000 0.767909
    49 4.525586 0.000303 -1.850223 0.031378 0.015460 1.055910
    50 1.433227 0.000002 0.000000 0.000000 0.000000 0.950968
    51 1.153036 0.000004 0.000000 0.000000 0.000000 0.951143
    52 7.223970 5.068054 1.800000 -3.141592 -0.000002 1.570798
    53 7.223960 5.068053 -1.800000 -3.141592 -0.000002 1.570798
    54 7.223950 5.068052 0.000000 -3.141592 -0.000002 1.570798
    55 3.723979 2.768055 -0.395205 -3.141592 -0.000098 1.570894
    56 20.747295 -0.313698 4.522630 0.003878 0.001942 1.564441
    57 2.448332 0.177352 0.168606 1.543132 0.019570 -3.045716
  time 12
    0 0.021128 -0.077259 27.200124 0.000000 0.078343 -1.570987
    1 -0.463539 0.000001 9.745319 -1.570764 -1.570457 0.000000
    2 -0.000009 0.000014 5.615740 0.000000 3.141294 -0.796431
    3 15.693467 0.000042 -0.000137 -0.000002 0.000005 -0.893374
    4 22.146626 -0.000002 0.000000 0.000000 0.000000 0.184228
    5 0.000009 -0.000011 -5.615755 0.000000 3.141198 -0.713284
    6 15.693451 0.000043 -0.000136 -0.000002 0.000005 -0.301523
    7 22.146624 -0.000001 0.000000 0.000000 0.000000 -0.358971
    8 1.384163 -0.004727 0.000003 -0.000005 0.000013 0.024016
    9 5.939812 -0.004729 0.000088 0.000000 0.000000 -0.052306
    10 5.939812 -0.003975 0.000088 0.000000 0.000000 0.000000
    11 4.991436 -0.003974 0.000074 0.000000 0.000000 0.000000
    12 4.991427 -0.001574 0.000074 0.000000 0.000009 0.000016
    13 -0.001670 0.001564 3.638373 -0.000014 -1.283609 3.140794
    14 8.842823 0.000002 0.000054 0.103507 0.659593 -1.328384
    15 0.001739 0.001585 -3.638374 -0.000014 1.283577 3.140766
    16 8.842813 0.000001 -0.000025 -0.183998 -0.771028 -1.215985
    17 1.977402 -0.000032 0.003050 0.060370 -0.017302 0.220721
    18 9.341940 0.000000 0.000009 0.000000 0.000000 -1.135411
    19 11.168410 0.000002 -0.000001 -1.628295 0.172252 0.140561
    20 1.364904 0.231181 -1.984410 1.091706 1.070777 0.188081
    21 1.748533 -0.000003 0.000002 0.000000 0.000000 0.061100
    22 1.272493 0.000001 -0.000003 0.000000 0.000000 0.061016
    23 4.525584 -0.000299 -1.850222 0.025390 0.092705 0.288969
    24 1.719874 -0.000007 0.000000 0.000000 0.000000 0.183187
    25 1.383651 0.000003 0.000001 0.000000 0.000000 0.183184
    26 4.525585 -0.000096 -0.616739 0.022715 0.047227 0.488960
    27 1.807677 -0.000001 -0.000002 0.000000 0.000000 0.383824
    28 1.614256 -0.000004 0.000003 0.000000 0.000000 0.383912
    29 4.525583 0.000106 0.616741 0.014884 0.031642 0.497483
    30 1.719871 -0.000003 0.000000 0.000000 0.000000 0.392583
    31 1.383651 -0.000001 0.000001 0.000000 0.000000 0.392582
    32 4.525584 0.000309 1.850224 -0.020855 -0.027996 0.584870
    33 1.433228 -0.000003 0.000000 0.000000 0.000000 0.479784
    34 1.153038 -0.000001 0.000000 0.000000 0.000000 0.479842
    35 9.341949 0.000000 0.000007 0.000000 0.000000 -1.173752
    36 11.168407 0.000002 0.000011 1.668334 -0.507066 0.563733
    37 1.364906 0.231175 1.984408 -3.421733 -0.129918 0.826221
    38 1.748534 0.000002 -0.000001 0.000000 0.000000 0.096094
    39 1.272493 0.000003 0.000002 0.000000 0.000000 0.095889
    40 4.525587 -0.000302 1.850221 -0.024587 -0.092921 0.280295
    41 1.719872 0.000007 0.000000 0.000000 0.000000 0.174474
    42 1.383647 0.000004 -0.000001 0.000000 0.000000 0.837557
    43 4.525585 -0.000102 0.616738 -0.034592 -0.039460 0.759844
    44 1.807677 -0.000002 -0.000002 0.000000 0.000000 0.654460
    45 1.614256 0.000001 0.000000 0.000000 0.000000 0.654446
    46 4.525587 0.000102 -0.616743 -0.025359 -0.023984 0.872714
    47 1.719867 0.000001 0.000001 0.000000 0.000000 0.767933
    48 1.383648 0.000001 -0.000001 0.000000 0.000000 0.767909
    49 4.525586 0.000303 -1.850223 0.031378 0.015460 1.055910
    50 1.433227 0.000002 0.000000 0.000000 0.000000 0.950968
    51 1.153036 0.000004 0.000000 0.000000 0.000000 0.951143
    52 7.223970 5.068054 1.800000 -3.141592 -0.000002 1.570798
    53 7.223960 5.068053 -1.800000 -3.141592 -0.000002 1.570798
    54 7.223950 5.068052 0.000000 -3.141592 -0.000002 1.570798
    55 3.723979 2.768055 -0.395205 -3.141592 -0.000098 1.570894
    56 20.747295 -0.313698 4.522630 0.003878 0.001942 1.564441
    57 2.448332 0.177352 0.168606 1.543132 0.019570 -3.045716
  time 13
    0 0.021128 -0.077259 27.337310 0.000000 0.078343 -1.570987
    1 -0.381505 0.000001 9.745319 -1.570764 -1.570457 0.000000
    2 -0.000009 0.000014 5.615740 0.000000 3.141294 -0.783434
    3 15.693467 0.000042 -0.000137 -0.000002 0.000005 -0.876941
    4 22.146626 -0.000002 0.000000 0.000000 0.000000 0.180845
    5 0.000009 -0.000011 -5.615755 0.000000 3.141198 -0.687690
    6 15.693451 0.000043 -0.000136 -0.000002 0.000005 -0.264382
    7 22.146624 -0.000001 0.000000 0.000000 0.000000 -0.370333
    8 1.384163 -0.004727 0.000003 -0.000005 0.000013 0.015747
    9 5.939812 -0.004729 0.000088 0.000000 0.000000 -0.052306
    10 5.939812 -0.003975 0.000088 0.000000 0.000000 0.000000
    11 4.991436 -0.003974 0.000074 0.000000 0.000000 0.000000
    12 4.991427 -0.001574 0.000074 0.000000 0.000009 0.000016
    13 -0.001670 0.001564 3.638373 -0.000014 -1.283609 3.140794
    14 8.842823 0.000002 0.000054 0.103507 0.662198 -1.322636
    15 0.001739 0.001585 -3.638374 -0.000014 1.283577 3.140766
    16 8.842813 0.000001 -0.000025 -0.186578 -0.773684 -1.208077
    17 1.977402 -0.000032 0.003050 0.041974 -0.013044 0.222957
    18 9.341940 0.000000 0.000009 0.000000 0.000000 -1.147383
    19 11.168410 0.000002 -0.000001 -1.628295 0.172252 0.140561
    20 1.364904 0.231181 -1.984410 1.091706 1.070777 0.188081
    21 1.748533 -0.000003 0.000002 0.000000 0.000000 0.061100
    22 1.272493 0.000001 -0.000003 0.000000 0.000000 0.061016
    23 4.525584 -0.000299 -1.850222 0.025390 0.092705 0.288969
    24 1.719874 -0.000007 0.000000 0.000000 0.000000 0.183187
    25 1.383651 0.000003 0.000001 0.000000 0.000000 0.183184
    26 4.525585 -0.000096 -0.616739 0.022715 0.047227 0.488960
    27 1.807677 -0.000001 -0.000002 0.000000 0.000000 0.383824
    28 1.614256 -0.000004 0.000003 0.000000 0.000000 0.383912
    29 4.525583 0.000106 0.616741 0.014884 0.031642 0.497483
    30 1.719871 -0.000003 0.000000 0.000000 0.000000 0.392583
    31 1.383651 -0.000001 0.000001 0.000000 0.000000 0.392582
    32 4.525584 0.000309 1.850224 -0.020855 -0.027996 0.584870
    33 1.433228 -0.000003 0.000000 0.000000 0.000000 0.479784
    34 1.153038 -0.000001 0.000000 0.000000 0.000000 0.479842
    35 9.341949 0.000000 0.000007 0.000000 0.000000 -1.187742
    36 11.168407 0.000002 0.000011 1.668334 -0.507066 0.563733
    37 1.364906 0.231175 1.984408 -3.421733 -0.129918 0.826221
    38 1.748534 0.000002 -0.000001 0.000000 0.000000 0.096094
    39 1.272493 0.000003 0.000002 0.000000 0.000000 0.095889
    40 4.525587 -0.000302 1.850221 -0.024587 -0.092921 0.280295
    41 1.719872 0.000007 0.000000 0.000000 0.000000 0.174474
    42 1.383647 0.000004 -0.000001 0.000000 0.000000 0.837557
    43 4.525585 -0.000102 0.616738 -0.034592 -0.039460 0.759844
    44 1.807677 -0.000002 -0.000002 0.000000 0.000000 0.654460
    45 1.614256 0.000001 0.000000 0.000000 0.000000 0.654446
    46 4.525587 0.000102 -0.616743 -0.025359 -0.023984 0.872714
    47 1.719867 0.000001 0.000001 0.000000 0.000000 0.767933
    48 1.383648 0.000001 -0.000001 0.000000 0.000000 0.767909
    49 4.525586 0.000303 -1.850223 0.031378 0.015460 1.055910
    50 1.433227 0.000002 0.000000 0.000000 0.000000 0.950968
    51 1.153036 0.000004 0.000000 0.000000 0.000000 0.951143
    52 7.223970 5.068054 1.800000 -3.141592 -0.000002 1.570798
    53 7.223960 5.068053 -1.800000 -3.141592 -0.000002 1.570798
    54 7.223950 5.068052 0.000000 -3.141592 -0.000002 1.570798
    55 3.723979 2.768055 -0.395205 -3.141592 -0.000098 1.570894
    56 20.747295 -0.313698 4.522630 0.003878 0.001942 1.564441
    57 2.448332 0.177352 0.168606 1.543132 0.019570 -3.045716
  time 14
    0 0.021128 -0.077259 27.494094 0.000000 0.078343 -1.570987
    1 -0.295565 0.000001 9.745319 -1.570764 -1.570457 0.000000
    2 -0.000009 0.000014 5.615740 0.000000 3.141294 -0.770723
    3 15.693467 0.000042 -0.000137 -0.000002 0.000005 -0.860722
    4 22.146626 -0.000002 0.000000 0.000000 0.000000 0.177415
    5 0.000009 -0.000011 -5.615755 0.000000 3.141198 -0.659700
    6 15.693451 0.000043 -0.000136 -0.000002 0.000005 -0.222552
    7 22.146624 -0.000001 0.000000 0.000000 0.000000 -0.383985
    8 1.384163 -0.004727 0.000003 -0.000005 0.000013 0.007717
    9 5.939812 -0.004729 0.000088 0.000000 0.000000 -0.052306
    10 5.939812 -0.003975 0.000088 0.000000 0.000000 0.000000
    11 4.991436 -0.003974 0.000074 0.000000 0.000000 0.000000
    12 4.991427 -0.001574 0.000074 0.000000 0.000009 0.000016
    13 -0.001670 0.001564 3.638373 -0.000014 -1.283609 3.140794
    14 8.842823 0.000002 0.000054 0.103599 0.665175 -1.317112
    15 0.001739 0.001585 -3.638374 -0.000014 1.283577 3.140766
    16 8.842813 0.000001 -0.000025 -0.189400 -0.776251 -1.200358
    17 1.977402 -0.000032 0.003050 0.020089 -0.005662 0.225094
    18 9.341940 0.000000 0.000009 0.000000 0.000000 -1.158207
    19 11.168410 0.000002 -0.000001 -1.628295 0.172252 0.140561
    20 1.364904 0.231181 -1.984410 1.091706 1.070777 0.188081
    21 1.748533 -0.000003 0.000002 0.000000 0.000000 0.061100
    22 1.272493 0.000001 -0.000003 0.000000 0.000000 0.061016
    23 4.525584 -0.000299 -1.850222 0.025390 0.092705 0.288969
    24 1.719874 -0.000007 0.000000 0.000000 0.000000 0.183187
    25 1.383651 0.000003 0.000001 0.000000 0.000000 0.183184
    26 4.525585 -0.000096 -0.616739 0.022715 0.047227 0.488960
    27 1.807677 -0.000001 -0.000002 0.000000 0.000000 0.383824
    28 1.614256 -0.000004 0.000003 0.000000 0.000000 0.383912
    29 4.525583 0.000106 0.616741 0.014884 0.031642 0.497483
    30 1.719871 -0.000003 0.000000 0.000000 0.000000 0.392583
    31 1.383651 -0.000001 0.000001 0.000000 0.000000 0.392582
    32 4.525584 0.000309 1.850224 -0.020855 -0.027996 0.584870
    33 1.433228 -0.000003 0.000000 0.000000 0.000000 0.479784
    34 1.153038 -0.000001 0.000000 0.000000 0.000000 0.479842
    35 9.341949 0.000000 0.000007 0.000000 0.000000 -1.201332
    36 11.168407 0.000002 0.000011 1.668334 -0.507066 0.563733
    37 1.364906 0.231175 1.984408 -3.421733 -0.129918 0.826221
    38 1.748534 0.000002 -0.000001 0.000000 0.000000 0.096094
    39 1.272493 0.000003 0.000002 0.000000 0.000000 0.095889
    40 4.525587 -0.000302 1.850221 -0.024587 -0.092921 0.280295
    41 1.719872 0.000007 0.000000 0.000000 0.000000 0.174474
    42 1.383647 0.000004 -0.000001 0.000000 0.000000 0.837557
    43 4.525585 -0.000102 0.616738 -0.034592 -0.039460 0.759844
    44 1.807677 -0.000002 -0.000002 0.000000 0.000000 0.654460
    45 1.614256 0.000001 0.000000 0.000000 0.000000 0.654446
    46 4.525587 0.000102 -0.616743 -0.025359 -0.023984 0.872714
    47 1.719867 0.000001 0.000001 0.000000 0.000000 0.767933
    48 1.383648 0.000001 -0.000001 0.000000 0.000000 0.767909
    49 4.525586 0.000303 -1.850223 0.031378 0.015460 1.055910
    50 1.433227 0.000002 0.000000 0.000000 0.000000 0.950968
    51 1.153036 0.000004 0.000000 0.000000 0.000000 0.951143
    52 7.223970 5.068054 1.800000 -3.141592 -0.000002 1.570798
    53 7.223960 5.068053 -1.800000 -3.141592 -0.000002 1.570798
    54 7.223950 5.068052 0.000000 -3.141592 -0.000002 1.570798
    55 3.723979 2.768055 -0.395205 -3.141592 -0.000098 1.570894
    56 20.747295 -0.313698 4.522630 0.003878 0.001942 1.564441
    57 2.448332 0.177352 0.168606 1.543132 0.019570 -3.045716
  time 15
    0 0.021128 -0.077259 27.631280 0.000000 0.078343 -1.570987
    1 -0.233063 0.000001 9.745319 -1.570764 -1.570457 0.000000
    2 -0.000009 0.000014 5.615740 0.000000 3.141294 -0.759254
    3 15.693467 0.000042 -0.000137 -0.000002 0.000005 -0.845854
    4 22.146626 -0.000002 0.000000 0.000000 0.000000 0.174260
    5 0.000009 -0.000011 -5.615755 0.000000 3.141198 -0.630368
    6 15.693451 0.000043 -0.000136 -0.000002 0.000005 -0.178191
    7 22.146624 -0.000001 0.000000 0.000000 0.000000 -0.399751
    8 1.384163 -0.004727 0.000003 -0.000005 0.000013 0.000796
    9 5.939812 -0.004729 0.000088 0.000000 0.000000 -0.052306
    10 5.939812 -0.003975 0.000088 0.000000 0.000000 0.000000
    11 4.991436 -0.003974 0.000074 0.000000 0.000000 0.000000
    12 4.991427 -0.001574 0.000074 0.000000 0.000009 0.000016
    13 -0.001670 0.001564 3.638373 -0.000014 -1.283609 3.140794
    14 8.842823 0.000002 0.000054 0.103599 0.666942 -1.312334
    15 0.001739 0.001585 -3.638374 -0.000014 1.283577 3.140766
    16 8.842813 0.000001 -0.000025 -0.191738 -0.778464 -1.193498
    17 1.977402 -0.000032 0.003050 0.000001 -0.000016 0.225939
    18 9.341940 0.000000 0.000009 0.000000 0.000000 -1.168786
    19 11.168410 0.000002 -0.000001 -1.628295 0.172252 0.140561
    20 1.364904 0.231181 -1.984410 1.091706 1.070777 0.188081
    21 1.748533 -0.000003 0.000002 0.000000 0.000000 0.061100
    22 1.272493 0.000001 -0.000003 0.000000 0.000000 0.061016
    23 4.525584 -0.000299 -1.850222 0.025390 0.092705 0.288969
    24 1.719874 -0.000007 0.000000 0.000000 0.000000 0.183187
    25 1.383651 0.000003 0.000001 0.000000 0.000000 0.183184
    26 4.525585 -0.000096 -0.616739 0.022715 0.047227 0.488960
    27 1.807677 -0.000001 -0.000002 0.000000 0.000000 0.383824
    28 1.614256 -0.000004 0.000003 0.000000 0.000000 0.383912
    29 4.525583 0.000106 0.616741 0.014884 0.031642 0.497483
    30 1.719871 -0.000003 0.000000 0.000000 0.000000 0.392583
    31 1.383651 -0.000001 0.000001 0.000000 0.000000 0.392582
    32 4.525584 0.000309 1.850224 -0.020855 -0.027996 0.584870
    33 1.433228 -0.000003 0.000000 0.000000 0.000000 0.479784
    34 1.153038 -0.000001 0.000000 0.000000 0.000000 0.479842
    35 9.341949 0.000000 0.000007 0.000000 0.000000 -1.213190
    36 11.168407 0.000002 0.000011 1.668334 -0.507066 0.563733
    37 1.364906 0.231175 1.984408 -3.421733 -0.129918 0.826221
    38 1.748534 0.000002 -0.000001 0.000000 0.000000 0.096094
    39 1.272493 0.000003 0.000002 0.000000 0.000000 0.095889
    40 4.525587 -0.000302 1.850221 -0.024587 -0.092921 0.280295
    41 1.719872 0.000007 0.000000 0.000000 0.000000 0.174474
    42 1.383647 0.000004 -0.000001 0.000000 0.000000 0.837557
    43 4.525585 -0.000102 0.616738 -0.034592 -0.039460 0.759844
    44 1.807677 -0.000002 -0.000002 0.000000 0.000000 0.654460
    45 1.614256 0.000001 0.000000 0.000000 0.000000 0.654446
    46 4.525587 0.000102 -0.616743 -0.025359 -0.023984 0.872714
    47 1.719867 0.000001 0.000001 0.000000 0.000000 0.767933
    48 1.383648 0.000001 -0.000001 0.000000 0.000000 0.767909
    49 4.525586 0.000303 -1.850223 0.031378 0.015460 1.055910
    50 1.433227 0.000002 0.000000 0.000000 0.000000 0.950968
    51 1.153036 0.000004 0.000000 0.000000 0.000000 0.951143
    52 7.223970 5.068054 1.800000 -3.141592 -0.000002 1.570798
    53 7.223960 5.068053 -1.800000 -3.141592 -0.000002 1.570798
    54 7.223950 5.068052 0.000000 -3.141592 -0.000002 1.570798
    55 3.723979 2.768055 -0.395205 -3.141592 -0.000098 1.570894
    56 20.747295 -0.313698 4.522630 0.003878 0.001942 1.564441
    57 2.448332 0.177352 0.168606 1.543132 0.019570 -3.045716
end
