version 1
nodes
  0 "Bip01" -1
  1 "Bip01 Pelvis" 0
  2 "Bip01 L Thigh" 1
  3 "Bip01 L Calf" 2
  4 "Bip01 L Foot" 3
  5 "Bip01 R Thigh" 1
  6 "Bip01 R Calf" 5
  7 "Bip01 R Foot" 6
  8 "Bip01 Spine" 1
  9 "Bip01 Spine1" 8
  10 "Bip01 Spine2" 9
  11 "Bip01 Spine3" 10
  12 "Bip01 Neck" 11
  13 "Bip01 L Clavicle" 12
  14 "Bip01 L UpperArm" 13
  15 "Bip01 R Clavicle" 12
  16 "Bip01 R UpperArm" 15
  17 "Bip01 Head" 12
  18 "Bip01 L Forearm" 14
  19 "Bip01 L Hand" 18
  20 "Bip01 L Finger0" 19
  21 "Bip01 L Finger01" 20
  22 "Bip01 L Finger02" 21
  23 "Bip01 L Finger1" 19
  24 "Bip01 L Finger11" 23
  25 "Bip01 L Finger12" 24
  26 "Bip01 L Finger2" 19
  27 "Bip01 L Finger21" 26
  28 "Bip01 L Finger22" 27
  29 "Bip01 L Finger3" 19
  30 "Bip01 L Finger31" 29
  31 "Bip01 L Finger32" 30
  32 "Bip01 L Finger4" 19
  33 "Bip01 L Finger41" 32
  34 "Bip01 L Finger42" 33
  35 "Bip01 R Forearm" 16
  36 "Bip01 R Hand" 35
  37 "Bip01 R Finger0" 36
  38 "Bip01 R Finger01" 37
  39 "Bip01 R Finger02" 38
  40 "Bip01 R Finger1" 36
  41 "Bip01 R Finger11" 40
  42 "Bip01 R Finger12" 41
  43 "Bip01 R Finger2" 36
  44 "Bip01 R Finger21" 43
  45 "Bip01 R Finger22" 44
  46 "Bip01 R Finger3" 36
  47 "Bip01 R Finger31" 46
  48 "Bip01 R Finger32" 47
  49 "Bip01 R Finger4" 36
  50 "Bip01 R Finger41" 49
  51 "Bip01 R Finger42" 50
  52 "R_eye" 17
  53 "L_eye" 17
  54 "E_lids" 17
  55 "Mouth" 17
  56 "p_rpg" 36
  57 "Line04" 36
end
skeleton
  time 0
    0 1.671503 3.866308 28.219220 0.000000 0.052260 -1.972123
    1 -0.526041 0.000001 9.745319 -1.570764 -1.570457 0.000000
    2 -0.000009 0.000014 5.615740 -0.316364 3.412389 -0.276805
    3 15.693467 0.000042 -0.000137 -0.000002 0.000005 -0.721933
    4 22.146626 -0.000002 0.000000 -0.567764 -0.179671 0.420407
    5 0.000009 -0.000011 -5.615755 0.350802 2.876116 -0.642158
    6 15.693451 0.000043 -0.000136 -0.000002 0.000005 -0.775573
    7 22.146624 -0.000001 0.000000 0.226653 0.013292 0.135231
    8 1.384163 -0.004727 0.000003 -0.427378 0.000228 0.000796
    9 5.939812 -0.004729 0.000088 0.104830 -0.000072 0.000000
    10 5.939812 -0.003975 0.000088 -0.113357 0.000084 0.000000
    11 4.991436 -0.003974 0.000074 0.000000 0.000000 0.000000
    12 4.991427 -0.001574 0.000074 0.000000 0.000009 0.000016
    13 -0.001670 0.001564 3.638373 -0.298274 -1.271037 3.426985
    14 8.842823 0.000002 0.000054 0.765834 0.811409 0.281068
    15 0.001739 0.001585 -3.638374 -0.460012 1.252284 2.700821
    16 8.842813 0.000001 -0.000025 0.165111 -0.910989 -0.241668
    17 1.977402 -0.000032 0.003050 -1.159903 -0.000016 -0.000813
    18 9.341940 0.000000 0.000009 0.000000 0.000000 -0.364826
    19 11.168410 0.000002 -0.000001 -1.568614 0.348787 -0.000162
    20 1.364904 0.231181 -1.984410 2.310665 0.500627 0.873882
    21 1.748533 -0.000003 0.000002 0.000000 0.000000 0.567152
    22 1.272493 0.000001 -0.000003 0.000000 0.000000 0.462442
    23 4.525584 -0.000299 -1.850222 0.079944 0.053299 1.005563
    24 1.719874 -0.000007 0.000000 0.000000 0.000000 0.933358
    25 1.383651 0.000003 0.000001 0.000000 0.000000 0.741431
    26 4.525585 -0.000096 -0.616739 0.042897 0.030017 1.003754
    27 1.807677 -0.000001 -0.000002 0.000000 0.000000 0.881020
    28 1.614256 -0.000004 0.000003 0.000000 0.000000 0.741755
    29 4.525583 0.000106 0.616741 0.028355 0.020544 1.003411
    30 1.719871 -0.000003 0.000000 0.000000 0.000000 0.680308
    31 1.383651 -0.000001 0.000001 0.000000 0.000000 0.741424
    32 4.525584 0.000309 1.850224 -0.030347 -0.017054 1.003377
    33 1.433228 -0.000003 0.000000 0.000000 0.000000 0.680308
    34 1.153038 -0.000001 0.000000 0.000000 0.000000 0.741421
    35 9.341949 0.000000 0.000007 0.000000 0.000000 -0.705829
    36 11.168407 0.000002 0.000011 1.568685 -0.261489 -0.000886
    37 1.364906 0.231175 1.984408 -3.139362 0.004014 1.002034
    38 1.748534 0.000002 -0.000001 0.000000 0.000000 0.436145
    39 1.272493 0.000003 0.000002 0.000000 0.000000 0.322870
    40 4.525587 -0.000302 1.850221 -0.016210 -0.094622 0.192483
    41 1.719872 0.000007 0.000000 0.000000 0.000000 0.034907
    42 1.383647 0.000004 -0.000001 0.000000 0.000000 0.689317
    43 4.525585 -0.000102 0.616738 -0.040896 -0.032761 0.934240
    44 1.807677 -0.000002 -0.000002 0.000000 0.000000 0.907547
    45 1.614256 0.000001 0.000000 0.000000 0.000000 1.151884
    46 4.525587 0.000102 -0.616743 -0.026857 -0.022390 0.933676
    47 1.719867 0.000001 0.000001 0.000000 0.000000 0.907547
    48 1.383648 0.000001 -0.000001 0.000000 0.000000 1.151884
    49 4.525586 0.000303 -1.850223 0.029257 0.019320 0.933689
    50 1.433227 0.000002 0.000000 0.000000 0.000000 0.907145
    51 1.153036 0.000004 0.000000 0.000000 0.000000 1.151753
    52 7.223970 5.068054 1.800000 -3.141592 -0.000002 1.570798
    53 7.223960 5.068053 -1.800000 -3.141592 -0.000002 1.570798
    54 7.223950 5.068052 0.000000 -3.141592 -0.000002 1.570798
    55 3.723979 2.768055 -0.395205 -3.141592 -0.000098 1.570894
    56 20.747295 -0.313698 4.522630 0.003878 0.001942 1.564441
    57 2.448332 0.177352 0.168606 1.543132 0.019570 -3.045716
  time 1
    0 1.671503 3.866308 28.082034 0.000000 0.058375 -1.972123
    1 -0.526041 0.000001 9.745319 -1.570764 -1.570457 0.000000
    2 -0.000009 0.000014 5.615740 -0.312625 3.416222 -0.292096
    3 15.693467 0.000042 -0.000137 -0.000002 0.000005 -0.741638
    4 22.146626 -0.000002 0.000000 -0.568699 -0.180860 0.430558
    5 0.000009 -0.000011 -5.615755 0.346871 2.871514 -0.660083
    6 15.693451 0.000043 -0.000136 -0.000002 0.000005 -0.797009
    7 22.146624 -0.000001 0.000000 0.227048 0.014182 0.144391
    8 1.384163 -0.004727 0.000003 -0.427378 0.000228 0.000796
    9 5.939812 -0.004729 0.000088 0.104830 -0.000072 0.000000
    10 5.939812 -0.003975 0.000088 -0.113357 0.000084 0.000000
    11 4.991436 -0.003974 0.000074 0.000000 0.000000 0.000000
    12 4.991427 -0.001574 0.000074 0.000000 0.000009 0.000016
    13 -0.001670 0.001564 3.638373 -0.298274 -1.271037 3.426985
    14 8.842823 0.000002 0.000054 0.769309 0.810293 0.285547
    15 0.001739 0.001585 -3.638374 -0.460012 1.252284 2.700821
    16 8.842813 0.000001 -0.000025 0.142294 -0.919576 -0.216226
    17 1.977402 -0.000032 0.003050 -1.159903 0.011115 0.003858
    18 9.341940 0.000000 0.000009 0.000000 0.000000 -0.379505
    19 11.168410 0.000002 -0.000001 -1.568614 0.348787 -0.000162
    20 1.364904 0.231181 -1.984410 2.310665 0.500627 0.873882
    21 1.748533 -0.000003 0.000002 0.000000 0.000000 0.567152
    22 1.272493 0.000001 -0.000003 0.000000 0.000000 0.462442
    23 4.525584 -0.000299 -1.850222 0.079944 0.053299 1.005563
    24 1.719874 -0.000007 0.000000 0.000000 0.000000 0.933358
    25 1.383651 0.000003 0.000001 0.000000 0.000000 0.741431
    26 4.525585 -0.000096 -0.616739 0.042897 0.030017 1.003754
    27 1.807677 -0.000001 -0.000002 0.000000 0.000000 0.881020
    28 1.614256 -0.000004 0.000003 0.000000 0.000000 0.741755
    29 4.525583 0.000106 0.616741 0.028355 0.020544 1.003411
    30 1.719871 -0.000003 0.000000 0.000000 0.000000 0.680308
    31 1.383651 -0.000001 0.000001 0.000000 0.000000 0.741424
    32 4.525584 0.000309 1.850224 -0.030347 -0.017054 1.003377
    33 1.433228 -0.000003 0.000000 0.000000 0.000000 0.680308
    34 1.153038 -0.000001 0.000000 0.000000 0.000000 0.741421
    35 9.341949 0.000000 0.000007 0.000000 0.000000 -0.729212
    36 11.168407 0.000002 0.000011 1.568685 -0.261489 -0.000886
    37 1.364906 0.231175 1.984408 -3.139362 0.004014 1.002034
    38 1.748534 0.000002 -0.000001 0.000000 0.000000 0.436145
    39 1.272493 0.000003 0.000002 0.000000 0.000000 0.322870
    40 4.525587 -0.000302 1.850221 -0.016210 -0.094622 0.192483
    41 1.719872 0.000007 0.000000 0.000000 0.000000 0.034907
    42 1.383647 0.000004 -0.000001 0.000000 0.000000 0.689317
    43 4.525585 -0.000102 0.616738 -0.040896 -0.032761 0.934240
    44 1.807677 -0.000002 -0.000002 0.000000 0.000000 0.907547
    45 1.614256 0.000001 0.000000 0.000000 0.000000 1.151884
    46 4.525587 0.000102 -0.616743 -0.026857 -0.022390 0.933676
    47 1.719867 0.000001 0.000001 0.000000 0.000000 0.907547
    48 1.383648 0.000001 -0.000001 0.000000 0.000000 1.151884
    49 4.525586 0.000303 -1.850223 0.029257 0.019320 0.933689
    50 1.433227 0.000002 0.000000 0.000000 0.000000 0.907145
    51 1.153036 0.000004 0.000000 0.000000 0.000000 1.151753
    52 7.223970 5.068054 1.800000 -3.141592 -0.000002 1.570798
    53 7.223960 5.068053 -1.800000 -3.141592 -0.000002 1.570798
    54 7.223950 5.068052 0.000000 -3.141592 -0.000002 1.570798
    55 3.723979 2.768055 -0.395205 -3.141592 -0.000098 1.570894
    56 20.747295 -0.313698 4.522630 0.003878 0.001942 1.564441
    57 2.448332 0.177352 0.168606 1.543132 0.019570 -3.045716
  time 2
    0 1.671503 3.866308 27.905652 0.000000 0.065254 -1.972123
    1 -0.526041 0.000001 9.745319 -1.570764 -1.570457 0.000000
    2 -0.000009 0.000014 5.615740 -0.308024 3.420630 -0.308917
    3 15.693467 0.000042 -0.000137 -0.000002 0.000005 -0.763406
    4 22.146626 -0.000002 0.000000 -0.569746 -0.182247 0.441852
    5 0.000009 -0.000011 -5.615755 0.342461 2.866625 -0.679926
    6 15.693451 0.000043 -0.000136 -0.000002 0.000005 -0.820827
    7 22.146624 -0.000001 0.000000 0.227499 0.015103 0.155313
    8 1.384163 -0.004727 0.000003 -0.427378 0.000228 0.000796
    9 5.939812 -0.004729 0.000088 0.104830 -0.000072 0.000000
    10 5.939812 -0.003975 0.000088 -0.113357 0.000084 0.000000
    11 4.991436 -0.003974 0.000074 0.000000 0.000000 0.000000
    12 4.991427 -0.001574 0.000074 0.000000 0.000009 0.000016
    13 -0.001670 0.001564 3.638373 -0.298274 -1.271037 3.426985
    14 8.842823 0.000002 0.000054 0.773241 0.807967 0.290698
    15 0.001739 0.001585 -3.638374 -0.460012 1.252284 2.700821
    16 8.842813 0.000001 -0.000025 0.115446 -0.929137 -0.186591
    17 1.977402 -0.000032 0.003050 -1.159903 0.023726 0.009523
    18 9.341940 0.000000 0.000009 0.000000 0.000000 -0.396808
    19 11.168410 0.000002 -0.000001 -1.568614 0.348787 -0.000162
    20 1.364904 0.231181 -1.984410 2.310665 0.500627 0.873882
    21 1.748533 -0.000003 0.000002 0.000000 0.000000 0.567152
    22 1.272493 0.000001 -0.000003 0.000000 0.000000 0.462442
    23 4.525584 -0.000299 -1.850222 0.079944 0.053299 1.005563
    24 1.719874 -0.000007 0.000000 0.000000 0.000000 0.933358
    25 1.383651 0.000003 0.000001 0.000000 0.000000 0.741431
    26 4.525585 -0.000096 -0.616739 0.042897 0.030017 1.003754
    27 1.807677 -0.000001 -0.000002 0.000000 0.000000 0.881020
    28 1.614256 -0.000004 0.000003 0.000000 0.000000 0.741755
    29 4.525583 0.000106 0.616741 0.028355 0.020544 1.003411
    30 1.719871 -0.000003 0.000000 0.000000 0.000000 0.680308
    31 1.383651 -0.000001 0.000001 0.000000 0.000000 0.741424
    32 4.525584 0.000309 1.850224 -0.030347 -0.017054 1.003377
    33 1.433228 -0.000003 0.000000 0.000000 0.000000 0.680308
    34 1.153038 -0.000001 0.000000 0.000000 0.000000 0.741421
    35 9.341949 0.000000 0.000007 0.000000 0.000000 -0.755859
    36 11.168407 0.000002 0.000011 1.568685 -0.261489 -0.000886
    37 1.364906 0.231175 1.984408 -3.139362 0.004014 1.002034
    38 1.748534 0.000002 -0.000001 0.000000 0.000000 0.436145
    39 1.272493 0.000003 0.000002 0.000000 0.000000 0.322870
    40 4.525587 -0.000302 1.850221 -0.016210 -0.094622 0.192483
    41 1.719872 0.000007 0.000000 0.000000 0.000000 0.034907
    42 1.383647 0.000004 -0.000001 0.000000 0.000000 0.689317
    43 4.525585 -0.000102 0.616738 -0.040896 -0.032761 0.934240
    44 1.807677 -0.000002 -0.000002 0.000000 0.000000 0.907547
    45 1.614256 0.000001 0.000000 0.000000 0.000000 1.151884
    46 4.525587 0.000102 -0.616743 -0.026857 -0.022390 0.933676
    47 1.719867 0.000001 0.000001 0.000000 0.000000 0.907547
    48 1.383648 0.000001 -0.000001 0.000000 0.000000 1.151884
    49 4.525586 0.000303 -1.850223 0.029257 0.019320 0.933689
    50 1.433227 0.000002 0.000000 0.000000 0.000000 0.907145
    51 1.153036 0.000004 0.000000 0.000000 0.000000 1.151753
    52 7.223970 5.068054 1.800000 -3.141592 -0.000002 1.570798
    53 7.223960 5.068053 -1.800000 -3.141592 -0.000002 1.570798
    54 7.223950 5.068052 0.000000 -3.141592 -0.000002 1.570798
    55 3.723979 2.768055 -0.395205 -3.141592 -0.000098 1.570894
    56 20.747295 -0.313698 4.522630 0.003878 0.001942 1.564441
    57 2.448332 0.177352 0.168606 1.543132 0.019570 -3.045716
  time 3
    0 1.671503 3.866308 27.768466 0.000000 0.071750 -1.972123
    1 -0.526041 0.000001 9.745319 -1.570764 -1.570457 0.000000
    2 -0.000009 0.000014 5.615740 -0.304285 3.424559 -0.324878
    3 15.693467 0.000042 -0.000137 -0.000002 0.000005 -0.783609
    4 22.146626 -0.000002 0.000000 -0.570718 -0.183584 0.452324
    5 0.000009 -0.000011 -5.615755 0.338339 2.862119 -0.698042
    6 15.693451 0.000043 -0.000136 -0.000002 0.000005 -0.842635
    7 22.146624 -0.000001 0.000000 0.227894 0.016116 0.164825
    8 1.384163 -0.004727 0.000003 -0.427378 0.000228 0.000796
    9 5.939812 -0.004729 0.000088 0.104830 -0.000072 0.000000
    10 5.939812 -0.003975 0.000088 -0.113357 0.000084 0.000000
    11 4.991436 -0.003974 0.000074 0.000000 0.000000 0.000000
    12 4.991427 -0.001574 0.000074 0.000000 0.000009 0.000016
    13 -0.001670 0.001564 3.638373 -0.298274 -1.271037 3.426985
    14 8.842823 0.000002 0.000054 0.776990 0.807223 0.295401
    15 0.001739 0.001585 -3.638374 -0.460012 1.252284 2.700821
    16 8.842813 0.000001 -0.000025 0.089565 -0.937547 -0.158005
    17 1.977402 -0.000032 0.003050 -1.159797 0.035620 0.014642
    18 9.341940 0.000000 0.000009 0.000000 0.000000 -0.411650
    19 11.168410 0.000002 -0.000001 -1.568614 0.348787 -0.000162
    20 1.364904 0.231181 -1.984410 2.310665 0.500627 0.873882
    21 1.748533 -0.000003 0.000002 0.000000 0.000000 0.567152
    22 1.272493 0.000001 -0.000003 0.000000 0.000000 0.462442
    23 4.525584 -0.000299 -1.850222 0.079944 0.053299 1.005563
    24 1.719874 -0.000007 0.000000 0.000000 0.000000 0.933358
    25 1.383651 0.000003 0.000001 0.000000 0.000000 0.741431
    26 4.525585 -0.000096 -0.616739 0.042897 0.030017 1.003754
    27 1.807677 -0.000001 -0.000002 0.000000 0.000000 0.881020
    28 1.614256 -0.000004 0.000003 0.000000 0.000000 0.741755
    29 4.525583 0.000106 0.616741 0.028355 0.020544 1.003411
    30 1.719871 -0.000003 0.000000 0.000000 0.000000 0.680308
    31 1.383651 -0.000001 0.000001 0.000000 0.000000 0.741424
    32 4.525584 0.000309 1.850224 -0.030347 -0.017054 1.003377
    33 1.433228 -0.000003 0.000000 0.000000 0.000000 0.680308
    34 1.153038 -0.000001 0.000000 0.000000 0.000000 0.741421
    35 9.341949 0.000000 0.000007 0.000000 0.000000 -0.780774
    36 11.168407 0.000002 0.000011 1.568685 -0.261489 -0.000886
    37 1.364906 0.231175 1.984408 -3.139362 0.004014 1.002034
    38 1.748534 0.000002 -0.000001 0.000000 0.000000 0.436145
    39 1.272493 0.000003 0.000002 0.000000 0.000000 0.322870
    40 4.525587 -0.000302 1.850221 -0.016210 -0.094622 0.192483
    41 1.719872 0.000007 0.000000 0.000000 0.000000 0.034907
    42 1.383647 0.000004 -0.000001 0.000000 0.000000 0.689317
    43 4.525585 -0.000102 0.616738 -0.040896 -0.032761 0.934240
    44 1.807677 -0.000002 -0.000002 0.000000 0.000000 0.907547
    45 1.614256 0.000001 0.000000 0.000000 0.000000 1.151884
    46 4.525587 0.000102 -0.616743 -0.026857 -0.022390 0.933676
    47 1.719867 0.000001 0.000001 0.000000 0.000000 0.907547
    48 1.383648 0.000001 -0.000001 0.000000 0.000000 1.151884
    49 4.525586 0.000303 -1.850223 0.029257 0.019320 0.933689
    50 1.433227 0.000002 0.000000 0.000000 0.000000 0.907145
    51 1.153036 0.000004 0.000000 0.000000 0.000000 1.151753
    52 7.223970 5.068054 1.800000 -3.141592 -0.000002 1.570798
    53 7.223960 5.068053 -1.800000 -3.141592 -0.000002 1.570798
    54 7.223950 5.068052 0.000000 -3.141592 -0.000002 1.570798
    55 3.723979 2.768055 -0.395205 -3.141592 -0.000098 1.570894
    56 20.747295 -0.313698 4.522630 0.003878 0.001942 1.564441
    57 2.448332 0.177352 0.168606 1.543132 0.019570 -3.045716
  time 4
    0 1.671503 3.866308 27.650878 0.000000 0.076623 -1.972123
    1 -0.526041 0.000001 9.745319 -1.570764 -1.570457 0.000000
    2 -0.000009 0.000014 5.615740 -0.301217 3.427147 -0.336920
    3 15.693467 0.000042 -0.000137 -0.000002 0.000005 -0.798121
    4 22.146626 -0.000002 0.000000 -0.571465 -0.184574 0.459914
    5 0.000009 -0.000011 -5.615755 0.335271 2.858763 -0.712037
    6 15.693451 0.000043 -0.000136 -0.000002 0.000005 -0.858340
    7 22.146624 -0.000001 0.000000 0.228289 0.016822 0.171695
    8 1.384163 -0.004727 0.000003 -0.427378 0.000228 0.000796
    9 5.939812 -0.004729 0.000088 0.104830 -0.000072 0.000000
    10 5.939812 -0.003975 0.000088 -0.113357 0.000084 0.000000
    11 4.991436 -0.003974 0.000074 0.000000 0.000000 0.000000
    12 4.991427 -0.001574 0.000074 0.000000 0.000009 0.000016
    13 -0.001670 0.001564 3.638373 -0.298274 -1.271037 3.426985
    14 8.842823 0.000002 0.000054 0.779642 0.806107 0.298984
    15 0.001739 0.001585 -3.638374 -0.460012 1.252284 2.700821
    16 8.842813 0.000001 -0.000025 0.069973 -0.943390 -0.136375
    17 1.977402 -0.000032 0.003050 -1.159533 0.044506 0.018567
    18 9.341940 0.000000 0.000009 0.000000 0.000000 -0.424033
    19 11.168410 0.000002 -0.000001 -1.568614 0.348787 -0.000162
    20 1.364904 0.231181 -1.984410 2.310665 0.500627 0.873882
    21 1.748533 -0.000003 0.000002 0.000000 0.000000 0.567152
    22 1.272493 0.000001 -0.000003 0.000000 0.000000 0.462442
    23 4.525584 -0.000299 -1.850222 0.079944 0.053299 1.005563
    24 1.719874 -0.000007 0.000000 0.000000 0.000000 0.933358
    25 1.383651 0.000003 0.000001 0.000000 0.000000 0.741431
    26 4.525585 -0.000096 -0.616739 0.042897 0.030017 1.003754
    27 1.807677 -0.000001 -0.000002 0.000000 0.000000 0.881020
    28 1.614256 -0.000004 0.000003 0.000000 0.000000 0.741755
    29 4.525583 0.000106 0.616741 0.028355 0.020544 1.003411
    30 1.719871 -0.000003 0.000000 0.000000 0.000000 0.680308
    31 1.383651 -0.000001 0.000001 0.000000 0.000000 0.741424
    32 4.525584 0.000309 1.850224 -0.030347 -0.017054 1.003377
    33 1.433228 -0.000003 0.000000 0.000000 0.000000 0.680308
    34 1.153038 -0.000001 0.000000 0.000000 0.000000 0.741421
    35 9.341949 0.000000 0.000007 0.000000 0.000000 -0.799227
    36 11.168407 0.000002 0.000011 1.568685 -0.261489 -0.000886
    37 1.364906 0.231175 1.984408 -3.139362 0.004014 1.002034
    38 1.748534 0.000002 -0.000001 0.000000 0.000000 0.436145
    39 1.272493 0.000003 0.000002 0.000000 0.000000 0.322870
    40 4.525587 -0.000302 1.850221 -0.016210 -0.094622 0.192483
    41 1.719872 0.000007 0.000000 0.000000 0.000000 0.034907
    42 1.383647 0.000004 -0.000001 0.000000 0.000000 0.689317
    43 4.525585 -0.000102 0.616738 -0.040896 -0.032761 0.934240
    44 1.807677 -0.000002 -0.000002 0.000000 0.000000 0.907547
    45 1.614256 0.000001 0.000000 0.000000 0.000000 1.151884
    46 4.525587 0.000102 -0.616743 -0.026857 -0.022390 0.933676
    47 1.719867 0.000001 0.000001 0.000000 0.000000 0.907547
    48 1.383648 0.000001 -0.000001 0.000000 0.000000 1.151884
    49 4.525586 0.000303 -1.850223 0.029257 0.019320 0.933689
    50 1.433227 0.000002 0.000000 0.000000 0.000000 0.907145
    51 1.153036 0.000004 0.000000 0.000000 0.000000 1.151753
    52 7.223970 5.068054 1.800000 -3.141592 -0.000002 1.570798
    53 7.223960 5.068053 -1.800000 -3.141592 -0.000002 1.570798
    54 7.223950 5.068052 0.000000 -3.141592 -0.000002 1.570798
    55 3.723979 2.768055 -0.395205 -3.141592 -0.000098 1.570894
    56 20.747295 -0.313698 4.522630 0.003878 0.001942 1.564441
    57 2.448332 0.177352 0.168606 1.543132 0.019570 -3.045716
  time 5
    0 1.671503 3.866308 27.611682 0.000000 0.078438 -1.972123
    1 -0.526041 0.000001 9.745319 -1.570764 -1.570457 0.000000
    2 -0.000009 0.000014 5.615740 -0.300450 3.428297 -0.340934
    3 15.693467 0.000042 -0.000137 -0.000002 0.000005 -0.803741
    4 22.146626 -0.000002 0.000000 -0.571764 -0.184996 0.462795
    5 0.000009 -0.000011 -5.615755 0.334024 2.857613 -0.716926
    6 15.693451 0.000043 -0.000136 -0.000002 0.000005 -0.864518
    7 22.146624 -0.000001 0.000000 0.228458 0.017006 0.173985
    8 1.384163 -0.004727 0.000003 -0.427378 0.000228 0.000796
    9 5.939812 -0.004729 0.000088 0.104830 -0.000072 0.000000
    10 5.939812 -0.003975 0.000088 -0.113357 0.000084 0.000000
    11 4.991436 -0.003974 0.000074 0.000000 0.000000 0.000000
    12 4.991427 -0.001574 0.000074 0.000000 0.000009 0.000016
    13 -0.001670 0.001564 3.638373 -0.298274 -1.271037 3.426985
    14 8.842823 0.000002 0.000054 0.780831 0.804897 0.300328
    15 0.001739 0.001585 -3.638374 -0.460012 1.252284 2.700821
    16 8.842813 0.000001 -0.000025 0.062072 -0.945780 -0.127799
    17 1.977402 -0.000032 0.003050 -1.159533 0.047977 0.020058
    18 9.341940 0.000000 0.000009 0.000000 0.000000 -0.428543
    19 11.168410 0.000002 -0.000001 -1.568614 0.348787 -0.000162
    20 1.364904 0.231181 -1.984410 2.310665 0.500627 0.873882
    21 1.748533 -0.000003 0.000002 0.000000 0.000000 0.567152
    22 1.272493 0.000001 -0.000003 0.000000 0.000000 0.462442
    23 4.525584 -0.000299 -1.850222 0.079944 0.053299 1.005563
    24 1.719874 -0.000007 0.000000 0.000000 0.000000 0.933358
    25 1.383651 0.000003 0.000001 0.000000 0.000000 0.741431
    26 4.525585 -0.000096 -0.616739 0.042897 0.030017 1.003754
    27 1.807677 -0.000001 -0.000002 0.000000 0.000000 0.881020
    28 1.614256 -0.000004 0.000003 0.000000 0.000000 0.741755
    29 4.525583 0.000106 0.616741 0.028355 0.020544 1.003411
    30 1.719871 -0.000003 0.000000 0.000000 0.000000 0.680308
    31 1.383651 -0.000001 0.000001 0.000000 0.000000 0.741424
    32 4.525584 0.000309 1.850224 -0.030347 -0.017054 1.003377
    33 1.433228 -0.000003 0.000000 0.000000 0.000000 0.680308
    34 1.153038 -0.000001 0.000000 0.000000 0.000000 0.741421
    35 9.341949 0.000000 0.000007 0.000000 0.000000 -0.806555
    36 11.168407 0.000002 0.000011 1.568685 -0.261489 -0.000886
    37 1.364906 0.231175 1.984408 -3.139362 0.004014 1.002034
    38 1.748534 0.000002 -0.000001 0.000000 0.000000 0.436145
    39 1.272493 0.000003 0.000002 0.000000 0.000000 0.322870
    40 4.525587 -0.000302 1.850221 -0.016210 -0.094622 0.192483
    41 1.719872 0.000007 0.000000 0.000000 0.000000 0.034907
    42 1.383647 0.000004 -0.000001 0.000000 0.000000 0.689317
    43 4.525585 -0.000102 0.616738 -0.040896 -0.032761 0.934240
    44 1.807677 -0.000002 -0.000002 0.000000 0.000000 0.907547
    45 1.614256 0.000001 0.000000 0.000000 0.000000 1.151884
    46 4.525587 0.000102 -0.616743 -0.026857 -0.022390 0.933676
    47 1.719867 0.000001 0.000001 0.000000 0.000000 0.907547
    48 1.383648 0.000001 -0.000001 0.000000 0.000000 1.151884
    49 4.525586 0.000303 -1.850223 0.029257 0.019320 0.933689
    50 1.433227 0.000002 0.000000 0.000000 0.000000 0.907145
    51 1.153036 0.000004 0.000000 0.000000 0.000000 1.151753
    52 7.223970 5.068054 1.800000 -3.141592 -0.000002 1.570798
    53 7.223960 5.068053 -1.800000 -3.141592 -0.000002 1.570798
    54 7.223950 5.068052 0.000000 -3.141592 -0.000002 1.570798
    55 3.723979 2.768055 -0.395205 -3.141592 -0.000098 1.570894
    56 20.747295 -0.313698 4.522630 0.003878 0.001942 1.564441
    57 2.448332 0.177352 0.168606 1.543132 0.019570 -3.045716
  time 6
    0 1.671503 3.866308 27.650878 0.000000 0.076623 -1.972123
    1 -0.526041 0.000001 9.745319 -1.570764 -1.570457 0.000000
    2 -0.000009 0.000014 5.615740 -0.301217 3.427147 -0.336920
    3 15.693467 0.000042 -0.000137 -0.000002 0.000005 -0.798121
    4 22.146626 -0.000002 0.000000 -0.571465 -0.184574 0.459914
    5 0.000009 -0.000011 -5.615755 0.335271 2.858763 -0.712037
    6 15.693451 0.000043 -0.000136 -0.000002 0.000005 -0.858340
    7 22.146624 -0.000001 0.000000 0.228289 0.016822 0.171695
    8 1.384163 -0.004727 0.000003 -0.427378 0.000228 0.000796
    9 5.939812 -0.004729 0.000088 0.104830 -0.000072 0.000000
    10 5.939812 -0.003975 0.000088 -0.113357 0.000084 0.000000
    11 4.991436 -0.003974 0.000074 0.000000 0.000000 0.000000
    12 4.991427 -0.001574 0.000074 0.000000 0.000009 0.000016
    13 -0.001670 0.001564 3.638373 -0.298274 -1.271037 3.426985
    14 8.842823 0.000002 0.000054 0.779642 0.806107 0.298984
    15 0.001739 0.001585 -3.638374 -0.460012 1.252284 2.700821
    16 8.842813 0.000001 -0.000025 0.069973 -0.943390 -0.136375
    17 1.977402 -0.000032 0.003050 -1.159533 0.044506 0.018567
    18 9.341940 0.000000 0.000009 0.000000 0.000000 -0.424033
    19 11.168410 0.000002 -0.000001 -1.568614 0.348787 -0.000162
    20 1.364904 0.231181 -1.984410 2.310665 0.500627 0.873882
    21 1.748533 -0.000003 0.000002 0.000000 0.000000 0.567152
    22 1.272493 0.000001 -0.000003 0.000000 0.000000 0.462442
    23 4.525584 -0.000299 -1.850222 0.079944 0.053299 1.005563
    24 1.719874 -0.000007 0.000000 0.000000 0.000000 0.933358
    25 1.383651 0.000003 0.000001 0.000000 0.000000 0.741431
    26 4.525585 -0.000096 -0.616739 0.042897 0.030017 1.003754
    27 1.807677 -0.000001 -0.000002 0.000000 0.000000 0.881020
    28 1.614256 -0.000004 0.000003 0.000000 0.000000 0.741755
    29 4.525583 0.000106 0.616741 0.028355 0.020544 1.003411
    30 1.719871 -0.000003 0.000000 0.000000 0.000000 0.680308
    31 1.383651 -0.000001 0.000001 0.000000 0.000000 0.741424
    32 4.525584 0.000309 1.850224 -0.030347 -0.017054 1.003377
    33 1.433228 -0.000003 0.000000 0.000000 0.000000 0.680308
    34 1.153038 -0.000001 0.000000 0.000000 0.000000 0.741421
    35 9.341949 0.000000 0.000007 0.000000 0.000000 -0.799227
    36 11.168407 0.000002 0.000011 1.568685 -0.261489 -0.000886
    37 1.364906 0.231175 1.984408 -3.139362 0.004014 1.002034
    38 1.748534 0.000002 -0.000001 0.000000 0.000000 0.436145
    39 1.272493 0.000003 0.000002 0.000000 0.000000 0.322870
    40 4.525587 -0.000302 1.850221 -0.016210 -0.094622 0.192483
    41 1.719872 0.000007 0.000000 0.000000 0.000000 0.034907
    42 1.383647 0.000004 -0.000001 0.000000 0.000000 0.689317
    43 4.525585 -0.000102 0.616738 -0.040896 -0.032761 0.934240
    44 1.807677 -0.000002 -0.000002 0.000000 0.000000 0.907547
    45 1.614256 0.000001 0.000000 0.000000 0.000000 1.151884
    46 4.525587 0.000102 -0.616743 -0.026857 -0.022390 0.933676
    47 1.719867 0.000001 0.000001 0.000000 0.000000 0.907547
    48 1.383648 0.000001 -0.000001 0.000000 0.000000 1.151884
    49 4.525586 0.000303 -1.850223 0.029257 0.019320 0.933689
    50 1.433227 0.000002 0.000000 0.000000 0.000000 0.907145
    51 1.153036 0.000004 0.000000 0.000000 0.000000 1.151753
    52 7.223970 5.068054 1.800000 -3.141592 -0.000002 1.570798
    53 7.223960 5.068053 -1.800000 -3.141592 -0.000002 1.570798
    54 7.223950 5.068052 0.000000 -3.141592 -0.000002 1.570798
    55 3.723979 2.768055 -0.395205 -3.141592 -0.000098 1.570894
    56 20.747295 -0.313698 4.522630 0.003878 0.001942 1.564441
    57 2.448332 0.177352 0.168606 1.543132 0.019570 -3.045716
  time 7
    0 1.671503 3.866308 27.768466 0.000000 0.071750 -1.972123
    1 -0.526041 0.000001 9.745319 -1.570764 -1.570457 0.000000
    2 -0.000009 0.000014 5.615740 -0.304285 3.424559 -0.324878
    3 15.693467 0.000042 -0.000137 -0.000002 0.000005 -0.783609
    4 22.146626 -0.000002 0.000000 -0.570718 -0.183584 0.452324
    5 0.000009 -0.000011 -5.615755 0.338339 2.862119 -0.698042
    6 15.693451 0.000043 -0.000136 -0.000002 0.000005 -0.842635
    7 22.146624 -0.000001 0.000000 0.227894 0.016116 0.164825
    8 1.384163 -0.004727 0.000003 -0.427378 0.000228 0.000796
    9 5.939812 -0.004729 0.000088 0.104830 -0.000072 0.000000
    10 5.939812 -0.003975 0.000088 -0.113357 0.000084 0.000000
    11 4.991436 -0.003974 0.000074 0.000000 0.000000 0.000000
    12 4.991427 -0.001574 0.000074 0.000000 0.000009 0.000016
    13 -0.001670 0.001564 3.638373 -0.298274 -1.271037 3.426985
    14 8.842823 0.000002 0.000054 0.776990 0.807223 0.295401
    15 0.001739 0.001585 -3.638374 -0.460012 1.252284 2.700821
    16 8.842813 0.000001 -0.000025 0.089565 -0.937547 -0.158005
    17 1.977402 -0.000032 0.003050 -1.159797 0.035620 0.014642
    18 9.341940 0.000000 0.000009 0.000000 0.000000 -0.411650
    19 11.168410 0.000002 -0.000001 -1.568614 0.348787 -0.000162
    20 1.364904 0.231181 -1.984410 2.310665 0.500627 0.873882
    21 1.748533 -0.000003 0.000002 0.000000 0.000000 0.567152
    22 1.272493 0.000001 -0.000003 0.000000 0.000000 0.462442
    23 4.525584 -0.000299 -1.850222 0.079944 0.053299 1.005563
    24 1.719874 -0.000007 0.000000 0.000000 0.000000 0.933358
    25 1.383651 0.000003 0.000001 0.000000 0.000000 0.741431
    26 4.525585 -0.000096 -0.616739 0.042897 0.030017 1.003754
    27 1.807677 -0.000001 -0.000002 0.000000 0.000000 0.881020
    28 1.614256 -0.000004 0.000003 0.000000 0.000000 0.741755
    29 4.525583 0.000106 0.616741 0.028355 0.020544 1.003411
    30 1.719871 -0.000003 0.000000 0.000000 0.000000 0.680308
    31 1.383651 -0.000001 0.000001 0.000000 0.000000 0.741424
    32 4.525584 0.000309 1.850224 -0.030347 -0.017054 1.003377
    33 1.433228 -0.000003 0.000000 0.000000 0.000000 0.680308
    34 1.153038 -0.000001 0.000000 0.000000 0.000000 0.741421
    35 9.341949 0.000000 0.000007 0.000000 0.000000 -0.780774
    36 11.168407 0.000002 0.000011 1.568685 -0.261489 -0.000886
    37 1.364906 0.231175 1.984408 -3.139362 0.004014 1.002034
    38 1.748534 0.000002 -0.000001 0.000000 0.000000 0.436145
    39 1.272493 0.000003 0.000002 0.000000 0.000000 0.322870
    40 4.525587 -0.000302 1.850221 -0.016210 -0.094622 0.192483
    41 1.719872 0.000007 0.000000 0.000000 0.000000 0.034907
    42 1.383647 0.000004 -0.000001 0.000000 0.000000 0.689317
    43 4.525585 -0.000102 0.616738 -0.040896 -0.032761 0.934240
    44 1.807677 -0.000002 -0.000002 0.000000 0.000000 0.907547
    45 1.614256 0.000001 0.000000 0.000000 0.000000 1.151884
    46 4.525587 0.000102 -0.616743 -0.026857 -0.022390 0.933676
    47 1.719867 0.000001 0.000001 0.000000 0.000000 0.907547
    48 1.383648 0.000001 -0.000001 0.000000 0.000000 1.151884
    49 4.525586 0.000303 -1.850223 0.029257 0.019320 0.933689
    50 1.433227 0.000002 0.000000 0.000000 0.000000 0.907145
    51 1.153036 0.000004 0.000000 0.000000 0.000000 1.151753
    52 7.223970 5.068054 1.800000 -3.141592 -0.000002 1.570798
    53 7.223960 5.068053 -1.800000 -3.141592 -0.000002 1.570798
    54 7.223950 5.068052 0.000000 -3.141592 -0.000002 1.570798
    55 3.723979 2.768055 -0.395205 -3.141592 -0.000098 1.570894
    56 20.747295 -0.313698 4.522630 0.003878 0.001942 1.564441
    57 2.448332 0.177352 0.168606 1.543132 0.019570 -3.045716
  time 8
    0 1.671503 3.866308 27.905652 0.000000 0.065254 -1.972123
    1 -0.526041 0.000001 9.745319 -1.570764 -1.570457 0.000000
    2 -0.000009 0.000014 5.615740 -0.308024 3.420630 -0.308917
    3 15.693467 0.000042 -0.000137 -0.000002 0.000005 -0.763406
    4 22.146626 -0.000002 0.000000 -0.569746 -0.182247 0.441852
    5 0.000009 -0.000011 -5.615755 0.342461 2.866625 -0.679926
    6 15.693451 0.000043 -0.000136 -0.000002 0.000005 -0.820827
    7 22.146624 -0.000001 0.000000 0.227499 0.015103 0.155313
    8 1.384163 -0.004727 0.000003 -0.427378 0.000228 0.000796
    9 5.939812 -0.004729 0.000088 0.104830 -0.000072 0.000000
    10 5.939812 -0.003975 0.000088 -0.113357 0.000084 0.000000
    11 4.991436 -0.003974 0.000074 0.000000 0.000000 0.000000
    12 4.991427 -0.001574 0.000074 0.000000 0.000009 0.000016
    13 -0.001670 0.001564 3.638373 -0.298274 -1.271037 3.426985
    14 8.842823 0.000002 0.000054 0.773241 0.807967 0.290698
    15 0.001739 0.001585 -3.638374 -0.460012 1.252284 2.700821
    16 8.842813 0.000001 -0.000025 0.115446 -0.929137 -0.186591
    17 1.977402 -0.000032 0.003050 -1.159903 0.023726 0.009523
    18 9.341940 0.000000 0.000009 0.000000 0.000000 -0.396808
    19 11.168410 0.000002 -0.000001 -1.568614 0.348787 -0.000162
    20 1.364904 0.231181 -1.984410 2.310665 0.500627 0.873882
    21 1.748533 -0.000003 0.000002 0.000000 0.000000 0.567152
    22 1.272493 0.000001 -0.000003 0.000000 0.000000 0.462442
    23 4.525584 -0.000299 -1.850222 0.079944 0.053299 1.005563
    24 1.719874 -0.000007 0.000000 0.000000 0.000000 0.933358
    25 1.383651 0.000003 0.000001 0.000000 0.000000 0.741431
    26 4.525585 -0.000096 -0.616739 0.042897 0.030017 1.003754
    27 1.807677 -0.000001 -0.000002 0.000000 0.000000 0.881020
    28 1.614256 -0.000004 0.000003 0.000000 0.000000 0.741755
    29 4.525583 0.000106 0.616741 0.028355 0.020544 1.003411
    30 1.719871 -0.000003 0.000000 0.000000 0.000000 0.680308
    31 1.383651 -0.000001 0.000001 0.000000 0.000000 0.741424
    32 4.525584 0.000309 1.850224 -0.030347 -0.017054 1.003377
    33 1.433228 -0.000003 0.000000 0.000000 0.000000 0.680308
    34 1.153038 -0.000001 0.000000 0.000000 0.000000 0.741421
    35 9.341949 0.000000 0.000007 0.000000 0.000000 -0.755859
    36 11.168407 0.000002 0.000011 1.568685 -0.261489 -0.000886
    37 1.364906 0.231175 1.984408 -3.139362 0.004014 1.002034
    38 1.748534 0.000002 -0.000001 0.000000 0.000000 0.436145
    39 1.272493 0.000003 0.000002 0.000000 0.000000 0.322870
    40 4.525587 -0.000302 1.850221 -0.016210 -0.094622 0.192483
    41 1.719872 0.000007 0.000000 0.000000 0.000000 0.034907
    42 1.383647 0.000004 -0.000001 0.000000 0.000000 0.689317
    43 4.525585 -0.000102 0.616738 -0.040896 -0.032761 0.934240
    44 1.807677 -0.000002 -0.000002 0.000000 0.000000 0.907547
    45 1.614256 0.000001 0.000000 0.000000 0.000000 1.151884
    46 4.525587 0.000102 -0.616743 -0.026857 -0.022390 0.933676
    47 1.719867 0.000001 0.000001 0.000000 0.000000 0.907547
    48 1.383648 0.000001 -0.000001 0.000000 0.000000 1.151884
    49 4.525586 0.000303 -1.850223 0.029257 0.019320 0.933689
    50 1.433227 0.000002 0.000000 0.000000 0.000000 0.907145
    51 1.153036 0.000004 0.000000 0.000000 0.000000 1.151753
    52 7.223970 5.068054 1.800000 -3.141592 -0.000002 1.570798
    53 7.223960 5.068053 -1.800000 -3.141592 -0.000002 1.570798
    54 7.223950 5.068052 0.000000 -3.141592 -0.000002 1.570798
    55 3.723979 2.768055 -0.395205 -3.141592 -0.000098 1.570894
    56 20.747295 -0.313698 4.522630 0.003878 0.001942 1.564441
    57 2.448332 0.177352 0.168606 1.543132 0.019570 -3.045716
  time 9
    0 1.671503 3.866308 28.082034 0.000000 0.058375 -1.972123
    1 -0.526041 0.000001 9.745319 -1.570764 -1.570457 0.000000
    2 -0.000009 0.000014 5.615740 -0.312625 3.416222 -0.292096
    3 15.693467 0.000042 -0.000137 -0.000002 0.000005 -0.741638
    4 22.146626 -0.000002 0.000000 -0.568699 -0.180860 0.430558
    5 0.000009 -0.000011 -5.615755 0.346871 2.871514 -0.660083
    6 15.693451 0.000043 -0.000136 -0.000002 0.000005 -0.797009
    7 22.146624 -0.000001 0.000000 0.227048 0.014182 0.144391
    8 1.384163 -0.004727 0.000003 -0.427378 0.000228 0.000796
    9 5.939812 -0.004729 0.000088 0.104830 -0.000072 0.000000
    10 5.939812 -0.003975 0.000088 -0.113357 0.000084 0.000000
    11 4.991436 -0.003974 0.000074 0.000000 0.000000 0.000000
    12 4.991427 -0.001574 0.000074 0.000000 0.000009 0.000016
    13 -0.001670 0.001564 3.638373 -0.298274 -1.271037 3.426985
    14 8.842823 0.000002 0.000054 0.769309 0.810293 0.285547
    15 0.001739 0.001585 -3.638374 -0.460012 1.252284 2.700821
    16 8.842813 0.000001 -0.000025 0.142294 -0.919576 -0.216226
    17 1.977402 -0.000032 0.003050 -1.159903 0.011115 0.003858
    18 9.341940 0.000000 0.000009 0.000000 0.000000 -0.379505
    19 11.168410 0.000002 -0.000001 -1.568614 0.348787 -0.000162
    20 1.364904 0.231181 -1.984410 2.310665 0.500627 0.873882
    21 1.748533 -0.000003 0.000002 0.000000 0.000000 0.567152
    22 1.272493 0.000001 -0.000003 0.000000 0.000000 0.462442
    23 4.525584 -0.000299 -1.850222 0.079944 0.053299 1.005563
    24 1.719874 -0.000007 0.000000 0.000000 0.000000 0.933358
    25 1.383651 0.000003 0.000001 0.000000 0.000000 0.741431
    26 4.525585 -0.000096 -0.616739 0.042897 0.030017 1.003754
    27 1.807677 -0.000001 -0.000002 0.000000 0.000000 0.881020
    28 1.614256 -0.000004 0.000003 0.000000 0.000000 0.741755
    29 4.525583 0.000106 0.616741 0.028355 0.020544 1.003411
    30 1.719871 -0.000003 0.000000 0.000000 0.000000 0.680308
    31 1.383651 -0.000001 0.000001 0.000000 0.000000 0.741424
    32 4.525584 0.000309 1.850224 -0.030347 -0.017054 1.003377
    33 1.433228 -0.000003 0.000000 0.000000 0.000000 0.680308
    34 1.153038 -0.000001 0.000000 0.000000 0.000000 0.741421
    35 9.341949 0.000000 0.000007 0.000000 0.000000 -0.729212
    36 11.168407 0.000002 0.000011 1.568685 -0.261489 -0.000886
    37 1.364906 0.231175 1.984408 -3.139362 0.004014 1.002034
    38 1.748534 0.000002 -0.000001 0.000000 0.000000 0.436145
    39 1.272493 0.000003 0.000002 0.000000 0.000000 0.322870
    40 4.525587 -0.000302 1.850221 -0.016210 -0.094622 0.192483
    41 1.719872 0.000007 0.000000 0.000000 0.000000 0.034907
    42 1.383647 0.000004 -0.000001 0.000000 0.000000 0.689317
    43 4.525585 -0.000102 0.616738 -0.040896 -0.032761 0.934240
    44 1.807677 -0.000002 -0.000002 0.000000 0.000000 0.907547
    45 1.614256 0.000001 0.000000 0.000000 0.000000 1.151884
    46 4.525587 0.000102 -0.616743 -0.026857 -0.022390 0.933676
    47 1.719867 0.000001 0.000001 0.000000 0.000000 0.907547
    48 1.383648 0.000001 -0.000001 0.000000 0.000000 1.151884
    49 4.525586 0.000303 -1.850223 0.029257 0.019320 0.933689
    50 1.433227 0.000002 0.000000 0.000000 0.000000 0.907145
    51 1.153036 0.000004 0.000000 0.000000 0.000000 1.151753
    52 7.223970 5.068054 1.800000 -3.141592 -0.000002 1.570798
    53 7.223960 5.068053 -1.800000 -3.141592 -0.000002 1.570798
    54 7.223950 5.068052 0.000000 -3.141592 -0.000002 1.570798
    55 3.723979 2.768055 -0.395205 -3.141592 -0.000098 1.570894
    56 20.747295 -0.313698 4.522630 0.003878 0.001942 1.564441
    57 2.448332 0.177352 0.168606 1.543132 0.019570 -3.045716
  time 10
    0 1.671503 3.866308 28.219220 0.000000 0.052260 -1.972123
    1 -0.526041 0.000001 9.745319 -1.570764 -1.570457 0.000000
    2 -0.000009 0.000014 5.615740 -0.316364 3.412389 -0.276805
    3 15.693467 0.000042 -0.000137 -0.000002 0.000005 -0.721933
    4 22.146626 -0.000002 0.000000 -0.567764 -0.179671 0.420407
    5 0.000009 -0.000011 -5.615755 0.350802 2.876116 -0.642158
    6 15.693451 0.000043 -0.000136 -0.000002 0.000005 -0.775573
    7 22.146624 -0.000001 0.000000 0.226653 0.013292 0.135231
    8 1.384163 -0.004727 0.000003 -0.427378 0.000228 0.000796
    9 5.939812 -0.004729 0.000088 0.104830 -0.000072 0.000000
    10 5.939812 -0.003975 0.000088 -0.113357 0.000084 0.000000
    11 4.991436 -0.003974 0.000074 0.000000 0.000000 0.000000
    12 4.991427 -0.001574 0.000074 0.000000 0.000009 0.000016
    13 -0.001670 0.001564 3.638373 -0.298274 -1.271037 3.426985
    14 8.842823 0.000002 0.000054 0.765834 0.811409 0.281068
    15 0.001739 0.001585 -3.638374 -0.460012 1.252284 2.700821
    16 8.842813 0.000001 -0.000025 0.165111 -0.910989 -0.241668
    17 1.977402 -0.000032 0.003050 -1.159903 -0.000016 -0.000813
    18 9.341940 0.000000 0.000009 0.000000 0.000000 -0.364826
    19 11.168410 0.000002 -0.000001 -1.568614 0.348787 -0.000162
    20 1.364904 0.231181 -1.984410 2.310665 0.500627 0.873882
    21 1.748533 -0.000003 0.000002 0.000000 0.000000 0.567152
    22 1.272493 0.000001 -0.000003 0.000000 0.000000 0.462442
    23 4.525584 -0.000299 -1.850222 0.079944 0.053299 1.005563
    24 1.719874 -0.000007 0.000000 0.000000 0.000000 0.933358
    25 1.383651 0.000003 0.000001 0.000000 0.000000 0.741431
    26 4.525585 -0.000096 -0.616739 0.042897 0.030017 1.003754
    27 1.807677 -0.000001 -0.000002 0.000000 0.000000 0.881020
    28 1.614256 -0.000004 0.000003 0.000000 0.000000 0.741755
    29 4.525583 0.000106 0.616741 0.028355 0.020544 1.003411
    30 1.719871 -0.000003 0.000000 0.000000 0.000000 0.680308
    31 1.383651 -0.000001 0.000001 0.000000 0.000000 0.741424
    32 4.525584 0.000309 1.850224 -0.030347 -0.017054 1.003377
    33 1.433228 -0.000003 0.000000 0.000000 0.000000 0.680308
    34 1.153038 -0.000001 0.000000 0.000000 0.000000 0.741421
    35 9.341949 0.000000 0.000007 0.000000 0.000000 -0.705829
    36 11.168407 0.000002 0.000011 1.568685 -0.261489 -0.000886
    37 1.364906 0.231175 1.984408 -3.139362 0.004014 1.002034
    38 1.748534 0.000002 -0.000001 0.000000 0.000000 0.436145
    39 1.272493 0.000003 0.000002 0.000000 0.000000 0.322870
    40 4.525587 -0.000302 1.850221 -0.016210 -0.094622 0.192483
    41 1.719872 0.000007 0.000000 0.000000 0.000000 0.034907
    42 1.383647 0.000004 -0.000001 0.000000 0.000000 0.689317
    43 4.525585 -0.000102 0.616738 -0.040896 -0.032761 0.934240
    44 1.807677 -0.000002 -0.000002 0.000000 0.000000 0.907547
    45 1.614256 0.000001 0.000000 0.000000 0.000000 1.151884
    46 4.525587 0.000102 -0.616743 -0.026857 -0.022390 0.933676
    47 1.719867 0.000001 0.000001 0.000000 0.000000 0.907547
    48 1.383648 0.000001 -0.000001 0.000000 0.000000 1.151884
    49 4.525586 0.000303 -1.850223 0.029257 0.019320 0.933689
    50 1.433227 0.000002 0.000000 0.000000 0.000000 0.907145
    51 1.153036 0.000004 0.000000 0.000000 0.000000 1.151753
    52 7.223970 5.068054 1.800000 -3.141592 -0.000002 1.570798
    53 7.223960 5.068053 -1.800000 -3.141592 -0.000002 1.570798
    54 7.223950 5.068052 0.000000 -3.141592 -0.000002 1.570798
    55 3.723979 2.768055 -0.395205 -3.141592 -0.000098 1.570894
    56 20.747295 -0.313698 4.522630 0.003878 0.001942 1.564441
    57 2.448332 0.177352 0.168606 1.543132 0.019570 -3.045716
end
