version 1
nodes
  0 "Bip01" -1
  1 "Bip01 Pelvis" 0
  2 "Bip01 L Thigh" 1
  3 "Bip01 L Calf" 2
  4 "Bip01 L Foot" 3
  5 "Bip01 R Thigh" 1
  6 "Bip01 R Calf" 5
  7 "Bip01 R Foot" 6
  8 "Bip01 Spine" 1
  9 "Bip01 Spine1" 8
  10 "Bip01 Spine2" 9
  11 "Bip01 Spine3" 10
  12 "Bip01 Neck" 11
  13 "Bip01 L Clavicle" 12
  14 "Bip01 L UpperArm" 13
  15 "Bip01 R Clavicle" 12
  16 "Bip01 R UpperArm" 15
  17 "Bip01 Head" 12
  18 "Bip01 L Forearm" 14
  19 "Bip01 L Hand" 18
  20 "Bip01 L Finger0" 19
  21 "Bip01 L Finger01" 20
  22 "Bip01 L Finger02" 21
  23 "Bip01 L Finger1" 19
  24 "Bip01 L Finger11" 23
  25 "Bip01 L Finger12" 24
  26 "Bip01 L Finger2" 19
  27 "Bip01 L Finger21" 26
  28 "Bip01 L Finger22" 27
  29 "Bip01 L Finger3" 19
  30 "Bip01 L Finger31" 29
  31 "Bip01 L Finger32" 30
  32 "Bip01 L Finger4" 19
  33 "Bip01 L Finger41" 32
  34 "Bip01 L Finger42" 33
  35 "Bip01 R Forearm" 16
  36 "Bip01 R Hand" 35
  37 "Bip01 R Finger0" 36
  38 "Bip01 R Finger01" 37
  39 "Bip01 R Finger02" 38
  40 "Bip01 R Finger1" 36
  41 "Bip01 R Finger11" 40
  42 "Bip01 R Finger12" 41
  43 "Bip01 R Finger2" 36
  44 "Bip01 R Finger21" 43
  45 "Bip01 R Finger22" 44
  46 "Bip01 R Finger3" 36
  47 "Bip01 R Finger31" 46
  48 "Bip01 R Finger32" 47
  49 "Bip01 R Finger4" 36
  50 "Bip01 R Finger41" 49
  51 "Bip01 R Finger42" 50
  52 "R_eye" 17
  53 "L_eye" 17
  54 "E_lids" 17
  55 "Mouth" 17
  56 "p_rpg" 36
  57 "Line04" 36
end
skeleton
  time 0
    0 0.028664 5.380356 4.427233 -0.327915 0.329134 -2.048822
    1 -0.526041 0.000001 9.745319 -1.570764 -1.570457 0.000000
    2 -0.000009 0.000014 5.615740 -2.666758 6.088178 0.091435
    3 15.693467 0.000042 -0.000137 -0.000002 0.000005 -2.276851
    4 22.146626 -0.000002 0.000000 -0.166800 0.232124 -0.235908
    5 0.000009 -0.000011 -5.615755 -0.145441 2.788970 -0.779712
    6 15.693451 0.000043 -0.000136 -0.000002 0.000005 -2.305128
    7 22.146624 -0.000001 0.000000 -0.656041 0.599315 0.175130
    8 1.384163 -0.004727 0.000003 -0.361742 0.294526 -0.084385
    9 5.939812 -0.004729 0.000088 0.000000 0.000000 0.000000
    10 5.939812 -0.003975 0.000088 0.000000 0.000000 0.165792
    11 4.991436 -0.003974 0.000074 0.000000 0.000000 0.000000
    12 4.991427 -0.001574 0.000074 0.000000 0.000009 0.000016
    13 -0.001670 0.001564 3.638373 -0.000014 -1.284225 3.140794
    14 8.842823 0.000002 0.000054 -0.862413 0.398660 -1.122873
    15 0.001739 0.001585 -3.638374 -0.000014 1.284245 3.140766
    16 8.842813 0.000001 -0.000025 0.717800 -0.540681 -2.069859
    17 1.977402 -0.000032 0.003050 0.756777 -0.083391 0.209192
    18 9.341940 0.000000 0.000009 0.000000 0.000000 -0.615838
    19 11.168410 0.000002 -0.000001 -4.229330 0.602156 -0.623294
    20 1.364904 0.231181 -1.984410 2.565369 0.787582 1.289645
    21 1.748533 -0.000003 0.000002 0.000000 0.000000 -0.043585
    22 1.272493 0.000001 -0.000003 0.000000 0.000000 0.253072
    23 4.525584 -0.000299 -1.850222 0.062830 0.072738 0.735167
    24 1.719874 -0.000007 0.000000 0.000000 0.000000 0.619418
    25 1.383651 0.000003 0.000001 0.000000 0.000000 0.741566
    26 4.525585 -0.000096 -0.616739 0.033453 0.040263 0.733447
    27 1.807677 -0.000001 -0.000002 0.000000 0.000000 0.567102
    28 1.614256 -0.000004 0.000003 0.000000 0.000000 0.741755
    29 4.525583 0.000106 0.616741 0.021763 0.027388 0.733134
    30 1.719871 -0.000003 0.000000 0.000000 0.000000 0.366391
    31 1.383651 -0.000001 0.000001 0.000000 0.000000 0.741562
    32 4.525584 0.000309 1.850224 -0.024762 -0.024689 0.733175
    33 1.433228 -0.000003 0.000000 0.000000 0.000000 0.366391
    34 1.153038 -0.000001 0.000000 0.000000 0.000000 0.741559
    35 9.341949 0.000000 0.000007 0.000000 0.000000 -1.015535
    36 11.168407 0.000002 0.000011 1.833794 -0.006504 0.980663
    37 1.364906 0.231175 1.984408 -3.139678 0.004068 1.002176
    38 1.748534 0.000002 -0.000001 0.000000 0.000000 0.436228
    39 1.272493 0.000003 0.000002 0.000000 0.000000 0.322870
    40 4.525587 -0.000302 1.850221 -0.016281 -0.094622 0.192575
    41 1.719872 0.000007 0.000000 0.000000 0.000000 0.453708
    42 1.383647 0.000004 -0.000001 0.000000 0.000000 1.108155
    43 4.525585 -0.000102 0.616738 -0.040896 -0.032761 0.934331
    44 1.807677 -0.000002 -0.000002 0.000000 0.000000 0.907547
    45 1.614256 0.000001 0.000000 0.000000 0.000000 1.151884
    46 4.525587 0.000102 -0.616743 -0.026857 -0.022390 0.933833
    47 1.719867 0.000001 0.000001 0.000000 0.000000 0.907547
    48 1.383648 0.000001 -0.000001 0.000000 0.000000 1.151884
    49 4.525586 0.000303 -1.850223 0.029257 0.019236 0.933763
    50 1.433227 0.000002 0.000000 0.000000 0.000000 0.907324
    51 1.153036 0.000004 0.000000 0.000000 0.000000 1.151753
    52 7.223970 5.068054 1.800000 -3.141592 -0.000002 1.570798
    53 7.223960 5.068053 -1.800000 -3.141592 -0.000002 1.570798
    54 7.223950 5.068052 0.000000 -3.141592 -0.000002 1.570798
    55 3.723979 2.768055 -0.395205 -3.141592 -0.000098 1.570894
    56 20.747295 -0.313698 4.522630 0.003878 0.001942 1.564441
    57 2.448332 0.177352 0.168606 1.543132 0.019570 -3.045716
  time 1
    0 0.036200 6.323995 4.270449 -0.378636 0.309358 -2.082378
    1 -0.526041 0.000001 9.745319 -1.570764 -1.570723 0.000000
    2 -0.000009 0.000014 5.615740 -2.652857 6.103606 0.059419
    3 15.693467 0.000042 -0.000137 -0.000002 0.000005 -2.249535
    4 22.146626 -0.000002 0.000000 -0.173791 0.278608 -0.282869
    5 0.000009 -0.000011 -5.615755 -0.178038 2.763947 -0.869912
    6 15.693451 0.000043 -0.000136 -0.000002 0.000005 -2.351275
    7 22.146624 -0.000001 0.000000 -0.742855 0.510541 -0.055809
    8 1.384163 -0.004727 0.000003 -0.361742 0.294526 -0.084385
    9 5.939812 -0.004729 0.000088 0.000000 0.000000 0.000000
    10 5.939812 -0.003975 0.000088 0.000000 0.000000 0.165792
    11 4.991436 -0.003974 0.000074 0.000000 0.000000 0.000000
    12 4.991427 -0.001574 0.000074 0.000000 0.000009 0.000016
    13 -0.001670 0.001564 3.638373 -0.000014 -1.284225 3.140794
    14 8.842823 0.000002 0.000054 -0.801420 0.551127 -1.046282
    15 0.001739 0.001585 -3.638374 -0.000014 1.284245 3.140766
    16 8.842813 0.000001 -0.000025 0.628951 -0.631952 -1.851746
    17 1.977402 -0.000032 0.003050 0.756777 -0.083391 0.209192
    18 9.341940 0.000000 0.000009 0.000000 0.000000 -0.980342
    19 11.168410 0.000002 -0.000001 -4.110733 0.563691 -0.327697
    20 1.364904 0.231181 -1.984410 2.565369 0.787582 1.289645
    21 1.748533 -0.000003 0.000002 0.000000 0.000000 -0.043585
    22 1.272493 0.000001 -0.000003 0.000000 0.000000 0.253072
    23 4.525584 -0.000299 -1.850222 0.062830 0.072738 0.735167
    24 1.719874 -0.000007 0.000000 0.000000 0.000000 0.619418
    25 1.383651 0.000003 0.000001 0.000000 0.000000 0.741566
    26 4.525585 -0.000096 -0.616739 0.033453 0.040263 0.733447
    27 1.807677 -0.000001 -0.000002 0.000000 0.000000 0.567102
    28 1.614256 -0.000004 0.000003 0.000000 0.000000 0.741755
    29 4.525583 0.000106 0.616741 0.021763 0.027388 0.733134
    30 1.719871 -0.000003 0.000000 0.000000 0.000000 0.366391
    31 1.383651 -0.000001 0.000001 0.000000 0.000000 0.741562
    32 4.525584 0.000309 1.850224 -0.024762 -0.024689 0.733175
    33 1.433228 -0.000003 0.000000 0.000000 0.000000 0.366391
    34 1.153038 -0.000001 0.000000 0.000000 0.000000 0.741559
    35 9.341949 0.000000 0.000007 0.000000 0.000000 -1.348757
    36 11.168407 0.000002 0.000011 1.839014 -0.088711 1.074672
    37 1.364906 0.231175 1.984408 -3.139678 0.004068 1.002176
    38 1.748534 0.000002 -0.000001 0.000000 0.000000 0.436228
    39 1.272493 0.000003 0.000002 0.000000 0.000000 0.322870
    40 4.525587 -0.000302 1.850221 -0.016281 -0.094622 0.192575
    41 1.719872 0.000007 0.000000 0.000000 0.000000 0.453708
    42 1.383647 0.000004 -0.000001 0.000000 0.000000 1.108155
    43 4.525585 -0.000102 0.616738 -0.040896 -0.032761 0.934331
    44 1.807677 -0.000002 -0.000002 0.000000 0.000000 0.907547
    45 1.614256 0.000001 0.000000 0.000000 0.000000 1.151884
    46 4.525587 0.000102 -0.616743 -0.026857 -0.022390 0.933833
    47 1.719867 0.000001 0.000001 0.000000 0.000000 0.907547
    48 1.383648 0.000001 -0.000001 0.000000 0.000000 1.151884
    49 4.525586 0.000303 -1.850223 0.029257 0.019236 0.933763
    50 1.433227 0.000002 0.000000 0.000000 0.000000 0.907324
    51 1.153036 0.000004 0.000000 0.000000 0.000000 1.151753
    52 7.223970 5.068054 1.800000 -3.141592 -0.000002 1.570798
    53 7.223960 5.068053 -1.800000 -3.141592 -0.000002 1.570798
    54 7.223950 5.068052 0.000000 -3.141592 -0.000002 1.570798
    55 3.723979 2.768055 -0.395205 -3.141592 -0.000098 1.570894
    56 20.747295 -0.313698 4.522630 0.003878 0.001942 1.564441
    57 2.448332 0.177352 0.168606 1.543132 0.019570 -3.045716
  time 2
    0 0.036200 6.169069 3.858890 -0.356073 0.262925 -2.025429
    1 -0.526041 0.000001 9.745319 -1.570764 -1.570457 0.000000
    2 -0.000009 0.000014 5.615740 -2.713062 6.076199 0.127084
    3 15.693467 0.000042 -0.000137 -0.000002 0.000005 -2.222005
    4 22.146626 -0.000002 0.000000 -0.181828 0.311620 -0.303904
    5 0.000009 -0.000011 -5.615755 -0.170655 2.741418 -0.795528
    6 15.693451 0.000043 -0.000136 -0.000002 0.000005 -2.361100
    7 22.146624 -0.000001 0.000000 -0.747142 0.515422 -0.087517
    8 1.384163 -0.004727 0.000003 -0.361742 0.294526 -0.084385
    9 5.939812 -0.004729 0.000088 0.000000 0.000000 0.000000
    10 5.939812 -0.003975 0.000088 0.000000 0.000000 0.165792
    11 4.991436 -0.003974 0.000074 0.000000 0.000000 0.000000
    12 4.991427 -0.001574 0.000074 0.000000 0.000009 0.000016
    13 -0.001670 0.001564 3.638373 -0.000014 -1.284225 3.140794
    14 8.842823 0.000002 0.000054 -0.788435 0.619872 -1.144223
    15 0.001739 0.001585 -3.638374 -0.000014 1.284245 3.140766
    16 8.842813 0.000001 -0.000025 0.528169 -0.703482 -1.638206
    17 1.977402 -0.000032 0.003050 0.756777 -0.083391 0.209192
    18 9.341940 0.000000 0.000009 0.000000 0.000000 -1.001253
    19 11.168410 0.000002 -0.000001 -4.050288 0.516615 -0.258122
    20 1.364904 0.231181 -1.984410 2.565369 0.787582 1.289645
    21 1.748533 -0.000003 0.000002 0.000000 0.000000 -0.043585
    22 1.272493 0.000001 -0.000003 0.000000 0.000000 0.253072
    23 4.525584 -0.000299 -1.850222 0.062830 0.072738 0.735167
    24 1.719874 -0.000007 0.000000 0.000000 0.000000 0.619418
    25 1.383651 0.000003 0.000001 0.000000 0.000000 0.741566
    26 4.525585 -0.000096 -0.616739 0.033453 0.040263 0.733447
    27 1.807677 -0.000001 -0.000002 0.000000 0.000000 0.567102
    28 1.614256 -0.000004 0.000003 0.000000 0.000000 0.741755
    29 4.525583 0.000106 0.616741 0.021763 0.027388 0.733134
    30 1.719871 -0.000003 0.000000 0.000000 0.000000 0.366391
    31 1.383651 -0.000001 0.000001 0.000000 0.000000 0.741562
    32 4.525584 0.000309 1.850224 -0.024762 -0.024689 0.733175
    33 1.433228 -0.000003 0.000000 0.000000 0.000000 0.366391
    34 1.153038 -0.000001 0.000000 0.000000 0.000000 0.741559
    35 9.341949 0.000000 0.000007 0.000000 0.000000 -1.615228
    36 11.168407 0.000002 0.000011 1.848242 -0.104392 1.203934
    37 1.364906 0.231175 1.984408 -3.139678 0.004068 1.002176
    38 1.748534 0.000002 -0.000001 0.000000 0.000000 0.436228
    39 1.272493 0.000003 0.000002 0.000000 0.000000 0.322870
    40 4.525587 -0.000302 1.850221 -0.016281 -0.094622 0.192575
    41 1.719872 0.000007 0.000000 0.000000 0.000000 0.453708
    42 1.383647 0.000004 -0.000001 0.000000 0.000000 1.108155
    43 4.525585 -0.000102 0.616738 -0.040896 -0.032761 0.934331
    44 1.807677 -0.000002 -0.000002 0.000000 0.000000 0.907547
    45 1.614256 0.000001 0.000000 0.000000 0.000000 1.151884
    46 4.525587 0.000102 -0.616743 -0.026857 -0.022390 0.933833
    47 1.719867 0.000001 0.000001 0.000000 0.000000 0.907547
    48 1.383648 0.000001 -0.000001 0.000000 0.000000 1.151884
    49 4.525586 0.000303 -1.850223 0.029257 0.019236 0.933763
    50 1.433227 0.000002 0.000000 0.000000 0.000000 0.907324
    51 1.153036 0.000004 0.000000 0.000000 0.000000 1.151753
    52 7.223970 5.068054 1.800000 -3.141592 -0.000002 1.570798
    53 7.223960 5.068053 -1.800000 -3.141592 -0.000002 1.570798
    54 7.223950 5.068052 0.000000 -3.141592 -0.000002 1.570798
    55 3.723979 2.768055 -0.395205 -3.141592 -0.000098 1.570894
    56 20.747295 -0.313698 4.522630 0.003878 0.001942 1.564441
    57 2.448332 0.177352 0.168606 1.543132 0.019570 -3.045716
  time 3
    0 0.036200 6.232448 3.898086 -0.355420 0.264263 -2.025908
    1 -0.526041 0.000001 9.745319 -1.570764 -1.570723 0.000000
    2 -0.000009 0.000014 5.615740 -2.713062 6.074379 0.130429
    3 15.693467 0.000042 -0.000137 -0.000002 0.000005 -2.217452
    4 22.146626 -0.000002 0.000000 -0.181454 0.310035 -0.303355
    5 0.000009 -0.000011 -5.615755 -0.165191 2.748320 -0.789777
    6 15.693451 0.000043 -0.000136 -0.000002 0.000005 -2.350233
    7 22.146624 -0.000001 0.000000 -0.738906 0.526657 -0.059156
    8 1.384163 -0.004727 0.000003 -0.361742 0.294526 -0.084385
    9 5.939812 -0.004729 0.000088 0.000000 0.000000 0.000000
    10 5.939812 -0.003975 0.000088 0.000000 0.000000 0.165792
    11 4.991436 -0.003974 0.000074 0.000000 0.000000 0.000000
    12 4.991427 -0.001574 0.000074 0.000000 0.000009 0.000016
    13 -0.001670 0.001564 3.638373 -0.000014 -1.284225 3.140794
    14 8.842823 0.000002 0.000054 -0.791269 0.603221 -1.141013
    15 0.001739 0.001585 -3.638374 -0.000014 1.284245 3.140766
    16 8.842813 0.000001 -0.000025 0.530830 -0.702331 -1.643732
    17 1.977402 -0.000032 0.003050 0.756777 -0.083391 0.209192
    18 9.341940 0.000000 0.000009 0.000000 0.000000 -1.014866
    19 11.168410 0.000002 -0.000001 -4.041312 0.525801 -0.245003
    20 1.364904 0.231181 -1.984410 2.565369 0.787582 1.289645
    21 1.748533 -0.000003 0.000002 0.000000 0.000000 -0.043585
    22 1.272493 0.000001 -0.000003 0.000000 0.000000 0.253072
    23 4.525584 -0.000299 -1.850222 0.062830 0.072738 0.735167
    24 1.719874 -0.000007 0.000000 0.000000 0.000000 0.619418
    25 1.383651 0.000003 0.000001 0.000000 0.000000 0.741566
    26 4.525585 -0.000096 -0.616739 0.033453 0.040263 0.733447
    27 1.807677 -0.000001 -0.000002 0.000000 0.000000 0.567102
    28 1.614256 -0.000004 0.000003 0.000000 0.000000 0.741755
    29 4.525583 0.000106 0.616741 0.021763 0.027388 0.733134
    30 1.719871 -0.000003 0.000000 0.000000 0.000000 0.366391
    31 1.383651 -0.000001 0.000001 0.000000 0.000000 0.741562
    32 4.525584 0.000309 1.850224 -0.024762 -0.024689 0.733175
    33 1.433228 -0.000003 0.000000 0.000000 0.000000 0.366391
    34 1.153038 -0.000001 0.000000 0.000000 0.000000 0.741559
    35 9.341949 0.000000 0.000007 0.000000 0.000000 -1.613829
    36 11.168407 0.000002 0.000011 1.850853 -0.095459 1.183722
    37 1.364906 0.231175 1.984408 -3.139678 0.004068 1.002176
    38 1.748534 0.000002 -0.000001 0.000000 0.000000 0.436228
    39 1.272493 0.000003 0.000002 0.000000 0.000000 0.322870
    40 4.525587 -0.000302 1.850221 -0.016281 -0.094622 0.192575
    41 1.719872 0.000007 0.000000 0.000000 0.000000 0.453708
    42 1.383647 0.000004 -0.000001 0.000000 0.000000 1.108155
    43 4.525585 -0.000102 0.616738 -0.040896 -0.032761 0.934331
    44 1.807677 -0.000002 -0.000002 0.000000 0.000000 0.907547
    45 1.614256 0.000001 0.000000 0.000000 0.000000 1.151884
    46 4.525587 0.000102 -0.616743 -0.026857 -0.022390 0.933833
    47 1.719867 0.000001 0.000001 0.000000 0.000000 0.907547
    48 1.383648 0.000001 -0.000001 0.000000 0.000000 1.151884
    49 4.525586 0.000303 -1.850223 0.029257 0.019236 0.933763
    50 1.433227 0.000002 0.000000 0.000000 0.000000 0.907324
    51 1.153036 0.000004 0.000000 0.000000 0.000000 1.151753
    52 7.223970 5.068054 1.800000 -3.141592 -0.000002 1.570798
    53 7.223960 5.068053 -1.800000 -3.141592 -0.000002 1.570798
    54 7.223950 5.068052 0.000000 -3.141592 -0.000002 1.570798
    55 3.723979 2.768055 -0.395205 -3.141592 -0.000098 1.570894
    56 20.747295 -0.313698 4.522630 0.003878 0.001942 1.564441
    57 2.448332 0.177352 0.168606 1.543132 0.019570 -3.045716
  time 4
    0 0.036200 6.338079 3.996076 -0.353835 0.267702 -2.027442
    1 -0.526041 0.000001 9.745319 -1.570764 -1.570457 0.000000
    2 -0.000009 0.000014 5.615740 -2.712295 6.071504 0.136163
    3 15.693467 0.000042 -0.000137 -0.000002 0.000005 -2.210196
    4 22.146626 -0.000002 0.000000 -0.180669 0.306023 -0.301663
    5 0.000009 -0.000011 -5.615755 -0.156083 2.764427 -0.783067
    6 15.693451 0.000043 -0.000136 -0.000002 0.000005 -2.341748
    7 22.146624 -0.000001 0.000000 -0.719332 0.550692 0.016855
    8 1.384163 -0.004727 0.000003 -0.361742 0.294526 -0.084385
    9 5.939812 -0.004729 0.000088 0.000000 0.000000 0.000000
    10 5.939812 -0.003975 0.000088 0.000000 0.000000 0.165792
    11 4.991436 -0.003974 0.000074 0.000000 0.000000 0.000000
    12 4.991427 -0.001574 0.000074 0.000000 0.000009 0.000016
    13 -0.001670 0.001564 3.638373 -0.000014 -1.284225 3.140794
    14 8.842823 0.000002 0.000054 -0.793373 0.588058 -1.131980
    15 0.001739 0.001585 -3.638374 -0.000014 1.284245 3.140766
    16 8.842813 0.000001 -0.000025 0.532926 -0.702685 -1.653356
    17 1.977402 -0.000032 0.003050 0.756777 -0.083391 0.209192
    18 9.341940 0.000000 0.000009 0.000000 0.000000 -1.034383
    19 11.168410 0.000002 -0.000001 -4.033864 0.536326 -0.233014
    20 1.364904 0.231181 -1.984410 2.565369 0.787582 1.289645
    21 1.748533 -0.000003 0.000002 0.000000 0.000000 -0.043585
    22 1.272493 0.000001 -0.000003 0.000000 0.000000 0.253072
    23 4.525584 -0.000299 -1.850222 0.062830 0.072738 0.735167
    24 1.719874 -0.000007 0.000000 0.000000 0.000000 0.619418
    25 1.383651 0.000003 0.000001 0.000000 0.000000 0.741566
    26 4.525585 -0.000096 -0.616739 0.033453 0.040263 0.733447
    27 1.807677 -0.000001 -0.000002 0.000000 0.000000 0.567102
    28 1.614256 -0.000004 0.000003 0.000000 0.000000 0.741755
    29 4.525583 0.000106 0.616741 0.021763 0.027388 0.733134
    30 1.719871 -0.000003 0.000000 0.000000 0.000000 0.366391
    31 1.383651 -0.000001 0.000001 0.000000 0.000000 0.741562
    32 4.525584 0.000309 1.850224 -0.024762 -0.024689 0.733175
    33 1.433228 -0.000003 0.000000 0.000000 0.000000 0.366391
    34 1.153038 -0.000001 0.000000 0.000000 0.000000 0.741559
    35 9.341949 0.000000 0.000007 0.000000 0.000000 -1.610698
    36 11.168407 0.000002 0.000011 1.853183 -0.080823 1.162476
    37 1.364906 0.231175 1.984408 -3.139678 0.004068 1.002176
    38 1.748534 0.000002 -0.000001 0.000000 0.000000 0.436228
    39 1.272493 0.000003 0.000002 0.000000 0.000000 0.322870
    40 4.525587 -0.000302 1.850221 -0.016281 -0.094622 0.192575
    41 1.719872 0.000007 0.000000 0.000000 0.000000 0.453708
    42 1.383647 0.000004 -0.000001 0.000000 0.000000 1.108155
    43 4.525585 -0.000102 0.616738 -0.040896 -0.032761 0.934331
    44 1.807677 -0.000002 -0.000002 0.000000 0.000000 0.907547
    45 1.614256 0.000001 0.000000 0.000000 0.000000 1.151884
    46 4.525587 0.000102 -0.616743 -0.026857 -0.022390 0.933833
    47 1.719867 0.000001 0.000001 0.000000 0.000000 0.907547
    48 1.383648 0.000001 -0.000001 0.000000 0.000000 1.151884
    49 4.525586 0.000303 -1.850223 0.029257 0.019236 0.933763
    50 1.433227 0.000002 0.000000 0.000000 0.000000 0.907324
    51 1.153036 0.000004 0.000000 0.000000 0.000000 1.151753
    52 7.223970 5.068054 1.800000 -3.141592 -0.000002 1.570798
    53 7.223960 5.068053 -1.800000 -3.141592 -0.000002 1.570798
    54 7.223950 5.068052 0.000000 -3.141592 -0.000002 1.570798
    55 3.723979 2.768055 -0.395205 -3.141592 -0.000098 1.570894
    56 20.747295 -0.313698 4.522630 0.003878 0.001942 1.564441
    57 2.448332 0.177352 0.168606 1.543132 0.019570 -3.045716
  time 5
    0 0.036200 6.422584 4.094067 -0.351504 0.273052 -2.029168
    1 -0.526041 0.000001 9.745319 -1.570764 -1.570457 0.000000
    2 -0.000009 0.000014 5.615740 -2.710474 6.069204 0.140655
    3 15.693467 0.000042 -0.000137 -0.000002 0.000005 -2.204434
    4 22.146626 -0.000002 0.000000 -0.179548 0.299807 -0.298416
    5 0.000009 -0.000011 -5.615755 -0.147933 2.781012 -0.779328
    6 15.693451 0.000043 -0.000136 -0.000002 0.000005 -2.334304
    7 22.146624 -0.000001 0.000000 -0.695866 0.572640 0.095508
    8 1.384163 -0.004727 0.000003 -0.361742 0.294526 -0.084385
    9 5.939812 -0.004729 0.000088 0.000000 0.000000 0.000000
    10 5.939812 -0.003975 0.000088 0.000000 0.000000 0.165792
    11 4.991436 -0.003974 0.000074 0.000000 0.000000 0.000000
    12 4.991427 -0.001574 0.000074 0.000000 0.000009 0.000016
    13 -0.001670 0.001564 3.638373 -0.000014 -1.284225 3.140794
    14 8.842823 0.000002 0.000054 -0.792092 0.578569 -1.116303
    15 0.001739 0.001585 -3.638374 -0.000014 1.284245 3.140766
    16 8.842813 0.000001 -0.000025 0.531475 -0.706049 -1.661932
    17 1.977402 -0.000032 0.003050 0.756777 -0.083391 0.209192
    18 9.341940 0.000000 0.000009 0.000000 0.000000 -1.068578
    19 11.168410 0.000002 -0.000001 -4.025461 0.545512 -0.216062
    20 1.364904 0.231181 -1.984410 2.565369 0.787582 1.289645
    21 1.748533 -0.000003 0.000002 0.000000 0.000000 -0.043585
    22 1.272493 0.000001 -0.000003 0.000000 0.000000 0.253072
    23 4.525584 -0.000299 -1.850222 0.062830 0.072738 0.735167
    24 1.719874 -0.000007 0.000000 0.000000 0.000000 0.619418
    25 1.383651 0.000003 0.000001 0.000000 0.000000 0.741566
    26 4.525585 -0.000096 -0.616739 0.033453 0.040263 0.733447
    27 1.807677 -0.000001 -0.000002 0.000000 0.000000 0.567102
    28 1.614256 -0.000004 0.000003 0.000000 0.000000 0.741755
    29 4.525583 0.000106 0.616741 0.021763 0.027388 0.733134
    30 1.719871 -0.000003 0.000000 0.000000 0.000000 0.366391
    31 1.383651 -0.000001 0.000001 0.000000 0.000000 0.741562
    32 4.525584 0.000309 1.850224 -0.024762 -0.024689 0.733175
    33 1.433228 -0.000003 0.000000 0.000000 0.000000 0.366391
    34 1.153038 -0.000001 0.000000 0.000000 0.000000 0.741559
    35 9.341949 0.000000 0.000007 0.000000 0.000000 -1.615228
    36 11.168407 0.000002 0.000011 1.854395 -0.062291 1.144896
    37 1.364906 0.231175 1.984408 -3.139678 0.004068 1.002176
    38 1.748534 0.000002 -0.000001 0.000000 0.000000 0.436228
    39 1.272493 0.000003 0.000002 0.000000 0.000000 0.322870
    40 4.525587 -0.000302 1.850221 -0.016281 -0.094622 0.192575
    41 1.719872 0.000007 0.000000 0.000000 0.000000 0.453708
    42 1.383647 0.000004 -0.000001 0.000000 0.000000 1.108155
    43 4.525585 -0.000102 0.616738 -0.040896 -0.032761 0.934331
    44 1.807677 -0.000002 -0.000002 0.000000 0.000000 0.907547
    45 1.614256 0.000001 0.000000 0.000000 0.000000 1.151884
    46 4.525587 0.000102 -0.616743 -0.026857 -0.022390 0.933833
    47 1.719867 0.000001 0.000001 0.000000 0.000000 0.907547
    48 1.383648 0.000001 -0.000001 0.000000 0.000000 1.151884
    49 4.525586 0.000303 -1.850223 0.029257 0.019236 0.933763
    50 1.433227 0.000002 0.000000 0.000000 0.000000 0.907324
    51 1.153036 0.000004 0.000000 0.000000 0.000000 1.151753
    52 7.223970 5.068054 1.800000 -3.141592 -0.000002 1.570798
    53 7.223960 5.068053 -1.800000 -3.141592 -0.000002 1.570798
    54 7.223950 5.068052 0.000000 -3.141592 -0.000002 1.570798
    55 3.723979 2.768055 -0.395205 -3.141592 -0.000098 1.570894
    56 20.747295 -0.313698 4.522630 0.003878 0.001942 1.564441
    57 2.448332 0.177352 0.168606 1.543132 0.019570 -3.045716
  time 6
    0 0.036200 6.408500 4.172459 -0.348707 0.279836 -2.031565
    1 -0.526041 0.000001 9.745319 -1.570764 -1.570457 0.000000
    2 -0.000009 0.000014 5.615740 -2.706351 6.069108 0.139413
    3 15.693467 0.000042 -0.000137 -0.000002 0.000005 -2.205856
    4 22.146626 -0.000002 0.000000 -0.178127 0.291808 -0.292883
    5 0.000009 -0.000011 -5.615755 -0.142660 2.788394 -0.775782
    6 15.693451 0.000043 -0.000136 -0.000002 0.000005 -2.326415
    7 22.146624 -0.000001 0.000000 -0.681143 0.582340 0.134967
    8 1.384163 -0.004727 0.000003 -0.361742 0.294526 -0.084385
    9 5.939812 -0.004729 0.000088 0.000000 0.000000 0.000000
    10 5.939812 -0.003975 0.000088 0.000000 0.000000 0.165792
    11 4.991436 -0.003974 0.000074 0.000000 0.000000 0.000000
    12 4.991427 -0.001574 0.000074 0.000000 0.000009 0.000016
    13 -0.001670 0.001564 3.638373 -0.000014 -1.284225 3.140794
    14 8.842823 0.000002 0.000054 -0.785783 0.579220 -1.093237
    15 0.001739 0.001585 -3.638374 -0.000014 1.284245 3.140766
    16 8.842813 0.000001 -0.000025 0.523654 -0.714459 -1.663838
    17 1.977402 -0.000032 0.003050 0.756777 -0.083391 0.209192
    18 9.341940 0.000000 0.000009 0.000000 0.000000 -1.124340
    19 11.168410 0.000002 -0.000001 -4.014766 0.551922 -0.188792
    20 1.364904 0.231181 -1.984410 2.565369 0.787582 1.289645
    21 1.748533 -0.000003 0.000002 0.000000 0.000000 -0.043585
    22 1.272493 0.000001 -0.000003 0.000000 0.000000 0.253072
    23 4.525584 -0.000299 -1.850222 0.062830 0.072738 0.735167
    24 1.719874 -0.000007 0.000000 0.000000 0.000000 0.619418
    25 1.383651 0.000003 0.000001 0.000000 0.000000 0.741566
    26 4.525585 -0.000096 -0.616739 0.033453 0.040263 0.733447
    27 1.807677 -0.000001 -0.000002 0.000000 0.000000 0.567102
    28 1.614256 -0.000004 0.000003 0.000000 0.000000 0.741755
    29 4.525583 0.000106 0.616741 0.021763 0.027388 0.733134
    30 1.719871 -0.000003 0.000000 0.000000 0.000000 0.366391
    31 1.383651 -0.000001 0.000001 0.000000 0.000000 0.741562
    32 4.525584 0.000309 1.850224 -0.024762 -0.024689 0.733175
    33 1.433228 -0.000003 0.000000 0.000000 0.000000 0.366391
    34 1.153038 -0.000001 0.000000 0.000000 0.000000 0.741559
    35 9.341949 0.000000 0.000007 0.000000 0.000000 -1.635613
    36 11.168407 0.000002 0.000011 1.855327 -0.040527 1.136248
    37 1.364906 0.231175 1.984408 -3.139678 0.004068 1.002176
    38 1.748534 0.000002 -0.000001 0.000000 0.000000 0.436228
    39 1.272493 0.000003 0.000002 0.000000 0.000000 0.322870
    40 4.525587 -0.000302 1.850221 -0.016281 -0.094622 0.192575
    41 1.719872 0.000007 0.000000 0.000000 0.000000 0.453708
    42 1.383647 0.000004 -0.000001 0.000000 0.000000 1.108155
    43 4.525585 -0.000102 0.616738 -0.040896 -0.032761 0.934331
    44 1.807677 -0.000002 -0.000002 0.000000 0.000000 0.907547
    45 1.614256 0.000001 0.000000 0.000000 0.000000 1.151884
    46 4.525587 0.000102 -0.616743 -0.026857 -0.022390 0.933833
    47 1.719867 0.000001 0.000001 0.000000 0.000000 0.907547
    48 1.383648 0.000001 -0.000001 0.000000 0.000000 1.151884
    49 4.525586 0.000303 -1.850223 0.029257 0.019236 0.933763
    50 1.433227 0.000002 0.000000 0.000000 0.000000 0.907324
    51 1.153036 0.000004 0.000000 0.000000 0.000000 1.151753
    52 7.223970 5.068054 1.800000 -3.141592 -0.000002 1.570798
    53 7.223960 5.068053 -1.800000 -3.141592 -0.000002 1.570798
    54 7.223950 5.068052 0.000000 -3.141592 -0.000002 1.570798
    55 3.723979 2.768055 -0.395205 -3.141592 -0.000098 1.570894
    56 20.747295 -0.313698 4.522630 0.003878 0.001942 1.564441
    57 2.448332 0.177352 0.168606 1.543132 0.019570 -3.045716
  time 7
    0 0.036200 6.302869 4.231253 -0.345164 0.287670 -2.034345
    1 -0.526041 0.000001 9.745319 -1.570764 -1.570457 0.000000
    2 -0.000009 0.000014 5.615740 -2.700695 6.071216 0.133296
    3 15.693467 0.000042 -0.000137 -0.000002 0.000005 -2.213824
    4 22.146626 -0.000002 0.000000 -0.176520 0.282595 -0.285247
    5 0.000009 -0.000011 -5.615755 -0.140359 2.788107 -0.772906
    6 15.693451 0.000043 -0.000136 -0.000002 0.000005 -2.319493
    7 22.146624 -0.000001 0.000000 -0.676066 0.583844 0.140956
    8 1.384163 -0.004727 0.000003 -0.361742 0.294526 -0.084385
    9 5.939812 -0.004729 0.000088 0.000000 0.000000 0.000000
    10 5.939812 -0.003975 0.000088 0.000000 0.000000 0.165792
    11 4.991436 -0.003974 0.000074 0.000000 0.000000 0.000000
    12 4.991427 -0.001574 0.000074 0.000000 0.000009 0.000016
    13 -0.001670 0.001564 3.638373 -0.000014 -1.284225 3.140794
    14 8.842823 0.000002 0.000054 -0.800597 0.554755 -1.090400
    15 0.001739 0.001585 -3.638374 -0.000014 1.284245 3.140766
    16 8.842813 0.000001 -0.000025 0.559452 -0.691442 -1.735209
    17 1.977402 -0.000032 0.003050 0.756777 -0.083391 0.209192
    18 9.341940 0.000000 0.000009 0.000000 0.000000 -1.050947
    19 11.168410 0.000002 -0.000001 -4.051434 0.566083 -0.259203
    20 1.364904 0.231181 -1.984410 2.565369 0.787582 1.289645
    21 1.748533 -0.000003 0.000002 0.000000 0.000000 -0.043585
    22 1.272493 0.000001 -0.000003 0.000000 0.000000 0.253072
    23 4.525584 -0.000299 -1.850222 0.062830 0.072738 0.735167
    24 1.719874 -0.000007 0.000000 0.000000 0.000000 0.619418
    25 1.383651 0.000003 0.000001 0.000000 0.000000 0.741566
    26 4.525585 -0.000096 -0.616739 0.033453 0.040263 0.733447
    27 1.807677 -0.000001 -0.000002 0.000000 0.000000 0.567102
    28 1.614256 -0.000004 0.000003 0.000000 0.000000 0.741755
    29 4.525583 0.000106 0.616741 0.021763 0.027388 0.733134
    30 1.719871 -0.000003 0.000000 0.000000 0.000000 0.366391
    31 1.383651 -0.000001 0.000001 0.000000 0.000000 0.741562
    32 4.525584 0.000309 1.850224 -0.024762 -0.024689 0.733175
    33 1.433228 -0.000003 0.000000 0.000000 0.000000 0.366391
    34 1.153038 -0.000001 0.000000 0.000000 0.000000 0.741559
    35 9.341949 0.000000 0.000007 0.000000 0.000000 -1.537885
    36 11.168407 0.000002 0.000011 1.851878 -0.033779 1.112557
    37 1.364906 0.231175 1.984408 -3.139678 0.004068 1.002176
    38 1.748534 0.000002 -0.000001 0.000000 0.000000 0.436228
    39 1.272493 0.000003 0.000002 0.000000 0.000000 0.322870
    40 4.525587 -0.000302 1.850221 -0.016281 -0.094622 0.192575
    41 1.719872 0.000007 0.000000 0.000000 0.000000 0.453708
    42 1.383647 0.000004 -0.000001 0.000000 0.000000 1.108155
    43 4.525585 -0.000102 0.616738 -0.040896 -0.032761 0.934331
    44 1.807677 -0.000002 -0.000002 0.000000 0.000000 0.907547
    45 1.614256 0.000001 0.000000 0.000000 0.000000 1.151884
    46 4.525587 0.000102 -0.616743 -0.026857 -0.022390 0.933833
    47 1.719867 0.000001 0.000001 0.000000 0.000000 0.907547
    48 1.383648 0.000001 -0.000001 0.000000 0.000000 1.151884
    49 4.525586 0.000303 -1.850223 0.029257 0.019236 0.933763
    50 1.433227 0.000002 0.000000 0.000000 0.000000 0.907324
    51 1.153036 0.000004 0.000000 0.000000 0.000000 1.151753
    52 7.223970 5.068054 1.800000 -3.141592 -0.000002 1.570798
    53 7.223960 5.068053 -1.800000 -3.141592 -0.000002 1.570798
    54 7.223950 5.068052 0.000000 -3.141592 -0.000002 1.570798
    55 3.723979 2.768055 -0.395205 -3.141592 -0.000098 1.570894
    56 20.747295 -0.313698 4.522630 0.003878 0.001942 1.564441
    57 2.448332 0.177352 0.168606 1.543132 0.019570 -3.045716
  time 8
    0 0.036200 6.154985 4.270449 -0.341621 0.296269 -2.037413
    1 -0.526041 0.000001 9.745319 -1.570764 -1.570457 0.000000
    2 -0.000009 0.000014 5.615740 -2.694560 6.074187 0.125555
    3 15.693467 0.000042 -0.000137 -0.000002 0.000005 -2.224708
    4 22.146626 -0.000002 0.000000 -0.174688 0.272392 -0.276193
    5 0.000009 -0.000011 -5.615755 -0.140072 2.788107 -0.772714
    6 15.693451 0.000043 -0.000136 -0.000002 0.000005 -2.314804
    7 22.146624 -0.000001 0.000000 -0.671497 0.586392 0.148531
    8 1.384163 -0.004727 0.000003 -0.361742 0.294526 -0.084385
    9 5.939812 -0.004729 0.000088 0.000000 0.000000 0.000000
    10 5.939812 -0.003975 0.000088 0.000000 0.000000 0.165792
    11 4.991436 -0.003974 0.000074 0.000000 0.000000 0.000000
    12 4.991427 -0.001574 0.000074 0.000000 0.000009 0.000016
    13 -0.001670 0.001564 3.638373 -0.000014 -1.284225 3.140794
    14 8.842823 0.000002 0.000054 -0.812484 0.531592 -1.087862
    15 0.001739 0.001585 -3.638374 -0.000014 1.284245 3.140766
    16 8.842813 0.000001 -0.000025 0.592589 -0.667894 -1.803244
    17 1.977402 -0.000032 0.003050 0.756777 -0.083391 0.209192
    18 9.341940 0.000000 0.000009 0.000000 0.000000 -0.981326
    19 11.168410 0.000002 -0.000001 -4.087147 0.576896 -0.326960
    20 1.364904 0.231181 -1.984410 2.565369 0.787582 1.289645
    21 1.748533 -0.000003 0.000002 0.000000 0.000000 -0.043585
    22 1.272493 0.000001 -0.000003 0.000000 0.000000 0.253072
    23 4.525584 -0.000299 -1.850222 0.062830 0.072738 0.735167
    24 1.719874 -0.000007 0.000000 0.000000 0.000000 0.619418
    25 1.383651 0.000003 0.000001 0.000000 0.000000 0.741566
    26 4.525585 -0.000096 -0.616739 0.033453 0.040263 0.733447
    27 1.807677 -0.000001 -0.000002 0.000000 0.000000 0.567102
    28 1.614256 -0.000004 0.000003 0.000000 0.000000 0.741755
    29 4.525583 0.000106 0.616741 0.021763 0.027388 0.733134
    30 1.719871 -0.000003 0.000000 0.000000 0.000000 0.366391
    31 1.383651 -0.000001 0.000001 0.000000 0.000000 0.741562
    32 4.525584 0.000309 1.850224 -0.024762 -0.024689 0.733175
    33 1.433228 -0.000003 0.000000 0.000000 0.000000 0.366391
    34 1.153038 -0.000001 0.000000 0.000000 0.000000 0.741559
    35 9.341949 0.000000 0.000007 0.000000 0.000000 -1.443021
    36 11.168407 0.000002 0.000011 1.848242 -0.026842 1.090935
    37 1.364906 0.231175 1.984408 -3.139678 0.004068 1.002176
    38 1.748534 0.000002 -0.000001 0.000000 0.000000 0.436228
    39 1.272493 0.000003 0.000002 0.000000 0.000000 0.322870
    40 4.525587 -0.000302 1.850221 -0.016281 -0.094622 0.192575
    41 1.719872 0.000007 0.000000 0.000000 0.000000 0.453708
    42 1.383647 0.000004 -0.000001 0.000000 0.000000 1.108155
    43 4.525585 -0.000102 0.616738 -0.040896 -0.032761 0.934331
    44 1.807677 -0.000002 -0.000002 0.000000 0.000000 0.907547
    45 1.614256 0.000001 0.000000 0.000000 0.000000 1.151884
    46 4.525587 0.000102 -0.616743 -0.026857 -0.022390 0.933833
    47 1.719867 0.000001 0.000001 0.000000 0.000000 0.907547
    48 1.383648 0.000001 -0.000001 0.000000 0.000000 1.151884
    49 4.525586 0.000303 -1.850223 0.029257 0.019236 0.933763
    50 1.433227 0.000002 0.000000 0.000000 0.000000 0.907324
    51 1.153036 0.000004 0.000000 0.000000 0.000000 1.151753
    52 7.223970 5.068054 1.800000 -3.141592 -0.000002 1.570798
    53 7.223960 5.068053 -1.800000 -3.141592 -0.000002 1.570798
    54 7.223950 5.068052 0.000000 -3.141592 -0.000002 1.570798
    55 3.723979 2.768055 -0.395205 -3.141592 -0.000098 1.570894
    56 20.747295 -0.313698 4.522630 0.003878 0.001942 1.564441
    57 2.448332 0.177352 0.168606 1.543132 0.019570 -3.045716
  time 9
    0 0.036200 5.964849 4.309645 -0.337985 0.305058 -2.040481
    1 -0.526041 0.000001 9.745319 -1.570764 -1.570457 0.000000
    2 -0.000009 0.000014 5.615740 -2.687082 6.077828 0.116475
    3 15.693467 0.000042 -0.000137 -0.000002 0.000005 -2.237584
    4 22.146626 -0.000002 0.000000 -0.172707 0.261842 -0.266316
    5 0.000009 -0.000011 -5.615755 -0.140839 2.788298 -0.774248
    6 15.693451 0.000043 -0.000136 -0.000002 0.000005 -2.311677
    7 22.146624 -0.000001 0.000000 -0.667210 0.589615 0.155753
    8 1.384163 -0.004727 0.000003 -0.361742 0.294526 -0.084385
    9 5.939812 -0.004729 0.000088 0.000000 0.000000 0.000000
    10 5.939812 -0.003975 0.000088 0.000000 0.000000 0.165792
    11 4.991436 -0.003974 0.000074 0.000000 0.000000 0.000000
    12 4.991427 -0.001574 0.000074 0.000000 0.000009 0.000016
    13 -0.001670 0.001564 3.638373 -0.000014 -1.284225 3.140794
    14 8.842823 0.000002 0.000054 -0.823640 0.507685 -1.087041
    15 0.001739 0.001585 -3.638374 -0.000014 1.284245 3.140766
    16 8.842813 0.000001 -0.000025 0.623952 -0.642841 -1.869183
    17 1.977402 -0.000032 0.003050 0.756777 -0.083391 0.209192
    18 9.341940 0.000000 0.000009 0.000000 0.000000 -0.910558
    19 11.168410 0.000002 -0.000001 -4.122764 0.585411 -0.394177
    20 1.364904 0.231181 -1.984410 2.565369 0.787582 1.289645
    21 1.748533 -0.000003 0.000002 0.000000 0.000000 -0.043585
    22 1.272493 0.000001 -0.000003 0.000000 0.000000 0.253072
    23 4.525584 -0.000299 -1.850222 0.062830 0.072738 0.735167
    24 1.719874 -0.000007 0.000000 0.000000 0.000000 0.619418
    25 1.383651 0.000003 0.000001 0.000000 0.000000 0.741566
    26 4.525585 -0.000096 -0.616739 0.033453 0.040263 0.733447
    27 1.807677 -0.000001 -0.000002 0.000000 0.000000 0.567102
    28 1.614256 -0.000004 0.000003 0.000000 0.000000 0.741755
    29 4.525583 0.000106 0.616741 0.021763 0.027388 0.733134
    30 1.719871 -0.000003 0.000000 0.000000 0.000000 0.366391
    31 1.383651 -0.000001 0.000001 0.000000 0.000000 0.741562
    32 4.525584 0.000309 1.850224 -0.024762 -0.024689 0.733175
    33 1.433228 -0.000003 0.000000 0.000000 0.000000 0.366391
    34 1.153038 -0.000001 0.000000 0.000000 0.000000 0.741559
    35 9.341949 0.000000 0.000007 0.000000 0.000000 -1.348224
    36 11.168407 0.000002 0.000011 1.844514 -0.019809 1.069219
    37 1.364906 0.231175 1.984408 -3.139678 0.004068 1.002176
    38 1.748534 0.000002 -0.000001 0.000000 0.000000 0.436228
    39 1.272493 0.000003 0.000002 0.000000 0.000000 0.322870
    40 4.525587 -0.000302 1.850221 -0.016281 -0.094622 0.192575
    41 1.719872 0.000007 0.000000 0.000000 0.000000 0.453708
    42 1.383647 0.000004 -0.000001 0.000000 0.000000 1.108155
    43 4.525585 -0.000102 0.616738 -0.040896 -0.032761 0.934331
    44 1.807677 -0.000002 -0.000002 0.000000 0.000000 0.907547
    45 1.614256 0.000001 0.000000 0.000000 0.000000 1.151884
    46 4.525587 0.000102 -0.616743 -0.026857 -0.022390 0.933833
    47 1.719867 0.000001 0.000001 0.000000 0.000000 0.907547
    48 1.383648 0.000001 -0.000001 0.000000 0.000000 1.151884
    49 4.525586 0.000303 -1.850223 0.029257 0.019236 0.933763
    50 1.433227 0.000002 0.000000 0.000000 0.000000 0.907324
    51 1.153036 0.000004 0.000000 0.000000 0.000000 1.151753
    52 7.223970 5.068054 1.800000 -3.141592 -0.000002 1.570798
    53 7.223960 5.068053 -1.800000 -3.141592 -0.000002 1.570798
    54 7.223950 5.068052 0.000000 -3.141592 -0.000002 1.570798
    55 3.723979 2.768055 -0.395205 -3.141592 -0.000098 1.570894
    56 20.747295 -0.313698 4.522630 0.003878 0.001942 1.564441
    57 2.448332 0.177352 0.168606 1.543132 0.019570 -3.045716
  time 10
    0 0.028664 5.760628 4.348841 -0.334162 0.313752 -2.043453
    1 -0.526041 0.000001 9.745319 -1.570764 -1.570457 0.000000
    2 -0.000009 0.000014 5.615740 -2.680084 6.081566 0.106822
    3 15.693467 0.000042 -0.000137 -0.000002 0.000005 -2.251527
    4 22.146626 -0.000002 0.000000 -0.170651 0.251292 -0.255982
    5 0.000009 -0.000011 -5.615755 -0.142373 2.788586 -0.776357
    6 15.693451 0.000043 -0.000136 -0.000002 0.000005 -2.309668
    7 22.146624 -0.000001 0.000000 -0.663205 0.593145 0.162623
    8 1.384163 -0.004727 0.000003 -0.361742 0.294526 -0.084385
    9 5.939812 -0.004729 0.000088 0.000000 0.000000 0.000000
    10 5.939812 -0.003975 0.000088 0.000000 0.000000 0.165792
    11 4.991436 -0.003974 0.000074 0.000000 0.000000 0.000000
    12 4.991427 -0.001574 0.000074 0.000000 0.000009 0.000016
    13 -0.001670 0.001564 3.638373 -0.000014 -1.284225 3.140794
    14 8.842823 0.000002 0.000054 -0.834522 0.480336 -1.090251
    15 0.001739 0.001585 -3.638374 -0.000014 1.284245 3.140766
    16 8.842813 0.000001 -0.000025 0.654509 -0.614601 -1.934360
    17 1.977402 -0.000032 0.003050 0.756777 -0.083391 0.209192
    18 9.341940 0.000000 0.000009 0.000000 0.000000 -0.832573
    19 11.168410 0.000002 -0.000001 -4.158573 0.591918 -0.463212
    20 1.364904 0.231181 -1.984410 2.565369 0.787582 1.289645
    21 1.748533 -0.000003 0.000002 0.000000 0.000000 -0.043585
    22 1.272493 0.000001 -0.000003 0.000000 0.000000 0.253072
    23 4.525584 -0.000299 -1.850222 0.062830 0.072738 0.735167
    24 1.719874 -0.000007 0.000000 0.000000 0.000000 0.619418
    25 1.383651 0.000003 0.000001 0.000000 0.000000 0.741566
    26 4.525585 -0.000096 -0.616739 0.033453 0.040263 0.733447
    27 1.807677 -0.000001 -0.000002 0.000000 0.000000 0.567102
    28 1.614256 -0.000004 0.000003 0.000000 0.000000 0.741755
    29 4.525583 0.000106 0.616741 0.021763 0.027388 0.733134
    30 1.719871 -0.000003 0.000000 0.000000 0.000000 0.366391
    31 1.383651 -0.000001 0.000001 0.000000 0.000000 0.741562
    32 4.525584 0.000309 1.850224 -0.024762 -0.024689 0.733175
    33 1.433228 -0.000003 0.000000 0.000000 0.000000 0.366391
    34 1.153038 -0.000001 0.000000 0.000000 0.000000 0.741559
    35 9.341949 0.000000 0.000007 0.000000 0.000000 -1.249097
    36 11.168407 0.000002 0.000011 1.840972 -0.013346 1.045905
    37 1.364906 0.231175 1.984408 -3.139678 0.004068 1.002176
    38 1.748534 0.000002 -0.000001 0.000000 0.000000 0.436228
    39 1.272493 0.000003 0.000002 0.000000 0.000000 0.322870
    40 4.525587 -0.000302 1.850221 -0.016281 -0.094622 0.192575
    41 1.719872 0.000007 0.000000 0.000000 0.000000 0.453708
    42 1.383647 0.000004 -0.000001 0.000000 0.000000 1.108155
    43 4.525585 -0.000102 0.616738 -0.040896 -0.032761 0.934331
    44 1.807677 -0.000002 -0.000002 0.000000 0.000000 0.907547
    45 1.614256 0.000001 0.000000 0.000000 0.000000 1.151884
    46 4.525587 0.000102 -0.616743 -0.026857 -0.022390 0.933833
    47 1.719867 0.000001 0.000001 0.000000 0.000000 0.907547
    48 1.383648 0.000001 -0.000001 0.000000 0.000000 1.151884
    49 4.525586 0.000303 -1.850223 0.029257 0.019236 0.933763
    50 1.433227 0.000002 0.000000 0.000000 0.000000 0.907324
    51 1.153036 0.000004 0.000000 0.000000 0.000000 1.151753
    52 7.223970 5.068054 1.800000 -3.141592 -0.000002 1.570798
    53 7.223960 5.068053 -1.800000 -3.141592 -0.000002 1.570798
    54 7.223950 5.068052 0.000000 -3.141592 -0.000002 1.570798
    55 3.723979 2.768055 -0.395205 -3.141592 -0.000098 1.570894
    56 20.747295 -0.313698 4.522630 0.003878 0.001942 1.564441
    57 2.448332 0.177352 0.168606 1.543132 0.019570 -3.045716
  time 11
    0 0.028664 5.556408 4.368439 -0.330992 0.321969 -2.046330
    1 -0.526041 0.000001 9.745319 -1.570764 -1.570457 0.000000
    2 -0.000009 0.000014 5.615740 -2.673277 6.085207 0.098412
    3 15.693467 0.000042 -0.000137 -0.000002 0.000005 -2.264971
    4 22.146626 -0.000002 0.000000 -0.168670 0.241188 -0.245694
    5 0.000009 -0.000011 -5.615755 -0.144002 2.788778 -0.778753
    6 15.693451 0.000043 -0.000136 -0.000002 0.000005 -2.307733
    7 22.146624 -0.000001 0.000000 -0.659482 0.596491 0.169405
    8 1.384163 -0.004727 0.000003 -0.361742 0.294526 -0.084385
    9 5.939812 -0.004729 0.000088 0.000000 0.000000 0.000000
    10 5.939812 -0.003975 0.000088 0.000000 0.000000 0.165792
    11 4.991436 -0.003974 0.000074 0.000000 0.000000 0.000000
    12 4.991427 -0.001574 0.000074 0.000000 0.000009 0.000016
    13 -0.001670 0.001564 3.638373 -0.000014 -1.284225 3.140794
    14 8.842823 0.000002 0.000054 -0.846959 0.446196 -1.100627
    15 0.001739 0.001585 -3.638374 -0.000014 1.284245 3.140766
    16 8.842813 0.000001 -0.000025 0.685711 -0.581492 -2.000585
    17 1.977402 -0.000032 0.003050 0.756777 -0.083391 0.209192
    18 9.341940 0.000000 0.000009 0.000000 0.000000 -0.738843
    19 11.168410 0.000002 -0.000001 -4.193808 0.597467 -0.537504
    20 1.364904 0.231181 -1.984410 2.565369 0.787582 1.289645
    21 1.748533 -0.000003 0.000002 0.000000 0.000000 -0.043585
    22 1.272493 0.000001 -0.000003 0.000000 0.000000 0.253072
    23 4.525584 -0.000299 -1.850222 0.062830 0.072738 0.735167
    24 1.719874 -0.000007 0.000000 0.000000 0.000000 0.619418
    25 1.383651 0.000003 0.000001 0.000000 0.000000 0.741566
    26 4.525585 -0.000096 -0.616739 0.033453 0.040263 0.733447
    27 1.807677 -0.000001 -0.000002 0.000000 0.000000 0.567102
    28 1.614256 -0.000004 0.000003 0.000000 0.000000 0.741755
    29 4.525583 0.000106 0.616741 0.021763 0.027388 0.733134
    30 1.719871 -0.000003 0.000000 0.000000 0.000000 0.366391
    31 1.383651 -0.000001 0.000001 0.000000 0.000000 0.741562
    32 4.525584 0.000309 1.850224 -0.024762 -0.024689 0.733175
    33 1.433228 -0.000003 0.000000 0.000000 0.000000 0.366391
    34 1.153038 -0.000001 0.000000 0.000000 0.000000 0.741559
    35 9.341949 0.000000 0.000007 0.000000 0.000000 -1.140643
    36 11.168407 0.000002 0.000011 1.837243 -0.008975 1.016762
    37 1.364906 0.231175 1.984408 -3.139678 0.004068 1.002176
    38 1.748534 0.000002 -0.000001 0.000000 0.000000 0.436228
    39 1.272493 0.000003 0.000002 0.000000 0.000000 0.322870
    40 4.525587 -0.000302 1.850221 -0.016281 -0.094622 0.192575
    41 1.719872 0.000007 0.000000 0.000000 0.000000 0.453708
    42 1.383647 0.000004 -0.000001 0.000000 0.000000 1.108155
    43 4.525585 -0.000102 0.616738 -0.040896 -0.032761 0.934331
    44 1.807677 -0.000002 -0.000002 0.000000 0.000000 0.907547
    45 1.614256 0.000001 0.000000 0.000000 0.000000 1.151884
    46 4.525587 0.000102 -0.616743 -0.026857 -0.022390 0.933833
    47 1.719867 0.000001 0.000001 0.000000 0.000000 0.907547
    48 1.383648 0.000001 -0.000001 0.000000 0.000000 1.151884
    49 4.525586 0.000303 -1.850223 0.029257 0.019236 0.933763
    50 1.433227 0.000002 0.000000 0.000000 0.000000 0.907324
    51 1.153036 0.000004 0.000000 0.000000 0.000000 1.151753
    52 7.223970 5.068054 1.800000 -3.141592 -0.000002 1.570798
    53 7.223960 5.068053 -1.800000 -3.141592 -0.000002 1.570798
    54 7.223950 5.068052 0.000000 -3.141592 -0.000002 1.570798
    55 3.723979 2.768055 -0.395205 -3.141592 -0.000098 1.570894
    56 20.747295 -0.313698 4.522630 0.003878 0.001942 1.564441
    57 2.448332 0.177352 0.168606 1.543132 0.019570 -3.045716
  time 12
    0 0.028664 5.380356 4.427233 -0.327915 0.329134 -2.048822
    1 -0.526041 0.000001 9.745319 -1.570764 -1.570457 0.000000
    2 -0.000009 0.000014 5.615740 -2.666758 6.088178 0.091435
    3 15.693467 0.000042 -0.000137 -0.000002 0.000005 -2.276851
    4 22.146626 -0.000002 0.000000 -0.166800 0.232124 -0.235908
    5 0.000009 -0.000011 -5.615755 -0.145441 2.788970 -0.779712
    6 15.693451 0.000043 -0.000136 -0.000002 0.000005 -2.305128
    7 22.146624 -0.000001 0.000000 -0.656041 0.599315 0.175130
    8 1.384163 -0.004727 0.000003 -0.361742 0.294526 -0.084385
    9 5.939812 -0.004729 0.000088 0.000000 0.000000 0.000000
    10 5.939812 -0.003975 0.000088 0.000000 0.000000 0.165792
    11 4.991436 -0.003974 0.000074 0.000000 0.000000 0.000000
    12 4.991427 -0.001574 0.000074 0.000000 0.000009 0.000016
    13 -0.001670 0.001564 3.638373 -0.000014 -1.284225 3.140794
    14 8.842823 0.000002 0.000054 -0.862413 0.398660 -1.122873
    15 0.001739 0.001585 -3.638374 -0.000014 1.284245 3.140766
    16 8.842813 0.000001 -0.000025 0.717800 -0.540681 -2.069859
    17 1.977402 -0.000032 0.003050 0.756777 -0.083391 0.209192
    18 9.341940 0.000000 0.000009 0.000000 0.000000 -0.615838
    19 11.168410 0.000002 -0.000001 -4.229330 0.602156 -0.623294
    20 1.364904 0.231181 -1.984410 2.565369 0.787582 1.289645
    21 1.748533 -0.000003 0.000002 0.000000 0.000000 -0.043585
    22 1.272493 0.000001 -0.000003 0.000000 0.000000 0.253072
    23 4.525584 -0.000299 -1.850222 0.062830 0.072738 0.735167
    24 1.719874 -0.000007 0.000000 0.000000 0.000000 0.619418
    25 1.383651 0.000003 0.000001 0.000000 0.000000 0.741566
    26 4.525585 -0.000096 -0.616739 0.033453 0.040263 0.733447
    27 1.807677 -0.000001 -0.000002 0.000000 0.000000 0.567102
    28 1.614256 -0.000004 0.000003 0.000000 0.000000 0.741755
    29 4.525583 0.000106 0.616741 0.021763 0.027388 0.733134
    30 1.719871 -0.000003 0.000000 0.000000 0.000000 0.366391
    31 1.383651 -0.000001 0.000001 0.000000 0.000000 0.741562
    32 4.525584 0.000309 1.850224 -0.024762 -0.024689 0.733175
    33 1.433228 -0.000003 0.000000 0.000000 0.000000 0.366391
    34 1.153038 -0.000001 0.000000 0.000000 0.000000 0.741559
    35 9.341949 0.000000 0.000007 0.000000 0.000000 -1.015535
    36 11.168407 0.000002 0.000011 1.833794 -0.006504 0.980663
    37 1.364906 0.231175 1.984408 -3.139678 0.004068 1.002176
    38 1.748534 0.000002 -0.000001 0.000000 0.000000 0.436228
    39 1.272493 0.000003 0.000002 0.000000 0.000000 0.322870
    40 4.525587 -0.000302 1.850221 -0.016281 -0.094622 0.192575
    41 1.719872 0.000007 0.000000 0.000000 0.000000 0.453708
    42 1.383647 0.000004 -0.000001 0.000000 0.000000 1.108155
    43 4.525585 -0.000102 0.616738 -0.040896 -0.032761 0.934331
    44 1.807677 -0.000002 -0.000002 0.000000 0.000000 0.907547
    45 1.614256 0.000001 0.000000 0.000000 0.000000 1.151884
    46 4.525587 0.000102 -0.616743 -0.026857 -0.022390 0.933833
    47 1.719867 0.000001 0.000001 0.000000 0.000000 0.907547
    48 1.383648 0.000001 -0.000001 0.000000 0.000000 1.151884
    49 4.525586 0.000303 -1.850223 0.029257 0.019236 0.933763
    50 1.433227 0.000002 0.000000 0.000000 0.000000 0.907324
    51 1.153036 0.000004 0.000000 0.000000 0.000000 1.151753
    52 7.223970 5.068054 1.800000 -3.141592 -0.000002 1.570798
    53 7.223960 5.068053 -1.800000 -3.141592 -0.000002 1.570798
    54 7.223950 5.068052 0.000000 -3.141592 -0.000002 1.570798
    55 3.723979 2.768055 -0.395205 -3.141592 -0.000098 1.570894
    56 20.747295 -0.313698 4.522630 0.003878 0.001942 1.564441
    57 2.448332 0.177352 0.168606 1.543132 0.019570 -3.045716
end
