version 1
nodes
  0 "Bip01" -1
  1 "Bip01 Pelvis" 0
  2 "Bip01 L Thigh" 1
  3 "Bip01 L Calf" 2
  4 "Bip01 L Foot" 3
  5 "Bip01 R Thigh" 1
  6 "Bip01 R Calf" 5
  7 "Bip01 R Foot" 6
  8 "Bip01 Spine" 1
  9 "Bip01 Spine1" 8
  10 "Bip01 Spine2" 9
  11 "Bip01 Spine3" 10
  12 "Bip01 Neck" 11
  13 "Bip01 L Clavicle" 12
  14 "Bip01 L UpperArm" 13
  15 "Bip01 R Clavicle" 12
  16 "Bip01 R UpperArm" 15
  17 "Bip01 Head" 12
  18 "Bip01 L Forearm" 14
  19 "Bip01 L Hand" 18
  20 "Bip01 L Finger0" 19
  21 "Bip01 L Finger01" 20
  22 "Bip01 L Finger02" 21
  23 "Bip01 L Finger1" 19
  24 "Bip01 L Finger11" 23
  25 "Bip01 L Finger12" 24
  26 "Bip01 L Finger2" 19
  27 "Bip01 L Finger21" 26
  28 "Bip01 L Finger22" 27
  29 "Bip01 L Finger3" 19
  30 "Bip01 L Finger31" 29
  31 "Bip01 L Finger32" 30
  32 "Bip01 L Finger4" 19
  33 "Bip01 L Finger41" 32
  34 "Bip01 L Finger42" 33
  35 "Bip01 R Forearm" 16
  36 "Bip01 R Hand" 35
  37 "Bip01 R Finger0" 36
  38 "Bip01 R Finger01" 37
  39 "Bip01 R Finger02" 38
  40 "Bip01 R Finger1" 36
  41 "Bip01 R Finger11" 40
  42 "Bip01 R Finger12" 41
  43 "Bip01 R Finger2" 36
  44 "Bip01 R Finger21" 43
  45 "Bip01 R Finger22" 44
  46 "Bip01 R Finger3" 36
  47 "Bip01 R Finger31" 46
  48 "Bip01 R Finger32" 47
  49 "Bip01 R Finger4" 36
  50 "Bip01 R Finger41" 49
  51 "Bip01 R Finger42" 50
  52 "R_eye" 17
  53 "L_eye" 17
  54 "E_lids" 17
  55 "Mouth" 17
  56 "p_rpg" 36
  57 "Line04" 36
end
skeleton
  time 0
    0 2.063373 3.098721 0.488032 1.544100 -2.845268 -6.275417
    1 2.274826 -9.457319 -1.493305 -1.570764 -1.570723 0.000000
    2 -0.000009 0.000014 5.615740 0.000000 3.386037 -0.955177
    3 15.693467 0.000042 -0.000137 -0.000002 0.000005 -1.351213
    4 22.146626 -0.000002 0.000000 0.235397 0.065380 -0.485210
    5 0.000009 -0.000011 -5.615755 0.022243 3.449229 -0.088302
    6 15.693451 0.000043 -0.000136 -0.000002 0.000005 -1.389181
    7 22.146624 -0.000001 0.000000 0.411619 0.566470 -0.009304
    8 1.384163 -0.004727 0.000003 -0.205798 -0.019657 0.009545
    9 5.939812 -0.004729 0.000088 0.000000 0.000000 0.000000
    10 5.939812 -0.003975 0.000088 0.000000 0.000000 0.000000
    11 4.991436 -0.003974 0.000074 0.000000 0.000000 0.000000
    12 4.991427 -0.001574 0.000074 0.000000 0.000009 0.000016
    13 -0.001670 0.001564 3.638373 1.401934 -0.517248 1.902265
    14 8.842823 0.000002 0.000054 -1.719514 0.327404 0.203805
    15 0.001739 0.001585 -3.638374 -0.822987 1.160925 2.361059
    16 8.842813 0.000001 -0.000025 -0.673879 -1.185333 0.556653
    17 1.977402 -0.000032 0.003050 0.093779 -0.187106 -0.024914
    18 9.341940 0.000000 0.000009 0.000000 0.000000 -1.629316
    19 11.168410 0.000002 -0.000001 -1.644910 0.168425 0.195101
    20 1.364904 0.231181 -1.984410 1.654963 0.937380 0.206842
    21 1.748533 -0.000003 0.000002 0.000000 0.000000 0.000051
    22 1.272493 0.000001 -0.000003 0.000000 0.000000 -0.000020
    23 4.525584 -0.000299 -1.850222 0.008947 0.462178 0.108154
    24 1.719874 -0.000007 0.000000 0.000000 0.000000 0.000020
    25 1.383651 0.000003 0.000001 0.000000 0.000000 0.000000
    26 4.525585 -0.000096 -0.616739 0.003552 0.226816 0.105345
    27 1.807677 -0.000001 -0.000002 0.000000 0.000000 0.000027
    28 1.614256 -0.000004 0.000003 0.000000 0.000000 0.000000
    29 4.525583 0.000106 0.616741 0.001641 0.034926 0.104713
    30 1.719871 -0.000003 0.000000 0.000000 0.000000 0.000125
    31 1.383651 -0.000001 0.000001 0.000000 0.000000 0.000000
    32 4.525584 0.000309 1.850224 -0.014456 -0.164777 0.158627
    33 1.433228 -0.000003 0.000000 0.000000 0.000000 0.052298
    34 1.153038 -0.000001 0.000000 0.000000 0.000000 0.052336
    35 9.341949 0.000000 0.000007 0.000000 0.000000 -1.583518
    36 11.168407 0.000002 0.000011 1.735450 -1.072823 -0.228106
    37 1.364906 0.231175 1.984408 -0.462086 -0.585621 0.250788
    38 1.748534 0.000002 -0.000001 0.000000 0.000000 0.069823
    39 1.272493 0.000003 0.000002 0.000000 0.000000 0.069761
    40 4.525587 -0.000302 1.850221 -0.038765 -0.087839 0.437866
    41 1.719872 0.000007 0.000000 0.000000 0.000000 0.331516
    42 1.383647 0.000004 -0.000001 0.000000 0.000000 0.331519
    43 4.525585 -0.000102 0.616738 -0.015513 -0.050127 0.340650
    44 1.807677 -0.000002 -0.000002 0.000000 0.000000 0.235588
    45 1.614256 0.000001 0.000000 0.000000 0.000000 0.235594
    46 4.525587 0.000102 -0.616743 -0.012068 -0.032913 0.410214
    47 1.719867 0.000001 0.000001 0.000000 0.000000 0.305348
    48 1.383648 0.000001 -0.000001 0.000000 0.000000 0.305389
    49 4.525586 0.000303 -1.850223 0.017644 0.030237 0.471439
    50 1.433227 0.000002 0.000000 0.000000 0.000000 0.366416
    51 1.153036 0.000004 0.000000 0.000000 0.000000 0.366335
    52 7.223970 5.068054 1.800000 -3.141592 -0.000002 1.570798
    53 7.223960 5.068053 -1.800000 -3.141592 -0.000002 1.570798
    54 7.223950 5.068052 0.000000 -3.141592 -0.000002 1.570798
    55 3.723979 2.768055 -0.395205 -3.141592 -0.000098 1.570894
    56 20.747295 -0.313698 4.522630 0.003878 0.001942 1.564441
    57 2.448332 0.177352 0.168606 1.543132 0.019570 -3.045716
  time 1
    0 2.063373 3.098721 0.488032 1.544100 -2.845268 -6.275417
    1 2.274826 -9.457319 -1.493305 -1.570764 -1.570723 0.000000
    2 -0.000009 0.000014 5.615740 0.000000 3.386037 -0.955177
    3 15.693467 0.000042 -0.000137 -0.000002 0.000005 -1.351213
    4 22.146626 -0.000002 0.000000 0.235397 0.065380 -0.485210
    5 0.000009 -0.000011 -5.615755 0.022243 3.449229 -0.088302
    6 15.693451 0.000043 -0.000136 -0.000002 0.000005 -1.389181
    7 22.146624 -0.000001 0.000000 0.411619 0.566470 -0.009304
    8 1.384163 -0.004727 0.000003 -0.205798 -0.019657 0.009545
    9 5.939812 -0.004729 0.000088 0.000000 0.000000 0.000000
    10 5.939812 -0.003975 0.000088 0.000000 0.000000 0.000000
    11 4.991436 -0.003974 0.000074 0.000000 0.000000 0.000000
    12 4.991427 -0.001574 0.000074 0.000000 0.000009 0.000016
    13 -0.001670 0.001564 3.638373 1.401934 -0.517248 1.902265
    14 8.842823 0.000002 0.000054 -1.719514 0.327404 0.203805
    15 0.001739 0.001585 -3.638374 -0.822987 1.160925 2.361059
    16 8.842813 0.000001 -0.000025 -0.673879 -1.185333 0.556653
    17 1.977402 -0.000032 0.003050 0.093779 -0.187106 -0.024914
    18 9.341940 0.000000 0.000009 0.000000 0.000000 -1.629316
    19 11.168410 0.000002 -0.000001 -1.644910 0.168425 0.195101
    20 1.364904 0.231181 -1.984410 1.654963 0.937380 0.206842
    21 1.748533 -0.000003 0.000002 0.000000 0.000000 0.000051
    22 1.272493 0.000001 -0.000003 0.000000 0.000000 -0.000020
    23 4.525584 -0.000299 -1.850222 0.008947 0.462178 0.108154
    24 1.719874 -0.000007 0.000000 0.000000 0.000000 0.000020
    25 1.383651 0.000003 0.000001 0.000000 0.000000 0.000000
    26 4.525585 -0.000096 -0.616739 0.003552 0.226816 0.105345
    27 1.807677 -0.000001 -0.000002 0.000000 0.000000 0.000027
    28 1.614256 -0.000004 0.000003 0.000000 0.000000 0.000000
    29 4.525583 0.000106 0.616741 0.001641 0.034926 0.104713
    30 1.719871 -0.000003 0.000000 0.000000 0.000000 0.000125
    31 1.383651 -0.000001 0.000001 0.000000 0.000000 0.000000
    32 4.525584 0.000309 1.850224 -0.014456 -0.164777 0.158627
    33 1.433228 -0.000003 0.000000 0.000000 0.000000 0.052298
    34 1.153038 -0.000001 0.000000 0.000000 0.000000 0.052336
    35 9.341949 0.000000 0.000007 0.000000 0.000000 -1.583518
    36 11.168407 0.000002 0.000011 1.735450 -1.072823 -0.228106
    37 1.364906 0.231175 1.984408 -0.462086 -0.585621 0.250788
    38 1.748534 0.000002 -0.000001 0.000000 0.000000 0.069823
    39 1.272493 0.000003 0.000002 0.000000 0.000000 0.069761
    40 4.525587 -0.000302 1.850221 -0.038765 -0.087839 0.437866
    41 1.719872 0.000007 0.000000 0.000000 0.000000 0.331516
    42 1.383647 0.000004 -0.000001 0.000000 0.000000 0.331519
    43 4.525585 -0.000102 0.616738 -0.015513 -0.050127 0.340650
    44 1.807677 -0.000002 -0.000002 0.000000 0.000000 0.235588
    45 1.614256 0.000001 0.000000 0.000000 0.000000 0.235594
    46 4.525587 0.000102 -0.616743 -0.012068 -0.032913 0.410214
    47 1.719867 0.000001 0.000001 0.000000 0.000000 0.305348
    48 1.383648 0.000001 -0.000001 0.000000 0.000000 0.305389
    49 4.525586 0.000303 -1.850223 0.017644 0.030237 0.471439
    50 1.433227 0.000002 0.000000 0.000000 0.000000 0.366416
    51 1.153036 0.000004 0.000000 0.000000 0.000000 0.366335
    52 7.223970 5.068054 1.800000 -3.141592 -0.000002 1.570798
    53 7.223960 5.068053 -1.800000 -3.141592 -0.000002 1.570798
    54 7.223950 5.068052 0.000000 -3.141592 -0.000002 1.570798
    55 3.723979 2.768055 -0.395205 -3.141592 -0.000098 1.570894
    56 20.747295 -0.313698 4.522630 0.003878 0.001942 1.564441
    57 2.448332 0.177352 0.168606 1.543132 0.019570 -3.045716
end
