version 1
nodes
  0 "Bip01" -1
  1 "Bip01 Pelvis" 0
  2 "Bip01 L Thigh" 1
  3 "Bip01 L Calf" 2
  4 "Bip01 L Foot" 3
  5 "Bip01 R Thigh" 1
  6 "Bip01 R Calf" 5
  7 "Bip01 R Foot" 6
  8 "Bip01 Spine" 1
  9 "Bip01 Spine1" 8
  10 "Bip01 Spine2" 9
  11 "Bip01 Spine3" 10
  12 "Bip01 Neck" 11
  13 "Bip01 L Clavicle" 12
  14 "Bip01 L UpperArm" 13
  15 "Bip01 R Clavicle" 12
  16 "Bip01 R UpperArm" 15
  17 "Bip01 Head" 12
  18 "Bip01 L Forearm" 14
  19 "Bip01 L Hand" 18
  20 "Bip01 L Finger0" 19
  21 "Bip01 L Finger01" 20
  22 "Bip01 L Finger02" 21
  23 "Bip01 L Finger1" 19
  24 "Bip01 L Finger11" 23
  25 "Bip01 L Finger12" 24
  26 "Bip01 L Finger2" 19
  27 "Bip01 L Finger21" 26
  28 "Bip01 L Finger22" 27
  29 "Bip01 L Finger3" 19
  30 "Bip01 L Finger31" 29
  31 "Bip01 L Finger32" 30
  32 "Bip01 L Finger4" 19
  33 "Bip01 L Finger41" 32
  34 "Bip01 L Finger42" 33
  35 "Bip01 R Forearm" 16
  36 "Bip01 R Hand" 35
  37 "Bip01 R Finger0" 36
  38 "Bip01 R Finger01" 37
  39 "Bip01 R Finger02" 38
  40 "Bip01 R Finger1" 36
  41 "Bip01 R Finger11" 40
  42 "Bip01 R Finger12" 41
  43 "Bip01 R Finger2" 36
  44 "Bip01 R Finger21" 43
  45 "Bip01 R Finger22" 44
  46 "Bip01 R Finger3" 36
  47 "Bip01 R Finger31" 46
  48 "Bip01 R Finger32" 47
  49 "Bip01 R Finger4" 36
  50 "Bip01 R Finger41" 49
  51 "Bip01 R Finger42" 50
  52 "R_eye" 17
  53 "L_eye" 17
  54 "E_lids" 17
  55 "Mouth" 17
  56 "p_rpg" 36
  57 "Line04" 36
end
skeleton
  time 0
    0 0.043736 6.901446 6.014672 1.570766 1.570386 -0.000096
    1 -0.526041 0.000001 9.745319 -1.570764 -1.570457 0.000000
    2 -0.000009 0.000014 5.615740 -0.152334 3.440658 -0.134211
    3 15.693467 0.000042 -0.000137 -0.000002 0.000005 -0.273057
    4 22.146626 -0.000002 0.000000 0.452066 0.416203 -0.299925
    5 0.000009 -0.000011 -5.615755 0.588953 3.035069 -0.135079
    6 15.693451 0.000043 -0.000136 -0.000002 0.000005 -0.299439
    7 22.146624 -0.000001 0.000000 -0.284529 -0.339348 -0.548954
    8 1.384163 -0.004727 0.000003 -0.000005 0.000013 0.000796
    9 5.939812 -0.004729 0.000088 0.000000 0.000000 0.000000
    10 5.939812 -0.003975 0.000088 0.000000 0.000000 0.000000
    11 4.991436 -0.003974 0.000074 0.000000 0.000000 0.000000
    12 4.991427 -0.001574 0.000074 0.000000 0.000009 0.000016
    13 -0.001670 0.001564 3.638373 -3.141574 -1.421686 6.282275
    14 8.842823 0.000002 0.000054 -1.626882 0.167402 -0.423702
    15 0.001739 0.001585 -3.638374 -0.000014 1.545271 3.140766
    16 8.842813 0.000001 -0.000025 1.327331 0.209761 -0.182304
    17 1.977402 -0.000032 0.003050 0.000001 -0.000016 -0.000813
    18 9.341940 0.000000 0.000009 0.000000 0.000000 -1.326150
    19 11.168410 0.000002 -0.000001 -1.330845 -0.270569 -0.149828
    20 1.364904 0.231181 -1.984410 1.626662 0.467351 0.164339
    21 1.748533 -0.000003 0.000002 0.000000 0.000000 0.148427
    22 1.272493 0.000001 -0.000003 0.000000 0.000000 0.148314
    23 4.525584 -0.000299 -1.850222 0.035649 0.089133 0.402918
    24 1.719874 -0.000007 0.000000 0.000000 0.000000 0.296621
    25 1.383651 0.000003 0.000001 0.000000 0.000000 0.296613
    26 4.525585 -0.000096 -0.616739 0.018089 0.049144 0.392883
    27 1.807677 -0.000001 -0.000002 0.000000 0.000000 0.287865
    28 1.614256 -0.000004 0.000003 0.000000 0.000000 0.287934
    29 4.525583 0.000106 0.616741 0.010330 0.033500 0.357863
    30 1.719871 -0.000003 0.000000 0.000000 0.000000 0.252998
    31 1.383651 -0.000001 0.000001 0.000000 0.000000 0.253010
    32 4.525584 0.000309 1.850224 -0.012131 -0.032790 0.296849
    33 1.433228 -0.000003 0.000000 0.000000 0.000000 0.191848
    34 1.153038 -0.000001 0.000000 0.000000 0.000000 0.191923
    35 9.341949 0.000000 0.000007 0.000000 0.000000 -1.756058
    36 11.168407 0.000002 0.000011 1.368455 0.200583 -0.000604
    37 1.364906 0.231175 1.984408 -3.703598 0.205507 1.154223
    38 1.748534 0.000002 -0.000001 0.000000 0.000000 0.000001
    39 1.272493 0.000003 0.000002 0.000000 0.000000 0.567213
    40 4.525587 -0.000302 1.850221 -0.017935 -0.094407 0.210168
    41 1.719872 0.000007 0.000000 0.000000 0.000000 0.104674
    42 1.383647 0.000004 -0.000001 0.000000 0.000000 1.029556
    43 4.525585 -0.000102 0.616738 -0.041735 -0.031682 0.960504
    44 1.807677 -0.000002 -0.000002 0.000000 0.000000 0.855172
    45 1.614256 0.000001 0.000000 0.000000 0.000000 0.855163
    46 4.525587 0.000102 -0.616743 -0.028355 -0.020544 1.003571
    47 1.719867 0.000001 0.000001 0.000000 0.000000 0.898823
    48 1.383648 0.000001 -0.000001 0.000000 0.000000 0.898790
    49 4.525586 0.000303 -1.850223 0.027938 0.020901 0.872893
    50 1.433227 0.000002 0.000000 0.000000 0.000000 0.767749
    51 1.153036 0.000004 0.000000 0.000000 0.000000 0.767765
    52 7.223970 5.068054 1.800000 -3.141592 -0.000002 1.570798
    53 7.223960 5.068053 -1.800000 -3.141592 -0.000002 1.570798
    54 7.223950 5.068052 0.000000 -3.141592 -0.000002 1.570798
    55 3.723979 2.768055 -0.395205 -3.141592 -0.000098 1.570894
    56 20.747295 -0.313698 4.522630 0.003878 0.001942 1.564441
    57 2.448332 0.177352 0.168606 1.543132 0.019570 -3.045716
  time 1
    0 0.043736 6.901446 6.112662 1.570766 1.570386 -0.000096
    1 -0.444007 0.000001 9.745319 -1.570764 -1.570457 0.000000
    2 -0.000009 0.000014 5.615740 -0.150129 3.437975 -0.143290
    3 15.693467 0.000042 -0.000137 -0.000002 0.000005 -0.288565
    4 22.146626 -0.000002 0.000000 0.450234 0.420017 -0.293386
    5 0.000009 -0.000011 -5.615755 0.588377 3.030180 -0.134312
    6 15.693451 0.000043 -0.000136 -0.000002 0.000005 -0.298248
    7 22.146624 -0.000001 0.000000 -0.287406 -0.335910 -0.551508
    8 1.384163 -0.004727 0.000003 0.017532 0.000067 -0.007953
    9 5.939812 -0.004729 0.000088 0.000000 0.000000 0.000000
    10 5.939812 -0.003975 0.000088 0.000000 0.000000 0.000000
    11 4.991436 -0.003974 0.000074 0.000000 0.000000 0.000000
    12 4.991427 -0.001574 0.000074 0.000000 0.000009 0.000016
    13 -0.001670 0.001564 3.638373 2.791514 -1.412193 0.345714
    14 8.842823 0.000002 0.000054 -1.614628 0.173913 -0.385481
    15 0.001739 0.001585 -3.638374 -0.000014 1.545271 3.140766
    16 8.842813 0.000001 -0.000025 1.334587 0.194800 -0.200980
    17 1.977402 -0.000032 0.003050 -0.031241 -0.001890 -0.105170
    18 9.341940 0.000000 0.000009 0.000000 0.000000 -1.327298
    19 11.168410 0.000002 -0.000001 -1.331036 -0.268081 -0.149140
    20 1.364904 0.231181 -1.984410 1.626662 0.467351 0.164339
    21 1.748533 -0.000003 0.000002 0.000000 0.000000 0.148427
    22 1.272493 0.000001 -0.000003 0.000000 0.000000 0.148314
    23 4.525584 -0.000299 -1.850222 0.035649 0.089133 0.402918
    24 1.719874 -0.000007 0.000000 0.000000 0.000000 0.296621
    25 1.383651 0.000003 0.000001 0.000000 0.000000 0.296613
    26 4.525585 -0.000096 -0.616739 0.018089 0.049144 0.392883
    27 1.807677 -0.000001 -0.000002 0.000000 0.000000 0.287865
    28 1.614256 -0.000004 0.000003 0.000000 0.000000 0.287934
    29 4.525583 0.000106 0.616741 0.010330 0.033500 0.357863
    30 1.719871 -0.000003 0.000000 0.000000 0.000000 0.252998
    31 1.383651 -0.000001 0.000001 0.000000 0.000000 0.253010
    32 4.525584 0.000309 1.850224 -0.012131 -0.032790 0.296849
    33 1.433228 -0.000003 0.000000 0.000000 0.000000 0.191848
    34 1.153038 -0.000001 0.000000 0.000000 0.000000 0.191923
    35 9.341949 0.000000 0.000007 0.000000 0.000000 -1.770514
    36 11.168407 0.000002 0.000011 1.317838 0.173022 -0.003894
    37 1.364906 0.231175 1.984408 -3.703598 0.205507 1.154223
    38 1.748534 0.000002 -0.000001 0.000000 0.000000 0.000001
    39 1.272493 0.000003 0.000002 0.000000 0.000000 0.567213
    40 4.525587 -0.000302 1.850221 -0.017935 -0.094407 0.210168
    41 1.719872 0.000007 0.000000 0.000000 0.000000 0.104674
    42 1.383647 0.000004 -0.000001 0.000000 0.000000 1.029556
    43 4.525585 -0.000102 0.616738 -0.041735 -0.031682 0.960504
    44 1.807677 -0.000002 -0.000002 0.000000 0.000000 0.855172
    45 1.614256 0.000001 0.000000 0.000000 0.000000 0.855163
    46 4.525587 0.000102 -0.616743 -0.028355 -0.020544 1.003571
    47 1.719867 0.000001 0.000001 0.000000 0.000000 0.898823
    48 1.383648 0.000001 -0.000001 0.000000 0.000000 0.898790
    49 4.525586 0.000303 -1.850223 0.027938 0.020901 0.872893
    50 1.433227 0.000002 0.000000 0.000000 0.000000 0.767749
    51 1.153036 0.000004 0.000000 0.000000 0.000000 0.767765
    52 7.223970 5.068054 1.800000 -3.141592 -0.000002 1.570798
    53 7.223960 5.068053 -1.800000 -3.141592 -0.000002 1.570798
    54 7.223950 5.068052 0.000000 -3.141592 -0.000002 1.570798
    55 3.723979 2.768055 -0.395205 -3.141592 -0.000098 1.570894
    56 20.747295 -0.313698 4.522630 0.003878 0.001942 1.564441
    57 2.448332 0.177352 0.168606 1.543132 0.019570 -3.045716
  time 2
    0 0.043736 6.901446 6.191054 1.570766 1.570386 -0.000096
    1 -0.350254 0.007814 9.745319 -1.570764 -1.570457 0.000000
    2 -0.000009 0.000014 5.615740 -0.148499 3.435100 -0.152465
    3 15.693467 0.000042 -0.000137 -0.000002 0.000005 -0.304144
    4 22.146626 -0.000002 0.000000 0.448440 0.423707 -0.286893
    5 0.000009 -0.000011 -5.615755 0.587515 3.025194 -0.133737
    6 15.693451 0.000043 -0.000136 -0.000002 0.000005 -0.297057
    7 22.146624 -0.000001 0.000000 -0.290452 -0.332472 -0.553798
    8 1.384163 -0.004727 0.000003 0.038064 0.000711 -0.017001
    9 5.939812 -0.004729 0.000088 0.000000 0.000000 0.000000
    10 5.939812 -0.003975 0.000088 0.000000 0.000000 0.000000
    11 4.991436 -0.003974 0.000074 0.000000 0.000000 0.000000
    12 4.991427 -0.001574 0.000074 0.000000 0.000009 0.000016
    13 -0.001670 0.001564 3.638373 2.481653 -1.382846 0.650888
    14 8.842823 0.000002 0.000054 -1.602283 0.180425 -0.343005
    15 0.001739 0.001585 -3.638374 -0.000014 1.545271 3.140766
    16 8.842813 0.000001 -0.000025 1.344504 0.180193 -0.214892
    17 1.977402 -0.000032 0.003050 -0.073848 -0.010799 -0.215042
    18 9.341940 0.000000 0.000009 0.000000 0.000000 -1.329512
    19 11.168410 0.000002 -0.000001 -1.331227 -0.263871 -0.148059
    20 1.364904 0.231181 -1.984410 1.626662 0.467351 0.164339
    21 1.748533 -0.000003 0.000002 0.000000 0.000000 0.148427
    22 1.272493 0.000001 -0.000003 0.000000 0.000000 0.148314
    23 4.525584 -0.000299 -1.850222 0.035649 0.089133 0.402918
    24 1.719874 -0.000007 0.000000 0.000000 0.000000 0.296621
    25 1.383651 0.000003 0.000001 0.000000 0.000000 0.296613
    26 4.525585 -0.000096 -0.616739 0.018089 0.049144 0.392883
    27 1.807677 -0.000001 -0.000002 0.000000 0.000000 0.287865
    28 1.614256 -0.000004 0.000003 0.000000 0.000000 0.287934
    29 4.525583 0.000106 0.616741 0.010330 0.033500 0.357863
    30 1.719871 -0.000003 0.000000 0.000000 0.000000 0.252998
    31 1.383651 -0.000001 0.000001 0.000000 0.000000 0.253010
    32 4.525584 0.000309 1.850224 -0.012131 -0.032790 0.296849
    33 1.433228 -0.000003 0.000000 0.000000 0.000000 0.191848
    34 1.153038 -0.000001 0.000000 0.000000 0.000000 0.191923
    35 9.341949 0.000000 0.000007 0.000000 0.000000 -1.786569
    36 11.168407 0.000002 0.000011 1.266662 0.144606 -0.006056
    37 1.364906 0.231175 1.984408 -3.703535 0.205507 1.154223
    38 1.748534 0.000002 -0.000001 0.000000 0.000000 0.000001
    39 1.272493 0.000003 0.000002 0.000000 0.000000 0.567213
    40 4.525587 -0.000302 1.850221 -0.017935 -0.094419 0.210168
    41 1.719872 0.000007 0.000000 0.000000 0.000000 0.104674
    42 1.383647 0.000004 -0.000001 0.000000 0.000000 1.029556
    43 4.525585 -0.000102 0.616738 -0.041735 -0.031682 0.960504
    44 1.807677 -0.000002 -0.000002 0.000000 0.000000 0.855172
    45 1.614256 0.000001 0.000000 0.000000 0.000000 0.855163
    46 4.525587 0.000102 -0.616743 -0.028355 -0.020544 1.003571
    47 1.719867 0.000001 0.000001 0.000000 0.000000 0.898823
    48 1.383648 0.000001 -0.000001 0.000000 0.000000 0.898790
    49 4.525586 0.000303 -1.850223 0.027938 0.020901 0.872893
    50 1.433227 0.000002 0.000000 0.000000 0.000000 0.767749
    51 1.153036 0.000004 0.000000 0.000000 0.000000 0.767765
    52 7.223970 5.068054 1.800000 -3.141592 -0.000002 1.570798
    53 7.223960 5.068053 -1.800000 -3.141592 -0.000002 1.570798
    54 7.223950 5.068052 0.000000 -3.141592 -0.000002 1.570798
    55 3.723979 2.768055 -0.395205 -3.141592 -0.000098 1.570894
    56 20.747295 -0.313698 4.522630 0.003878 0.001942 1.564441
    57 2.448332 0.177352 0.168606 1.543132 0.019570 -3.045716
  time 3
    0 0.043736 6.901446 6.289044 1.570766 1.570386 -0.000096
    1 -0.264314 0.007814 9.745319 -1.570764 -1.570457 0.000000
    2 -0.000009 0.000014 5.615740 -0.146294 3.432321 -0.161640
    3 15.693467 0.000042 -0.000137 -0.000002 0.000005 -0.319154
    4 22.146626 -0.000002 0.000000 0.446608 0.427496 -0.280537
    5 0.000009 -0.000011 -5.615755 0.586843 3.020401 -0.133450
    6 15.693451 0.000043 -0.000136 -0.000002 0.000005 -0.295643
    7 22.146624 -0.000001 0.000000 -0.293385 -0.329034 -0.556705
    8 1.384163 -0.004727 0.000003 0.052605 0.000872 -0.025780
    9 5.939812 -0.004729 0.000088 0.000000 0.000000 0.000000
    10 5.939812 -0.003975 0.000088 0.000000 0.000000 0.000000
    11 4.991436 -0.003974 0.000074 0.000000 0.000000 0.000000
    12 4.991427 -0.001574 0.000074 0.000000 0.000009 0.000016
    13 -0.001670 0.001564 3.638373 2.306686 -1.350600 0.822315
    14 8.842823 0.000002 0.000054 -1.589756 0.186379 -0.308666
    15 0.001739 0.001585 -3.638374 -0.000014 1.545271 3.140766
    16 8.842813 0.000001 -0.000025 1.350551 0.165232 -0.237570
    17 1.977402 -0.000032 0.003050 -0.091081 -0.021513 -0.313386
    18 9.341940 0.000000 0.000009 0.000000 0.000000 -1.330168
    19 11.168410 0.000002 -0.000001 -1.331418 -0.263106 -0.147961
    20 1.364904 0.231181 -1.984410 1.626662 0.467351 0.164339
    21 1.748533 -0.000003 0.000002 0.000000 0.000000 0.148427
    22 1.272493 0.000001 -0.000003 0.000000 0.000000 0.148314
    23 4.525584 -0.000299 -1.850222 0.035649 0.089133 0.402918
    24 1.719874 -0.000007 0.000000 0.000000 0.000000 0.296621
    25 1.383651 0.000003 0.000001 0.000000 0.000000 0.296613
    26 4.525585 -0.000096 -0.616739 0.018089 0.049144 0.392883
    27 1.807677 -0.000001 -0.000002 0.000000 0.000000 0.287865
    28 1.614256 -0.000004 0.000003 0.000000 0.000000 0.287934
    29 4.525583 0.000106 0.616741 0.010330 0.033500 0.357863
    30 1.719871 -0.000003 0.000000 0.000000 0.000000 0.252998
    31 1.383651 -0.000001 0.000001 0.000000 0.000000 0.253010
    32 4.525584 0.000309 1.850224 -0.012131 -0.032790 0.296849
    33 1.433228 -0.000003 0.000000 0.000000 0.000000 0.191848
    34 1.153038 -0.000001 0.000000 0.000000 0.000000 0.191923
    35 9.341949 0.000000 0.000007 0.000000 0.000000 -1.799959
    36 11.168407 0.000002 0.000011 1.217723 0.117425 -0.007278
    37 1.364906 0.231175 1.984408 -3.703535 0.205507 1.154223
    38 1.748534 0.000002 -0.000001 0.000000 0.000000 0.000001
    39 1.272493 0.000003 0.000002 0.000000 0.000000 0.567213
    40 4.525587 -0.000302 1.850221 -0.017935 -0.094419 0.210168
    41 1.719872 0.000007 0.000000 0.000000 0.000000 0.104674
    42 1.383647 0.000004 -0.000001 0.000000 0.000000 1.029556
    43 4.525585 -0.000102 0.616738 -0.041735 -0.031682 0.960504
    44 1.807677 -0.000002 -0.000002 0.000000 0.000000 0.855172
    45 1.614256 0.000001 0.000000 0.000000 0.000000 0.855163
    46 4.525587 0.000102 -0.616743 -0.028355 -0.020544 1.003571
    47 1.719867 0.000001 0.000001 0.000000 0.000000 0.898823
    48 1.383648 0.000001 -0.000001 0.000000 0.000000 0.898790
    49 4.525586 0.000303 -1.850223 0.027938 0.020901 0.872893
    50 1.433227 0.000002 0.000000 0.000000 0.000000 0.767749
    51 1.153036 0.000004 0.000000 0.000000 0.000000 0.767765
    52 7.223970 5.068054 1.800000 -3.141592 -0.000002 1.570798
    53 7.223960 5.068053 -1.800000 -3.141592 -0.000002 1.570798
    54 7.223950 5.068052 0.000000 -3.141592 -0.000002 1.570798
    55 3.723979 2.768055 -0.395205 -3.141592 -0.000098 1.570894
    56 20.747295 -0.313698 4.522630 0.003878 0.001942 1.564441
    57 2.448332 0.177352 0.168606 1.543132 0.019570 -3.045716
  time 4
    0 0.043736 6.901446 6.367436 1.570766 1.570386 -0.000096
    1 -0.182280 0.000001 9.745319 -1.570764 -1.570457 0.000000
    2 -0.000009 0.000014 5.615740 -0.144761 3.429351 -0.170433
    3 15.693467 0.000042 -0.000137 -0.000002 0.000005 -0.334093
    4 22.146626 -0.000002 0.000000 0.444739 0.431285 -0.274456
    5 0.000009 -0.000011 -5.615755 0.586172 3.016087 -0.132587
    6 15.693451 0.000043 -0.000136 -0.000002 0.000005 -0.294080
    7 22.146624 -0.000001 0.000000 -0.296093 -0.325903 -0.559259
    8 1.384163 -0.004727 0.000003 0.052302 -0.000014 -0.034049
    9 5.939812 -0.004729 0.000088 0.000000 0.000000 0.000000
    10 5.939812 -0.003975 0.000088 0.000000 0.000000 0.000000
    11 4.991436 -0.003974 0.000074 0.000000 0.000000 0.000000
    12 4.991427 -0.001574 0.000074 0.000000 0.000009 0.000016
    13 -0.001670 0.001564 3.638373 2.259133 -1.338608 0.868143
    14 8.842823 0.000002 0.000054 -1.577594 0.188053 -0.294334
    15 0.001739 0.001585 -3.638374 -0.000014 1.545271 3.140766
    16 8.842813 0.000001 -0.000025 1.346923 0.148943 -0.282356
    17 1.977402 -0.000032 0.003050 -0.048474 -0.019523 -0.384100
    18 9.341940 0.000000 0.000009 0.000000 0.000000 -1.327052
    19 11.168410 0.000002 -0.000001 -1.330845 -0.270569 -0.149828
    20 1.364904 0.231181 -1.984410 1.626662 0.467351 0.164339
    21 1.748533 -0.000003 0.000002 0.000000 0.000000 0.148427
    22 1.272493 0.000001 -0.000003 0.000000 0.000000 0.148314
    23 4.525584 -0.000299 -1.850222 0.035649 0.089133 0.402918
    24 1.719874 -0.000007 0.000000 0.000000 0.000000 0.296621
    25 1.383651 0.000003 0.000001 0.000000 0.000000 0.296613
    26 4.525585 -0.000096 -0.616739 0.018089 0.049144 0.392883
    27 1.807677 -0.000001 -0.000002 0.000000 0.000000 0.287865
    28 1.614256 -0.000004 0.000003 0.000000 0.000000 0.287934
    29 4.525583 0.000106 0.616741 0.010330 0.033500 0.357863
    30 1.719871 -0.000003 0.000000 0.000000 0.000000 0.252998
    31 1.383651 -0.000001 0.000001 0.000000 0.000000 0.253010
    32 4.525584 0.000309 1.850224 -0.012131 -0.032790 0.296849
    33 1.433228 -0.000003 0.000000 0.000000 0.000000 0.191848
    34 1.153038 -0.000001 0.000000 0.000000 0.000000 0.191923
    35 9.341949 0.000000 0.000007 0.000000 0.000000 -1.806621
    36 11.168407 0.000002 0.000011 1.175962 0.094806 -0.009723
    37 1.364906 0.231175 1.984408 -3.703598 0.205507 1.154223
    38 1.748534 0.000002 -0.000001 0.000000 0.000000 0.000001
    39 1.272493 0.000003 0.000002 0.000000 0.000000 0.567213
    40 4.525587 -0.000302 1.850221 -0.017935 -0.094419 0.210168
    41 1.719872 0.000007 0.000000 0.000000 0.000000 0.104674
    42 1.383647 0.000004 -0.000001 0.000000 0.000000 1.029556
    43 4.525585 -0.000102 0.616738 -0.041735 -0.031682 0.960504
    44 1.807677 -0.000002 -0.000002 0.000000 0.000000 0.855172
    45 1.614256 0.000001 0.000000 0.000000 0.000000 0.855163
    46 4.525587 0.000102 -0.616743 -0.028355 -0.020544 1.003571
    47 1.719867 0.000001 0.000001 0.000000 0.000000 0.898823
    48 1.383648 0.000001 -0.000001 0.000000 0.000000 0.898790
    49 4.525586 0.000303 -1.850223 0.027938 0.020901 0.872893
    50 1.433227 0.000002 0.000000 0.000000 0.000000 0.767749
    51 1.153036 0.000004 0.000000 0.000000 0.000000 0.767765
    52 7.223970 5.068054 1.800000 -3.141592 -0.000002 1.570798
    53 7.223960 5.068053 -1.800000 -3.141592 -0.000002 1.570798
    54 7.223950 5.068052 0.000000 -3.141592 -0.000002 1.570798
    55 3.723979 2.768055 -0.395205 -3.141592 -0.000098 1.570894
    56 20.747295 -0.313698 4.522630 0.003878 0.001942 1.564441
    57 2.448332 0.177352 0.168606 1.543132 0.019570 -3.045716
  time 5
    0 0.043736 6.901446 6.465426 1.570766 1.570386 -0.000096
    1 -0.084621 -0.039063 9.745319 -1.570764 -1.570457 0.000000
    2 -0.000009 0.000014 5.615740 -0.143227 3.424943 -0.181041
    3 15.693467 0.000042 -0.000137 -0.000002 0.000005 -0.352233
    4 22.146626 -0.000002 0.000000 0.442122 0.436683 -0.266819
    5 0.000009 -0.000011 -5.615755 0.585597 3.011101 -0.131341
    6 15.693451 0.000043 -0.000136 -0.000002 0.000005 -0.291549
    7 22.146624 -0.000001 0.000000 -0.299308 -0.322158 -0.562606
    8 1.384163 -0.004727 0.000003 0.016320 -0.005032 -0.044056
    9 5.939812 -0.004729 0.000088 0.000000 0.000000 0.000000
    10 5.939812 -0.003975 0.000088 0.000000 0.000000 0.000000
    11 4.991436 -0.003974 0.000074 0.000000 0.000000 0.000000
    12 4.991427 -0.001574 0.000074 0.000000 0.000009 0.000016
    13 -0.001670 0.001564 3.638373 2.440140 -1.376650 0.691348
    14 8.842823 0.000002 0.000054 -1.561317 0.182844 -0.322999
    15 0.001739 0.001585 -3.638374 -0.000014 1.545271 3.140766
    16 8.842813 0.000001 -0.000025 1.320881 0.124422 -0.384028
    17 1.977402 -0.000032 0.003050 0.146641 0.025138 -0.412524
    18 9.341940 0.000000 0.000009 0.000000 0.000000 -1.312537
    19 11.168410 0.000002 -0.000001 -1.328840 -0.300709 -0.157493
    20 1.364904 0.231181 -1.984410 1.626662 0.467351 0.164339
    21 1.748533 -0.000003 0.000002 0.000000 0.000000 0.148427
    22 1.272493 0.000001 -0.000003 0.000000 0.000000 0.148314
    23 4.525584 -0.000299 -1.850222 0.035649 0.089133 0.402918
    24 1.719874 -0.000007 0.000000 0.000000 0.000000 0.296621
    25 1.383651 0.000003 0.000001 0.000000 0.000000 0.296613
    26 4.525585 -0.000096 -0.616739 0.018089 0.049144 0.392883
    27 1.807677 -0.000001 -0.000002 0.000000 0.000000 0.287865
    28 1.614256 -0.000004 0.000003 0.000000 0.000000 0.287934
    29 4.525583 0.000106 0.616741 0.010330 0.033500 0.357863
    30 1.719871 -0.000003 0.000000 0.000000 0.000000 0.252998
    31 1.383651 -0.000001 0.000001 0.000000 0.000000 0.253010
    32 4.525584 0.000309 1.850224 -0.012131 -0.032790 0.296849
    33 1.433228 -0.000003 0.000000 0.000000 0.000000 0.191848
    34 1.153038 -0.000001 0.000000 0.000000 0.000000 0.191923
    35 9.341949 0.000000 0.000007 0.000000 0.000000 -1.800159
    36 11.168407 0.000002 0.000011 1.145573 0.078365 -0.013765
    37 1.364906 0.231175 1.984408 -3.703535 0.205507 1.154223
    38 1.748534 0.000002 -0.000001 0.000000 0.000000 0.000001
    39 1.272493 0.000003 0.000002 0.000000 0.000000 0.567213
    40 4.525587 -0.000302 1.850221 -0.017935 -0.094419 0.210168
    41 1.719872 0.000007 0.000000 0.000000 0.000000 0.104674
    42 1.383647 0.000004 -0.000001 0.000000 0.000000 1.029556
    43 4.525585 -0.000102 0.616738 -0.041735 -0.031682 0.960504
    44 1.807677 -0.000002 -0.000002 0.000000 0.000000 0.855172
    45 1.614256 0.000001 0.000000 0.000000 0.000000 0.855163
    46 4.525587 0.000102 -0.616743 -0.028355 -0.020544 1.003571
    47 1.719867 0.000001 0.000001 0.000000 0.000000 0.898823
    48 1.383648 0.000001 -0.000001 0.000000 0.000000 0.898790
    49 4.525586 0.000303 -1.850223 0.027938 0.020901 0.872893
    50 1.433227 0.000002 0.000000 0.000000 0.000000 0.767749
    51 1.153036 0.000004 0.000000 0.000000 0.000000 0.767765
    52 7.223970 5.068054 1.800000 -3.141592 -0.000002 1.570798
    53 7.223960 5.068053 -1.800000 -3.141592 -0.000002 1.570798
    54 7.223950 5.068052 0.000000 -3.141592 -0.000002 1.570798
    55 3.723979 2.768055 -0.395205 -3.141592 -0.000098 1.570894
    56 20.747295 -0.313698 4.522630 0.003878 0.001942 1.564441
    57 2.448332 0.177352 0.168606 1.543132 0.019570 -3.045716
  time 6
    0 0.043736 6.901446 6.563416 1.570766 1.570386 -0.000096
    1 0.001319 -0.125003 9.745319 -1.570764 -1.570457 0.000000
    2 -0.000009 0.000014 5.615740 -0.141693 3.420439 -0.191172
    3 15.693467 0.000042 -0.000137 -0.000002 0.000005 -0.369448
    4 22.146626 -0.000002 0.000000 0.439468 0.442231 -0.259686
    5 0.000009 -0.000011 -5.615755 0.585309 3.006883 -0.129999
    6 15.693451 0.000043 -0.000136 -0.000002 0.000005 -0.288721
    7 22.146624 -0.000001 0.000000 -0.302185 -0.318812 -0.565777
    8 1.384163 -0.004727 0.000003 -0.040699 -0.012546 -0.053075
    9 5.939812 -0.004729 0.000088 0.000000 0.000000 0.000000
    10 5.939812 -0.003975 0.000088 0.000000 0.000000 0.000000
    11 4.991436 -0.003974 0.000074 0.000000 0.000000 0.000000
    12 4.991427 -0.001574 0.000074 0.000000 0.000009 0.000016
    13 -0.001670 0.001564 3.638373 2.969071 -1.419439 0.169589
    14 8.842823 0.000002 0.000054 -1.545040 0.172332 -0.380405
    15 0.001739 0.001585 -3.638374 -0.000014 1.545271 3.140766
    16 8.842813 0.000001 -0.000025 1.283793 0.094057 -0.515906
    17 1.977402 -0.000032 0.003050 0.425437 0.090301 -0.388025
    18 9.341940 0.000000 0.000009 0.000000 0.000000 -1.293103
    19 11.168410 0.000002 -0.000001 -1.325211 -0.342522 -0.168401
    20 1.364904 0.231181 -1.984410 1.626662 0.467351 0.164339
    21 1.748533 -0.000003 0.000002 0.000000 0.000000 0.148427
    22 1.272493 0.000001 -0.000003 0.000000 0.000000 0.148314
    23 4.525584 -0.000299 -1.850222 0.035649 0.089133 0.402918
    24 1.719874 -0.000007 0.000000 0.000000 0.000000 0.296621
    25 1.383651 0.000003 0.000001 0.000000 0.000000 0.296613
    26 4.525585 -0.000096 -0.616739 0.018089 0.049144 0.392883
    27 1.807677 -0.000001 -0.000002 0.000000 0.000000 0.287865
    28 1.614256 -0.000004 0.000003 0.000000 0.000000 0.287934
    29 4.525583 0.000106 0.616741 0.010330 0.033500 0.357863
    30 1.719871 -0.000003 0.000000 0.000000 0.000000 0.252998
    31 1.383651 -0.000001 0.000001 0.000000 0.000000 0.253010
    32 4.525584 0.000309 1.850224 -0.012131 -0.032790 0.296849
    33 1.433228 -0.000003 0.000000 0.000000 0.000000 0.191848
    34 1.153038 -0.000001 0.000000 0.000000 0.000000 0.191923
    35 9.341949 0.000000 0.000007 0.000000 0.000000 -1.784304
    36 11.168407 0.000002 0.000011 1.124413 0.067340 -0.020346
    37 1.364906 0.231175 1.984408 -3.703598 0.205507 1.154223
    38 1.748534 0.000002 -0.000001 0.000000 0.000000 0.000001
    39 1.272493 0.000003 0.000002 0.000000 0.000000 0.567213
    40 4.525587 -0.000302 1.850221 -0.017935 -0.094419 0.210168
    41 1.719872 0.000007 0.000000 0.000000 0.000000 0.104674
    42 1.383647 0.000004 -0.000001 0.000000 0.000000 1.029556
    43 4.525585 -0.000102 0.616738 -0.041735 -0.031682 0.960504
    44 1.807677 -0.000002 -0.000002 0.000000 0.000000 0.855172
    45 1.614256 0.000001 0.000000 0.000000 0.000000 0.855163
    46 4.525587 0.000102 -0.616743 -0.028355 -0.020544 1.003571
    47 1.719867 0.000001 0.000001 0.000000 0.000000 0.898823
    48 1.383648 0.000001 -0.000001 0.000000 0.000000 0.898790
    49 4.525586 0.000303 -1.850223 0.027938 0.020901 0.872893
    50 1.433227 0.000002 0.000000 0.000000 0.000000 0.767749
    51 1.153036 0.000004 0.000000 0.000000 0.000000 0.767765
    52 7.223970 5.068054 1.800000 -3.141592 -0.000002 1.570798
    53 7.223960 5.068053 -1.800000 -3.141592 -0.000002 1.570798
    54 7.223950 5.068052 0.000000 -3.141592 -0.000002 1.570798
    55 3.723979 2.768055 -0.395205 -3.141592 -0.000098 1.570894
    56 20.747295 -0.313698 4.522630 0.003878 0.001942 1.564441
    57 2.448332 0.177352 0.168606 1.543132 0.019570 -3.045716
  time 7
    0 0.043736 6.901446 6.563416 1.570766 1.570386 -0.000096
    1 0.013038 -0.164067 9.745319 -1.570764 -1.570457 0.000000
    2 -0.000009 0.000014 5.615740 -0.141693 3.419385 -0.192128
    3 15.693467 0.000042 -0.000137 -0.000002 0.000005 -0.371582
    4 22.146626 -0.000002 0.000000 0.438982 0.443420 -0.258726
    5 0.000009 -0.000011 -5.615755 0.585309 3.006787 -0.129807
    6 15.693451 0.000043 -0.000136 -0.000002 0.000005 -0.287753
    7 22.146624 -0.000001 0.000000 -0.302298 -0.318505 -0.566217
    8 1.384163 -0.004727 0.000003 -0.075368 -0.016544 -0.053674
    9 5.939812 -0.004729 0.000088 0.000000 0.000000 0.000000
    10 5.939812 -0.003975 0.000088 0.000000 0.000000 0.000000
    11 4.991436 -0.003974 0.000074 0.000000 0.000000 0.000000
    12 4.991427 -0.001574 0.000074 0.000000 0.000009 0.000016
    13 -0.001670 0.001564 3.638373 -2.855681 -1.415454 5.999824
    14 8.842823 0.000002 0.000054 -1.541931 0.164239 -0.423254
    15 0.001739 0.001585 -3.638374 -0.000014 1.545271 3.140766
    16 8.842813 0.000001 -0.000025 1.260169 0.075732 -0.600903
    17 1.977402 -0.000032 0.003050 0.577046 0.108652 -0.329138
    18 9.341940 0.000000 0.000009 0.000000 0.000000 -1.282524
    19 11.168410 0.000002 -0.000001 -1.323206 -0.363668 -0.173904
    20 1.364904 0.231181 -1.984410 1.626662 0.467351 0.164339
    21 1.748533 -0.000003 0.000002 0.000000 0.000000 0.148427
    22 1.272493 0.000001 -0.000003 0.000000 0.000000 0.148314
    23 4.525584 -0.000299 -1.850222 0.035649 0.089133 0.402918
    24 1.719874 -0.000007 0.000000 0.000000 0.000000 0.296621
    25 1.383651 0.000003 0.000001 0.000000 0.000000 0.296613
    26 4.525585 -0.000096 -0.616739 0.018089 0.049144 0.392883
    27 1.807677 -0.000001 -0.000002 0.000000 0.000000 0.287865
    28 1.614256 -0.000004 0.000003 0.000000 0.000000 0.287934
    29 4.525583 0.000106 0.616741 0.010330 0.033500 0.357863
    30 1.719871 -0.000003 0.000000 0.000000 0.000000 0.252998
    31 1.383651 -0.000001 0.000001 0.000000 0.000000 0.253010
    32 4.525584 0.000309 1.850224 -0.012131 -0.032790 0.296849
    33 1.433228 -0.000003 0.000000 0.000000 0.000000 0.191848
    34 1.153038 -0.000001 0.000000 0.000000 0.000000 0.191923
    35 9.341949 0.000000 0.000007 0.000000 0.000000 -1.770514
    36 11.168407 0.000002 0.000011 1.105490 0.063539 -0.028242
    37 1.364906 0.231175 1.984408 -3.703598 0.205507 1.154223
    38 1.748534 0.000002 -0.000001 0.000000 0.000000 0.000001
    39 1.272493 0.000003 0.000002 0.000000 0.000000 0.567213
    40 4.525587 -0.000302 1.850221 -0.017935 -0.094419 0.210168
    41 1.719872 0.000007 0.000000 0.000000 0.000000 0.104674
    42 1.383647 0.000004 -0.000001 0.000000 0.000000 1.029556
    43 4.525585 -0.000102 0.616738 -0.041735 -0.031682 0.960504
    44 1.807677 -0.000002 -0.000002 0.000000 0.000000 0.855172
    45 1.614256 0.000001 0.000000 0.000000 0.000000 0.855163
    46 4.525587 0.000102 -0.616743 -0.028355 -0.020544 1.003571
    47 1.719867 0.000001 0.000001 0.000000 0.000000 0.898823
    48 1.383648 0.000001 -0.000001 0.000000 0.000000 0.898790
    49 4.525586 0.000303 -1.850223 0.027938 0.020901 0.872893
    50 1.433227 0.000002 0.000000 0.000000 0.000000 0.767749
    51 1.153036 0.000004 0.000000 0.000000 0.000000 0.767765
    52 7.223970 5.068054 1.800000 -3.141592 -0.000002 1.570798
    53 7.223960 5.068053 -1.800000 -3.141592 -0.000002 1.570798
    54 7.223950 5.068052 0.000000 -3.141592 -0.000002 1.570798
    55 3.723979 2.768055 -0.395205 -3.141592 -0.000098 1.570894
    56 20.747295 -0.313698 4.522630 0.003878 0.001942 1.564441
    57 2.448332 0.177352 0.168606 1.543132 0.019570 -3.045716
  time 8
    0 0.043736 6.901446 6.426230 1.570766 1.570386 -0.000096
    1 -0.115872 -0.125003 9.745319 -1.570764 -1.570457 0.000000
    2 -0.000009 0.000014 5.615740 -0.143994 3.424176 -0.178939
    3 15.693467 0.000042 -0.000137 -0.000002 0.000005 -0.348747
    4 22.146626 -0.000002 0.000000 0.442122 0.437303 -0.268191
    5 0.000009 -0.000011 -5.615755 0.585981 3.013402 -0.130766
    6 15.693451 0.000043 -0.000136 -0.000002 0.000005 -0.290284
    7 22.146624 -0.000001 0.000000 -0.298180 -0.323386 -0.562342
    8 1.384163 -0.004727 0.000003 -0.065304 -0.013029 -0.041060
    9 5.939812 -0.004729 0.000088 0.000000 0.000000 0.000000
    10 5.939812 -0.003975 0.000088 0.000000 0.000000 0.000000
    11 4.991436 -0.003974 0.000074 0.000000 0.000000 0.000000
    12 4.991427 -0.001574 0.000074 0.000000 0.000009 0.000016
    13 -0.001670 0.001564 3.638373 -2.823947 -1.413896 5.968376
    14 8.842823 0.000002 0.000054 -1.561500 0.163588 -0.432884
    15 0.001739 0.001585 -3.638374 -0.000014 1.545271 3.140766
    16 8.842813 0.000001 -0.000025 1.277101 0.108487 -0.514096
    17 1.977402 -0.000032 0.003050 0.479990 0.062857 -0.245057
    18 9.341940 0.000000 0.000009 0.000000 0.000000 -1.290971
    19 11.168410 0.000002 -0.000001 -1.325020 -0.346445 -0.169433
    20 1.364904 0.231181 -1.984410 1.626662 0.467351 0.164339
    21 1.748533 -0.000003 0.000002 0.000000 0.000000 0.148427
    22 1.272493 0.000001 -0.000003 0.000000 0.000000 0.148314
    23 4.525584 -0.000299 -1.850222 0.035649 0.089133 0.402918
    24 1.719874 -0.000007 0.000000 0.000000 0.000000 0.296621
    25 1.383651 0.000003 0.000001 0.000000 0.000000 0.296613
    26 4.525585 -0.000096 -0.616739 0.018089 0.049144 0.392883
    27 1.807677 -0.000001 -0.000002 0.000000 0.000000 0.287865
    28 1.614256 -0.000004 0.000003 0.000000 0.000000 0.287934
    29 4.525583 0.000106 0.616741 0.010330 0.033500 0.357863
    30 1.719871 -0.000003 0.000000 0.000000 0.000000 0.252998
    31 1.383651 -0.000001 0.000001 0.000000 0.000000 0.253010
    32 4.525584 0.000309 1.850224 -0.012131 -0.032790 0.296849
    33 1.433228 -0.000003 0.000000 0.000000 0.000000 0.191848
    34 1.153038 -0.000001 0.000000 0.000000 0.000000 0.191923
    35 9.341949 0.000000 0.000007 0.000000 0.000000 -1.770514
    36 11.168407 0.000002 0.000011 1.095609 0.092905 -0.047796
    37 1.364906 0.231175 1.984408 -3.703598 0.205507 1.154223
    38 1.748534 0.000002 -0.000001 0.000000 0.000000 0.000001
    39 1.272493 0.000003 0.000002 0.000000 0.000000 0.567213
    40 4.525587 -0.000302 1.850221 -0.017935 -0.094419 0.210168
    41 1.719872 0.000007 0.000000 0.000000 0.000000 0.104674
    42 1.383647 0.000004 -0.000001 0.000000 0.000000 1.029556
    43 4.525585 -0.000102 0.616738 -0.041735 -0.031682 0.960504
    44 1.807677 -0.000002 -0.000002 0.000000 0.000000 0.855172
    45 1.614256 0.000001 0.000000 0.000000 0.000000 0.855163
    46 4.525587 0.000102 -0.616743 -0.028355 -0.020544 1.003571
    47 1.719867 0.000001 0.000001 0.000000 0.000000 0.898823
    48 1.383648 0.000001 -0.000001 0.000000 0.000000 0.898790
    49 4.525586 0.000303 -1.850223 0.027938 0.020901 0.872893
    50 1.433227 0.000002 0.000000 0.000000 0.000000 0.767749
    51 1.153036 0.000004 0.000000 0.000000 0.000000 0.767765
    52 7.223970 5.068054 1.800000 -3.141592 -0.000002 1.570798
    53 7.223960 5.068053 -1.800000 -3.141592 -0.000002 1.570798
    54 7.223950 5.068052 0.000000 -3.141592 -0.000002 1.570798
    55 3.723979 2.768055 -0.395205 -3.141592 -0.000098 1.570894
    56 20.747295 -0.313698 4.522630 0.003878 0.001942 1.564441
    57 2.448332 0.177352 0.168606 1.543132 0.019570 -3.045716
  time 9
    0 0.043736 6.901446 6.230250 1.570766 1.570386 -0.000096
    1 -0.319003 -0.058595 9.745319 -1.570764 -1.570457 0.000000
    2 -0.000009 0.000014 5.615740 -0.147828 3.432417 -0.156766
    3 15.693467 0.000042 -0.000137 -0.000002 0.000005 -0.310902
    4 22.146626 -0.000002 0.000000 0.447206 0.426852 -0.283921
    5 0.000009 -0.000011 -5.615755 0.587515 3.024236 -0.132875
    6 15.693451 0.000043 -0.000136 -0.000002 0.000005 -0.294973
    7 22.146624 -0.000001 0.000000 -0.291411 -0.331367 -0.555648
    8 1.384163 -0.004727 0.000003 -0.032722 -0.006186 -0.020207
    9 5.939812 -0.004729 0.000088 0.000000 0.000000 0.000000
    10 5.939812 -0.003975 0.000088 0.000000 0.000000 0.000000
    11 4.991436 -0.003974 0.000074 0.000000 0.000000 0.000000
    12 4.991427 -0.001574 0.000074 0.000000 0.000009 0.000016
    13 -0.001670 0.001564 3.638373 -2.978782 -1.419693 6.121395
    14 8.842823 0.000002 0.000054 -1.594236 0.165076 -0.428181
    15 0.001739 0.001585 -3.638374 -0.000014 1.545271 3.140766
    16 8.842813 0.000001 -0.000025 1.298064 0.160895 -0.354298
    17 1.977402 -0.000032 0.003050 0.242745 0.012110 -0.125842
    18 9.341940 0.000000 0.000009 0.000000 0.000000 -1.308027
    19 11.168410 0.000002 -0.000001 -1.327885 -0.308651 -0.159557
    20 1.364904 0.231181 -1.984410 1.626662 0.467351 0.164339
    21 1.748533 -0.000003 0.000002 0.000000 0.000000 0.148427
    22 1.272493 0.000001 -0.000003 0.000000 0.000000 0.148314
    23 4.525584 -0.000299 -1.850222 0.035649 0.089133 0.402918
    24 1.719874 -0.000007 0.000000 0.000000 0.000000 0.296621
    25 1.383651 0.000003 0.000001 0.000000 0.000000 0.296613
    26 4.525585 -0.000096 -0.616739 0.018089 0.049144 0.392883
    27 1.807677 -0.000001 -0.000002 0.000000 0.000000 0.287865
    28 1.614256 -0.000004 0.000003 0.000000 0.000000 0.287934
    29 4.525583 0.000106 0.616741 0.010330 0.033500 0.357863
    30 1.719871 -0.000003 0.000000 0.000000 0.000000 0.252998
    31 1.383651 -0.000001 0.000001 0.000000 0.000000 0.253010
    32 4.525584 0.000309 1.850224 -0.012131 -0.032790 0.296849
    33 1.433228 -0.000003 0.000000 0.000000 0.000000 0.191848
    34 1.153038 -0.000001 0.000000 0.000000 0.000000 0.191923
    35 9.341949 0.000000 0.000007 0.000000 0.000000 -1.764052
    36 11.168407 0.000002 0.000011 1.218562 0.146602 -0.031721
    37 1.364906 0.231175 1.984408 -3.703598 0.205507 1.154223
    38 1.748534 0.000002 -0.000001 0.000000 0.000000 0.000001
    39 1.272493 0.000003 0.000002 0.000000 0.000000 0.567213
    40 4.525587 -0.000302 1.850221 -0.017935 -0.094419 0.210168
    41 1.719872 0.000007 0.000000 0.000000 0.000000 0.104674
    42 1.383647 0.000004 -0.000001 0.000000 0.000000 1.029556
    43 4.525585 -0.000102 0.616738 -0.041735 -0.031682 0.960504
    44 1.807677 -0.000002 -0.000002 0.000000 0.000000 0.855172
    45 1.614256 0.000001 0.000000 0.000000 0.000000 0.855163
    46 4.525587 0.000102 -0.616743 -0.028355 -0.020544 1.003571
    47 1.719867 0.000001 0.000001 0.000000 0.000000 0.898823
    48 1.383648 0.000001 -0.000001 0.000000 0.000000 0.898790
    49 4.525586 0.000303 -1.850223 0.027938 0.020901 0.872893
    50 1.433227 0.000002 0.000000 0.000000 0.000000 0.767749
    51 1.153036 0.000004 0.000000 0.000000 0.000000 0.767765
    52 7.223970 5.068054 1.800000 -3.141592 -0.000002 1.570798
    53 7.223960 5.068053 -1.800000 -3.141592 -0.000002 1.570798
    54 7.223950 5.068052 0.000000 -3.141592 -0.000002 1.570798
    55 3.723979 2.768055 -0.395205 -3.141592 -0.000098 1.570894
    56 20.747295 -0.313698 4.522630 0.003878 0.001942 1.564441
    57 2.448332 0.177352 0.168606 1.543132 0.019570 -3.045716
  time 10
    0 0.043736 6.901446 6.014672 1.570766 1.570386 -0.000096
    1 -0.526041 0.000001 9.745319 -1.570764 -1.570457 0.000000
    2 -0.000009 0.000014 5.615740 -0.152334 3.440658 -0.134211
    3 15.693467 0.000042 -0.000137 -0.000002 0.000005 -0.273057
    4 22.146626 -0.000002 0.000000 0.452066 0.416203 -0.299925
    5 0.000009 -0.000011 -5.615755 0.588953 3.035069 -0.135079
    6 15.693451 0.000043 -0.000136 -0.000002 0.000005 -0.299439
    7 22.146624 -0.000001 0.000000 -0.284529 -0.339348 -0.548954
    8 1.384163 -0.004727 0.000003 -0.000005 0.000013 0.000796
    9 5.939812 -0.004729 0.000088 0.000000 0.000000 0.000000
    10 5.939812 -0.003975 0.000088 0.000000 0.000000 0.000000
    11 4.991436 -0.003974 0.000074 0.000000 0.000000 0.000000
    12 4.991427 -0.001574 0.000074 0.000000 0.000009 0.000016
    13 -0.001670 0.001564 3.638373 -3.141574 -1.421686 6.282275
    14 8.842823 0.000002 0.000054 -1.626882 0.167402 -0.423702
    15 0.001739 0.001585 -3.638374 -0.000014 1.545271 3.140766
    16 8.842813 0.000001 -0.000025 1.327331 0.209761 -0.182304
    17 1.977402 -0.000032 0.003050 0.000001 -0.000016 -0.000813
    18 9.341940 0.000000 0.000009 0.000000 0.000000 -1.326150
    19 11.168410 0.000002 -0.000001 -1.330845 -0.270569 -0.149828
    20 1.364904 0.231181 -1.984410 1.626662 0.467351 0.164339
    21 1.748533 -0.000003 0.000002 0.000000 0.000000 0.148427
    22 1.272493 0.000001 -0.000003 0.000000 0.000000 0.148314
    23 4.525584 -0.000299 -1.850222 0.035649 0.089133 0.402918
    24 1.719874 -0.000007 0.000000 0.000000 0.000000 0.296621
    25 1.383651 0.000003 0.000001 0.000000 0.000000 0.296613
    26 4.525585 -0.000096 -0.616739 0.018089 0.049144 0.392883
    27 1.807677 -0.000001 -0.000002 0.000000 0.000000 0.287865
    28 1.614256 -0.000004 0.000003 0.000000 0.000000 0.287934
    29 4.525583 0.000106 0.616741 0.010330 0.033500 0.357863
    30 1.719871 -0.000003 0.000000 0.000000 0.000000 0.252998
    31 1.383651 -0.000001 0.000001 0.000000 0.000000 0.253010
    32 4.525584 0.000309 1.850224 -0.012131 -0.032790 0.296849
    33 1.433228 -0.000003 0.000000 0.000000 0.000000 0.191848
    34 1.153038 -0.000001 0.000000 0.000000 0.000000 0.191923
    35 9.341949 0.000000 0.000007 0.000000 0.000000 -1.756058
    36 11.168407 0.000002 0.000011 1.368455 0.200583 -0.000604
    37 1.364906 0.231175 1.984408 -3.703598 0.205507 1.154223
    38 1.748534 0.000002 -0.000001 0.000000 0.000000 0.000001
    39 1.272493 0.000003 0.000002 0.000000 0.000000 0.567213
    40 4.525587 -0.000302 1.850221 -0.017935 -0.094407 0.210168
    41 1.719872 0.000007 0.000000 0.000000 0.000000 0.104674
    42 1.383647 0.000004 -0.000001 0.000000 0.000000 1.029556
    43 4.525585 -0.000102 0.616738 -0.041735 -0.031682 0.960504
    44 1.807677 -0.000002 -0.000002 0.000000 0.000000 0.855172
    45 1.614256 0.000001 0.000000 0.000000 0.000000 0.855163
    46 4.525587 0.000102 -0.616743 -0.028355 -0.020544 1.003571
    47 1.719867 0.000001 0.000001 0.000000 0.000000 0.898823
    48 1.383648 0.000001 -0.000001 0.000000 0.000000 0.898790
    49 4.525586 0.000303 -1.850223 0.027938 0.020901 0.872893
    50 1.433227 0.000002 0.000000 0.000000 0.000000 0.767749
    51 1.153036 0.000004 0.000000 0.000000 0.000000 0.767765
    52 7.223970 5.068054 1.800000 -3.141592 -0.000002 1.570798
    53 7.223960 5.068053 -1.800000 -3.141592 -0.000002 1.570798
    54 7.223950 5.068052 0.000000 -3.141592 -0.000002 1.570798
    55 3.723979 2.768055 -0.395205 -3.141592 -0.000098 1.570894
    56 20.747295 -0.313698 4.522630 0.003878 0.001942 1.564441
    57 2.448332 0.177352 0.168606 1.543132 0.019570 -3.045716
end
