version 1
nodes
  0 "Bip01" -1
  1 "Bip01 Pelvis" 0
  2 "Bip01 L Thigh" 1
  3 "Bip01 L Calf" 2
  4 "Bip01 L Foot" 3
  5 "Bip01 R Thigh" 1
  6 "Bip01 R Calf" 5
  7 "Bip01 R Foot" 6
  8 "Bip01 Spine" 1
  9 "Bip01 Spine1" 8
  10 "Bip01 Spine2" 9
  11 "Bip01 Spine3" 10
  12 "Bip01 Neck" 11
  13 "Bip01 L Clavicle" 12
  14 "Bip01 L UpperArm" 13
  15 "Bip01 R Clavicle" 12
  16 "Bip01 R UpperArm" 15
  17 "Bip01 Head" 12
  18 "Bip01 L Forearm" 14
  19 "Bip01 L Hand" 18
  20 "Bip01 L Finger0" 19
  21 "Bip01 L Finger01" 20
  22 "Bip01 L Finger02" 21
  23 "Bip01 L Finger1" 19
  24 "Bip01 L Finger11" 23
  25 "Bip01 L Finger12" 24
  26 "Bip01 L Finger2" 19
  27 "Bip01 L Finger21" 26
  28 "Bip01 L Finger22" 27
  29 "Bip01 L Finger3" 19
  30 "Bip01 L Finger31" 29
  31 "Bip01 L Finger32" 30
  32 "Bip01 L Finger4" 19
  33 "Bip01 L Finger41" 32
  34 "Bip01 L Finger42" 33
  35 "Bip01 R Forearm" 16
  36 "Bip01 R Hand" 35
  37 "Bip01 R Finger0" 36
  38 "Bip01 R Finger01" 37
  39 "Bip01 R Finger02" 38
  40 "Bip01 R Finger1" 36
  41 "Bip01 R Finger11" 40
  42 "Bip01 R Finger12" 41
  43 "Bip01 R Finger2" 36
  44 "Bip01 R Finger21" 43
  45 "Bip01 R Finger22" 44
  46 "Bip01 R Finger3" 36
  47 "Bip01 R Finger31" 46
  48 "Bip01 R Finger32" 47
  49 "Bip01 R Finger4" 36
  50 "Bip01 R Finger41" 49
  51 "Bip01 R Finger42" 50
  52 "R_eye" 17
  53 "L_eye" 17
  54 "E_lids" 17
  55 "Mouth" 17
  56 "p_rpg" 36
  57 "Line04" 36
end
skeleton
  time 0
    0 0.021128 -0.006838 28.042838 0.000000 0.000000 -2.033578
    1 -0.526041 0.000001 9.745319 -1.570764 -1.570457 0.000000
    2 -0.000009 0.000014 5.615740 -0.233055 3.472473 -0.564000
    3 15.693467 0.000042 -0.000137 -0.000002 0.000005 -0.487109
    4 22.146626 -0.000002 0.000000 0.114914 -0.143960 -0.143083
    5 0.000009 -0.000011 -5.615755 0.212265 2.899221 0.054812
    6 15.693451 0.000043 -0.000136 -0.000002 0.000005 -0.482092
    7 22.146624 -0.000001 0.000000 0.274770 0.247965 0.484898
    8 1.384163 -0.004727 0.000003 -0.372513 -0.003422 0.086516
    9 5.939812 -0.004729 0.000088 0.000000 0.000000 0.000000
    10 5.939812 -0.003975 0.000088 0.000000 0.000000 0.000000
    11 4.991436 -0.003974 0.000074 0.000000 0.000000 0.000000
    12 4.991427 -0.001574 0.000074 0.000000 0.000009 0.000016
    13 -0.001670 0.001564 3.638373 -0.000014 -1.284225 3.140794
    14 8.842823 0.000002 0.000054 -0.414704 -0.110183 -0.914599
    15 0.001739 0.001585 -3.638374 -0.000014 1.284245 3.140766
    16 8.842813 0.000001 -0.000025 0.953872 -0.539176 -2.197736
    17 1.977402 -0.000032 0.003050 0.835436 0.294261 0.195974
    18 9.341940 0.000000 0.000009 0.000000 0.000000 -0.852909
    19 11.168410 0.000002 -0.000001 -4.515417 0.471357 -0.520749
    20 1.364904 0.231181 -1.984410 2.565369 0.787582 1.289645
    21 1.748533 -0.000003 0.000002 0.000000 0.000000 -0.043585
    22 1.272493 0.000001 -0.000003 0.000000 0.000000 0.253072
    23 4.525584 -0.000299 -1.850222 0.062830 0.072738 0.735167
    24 1.719874 -0.000007 0.000000 0.000000 0.000000 0.619418
    25 1.383651 0.000003 0.000001 0.000000 0.000000 0.741566
    26 4.525585 -0.000096 -0.616739 0.033453 0.040263 0.733447
    27 1.807677 -0.000001 -0.000002 0.000000 0.000000 0.567102
    28 1.614256 -0.000004 0.000003 0.000000 0.000000 0.741755
    29 4.525583 0.000106 0.616741 0.021763 0.027388 0.733134
    30 1.719871 -0.000003 0.000000 0.000000 0.000000 0.366391
    31 1.383651 -0.000001 0.000001 0.000000 0.000000 0.741562
    32 4.525584 0.000309 1.850224 -0.024762 -0.024689 0.733175
    33 1.433228 -0.000003 0.000000 0.000000 0.000000 0.366391
    34 1.153038 -0.000001 0.000000 0.000000 0.000000 0.741559
    35 9.341949 0.000000 0.000007 0.000000 0.000000 -0.994817
    36 11.168407 0.000002 0.000011 1.806668 0.074753 0.649563
    37 1.364906 0.231175 1.984408 -3.139678 0.004068 1.002176
    38 1.748534 0.000002 -0.000001 0.000000 0.000000 0.436228
    39 1.272493 0.000003 0.000002 0.000000 0.000000 0.322870
    40 4.525587 -0.000302 1.850221 -0.016281 -0.094622 0.192575
    41 1.719872 0.000007 0.000000 0.000000 0.000000 0.034907
    42 1.383647 0.000004 -0.000001 0.000000 0.000000 0.689317
    43 4.525585 -0.000102 0.616738 -0.040896 -0.032761 0.934331
    44 1.807677 -0.000002 -0.000002 0.000000 0.000000 0.907547
    45 1.614256 0.000001 0.000000 0.000000 0.000000 1.151884
    46 4.525587 0.000102 -0.616743 -0.026857 -0.022390 0.933833
    47 1.719867 0.000001 0.000001 0.000000 0.000000 0.907547
    48 1.383648 0.000001 -0.000001 0.000000 0.000000 1.151884
    49 4.525586 0.000303 -1.850223 0.029257 0.019236 0.933763
    50 1.433227 0.000002 0.000000 0.000000 0.000000 0.907324
    51 1.153036 0.000004 0.000000 0.000000 0.000000 1.151753
    52 7.223970 5.068054 1.800000 -3.141592 -0.000002 1.570798
    53 7.223960 5.068053 -1.800000 -3.141592 -0.000002 1.570798
    54 7.223950 5.068052 0.000000 -3.141592 -0.000002 1.570798
    55 3.723979 2.768055 -0.395205 -3.141592 -0.000098 1.570894
    56 20.747295 -0.313698 4.522630 0.003878 0.001942 1.564441
    57 2.448332 0.177352 0.168606 1.543132 0.019570 -3.045716
  time 1
    0 0.021128 1.795935 27.552888 0.000000 -0.069648 -2.033578
    1 -0.526041 0.000001 9.745319 -1.570764 -1.570723 0.000000
    2 -0.000009 0.000014 5.615740 -0.248010 3.478510 -0.504076
    3 15.693467 0.000042 -0.000137 -0.000002 0.000005 -0.391074
    4 22.146626 -0.000002 0.000000 0.131549 -0.136382 -0.251775
    5 0.000009 -0.000011 -5.615755 0.184269 2.885415 -0.077470
    6 15.693451 0.000043 -0.000136 -0.000002 0.000005 -0.726374
    7 22.146624 -0.000001 0.000000 0.255027 0.220983 0.529994
    8 1.384163 -0.004727 0.000003 -0.150092 -0.057414 -0.051667
    9 5.939812 -0.004729 0.000088 0.000000 0.000000 0.000000
    10 5.939812 -0.003975 0.000088 0.000000 0.000000 0.000000
    11 4.991436 -0.003974 0.000074 0.000000 0.000000 0.000000
    12 4.991427 -0.001574 0.000074 0.000000 0.000009 0.000016
    13 -0.001670 0.001564 3.638373 -0.000014 -1.284225 3.140794
    14 8.842823 0.000002 0.000054 -0.296925 0.189448 -0.340915
    15 0.001739 0.001585 -3.638374 -0.000014 1.284245 3.140766
    16 8.842813 0.000001 -0.000025 0.825839 -0.872834 -1.694235
    17 1.977402 -0.000032 0.003050 0.573187 -0.117291 0.441311
    18 9.341940 0.000000 0.000009 0.000000 0.000000 -2.071149
    19 11.168410 0.000002 -0.000001 -4.010278 0.094845 0.555065
    20 1.364904 0.231181 -1.984410 2.565369 0.787582 1.289645
    21 1.748533 -0.000003 0.000002 0.000000 0.000000 -0.043585
    22 1.272493 0.000001 -0.000003 0.000000 0.000000 0.253072
    23 4.525584 -0.000299 -1.850222 0.062830 0.072738 0.735167
    24 1.719874 -0.000007 0.000000 0.000000 0.000000 0.619418
    25 1.383651 0.000003 0.000001 0.000000 0.000000 0.741566
    26 4.525585 -0.000096 -0.616739 0.033453 0.040263 0.733447
    27 1.807677 -0.000001 -0.000002 0.000000 0.000000 0.567102
    28 1.614256 -0.000004 0.000003 0.000000 0.000000 0.741755
    29 4.525583 0.000106 0.616741 0.021763 0.027388 0.733134
    30 1.719871 -0.000003 0.000000 0.000000 0.000000 0.366391
    31 1.383651 -0.000001 0.000001 0.000000 0.000000 0.741562
    32 4.525584 0.000309 1.850224 -0.024762 -0.024689 0.733175
    33 1.433228 -0.000003 0.000000 0.000000 0.000000 0.366391
    34 1.153038 -0.000001 0.000000 0.000000 0.000000 0.741559
    35 9.341949 0.000000 0.000007 0.000000 0.000000 -1.275544
    36 11.168407 0.000002 0.000011 1.793431 -0.609611 0.046307
    37 1.364906 0.231175 1.984408 -3.139678 0.004068 1.002176
    38 1.748534 0.000002 -0.000001 0.000000 0.000000 0.436228
    39 1.272493 0.000003 0.000002 0.000000 0.000000 0.322870
    40 4.525587 -0.000302 1.850221 -0.016281 -0.094622 0.192575
    41 1.719872 0.000007 0.000000 0.000000 0.000000 0.034907
    42 1.383647 0.000004 -0.000001 0.000000 0.000000 0.689317
    43 4.525585 -0.000102 0.616738 -0.040896 -0.032761 0.934331
    44 1.807677 -0.000002 -0.000002 0.000000 0.000000 0.907547
    45 1.614256 0.000001 0.000000 0.000000 0.000000 1.151884
    46 4.525587 0.000102 -0.616743 -0.026857 -0.022390 0.933833
    47 1.719867 0.000001 0.000001 0.000000 0.000000 0.907547
    48 1.383648 0.000001 -0.000001 0.000000 0.000000 1.151884
    49 4.525586 0.000303 -1.850223 0.029257 0.019236 0.933763
    50 1.433227 0.000002 0.000000 0.000000 0.000000 0.907324
    51 1.153036 0.000004 0.000000 0.000000 0.000000 1.151753
    52 7.223970 5.068054 1.800000 -3.141592 -0.000002 1.570798
    53 7.223960 5.068053 -1.800000 -3.141592 -0.000002 1.570798
    54 7.223950 5.068052 0.000000 -3.141592 -0.000002 1.570798
    55 3.723979 2.768055 -0.395205 -3.141592 -0.000098 1.570894
    56 20.747295 -0.313698 4.522630 0.003878 0.001942 1.564441
    57 2.448332 0.177352 0.168606 1.543132 0.019570 -3.045716
  time 2
    0 0.021128 2.218460 27.356908 0.000000 -0.068024 -2.033578
    1 -0.526041 0.000001 9.745319 -1.570764 -1.570723 0.000000
    2 -0.000009 0.000014 5.615740 -0.242738 3.483493 -0.519845
    3 15.693467 0.000042 -0.000137 -0.000002 0.000005 -0.394773
    4 22.146626 -0.000002 0.000000 0.132110 -0.137967 -0.262429
    5 0.000009 -0.000011 -5.615755 0.176791 2.884648 -0.116675
    6 15.693451 0.000043 -0.000136 -0.000002 0.000005 -0.773861
    7 22.146624 -0.000001 0.000000 0.254068 0.214997 0.541884
    8 1.384163 -0.004727 0.000003 -0.155410 -0.056448 -0.048341
    9 5.939812 -0.004729 0.000088 0.000000 0.000000 0.000000
    10 5.939812 -0.003975 0.000088 0.000000 0.000000 0.000000
    11 4.991436 -0.003974 0.000074 0.000000 0.000000 0.000000
    12 4.991427 -0.001574 0.000074 0.000000 0.000009 0.000016
    13 -0.001670 0.001564 3.638373 -0.000014 -1.284225 3.140794
    14 8.842823 0.000002 0.000054 -0.324358 0.200797 -0.297096
    15 0.001739 0.001585 -3.638374 -0.000014 1.284245 3.140766
    16 8.842813 0.000001 -0.000025 0.767305 -0.929668 -1.643161
    17 1.977402 -0.000032 0.003050 0.580534 0.038606 0.164915
    18 9.341940 0.000000 0.000009 0.000000 0.000000 -2.229169
    19 11.168410 0.000002 -0.000001 -3.907245 0.096375 0.689990
    20 1.364904 0.231181 -1.984410 2.565369 0.787582 1.289645
    21 1.748533 -0.000003 0.000002 0.000000 0.000000 -0.043585
    22 1.272493 0.000001 -0.000003 0.000000 0.000000 0.253072
    23 4.525584 -0.000299 -1.850222 0.062830 0.072738 0.735167
    24 1.719874 -0.000007 0.000000 0.000000 0.000000 0.619418
    25 1.383651 0.000003 0.000001 0.000000 0.000000 0.741566
    26 4.525585 -0.000096 -0.616739 0.033453 0.040263 0.733447
    27 1.807677 -0.000001 -0.000002 0.000000 0.000000 0.567102
    28 1.614256 -0.000004 0.000003 0.000000 0.000000 0.741755
    29 4.525583 0.000106 0.616741 0.021763 0.027388 0.733134
    30 1.719871 -0.000003 0.000000 0.000000 0.000000 0.366391
    31 1.383651 -0.000001 0.000001 0.000000 0.000000 0.741562
    32 4.525584 0.000309 1.850224 -0.024762 -0.024689 0.733175
    33 1.433228 -0.000003 0.000000 0.000000 0.000000 0.366391
    34 1.153038 -0.000001 0.000000 0.000000 0.000000 0.741559
    35 9.341949 0.000000 0.000007 0.000000 0.000000 -1.299127
    36 11.168407 0.000002 0.000011 1.848242 -0.603624 -0.116141
    37 1.364906 0.231175 1.984408 -3.139678 0.004068 1.002176
    38 1.748534 0.000002 -0.000001 0.000000 0.000000 0.436228
    39 1.272493 0.000003 0.000002 0.000000 0.000000 0.322870
    40 4.525587 -0.000302 1.850221 -0.016281 -0.094622 0.192575
    41 1.719872 0.000007 0.000000 0.000000 0.000000 0.034907
    42 1.383647 0.000004 -0.000001 0.000000 0.000000 0.689317
    43 4.525585 -0.000102 0.616738 -0.040896 -0.032761 0.934331
    44 1.807677 -0.000002 -0.000002 0.000000 0.000000 0.907547
    45 1.614256 0.000001 0.000000 0.000000 0.000000 1.151884
    46 4.525587 0.000102 -0.616743 -0.026857 -0.022390 0.933833
    47 1.719867 0.000001 0.000001 0.000000 0.000000 0.907547
    48 1.383648 0.000001 -0.000001 0.000000 0.000000 1.151884
    49 4.525586 0.000303 -1.850223 0.029257 0.019236 0.933763
    50 1.433227 0.000002 0.000000 0.000000 0.000000 0.907324
    51 1.153036 0.000004 0.000000 0.000000 0.000000 1.151753
    52 7.223970 5.068054 1.800000 -3.141592 -0.000002 1.570798
    53 7.223960 5.068053 -1.800000 -3.141592 -0.000002 1.570798
    54 7.223950 5.068052 0.000000 -3.141592 -0.000002 1.570798
    55 3.723979 2.768055 -0.395205 -3.141592 -0.000098 1.570894
    56 20.747295 -0.313698 4.522630 0.003878 0.001942 1.564441
    57 2.448332 0.177352 0.168606 1.543132 0.019570 -3.045716
  time 3
    0 0.021128 2.373386 27.337310 0.000000 -0.063534 -2.033578
    1 -0.526041 0.000001 9.745319 -1.570764 -1.570457 0.000000
    2 -0.000009 0.000014 5.615740 -0.242738 3.483206 -0.520514
    3 15.693467 0.000042 -0.000137 -0.000002 0.000005 -0.383960
    4 22.146626 -0.000002 0.000000 0.131399 -0.139106 -0.269380
    5 0.000009 -0.000011 -5.615755 0.175737 2.885990 -0.127027
    6 15.693451 0.000043 -0.000136 -0.000002 0.000005 -0.780039
    7 22.146624 -0.000001 0.000000 0.254350 0.212511 0.542765
    8 1.384163 -0.004727 0.000003 -0.169951 -0.053871 -0.038993
    9 5.939812 -0.004729 0.000088 0.000000 0.000000 0.000000
    10 5.939812 -0.003975 0.000088 0.000000 0.000000 0.000000
    11 4.991436 -0.003974 0.000074 0.000000 0.000000 0.000000
    12 4.991427 -0.001574 0.000074 0.000000 0.000009 0.000016
    13 -0.001670 0.001564 3.638373 -0.000014 -1.284225 3.140794
    14 8.842823 0.000002 0.000054 -0.449544 0.156704 -0.364355
    15 0.001739 0.001585 -3.638374 -0.000014 1.284245 3.140766
    16 8.842813 0.000001 -0.000025 0.775045 -0.907625 -1.655929
    17 1.977402 -0.000032 0.003050 0.550139 0.259157 -0.108251
    18 9.341940 0.000000 0.000009 0.000000 0.000000 -2.232203
    19 11.168410 0.000002 -0.000001 -3.921950 0.207846 0.760892
    20 1.364904 0.231181 -1.984410 2.565369 0.787582 1.289645
    21 1.748533 -0.000003 0.000002 0.000000 0.000000 -0.043585
    22 1.272493 0.000001 -0.000003 0.000000 0.000000 0.253072
    23 4.525584 -0.000299 -1.850222 0.062830 0.072738 0.735167
    24 1.719874 -0.000007 0.000000 0.000000 0.000000 0.619418
    25 1.383651 0.000003 0.000001 0.000000 0.000000 0.741566
    26 4.525585 -0.000096 -0.616739 0.033453 0.040263 0.733447
    27 1.807677 -0.000001 -0.000002 0.000000 0.000000 0.567102
    28 1.614256 -0.000004 0.000003 0.000000 0.000000 0.741755
    29 4.525583 0.000106 0.616741 0.021763 0.027388 0.733134
    30 1.719871 -0.000003 0.000000 0.000000 0.000000 0.366391
    31 1.383651 -0.000001 0.000001 0.000000 0.000000 0.741562
    32 4.525584 0.000309 1.850224 -0.024762 -0.024689 0.733175
    33 1.433228 -0.000003 0.000000 0.000000 0.000000 0.366391
    34 1.153038 -0.000001 0.000000 0.000000 0.000000 0.741559
    35 9.341949 0.000000 0.000007 0.000000 0.000000 -1.397055
    36 11.168407 0.000002 0.000011 1.849548 -0.599632 0.002405
    37 1.364906 0.231175 1.984408 -3.139678 0.004068 1.002176
    38 1.748534 0.000002 -0.000001 0.000000 0.000000 0.436228
    39 1.272493 0.000003 0.000002 0.000000 0.000000 0.322870
    40 4.525587 -0.000302 1.850221 -0.016281 -0.094622 0.192575
    41 1.719872 0.000007 0.000000 0.000000 0.000000 0.034907
    42 1.383647 0.000004 -0.000001 0.000000 0.000000 0.689317
    43 4.525585 -0.000102 0.616738 -0.040896 -0.032761 0.934331
    44 1.807677 -0.000002 -0.000002 0.000000 0.000000 0.907547
    45 1.614256 0.000001 0.000000 0.000000 0.000000 1.151884
    46 4.525587 0.000102 -0.616743 -0.026857 -0.022390 0.933833
    47 1.719867 0.000001 0.000001 0.000000 0.000000 0.907547
    48 1.383648 0.000001 -0.000001 0.000000 0.000000 1.151884
    49 4.525586 0.000303 -1.850223 0.029257 0.019236 0.933763
    50 1.433227 0.000002 0.000000 0.000000 0.000000 0.907324
    51 1.153036 0.000004 0.000000 0.000000 0.000000 1.151753
    52 7.223970 5.068054 1.800000 -3.141592 -0.000002 1.570798
    53 7.223960 5.068053 -1.800000 -3.141592 -0.000002 1.570798
    54 7.223950 5.068052 0.000000 -3.141592 -0.000002 1.570798
    55 3.723979 2.768055 -0.395205 -3.141592 -0.000098 1.570894
    56 20.747295 -0.313698 4.522630 0.003878 0.001942 1.564441
    57 2.448332 0.177352 0.168606 1.543132 0.019570 -3.045716
  time 4
    0 0.021128 2.281839 27.356908 0.000000 -0.056751 -2.033578
    1 -0.526041 0.000001 9.745319 -1.570764 -1.570457 0.000000
    2 -0.000009 0.000014 5.615740 -0.240437 3.483493 -0.529116
    3 15.693467 0.000042 -0.000137 -0.000002 0.000005 -0.393848
    4 22.146626 -0.000002 0.000000 0.129904 -0.140171 -0.261103
    5 0.000009 -0.000011 -5.615755 0.176600 2.886566 -0.123481
    6 15.693451 0.000043 -0.000136 -0.000002 0.000005 -0.769395
    7 22.146624 -0.000001 0.000000 0.255873 0.214107 0.541884
    8 1.384163 -0.004727 0.000003 -0.191796 -0.049766 -0.025181
    9 5.939812 -0.004729 0.000088 0.000000 0.000000 0.000000
    10 5.939812 -0.003975 0.000088 0.000000 0.000000 0.000000
    11 4.991436 -0.003974 0.000074 0.000000 0.000000 0.000000
    12 4.991427 -0.001574 0.000074 0.000000 0.000009 0.000016
    13 -0.001670 0.001564 3.638373 -0.000014 -1.284225 3.140794
    14 8.842823 0.000002 0.000054 -0.592928 0.112331 -0.431167
    15 0.001739 0.001585 -3.638374 -0.000014 1.284245 3.140766
    16 8.842813 0.000001 -0.000025 0.774400 -0.893018 -1.667459
    17 1.977402 -0.000032 0.003050 0.553575 0.328346 -0.165050
    18 9.341940 0.000000 0.000009 0.000000 0.000000 -2.264513
    19 11.168410 0.000002 -0.000001 -3.912974 0.330225 0.869579
    20 1.364904 0.231181 -1.984410 2.565369 0.787582 1.289645
    21 1.748533 -0.000003 0.000002 0.000000 0.000000 -0.043585
    22 1.272493 0.000001 -0.000003 0.000000 0.000000 0.253072
    23 4.525584 -0.000299 -1.850222 0.062830 0.072738 0.735167
    24 1.719874 -0.000007 0.000000 0.000000 0.000000 0.619418
    25 1.383651 0.000003 0.000001 0.000000 0.000000 0.741566
    26 4.525585 -0.000096 -0.616739 0.033453 0.040263 0.733447
    27 1.807677 -0.000001 -0.000002 0.000000 0.000000 0.567102
    28 1.614256 -0.000004 0.000003 0.000000 0.000000 0.741755
    29 4.525583 0.000106 0.616741 0.021763 0.027388 0.733134
    30 1.719871 -0.000003 0.000000 0.000000 0.000000 0.366391
    31 1.383651 -0.000001 0.000001 0.000000 0.000000 0.741562
    32 4.525584 0.000309 1.850224 -0.024762 -0.024689 0.733175
    33 1.433228 -0.000003 0.000000 0.000000 0.000000 0.366391
    34 1.153038 -0.000001 0.000000 0.000000 0.000000 0.741559
    35 9.341949 0.000000 0.000007 0.000000 0.000000 -1.522696
    36 11.168407 0.000002 0.000011 1.844887 -0.594500 0.139470
    37 1.364906 0.231175 1.984408 -3.139678 0.004068 1.002176
    38 1.748534 0.000002 -0.000001 0.000000 0.000000 0.436228
    39 1.272493 0.000003 0.000002 0.000000 0.000000 0.322870
    40 4.525587 -0.000302 1.850221 -0.016281 -0.094622 0.192575
    41 1.719872 0.000007 0.000000 0.000000 0.000000 0.034907
    42 1.383647 0.000004 -0.000001 0.000000 0.000000 0.689317
    43 4.525585 -0.000102 0.616738 -0.040896 -0.032761 0.934331
    44 1.807677 -0.000002 -0.000002 0.000000 0.000000 0.907547
    45 1.614256 0.000001 0.000000 0.000000 0.000000 1.151884
    46 4.525587 0.000102 -0.616743 -0.026857 -0.022390 0.933833
    47 1.719867 0.000001 0.000001 0.000000 0.000000 0.907547
    48 1.383648 0.000001 -0.000001 0.000000 0.000000 1.151884
    49 4.525586 0.000303 -1.850223 0.029257 0.019236 0.933763
    50 1.433227 0.000002 0.000000 0.000000 0.000000 0.907324
    51 1.153036 0.000004 0.000000 0.000000 0.000000 1.151753
    52 7.223970 5.068054 1.800000 -3.141592 -0.000002 1.570798
    53 7.223960 5.068053 -1.800000 -3.141592 -0.000002 1.570798
    54 7.223950 5.068052 0.000000 -3.141592 -0.000002 1.570798
    55 3.723979 2.768055 -0.395205 -3.141592 -0.000098 1.570894
    56 20.747295 -0.313698 4.522630 0.003878 0.001942 1.564441
    57 2.448332 0.177352 0.168606 1.543132 0.019570 -3.045716
  time 5
    0 0.021128 2.028324 27.396104 0.000000 -0.048248 -2.033578
    1 -0.526041 0.000001 9.745319 -1.570764 -1.570457 0.000000
    2 -0.000009 0.000014 5.615740 -0.235164 3.484931 -0.544885
    3 15.693467 0.000042 -0.000137 -0.000002 0.000005 -0.420809
    4 22.146626 -0.000002 0.000000 0.127811 -0.141335 -0.241121
    5 0.000009 -0.000011 -5.615755 0.178133 2.886278 -0.111882
    6 15.693451 0.000043 -0.000136 -0.000002 0.000005 -0.749150
    7 22.146624 -0.000001 0.000000 0.258355 0.218466 0.541884
    8 1.384163 -0.004727 0.000003 -0.219262 -0.044104 -0.007833
    9 5.939812 -0.004729 0.000088 0.000000 0.000000 0.000000
    10 5.939812 -0.003975 0.000088 0.000000 0.000000 0.000000
    11 4.991436 -0.003974 0.000074 0.000000 0.000000 0.000000
    12 4.991427 -0.001574 0.000074 0.000000 0.000009 0.000016
    13 -0.001670 0.001564 3.638373 -0.000014 -1.284225 3.140794
    14 8.842823 0.000002 0.000054 -0.552327 0.067587 -0.425195
    15 0.001739 0.001585 -3.638374 -0.000014 1.284245 3.140766
    16 8.842813 0.000001 -0.000025 0.832692 -0.828128 -1.777993
    17 1.977402 -0.000032 0.003050 0.585186 0.358359 -0.142390
    18 9.341940 0.000000 0.000009 0.000000 0.000000 -2.040808
    19 11.168410 0.000002 -0.000001 -4.057259 0.368976 0.581549
    20 1.364904 0.231181 -1.984410 2.565369 0.787582 1.289645
    21 1.748533 -0.000003 0.000002 0.000000 0.000000 -0.043585
    22 1.272493 0.000001 -0.000003 0.000000 0.000000 0.253072
    23 4.525584 -0.000299 -1.850222 0.062830 0.072738 0.735167
    24 1.719874 -0.000007 0.000000 0.000000 0.000000 0.619418
    25 1.383651 0.000003 0.000001 0.000000 0.000000 0.741566
    26 4.525585 -0.000096 -0.616739 0.033453 0.040263 0.733447
    27 1.807677 -0.000001 -0.000002 0.000000 0.000000 0.567102
    28 1.614256 -0.000004 0.000003 0.000000 0.000000 0.741755
    29 4.525583 0.000106 0.616741 0.021763 0.027388 0.733134
    30 1.719871 -0.000003 0.000000 0.000000 0.000000 0.366391
    31 1.383651 -0.000001 0.000001 0.000000 0.000000 0.741562
    32 4.525584 0.000309 1.850224 -0.024762 -0.024689 0.733175
    33 1.433228 -0.000003 0.000000 0.000000 0.000000 0.366391
    34 1.153038 -0.000001 0.000000 0.000000 0.000000 0.741559
    35 9.341949 0.000000 0.000007 0.000000 0.000000 -1.424568
    36 11.168407 0.000002 0.000011 1.801541 -0.490624 0.244478
    37 1.364906 0.231175 1.984408 -3.139678 0.004068 1.002176
    38 1.748534 0.000002 -0.000001 0.000000 0.000000 0.436228
    39 1.272493 0.000003 0.000002 0.000000 0.000000 0.322870
    40 4.525587 -0.000302 1.850221 -0.016281 -0.094622 0.192575
    41 1.719872 0.000007 0.000000 0.000000 0.000000 0.034907
    42 1.383647 0.000004 -0.000001 0.000000 0.000000 0.689317
    43 4.525585 -0.000102 0.616738 -0.040896 -0.032761 0.934331
    44 1.807677 -0.000002 -0.000002 0.000000 0.000000 0.907547
    45 1.614256 0.000001 0.000000 0.000000 0.000000 1.151884
    46 4.525587 0.000102 -0.616743 -0.026857 -0.022390 0.933833
    47 1.719867 0.000001 0.000001 0.000000 0.000000 0.907547
    48 1.383648 0.000001 -0.000001 0.000000 0.000000 1.151884
    49 4.525586 0.000303 -1.850223 0.029257 0.019236 0.933763
    50 1.433227 0.000002 0.000000 0.000000 0.000000 0.907324
    51 1.153036 0.000004 0.000000 0.000000 0.000000 1.151753
    52 7.223970 5.068054 1.800000 -3.141592 -0.000002 1.570798
    53 7.223960 5.068053 -1.800000 -3.141592 -0.000002 1.570798
    54 7.223950 5.068052 0.000000 -3.141592 -0.000002 1.570798
    55 3.723979 2.768055 -0.395205 -3.141592 -0.000098 1.570894
    56 20.747295 -0.313698 4.522630 0.003878 0.001942 1.564441
    57 2.448332 0.177352 0.168606 1.543132 0.019570 -3.045716
  time 6
    0 0.021128 1.676220 27.474496 0.000000 -0.038598 -2.033578
    1 -0.526041 0.000001 9.745319 -1.570764 -1.570457 0.000000
    2 -0.000009 0.000014 5.615740 -0.232384 3.484164 -0.555685
    3 15.693467 0.000042 -0.000137 -0.000002 0.000005 -0.441510
    4 22.146626 -0.000002 0.000000 0.125306 -0.142276 -0.220361
    5 0.000009 -0.000011 -5.615755 0.182160 2.886949 -0.090027
    6 15.693451 0.000043 -0.000136 -0.000002 0.000005 -0.714242
    7 22.146624 -0.000001 0.000000 0.261232 0.223991 0.537392
    8 1.384163 -0.004727 0.000003 -0.250195 -0.037153 0.011313
    9 5.939812 -0.004729 0.000088 0.000000 0.000000 0.000000
    10 5.939812 -0.003975 0.000088 0.000000 0.000000 0.000000
    11 4.991436 -0.003974 0.000074 0.000000 0.000000 0.000000
    12 4.991427 -0.001574 0.000074 0.000000 0.000009 0.000016
    13 -0.001670 0.001564 3.638373 -0.000014 -1.284225 3.140794
    14 8.842823 0.000002 0.000054 -0.521236 0.028982 -0.469761
    15 0.001739 0.001585 -3.638374 -0.000014 1.284245 3.140766
    16 8.842813 0.000001 -0.000025 0.870828 -0.768992 -1.873567
    17 1.977402 -0.000032 0.003050 0.630859 0.370554 -0.092498
    18 9.341940 0.000000 0.000009 0.000000 0.000000 -1.821695
    19 11.168410 0.000002 -0.000001 -4.169650 0.396629 0.338379
    20 1.364904 0.231181 -1.984410 2.565369 0.787582 1.289645
    21 1.748533 -0.000003 0.000002 0.000000 0.000000 -0.043585
    22 1.272493 0.000001 -0.000003 0.000000 0.000000 0.253072
    23 4.525584 -0.000299 -1.850222 0.062830 0.072738 0.735167
    24 1.719874 -0.000007 0.000000 0.000000 0.000000 0.619418
    25 1.383651 0.000003 0.000001 0.000000 0.000000 0.741566
    26 4.525585 -0.000096 -0.616739 0.033453 0.040263 0.733447
    27 1.807677 -0.000001 -0.000002 0.000000 0.000000 0.567102
    28 1.614256 -0.000004 0.000003 0.000000 0.000000 0.741755
    29 4.525583 0.000106 0.616741 0.021763 0.027388 0.733134
    30 1.719871 -0.000003 0.000000 0.000000 0.000000 0.366391
    31 1.383651 -0.000001 0.000001 0.000000 0.000000 0.741562
    32 4.525584 0.000309 1.850224 -0.024762 -0.024689 0.733175
    33 1.433228 -0.000003 0.000000 0.000000 0.000000 0.366391
    34 1.153038 -0.000001 0.000000 0.000000 0.000000 0.741559
    35 9.341949 0.000000 0.000007 0.000000 0.000000 -1.339497
    36 11.168407 0.000002 0.000011 1.774042 -0.380381 0.339427
    37 1.364906 0.231175 1.984408 -3.139678 0.004068 1.002176
    38 1.748534 0.000002 -0.000001 0.000000 0.000000 0.436228
    39 1.272493 0.000003 0.000002 0.000000 0.000000 0.322870
    40 4.525587 -0.000302 1.850221 -0.016281 -0.094622 0.192575
    41 1.719872 0.000007 0.000000 0.000000 0.000000 0.034907
    42 1.383647 0.000004 -0.000001 0.000000 0.000000 0.689317
    43 4.525585 -0.000102 0.616738 -0.040896 -0.032761 0.934331
    44 1.807677 -0.000002 -0.000002 0.000000 0.000000 0.907547
    45 1.614256 0.000001 0.000000 0.000000 0.000000 1.151884
    46 4.525587 0.000102 -0.616743 -0.026857 -0.022390 0.933833
    47 1.719867 0.000001 0.000001 0.000000 0.000000 0.907547
    48 1.383648 0.000001 -0.000001 0.000000 0.000000 1.151884
    49 4.525586 0.000303 -1.850223 0.029257 0.019236 0.933763
    50 1.433227 0.000002 0.000000 0.000000 0.000000 0.907324
    51 1.153036 0.000004 0.000000 0.000000 0.000000 1.151753
    52 7.223970 5.068054 1.800000 -3.141592 -0.000002 1.570798
    53 7.223960 5.068053 -1.800000 -3.141592 -0.000002 1.570798
    54 7.223950 5.068052 0.000000 -3.141592 -0.000002 1.570798
    55 3.723979 2.768055 -0.395205 -3.141592 -0.000098 1.570894
    56 20.747295 -0.313698 4.522630 0.003878 0.001942 1.564441
    57 2.448332 0.177352 0.168606 1.543132 0.019570 -3.045716
  time 7
    0 0.021128 1.267779 27.611682 0.000000 -0.028375 -2.033578
    1 -0.526041 0.000001 9.745319 -1.570764 -1.570457 0.000000
    2 -0.000009 0.000014 5.615740 -0.231329 3.482056 -0.561132
    3 15.693467 0.000042 -0.000137 -0.000002 0.000005 -0.457445
    4 22.146626 -0.000002 0.000000 0.122577 -0.143019 -0.199601
    5 0.000009 -0.000011 -5.615755 0.187913 2.888483 -0.060503
    6 15.693451 0.000043 -0.000136 -0.000002 0.000005 -0.667127
    7 22.146624 -0.000001 0.000000 0.264673 0.230100 0.528937
    8 1.384163 -0.004727 0.000003 -0.282878 -0.029076 0.031686
    9 5.939812 -0.004729 0.000088 0.000000 0.000000 0.000000
    10 5.939812 -0.003975 0.000088 0.000000 0.000000 0.000000
    11 4.991436 -0.003974 0.000074 0.000000 0.000000 0.000000
    12 4.991427 -0.001574 0.000074 0.000000 0.000009 0.000016
    13 -0.001670 0.001564 3.638373 -0.000014 -1.284225 3.140794
    14 8.842823 0.000002 0.000054 -0.495906 -0.005158 -0.541947
    15 0.001739 0.001585 -3.638374 -0.000014 1.284245 3.140766
    16 8.842813 0.000001 -0.000025 0.897354 -0.714105 -1.960374
    17 1.977402 -0.000032 0.003050 0.682664 0.372012 -0.033611
    18 9.341940 0.000000 0.000009 0.000000 0.000000 -1.607175
    19 11.168410 0.000002 -0.000001 -4.265521 0.420262 0.119826
    20 1.364904 0.231181 -1.984410 2.565369 0.787582 1.289645
    21 1.748533 -0.000003 0.000002 0.000000 0.000000 -0.043585
    22 1.272493 0.000001 -0.000003 0.000000 0.000000 0.253072
    23 4.525584 -0.000299 -1.850222 0.062830 0.072738 0.735167
    24 1.719874 -0.000007 0.000000 0.000000 0.000000 0.619418
    25 1.383651 0.000003 0.000001 0.000000 0.000000 0.741566
    26 4.525585 -0.000096 -0.616739 0.033453 0.040263 0.733447
    27 1.807677 -0.000001 -0.000002 0.000000 0.000000 0.567102
    28 1.614256 -0.000004 0.000003 0.000000 0.000000 0.741755
    29 4.525583 0.000106 0.616741 0.021763 0.027388 0.733134
    30 1.719871 -0.000003 0.000000 0.000000 0.000000 0.366391
    31 1.383651 -0.000001 0.000001 0.000000 0.000000 0.741562
    32 4.525584 0.000309 1.850224 -0.024762 -0.024689 0.733175
    33 1.433228 -0.000003 0.000000 0.000000 0.000000 0.366391
    34 1.153038 -0.000001 0.000000 0.000000 0.000000 0.741559
    35 9.341949 0.000000 0.000007 0.000000 0.000000 -1.261821
    36 11.168407 0.000002 0.000011 1.761644 -0.265766 0.425915
    37 1.364906 0.231175 1.984408 -3.139678 0.004068 1.002176
    38 1.748534 0.000002 -0.000001 0.000000 0.000000 0.436228
    39 1.272493 0.000003 0.000002 0.000000 0.000000 0.322870
    40 4.525587 -0.000302 1.850221 -0.016281 -0.094622 0.192575
    41 1.719872 0.000007 0.000000 0.000000 0.000000 0.034907
    42 1.383647 0.000004 -0.000001 0.000000 0.000000 0.689317
    43 4.525585 -0.000102 0.616738 -0.040896 -0.032761 0.934331
    44 1.807677 -0.000002 -0.000002 0.000000 0.000000 0.907547
    45 1.614256 0.000001 0.000000 0.000000 0.000000 1.151884
    46 4.525587 0.000102 -0.616743 -0.026857 -0.022390 0.933833
    47 1.719867 0.000001 0.000001 0.000000 0.000000 0.907547
    48 1.383648 0.000001 -0.000001 0.000000 0.000000 1.151884
    49 4.525586 0.000303 -1.850223 0.029257 0.019236 0.933763
    50 1.433227 0.000002 0.000000 0.000000 0.000000 0.907324
    51 1.153036 0.000004 0.000000 0.000000 0.000000 1.151753
    52 7.223970 5.068054 1.800000 -3.141592 -0.000002 1.570798
    53 7.223960 5.068053 -1.800000 -3.141592 -0.000002 1.570798
    54 7.223950 5.068052 0.000000 -3.141592 -0.000002 1.570798
    55 3.723979 2.768055 -0.395205 -3.141592 -0.000098 1.570894
    56 20.747295 -0.313698 4.522630 0.003878 0.001942 1.564441
    57 2.448332 0.177352 0.168606 1.543132 0.019570 -3.045716
  time 8
    0 0.021128 0.838212 27.768466 0.000000 -0.018057 -2.033578
    1 -0.526041 0.000001 9.745319 -1.570764 -1.570457 0.000000
    2 -0.000009 0.000014 5.615740 -0.231425 3.479085 -0.563522
    3 15.693467 0.000042 -0.000137 -0.000002 0.000005 -0.468969
    4 22.146626 -0.000002 0.000000 0.119773 -0.143539 -0.179481
    5 0.000009 -0.000011 -5.615755 0.195199 2.891167 -0.025228
    6 15.693451 0.000043 -0.000136 -0.000002 0.000005 -0.610262
    7 22.146624 -0.000001 0.000000 0.268114 0.236362 0.516782
    8 1.384163 -0.004727 0.000003 -0.315326 -0.020462 0.051671
    9 5.939812 -0.004729 0.000088 0.000000 0.000000 0.000000
    10 5.939812 -0.003975 0.000088 0.000000 0.000000 0.000000
    11 4.991436 -0.003974 0.000074 0.000000 0.000000 0.000000
    12 4.991427 -0.001574 0.000074 0.000000 0.000009 0.000016
    13 -0.001670 0.001564 3.638373 -0.000014 -1.284225 3.140794
    14 8.842823 0.000002 0.000054 -0.472039 -0.037252 -0.636006
    15 0.001739 0.001585 -3.638374 -0.000014 1.284245 3.140766
    16 8.842813 0.000001 -0.000025 0.917510 -0.660192 -2.041845
    17 1.977402 -0.000032 0.003050 0.738698 0.354935 0.041576
    18 9.341940 0.000000 0.000009 0.000000 0.000000 -1.386996
    19 11.168410 0.000002 -0.000001 -4.352321 0.440547 -0.086984
    20 1.364904 0.231181 -1.984410 2.565369 0.787582 1.289645
    21 1.748533 -0.000003 0.000002 0.000000 0.000000 -0.043585
    22 1.272493 0.000001 -0.000003 0.000000 0.000000 0.253072
    23 4.525584 -0.000299 -1.850222 0.062830 0.072738 0.735167
    24 1.719874 -0.000007 0.000000 0.000000 0.000000 0.619418
    25 1.383651 0.000003 0.000001 0.000000 0.000000 0.741566
    26 4.525585 -0.000096 -0.616739 0.033453 0.040263 0.733447
    27 1.807677 -0.000001 -0.000002 0.000000 0.000000 0.567102
    28 1.614256 -0.000004 0.000003 0.000000 0.000000 0.741755
    29 4.525583 0.000106 0.616741 0.021763 0.027388 0.733134
    30 1.719871 -0.000003 0.000000 0.000000 0.000000 0.366391
    31 1.383651 -0.000001 0.000001 0.000000 0.000000 0.741562
    32 4.525584 0.000309 1.850224 -0.024762 -0.024689 0.733175
    33 1.433228 -0.000003 0.000000 0.000000 0.000000 0.366391
    34 1.153038 -0.000001 0.000000 0.000000 0.000000 0.741559
    35 9.341949 0.000000 0.000007 0.000000 0.000000 -1.184744
    36 11.168407 0.000002 0.000011 1.763695 -0.149630 0.506763
    37 1.364906 0.231175 1.984408 -3.139678 0.004068 1.002176
    38 1.748534 0.000002 -0.000001 0.000000 0.000000 0.436228
    39 1.272493 0.000003 0.000002 0.000000 0.000000 0.322870
    40 4.525587 -0.000302 1.850221 -0.016281 -0.094622 0.192575
    41 1.719872 0.000007 0.000000 0.000000 0.000000 0.034907
    42 1.383647 0.000004 -0.000001 0.000000 0.000000 0.689317
    43 4.525585 -0.000102 0.616738 -0.040896 -0.032761 0.934331
    44 1.807677 -0.000002 -0.000002 0.000000 0.000000 0.907547
    45 1.614256 0.000001 0.000000 0.000000 0.000000 1.151884
    46 4.525587 0.000102 -0.616743 -0.026857 -0.022390 0.933833
    47 1.719867 0.000001 0.000001 0.000000 0.000000 0.907547
    48 1.383648 0.000001 -0.000001 0.000000 0.000000 1.151884
    49 4.525586 0.000303 -1.850223 0.029257 0.019236 0.933763
    50 1.433227 0.000002 0.000000 0.000000 0.000000 0.907324
    51 1.153036 0.000004 0.000000 0.000000 0.000000 1.151753
    52 7.223970 5.068054 1.800000 -3.141592 -0.000002 1.570798
    53 7.223960 5.068053 -1.800000 -3.141592 -0.000002 1.570798
    54 7.223950 5.068052 0.000000 -3.141592 -0.000002 1.570798
    55 3.723979 2.768055 -0.395205 -3.141592 -0.000098 1.570894
    56 20.747295 -0.313698 4.522630 0.003878 0.001942 1.564441
    57 2.448332 0.177352 0.168606 1.543132 0.019570 -3.045716
  time 9
    0 0.021128 0.394561 27.905652 0.000000 -0.008216 -2.033578
    1 -0.526041 0.000001 9.745319 -1.570764 -1.570457 0.000000
    2 -0.000009 0.000014 5.615740 -0.232192 3.475731 -0.564000
    3 15.693467 0.000042 -0.000137 -0.000002 0.000005 -0.478644
    4 22.146626 -0.000002 0.000000 0.117194 -0.143861 -0.160505
    5 0.000009 -0.000011 -5.615755 0.203540 2.894811 0.014456
    6 15.693451 0.000043 -0.000136 -0.000002 0.000005 -0.546847
    7 22.146624 -0.000001 0.000000 0.271611 0.242409 0.501721
    8 1.384163 -0.004727 0.000003 -0.345754 -0.011660 0.070247
    9 5.939812 -0.004729 0.000088 0.000000 0.000000 0.000000
    10 5.939812 -0.003975 0.000088 0.000000 0.000000 0.000000
    11 4.991436 -0.003974 0.000074 0.000000 0.000000 0.000000
    12 4.991427 -0.001574 0.000074 0.000000 0.000009 0.000016
    13 -0.001670 0.001564 3.638373 -0.000014 -1.284225 3.140794
    14 8.842823 0.000002 0.000054 -0.446435 -0.070555 -0.755147
    15 0.001739 0.001585 -3.638374 -0.000014 1.284245 3.140766
    16 8.842813 0.000001 -0.000025 0.935409 -0.603712 -2.120171
    17 1.977402 -0.000032 0.003050 0.791296 0.325940 0.121334
    18 9.341940 0.000000 0.000009 0.000000 0.000000 -1.147383
    19 11.168410 0.000002 -0.000001 -4.434824 0.457770 -0.294236
    20 1.364904 0.231181 -1.984410 2.565369 0.787582 1.289645
    21 1.748533 -0.000003 0.000002 0.000000 0.000000 -0.043585
    22 1.272493 0.000001 -0.000003 0.000000 0.000000 0.253072
    23 4.525584 -0.000299 -1.850222 0.062830 0.072738 0.735167
    24 1.719874 -0.000007 0.000000 0.000000 0.000000 0.619418
    25 1.383651 0.000003 0.000001 0.000000 0.000000 0.741566
    26 4.525585 -0.000096 -0.616739 0.033453 0.040263 0.733447
    27 1.807677 -0.000001 -0.000002 0.000000 0.000000 0.567102
    28 1.614256 -0.000004 0.000003 0.000000 0.000000 0.741755
    29 4.525583 0.000106 0.616741 0.021763 0.027388 0.733134
    30 1.719871 -0.000003 0.000000 0.000000 0.000000 0.366391
    31 1.383651 -0.000001 0.000001 0.000000 0.000000 0.741562
    32 4.525584 0.000309 1.850224 -0.024762 -0.024689 0.733175
    33 1.433228 -0.000003 0.000000 0.000000 0.000000 0.366391
    34 1.153038 -0.000001 0.000000 0.000000 0.000000 0.741559
    35 9.341949 0.000000 0.000007 0.000000 0.000000 -1.099340
    36 11.168407 0.000002 0.000011 1.778703 -0.035585 0.581500
    37 1.364906 0.231175 1.984408 -3.139678 0.004068 1.002176
    38 1.748534 0.000002 -0.000001 0.000000 0.000000 0.436228
    39 1.272493 0.000003 0.000002 0.000000 0.000000 0.322870
    40 4.525587 -0.000302 1.850221 -0.016281 -0.094622 0.192575
    41 1.719872 0.000007 0.000000 0.000000 0.000000 0.034907
    42 1.383647 0.000004 -0.000001 0.000000 0.000000 0.689317
    43 4.525585 -0.000102 0.616738 -0.040896 -0.032761 0.934331
    44 1.807677 -0.000002 -0.000002 0.000000 0.000000 0.907547
    45 1.614256 0.000001 0.000000 0.000000 0.000000 1.151884
    46 4.525587 0.000102 -0.616743 -0.026857 -0.022390 0.933833
    47 1.719867 0.000001 0.000001 0.000000 0.000000 0.907547
    48 1.383648 0.000001 -0.000001 0.000000 0.000000 1.151884
    49 4.525586 0.000303 -1.850223 0.029257 0.019236 0.933763
    50 1.433227 0.000002 0.000000 0.000000 0.000000 0.907324
    51 1.153036 0.000004 0.000000 0.000000 0.000000 1.151753
    52 7.223970 5.068054 1.800000 -3.141592 -0.000002 1.570798
    53 7.223960 5.068053 -1.800000 -3.141592 -0.000002 1.570798
    54 7.223950 5.068052 0.000000 -3.141592 -0.000002 1.570798
    55 3.723979 2.768055 -0.395205 -3.141592 -0.000098 1.570894
    56 20.747295 -0.313698 4.522630 0.003878 0.001942 1.564441
    57 2.448332 0.177352 0.168606 1.543132 0.019570 -3.045716
  time 10
    0 0.021128 -0.006838 28.042838 0.000000 0.000000 -2.033578
    1 -0.526041 0.000001 9.745319 -1.570764 -1.570457 0.000000
    2 -0.000009 0.000014 5.615740 -0.233055 3.472473 -0.564000
    3 15.693467 0.000042 -0.000137 -0.000002 0.000005 -0.487109
    4 22.146626 -0.000002 0.000000 0.114914 -0.143960 -0.143083
    5 0.000009 -0.000011 -5.615755 0.212265 2.899221 0.054812
    6 15.693451 0.000043 -0.000136 -0.000002 0.000005 -0.482092
    7 22.146624 -0.000001 0.000000 0.274770 0.247965 0.484898
    8 1.384163 -0.004727 0.000003 -0.372513 -0.003422 0.086516
    9 5.939812 -0.004729 0.000088 0.000000 0.000000 0.000000
    10 5.939812 -0.003975 0.000088 0.000000 0.000000 0.000000
    11 4.991436 -0.003974 0.000074 0.000000 0.000000 0.000000
    12 4.991427 -0.001574 0.000074 0.000000 0.000009 0.000016
    13 -0.001670 0.001564 3.638373 -0.000014 -1.284225 3.140794
    14 8.842823 0.000002 0.000054 -0.414704 -0.110183 -0.914599
    15 0.001739 0.001585 -3.638374 -0.000014 1.284245 3.140766
    16 8.842813 0.000001 -0.000025 0.953872 -0.539176 -2.197736
    17 1.977402 -0.000032 0.003050 0.835436 0.294261 0.195974
    18 9.341940 0.000000 0.000009 0.000000 0.000000 -0.852909
    19 11.168410 0.000002 -0.000001 -4.515417 0.471357 -0.520749
    20 1.364904 0.231181 -1.984410 2.565369 0.787582 1.289645
    21 1.748533 -0.000003 0.000002 0.000000 0.000000 -0.043585
    22 1.272493 0.000001 -0.000003 0.000000 0.000000 0.253072
    23 4.525584 -0.000299 -1.850222 0.062830 0.072738 0.735167
    24 1.719874 -0.000007 0.000000 0.000000 0.000000 0.619418
    25 1.383651 0.000003 0.000001 0.000000 0.000000 0.741566
    26 4.525585 -0.000096 -0.616739 0.033453 0.040263 0.733447
    27 1.807677 -0.000001 -0.000002 0.000000 0.000000 0.567102
    28 1.614256 -0.000004 0.000003 0.000000 0.000000 0.741755
    29 4.525583 0.000106 0.616741 0.021763 0.027388 0.733134
    30 1.719871 -0.000003 0.000000 0.000000 0.000000 0.366391
    31 1.383651 -0.000001 0.000001 0.000000 0.000000 0.741562
    32 4.525584 0.000309 1.850224 -0.024762 -0.024689 0.733175
    33 1.433228 -0.000003 0.000000 0.000000 0.000000 0.366391
    34 1.153038 -0.000001 0.000000 0.000000 0.000000 0.741559
    35 9.341949 0.000000 0.000007 0.000000 0.000000 -0.994817
    36 11.168407 0.000002 0.000011 1.806668 0.074753 0.649563
    37 1.364906 0.231175 1.984408 -3.139678 0.004068 1.002176
    38 1.748534 0.000002 -0.000001 0.000000 0.000000 0.436228
    39 1.272493 0.000003 0.000002 0.000000 0.000000 0.322870
    40 4.525587 -0.000302 1.850221 -0.016281 -0.094622 0.192575
    41 1.719872 0.000007 0.000000 0.000000 0.000000 0.034907
    42 1.383647 0.000004 -0.000001 0.000000 0.000000 0.689317
    43 4.525585 -0.000102 0.616738 -0.040896 -0.032761 0.934331
    44 1.807677 -0.000002 -0.000002 0.000000 0.000000 0.907547
    45 1.614256 0.000001 0.000000 0.000000 0.000000 1.151884
    46 4.525587 0.000102 -0.616743 -0.026857 -0.022390 0.933833
    47 1.719867 0.000001 0.000001 0.000000 0.000000 0.907547
    48 1.383648 0.000001 -0.000001 0.000000 0.000000 1.151884
    49 4.525586 0.000303 -1.850223 0.029257 0.019236 0.933763
    50 1.433227 0.000002 0.000000 0.000000 0.000000 0.907324
    51 1.153036 0.000004 0.000000 0.000000 0.000000 1.151753
    52 7.223970 5.068054 1.800000 -3.141592 -0.000002 1.570798
    53 7.223960 5.068053 -1.800000 -3.141592 -0.000002 1.570798
    54 7.223950 5.068052 0.000000 -3.141592 -0.000002 1.570798
    55 3.723979 2.768055 -0.395205 -3.141592 -0.000098 1.570894
    56 20.747295 -0.313698 4.522630 0.003878 0.001942 1.564441
    57 2.448332 0.177352 0.168606 1.543132 0.019570 -3.045716
end
