version 1
nodes
  0 "Bip01" -1
  1 "Bip01 Pelvis" 0
  2 "Bip01 L Thigh" 1
  3 "Bip01 L Calf" 2
  4 "Bip01 L Foot" 3
  5 "Bip01 R Thigh" 1
  6 "Bip01 R Calf" 5
  7 "Bip01 R Foot" 6
  8 "Bip01 Spine" 1
  9 "Bip01 Spine1" 8
  10 "Bip01 Spine2" 9
  11 "Bip01 Spine3" 10
  12 "Bip01 Neck" 11
  13 "Bip01 L Clavicle" 12
  14 "Bip01 L UpperArm" 13
  15 "Bip01 R Clavicle" 12
  16 "Bip01 R UpperArm" 15
  17 "Bip01 Head" 12
  18 "Bip01 L Forearm" 14
  19 "Bip01 L Hand" 18
  20 "Bip01 L Finger0" 19
  21 "Bip01 L Finger01" 20
  22 "Bip01 L Finger02" 21
  23 "Bip01 L Finger1" 19
  24 "Bip01 L Finger11" 23
  25 "Bip01 L Finger12" 24
  26 "Bip01 L Finger2" 19
  27 "Bip01 L Finger21" 26
  28 "Bip01 L Finger22" 27
  29 "Bip01 L Finger3" 19
  30 "Bip01 L Finger31" 29
  31 "Bip01 L Finger32" 30
  32 "Bip01 L Finger4" 19
  33 "Bip01 L Finger41" 32
  34 "Bip01 L Finger42" 33
  35 "Bip01 R Forearm" 16
  36 "Bip01 R Hand" 35
  37 "Bip01 R Finger0" 36
  38 "Bip01 R Finger01" 37
  39 "Bip01 R Finger02" 38
  40 "Bip01 R Finger1" 36
  41 "Bip01 R Finger11" 40
  42 "Bip01 R Finger12" 41
  43 "Bip01 R Finger2" 36
  44 "Bip01 R Finger21" 43
  45 "Bip01 R Finger22" 44
  46 "Bip01 R Finger3" 36
  47 "Bip01 R Finger31" 46
  48 "Bip01 R Finger32" 47
  49 "Bip01 R Finger4" 36
  50 "Bip01 R Finger41" 49
  51 "Bip01 R Finger42" 50
  52 "R_eye" 17
  53 "L_eye" 17
  54 "E_lids" 17
  55 "Mouth" 17
  56 "p_rpg" 36
  57 "Line04" 36
end
skeleton
  time 0
    0 -0.106983 11.161906 26.102635 0.036922 0.364484 -1.492850
    1 -3.432380 -0.285164 9.745319 -0.000414 -1.611567 -1.570770
    2 -0.000009 0.000014 5.615740 0.006423 3.157105 -0.823956
    3 15.693467 0.000042 -0.000137 -0.000002 0.000005 -1.398306
    4 22.146626 -0.000002 0.000000 -0.027588 0.054979 0.653887
    5 0.000009 -0.000011 -5.615755 0.049758 3.200062 -1.127286
    6 15.693451 0.000043 -0.000136 -0.000002 0.000005 -0.926742
    7 22.146624 -0.000001 0.000000 0.080158 -0.076864 0.215029
    8 1.384163 -0.004727 -0.050780 0.006155 0.011203 0.152252
    9 5.939812 -0.004729 0.000088 0.000000 -0.017450 0.162155
    10 5.939812 -0.003975 0.000088 0.000000 0.029099 0.162194
    11 4.991436 -0.003974 0.000074 0.000000 0.017450 0.162185
    12 4.991427 -0.001574 0.000074 0.000000 0.000009 0.000016
    13 -0.001670 0.001564 3.638373 -0.000014 -1.283609 3.140794
    14 8.842823 0.000002 0.000054 -0.870642 0.772990 -1.139744
    15 0.001739 0.001585 -3.638374 -0.578607 1.231628 2.588462
    16 8.842813 0.000001 -0.000025 0.319429 -0.011644 -1.741593
    17 1.977402 -0.000032 0.003050 0.053498 -0.034865 0.022990
    18 9.341940 0.000000 0.000009 0.000000 0.000000 -0.310130
    19 11.168410 0.000002 -0.000001 -1.568614 -0.134986 -0.000162
    20 1.364904 0.231181 -1.984410 1.420741 0.440202 0.655609
    21 1.748533 -0.000003 0.000002 0.000000 0.000000 0.490553
    22 1.272493 0.000001 -0.000003 0.000000 0.000000 0.490596
    23 4.525584 -0.000299 -1.850222 0.008048 0.095677 0.105008
    24 1.719874 -0.000007 0.000000 0.000000 0.000000 0.000020
    25 1.383651 0.000003 0.000001 0.000000 0.000000 0.000000
    26 4.525585 -0.000096 -0.616739 0.012936 0.050882 0.288217
    27 1.807677 -0.000001 -0.000002 0.000000 0.000000 0.183226
    28 1.614256 -0.000004 0.000003 0.000000 0.000000 0.183188
    29 4.525583 0.000106 0.616741 0.009059 0.033763 0.322919
    30 1.719871 -0.000003 0.000000 0.000000 0.000000 0.218040
    31 1.383651 -0.000001 0.000001 0.000000 0.000000 0.218109
    32 4.525584 0.000309 1.850224 -0.019357 -0.029051 0.532536
    33 1.433228 -0.000003 0.000000 0.000000 0.000000 0.427506
    34 1.153038 -0.000001 0.000000 0.000000 0.000000 0.427471
    35 9.341949 0.000000 0.000007 0.000000 0.000000 -0.608900
    36 11.168407 0.000002 0.000011 1.568685 -0.016768 -0.000604
    37 1.364906 0.231175 1.984408 -3.282381 -0.010071 1.113654
    38 1.748534 0.000002 -0.000001 0.000000 0.000000 0.113519
    39 1.272493 0.000003 0.000002 0.000000 0.000000 0.671818
    40 4.525587 -0.000302 1.850221 -0.017935 -0.094419 0.210168
    41 1.719872 0.000007 0.000000 0.000000 0.000000 0.104674
    42 1.383647 0.000004 -0.000001 0.000000 0.000000 1.151715
    43 4.525585 -0.000102 0.616738 -0.041963 -0.031419 0.969259
    44 1.807677 -0.000002 -0.000002 0.000000 0.000000 0.863896
    45 1.614256 0.000001 0.000000 0.000000 0.000000 0.863913
    46 4.525587 0.000102 -0.616743 -0.028463 -0.020305 1.012316
    47 1.719867 0.000001 0.000001 0.000000 0.000000 0.907547
    48 1.383648 0.000001 -0.000001 0.000000 0.000000 0.907540
    49 4.525586 0.000303 -1.850223 0.033020 0.011565 1.178093
    50 1.433227 0.000002 0.000000 0.000000 0.000000 1.073114
    51 1.153036 0.000004 0.000000 0.000000 0.000000 1.073325
    52 7.223970 5.068054 1.800000 -3.141592 -0.000002 1.570798
    53 7.223960 5.068053 -1.800000 -3.141592 -0.000002 1.570798
    54 7.223950 5.068052 0.000000 -3.141592 -0.000002 1.570798
    55 3.723979 2.768055 -0.395205 -3.141592 -0.000098 1.570894
    56 20.747295 -0.313698 4.522630 0.003878 0.001942 1.564441
    57 2.448332 0.177352 0.168606 1.543132 0.019570 -3.045716
  time 1
    0 0.375318 7.136530 25.573489 0.044008 0.364293 -1.497356
    1 -3.655043 -0.410168 9.745319 -0.000414 -1.620974 -1.570770
    2 -0.000009 0.000014 5.615740 0.007957 3.159022 -0.913699
    3 15.693467 0.000042 -0.000137 -0.000002 0.000005 -1.435226
    4 22.146626 -0.000002 0.000000 -0.028822 0.061269 0.624896
    5 0.000009 -0.000011 -5.615755 0.060400 3.208786 -1.011875
    6 15.693451 0.000043 -0.000136 -0.000002 0.000005 -1.060420
    7 22.146624 -0.000001 0.000000 0.065266 -0.085858 0.443854
    8 1.384163 -0.004727 -0.062499 0.021571 0.013028 0.164506
    9 5.939812 -0.004729 0.000088 0.013266 -0.022939 0.174983
    10 5.939812 -0.003975 0.000088 0.013015 0.031496 0.175761
    11 4.991436 -0.003974 0.000074 0.013064 0.017785 0.175506
    12 4.991427 -0.001574 0.000074 0.000000 0.000009 0.000016
    13 -0.001670 0.001564 3.638373 -0.000014 -1.283609 3.140794
    14 8.842823 0.000002 0.000054 -0.864058 0.731594 -1.192894
    15 0.001739 0.001585 -3.638374 -0.499895 1.246170 2.663144
    16 8.842813 0.000001 -0.000025 0.249043 0.081575 -1.788570
    17 1.977402 -0.000032 0.003050 0.012001 -0.015312 -0.050656
    18 9.341940 0.000000 0.000009 0.000000 0.000000 -0.291844
    19 11.168410 0.000002 -0.000001 -1.568614 -0.134603 -0.000162
    20 1.364904 0.231181 -1.984410 1.405104 0.432332 0.685968
    21 1.748533 -0.000003 0.000002 0.000000 0.000000 0.509536
    22 1.272493 0.000001 -0.000003 0.000000 0.000000 0.509547
    23 4.525584 -0.000299 -1.850222 0.008048 0.095677 0.105008
    24 1.719874 -0.000007 0.000000 0.000000 0.000000 0.000020
    25 1.383651 0.000003 0.000001 0.000000 0.000000 0.000000
    26 4.525585 -0.000096 -0.616739 0.013427 0.050630 0.299793
    27 1.807677 -0.000001 -0.000002 0.000000 0.000000 0.194733
    28 1.614256 -0.000004 0.000003 0.000000 0.000000 0.194696
    29 4.525583 0.000106 0.616741 0.009623 0.033716 0.336683
    30 1.719871 -0.000003 0.000000 0.000000 0.000000 0.231840
    31 1.383651 -0.000001 0.000001 0.000000 0.000000 0.231883
    32 4.525584 0.000309 1.850224 -0.020136 -0.028620 0.559530
    33 1.433228 -0.000003 0.000000 0.000000 0.000000 0.454437
    34 1.153038 -0.000001 0.000000 0.000000 0.000000 0.454463
    35 9.341949 0.000000 0.000007 0.000000 0.000000 -0.646006
    36 11.168407 0.000002 0.000011 1.568685 -0.026557 -0.000604
    37 1.364906 0.231175 1.984408 -3.357368 0.060788 1.124702
    38 1.748534 0.000002 -0.000001 0.000000 0.000000 0.108725
    39 1.272493 0.000003 0.000002 0.000000 0.000000 0.702316
    40 4.525587 -0.000302 1.850221 -0.018558 -0.094287 0.216819
    41 1.719872 0.000007 0.000000 0.000000 0.000000 0.111285
    42 1.383647 0.000004 -0.000001 0.000000 0.000000 1.224527
    43 4.525585 -0.000102 0.616738 -0.043556 -0.029082 1.023733
    44 1.807677 -0.000002 -0.000002 0.000000 0.000000 0.918397
    45 1.614256 0.000001 0.000000 0.000000 0.000000 0.918478
    46 4.525587 0.000102 -0.616743 -0.029541 -0.018543 1.069562
    47 1.719867 0.000001 0.000001 0.000000 0.000000 0.964862
    48 1.383648 0.000001 -0.000001 0.000000 0.000000 0.964829
    49 4.525586 0.000303 -1.850223 0.033715 0.009240 1.245796
    50 1.433227 0.000002 0.000000 0.000000 0.000000 1.140858
    51 1.153036 0.000004 0.000000 0.000000 0.000000 1.140867
    52 7.223970 5.068054 1.800000 -3.141592 -0.000002 1.570798
    53 7.223960 5.068053 -1.800000 -3.141592 -0.000002 1.570798
    54 7.223950 5.068052 0.000000 -3.141592 -0.000002 1.570798
    55 3.723979 2.768055 -0.395205 -3.141592 -0.000098 1.570894
    56 20.747295 -0.313698 4.522630 0.003878 0.001942 1.564441
    57 2.448332 0.177352 0.168606 1.543132 0.019570 -3.045716
  time 2
    0 0.797332 4.308307 26.455399 0.047551 0.364675 -1.514134
    1 -3.940208 -0.535172 9.745319 -0.000414 -1.620732 -1.570770
    2 -0.000009 0.000014 5.615740 0.001726 3.154805 -1.028768
    3 15.693467 0.000042 -0.000137 -0.000002 0.000005 -1.432025
    4 22.146626 -0.000002 0.000000 -0.029532 0.068154 0.533443
    5 0.000009 -0.000011 -5.615755 0.050334 3.209649 -0.760541
    6 15.693451 0.000043 -0.000136 -0.000002 0.000005 -0.905827
    7 22.146624 -0.000001 0.000000 0.037343 -0.079596 0.512290
    8 1.384163 -0.004727 -0.062499 0.040050 0.007822 0.181075
    9 5.939812 -0.004729 0.000088 0.031007 -0.027409 0.191959
    10 5.939812 -0.003975 0.000088 0.031057 0.029350 0.193776
    11 4.991436 -0.003974 0.000074 0.031037 0.015161 0.193317
    12 4.991427 -0.001574 0.000074 0.000000 0.000009 0.000016
    13 -0.001670 0.001564 3.638373 -0.000014 -1.283609 3.140794
    14 8.842823 0.000002 0.000054 -0.856834 0.666849 -1.273964
    15 0.001739 0.001585 -3.638374 -0.336240 1.267545 2.818740
    16 8.842813 0.000001 -0.000025 0.231869 0.160540 -1.798480
    17 1.977402 -0.000032 0.003050 -0.051910 0.004682 -0.159932
    18 9.341940 0.000000 0.000009 0.000000 0.000000 -0.269867
    19 11.168410 0.000002 -0.000001 -1.568614 -0.134603 -0.000162
    20 1.364904 0.231181 -1.984410 1.400699 0.430222 0.694414
    21 1.748533 -0.000003 0.000002 0.000000 0.000000 0.514789
    22 1.272493 0.000001 -0.000003 0.000000 0.000000 0.514821
    23 4.525584 -0.000299 -1.850222 0.008048 0.095677 0.105008
    24 1.719874 -0.000007 0.000000 0.000000 0.000000 0.000020
    25 1.383651 0.000003 0.000001 0.000000 0.000000 0.000000
    26 4.525585 -0.000096 -0.616739 0.013691 0.050582 0.302994
    27 1.807677 -0.000001 -0.000002 0.000000 0.000000 0.197998
    28 1.614256 -0.000004 0.000003 0.000000 0.000000 0.197984
    29 4.525583 0.000106 0.616741 0.009755 0.033680 0.340578
    30 1.719871 -0.000003 0.000000 0.000000 0.000000 0.235748
    31 1.383651 -0.000001 0.000001 0.000000 0.000000 0.235715
    32 4.525584 0.000309 1.850224 -0.020448 -0.028464 0.567052
    33 1.433228 -0.000003 0.000000 0.000000 0.000000 0.462006
    34 1.153038 -0.000001 0.000000 0.000000 0.000000 0.462042
    35 9.341949 0.000000 0.000007 0.000000 0.000000 -0.666924
    36 11.168407 0.000002 0.000011 1.568685 -0.029408 -0.000604
    37 1.364906 0.231175 1.984408 -3.378233 0.080740 1.126869
    38 1.748534 0.000002 -0.000001 0.000000 0.000000 0.107263
    39 1.272493 0.000003 0.000002 0.000000 0.000000 0.710769
    40 4.525587 -0.000302 1.850221 -0.018726 -0.094263 0.218658
    41 1.719872 0.000007 0.000000 0.000000 0.000000 0.113150
    42 1.383647 0.000004 -0.000001 0.000000 0.000000 1.244821
    43 4.525585 -0.000102 0.616738 -0.044096 -0.028411 1.038993
    44 1.807677 -0.000002 -0.000002 0.000000 0.000000 0.933750
    45 1.614256 0.000001 0.000000 0.000000 0.000000 0.933708
    46 4.525587 0.000102 -0.616743 -0.029937 -0.018160 1.085646
    47 1.719867 0.000001 0.000001 0.000000 0.000000 0.980840
    48 1.383648 0.000001 -0.000001 0.000000 0.000000 0.980802
    49 4.525586 0.000303 -1.850223 0.033883 0.008593 1.264892
    50 1.433227 0.000002 0.000000 0.000000 0.000000 1.159829
    51 1.153036 0.000004 0.000000 0.000000 0.000000 1.160033
    52 7.223970 5.068054 1.800000 -3.141592 -0.000002 1.570798
    53 7.223960 5.068053 -1.800000 -3.141592 -0.000002 1.570798
    54 7.223950 5.068052 0.000000 -3.141592 -0.000002 1.570798
    55 3.723979 2.768055 -0.395205 -3.141592 -0.000098 1.570894
    56 20.747295 -0.313698 4.522630 0.003878 0.001942 1.564441
    57 2.448332 0.177352 0.168606 1.543132 0.019570 -3.045716
  time 3
    0 1.136450 1.698390 27.729270 0.046712 0.365344 -1.536089
    1 -3.393316 -0.578142 9.745319 -0.000414 -1.610818 -1.570770
    2 -0.000009 0.000014 5.615740 -0.007286 3.149726 -1.133611
    3 15.693467 0.000042 -0.000137 -0.000002 0.000005 -1.383865
    4 22.146626 -0.000002 0.000000 -0.029046 0.069838 0.462109
    5 0.000009 -0.000011 -5.615755 0.036911 3.198912 -0.597106
    6 15.693451 0.000043 -0.000136 -0.000002 0.000005 -0.896523
    7 22.146624 -0.000001 0.000000 0.024482 -0.066458 0.454159
    8 1.384163 -0.004727 -0.050780 0.053278 -0.002322 0.149405
    9 5.939812 -0.004729 0.000088 0.047203 -0.028463 0.160396
    10 5.939812 -0.003975 0.000088 0.047211 0.027097 0.163031
    11 4.991436 -0.003974 0.000074 0.047230 0.013243 0.162370
    12 4.991427 -0.001574 0.000074 0.000000 0.000009 0.000016
    13 -0.001670 0.001564 3.638373 -0.000014 -1.283609 3.140794
    14 8.842823 0.000002 0.000054 -0.768683 0.774106 -1.246866
    15 0.001739 0.001585 -3.638374 -0.105954 1.282035 3.039336
    16 8.842813 0.000001 -0.000025 0.311447 0.034213 -1.728538
    17 1.977402 -0.000032 0.003050 -0.116085 0.028216 -0.074757
    18 9.341940 0.000000 0.000009 0.000000 0.000000 -0.248464
    19 11.168410 0.000002 -0.000001 -1.568614 -0.134603 -0.000162
    20 1.364904 0.231181 -1.984410 1.403837 0.431708 0.688342
    21 1.748533 -0.000003 0.000002 0.000000 0.000000 0.511022
    22 1.272493 0.000001 -0.000003 0.000000 0.000000 0.511038
    23 4.525584 -0.000299 -1.850222 0.008048 0.095677 0.105008
    24 1.719874 -0.000007 0.000000 0.000000 0.000000 0.000020
    25 1.383651 0.000003 0.000001 0.000000 0.000000 0.000000
    26 4.525585 -0.000096 -0.616739 0.013475 0.050618 0.300700
    27 1.807677 -0.000001 -0.000002 0.000000 0.000000 0.195649
    28 1.614256 -0.000004 0.000003 0.000000 0.000000 0.195753
    29 4.525583 0.000106 0.616741 0.009659 0.033704 0.337804
    30 1.719871 -0.000003 0.000000 0.000000 0.000000 0.232967
    31 1.383651 -0.000001 0.000001 0.000000 0.000000 0.232953
    32 4.525584 0.000309 1.850224 -0.020196 -0.028572 0.561664
    33 1.433228 -0.000003 0.000000 0.000000 0.000000 0.456690
    34 1.153038 -0.000001 0.000000 0.000000 0.000000 0.456623
    35 9.341949 0.000000 0.000007 0.000000 0.000000 -0.677250
    36 11.168407 0.000002 0.000011 1.568685 -0.027412 -0.000604
    37 1.364906 0.231175 1.984408 -3.363438 0.066465 1.125377
    38 1.748534 0.000002 -0.000001 0.000000 0.000000 0.108246
    39 1.272493 0.000003 0.000002 0.000000 0.000000 0.704621
    40 4.525587 -0.000302 1.850221 -0.018606 -0.094287 0.217340
    41 1.719872 0.000007 0.000000 0.000000 0.000000 0.111841
    42 1.383647 0.000004 -0.000001 0.000000 0.000000 1.230314
    43 4.525585 -0.000102 0.616738 -0.043688 -0.028794 1.028110
    44 1.807677 -0.000002 -0.000002 0.000000 0.000000 0.922837
    45 1.614256 0.000001 0.000000 0.000000 0.000000 0.922729
    46 4.525587 0.000102 -0.616743 -0.029721 -0.018411 1.074153
    47 1.719867 0.000001 0.000001 0.000000 0.000000 0.969427
    48 1.383648 0.000001 -0.000001 0.000000 0.000000 0.969369
    49 4.525586 0.000303 -1.850223 0.033775 0.009145 1.251373
    50 1.433227 0.000002 0.000000 0.000000 0.000000 1.146273
    51 1.153036 0.000004 0.000000 0.000000 0.000000 1.146415
    52 7.223970 5.068054 1.800000 -3.141592 -0.000002 1.570798
    53 7.223960 5.068053 -1.800000 -3.141592 -0.000002 1.570798
    54 7.223950 5.068052 0.000000 -3.141592 -0.000002 1.570798
    55 3.723979 2.768055 -0.395205 -3.141592 -0.000098 1.570894
    56 20.747295 -0.313698 4.522630 0.003878 0.001942 1.564441
    57 2.448332 0.177352 0.168606 1.543132 0.019570 -3.045716
  time 4
    0 1.249490 -1.665031 28.376004 0.040838 0.365821 -1.556606
    1 -2.936271 -0.546891 9.745319 -0.000414 -1.598146 -1.570770
    2 -0.000009 0.000014 5.615740 0.003355 3.151068 -1.217810
    3 15.693467 0.000042 -0.000137 -0.000002 0.000005 -1.233979
    4 22.146626 -0.000002 0.000000 -0.029009 0.055796 0.465493
    5 0.000009 -0.000011 -5.615755 0.024735 3.186448 -0.428495
    6 15.693451 0.000043 -0.000136 -0.000002 0.000005 -0.871440
    7 22.146624 -0.000001 0.000000 0.015400 -0.057924 0.346000
    8 1.384163 -0.004727 -0.031248 0.055264 -0.012546 0.123788
    9 5.939812 -0.004729 0.000088 0.051820 -0.027013 0.134664
    10 5.939812 -0.003975 0.000088 0.051868 0.026066 0.137446
    11 4.991436 -0.003974 0.000074 0.051838 0.012824 0.136755
    12 4.991427 -0.001574 0.000074 0.000000 0.000009 0.000016
    13 -0.001670 0.001564 3.638373 -0.000014 -1.283609 3.140794
    14 8.842823 0.000002 0.000054 -0.707233 0.861177 -1.197597
    15 0.001739 0.001585 -3.638374 0.142932 1.280802 3.277572
    16 8.842813 0.000001 -0.000025 0.367401 -0.110617 -1.695855
    17 1.977402 -0.000032 0.003050 -0.136384 0.040573 0.010567
    18 9.341940 0.000000 0.000009 0.000000 0.000000 -0.230915
    19 11.168410 0.000002 -0.000001 -1.568614 -0.134890 -0.000162
    20 1.364904 0.231181 -1.984410 1.410775 0.435102 0.674992
    21 1.748533 -0.000003 0.000002 0.000000 0.000000 0.502671
    22 1.272493 0.000001 -0.000003 0.000000 0.000000 0.502672
    23 4.525584 -0.000299 -1.850222 0.008048 0.095677 0.105008
    24 1.719874 -0.000007 0.000000 0.000000 0.000000 0.000020
    25 1.383651 0.000003 0.000001 0.000000 0.000000 0.000000
    26 4.525585 -0.000096 -0.616739 0.013223 0.050690 0.295632
    27 1.807677 -0.000001 -0.000002 0.000000 0.000000 0.190552
    28 1.614256 -0.000004 0.000003 0.000000 0.000000 0.190586
    29 4.525583 0.000106 0.616741 0.009455 0.033763 0.331721
    30 1.719871 -0.000003 0.000000 0.000000 0.000000 0.226947
    31 1.383651 -0.000001 0.000001 0.000000 0.000000 0.226912
    32 4.525584 0.000309 1.850224 -0.019957 -0.028715 0.549767
    33 1.433228 -0.000003 0.000000 0.000000 0.000000 0.444791
    34 1.153038 -0.000001 0.000000 0.000000 0.000000 0.444757
    35 9.341949 0.000000 0.000007 0.000000 0.000000 -0.682846
    36 11.168407 0.000002 0.000011 1.568685 -0.022755 -0.000604
    37 1.364906 0.231175 1.984408 -3.330496 0.035186 1.121327
    38 1.748534 0.000002 -0.000001 0.000000 0.000000 0.110391
    39 1.272493 0.000003 0.000002 0.000000 0.000000 0.691294
    40 4.525587 -0.000302 1.850221 -0.018427 -0.094335 0.214367
    41 1.719872 0.000007 0.000000 0.000000 0.000000 0.108928
    42 1.383647 0.000004 -0.000001 0.000000 0.000000 1.198367
    43 4.525585 -0.000102 0.616738 -0.042981 -0.029933 1.004126
    44 1.807677 -0.000002 -0.000002 0.000000 0.000000 0.898823
    45 1.614256 0.000001 0.000000 0.000000 0.000000 0.898790
    46 4.525587 0.000102 -0.616743 -0.029242 -0.019154 1.048950
    47 1.719867 0.000001 0.000001 0.000000 0.000000 0.944162
    48 1.383648 0.000001 -0.000001 0.000000 0.000000 0.944233
    49 4.525586 0.000303 -1.850223 0.033391 0.010055 1.221492
    50 1.433227 0.000002 0.000000 0.000000 0.000000 1.116472
    51 1.153036 0.000004 0.000000 0.000000 0.000000 1.116658
    52 7.223970 5.068054 1.800000 -3.141592 -0.000002 1.570798
    53 7.223960 5.068053 -1.800000 -3.141592 -0.000002 1.570798
    54 7.223950 5.068052 0.000000 -3.141592 -0.000002 1.570798
    55 3.723979 2.768055 -0.395205 -3.141592 -0.000098 1.570894
    56 20.747295 -0.313698 4.522630 0.003878 0.001942 1.564441
    57 2.448332 0.177352 0.168606 1.543132 0.019570 -3.045716
  time 5
    0 1.091235 -5.993217 28.885553 0.029743 0.366204 -1.576356
    1 -3.252687 -0.472670 9.745319 -0.000414 -1.583830 -1.570770
    2 -0.000009 0.000014 5.615740 0.012559 3.153559 -1.261104
    3 15.693467 0.000042 -0.000137 -0.000002 0.000005 -1.039063
    4 22.146626 -0.000002 0.000000 -0.034429 0.043686 0.483921
    5 0.000009 -0.000011 -5.615755 0.028379 3.166987 -0.724978
    6 15.693451 0.000043 -0.000136 -0.000002 0.000005 -1.494426
    7 22.146624 -0.000001 0.000000 0.061317 -0.004973 -0.494522
    8 1.384163 -0.004727 -0.007810 0.035405 -0.024165 0.141645
    9 5.939812 -0.004729 0.000088 0.033564 -0.024377 0.152176
    10 5.939812 -0.003975 0.000088 0.033622 0.028068 0.153999
    11 4.991436 -0.003974 0.000074 0.033592 0.014945 0.153557
    12 4.991427 -0.001574 0.000074 0.000000 0.000009 0.000016
    13 -0.001670 0.001564 3.638373 -0.000014 -1.283609 3.140794
    14 8.842823 0.000002 0.000054 -0.794653 0.799967 -1.217827
    15 0.001739 0.001585 -3.638374 0.349155 1.266158 3.475350
    16 8.842813 0.000001 -0.000025 0.358129 -0.126375 -1.775515
    17 1.977402 -0.000032 0.003050 -0.068509 0.013753 -0.029834
    18 9.341940 0.000000 0.000009 0.000000 0.000000 -0.222633
    19 11.168410 0.000002 -0.000001 -1.568614 -0.134890 -0.000162
    20 1.364904 0.231181 -1.984410 1.417602 0.438569 0.661759
    21 1.748533 -0.000003 0.000002 0.000000 0.000000 0.494319
    22 1.272493 0.000001 -0.000003 0.000000 0.000000 0.494378
    23 4.525584 -0.000299 -1.850222 0.008048 0.095677 0.105008
    24 1.719874 -0.000007 0.000000 0.000000 0.000000 0.000020
    25 1.383651 0.000003 0.000001 0.000000 0.000000 0.000000
    26 4.525585 -0.000096 -0.616739 0.013056 0.050846 0.290511
    27 1.807677 -0.000001 -0.000002 0.000000 0.000000 0.185495
    28 1.614256 -0.000004 0.000003 0.000000 0.000000 0.185537
    29 4.525583 0.000106 0.616741 0.009155 0.033763 0.325693
    30 1.719871 -0.000003 0.000000 0.000000 0.000000 0.220786
    31 1.383651 -0.000001 0.000001 0.000000 0.000000 0.220836
    32 4.525584 0.000309 1.850224 -0.019513 -0.028955 0.537924
    33 1.433228 -0.000003 0.000000 0.000000 0.000000 0.432892
    34 1.153038 -0.000001 0.000000 0.000000 0.000000 0.432890
    35 9.341949 0.000000 0.000007 0.000000 0.000000 -0.688775
    36 11.168407 0.000002 0.000011 1.568685 -0.018478 -0.000604
    37 1.364906 0.231175 1.984408 -3.297429 0.004014 1.116283
    38 1.748534 0.000002 -0.000001 0.000000 0.000000 0.112608
    39 1.272493 0.000003 0.000002 0.000000 0.000000 0.678062
    40 4.525587 -0.000302 1.850221 -0.018055 -0.094395 0.211486
    41 1.719872 0.000007 0.000000 0.000000 0.000000 0.106016
    42 1.383647 0.000004 -0.000001 0.000000 0.000000 1.166341
    43 4.525585 -0.000102 0.616738 -0.042358 -0.030903 0.980111
    44 1.807677 -0.000002 -0.000002 0.000000 0.000000 0.874840
    45 1.614256 0.000001 0.000000 0.000000 0.000000 0.874727
    46 4.525587 0.000102 -0.616743 -0.028666 -0.019885 1.023778
    47 1.719867 0.000001 0.000001 0.000000 0.000000 0.918991
    48 1.383648 0.000001 -0.000001 0.000000 0.000000 0.918973
    49 4.525586 0.000303 -1.850223 0.033176 0.011050 1.191833
    50 1.433227 0.000002 0.000000 0.000000 0.000000 1.086670
    51 1.153036 0.000004 0.000000 0.000000 0.000000 1.086732
    52 7.223970 5.068054 1.800000 -3.141592 -0.000002 1.570798
    53 7.223960 5.068053 -1.800000 -3.141592 -0.000002 1.570798
    54 7.223950 5.068052 0.000000 -3.141592 -0.000002 1.570798
    55 3.723979 2.768055 -0.395205 -3.141592 -0.000098 1.570894
    56 20.747295 -0.313698 4.522630 0.003878 0.001942 1.564441
    57 2.448332 0.177352 0.168606 1.543132 0.019570 -3.045716
  time 6
    0 0.759652 -10.687591 28.905151 0.014079 0.366204 -1.599941
    1 -3.815204 -0.335947 9.745319 -0.000031 -1.568958 -1.570770
    2 -0.000009 0.000014 5.615740 -0.006711 3.153368 -1.237020
    3 15.693467 0.000042 -0.000137 -0.000002 0.000005 -0.912723
    4 22.146626 -0.000002 0.000000 -0.026728 0.046336 0.522606
    5 0.000009 -0.000011 -5.615755 0.013135 3.155770 -0.740027
    6 15.693451 0.000043 -0.000136 -0.000002 0.000005 -1.465696
    7 22.146624 -0.000001 0.000000 0.060189 0.003684 -0.533100
    8 1.384163 -0.004727 0.000003 0.005852 -0.034845 0.174214
    9 5.939812 -0.004729 0.000088 0.006216 -0.020038 0.184427
    10 5.939812 -0.003975 0.000088 0.006291 0.031675 0.184806
    11 4.991436 -0.003974 0.000074 0.006259 0.018792 0.184706
    12 4.991427 -0.001574 0.000074 0.000000 0.000009 0.000016
    13 -0.001670 0.001564 3.638373 -0.000014 -1.283609 3.140794
    14 8.842823 0.000002 0.000054 -0.914444 0.699222 -1.232384
    15 0.001739 0.001585 -3.638374 0.474940 1.250126 3.594708
    16 8.842813 0.000001 -0.000025 0.312737 -0.082200 -1.890718
    17 1.977402 -0.000032 0.003050 0.032670 -0.025239 -0.044146
    18 9.341940 0.000000 0.000009 0.000000 0.000000 -0.225503
    19 11.168410 0.000002 -0.000001 -1.568614 -0.134986 -0.000162
    20 1.364904 0.231181 -1.984410 1.420741 0.440202 0.655609
    21 1.748533 -0.000003 0.000002 0.000000 0.000000 0.490553
    22 1.272493 0.000001 -0.000003 0.000000 0.000000 0.490596
    23 4.525584 -0.000299 -1.850222 0.008048 0.095677 0.105008
    24 1.719874 -0.000007 0.000000 0.000000 0.000000 0.000020
    25 1.383651 0.000003 0.000001 0.000000 0.000000 0.000000
    26 4.525585 -0.000096 -0.616739 0.012936 0.050882 0.288217
    27 1.807677 -0.000001 -0.000002 0.000000 0.000000 0.183226
    28 1.614256 -0.000004 0.000003 0.000000 0.000000 0.183188
    29 4.525583 0.000106 0.616741 0.009059 0.033763 0.322919
    30 1.719871 -0.000003 0.000000 0.000000 0.000000 0.218040
    31 1.383651 -0.000001 0.000001 0.000000 0.000000 0.218109
    32 4.525584 0.000309 1.850224 -0.019357 -0.029051 0.532536
    33 1.433228 -0.000003 0.000000 0.000000 0.000000 0.427506
    34 1.153038 -0.000001 0.000000 0.000000 0.000000 0.427471
    35 9.341949 0.000000 0.000007 0.000000 0.000000 -0.700566
    36 11.168407 0.000002 0.000011 1.568685 -0.016768 -0.000604
    37 1.364906 0.231175 1.984408 -3.282381 -0.010071 1.113654
    38 1.748534 0.000002 -0.000001 0.000000 0.000000 0.113519
    39 1.272493 0.000003 0.000002 0.000000 0.000000 0.671818
    40 4.525587 -0.000302 1.850221 -0.017935 -0.094419 0.210168
    41 1.719872 0.000007 0.000000 0.000000 0.000000 0.104674
    42 1.383647 0.000004 -0.000001 0.000000 0.000000 1.151715
    43 4.525585 -0.000102 0.616738 -0.041963 -0.031419 0.969259
    44 1.807677 -0.000002 -0.000002 0.000000 0.000000 0.863896
    45 1.614256 0.000001 0.000000 0.000000 0.000000 0.863913
    46 4.525587 0.000102 -0.616743 -0.028463 -0.020305 1.012316
    47 1.719867 0.000001 0.000001 0.000000 0.000000 0.907547
    48 1.383648 0.000001 -0.000001 0.000000 0.000000 0.907540
    49 4.525586 0.000303 -1.850223 0.033020 0.011565 1.178093
    50 1.433227 0.000002 0.000000 0.000000 0.000000 1.073114
    51 1.153036 0.000004 0.000000 0.000000 0.000000 1.073325
    52 7.223970 5.068054 1.800000 -3.141592 -0.000002 1.570798
    53 7.223960 5.068053 -1.800000 -3.141592 -0.000002 1.570798
    54 7.223950 5.068052 0.000000 -3.141592 -0.000002 1.570798
    55 3.723979 2.768055 -0.395205 -3.141592 -0.000098 1.570894
    56 20.747295 -0.313698 4.522630 0.003878 0.001942 1.564441
    57 2.448332 0.177352 0.168606 1.543132 0.019570 -3.045716
  time 7
    0 0.330103 -15.614355 28.473994 -0.003077 0.365821 -1.623430
    1 -4.323032 -0.175786 9.745319 -0.000414 -1.554376 -1.570770
    2 -0.000009 0.000014 5.615740 -0.030007 3.147043 -1.157695
    3 15.693467 0.000042 -0.000137 -0.000002 0.000005 -0.737512
    4 22.146626 -0.000002 0.000000 -0.022205 0.050447 0.449260
    5 0.000009 -0.000011 -5.615755 -0.001055 3.146279 -0.739836
    6 15.693451 0.000043 -0.000136 -0.000002 0.000005 -1.363800
    7 22.146624 -0.000001 0.000000 0.061148 -0.001136 -0.407678
    8 1.384163 -0.004727 0.015628 -0.023196 -0.043969 0.205464
    9 5.939812 -0.004729 0.000088 -0.019819 -0.014909 0.215110
    10 5.939812 -0.003975 0.000088 -0.019816 0.036349 0.214139
    11 4.991436 -0.003974 0.000074 -0.019825 0.023598 0.214324
    12 4.991427 -0.001574 0.000074 0.000000 0.000009 0.000016
    13 -0.001670 0.001564 3.638373 -0.000014 -1.283609 3.140794
    14 8.842823 0.000002 0.000054 -1.013386 0.627500 -1.223426
    15 0.001739 0.001585 -3.638374 0.413198 1.258810 3.535940
    16 8.842813 0.000001 -0.000025 0.247108 -0.027579 -1.900914
    17 1.977402 -0.000032 0.003050 0.118730 -0.078948 0.009076
    18 9.341940 0.000000 0.000009 0.000000 0.000000 -0.243462
    19 11.168410 0.000002 -0.000001 -1.568614 -0.134986 -0.000162
    20 1.364904 0.231181 -1.984410 1.420741 0.440202 0.655609
    21 1.748533 -0.000003 0.000002 0.000000 0.000000 0.490553
    22 1.272493 0.000001 -0.000003 0.000000 0.000000 0.490596
    23 4.525584 -0.000299 -1.850222 0.008048 0.095677 0.105008
    24 1.719874 -0.000007 0.000000 0.000000 0.000000 0.000020
    25 1.383651 0.000003 0.000001 0.000000 0.000000 0.000000
    26 4.525585 -0.000096 -0.616739 0.012936 0.050882 0.288217
    27 1.807677 -0.000001 -0.000002 0.000000 0.000000 0.183226
    28 1.614256 -0.000004 0.000003 0.000000 0.000000 0.183188
    29 4.525583 0.000106 0.616741 0.009059 0.033763 0.322919
    30 1.719871 -0.000003 0.000000 0.000000 0.000000 0.218040
    31 1.383651 -0.000001 0.000001 0.000000 0.000000 0.218109
    32 4.525584 0.000309 1.850224 -0.019357 -0.029051 0.532536
    33 1.433228 -0.000003 0.000000 0.000000 0.000000 0.427506
    34 1.153038 -0.000001 0.000000 0.000000 0.000000 0.427471
    35 9.341949 0.000000 0.000007 0.000000 0.000000 -0.721484
    36 11.168407 0.000002 0.000011 1.568685 -0.016768 -0.000604
    37 1.364906 0.231175 1.984408 -3.282381 -0.010071 1.113654
    38 1.748534 0.000002 -0.000001 0.000000 0.000000 0.113519
    39 1.272493 0.000003 0.000002 0.000000 0.000000 0.671818
    40 4.525587 -0.000302 1.850221 -0.017935 -0.094419 0.210168
    41 1.719872 0.000007 0.000000 0.000000 0.000000 0.104674
    42 1.383647 0.000004 -0.000001 0.000000 0.000000 1.151715
    43 4.525585 -0.000102 0.616738 -0.041963 -0.031419 0.969259
    44 1.807677 -0.000002 -0.000002 0.000000 0.000000 0.863896
    45 1.614256 0.000001 0.000000 0.000000 0.000000 0.863913
    46 4.525587 0.000102 -0.616743 -0.028463 -0.020305 1.012316
    47 1.719867 0.000001 0.000001 0.000000 0.000000 0.907547
    48 1.383648 0.000001 -0.000001 0.000000 0.000000 0.907540
    49 4.525586 0.000303 -1.850223 0.033020 0.011565 1.178093
    50 1.433227 0.000002 0.000000 0.000000 0.000000 1.073114
    51 1.153036 0.000004 0.000000 0.000000 0.000000 1.073325
    52 7.223970 5.068054 1.800000 -3.141592 -0.000002 1.570798
    53 7.223960 5.068053 -1.800000 -3.141592 -0.000002 1.570798
    54 7.223950 5.068052 0.000000 -3.141592 -0.000002 1.570798
    55 3.723979 2.768055 -0.395205 -3.141592 -0.000098 1.570894
    56 20.747295 -0.313698 4.522630 0.003878 0.001942 1.564441
    57 2.448332 0.177352 0.168606 1.543132 0.019570 -3.045716
  time 8
    0 -0.122055 -20.639707 27.572486 -0.020699 0.365057 -1.644714
    1 -4.791796 0.019533 9.745319 -0.000414 -1.541270 -1.570770
    2 -0.000009 0.000014 5.615740 -0.036909 3.127207 -1.001052
    3 15.693467 0.000042 -0.000137 -0.000002 0.000005 -0.298453
    4 22.146626 -0.000002 0.000000 -0.046354 0.053171 -0.041250
    5 0.000009 -0.000011 -5.615755 -0.010163 3.140239 -0.822751
    6 15.693451 0.000043 -0.000136 -0.000002 0.000005 -1.401611
    7 22.146624 -0.000001 0.000000 0.065830 -0.004973 -0.322507
    8 1.384163 -0.004727 0.035160 -0.049888 -0.050115 0.236204
    9 5.939812 -0.004729 0.000088 -0.042941 -0.008162 0.245354
    10 5.939812 -0.003975 0.000088 -0.042962 0.042437 0.243222
    11 4.991436 -0.003974 0.000074 -0.042952 0.029842 0.243774
    12 4.991427 -0.001574 0.000074 0.000000 0.000009 0.000016
    13 -0.001670 0.001564 3.638373 -0.000014 -1.283609 3.140794
    14 8.842823 0.000002 0.000054 -1.104373 0.582569 -1.214841
    15 0.001739 0.001585 -3.638374 0.138522 1.280905 3.273641
    16 8.842813 0.000001 -0.000025 0.179705 0.053866 -1.843074
    17 1.977402 -0.000032 0.003050 0.180949 -0.145522 0.044060
    18 9.341940 0.000000 0.000009 0.000000 0.000000 -0.272245
    19 11.168410 0.000002 -0.000001 -1.568614 -0.134986 -0.000162
    20 1.364904 0.231181 -1.984410 1.420741 0.440202 0.655609
    21 1.748533 -0.000003 0.000002 0.000000 0.000000 0.490553
    22 1.272493 0.000001 -0.000003 0.000000 0.000000 0.490596
    23 4.525584 -0.000299 -1.850222 0.008048 0.095677 0.105008
    24 1.719874 -0.000007 0.000000 0.000000 0.000000 0.000020
    25 1.383651 0.000003 0.000001 0.000000 0.000000 0.000000
    26 4.525585 -0.000096 -0.616739 0.012936 0.050882 0.288217
    27 1.807677 -0.000001 -0.000002 0.000000 0.000000 0.183226
    28 1.614256 -0.000004 0.000003 0.000000 0.000000 0.183188
    29 4.525583 0.000106 0.616741 0.009059 0.033763 0.322919
    30 1.719871 -0.000003 0.000000 0.000000 0.000000 0.218040
    31 1.383651 -0.000001 0.000001 0.000000 0.000000 0.218109
    32 4.525584 0.000309 1.850224 -0.019357 -0.029051 0.532536
    33 1.433228 -0.000003 0.000000 0.000000 0.000000 0.427506
    34 1.153038 -0.000001 0.000000 0.000000 0.000000 0.427471
    35 9.341949 0.000000 0.000007 0.000000 0.000000 -0.742935
    36 11.168407 0.000002 0.000011 1.568685 -0.016768 -0.000604
    37 1.364906 0.231175 1.984408 -3.282381 -0.010071 1.113654
    38 1.748534 0.000002 -0.000001 0.000000 0.000000 0.113519
    39 1.272493 0.000003 0.000002 0.000000 0.000000 0.671818
    40 4.525587 -0.000302 1.850221 -0.017935 -0.094419 0.210168
    41 1.719872 0.000007 0.000000 0.000000 0.000000 0.104674
    42 1.383647 0.000004 -0.000001 0.000000 0.000000 1.151715
    43 4.525585 -0.000102 0.616738 -0.041963 -0.031419 0.969259
    44 1.807677 -0.000002 -0.000002 0.000000 0.000000 0.863896
    45 1.614256 0.000001 0.000000 0.000000 0.000000 0.863913
    46 4.525587 0.000102 -0.616743 -0.028463 -0.020305 1.012316
    47 1.719867 0.000001 0.000001 0.000000 0.000000 0.907547
    48 1.383648 0.000001 -0.000001 0.000000 0.000000 0.907540
    49 4.525586 0.000303 -1.850223 0.033020 0.011565 1.178093
    50 1.433227 0.000002 0.000000 0.000000 0.000000 1.073114
    51 1.153036 0.000004 0.000000 0.000000 0.000000 1.073325
    52 7.223970 5.068054 1.800000 -3.141592 -0.000002 1.570798
    53 7.223960 5.068053 -1.800000 -3.141592 -0.000002 1.570798
    54 7.223950 5.068052 0.000000 -3.141592 -0.000002 1.570798
    55 3.723979 2.768055 -0.395205 -3.141592 -0.000098 1.570894
    56 20.747295 -0.313698 4.522630 0.003878 0.001942 1.564441
    57 2.448332 0.177352 0.168606 1.543132 0.019570 -3.045716
  time 9
    0 -0.446101 -25.608723 26.220223 -0.036083 0.364197 -1.660725
    1 -4.967583 0.167975 9.745319 -0.000414 -1.530605 -1.570770
    2 -0.000009 0.000014 5.615740 -0.036142 3.106508 -0.842019
    3 15.693467 0.000042 -0.000137 -0.000002 0.000005 -0.002095
    4 22.146626 -0.000002 0.000000 -0.072821 0.047277 -0.426177
    5 0.000009 -0.000011 -5.615755 -0.017353 3.138513 -0.921387
    6 15.693451 0.000043 -0.000136 -0.000002 0.000005 -1.466217
    7 22.146624 -0.000001 0.000000 0.070794 -0.010560 -0.226855
    8 1.384163 -0.004727 0.046879 -0.069074 -0.055320 0.248518
    9 5.939812 -0.004729 0.000088 -0.059030 -0.003248 0.257437
    10 5.939812 -0.003975 0.000088 -0.059052 0.046872 0.254528
    11 4.991436 -0.003974 0.000074 -0.059030 0.034336 0.255278
    12 4.991427 -0.001574 0.000074 0.000000 0.000009 0.000016
    13 -0.001670 0.001564 3.638373 -0.000014 -1.283609 3.140794
    14 8.842823 0.000002 0.000054 -1.153203 0.619779 -1.190729
    15 0.001739 0.001585 -3.638374 -0.428278 1.256806 2.730924
    16 8.842813 0.000001 -0.000025 0.127217 0.118756 -1.742832
    17 1.977402 -0.000032 0.003050 0.220860 -0.191549 0.055142
    18 9.341940 0.000000 0.000009 0.000000 0.000000 -0.307670
    19 11.168410 0.000002 -0.000001 -1.568614 -0.134986 -0.000162
    20 1.364904 0.231181 -1.984410 1.420741 0.440202 0.655609
    21 1.748533 -0.000003 0.000002 0.000000 0.000000 0.490553
    22 1.272493 0.000001 -0.000003 0.000000 0.000000 0.490596
    23 4.525584 -0.000299 -1.850222 0.008048 0.095677 0.105008
    24 1.719874 -0.000007 0.000000 0.000000 0.000000 0.000020
    25 1.383651 0.000003 0.000001 0.000000 0.000000 0.000000
    26 4.525585 -0.000096 -0.616739 0.012936 0.050882 0.288217
    27 1.807677 -0.000001 -0.000002 0.000000 0.000000 0.183226
    28 1.614256 -0.000004 0.000003 0.000000 0.000000 0.183188
    29 4.525583 0.000106 0.616741 0.009059 0.033763 0.322919
    30 1.719871 -0.000003 0.000000 0.000000 0.000000 0.218040
    31 1.383651 -0.000001 0.000001 0.000000 0.000000 0.218109
    32 4.525584 0.000309 1.850224 -0.019357 -0.029051 0.532536
    33 1.433228 -0.000003 0.000000 0.000000 0.000000 0.427506
    34 1.153038 -0.000001 0.000000 0.000000 0.000000 0.427471
    35 9.341949 0.000000 0.000007 0.000000 0.000000 -0.766984
    36 11.168407 0.000002 0.000011 1.568685 -0.016768 -0.000604
    37 1.364906 0.231175 1.984408 -3.282381 -0.010071 1.113654
    38 1.748534 0.000002 -0.000001 0.000000 0.000000 0.113519
    39 1.272493 0.000003 0.000002 0.000000 0.000000 0.671818
    40 4.525587 -0.000302 1.850221 -0.017935 -0.094419 0.210168
    41 1.719872 0.000007 0.000000 0.000000 0.000000 0.104674
    42 1.383647 0.000004 -0.000001 0.000000 0.000000 1.151715
    43 4.525585 -0.000102 0.616738 -0.041963 -0.031419 0.969259
    44 1.807677 -0.000002 -0.000002 0.000000 0.000000 0.863896
    45 1.614256 0.000001 0.000000 0.000000 0.000000 0.863913
    46 4.525587 0.000102 -0.616743 -0.028463 -0.020305 1.012316
    47 1.719867 0.000001 0.000001 0.000000 0.000000 0.907547
    48 1.383648 0.000001 -0.000001 0.000000 0.000000 0.907540
    49 4.525586 0.000303 -1.850223 0.033020 0.011565 1.178093
    50 1.433227 0.000002 0.000000 0.000000 0.000000 1.073114
    51 1.153036 0.000004 0.000000 0.000000 0.000000 1.073325
    52 7.223970 5.068054 1.800000 -3.141592 -0.000002 1.570798
    53 7.223960 5.068053 -1.800000 -3.141592 -0.000002 1.570798
    54 7.223950 5.068052 0.000000 -3.141592 -0.000002 1.570798
    55 3.723979 2.768055 -0.395205 -3.141592 -0.000098 1.570894
    56 20.747295 -0.313698 4.522630 0.003878 0.001942 1.564441
    57 2.448332 0.177352 0.168606 1.543132 0.019570 -3.045716
  time 10
    0 -0.815363 -30.408728 25.808665 -0.047458 0.363433 -1.668587
    1 -4.619916 0.179694 9.745319 -0.000414 -1.523447 -1.570770
    2 -0.000009 0.000014 5.615740 -0.052823 3.119732 -1.213605
    3 15.693467 0.000042 -0.000137 -0.000002 0.000005 -0.938119
    4 22.146626 -0.000002 0.000000 -0.083512 0.046757 0.000682
    5 0.000009 -0.000011 -5.615755 -0.021859 3.140239 -1.027692
    6 15.693451 0.000043 -0.000136 -0.000002 0.000005 -1.537224
    7 22.146624 -0.000001 0.000000 0.075194 -0.017589 -0.128913
    8 1.384163 -0.004727 0.058599 -0.076782 -0.061976 0.226437
    9 5.939812 -0.004729 0.000088 -0.065974 -0.002744 0.235126
    10 5.939812 -0.003975 0.000088 -0.066057 0.046392 0.231904
    11 4.991436 -0.003974 0.000074 -0.066021 0.034060 0.232724
    12 4.991427 -0.001574 0.000074 0.000000 0.000009 0.000016
    13 -0.001670 0.001564 3.638373 -0.000014 -1.283609 3.140794
    14 8.842823 0.000002 0.000054 -1.118181 0.784711 -1.116901
    15 0.001739 0.001585 -3.638374 -0.730278 1.193245 2.446671
    16 8.842813 0.000001 -0.000025 0.126169 0.065463 -1.649640
    17 1.977402 -0.000032 0.003050 0.247714 -0.191040 0.058471
    18 9.341940 0.000000 0.000009 0.000000 0.000000 -0.347770
    19 11.168410 0.000002 -0.000001 -1.568614 -0.134986 -0.000162
    20 1.364904 0.231181 -1.984410 1.420741 0.440202 0.655609
    21 1.748533 -0.000003 0.000002 0.000000 0.000000 0.490553
    22 1.272493 0.000001 -0.000003 0.000000 0.000000 0.490596
    23 4.525584 -0.000299 -1.850222 0.008048 0.095677 0.105008
    24 1.719874 -0.000007 0.000000 0.000000 0.000000 0.000020
    25 1.383651 0.000003 0.000001 0.000000 0.000000 0.000000
    26 4.525585 -0.000096 -0.616739 0.012936 0.050882 0.288217
    27 1.807677 -0.000001 -0.000002 0.000000 0.000000 0.183226
    28 1.614256 -0.000004 0.000003 0.000000 0.000000 0.183188
    29 4.525583 0.000106 0.616741 0.009059 0.033763 0.322919
    30 1.719871 -0.000003 0.000000 0.000000 0.000000 0.218040
    31 1.383651 -0.000001 0.000001 0.000000 0.000000 0.218109
    32 4.525584 0.000309 1.850224 -0.019357 -0.029051 0.532536
    33 1.433228 -0.000003 0.000000 0.000000 0.000000 0.427506
    34 1.153038 -0.000001 0.000000 0.000000 0.000000 0.427471
    35 9.341949 0.000000 0.000007 0.000000 0.000000 -0.774179
    36 11.168407 0.000002 0.000011 1.568685 -0.016768 -0.000604
    37 1.364906 0.231175 1.984408 -3.282381 -0.010071 1.113654
    38 1.748534 0.000002 -0.000001 0.000000 0.000000 0.113519
    39 1.272493 0.000003 0.000002 0.000000 0.000000 0.671818
    40 4.525587 -0.000302 1.850221 -0.017935 -0.094419 0.210168
    41 1.719872 0.000007 0.000000 0.000000 0.000000 0.104674
    42 1.383647 0.000004 -0.000001 0.000000 0.000000 1.151715
    43 4.525585 -0.000102 0.616738 -0.041963 -0.031419 0.969259
    44 1.807677 -0.000002 -0.000002 0.000000 0.000000 0.863896
    45 1.614256 0.000001 0.000000 0.000000 0.000000 0.863913
    46 4.525587 0.000102 -0.616743 -0.028463 -0.020305 1.012316
    47 1.719867 0.000001 0.000001 0.000000 0.000000 0.907547
    48 1.383648 0.000001 -0.000001 0.000000 0.000000 0.907540
    49 4.525586 0.000303 -1.850223 0.033020 0.011565 1.178093
    50 1.433227 0.000002 0.000000 0.000000 0.000000 1.073114
    51 1.153036 0.000004 0.000000 0.000000 0.000000 1.073325
    52 7.223970 5.068054 1.800000 -3.141592 -0.000002 1.570798
    53 7.223960 5.068053 -1.800000 -3.141592 -0.000002 1.570798
    54 7.223950 5.068052 0.000000 -3.141592 -0.000002 1.570798
    55 3.723979 2.768055 -0.395205 -3.141592 -0.000098 1.570894
    56 20.747295 -0.313698 4.522630 0.003878 0.001942 1.564441
    57 2.448332 0.177352 0.168606 1.543132 0.019570 -3.045716
  time 11
    0 -1.162017 -35.187608 26.847359 -0.050721 0.363911 -1.653055
    1 -4.053492 0.136724 9.745319 -0.000414 -1.520836 -1.570770
    2 -0.000009 0.000014 5.615740 -0.055220 3.109575 -1.091750
    3 15.693467 0.000042 -0.000137 -0.000002 0.000005 -1.109631
    4 22.146626 -0.000002 0.000000 -0.071924 0.048441 0.193511
    5 0.000009 -0.000011 -5.615755 -0.022339 3.145128 -1.133613
    6 15.693451 0.000043 -0.000136 -0.000002 0.000005 -1.595280
    7 22.146624 -0.000001 0.000000 0.078240 -0.025785 -0.035463
    8 1.384163 -0.004727 0.058599 -0.079845 -0.066001 0.191711
    9 5.939812 -0.004729 0.000088 -0.070236 -0.004063 0.200333
    10 5.939812 -0.003975 0.000088 -0.070306 0.044451 0.196974
    11 4.991436 -0.003974 0.000074 -0.070299 0.032275 0.197791
    12 4.991427 -0.001574 0.000074 0.000000 0.000009 0.000016
    13 -0.001670 0.001564 3.638373 -0.000014 -1.283609 3.140794
    14 8.842823 0.000002 0.000054 -1.015672 0.982016 -0.983725
    15 0.001739 0.001585 -3.638374 -0.701612 1.201723 2.473227
    16 8.842813 0.000001 -0.000025 0.151324 -0.062724 -1.670985
    17 1.977402 -0.000032 0.003050 0.277264 -0.160633 0.019760
    18 9.341940 0.000000 0.000009 0.000000 0.000000 -0.386557
    19 11.168410 0.000002 -0.000001 -1.568614 -0.134986 -0.000162
    20 1.364904 0.231181 -1.984410 1.420741 0.440202 0.655609
    21 1.748533 -0.000003 0.000002 0.000000 0.000000 0.490553
    22 1.272493 0.000001 -0.000003 0.000000 0.000000 0.490596
    23 4.525584 -0.000299 -1.850222 0.008048 0.095677 0.105008
    24 1.719874 -0.000007 0.000000 0.000000 0.000000 0.000020
    25 1.383651 0.000003 0.000001 0.000000 0.000000 0.000000
    26 4.525585 -0.000096 -0.616739 0.012936 0.050882 0.288217
    27 1.807677 -0.000001 -0.000002 0.000000 0.000000 0.183226
    28 1.614256 -0.000004 0.000003 0.000000 0.000000 0.183188
    29 4.525583 0.000106 0.616741 0.009059 0.033763 0.322919
    30 1.719871 -0.000003 0.000000 0.000000 0.000000 0.218040
    31 1.383651 -0.000001 0.000001 0.000000 0.000000 0.218109
    32 4.525584 0.000309 1.850224 -0.019357 -0.029051 0.532536
    33 1.433228 -0.000003 0.000000 0.000000 0.000000 0.427506
    34 1.153038 -0.000001 0.000000 0.000000 0.000000 0.427471
    35 9.341949 0.000000 0.000007 0.000000 0.000000 -0.756525
    36 11.168407 0.000002 0.000011 1.568685 -0.016768 -0.000604
    37 1.364906 0.231175 1.984408 -3.300717 0.007015 1.116815
    38 1.748534 0.000002 -0.000001 0.000000 0.000000 0.113519
    39 1.272493 0.000003 0.000002 0.000000 0.000000 0.680367
    40 4.525587 -0.000302 1.850221 -0.018175 -0.094383 0.211762
    41 1.719872 0.000007 0.000000 0.000000 0.000000 0.106278
    42 1.383647 0.000004 -0.000001 0.000000 0.000000 1.169393
    43 4.525585 -0.000102 0.616738 -0.042430 -0.030856 0.982452
    44 1.807677 -0.000002 -0.000002 0.000000 0.000000 0.877154
    45 1.614256 0.000001 0.000000 0.000000 0.000000 0.877121
    46 4.525587 0.000102 -0.616743 -0.028714 -0.019813 1.026214
    47 1.719867 0.000001 0.000001 0.000000 0.000000 0.921430
    48 1.383648 0.000001 -0.000001 0.000000 0.000000 0.921367
    49 4.525586 0.000303 -1.850223 0.033200 0.010954 1.194418
    50 1.433227 0.000002 0.000000 0.000000 0.000000 1.089539
    51 1.153036 0.000004 0.000000 0.000000 0.000000 1.089590
    52 7.223970 5.068054 1.800000 -3.141592 -0.000002 1.570798
    53 7.223960 5.068053 -1.800000 -3.141592 -0.000002 1.570798
    54 7.223950 5.068052 0.000000 -3.141592 -0.000002 1.570798
    55 3.723979 2.768055 -0.395205 -3.141592 -0.000098 1.570894
    56 20.747295 -0.313698 4.522630 0.003878 0.001942 1.564441
    57 2.448332 0.177352 0.168606 1.543132 0.019570 -3.045716
  time 12
    0 -1.440848 -40.241128 28.258416 -0.045873 0.365057 -1.616623
    1 -3.463631 0.070316 9.745319 -0.000414 -1.525019 -1.570770
    2 -0.000009 0.000014 5.615740 -0.043716 3.099992 -0.817457
    3 15.693467 0.000042 -0.000137 -0.000002 0.000005 -1.046959
    4 22.146626 -0.000002 0.000000 -0.039738 0.046658 0.296305
    5 0.000009 -0.000011 -5.615755 -0.017353 3.151456 -1.230523
    6 15.693451 0.000043 -0.000136 -0.000002 0.000005 -1.620661
    7 22.146624 -0.000001 0.000000 0.079199 -0.034687 0.044511
    8 1.384163 -0.004727 0.058599 -0.078566 -0.063881 0.157225
    9 5.939812 -0.004729 0.000088 -0.071337 -0.005872 0.165921
    10 5.939812 -0.003975 0.000088 -0.071416 0.041634 0.162544
    11 4.991436 -0.003974 0.000074 -0.071390 0.029806 0.163396
    12 4.991427 -0.001574 0.000074 0.000000 0.000009 0.000016
    13 -0.001670 0.001564 3.638373 -0.000014 -1.283609 3.140794
    14 8.842823 0.000002 0.000054 -0.823000 1.143134 -0.772615
    15 0.001739 0.001585 -3.638374 -0.617052 1.223201 2.552223
    16 8.842813 0.000001 -0.000025 0.189863 -0.188698 -1.715198
    17 1.977402 -0.000032 0.003050 0.294180 -0.119004 -0.026902
    18 9.341940 0.000000 0.000009 0.000000 0.000000 -0.422229
    19 11.168410 0.000002 -0.000001 -1.568614 -0.134986 -0.000162
    20 1.364904 0.231181 -1.984410 1.420741 0.440202 0.655609
    21 1.748533 -0.000003 0.000002 0.000000 0.000000 0.490553
    22 1.272493 0.000001 -0.000003 0.000000 0.000000 0.490596
    23 4.525584 -0.000299 -1.850222 0.008048 0.095677 0.105008
    24 1.719874 -0.000007 0.000000 0.000000 0.000000 0.000020
    25 1.383651 0.000003 0.000001 0.000000 0.000000 0.000000
    26 4.525585 -0.000096 -0.616739 0.012936 0.050882 0.288217
    27 1.807677 -0.000001 -0.000002 0.000000 0.000000 0.183226
    28 1.614256 -0.000004 0.000003 0.000000 0.000000 0.183188
    29 4.525583 0.000106 0.616741 0.009059 0.033763 0.322919
    30 1.719871 -0.000003 0.000000 0.000000 0.000000 0.218040
    31 1.383651 -0.000001 0.000001 0.000000 0.000000 0.218109
    32 4.525584 0.000309 1.850224 -0.019357 -0.029051 0.532536
    33 1.433228 -0.000003 0.000000 0.000000 0.000000 0.427506
    34 1.153038 -0.000001 0.000000 0.000000 0.000000 0.427471
    35 9.341949 0.000000 0.000007 0.000000 0.000000 -0.734608
    36 11.168407 0.000002 0.000011 1.568685 -0.016768 -0.000604
    37 1.364906 0.231175 1.984408 -3.343079 0.047135 1.122961
    38 1.748534 0.000002 -0.000001 0.000000 0.000000 0.113519
    39 1.272493 0.000003 0.000002 0.000000 0.000000 0.700491
    40 4.525587 -0.000302 1.850221 -0.018535 -0.094311 0.215532
    41 1.719872 0.000007 0.000000 0.000000 0.000000 0.110041
    42 1.383647 0.000004 -0.000001 0.000000 0.000000 1.210496
    43 4.525585 -0.000102 0.616738 -0.043353 -0.029441 1.013306
    44 1.807677 -0.000002 -0.000002 0.000000 0.000000 0.908016
    45 1.614256 0.000001 0.000000 0.000000 0.000000 0.907994
    46 4.525587 0.000102 -0.616743 -0.029337 -0.018963 1.058600
    47 1.719867 0.000001 0.000001 0.000000 0.000000 0.953824
    48 1.383648 0.000001 -0.000001 0.000000 0.000000 0.953850
    49 4.525586 0.000303 -1.850223 0.033499 0.009768 1.232905
    50 1.433227 0.000002 0.000000 0.000000 0.000000 1.127840
    51 1.153036 0.000004 0.000000 0.000000 0.000000 1.128006
    52 7.223970 5.068054 1.800000 -3.141592 -0.000002 1.570798
    53 7.223960 5.068053 -1.800000 -3.141592 -0.000002 1.570798
    54 7.223950 5.068052 0.000000 -3.141592 -0.000002 1.570798
    55 3.723979 2.768055 -0.395205 -3.141592 -0.000098 1.570894
    56 20.747295 -0.313698 4.522630 0.003878 0.001942 1.564441
    57 2.448332 0.177352 0.168606 1.543132 0.019570 -3.045716
  time 13
    0 -1.523743 -45.886184 28.963945 -0.036083 0.365821 -1.583930
    1 -3.096432 0.007814 9.745319 -0.000414 -1.536119 -1.570770
    2 -0.000009 0.000014 5.615740 -0.023488 3.101621 -0.496430
    3 15.693467 0.000042 -0.000137 -0.000002 0.000005 -0.888821
    4 22.146626 -0.000002 0.000000 -0.014430 0.041903 0.295847
    5 0.000009 -0.000011 -5.615755 -0.007958 3.155578 -1.316602
    6 15.693451 0.000043 -0.000136 -0.000002 0.000005 -1.547421
    7 22.146624 -0.000001 0.000000 0.074122 -0.046229 0.101057
    8 1.384163 -0.004727 0.035160 -0.073820 -0.054354 0.135833
    9 5.939812 -0.004729 0.000088 -0.068993 -0.007478 0.144701
    10 5.939812 -0.003975 0.000088 -0.069030 0.039333 0.141481
    11 4.991436 -0.003974 0.000074 -0.069036 0.027601 0.142255
    12 4.991427 -0.001574 0.000074 0.000000 0.000009 0.000016
    13 -0.001670 0.001564 3.638373 -0.000014 -1.283609 3.140794
    14 8.842823 0.000002 0.000054 -0.625299 1.216344 -0.574420
    15 0.001739 0.001585 -3.638374 -0.481967 1.249047 2.680017
    16 8.842813 0.000001 -0.000025 0.229048 -0.262795 -1.785997
    17 1.977402 -0.000032 0.003050 0.291431 -0.090587 -0.051799
    18 9.341940 0.000000 0.000009 0.000000 0.000000 -0.449454
    19 11.168410 0.000002 -0.000001 -1.568614 -0.134986 -0.000162
    20 1.364904 0.231181 -1.984410 1.420741 0.440202 0.655609
    21 1.748533 -0.000003 0.000002 0.000000 0.000000 0.490553
    22 1.272493 0.000001 -0.000003 0.000000 0.000000 0.490596
    23 4.525584 -0.000299 -1.850222 0.008048 0.095677 0.105008
    24 1.719874 -0.000007 0.000000 0.000000 0.000000 0.000020
    25 1.383651 0.000003 0.000001 0.000000 0.000000 0.000000
    26 4.525585 -0.000096 -0.616739 0.012936 0.050882 0.288217
    27 1.807677 -0.000001 -0.000002 0.000000 0.000000 0.183226
    28 1.614256 -0.000004 0.000003 0.000000 0.000000 0.183188
    29 4.525583 0.000106 0.616741 0.009059 0.033763 0.322919
    30 1.719871 -0.000003 0.000000 0.000000 0.000000 0.218040
    31 1.383651 -0.000001 0.000001 0.000000 0.000000 0.218109
    32 4.525584 0.000309 1.850224 -0.019357 -0.029051 0.532536
    33 1.433228 -0.000003 0.000000 0.000000 0.000000 0.427506
    34 1.153038 -0.000001 0.000000 0.000000 0.000000 0.427471
    35 9.341949 0.000000 0.000007 0.000000 0.000000 -0.709693
    36 11.168407 0.000002 0.000011 1.568685 -0.016768 -0.000604
    37 1.364906 0.231175 1.984408 -3.391321 0.093230 1.128006
    38 1.748534 0.000002 -0.000001 0.000000 0.000000 0.113519
    39 1.272493 0.000003 0.000002 0.000000 0.000000 0.723232
    40 4.525587 -0.000302 1.850221 -0.018942 -0.094239 0.219792
    41 1.719872 0.000007 0.000000 0.000000 0.000000 0.114295
    42 1.383647 0.000004 -0.000001 0.000000 0.000000 1.257584
    43 4.525585 -0.000102 0.616738 -0.044300 -0.027895 1.048538
    44 1.807677 -0.000002 -0.000002 0.000000 0.000000 0.943224
    45 1.614256 0.000001 0.000000 0.000000 0.000000 0.943201
    46 4.525587 0.000102 -0.616743 -0.030021 -0.017764 1.095609
    47 1.719867 0.000001 0.000001 0.000000 0.000000 0.990846
    48 1.383648 0.000001 -0.000001 0.000000 0.000000 0.990873
    49 4.525586 0.000303 -1.850223 0.033991 0.008294 1.276785
    50 1.433227 0.000002 0.000000 0.000000 0.000000 1.171663
    51 1.153036 0.000004 0.000000 0.000000 0.000000 1.171717
    52 7.223970 5.068054 1.800000 -3.141592 -0.000002 1.570798
    53 7.223960 5.068053 -1.800000 -3.141592 -0.000002 1.570798
    54 7.223950 5.068052 0.000000 -3.141592 -0.000002 1.570798
    55 3.723979 2.768055 -0.395205 -3.141592 -0.000098 1.570894
    56 20.747295 -0.313698 4.522630 0.003878 0.001942 1.564441
    57 2.448332 0.177352 0.168606 1.543132 0.019570 -3.045716
  time 14
    0 -1.388096 -52.453753 29.159925 -0.022750 0.366204 -1.560633
    1 -3.115964 -0.007812 9.745319 -0.000414 -1.552055 -1.570770
    2 -0.000009 0.000014 5.615740 -0.010258 3.120212 -0.358232
    3 15.693467 0.000042 -0.000137 -0.000002 0.000005 -1.028819
    4 22.146626 -0.000002 0.000000 -0.037681 0.012581 -0.305321
    5 0.000009 -0.000011 -5.615755 0.005848 3.158550 -1.370377
    6 15.693451 0.000043 -0.000136 -0.000002 0.000005 -1.379356
    7 22.146624 -0.000001 0.000000 0.067353 -0.055898 0.094539
    8 1.384163 -0.004727 0.015628 -0.062948 -0.039434 0.136402
    9 5.939812 -0.004729 0.000088 -0.060309 -0.008605 0.145504
    10 5.939812 -0.003975 0.000088 -0.060277 0.037716 0.142743
    11 4.991436 -0.003974 0.000074 -0.060279 0.026102 0.143432
    12 4.991427 -0.001574 0.000074 0.000000 0.000009 0.000016
    13 -0.001670 0.001564 3.638373 -0.000014 -1.283609 3.140794
    14 8.842823 0.000002 0.000054 -0.688761 1.159320 -0.674675
    15 0.001739 0.001585 -3.638374 -0.308725 1.270166 2.845296
    16 8.842813 0.000001 -0.000025 0.256622 -0.246152 -1.868040
    17 1.977402 -0.000032 0.003050 0.262674 -0.077189 -0.072024
    18 9.341940 0.000000 0.000009 0.000000 0.000000 -0.465034
    19 11.168410 0.000002 -0.000001 -1.568614 -0.136421 -0.000162
    20 1.364904 0.231181 -1.984410 1.418153 0.438862 0.660552
    21 1.748533 -0.000003 0.000002 0.000000 0.000000 0.495236
    22 1.272493 0.000001 -0.000003 0.000000 0.000000 0.495179
    23 4.525584 -0.000299 -1.850222 0.008048 0.095677 0.105008
    24 1.719874 -0.000007 0.000000 0.000000 0.000000 0.000020
    25 1.383651 0.000003 0.000001 0.000000 0.000000 0.000000
    26 4.525585 -0.000096 -0.616739 0.013032 0.050858 0.290084
    27 1.807677 -0.000001 -0.000002 0.000000 0.000000 0.185057
    28 1.614256 -0.000004 0.000003 0.000000 0.000000 0.185106
    29 4.525583 0.000106 0.616741 0.009143 0.033763 0.325213
    30 1.719871 -0.000003 0.000000 0.000000 0.000000 0.220399
    31 1.383651 -0.000001 0.000001 0.000000 0.000000 0.220353
    32 4.525584 0.000309 1.850224 -0.019489 -0.028967 0.536964
    33 1.433228 -0.000003 0.000000 0.000000 0.000000 0.431977
    34 1.153038 -0.000001 0.000000 0.000000 0.000000 0.431930
    35 9.341949 0.000000 0.000007 0.000000 0.000000 -0.683379
    36 11.168407 0.000002 0.000011 1.568685 -0.016768 -0.000604
    37 1.364906 0.231175 1.984408 -3.427613 0.127943 1.130279
    38 1.748534 0.000002 -0.000001 0.000000 0.000000 0.113519
    39 1.272493 0.000003 0.000002 0.000000 0.000000 0.740210
    40 4.525587 -0.000302 1.850221 -0.019242 -0.094083 0.223041
    41 1.719872 0.000007 0.000000 0.000000 0.000000 0.117502
    42 1.383647 0.000004 -0.000001 0.000000 0.000000 1.292900
    43 4.525585 -0.000102 0.616738 -0.045078 -0.026805 1.074954
    44 1.807677 -0.000002 -0.000002 0.000000 0.000000 0.969646
    45 1.614256 0.000001 0.000000 0.000000 0.000000 0.969658
    46 4.525587 0.000102 -0.616743 -0.030596 -0.016925 1.123373
    47 1.719867 0.000001 0.000001 0.000000 0.000000 1.018675
    48 1.383648 0.000001 -0.000001 0.000000 0.000000 1.018692
    49 4.525586 0.000303 -1.850223 0.034146 0.007071 1.309584
    50 1.433227 0.000002 0.000000 0.000000 0.000000 1.204692
    51 1.153036 0.000004 0.000000 0.000000 0.000000 1.204669
    52 7.223970 5.068054 1.800000 -3.141592 -0.000002 1.570798
    53 7.223960 5.068053 -1.800000 -3.141592 -0.000002 1.570798
    54 7.223950 5.068052 0.000000 -3.141592 -0.000002 1.570798
    55 3.723979 2.768055 -0.395205 -3.141592 -0.000098 1.570894
    56 20.747295 -0.313698 4.522630 0.003878 0.001942 1.564441
    57 2.448332 0.177352 0.168606 1.543132 0.019570 -3.045716
  time 15
    0 -1.146945 -59.732572 28.905151 -0.005874 0.366013 -1.536952
    1 -3.412848 -0.050782 9.745319 -1.570764 -1.570457 0.000000
    2 -0.000009 0.000014 5.615740 -0.009012 3.136886 -0.561897
    3 15.693467 0.000042 -0.000137 -0.000002 0.000005 -1.210575
    4 22.146626 -0.000002 0.000000 -0.040934 0.003740 -0.659154
    5 0.000009 -0.000011 -5.615755 0.023297 3.163727 -1.370186
    6 15.693451 0.000043 -0.000136 -0.000002 0.000005 -1.107758
    7 22.146624 -0.000001 0.000000 0.066789 -0.061485 -0.061710
    8 1.384163 -0.004727 0.000003 -0.045849 -0.021911 0.152851
    9 5.939812 -0.004729 0.000088 -0.045729 -0.009720 0.162174
    10 5.939812 -0.003975 0.000088 -0.045731 0.036158 0.160095
    11 4.991436 -0.003974 0.000074 -0.045751 0.024592 0.160604
    12 4.991427 -0.001574 0.000074 0.000000 0.000009 0.000016
    13 -0.001670 0.001564 3.638373 -0.000014 -1.283609 3.140794
    14 8.842823 0.000002 0.000054 -0.862778 0.983318 -0.919302
    15 0.001739 0.001585 -3.638374 -0.126374 1.281418 3.019491
    16 8.842813 0.000001 -0.000025 0.267990 -0.160812 -1.943222
    17 1.977402 -0.000032 0.003050 0.213565 -0.065711 -0.112723
    18 9.341940 0.000000 0.000009 0.000000 0.000000 -0.471677
    19 11.168410 0.000002 -0.000001 -1.568614 -0.138909 -0.000162
    20 1.364904 0.231181 -1.984410 1.413858 0.436661 0.668921
    21 1.748533 -0.000003 0.000002 0.000000 0.000000 0.502935
    22 1.272493 0.000001 -0.000003 0.000000 0.000000 0.502963
    23 4.525584 -0.000299 -1.850222 0.008048 0.095677 0.105008
    24 1.719874 -0.000007 0.000000 0.000000 0.000000 0.000020
    25 1.383651 0.000003 0.000001 0.000000 0.000000 0.000000
    26 4.525585 -0.000096 -0.616739 0.013188 0.050714 0.293285
    27 1.807677 -0.000001 -0.000002 0.000000 0.000000 0.188282
    28 1.614256 -0.000004 0.000003 0.000000 0.000000 0.188316
    29 4.525583 0.000106 0.616741 0.009263 0.033763 0.329001
    30 1.719871 -0.000003 0.000000 0.000000 0.000000 0.224060
    31 1.383651 -0.000001 0.000001 0.000000 0.000000 0.224150
    32 4.525584 0.000309 1.850224 -0.019801 -0.028823 0.544379
    33 1.433228 -0.000003 0.000000 0.000000 0.000000 0.439405
    34 1.153038 -0.000001 0.000000 0.000000 0.000000 0.439372
    35 9.341949 0.000000 0.000007 0.000000 0.000000 -0.656665
    36 11.168407 0.000002 0.000011 1.568685 -0.016768 -0.000604
    37 1.364906 0.231175 1.984408 -3.433683 0.133728 1.130564
    38 1.748534 0.000002 -0.000001 0.000000 0.000000 0.113519
    39 1.272493 0.000003 0.000002 0.000000 0.000000 0.743212
    40 4.525587 -0.000302 1.850221 -0.019290 -0.094071 0.223562
    41 1.719872 0.000007 0.000000 0.000000 0.000000 0.118026
    42 1.383647 0.000004 -0.000001 0.000000 0.000000 1.298766
    43 4.525585 -0.000102 0.616738 -0.045102 -0.026505 1.079362
    44 1.807677 -0.000002 -0.000002 0.000000 0.000000 0.974086
    45 1.614256 0.000001 0.000000 0.000000 0.000000 0.974033
    46 4.525587 0.000102 -0.616743 -0.030668 -0.016781 1.128027
    47 1.719867 0.000001 0.000001 0.000000 0.000000 1.023240
    48 1.383648 0.000001 -0.000001 0.000000 0.000000 1.023232
    49 4.525586 0.000303 -1.850223 0.034182 0.006903 1.315087
    50 1.433227 0.000002 0.000000 0.000000 0.000000 1.209964
    51 1.153036 0.000004 0.000000 0.000000 0.000000 1.210175
    52 7.223970 5.068054 1.800000 -3.141592 -0.000002 1.570798
    53 7.223960 5.068053 -1.800000 -3.141592 -0.000002 1.570798
    54 7.223950 5.068052 0.000000 -3.141592 -0.000002 1.570798
    55 3.723979 2.768055 -0.395205 -3.141592 -0.000098 1.570894
    56 20.747295 -0.313698 4.522630 0.003878 0.001942 1.564441
    57 2.448332 0.177352 0.168606 1.543132 0.019570 -3.045716
  time 16
    0 -0.800291 -67.124064 28.199622 0.011655 0.365630 -1.515764
    1 -3.823017 -0.101565 9.745319 -3.141258 -1.552031 1.570770
    2 -0.000009 0.000014 5.615740 -0.002588 3.148960 -0.770723
    3 15.693467 0.000042 -0.000137 -0.000002 0.000005 -1.358967
    4 22.146626 -0.000002 0.000000 -0.045083 0.006365 -0.717913
    5 0.000009 -0.000011 -5.615755 0.040555 3.172068 -1.330789
    6 15.693451 0.000043 -0.000136 -0.000002 0.000005 -0.868016
    7 22.146624 -0.000001 0.000000 0.069666 -0.066151 -0.183609
    8 1.384163 -0.004727 -0.019529 -0.027269 -0.004576 0.175562
    9 5.939812 -0.004729 0.000088 -0.030563 -0.011301 0.185000
    10 5.939812 -0.003975 0.000088 -0.030547 0.034288 0.183644
    11 4.991436 -0.003974 0.000074 -0.030563 0.022867 0.183949
    12 4.991427 -0.001574 0.000074 0.000000 0.000009 0.000016
    13 -0.001670 0.001564 3.638373 -0.000014 -1.283609 3.140794
    14 8.842823 0.000002 0.000054 -0.963732 0.768060 -1.100478
    15 0.001739 0.001585 -3.638374 0.020695 1.283577 3.160994
    16 8.842813 0.000001 -0.000025 0.265007 -0.049622 -2.009256
    17 1.977402 -0.000032 0.003050 0.162764 -0.057080 -0.155211
    18 9.341940 0.000000 0.000009 0.000000 0.000000 -0.471677
    19 11.168410 0.000002 -0.000001 -1.568614 -0.139483 -0.000162
    20 1.364904 0.231181 -1.984410 1.413032 0.436258 0.670516
    21 1.748533 -0.000003 0.000002 0.000000 0.000000 0.504519
    22 1.272493 0.000001 -0.000003 0.000000 0.000000 0.504527
    23 4.525584 -0.000299 -1.850222 0.008048 0.095677 0.105008
    24 1.719874 -0.000007 0.000000 0.000000 0.000000 0.000020
    25 1.383651 0.000003 0.000001 0.000000 0.000000 0.000000
    26 4.525585 -0.000096 -0.616739 0.013188 0.050702 0.293925
    27 1.807677 -0.000001 -0.000002 0.000000 0.000000 0.188919
    28 1.614256 -0.000004 0.000003 0.000000 0.000000 0.188942
    29 4.525583 0.000106 0.616741 0.009287 0.033763 0.329747
    30 1.719871 -0.000003 0.000000 0.000000 0.000000 0.224940
    31 1.383651 -0.000001 0.000001 0.000000 0.000000 0.224909
    32 4.525584 0.000309 1.850224 -0.019837 -0.028787 0.545873
    33 1.433228 -0.000003 0.000000 0.000000 0.000000 0.440813
    34 1.153038 -0.000001 0.000000 0.000000 0.000000 0.440847
    35 9.341949 0.000000 0.000007 0.000000 0.000000 -0.631550
    36 11.168407 0.000002 0.000011 1.568685 -0.016768 -0.000604
    37 1.364906 0.231175 1.984408 -3.391321 0.093230 1.128006
    38 1.748534 0.000002 -0.000001 0.000000 0.000000 0.113519
    39 1.272493 0.000003 0.000002 0.000000 0.000000 0.723232
    40 4.525587 -0.000302 1.850221 -0.018942 -0.094239 0.219792
    41 1.719872 0.000007 0.000000 0.000000 0.000000 0.114295
    42 1.383647 0.000004 -0.000001 0.000000 0.000000 1.257584
    43 4.525585 -0.000102 0.616738 -0.044300 -0.027895 1.048538
    44 1.807677 -0.000002 -0.000002 0.000000 0.000000 0.943224
    45 1.614256 0.000001 0.000000 0.000000 0.000000 0.943201
    46 4.525587 0.000102 -0.616743 -0.030021 -0.017764 1.095609
    47 1.719867 0.000001 0.000001 0.000000 0.000000 0.990846
    48 1.383648 0.000001 -0.000001 0.000000 0.000000 0.990873
    49 4.525586 0.000303 -1.850223 0.033991 0.008294 1.276785
    50 1.433227 0.000002 0.000000 0.000000 0.000000 1.171663
    51 1.153036 0.000004 0.000000 0.000000 0.000000 1.171717
    52 7.223970 5.068054 1.800000 -3.141592 -0.000002 1.570798
    53 7.223960 5.068053 -1.800000 -3.141592 -0.000002 1.570798
    54 7.223950 5.068052 0.000000 -3.141592 -0.000002 1.570798
    55 3.723979 2.768055 -0.395205 -3.141592 -0.000098 1.570894
    56 20.747295 -0.313698 4.522630 0.003878 0.001942 1.564441
    57 2.448332 0.177352 0.168606 1.543132 0.019570 -3.045716
  time 17
    0 -0.106983 -74.029653 26.102635 0.036922 0.364484 -1.492850
    1 -4.381627 -0.285164 9.745319 -0.000414 -1.611567 -1.570770
    2 -0.000009 0.000014 5.615740 0.006423 3.157105 -0.823956
    3 15.693467 0.000042 -0.000137 -0.000002 0.000005 -1.398306
    4 22.146626 -0.000002 0.000000 -0.027588 0.054979 0.653887
    5 0.000009 -0.000011 -5.615755 0.049758 3.200062 -1.127286
    6 15.693451 0.000043 -0.000136 -0.000002 0.000005 -0.926742
    7 22.146624 -0.000001 0.000000 0.080158 -0.076864 0.215029
    8 1.384163 -0.004727 -0.050780 0.006155 0.011203 0.152252
    9 5.939812 -0.004729 0.000088 0.000000 -0.017450 0.162155
    10 5.939812 -0.003975 0.000088 0.000000 0.029099 0.162194
    11 4.991436 -0.003974 0.000074 0.000000 0.017450 0.162185
    12 4.991427 -0.001574 0.000074 0.000000 0.000009 0.000016
    13 -0.001670 0.001564 3.638373 -0.000014 -1.283609 3.140794
    14 8.842823 0.000002 0.000054 -0.870642 0.772990 -1.139744
    15 0.001739 0.001585 -3.638374 -0.578607 1.231628 2.588462
    16 8.842813 0.000001 -0.000025 0.319429 -0.011644 -1.741593
    17 1.977402 -0.000032 0.003050 0.053498 -0.034865 0.022990
    18 9.341940 0.000000 0.000009 0.000000 0.000000 -0.310130
    19 11.168410 0.000002 -0.000001 -1.568614 -0.134986 -0.000162
    20 1.364904 0.231181 -1.984410 1.420741 0.440202 0.655609
    21 1.748533 -0.000003 0.000002 0.000000 0.000000 0.490553
    22 1.272493 0.000001 -0.000003 0.000000 0.000000 0.490596
    23 4.525584 -0.000299 -1.850222 0.008048 0.095677 0.105008
    24 1.719874 -0.000007 0.000000 0.000000 0.000000 0.000020
    25 1.383651 0.000003 0.000001 0.000000 0.000000 0.000000
    26 4.525585 -0.000096 -0.616739 0.012936 0.050882 0.288217
    27 1.807677 -0.000001 -0.000002 0.000000 0.000000 0.183226
    28 1.614256 -0.000004 0.000003 0.000000 0.000000 0.183188
    29 4.525583 0.000106 0.616741 0.009059 0.033763 0.322919
    30 1.719871 -0.000003 0.000000 0.000000 0.000000 0.218040
    31 1.383651 -0.000001 0.000001 0.000000 0.000000 0.218109
    32 4.525584 0.000309 1.850224 -0.019357 -0.029051 0.532536
    33 1.433228 -0.000003 0.000000 0.000000 0.000000 0.427506
    34 1.153038 -0.000001 0.000000 0.000000 0.000000 0.427471
    35 9.341949 0.000000 0.000007 0.000000 0.000000 -0.608900
    36 11.168407 0.000002 0.000011 1.568685 -0.016768 -0.000604
    37 1.364906 0.231175 1.984408 -3.282381 -0.010071 1.113654
    38 1.748534 0.000002 -0.000001 0.000000 0.000000 0.113519
    39 1.272493 0.000003 0.000002 0.000000 0.000000 0.671818
    40 4.525587 -0.000302 1.850221 -0.017935 -0.094419 0.210168
    41 1.719872 0.000007 0.000000 0.000000 0.000000 0.104674
    42 1.383647 0.000004 -0.000001 0.000000 0.000000 1.151715
    43 4.525585 -0.000102 0.616738 -0.041963 -0.031419 0.969259
    44 1.807677 -0.000002 -0.000002 0.000000 0.000000 0.863896
    45 1.614256 0.000001 0.000000 0.000000 0.000000 0.863913
    46 4.525587 0.000102 -0.616743 -0.028463 -0.020305 1.012316
    47 1.719867 0.000001 0.000001 0.000000 0.000000 0.907547
    48 1.383648 0.000001 -0.000001 0.000000 0.000000 0.907540
    49 4.525586 0.000303 -1.850223 0.033020 0.011565 1.178093
    50 1.433227 0.000002 0.000000 0.000000 0.000000 1.073114
    51 1.153036 0.000004 0.000000 0.000000 0.000000 1.073325
    52 7.223970 5.068054 1.800000 -3.141592 -0.000002 1.570798
    53 7.223960 5.068053 -1.800000 -3.141592 -0.000002 1.570798
    54 7.223950 5.068052 0.000000 -3.141592 -0.000002 1.570798
    55 3.723979 2.768055 -0.395205 -3.141592 -0.000098 1.570894
    56 20.747295 -0.313698 4.522630 0.003878 0.001942 1.564441
    57 2.448332 0.177352 0.168606 1.543132 0.019570 -3.045716
end
