version 1
nodes
  0 "Bip01" -1
  1 "Bip01 Pelvis" 0
  2 "Bip01 L Thigh" 1
  3 "Bip01 L Calf" 2
  4 "Bip01 L Foot" 3
  5 "Bip01 R Thigh" 1
  6 "Bip01 R Calf" 5
  7 "Bip01 R Foot" 6
  8 "Bip01 Spine" 1
  9 "Bip01 Spine1" 8
  10 "Bip01 Spine2" 9
  11 "Bip01 Spine3" 10
  12 "Bip01 Neck" 11
  13 "Bip01 L Clavicle" 12
  14 "Bip01 L UpperArm" 13
  15 "Bip01 R Clavicle" 12
  16 "Bip01 R UpperArm" 15
  17 "Bip01 Head" 12
  18 "Bip01 L Forearm" 14
  19 "Bip01 L Hand" 18
  20 "Bip01 L Finger0" 19
  21 "Bip01 L Finger01" 20
  22 "Bip01 L Finger02" 21
  23 "Bip01 L Finger1" 19
  24 "Bip01 L Finger11" 23
  25 "Bip01 L Finger12" 24
  26 "Bip01 L Finger2" 19
  27 "Bip01 L Finger21" 26
  28 "Bip01 L Finger22" 27
  29 "Bip01 L Finger3" 19
  30 "Bip01 L Finger31" 29
  31 "Bip01 L Finger32" 30
  32 "Bip01 L Finger4" 19
  33 "Bip01 L Finger41" 32
  34 "Bip01 L Finger42" 33
  35 "Bip01 R Forearm" 16
  36 "Bip01 R Hand" 35
  37 "Bip01 R Finger0" 36
  38 "Bip01 R Finger01" 37
  39 "Bip01 R Finger02" 38
  40 "Bip01 R Finger1" 36
  41 "Bip01 R Finger11" 40
  42 "Bip01 R Finger12" 41
  43 "Bip01 R Finger2" 36
  44 "Bip01 R Finger21" 43
  45 "Bip01 R Finger22" 44
  46 "Bip01 R Finger3" 36
  47 "Bip01 R Finger31" 46
  48 "Bip01 R Finger32" 47
  49 "Bip01 R Finger4" 36
  50 "Bip01 R Finger41" 49
  51 "Bip01 R Finger42" 50
  52 "R_eye" 17
  53 "L_eye" 17
  54 "E_lids" 17
  55 "Mouth" 17
  56 "p_rpg" 36
  57 "Line04" 36
end
skeleton
  time 0
    0 0.021128 -0.006838 28.376004 -0.017249 0.025987 -1.745861
    1 -0.526041 0.000001 9.745319 -1.570764 -1.570796 0.000000
    2 -0.000009 0.000014 5.615740 -0.333141 3.338411 -0.723032
    3 15.693467 0.000042 -0.000137 -0.000002 0.000005 -0.438380
    4 22.146626 -0.000002 0.000000 -0.071513 -0.094306 0.127070
    5 0.000009 -0.000011 -5.615755 0.113131 2.949840 0.254192
    6 15.693451 0.000043 -0.000136 -0.000002 0.000005 -1.485271
    7 22.146624 -0.000001 0.000000 -0.215371 -0.054179 0.198559
    8 1.384163 -0.004727 0.000003 -0.171735 0.006695 0.146739
    9 5.939812 -0.004729 0.000088 0.000000 0.000000 0.000000
    10 5.939812 -0.003975 0.000088 0.000000 0.000000 0.000000
    11 4.991436 -0.003974 0.000074 0.000000 0.000000 0.000000
    12 4.991427 -0.001574 0.000074 0.000000 0.000009 0.000016
    13 -0.001670 0.001564 3.638373 -0.000014 -1.284225 3.140794
    14 8.842823 0.000002 0.000054 0.157276 0.403032 -0.632423
    15 0.001739 0.001585 -3.638374 -0.000014 1.284245 3.140766
    16 8.842813 0.000001 -0.000025 0.404489 -0.967557 -0.929074
    17 1.977402 -0.000032 0.003050 0.353280 0.020487 -0.019150
    18 9.341940 0.000000 0.000009 0.000000 0.000000 -2.116579
    19 11.168410 0.000002 -0.000001 -3.926152 -0.570344 0.882157
    20 1.364904 0.231181 -1.984410 2.565369 0.787582 1.289645
    21 1.748533 -0.000003 0.000002 0.000000 0.000000 -0.043585
    22 1.272493 0.000001 -0.000003 0.000000 0.000000 0.253072
    23 4.525584 -0.000299 -1.850222 0.062830 0.072738 0.735167
    24 1.719874 -0.000007 0.000000 0.000000 0.000000 0.619418
    25 1.383651 0.000003 0.000001 0.000000 0.000000 0.741566
    26 4.525585 -0.000096 -0.616739 0.033453 0.040263 0.733447
    27 1.807677 -0.000001 -0.000002 0.000000 0.000000 0.567102
    28 1.614256 -0.000004 0.000003 0.000000 0.000000 0.741755
    29 4.525583 0.000106 0.616741 0.021763 0.027388 0.733134
    30 1.719871 -0.000003 0.000000 0.000000 0.000000 0.366391
    31 1.383651 -0.000001 0.000001 0.000000 0.000000 0.741562
    32 4.525584 0.000309 1.850224 -0.024762 -0.024689 0.733175
    33 1.433228 -0.000003 0.000000 0.000000 0.000000 0.366391
    34 1.153038 -0.000001 0.000000 0.000000 0.000000 0.741559
    35 9.341949 0.000000 0.000007 0.000000 0.000000 -1.582119
    36 11.168407 0.000002 0.000011 1.987229 -0.909264 -0.239669
    37 1.364906 0.231175 1.984408 -3.139678 0.004068 1.002176
    38 1.748534 0.000002 -0.000001 0.000000 0.000000 0.436228
    39 1.272493 0.000003 0.000002 0.000000 0.000000 0.322870
    40 4.525587 -0.000302 1.850221 -0.016281 -0.094622 0.192575
    41 1.719872 0.000007 0.000000 0.000000 0.000000 0.034907
    42 1.383647 0.000004 -0.000001 0.000000 0.000000 0.689317
    43 4.525585 -0.000102 0.616738 -0.040896 -0.032761 0.934331
    44 1.807677 -0.000002 -0.000002 0.000000 0.000000 0.907547
    45 1.614256 0.000001 0.000000 0.000000 0.000000 1.151884
    46 4.525587 0.000102 -0.616743 -0.026857 -0.022390 0.933833
    47 1.719867 0.000001 0.000001 0.000000 0.000000 0.907547
    48 1.383648 0.000001 -0.000001 0.000000 0.000000 1.151884
    49 4.525586 0.000303 -1.850223 0.029257 0.019236 0.933763
    50 1.433227 0.000002 0.000000 0.000000 0.000000 0.907324
    51 1.153036 0.000004 0.000000 0.000000 0.000000 1.151753
    52 7.223970 5.068054 1.800000 -6.283184 -3.141399 4.712295
    53 7.223960 5.068053 -1.800000 -6.283184 -3.141399 4.712295
    54 7.223950 5.068052 0.000000 -6.283184 -3.141399 4.712295
    55 3.723979 2.768055 -0.395205 -6.283184 -3.141399 4.712294
    56 20.747295 -0.313698 4.522630 0.003878 0.001942 1.564441
    57 2.448332 0.177352 0.168606 1.543132 0.019570 -3.045716
  time 1
    0 0.066344 -5.857865 27.239320 -0.012494 0.026464 -1.726686
    1 -0.526041 0.000001 9.745319 -1.570764 -1.570796 0.000000
    2 -0.000009 0.000014 5.615740 -0.438787 3.345789 -0.717680
    3 15.693467 0.000042 -0.000137 -0.000002 0.000005 -0.595451
    4 22.146626 -0.000002 0.000000 -0.066316 0.102008 -0.122872
    5 0.000009 -0.000011 -5.615755 0.045157 3.021935 0.045993
    6 15.693451 0.000043 -0.000136 -0.000002 0.000005 -1.807780
    7 22.146624 -0.000001 0.000000 -0.108814 -0.071400 0.043102
    8 1.384163 -0.004727 0.000003 -0.092299 0.012384 0.281716
    9 5.939812 -0.004729 0.000088 0.000000 0.000000 0.000000
    10 5.939812 -0.003975 0.000088 0.000000 -0.014405 0.000000
    11 4.991436 -0.003974 0.000074 0.000000 0.000000 0.000000
    12 4.991427 -0.001574 0.000074 0.000000 0.000009 0.000016
    13 -0.001670 0.001564 3.638373 -0.000014 -1.284225 3.140794
    14 8.842823 0.000002 0.000054 0.129934 0.297636 -0.623017
    15 0.001739 0.001585 -3.638374 -0.000014 1.284245 3.140766
    16 8.842813 0.000001 -0.000025 0.409407 -0.983581 -0.947274
    17 1.977402 -0.000032 0.003050 0.254269 0.036615 -0.147807
    18 9.341940 0.000000 0.000009 0.000000 0.000000 -2.102392
    19 11.168410 0.000002 -0.000001 -3.933600 -0.576755 0.732738
    20 1.364904 0.231181 -1.984410 2.565369 0.787582 1.289645
    21 1.748533 -0.000003 0.000002 0.000000 0.000000 -0.043585
    22 1.272493 0.000001 -0.000003 0.000000 0.000000 0.253072
    23 4.525584 -0.000299 -1.850222 0.062830 0.072738 0.735167
    24 1.719874 -0.000007 0.000000 0.000000 0.000000 0.619418
    25 1.383651 0.000003 0.000001 0.000000 0.000000 0.741566
    26 4.525585 -0.000096 -0.616739 0.033453 0.040263 0.733447
    27 1.807677 -0.000001 -0.000002 0.000000 0.000000 0.567102
    28 1.614256 -0.000004 0.000003 0.000000 0.000000 0.741755
    29 4.525583 0.000106 0.616741 0.021763 0.027388 0.733134
    30 1.719871 -0.000003 0.000000 0.000000 0.000000 0.366391
    31 1.383651 -0.000001 0.000001 0.000000 0.000000 0.741562
    32 4.525584 0.000309 1.850224 -0.024762 -0.024689 0.733175
    33 1.433228 -0.000003 0.000000 0.000000 0.000000 0.366391
    34 1.153038 -0.000001 0.000000 0.000000 0.000000 0.741559
    35 9.341949 0.000000 0.000007 0.000000 0.000000 -1.644340
    36 11.168407 0.000002 0.000011 1.810210 -0.839221 -0.148010
    37 1.364906 0.231175 1.984408 -3.139678 0.004068 1.002176
    38 1.748534 0.000002 -0.000001 0.000000 0.000000 0.436228
    39 1.272493 0.000003 0.000002 0.000000 0.000000 0.322870
    40 4.525587 -0.000302 1.850221 -0.016281 -0.094622 0.192575
    41 1.719872 0.000007 0.000000 0.000000 0.000000 0.034907
    42 1.383647 0.000004 -0.000001 0.000000 0.000000 0.689317
    43 4.525585 -0.000102 0.616738 -0.040896 -0.032761 0.934331
    44 1.807677 -0.000002 -0.000002 0.000000 0.000000 0.907547
    45 1.614256 0.000001 0.000000 0.000000 0.000000 1.151884
    46 4.525587 0.000102 -0.616743 -0.026857 -0.022390 0.933833
    47 1.719867 0.000001 0.000001 0.000000 0.000000 0.907547
    48 1.383648 0.000001 -0.000001 0.000000 0.000000 1.151884
    49 4.525586 0.000303 -1.850223 0.029257 0.019236 0.933763
    50 1.433227 0.000002 0.000000 0.000000 0.000000 0.907324
    51 1.153036 0.000004 0.000000 0.000000 0.000000 1.151753
    52 7.223970 5.068054 1.800000 -6.283184 -3.141399 4.712295
    53 7.223960 5.068053 -1.800000 -6.283184 -3.141399 4.712295
    54 7.223950 5.068052 0.000000 -6.283184 -3.141399 4.712295
    55 3.723979 2.768055 -0.395205 -6.283184 -3.141399 4.712294
    56 20.747295 -0.313698 4.522630 0.003878 0.001942 1.564441
    57 2.448332 0.177352 0.168606 1.543132 0.019570 -3.045716
  time 2
    0 0.073880 -11.708891 26.298615 -0.006154 0.026082 -1.698691
    1 -0.526041 0.000001 9.745319 -1.570764 -1.570796 0.000000
    2 -0.000009 0.000014 5.615740 -0.350589 3.365338 -0.786492
    3 15.693467 0.000042 -0.000137 -0.000002 0.000005 -0.983718
    4 22.146626 -0.000002 0.000000 -0.086802 0.074370 0.157661
    5 0.000009 -0.000011 -5.615755 -0.074782 2.957989 -0.151854
    6 15.693451 0.000043 -0.000136 -0.000002 0.000005 -2.035613
    7 22.146624 -0.000001 0.000000 -0.195797 -0.036314 -0.065850
    8 1.384163 -0.004727 0.000003 0.030558 -0.000041 0.414356
    9 5.939812 -0.004729 0.000088 0.000000 0.000000 0.000000
    10 5.939812 -0.003975 0.000088 -0.000013 -0.031220 0.000000
    11 4.991436 -0.003974 0.000074 0.000000 0.000000 0.000000
    12 4.991427 -0.001574 0.000074 0.000000 0.000009 0.000016
    13 -0.001670 0.001564 3.638373 -0.000014 -1.284225 3.140794
    14 8.842823 0.000002 0.000054 0.073514 0.206007 -0.774780
    15 0.001739 0.001585 -3.638374 -0.000014 1.284245 3.140766
    16 8.842813 0.000001 -0.000025 0.389573 -1.008280 -0.852844
    17 1.977402 -0.000032 0.003050 0.098272 0.039092 -0.276861
    18 9.341940 0.000000 0.000009 0.000000 0.000000 -1.951342
    19 11.168410 0.000002 -0.000001 -3.944486 -0.567282 0.564843
    20 1.364904 0.231181 -1.984410 2.565369 0.787582 1.289645
    21 1.748533 -0.000003 0.000002 0.000000 0.000000 -0.043585
    22 1.272493 0.000001 -0.000003 0.000000 0.000000 0.253072
    23 4.525584 -0.000299 -1.850222 0.062830 0.072738 0.735167
    24 1.719874 -0.000007 0.000000 0.000000 0.000000 0.619418
    25 1.383651 0.000003 0.000001 0.000000 0.000000 0.741566
    26 4.525585 -0.000096 -0.616739 0.033453 0.040263 0.733447
    27 1.807677 -0.000001 -0.000002 0.000000 0.000000 0.567102
    28 1.614256 -0.000004 0.000003 0.000000 0.000000 0.741755
    29 4.525583 0.000106 0.616741 0.021763 0.027388 0.733134
    30 1.719871 -0.000003 0.000000 0.000000 0.000000 0.366391
    31 1.383651 -0.000001 0.000001 0.000000 0.000000 0.741562
    32 4.525584 0.000309 1.850224 -0.024762 -0.024689 0.733175
    33 1.433228 -0.000003 0.000000 0.000000 0.000000 0.366391
    34 1.153038 -0.000001 0.000000 0.000000 0.000000 0.741559
    35 9.341949 0.000000 0.000007 0.000000 0.000000 -1.759056
    36 11.168407 0.000002 0.000011 1.664046 -0.783339 -0.078255
    37 1.364906 0.231175 1.984408 -3.139678 0.004068 1.002176
    38 1.748534 0.000002 -0.000001 0.000000 0.000000 0.436228
    39 1.272493 0.000003 0.000002 0.000000 0.000000 0.322870
    40 4.525587 -0.000302 1.850221 -0.016281 -0.094622 0.192575
    41 1.719872 0.000007 0.000000 0.000000 0.000000 0.034907
    42 1.383647 0.000004 -0.000001 0.000000 0.000000 0.689317
    43 4.525585 -0.000102 0.616738 -0.040896 -0.032761 0.934331
    44 1.807677 -0.000002 -0.000002 0.000000 0.000000 0.907547
    45 1.614256 0.000001 0.000000 0.000000 0.000000 1.151884
    46 4.525587 0.000102 -0.616743 -0.026857 -0.022390 0.933833
    47 1.719867 0.000001 0.000001 0.000000 0.000000 0.907547
    48 1.383648 0.000001 -0.000001 0.000000 0.000000 1.151884
    49 4.525586 0.000303 -1.850223 0.029257 0.019236 0.933763
    50 1.433227 0.000002 0.000000 0.000000 0.000000 0.907324
    51 1.153036 0.000004 0.000000 0.000000 0.000000 1.151753
    52 7.223970 5.068054 1.800000 -6.283184 -3.141399 4.712295
    53 7.223960 5.068053 -1.800000 -6.283184 -3.141399 4.712295
    54 7.223950 5.068052 0.000000 -6.283184 -3.141399 4.712295
    55 3.723979 2.768055 -0.395205 -6.283184 -3.141399 4.712294
    56 20.747295 -0.313698 4.522630 0.003878 0.001942 1.564441
    57 2.448332 0.177352 0.168606 1.543132 0.019570 -3.045716
  time 3
    0 0.036200 -17.559918 25.416704 0.001026 0.024745 -1.663218
    1 -0.526041 0.000001 9.745319 -1.570764 -1.570796 0.000000
    2 -0.000009 0.000014 5.615740 -0.271594 3.306883 -0.720451
    3 15.693467 0.000042 -0.000137 -0.000002 0.000005 -1.159498
    4 22.146626 -0.000002 0.000000 -0.111474 0.039154 0.432981
    5 0.000009 -0.000011 -5.615755 -0.081109 2.932200 -0.384305
    6 15.693451 0.000043 -0.000136 -0.000002 0.000005 -2.174873
    7 22.146624 -0.000001 0.000000 -0.220448 -0.074531 -0.028681
    8 1.384163 -0.004727 0.000003 0.107806 -0.016759 0.495492
    9 5.939812 -0.004729 0.000088 0.000000 0.000000 0.000000
    10 5.939812 -0.003975 0.000088 -0.000013 -0.039669 0.000000
    11 4.991436 -0.003974 0.000074 0.000000 0.000000 0.000000
    12 4.991427 -0.001574 0.000074 0.000000 0.000009 0.000016
    13 -0.001670 0.001564 3.638373 -0.000014 -1.284225 3.140794
    14 8.842823 0.000002 0.000054 -0.047283 0.118471 -0.904298
    15 0.001739 0.001585 -3.638374 -0.000014 1.284245 3.140766
    16 8.842813 0.000001 -0.000025 0.186397 -1.025720 -0.579177
    17 1.977402 -0.000032 0.003050 -0.017444 0.028933 -0.355476
    18 9.341940 0.000000 0.000009 0.000000 0.000000 -2.073609
    19 11.168410 0.000002 -0.000001 -3.968167 -0.466145 0.713821
    20 1.364904 0.231181 -1.984410 2.565369 0.787582 1.289645
    21 1.748533 -0.000003 0.000002 0.000000 0.000000 -0.043585
    22 1.272493 0.000001 -0.000003 0.000000 0.000000 0.253072
    23 4.525584 -0.000299 -1.850222 0.062830 0.072738 0.735167
    24 1.719874 -0.000007 0.000000 0.000000 0.000000 0.619418
    25 1.383651 0.000003 0.000001 0.000000 0.000000 0.741566
    26 4.525585 -0.000096 -0.616739 0.033453 0.040263 0.733447
    27 1.807677 -0.000001 -0.000002 0.000000 0.000000 0.567102
    28 1.614256 -0.000004 0.000003 0.000000 0.000000 0.741755
    29 4.525583 0.000106 0.616741 0.021763 0.027388 0.733134
    30 1.719871 -0.000003 0.000000 0.000000 0.000000 0.366391
    31 1.383651 -0.000001 0.000001 0.000000 0.000000 0.741562
    32 4.525584 0.000309 1.850224 -0.024762 -0.024689 0.733175
    33 1.433228 -0.000003 0.000000 0.000000 0.000000 0.366391
    34 1.153038 -0.000001 0.000000 0.000000 0.000000 0.741559
    35 9.341949 0.000000 0.000007 0.000000 0.000000 -2.166490
    36 11.168407 0.000002 0.000011 1.607650 -0.723371 0.170117
    37 1.364906 0.231175 1.984408 -3.139678 0.004068 1.002176
    38 1.748534 0.000002 -0.000001 0.000000 0.000000 0.436228
    39 1.272493 0.000003 0.000002 0.000000 0.000000 0.322870
    40 4.525587 -0.000302 1.850221 -0.016281 -0.094622 0.192575
    41 1.719872 0.000007 0.000000 0.000000 0.000000 0.034907
    42 1.383647 0.000004 -0.000001 0.000000 0.000000 0.689317
    43 4.525585 -0.000102 0.616738 -0.040896 -0.032761 0.934331
    44 1.807677 -0.000002 -0.000002 0.000000 0.000000 0.907547
    45 1.614256 0.000001 0.000000 0.000000 0.000000 1.151884
    46 4.525587 0.000102 -0.616743 -0.026857 -0.022390 0.933833
    47 1.719867 0.000001 0.000001 0.000000 0.000000 0.907547
    48 1.383648 0.000001 -0.000001 0.000000 0.000000 1.151884
    49 4.525586 0.000303 -1.850223 0.029257 0.019236 0.933763
    50 1.433227 0.000002 0.000000 0.000000 0.000000 0.907324
    51 1.153036 0.000004 0.000000 0.000000 0.000000 1.151753
    52 7.223970 5.068054 1.800000 -6.283184 -3.141399 4.712295
    53 7.223960 5.068053 -1.800000 -6.283184 -3.141399 4.712295
    54 7.223950 5.068052 0.000000 -6.283184 -3.141399 4.712295
    55 3.723979 2.768055 -0.395205 -6.283184 -3.141399 4.712294
    56 20.747295 -0.313698 4.522630 0.003878 0.001942 1.564441
    57 2.448332 0.177352 0.168606 1.543132 0.019570 -3.045716
  time 4
    0 0.021128 -23.410944 25.083538 0.008858 0.022738 -1.623430
    1 -0.526041 0.000001 9.745319 -1.570764 -1.570796 0.000000
    2 -0.000009 0.000014 5.615740 -0.199789 3.213068 -0.533512
    3 15.693467 0.000042 -0.000137 -0.000002 0.000005 -1.152242
    4 22.146626 -0.000002 0.000000 -0.140894 0.021100 0.661523
    5 0.000009 -0.000011 -5.615755 -0.079383 2.906123 -0.636886
    6 15.693451 0.000043 -0.000136 -0.000002 0.000005 -2.325149
    7 22.146624 -0.000001 0.000000 -0.240586 -0.125241 0.031828
    8 1.384163 -0.004727 0.000003 0.091414 -0.013968 0.494323
    9 5.939812 -0.004729 0.000088 0.000000 0.000000 0.000000
    10 5.939812 -0.003975 0.000088 -0.000013 -0.033257 0.000000
    11 4.991436 -0.003974 0.000074 0.000000 0.000000 0.000000
    12 4.991427 -0.001574 0.000074 0.000000 0.000009 0.000016
    13 -0.001670 0.001564 3.638373 -0.000014 -1.284225 3.140794
    14 8.842823 0.000002 0.000054 -0.115043 0.104796 -0.883247
    15 0.001739 0.001585 -3.638374 -0.000014 1.284245 3.140766
    16 8.842813 0.000001 -0.000025 0.242593 -0.981368 -0.687615
    17 1.977402 -0.000032 0.003050 -0.037003 0.021991 -0.352494
    18 9.341940 0.000000 0.000009 0.000000 0.000000 -2.129781
    19 11.168410 0.000002 -0.000001 -3.979912 -0.401559 0.756470
    20 1.364904 0.231181 -1.984410 2.565369 0.787582 1.289645
    21 1.748533 -0.000003 0.000002 0.000000 0.000000 -0.043585
    22 1.272493 0.000001 -0.000003 0.000000 0.000000 0.253072
    23 4.525584 -0.000299 -1.850222 0.062830 0.072738 0.735167
    24 1.719874 -0.000007 0.000000 0.000000 0.000000 0.619418
    25 1.383651 0.000003 0.000001 0.000000 0.000000 0.741566
    26 4.525585 -0.000096 -0.616739 0.033453 0.040263 0.733447
    27 1.807677 -0.000001 -0.000002 0.000000 0.000000 0.567102
    28 1.614256 -0.000004 0.000003 0.000000 0.000000 0.741755
    29 4.525583 0.000106 0.616741 0.021763 0.027388 0.733134
    30 1.719871 -0.000003 0.000000 0.000000 0.000000 0.366391
    31 1.383651 -0.000001 0.000001 0.000000 0.000000 0.741562
    32 4.525584 0.000309 1.850224 -0.024762 -0.024689 0.733175
    33 1.433228 -0.000003 0.000000 0.000000 0.000000 0.366391
    34 1.153038 -0.000001 0.000000 0.000000 0.000000 0.741559
    35 9.341949 0.000000 0.000007 0.000000 0.000000 -2.209925
    36 11.168407 0.000002 0.000011 1.617717 -0.687637 0.277381
    37 1.364906 0.231175 1.984408 -3.139678 0.004068 1.002176
    38 1.748534 0.000002 -0.000001 0.000000 0.000000 0.436228
    39 1.272493 0.000003 0.000002 0.000000 0.000000 0.322870
    40 4.525587 -0.000302 1.850221 -0.016281 -0.094622 0.192575
    41 1.719872 0.000007 0.000000 0.000000 0.000000 0.034907
    42 1.383647 0.000004 -0.000001 0.000000 0.000000 0.689317
    43 4.525585 -0.000102 0.616738 -0.040896 -0.032761 0.934331
    44 1.807677 -0.000002 -0.000002 0.000000 0.000000 0.907547
    45 1.614256 0.000001 0.000000 0.000000 0.000000 1.151884
    46 4.525587 0.000102 -0.616743 -0.026857 -0.022390 0.933833
    47 1.719867 0.000001 0.000001 0.000000 0.000000 0.907547
    48 1.383648 0.000001 -0.000001 0.000000 0.000000 1.151884
    49 4.525586 0.000303 -1.850223 0.029257 0.019236 0.933763
    50 1.433227 0.000002 0.000000 0.000000 0.000000 0.907324
    51 1.153036 0.000004 0.000000 0.000000 0.000000 1.151753
    52 7.223970 5.068054 1.800000 -6.283184 -3.141399 4.712295
    53 7.223960 5.068053 -1.800000 -6.283184 -3.141399 4.712295
    54 7.223950 5.068052 0.000000 -6.283184 -3.141399 4.712295
    55 3.723979 2.768055 -0.395205 -6.283184 -3.141399 4.712294
    56 20.747295 -0.313698 4.522630 0.003878 0.001942 1.564441
    57 2.448332 0.177352 0.168606 1.543132 0.019570 -3.045716
  time 5
    0 0.073880 -29.261971 25.318714 0.016876 0.019968 -1.580287
    1 -0.526041 0.000001 9.745319 -1.570764 -1.570796 0.000000
    2 -0.000009 0.000014 5.615740 -0.122711 3.127207 -0.238289
    3 15.693467 0.000042 -0.000137 -0.000002 0.000005 -0.957824
    4 22.146626 -0.000002 0.000000 -0.164258 0.022462 0.770033
    5 0.000009 -0.000011 -5.615755 -0.067208 2.883785 -0.853042
    6 15.693451 0.000043 -0.000136 -0.000002 0.000005 -2.408438
    7 22.146624 -0.000001 0.000000 -0.249273 -0.155078 0.089871
    8 1.384163 -0.004727 0.000003 0.031063 -0.002322 0.443538
    9 5.939812 -0.004729 0.000088 0.000000 0.000000 0.000000
    10 5.939812 -0.003975 0.000088 0.000000 -0.018780 0.000000
    11 4.991436 -0.003974 0.000074 0.000000 0.000000 0.000000
    12 4.991427 -0.001574 0.000074 0.000000 0.000009 0.000016
    13 -0.001670 0.001564 3.638373 -0.000014 -1.284225 3.140794
    14 8.842823 0.000002 0.000054 -0.115409 0.136704 -0.770525
    15 0.001739 0.001585 -3.638374 -0.000014 1.284245 3.140766
    16 8.842813 0.000001 -0.000025 0.363934 -0.940557 -0.891435
    17 1.977402 -0.000032 0.003050 -0.011682 0.015535 -0.301062
    18 9.341940 0.000000 0.000009 0.000000 0.000000 -2.132405
    19 11.168410 0.000002 -0.000001 -3.996241 -0.385867 0.711806
    20 1.364904 0.231181 -1.984410 2.565369 0.787582 1.289645
    21 1.748533 -0.000003 0.000002 0.000000 0.000000 -0.043585
    22 1.272493 0.000001 -0.000003 0.000000 0.000000 0.253072
    23 4.525584 -0.000299 -1.850222 0.062830 0.072738 0.735167
    24 1.719874 -0.000007 0.000000 0.000000 0.000000 0.619418
    25 1.383651 0.000003 0.000001 0.000000 0.000000 0.741566
    26 4.525585 -0.000096 -0.616739 0.033453 0.040263 0.733447
    27 1.807677 -0.000001 -0.000002 0.000000 0.000000 0.567102
    28 1.614256 -0.000004 0.000003 0.000000 0.000000 0.741755
    29 4.525583 0.000106 0.616741 0.021763 0.027388 0.733134
    30 1.719871 -0.000003 0.000000 0.000000 0.000000 0.366391
    31 1.383651 -0.000001 0.000001 0.000000 0.000000 0.741562
    32 4.525584 0.000309 1.850224 -0.024762 -0.024689 0.733175
    33 1.433228 -0.000003 0.000000 0.000000 0.000000 0.366391
    34 1.153038 -0.000001 0.000000 0.000000 0.000000 0.741559
    35 9.341949 0.000000 0.000007 0.000000 0.000000 -2.052507
    36 11.168407 0.000002 0.000011 1.645123 -0.693624 0.265724
    37 1.364906 0.231175 1.984408 -3.139678 0.004068 1.002176
    38 1.748534 0.000002 -0.000001 0.000000 0.000000 0.436228
    39 1.272493 0.000003 0.000002 0.000000 0.000000 0.322870
    40 4.525587 -0.000302 1.850221 -0.016281 -0.094622 0.192575
    41 1.719872 0.000007 0.000000 0.000000 0.000000 0.034907
    42 1.383647 0.000004 -0.000001 0.000000 0.000000 0.689317
    43 4.525585 -0.000102 0.616738 -0.040896 -0.032761 0.934331
    44 1.807677 -0.000002 -0.000002 0.000000 0.000000 0.907547
    45 1.614256 0.000001 0.000000 0.000000 0.000000 1.151884
    46 4.525587 0.000102 -0.616743 -0.026857 -0.022390 0.933833
    47 1.719867 0.000001 0.000001 0.000000 0.000000 0.907547
    48 1.383648 0.000001 -0.000001 0.000000 0.000000 1.151884
    49 4.525586 0.000303 -1.850223 0.029257 0.019236 0.933763
    50 1.433227 0.000002 0.000000 0.000000 0.000000 0.907324
    51 1.153036 0.000004 0.000000 0.000000 0.000000 1.151753
    52 7.223970 5.068054 1.800000 -6.283184 -3.141399 4.712295
    53 7.223960 5.068053 -1.800000 -6.283184 -3.141399 4.712295
    54 7.223950 5.068052 0.000000 -6.283184 -3.141399 4.712295
    55 3.723979 2.768055 -0.395205 -6.283184 -3.141399 4.712294
    56 20.747295 -0.313698 4.522630 0.003878 0.001942 1.564441
    57 2.448332 0.177352 0.168606 1.543132 0.019570 -3.045716
  time 6
    0 0.066344 -35.112997 25.769469 0.024708 0.016624 -1.536856
    1 -0.526041 0.000001 9.745319 -1.570764 -1.570796 0.000000
    2 -0.000009 0.000014 5.615740 -0.045250 3.085330 0.193124
    3 15.693467 0.000042 -0.000137 -0.000002 0.000005 -0.502688
    4 22.146626 -0.000002 0.000000 -0.176296 0.023948 0.662118
    5 0.000009 -0.000011 -5.615755 -0.039117 2.869884 -0.975450
    6 15.693451 0.000043 -0.000136 -0.000002 0.000005 -2.347107
    7 22.146624 -0.000001 0.000000 -0.237427 -0.138103 0.119289
    8 1.384163 -0.004727 0.000003 -0.012055 0.001516 0.395000
    9 5.939812 -0.004729 0.000088 0.000000 0.000000 0.000000
    10 5.939812 -0.003975 0.000088 0.000000 -0.005046 0.000000
    11 4.991436 -0.003974 0.000074 0.000000 0.000000 0.000000
    12 4.991427 -0.001574 0.000074 0.000000 0.000009 0.000016
    13 -0.001670 0.001564 3.638373 -0.000014 -1.284225 3.140794
    14 8.842823 0.000002 0.000054 -0.092365 0.167402 -0.693860
    15 0.001739 0.001585 -3.638374 -0.000014 1.284245 3.140766
    16 8.842813 0.000001 -0.000025 0.435207 -0.919222 -1.012165
    17 1.977402 -0.000032 0.003050 -0.006290 0.006163 -0.253455
    18 9.341940 0.000000 0.000009 0.000000 0.000000 -2.097144
    19 11.168410 0.000002 -0.000001 -4.011042 -0.385293 0.648176
    20 1.364904 0.231181 -1.984410 2.565369 0.787582 1.289645
    21 1.748533 -0.000003 0.000002 0.000000 0.000000 -0.043585
    22 1.272493 0.000001 -0.000003 0.000000 0.000000 0.253072
    23 4.525584 -0.000299 -1.850222 0.062830 0.072738 0.735167
    24 1.719874 -0.000007 0.000000 0.000000 0.000000 0.619418
    25 1.383651 0.000003 0.000001 0.000000 0.000000 0.741566
    26 4.525585 -0.000096 -0.616739 0.033453 0.040263 0.733447
    27 1.807677 -0.000001 -0.000002 0.000000 0.000000 0.567102
    28 1.614256 -0.000004 0.000003 0.000000 0.000000 0.741755
    29 4.525583 0.000106 0.616741 0.021763 0.027388 0.733134
    30 1.719871 -0.000003 0.000000 0.000000 0.000000 0.366391
    31 1.383651 -0.000001 0.000001 0.000000 0.000000 0.741562
    32 4.525584 0.000309 1.850224 -0.024762 -0.024689 0.733175
    33 1.433228 -0.000003 0.000000 0.000000 0.000000 0.366391
    34 1.153038 -0.000001 0.000000 0.000000 0.000000 0.741559
    35 9.341949 0.000000 0.000007 0.000000 0.000000 -1.912610
    36 11.168407 0.000002 0.000011 1.659385 -0.703603 0.233009
    37 1.364906 0.231175 1.984408 -3.139678 0.004068 1.002176
    38 1.748534 0.000002 -0.000001 0.000000 0.000000 0.436228
    39 1.272493 0.000003 0.000002 0.000000 0.000000 0.322870
    40 4.525587 -0.000302 1.850221 -0.016281 -0.094622 0.192575
    41 1.719872 0.000007 0.000000 0.000000 0.000000 0.034907
    42 1.383647 0.000004 -0.000001 0.000000 0.000000 0.689317
    43 4.525585 -0.000102 0.616738 -0.040896 -0.032761 0.934331
    44 1.807677 -0.000002 -0.000002 0.000000 0.000000 0.907547
    45 1.614256 0.000001 0.000000 0.000000 0.000000 1.151884
    46 4.525587 0.000102 -0.616743 -0.026857 -0.022390 0.933833
    47 1.719867 0.000001 0.000001 0.000000 0.000000 0.907547
    48 1.383648 0.000001 -0.000001 0.000000 0.000000 1.151884
    49 4.525586 0.000303 -1.850223 0.029257 0.019236 0.933763
    50 1.433227 0.000002 0.000000 0.000000 0.000000 0.907324
    51 1.153036 0.000004 0.000000 0.000000 0.000000 1.151753
    52 7.223970 5.068054 1.800000 -6.283184 -3.141399 4.712295
    53 7.223960 5.068053 -1.800000 -6.283184 -3.141399 4.712295
    54 7.223950 5.068052 0.000000 -6.283184 -3.141399 4.712295
    55 3.723979 2.768055 -0.395205 -6.283184 -3.141399 4.712294
    56 20.747295 -0.313698 4.522630 0.003878 0.001942 1.564441
    57 2.448332 0.177352 0.168606 1.543132 0.019570 -3.045716
  time 7
    0 0.036200 -40.978108 26.357409 0.032167 0.012707 -1.494384
    1 -0.526041 0.000001 9.745319 -1.570764 -1.570796 0.000000
    2 -0.000009 0.000014 5.615740 -0.016393 3.099800 0.258400
    3 15.693467 0.000042 -0.000137 -0.000002 0.000005 -0.578876
    4 22.146626 -0.000002 0.000000 -0.182165 0.016816 0.626863
    5 0.000009 -0.000011 -5.615755 0.006424 2.866433 -1.000469
    6 15.693451 0.000043 -0.000136 -0.000002 0.000005 -2.129620
    7 22.146624 -0.000001 0.000000 -0.203525 -0.079381 0.127304
    8 1.384163 -0.004727 0.000003 -0.022052 -0.003288 0.360635
    9 5.939812 -0.004729 0.000088 0.000000 0.000000 0.000000
    10 5.939812 -0.003975 0.000088 0.000000 0.005753 0.000000
    11 4.991436 -0.003974 0.000074 0.000000 0.000000 0.000000
    12 4.991427 -0.001574 0.000074 0.000000 0.000009 0.000016
    13 -0.001670 0.001564 3.638373 -0.000014 -1.284225 3.140794
    14 8.842823 0.000002 0.000054 -0.064932 0.189169 -0.684081
    15 0.001739 0.001585 -3.638374 -0.000014 1.284245 3.140766
    16 8.842813 0.000001 -0.000025 0.455283 -0.921081 -1.038369
    17 1.977402 -0.000032 0.003050 -0.035734 -0.002214 -0.220806
    18 9.341940 0.000000 0.000009 0.000000 0.000000 -2.032854
    19 11.168410 0.000002 -0.000001 -4.021355 -0.389599 0.585578
    20 1.364904 0.231181 -1.984410 2.565369 0.787582 1.289645
    21 1.748533 -0.000003 0.000002 0.000000 0.000000 -0.043585
    22 1.272493 0.000001 -0.000003 0.000000 0.000000 0.253072
    23 4.525584 -0.000299 -1.850222 0.062830 0.072738 0.735167
    24 1.719874 -0.000007 0.000000 0.000000 0.000000 0.619418
    25 1.383651 0.000003 0.000001 0.000000 0.000000 0.741566
    26 4.525585 -0.000096 -0.616739 0.033453 0.040263 0.733447
    27 1.807677 -0.000001 -0.000002 0.000000 0.000000 0.567102
    28 1.614256 -0.000004 0.000003 0.000000 0.000000 0.741755
    29 4.525583 0.000106 0.616741 0.021763 0.027388 0.733134
    30 1.719871 -0.000003 0.000000 0.000000 0.000000 0.366391
    31 1.383651 -0.000001 0.000001 0.000000 0.000000 0.741562
    32 4.525584 0.000309 1.850224 -0.024762 -0.024689 0.733175
    33 1.433228 -0.000003 0.000000 0.000000 0.000000 0.366391
    34 1.153038 -0.000001 0.000000 0.000000 0.000000 0.741559
    35 9.341949 0.000000 0.000007 0.000000 0.000000 -1.844593
    36 11.168407 0.000002 0.000011 1.657241 -0.704838 0.215805
    37 1.364906 0.231175 1.984408 -3.139678 0.004068 1.002176
    38 1.748534 0.000002 -0.000001 0.000000 0.000000 0.436228
    39 1.272493 0.000003 0.000002 0.000000 0.000000 0.322870
    40 4.525587 -0.000302 1.850221 -0.016281 -0.094622 0.192575
    41 1.719872 0.000007 0.000000 0.000000 0.000000 0.034907
    42 1.383647 0.000004 -0.000001 0.000000 0.000000 0.689317
    43 4.525585 -0.000102 0.616738 -0.040896 -0.032761 0.934331
    44 1.807677 -0.000002 -0.000002 0.000000 0.000000 0.907547
    45 1.614256 0.000001 0.000000 0.000000 0.000000 1.151884
    46 4.525587 0.000102 -0.616743 -0.026857 -0.022390 0.933833
    47 1.719867 0.000001 0.000001 0.000000 0.000000 0.907547
    48 1.383648 0.000001 -0.000001 0.000000 0.000000 1.151884
    49 4.525586 0.000303 -1.850223 0.029257 0.019236 0.933763
    50 1.433227 0.000002 0.000000 0.000000 0.000000 0.907324
    51 1.153036 0.000004 0.000000 0.000000 0.000000 1.151753
    52 7.223970 5.068054 1.800000 -6.283184 -3.141399 4.712295
    53 7.223960 5.068053 -1.800000 -6.283184 -3.141399 4.712295
    54 7.223950 5.068052 0.000000 -6.283184 -3.141399 4.712295
    55 3.723979 2.768055 -0.395205 -6.283184 -3.141399 4.712294
    56 20.747295 -0.313698 4.522630 0.003878 0.001942 1.564441
    57 2.448332 0.177352 0.168606 1.543132 0.019570 -3.045716
  time 8
    0 0.028664 -46.815050 27.004143 0.038880 0.008790 -1.454884
    1 -0.526041 0.000001 9.745319 -1.570764 -1.570796 0.000000
    2 -0.000009 0.000014 5.615740 -0.009683 3.132957 0.255437
    3 15.693467 0.000042 -0.000137 -0.000002 0.000005 -0.772725
    4 22.146626 -0.000002 0.000000 -0.188856 0.001709 0.589092
    5 0.000009 -0.000011 -5.615755 0.063468 2.870651 -0.974300
    6 15.693451 0.000043 -0.000136 -0.000002 0.000005 -1.821401
    7 22.146624 -0.000001 0.000000 -0.153039 -0.012156 0.135936
    8 1.384163 -0.004727 0.000003 -0.025115 -0.011392 0.320816
    9 5.939812 -0.004729 0.000088 0.000000 0.000000 0.000000
    10 5.939812 -0.003975 0.000088 0.000000 0.017222 0.000000
    11 4.991436 -0.003974 0.000074 0.000000 0.000000 0.000000
    12 4.991427 -0.001574 0.000074 0.000000 0.000009 0.000016
    13 -0.001670 0.001564 3.638373 -0.000014 -1.284225 3.140794
    14 8.842823 0.000002 0.000054 -0.034481 0.213356 -0.692815
    15 0.001739 0.001585 -3.638374 -0.000014 1.284245 3.140766
    16 8.842813 0.000001 -0.000025 0.478020 -0.926304 -1.058189
    17 1.977402 -0.000032 0.003050 -0.069249 -0.010128 -0.183039
    18 9.341940 0.000000 0.000009 0.000000 0.000000 -1.943552
    19 11.168410 0.000002 -0.000001 -4.031763 -0.394478 0.516150
    20 1.364904 0.231181 -1.984410 2.565369 0.787582 1.289645
    21 1.748533 -0.000003 0.000002 0.000000 0.000000 -0.043585
    22 1.272493 0.000001 -0.000003 0.000000 0.000000 0.253072
    23 4.525584 -0.000299 -1.850222 0.062830 0.072738 0.735167
    24 1.719874 -0.000007 0.000000 0.000000 0.000000 0.619418
    25 1.383651 0.000003 0.000001 0.000000 0.000000 0.741566
    26 4.525585 -0.000096 -0.616739 0.033453 0.040263 0.733447
    27 1.807677 -0.000001 -0.000002 0.000000 0.000000 0.567102
    28 1.614256 -0.000004 0.000003 0.000000 0.000000 0.741755
    29 4.525583 0.000106 0.616741 0.021763 0.027388 0.733134
    30 1.719871 -0.000003 0.000000 0.000000 0.000000 0.366391
    31 1.383651 -0.000001 0.000001 0.000000 0.000000 0.741562
    32 4.525584 0.000309 1.850224 -0.024762 -0.024689 0.733175
    33 1.433228 -0.000003 0.000000 0.000000 0.000000 0.366391
    34 1.153038 -0.000001 0.000000 0.000000 0.000000 0.741559
    35 9.341949 0.000000 0.000007 0.000000 0.000000 -1.767716
    36 11.168407 0.000002 0.000011 1.655936 -0.709685 0.190799
    37 1.364906 0.231175 1.984408 -3.139678 0.004068 1.002176
    38 1.748534 0.000002 -0.000001 0.000000 0.000000 0.436228
    39 1.272493 0.000003 0.000002 0.000000 0.000000 0.322870
    40 4.525587 -0.000302 1.850221 -0.016281 -0.094622 0.192575
    41 1.719872 0.000007 0.000000 0.000000 0.000000 0.034907
    42 1.383647 0.000004 -0.000001 0.000000 0.000000 0.689317
    43 4.525585 -0.000102 0.616738 -0.040896 -0.032761 0.934331
    44 1.807677 -0.000002 -0.000002 0.000000 0.000000 0.907547
    45 1.614256 0.000001 0.000000 0.000000 0.000000 1.151884
    46 4.525587 0.000102 -0.616743 -0.026857 -0.022390 0.933833
    47 1.719867 0.000001 0.000001 0.000000 0.000000 0.907547
    48 1.383648 0.000001 -0.000001 0.000000 0.000000 1.151884
    49 4.525586 0.000303 -1.850223 0.029257 0.019236 0.933763
    50 1.433227 0.000002 0.000000 0.000000 0.000000 0.907324
    51 1.153036 0.000004 0.000000 0.000000 0.000000 1.151753
    52 7.223970 5.068054 1.800000 -6.283184 -3.141399 4.712295
    53 7.223960 5.068053 -1.800000 -6.283184 -3.141399 4.712295
    54 7.223950 5.068052 0.000000 -6.283184 -3.141399 4.712295
    55 3.723979 2.768055 -0.395205 -6.283184 -3.141399 4.712294
    56 20.747295 -0.313698 4.522630 0.003878 0.001942 1.564441
    57 2.448332 0.177352 0.168606 1.543132 0.019570 -3.045716
  time 9
    0 0.073880 -52.666077 27.611682 0.044381 0.005446 -1.420849
    1 -0.526041 0.000001 9.745319 -1.570764 -1.570796 0.000000
    2 -0.000009 0.000014 5.615740 -0.011792 3.181733 0.277801
    3 15.693467 0.000042 -0.000137 -0.000002 0.000005 -0.940538
    4 22.146626 -0.000002 0.000000 -0.189080 -0.022041 0.515198
    5 0.000009 -0.000011 -5.615755 0.128758 2.882827 -0.915348
    6 15.693451 0.000043 -0.000136 -0.000002 0.000005 -1.460709
    7 22.146624 -0.000001 0.000000 -0.088281 0.044111 0.144391
    8 1.384163 -0.004727 0.000003 -0.023499 -0.020489 0.281836
    9 5.939812 -0.004729 0.000088 0.000000 0.000000 0.000000
    10 5.939812 -0.003975 0.000088 0.000000 0.028391 0.000000
    11 4.991436 -0.003974 0.000074 0.000000 0.000000 0.000000
    12 4.991427 -0.001574 0.000074 0.000000 0.000009 0.000016
    13 -0.001670 0.001564 3.638373 -0.000014 -1.284225 3.140794
    14 8.842823 0.000002 0.000054 -0.010797 0.235868 -0.707745
    15 0.001739 0.001585 -3.638374 -0.000014 1.284245 3.140766
    16 8.842813 0.000001 -0.000025 0.504304 -0.929137 -1.082583
    17 1.977402 -0.000032 0.003050 -0.103345 -0.017464 -0.145968
    18 9.341940 0.000000 0.000009 0.000000 0.000000 -1.854661
    19 11.168410 0.000002 -0.000001 -4.043222 -0.395148 0.453552
    20 1.364904 0.231181 -1.984410 2.565369 0.787582 1.289645
    21 1.748533 -0.000003 0.000002 0.000000 0.000000 -0.043585
    22 1.272493 0.000001 -0.000003 0.000000 0.000000 0.253072
    23 4.525584 -0.000299 -1.850222 0.062830 0.072738 0.735167
    24 1.719874 -0.000007 0.000000 0.000000 0.000000 0.619418
    25 1.383651 0.000003 0.000001 0.000000 0.000000 0.741566
    26 4.525585 -0.000096 -0.616739 0.033453 0.040263 0.733447
    27 1.807677 -0.000001 -0.000002 0.000000 0.000000 0.567102
    28 1.614256 -0.000004 0.000003 0.000000 0.000000 0.741755
    29 4.525583 0.000106 0.616741 0.021763 0.027388 0.733134
    30 1.719871 -0.000003 0.000000 0.000000 0.000000 0.366391
    31 1.383651 -0.000001 0.000001 0.000000 0.000000 0.741562
    32 4.525584 0.000309 1.850224 -0.024762 -0.024689 0.733175
    33 1.433228 -0.000003 0.000000 0.000000 0.000000 0.366391
    34 1.153038 -0.000001 0.000000 0.000000 0.000000 0.741559
    35 9.341949 0.000000 0.000007 0.000000 0.000000 -1.692638
    36 11.168407 0.000002 0.000011 1.654631 -0.714722 0.169271
    37 1.364906 0.231175 1.984408 -3.139678 0.004068 1.002176
    38 1.748534 0.000002 -0.000001 0.000000 0.000000 0.436228
    39 1.272493 0.000003 0.000002 0.000000 0.000000 0.322870
    40 4.525587 -0.000302 1.850221 -0.016281 -0.094622 0.192575
    41 1.719872 0.000007 0.000000 0.000000 0.000000 0.034907
    42 1.383647 0.000004 -0.000001 0.000000 0.000000 0.689317
    43 4.525585 -0.000102 0.616738 -0.040896 -0.032761 0.934331
    44 1.807677 -0.000002 -0.000002 0.000000 0.000000 0.907547
    45 1.614256 0.000001 0.000000 0.000000 0.000000 1.151884
    46 4.525587 0.000102 -0.616743 -0.026857 -0.022390 0.933833
    47 1.719867 0.000001 0.000001 0.000000 0.000000 0.907547
    48 1.383648 0.000001 -0.000001 0.000000 0.000000 1.151884
    49 4.525586 0.000303 -1.850223 0.029257 0.019236 0.933763
    50 1.433227 0.000002 0.000000 0.000000 0.000000 0.907324
    51 1.153036 0.000004 0.000000 0.000000 0.000000 1.151753
    52 7.223970 5.068054 1.800000 -6.283184 -3.141399 4.712295
    53 7.223960 5.068053 -1.800000 -6.283184 -3.141399 4.712295
    54 7.223950 5.068052 0.000000 -6.283184 -3.141399 4.712295
    55 3.723979 2.768055 -0.395205 -6.283184 -3.141399 4.712294
    56 20.747295 -0.313698 4.522630 0.003878 0.001942 1.564441
    57 2.448332 0.177352 0.168606 1.543132 0.019570 -3.045716
  time 10
    0 0.058808 -58.524146 28.082034 0.048670 0.002580 -1.394100
    1 -0.526041 0.000001 9.745319 -1.570764 -1.570796 0.000000
    2 -0.000009 0.000014 5.615740 -0.019461 3.236259 0.328455
    3 15.693467 0.000042 -0.000137 -0.000002 0.000005 -1.065099
    4 22.146626 -0.000002 0.000000 -0.170763 -0.046534 0.406551
    5 0.000009 -0.000011 -5.615755 0.197021 2.902097 -0.842114
    6 15.693451 0.000043 -0.000136 -0.000002 0.000005 -1.084610
    7 22.146624 -0.000001 0.000000 -0.020759 0.079473 0.150028
    8 1.384163 -0.004727 0.000003 -0.019460 -0.028593 0.249417
    9 5.939812 -0.004729 0.000088 0.000000 0.000000 0.000000
    10 5.939812 -0.003975 0.000088 0.000013 0.038566 0.000000
    11 4.991436 -0.003974 0.000074 0.000000 0.000000 0.000000
    12 4.991427 -0.001574 0.000074 0.000000 0.000009 0.000016
    13 -0.001670 0.001564 3.638373 -0.000014 -1.284225 3.140794
    14 8.842823 0.000002 0.000054 0.001639 0.249542 -0.712895
    15 0.001739 0.001585 -3.638374 -0.000014 1.284245 3.140766
    16 8.842813 0.000001 -0.000025 0.534216 -0.925950 -1.118887
    17 1.977402 -0.000032 0.003050 -0.132630 -0.023943 -0.115456
    18 9.341940 0.000000 0.000009 0.000000 0.000000 -1.791190
    19 11.168410 0.000002 -0.000001 -4.058309 -0.389599 0.410313
    20 1.364904 0.231181 -1.984410 2.565369 0.787582 1.289645
    21 1.748533 -0.000003 0.000002 0.000000 0.000000 -0.043585
    22 1.272493 0.000001 -0.000003 0.000000 0.000000 0.253072
    23 4.525584 -0.000299 -1.850222 0.062830 0.072738 0.735167
    24 1.719874 -0.000007 0.000000 0.000000 0.000000 0.619418
    25 1.383651 0.000003 0.000001 0.000000 0.000000 0.741566
    26 4.525585 -0.000096 -0.616739 0.033453 0.040263 0.733447
    27 1.807677 -0.000001 -0.000002 0.000000 0.000000 0.567102
    28 1.614256 -0.000004 0.000003 0.000000 0.000000 0.741755
    29 4.525583 0.000106 0.616741 0.021763 0.027388 0.733134
    30 1.719871 -0.000003 0.000000 0.000000 0.000000 0.366391
    31 1.383651 -0.000001 0.000001 0.000000 0.000000 0.741562
    32 4.525584 0.000309 1.850224 -0.024762 -0.024689 0.733175
    33 1.433228 -0.000003 0.000000 0.000000 0.000000 0.366391
    34 1.153038 -0.000001 0.000000 0.000000 0.000000 0.741559
    35 9.341949 0.000000 0.000007 0.000000 0.000000 -1.630417
    36 11.168407 0.000002 0.000011 1.652114 -0.717954 0.162878
    37 1.364906 0.231175 1.984408 -3.139678 0.004068 1.002176
    38 1.748534 0.000002 -0.000001 0.000000 0.000000 0.436228
    39 1.272493 0.000003 0.000002 0.000000 0.000000 0.322870
    40 4.525587 -0.000302 1.850221 -0.016281 -0.094622 0.192575
    41 1.719872 0.000007 0.000000 0.000000 0.000000 0.034907
    42 1.383647 0.000004 -0.000001 0.000000 0.000000 0.689317
    43 4.525585 -0.000102 0.616738 -0.040896 -0.032761 0.934331
    44 1.807677 -0.000002 -0.000002 0.000000 0.000000 0.907547
    45 1.614256 0.000001 0.000000 0.000000 0.000000 1.151884
    46 4.525587 0.000102 -0.616743 -0.026857 -0.022390 0.933833
    47 1.719867 0.000001 0.000001 0.000000 0.000000 0.907547
    48 1.383648 0.000001 -0.000001 0.000000 0.000000 1.151884
    49 4.525586 0.000303 -1.850223 0.029257 0.019236 0.933763
    50 1.433227 0.000002 0.000000 0.000000 0.000000 0.907324
    51 1.153036 0.000004 0.000000 0.000000 0.000000 1.151753
    52 7.223970 5.068054 1.800000 -6.283184 -3.141399 4.712295
    53 7.223960 5.068053 -1.800000 -6.283184 -3.141399 4.712295
    54 7.223950 5.068052 0.000000 -6.283184 -3.141399 4.712295
    55 3.723979 2.768055 -0.395205 -6.283184 -3.141399 4.712294
    56 20.747295 -0.313698 4.522630 0.003878 0.001942 1.564441
    57 2.448332 0.177352 0.168606 1.543132 0.019570 -3.045716
  time 11
    0 0.036200 -64.368130 28.317210 0.051374 0.000478 -1.376651
    1 -0.526041 0.000001 9.745319 -1.570764 -1.570796 0.000000
    2 -0.000009 0.000014 5.615740 -0.028856 3.284939 0.366301
    3 15.693467 0.000042 -0.000137 -0.000002 0.000005 -1.191581
    4 22.146626 -0.000002 0.000000 -0.127325 -0.055598 0.284324
    5 0.000009 -0.000011 -5.615755 0.265762 2.924818 -0.772427
    6 15.693451 0.000043 -0.000136 -0.000002 0.000005 -0.731361
    7 22.146624 -0.000001 0.000000 0.036102 0.094238 0.146681
    8 1.384163 -0.004727 0.000003 -0.015791 -0.033611 0.230092
    9 5.939812 -0.004729 0.000088 0.000000 0.000000 0.000000
    10 5.939812 -0.003975 0.000088 0.000026 0.046908 0.000000
    11 4.991436 -0.003974 0.000074 0.000000 0.000000 0.000000
    12 4.991427 -0.001574 0.000074 0.000000 0.000009 0.000016
    13 -0.001670 0.001564 3.638373 -0.000014 -1.284225 3.140794
    14 8.842823 0.000002 0.000054 -0.001562 0.247124 -0.690724
    15 0.001739 0.001585 -3.638374 -0.000014 1.284245 3.140766
    16 8.842813 0.000001 -0.000025 0.567353 -0.911520 -1.174631
    17 1.977402 -0.000032 0.003050 -0.152930 -0.029913 -0.097417
    18 9.341940 0.000000 0.000009 0.000000 0.000000 -1.785860
    19 11.168410 0.000002 -0.000001 -4.079317 -0.373237 0.402009
    20 1.364904 0.231181 -1.984410 2.565369 0.787582 1.289645
    21 1.748533 -0.000003 0.000002 0.000000 0.000000 -0.043585
    22 1.272493 0.000001 -0.000003 0.000000 0.000000 0.253072
    23 4.525584 -0.000299 -1.850222 0.062830 0.072738 0.735167
    24 1.719874 -0.000007 0.000000 0.000000 0.000000 0.619418
    25 1.383651 0.000003 0.000001 0.000000 0.000000 0.741566
    26 4.525585 -0.000096 -0.616739 0.033453 0.040263 0.733447
    27 1.807677 -0.000001 -0.000002 0.000000 0.000000 0.567102
    28 1.614256 -0.000004 0.000003 0.000000 0.000000 0.741755
    29 4.525583 0.000106 0.616741 0.021763 0.027388 0.733134
    30 1.719871 -0.000003 0.000000 0.000000 0.000000 0.366391
    31 1.383651 -0.000001 0.000001 0.000000 0.000000 0.741562
    32 4.525584 0.000309 1.850224 -0.024762 -0.024689 0.733175
    33 1.433228 -0.000003 0.000000 0.000000 0.000000 0.366391
    34 1.153038 -0.000001 0.000000 0.000000 0.000000 0.741559
    35 9.341949 0.000000 0.000007 0.000000 0.000000 -1.595376
    36 11.168407 0.000002 0.000011 1.650250 -0.716718 0.185252
    37 1.364906 0.231175 1.984408 -3.139678 0.004068 1.002176
    38 1.748534 0.000002 -0.000001 0.000000 0.000000 0.436228
    39 1.272493 0.000003 0.000002 0.000000 0.000000 0.322870
    40 4.525587 -0.000302 1.850221 -0.016281 -0.094622 0.192575
    41 1.719872 0.000007 0.000000 0.000000 0.000000 0.034907
    42 1.383647 0.000004 -0.000001 0.000000 0.000000 0.689317
    43 4.525585 -0.000102 0.616738 -0.040896 -0.032761 0.934331
    44 1.807677 -0.000002 -0.000002 0.000000 0.000000 0.907547
    45 1.614256 0.000001 0.000000 0.000000 0.000000 1.151884
    46 4.525587 0.000102 -0.616743 -0.026857 -0.022390 0.933833
    47 1.719867 0.000001 0.000001 0.000000 0.000000 0.907547
    48 1.383648 0.000001 -0.000001 0.000000 0.000000 1.151884
    49 4.525586 0.000303 -1.850223 0.029257 0.019236 0.933763
    50 1.433227 0.000002 0.000000 0.000000 0.000000 0.907324
    51 1.153036 0.000004 0.000000 0.000000 0.000000 1.151753
    52 7.223970 5.068054 1.800000 -6.283184 -3.141399 4.712295
    53 7.223960 5.068053 -1.800000 -6.283184 -3.141399 4.712295
    54 7.223950 5.068052 0.000000 -6.283184 -3.141399 4.712295
    55 3.723979 2.768055 -0.395205 -6.283184 -3.141399 4.712294
    56 20.747295 -0.313698 4.522630 0.003878 0.001942 1.564441
    57 2.448332 0.177352 0.168606 1.543132 0.019570 -3.045716
  time 12
    0 0.028664 -70.226199 28.258416 0.052213 0.000000 -1.370515
    1 -0.526041 0.000001 9.745319 -1.570764 -1.570796 0.000000
    2 -0.000009 0.000014 5.615740 -0.029336 3.323078 0.366397
    3 15.693467 0.000042 -0.000137 -0.000002 0.000005 -1.354130
    4 22.146626 -0.000002 0.000000 -0.065083 -0.040838 0.178330
    5 0.000009 -0.000011 -5.615755 0.333066 2.944759 -0.723061
    6 15.693451 0.000043 -0.000136 -0.000002 0.000005 -0.438327
    7 22.146624 -0.000001 0.000000 0.071471 0.094238 0.126952
    8 1.384163 -0.004727 0.000003 -0.015118 -0.034040 0.229912
    9 5.939812 -0.004729 0.000088 0.000000 0.000000 0.000000
    10 5.939812 -0.003975 0.000088 0.000026 0.052349 0.000000
    11 4.991436 -0.003974 0.000074 0.000000 0.000000 0.000000
    12 4.991427 -0.001574 0.000074 0.000000 0.000009 0.000016
    13 -0.001670 0.001564 3.638373 -0.000014 -1.284225 3.140794
    14 8.842823 0.000002 0.000054 -0.026068 0.223495 -0.622345
    15 0.001739 0.001585 -3.638374 -0.000014 1.284245 3.140766
    16 8.842813 0.000001 -0.000025 0.598555 -0.881421 -1.255530
    17 1.977402 -0.000032 0.003050 -0.159114 -0.035837 -0.097616
    18 9.341940 0.000000 0.000009 0.000000 0.000000 -1.859581
    19 11.168410 0.000002 -0.000001 -4.108727 -0.344723 0.435765
    20 1.364904 0.231181 -1.984410 2.565369 0.787582 1.289645
    21 1.748533 -0.000003 0.000002 0.000000 0.000000 -0.043585
    22 1.272493 0.000001 -0.000003 0.000000 0.000000 0.253072
    23 4.525584 -0.000299 -1.850222 0.062830 0.072738 0.735167
    24 1.719874 -0.000007 0.000000 0.000000 0.000000 0.619418
    25 1.383651 0.000003 0.000001 0.000000 0.000000 0.741566
    26 4.525585 -0.000096 -0.616739 0.033453 0.040263 0.733447
    27 1.807677 -0.000001 -0.000002 0.000000 0.000000 0.567102
    28 1.614256 -0.000004 0.000003 0.000000 0.000000 0.741755
    29 4.525583 0.000106 0.616741 0.021763 0.027388 0.733134
    30 1.719871 -0.000003 0.000000 0.000000 0.000000 0.366391
    31 1.383651 -0.000001 0.000001 0.000000 0.000000 0.741562
    32 4.525584 0.000309 1.850224 -0.024762 -0.024689 0.733175
    33 1.433228 -0.000003 0.000000 0.000000 0.000000 0.366391
    34 1.153038 -0.000001 0.000000 0.000000 0.000000 0.741559
    35 9.341949 0.000000 0.000007 0.000000 0.000000 -1.592045
    36 11.168407 0.000002 0.000011 1.649784 -0.708735 0.241470
    37 1.364906 0.231175 1.984408 -3.139678 0.004068 1.002176
    38 1.748534 0.000002 -0.000001 0.000000 0.000000 0.436228
    39 1.272493 0.000003 0.000002 0.000000 0.000000 0.322870
    40 4.525587 -0.000302 1.850221 -0.016281 -0.094622 0.192575
    41 1.719872 0.000007 0.000000 0.000000 0.000000 0.034907
    42 1.383647 0.000004 -0.000001 0.000000 0.000000 0.689317
    43 4.525585 -0.000102 0.616738 -0.040896 -0.032761 0.934331
    44 1.807677 -0.000002 -0.000002 0.000000 0.000000 0.907547
    45 1.614256 0.000001 0.000000 0.000000 0.000000 1.151884
    46 4.525587 0.000102 -0.616743 -0.026857 -0.022390 0.933833
    47 1.719867 0.000001 0.000001 0.000000 0.000000 0.907547
    48 1.383648 0.000001 -0.000001 0.000000 0.000000 1.151884
    49 4.525586 0.000303 -1.850223 0.029257 0.019236 0.933763
    50 1.433227 0.000002 0.000000 0.000000 0.000000 0.907324
    51 1.153036 0.000004 0.000000 0.000000 0.000000 1.151753
    52 7.223970 5.068054 1.800000 -6.283184 -3.141399 4.712295
    53 7.223960 5.068053 -1.800000 -6.283184 -3.141399 4.712295
    54 7.223950 5.068052 0.000000 -6.283184 -3.141399 4.712295
    55 3.723979 2.768055 -0.395205 -6.283184 -3.141399 4.712294
    56 20.747295 -0.313698 4.522630 0.003878 0.001942 1.564441
    57 2.448332 0.177352 0.168606 1.543132 0.019570 -3.045716
  time 13
    0 0.073880 -76.077225 27.552888 0.051467 0.000287 -1.375213
    1 -0.526041 0.000001 9.745319 -1.570764 -1.570796 0.000000
    2 -0.000009 0.000014 5.615740 0.034129 3.304679 0.042024
    3 15.693467 0.000042 -0.000137 -0.000002 0.000005 -1.807772
    4 22.146626 -0.000002 0.000000 0.166800 0.002774 0.040327
    5 0.000009 -0.000011 -5.615755 0.438814 2.937377 -0.717885
    6 15.693451 0.000043 -0.000136 -0.000002 0.000005 -0.595525
    7 22.146624 -0.000001 0.000000 0.066281 -0.101912 -0.122836
    8 1.384163 -0.004727 0.000003 -0.021244 -0.019174 0.298584
    9 5.939812 -0.004729 0.000088 0.000000 0.000000 0.000000
    10 5.939812 -0.003975 0.000088 0.000026 0.050287 0.000000
    11 4.991436 -0.003974 0.000074 0.000000 0.000000 0.000000
    12 4.991427 -0.001574 0.000074 0.000000 0.000009 0.000016
    13 -0.001670 0.001564 3.638373 -0.000014 -1.284225 3.140794
    14 8.842823 0.000002 0.000054 0.023677 0.251031 -0.654445
    15 0.001739 0.001585 -3.638374 -0.000014 1.284245 3.140766
    16 8.842813 0.000001 -0.000025 0.563080 -0.884077 -1.211698
    17 1.977402 -0.000032 0.003050 -0.144894 -0.045764 -0.166839
    18 9.341940 0.000000 0.000009 0.000000 0.000000 -1.768557
    19 11.168410 0.000002 -0.000001 -4.055253 -0.451697 0.312190
    20 1.364904 0.231181 -1.984410 2.565369 0.787582 1.289645
    21 1.748533 -0.000003 0.000002 0.000000 0.000000 -0.043585
    22 1.272493 0.000001 -0.000003 0.000000 0.000000 0.253072
    23 4.525584 -0.000299 -1.850222 0.062830 0.072738 0.735167
    24 1.719874 -0.000007 0.000000 0.000000 0.000000 0.619418
    25 1.383651 0.000003 0.000001 0.000000 0.000000 0.741566
    26 4.525585 -0.000096 -0.616739 0.033453 0.040263 0.733447
    27 1.807677 -0.000001 -0.000002 0.000000 0.000000 0.567102
    28 1.614256 -0.000004 0.000003 0.000000 0.000000 0.741755
    29 4.525583 0.000106 0.616741 0.021763 0.027388 0.733134
    30 1.719871 -0.000003 0.000000 0.000000 0.000000 0.366391
    31 1.383651 -0.000001 0.000001 0.000000 0.000000 0.741562
    32 4.525584 0.000309 1.850224 -0.024762 -0.024689 0.733175
    33 1.433228 -0.000003 0.000000 0.000000 0.000000 0.366391
    34 1.153038 -0.000001 0.000000 0.000000 0.000000 0.741559
    35 9.341949 0.000000 0.000007 0.000000 0.000000 -1.533355
    36 11.168407 0.000002 0.000011 1.612031 -0.693054 0.129223
    37 1.364906 0.231175 1.984408 -3.139678 0.004068 1.002176
    38 1.748534 0.000002 -0.000001 0.000000 0.000000 0.436228
    39 1.272493 0.000003 0.000002 0.000000 0.000000 0.322870
    40 4.525587 -0.000302 1.850221 -0.016281 -0.094622 0.192575
    41 1.719872 0.000007 0.000000 0.000000 0.000000 0.034907
    42 1.383647 0.000004 -0.000001 0.000000 0.000000 0.689317
    43 4.525585 -0.000102 0.616738 -0.040896 -0.032761 0.934331
    44 1.807677 -0.000002 -0.000002 0.000000 0.000000 0.907547
    45 1.614256 0.000001 0.000000 0.000000 0.000000 1.151884
    46 4.525587 0.000102 -0.616743 -0.026857 -0.022390 0.933833
    47 1.719867 0.000001 0.000001 0.000000 0.000000 0.907547
    48 1.383648 0.000001 -0.000001 0.000000 0.000000 1.151884
    49 4.525586 0.000303 -1.850223 0.029257 0.019236 0.933763
    50 1.433227 0.000002 0.000000 0.000000 0.000000 0.907324
    51 1.153036 0.000004 0.000000 0.000000 0.000000 1.151753
    52 7.223970 5.068054 1.800000 -6.283184 -3.141399 4.712295
    53 7.223960 5.068053 -1.800000 -6.283184 -3.141399 4.712295
    54 7.223950 5.068052 0.000000 -6.283184 -3.141399 4.712295
    55 3.723979 2.768055 -0.395205 -6.283184 -3.141399 4.712294
    56 20.747295 -0.313698 4.522630 0.003878 0.001942 1.564441
    57 2.448332 0.177352 0.168606 1.543132 0.019570 -3.045716
  time 14
    0 0.051272 -81.935294 26.690575 0.049043 0.001720 -1.389498
    1 -0.526041 0.000001 9.745319 -1.570764 -1.570796 0.000000
    2 -0.000009 0.000014 5.615740 -0.012559 3.334002 -0.152370
    3 15.693467 0.000042 -0.000137 -0.000002 0.000005 -2.035412
    4 22.146626 -0.000002 0.000000 0.158913 0.115926 -0.069097
    5 0.000009 -0.000011 -5.615755 0.344379 2.910629 -0.784601
    6 15.693451 0.000043 -0.000136 -0.000002 0.000005 -0.986510
    7 22.146624 -0.000001 0.000000 0.089691 -0.068177 0.159012
    8 1.384163 -0.004727 0.000003 -0.026865 0.007661 0.418940
    9 5.939812 -0.004729 0.000088 0.000000 0.000000 0.000000
    10 5.939812 -0.003975 0.000088 0.000013 0.040664 0.000000
    11 4.991436 -0.003974 0.000074 0.000000 0.000000 0.000000
    12 4.991427 -0.001574 0.000074 0.000000 0.000009 0.000016
    13 -0.001670 0.001564 3.638373 -0.000014 -1.284225 3.140794
    14 8.842823 0.000002 0.000054 0.030444 0.244054 -0.622345
    15 0.001739 0.001585 -3.638374 -0.000014 1.284245 3.140766
    16 8.842813 0.000001 -0.000025 0.512286 -0.864601 -1.190258
    17 1.977402 -0.000032 0.003050 -0.118040 -0.055668 -0.288588
    18 9.341940 0.000000 0.000009 0.000000 0.000000 -1.810789
    19 11.168410 0.000002 -0.000001 -3.991466 -0.538099 0.236571
    20 1.364904 0.231181 -1.984410 2.565369 0.787582 1.289645
    21 1.748533 -0.000003 0.000002 0.000000 0.000000 -0.043585
    22 1.272493 0.000001 -0.000003 0.000000 0.000000 0.253072
    23 4.525584 -0.000299 -1.850222 0.062830 0.072738 0.735167
    24 1.719874 -0.000007 0.000000 0.000000 0.000000 0.619418
    25 1.383651 0.000003 0.000001 0.000000 0.000000 0.741566
    26 4.525585 -0.000096 -0.616739 0.033453 0.040263 0.733447
    27 1.807677 -0.000001 -0.000002 0.000000 0.000000 0.567102
    28 1.614256 -0.000004 0.000003 0.000000 0.000000 0.741755
    29 4.525583 0.000106 0.616741 0.021763 0.027388 0.733134
    30 1.719871 -0.000003 0.000000 0.000000 0.000000 0.366391
    31 1.383651 -0.000001 0.000001 0.000000 0.000000 0.741562
    32 4.525584 0.000309 1.850224 -0.024762 -0.024689 0.733175
    33 1.433228 -0.000003 0.000000 0.000000 0.000000 0.366391
    34 1.153038 -0.000001 0.000000 0.000000 0.000000 0.741559
    35 9.341949 0.000000 0.000007 0.000000 0.000000 -1.563799
    36 11.168407 0.000002 0.000011 1.560482 -0.654374 0.090021
    37 1.364906 0.231175 1.984408 -3.139678 0.004068 1.002176
    38 1.748534 0.000002 -0.000001 0.000000 0.000000 0.436228
    39 1.272493 0.000003 0.000002 0.000000 0.000000 0.322870
    40 4.525587 -0.000302 1.850221 -0.016281 -0.094622 0.192575
    41 1.719872 0.000007 0.000000 0.000000 0.000000 0.034907
    42 1.383647 0.000004 -0.000001 0.000000 0.000000 0.689317
    43 4.525585 -0.000102 0.616738 -0.040896 -0.032761 0.934331
    44 1.807677 -0.000002 -0.000002 0.000000 0.000000 0.907547
    45 1.614256 0.000001 0.000000 0.000000 0.000000 1.151884
    46 4.525587 0.000102 -0.616743 -0.026857 -0.022390 0.933833
    47 1.719867 0.000001 0.000001 0.000000 0.000000 0.907547
    48 1.383648 0.000001 -0.000001 0.000000 0.000000 1.151884
    49 4.525586 0.000303 -1.850223 0.029257 0.019236 0.933763
    50 1.433227 0.000002 0.000000 0.000000 0.000000 0.907324
    51 1.153036 0.000004 0.000000 0.000000 0.000000 1.151753
    52 7.223970 5.068054 1.800000 -6.283184 -3.141399 4.712295
    53 7.223960 5.068053 -1.800000 -6.283184 -3.141399 4.712295
    54 7.223950 5.068052 0.000000 -6.283184 -3.141399 4.712295
    55 3.723979 2.768055 -0.395205 -6.283184 -3.141399 4.712294
    56 20.747295 -0.313698 4.522630 0.003878 0.001942 1.564441
    57 2.448332 0.177352 0.168606 1.543132 0.019570 -3.045716
  time 15
    0 0.036200 -87.779278 25.828263 0.045127 0.003822 -1.411166
    1 -0.526041 0.000001 9.745319 -1.570764 -1.570796 0.000000
    2 -0.000009 0.000014 5.615740 -0.038443 3.331223 -0.315512
    3 15.693467 0.000042 -0.000137 -0.000002 0.000005 -2.137351
    4 22.146626 -0.000002 0.000000 0.137044 0.153222 -0.040701
    5 0.000009 -0.000011 -5.615755 0.260489 2.968631 -0.718460
    6 15.693451 0.000043 -0.000136 -0.000002 0.000005 -1.163953
    7 22.146624 -0.000001 0.000000 0.122916 -0.035117 0.435839
    8 1.384163 -0.004727 0.000003 -0.022422 0.025667 0.496900
    9 5.939812 -0.004729 0.000088 0.000000 0.000000 0.000000
    10 5.939812 -0.003975 0.000088 0.000000 0.028679 0.000000
    11 4.991436 -0.003974 0.000074 0.000000 0.000000 0.000000
    12 4.991427 -0.001574 0.000074 0.000000 0.000009 0.000016
    13 -0.001670 0.001564 3.638373 -0.000014 -1.284225 3.140794
    14 8.842823 0.000002 0.000054 0.026969 0.243868 -0.662731
    15 0.001739 0.001585 -3.638374 -0.000014 1.284245 3.140766
    16 8.842813 0.000001 -0.000025 0.536796 -0.833351 -1.221226
    17 1.977402 -0.000032 0.003050 -0.096155 -0.057381 -0.367949
    18 9.341940 0.000000 0.000009 0.000000 0.000000 -1.731902
    19 11.168410 0.000002 -0.000001 -3.934173 -0.592829 0.129309
    20 1.364904 0.231181 -1.984410 2.565369 0.787582 1.289645
    21 1.748533 -0.000003 0.000002 0.000000 0.000000 -0.043585
    22 1.272493 0.000001 -0.000003 0.000000 0.000000 0.253072
    23 4.525584 -0.000299 -1.850222 0.062830 0.072738 0.735167
    24 1.719874 -0.000007 0.000000 0.000000 0.000000 0.619418
    25 1.383651 0.000003 0.000001 0.000000 0.000000 0.741566
    26 4.525585 -0.000096 -0.616739 0.033453 0.040263 0.733447
    27 1.807677 -0.000001 -0.000002 0.000000 0.000000 0.567102
    28 1.614256 -0.000004 0.000003 0.000000 0.000000 0.741755
    29 4.525583 0.000106 0.616741 0.021763 0.027388 0.733134
    30 1.719871 -0.000003 0.000000 0.000000 0.000000 0.366391
    31 1.383651 -0.000001 0.000001 0.000000 0.000000 0.741562
    32 4.525584 0.000309 1.850224 -0.024762 -0.024689 0.733175
    33 1.433228 -0.000003 0.000000 0.000000 0.000000 0.366391
    34 1.153038 -0.000001 0.000000 0.000000 0.000000 0.741559
    35 9.341949 0.000000 0.000007 0.000000 0.000000 -1.483458
    36 11.168407 0.000002 0.000011 1.529068 -0.647246 -0.003706
    37 1.364906 0.231175 1.984408 -3.139678 0.004068 1.002176
    38 1.748534 0.000002 -0.000001 0.000000 0.000000 0.436228
    39 1.272493 0.000003 0.000002 0.000000 0.000000 0.322870
    40 4.525587 -0.000302 1.850221 -0.016281 -0.094622 0.192575
    41 1.719872 0.000007 0.000000 0.000000 0.000000 0.034907
    42 1.383647 0.000004 -0.000001 0.000000 0.000000 0.689317
    43 4.525585 -0.000102 0.616738 -0.040896 -0.032761 0.934331
    44 1.807677 -0.000002 -0.000002 0.000000 0.000000 0.907547
    45 1.614256 0.000001 0.000000 0.000000 0.000000 1.151884
    46 4.525587 0.000102 -0.616743 -0.026857 -0.022390 0.933833
    47 1.719867 0.000001 0.000001 0.000000 0.000000 0.907547
    48 1.383648 0.000001 -0.000001 0.000000 0.000000 1.151884
    49 4.525586 0.000303 -1.850223 0.029257 0.019236 0.933763
    50 1.433227 0.000002 0.000000 0.000000 0.000000 0.907324
    51 1.153036 0.000004 0.000000 0.000000 0.000000 1.151753
    52 7.223970 5.068054 1.800000 -6.283184 -3.141399 4.712295
    53 7.223960 5.068053 -1.800000 -6.283184 -3.141399 4.712295
    54 7.223950 5.068052 0.000000 -6.283184 -3.141399 4.712295
    55 3.723979 2.768055 -0.395205 -6.283184 -3.141399 4.712294
    56 20.747295 -0.313698 4.522630 0.003878 0.001942 1.564441
    57 2.448332 0.177352 0.168606 1.543132 0.019570 -3.045716
  time 16
    0 0.051272 -93.630305 25.475498 0.040092 0.006306 -1.439736
    1 -0.526041 0.000001 9.745319 -1.570764 -1.570796 0.000000
    2 -0.000009 0.000014 5.615740 -0.062218 3.328253 -0.487255
    3 15.693467 0.000042 -0.000137 -0.000002 0.000005 -2.255795
    4 22.146626 -0.000002 0.000000 0.117194 0.191930 0.005163
    5 0.000009 -0.000011 -5.615755 0.188200 3.065268 -0.530294
    6 15.693451 0.000043 -0.000136 -0.000002 0.000005 -1.155468
    7 22.146624 -0.000001 0.000000 0.158736 -0.025601 0.664664
    8 1.384163 -0.004727 0.000003 0.002015 0.022232 0.487851
    9 5.939812 -0.004729 0.000088 0.000000 0.000000 0.000000
    10 5.939812 -0.003975 0.000088 0.000000 0.013375 0.000000
    11 4.991436 -0.003974 0.000074 0.000000 0.000000 0.000000
    12 4.991427 -0.001574 0.000074 0.000000 0.000009 0.000016
    13 -0.001670 0.001564 3.638373 -0.000014 -1.284225 3.140794
    14 8.842823 0.000002 0.000054 0.016636 0.212146 -0.665717
    15 0.001739 0.001585 -3.638374 -0.000014 1.284245 3.140766
    16 8.842813 0.000001 -0.000025 0.438674 -0.895054 -1.072673
    17 1.977402 -0.000032 0.003050 -0.099116 -0.045510 -0.358656
    18 9.341940 0.000000 0.000009 0.000000 0.000000 -1.859827
    19 11.168410 0.000002 -0.000001 -3.959764 -0.553791 0.262367
    20 1.364904 0.231181 -1.984410 2.565369 0.787582 1.289645
    21 1.748533 -0.000003 0.000002 0.000000 0.000000 -0.043585
    22 1.272493 0.000001 -0.000003 0.000000 0.000000 0.253072
    23 4.525584 -0.000299 -1.850222 0.062830 0.072738 0.735167
    24 1.719874 -0.000007 0.000000 0.000000 0.000000 0.619418
    25 1.383651 0.000003 0.000001 0.000000 0.000000 0.741566
    26 4.525585 -0.000096 -0.616739 0.033453 0.040263 0.733447
    27 1.807677 -0.000001 -0.000002 0.000000 0.000000 0.567102
    28 1.614256 -0.000004 0.000003 0.000000 0.000000 0.741755
    29 4.525583 0.000106 0.616741 0.021763 0.027388 0.733134
    30 1.719871 -0.000003 0.000000 0.000000 0.000000 0.366391
    31 1.383651 -0.000001 0.000001 0.000000 0.000000 0.741562
    32 4.525584 0.000309 1.850224 -0.024762 -0.024689 0.733175
    33 1.433228 -0.000003 0.000000 0.000000 0.000000 0.366391
    34 1.153038 -0.000001 0.000000 0.000000 0.000000 0.741559
    35 9.341949 0.000000 0.000007 0.000000 0.000000 -1.700299
    36 11.168407 0.000002 0.000011 1.532983 -0.630519 0.100362
    37 1.364906 0.231175 1.984408 -3.139678 0.004068 1.002176
    38 1.748534 0.000002 -0.000001 0.000000 0.000000 0.436228
    39 1.272493 0.000003 0.000002 0.000000 0.000000 0.322870
    40 4.525587 -0.000302 1.850221 -0.016281 -0.094622 0.192575
    41 1.719872 0.000007 0.000000 0.000000 0.000000 0.034907
    42 1.383647 0.000004 -0.000001 0.000000 0.000000 0.689317
    43 4.525585 -0.000102 0.616738 -0.040896 -0.032761 0.934331
    44 1.807677 -0.000002 -0.000002 0.000000 0.000000 0.907547
    45 1.614256 0.000001 0.000000 0.000000 0.000000 1.151884
    46 4.525587 0.000102 -0.616743 -0.026857 -0.022390 0.933833
    47 1.719867 0.000001 0.000001 0.000000 0.000000 0.907547
    48 1.383648 0.000001 -0.000001 0.000000 0.000000 1.151884
    49 4.525586 0.000303 -1.850223 0.029257 0.019236 0.933763
    50 1.433227 0.000002 0.000000 0.000000 0.000000 0.907324
    51 1.153036 0.000004 0.000000 0.000000 0.000000 1.151753
    52 7.223970 5.068054 1.800000 -6.283184 -3.141399 4.712295
    53 7.223960 5.068053 -1.800000 -6.283184 -3.141399 4.712295
    54 7.223950 5.068052 0.000000 -6.283184 -3.141399 4.712295
    55 3.723979 2.768055 -0.395205 -6.283184 -3.141399 4.712294
    56 20.747295 -0.313698 4.522630 0.003878 0.001942 1.564441
    57 2.448332 0.177352 0.168606 1.543132 0.019570 -3.045716
  time 17
    0 0.066344 -99.481331 25.691077 0.034125 0.009554 -1.473292
    1 -0.526041 0.000001 9.745319 -1.570764 -1.570796 0.000000
    2 -0.000009 0.000014 5.615740 -0.086377 3.326815 -0.649824
    3 15.693467 0.000042 -0.000137 -0.000002 0.000005 -2.347989
    4 22.146626 -0.000002 0.000000 0.100933 0.221128 0.056468
    5 0.000009 -0.000011 -5.615755 0.115144 3.154428 -0.234770
    6 15.693451 0.000043 -0.000136 -0.000002 0.000005 -0.957110
    7 22.146624 -0.000001 0.000000 0.179100 -0.032354 0.770621
    8 1.384163 -0.004727 0.000003 0.033823 0.010908 0.436138
    9 5.939812 -0.004729 0.000088 0.000000 0.000000 0.000000
    10 5.939812 -0.003975 0.000088 0.000000 -0.004195 0.000000
    11 4.991436 -0.003974 0.000074 0.000000 0.000000 0.000000
    12 4.991427 -0.001574 0.000074 0.000000 0.000009 0.000016
    13 -0.001670 0.001564 3.638373 -0.000014 -1.284225 3.140794
    14 8.842823 0.000002 0.000054 0.036570 0.213356 -0.748354
    15 0.001739 0.001585 -3.638374 -0.000014 1.284245 3.140766
    16 8.842813 0.000001 -0.000025 0.371513 -0.970656 -0.918402
    17 1.977402 -0.000032 0.003050 -0.107891 -0.024244 -0.307074
    18 9.341940 0.000000 0.000009 0.000000 0.000000 -1.830060
    19 11.168410 0.000002 -0.000001 -3.972082 -0.525468 0.324572
    20 1.364904 0.231181 -1.984410 2.565369 0.787582 1.289645
    21 1.748533 -0.000003 0.000002 0.000000 0.000000 -0.043585
    22 1.272493 0.000001 -0.000003 0.000000 0.000000 0.253072
    23 4.525584 -0.000299 -1.850222 0.062830 0.072738 0.735167
    24 1.719874 -0.000007 0.000000 0.000000 0.000000 0.619418
    25 1.383651 0.000003 0.000001 0.000000 0.000000 0.741566
    26 4.525585 -0.000096 -0.616739 0.033453 0.040263 0.733447
    27 1.807677 -0.000001 -0.000002 0.000000 0.000000 0.567102
    28 1.614256 -0.000004 0.000003 0.000000 0.000000 0.741755
    29 4.525583 0.000106 0.616741 0.021763 0.027388 0.733134
    30 1.719871 -0.000003 0.000000 0.000000 0.000000 0.366391
    31 1.383651 -0.000001 0.000001 0.000000 0.000000 0.741562
    32 4.525584 0.000309 1.850224 -0.024762 -0.024689 0.733175
    33 1.433228 -0.000003 0.000000 0.000000 0.000000 0.366391
    34 1.153038 -0.000001 0.000000 0.000000 0.000000 0.741559
    35 9.341949 0.000000 0.000007 0.000000 0.000000 -1.779241
    36 11.168407 0.000002 0.000011 1.547525 -0.652853 0.093875
    37 1.364906 0.231175 1.984408 -3.139678 0.004068 1.002176
    38 1.748534 0.000002 -0.000001 0.000000 0.000000 0.436228
    39 1.272493 0.000003 0.000002 0.000000 0.000000 0.322870
    40 4.525587 -0.000302 1.850221 -0.016281 -0.094622 0.192575
    41 1.719872 0.000007 0.000000 0.000000 0.000000 0.034907
    42 1.383647 0.000004 -0.000001 0.000000 0.000000 0.689317
    43 4.525585 -0.000102 0.616738 -0.040896 -0.032761 0.934331
    44 1.807677 -0.000002 -0.000002 0.000000 0.000000 0.907547
    45 1.614256 0.000001 0.000000 0.000000 0.000000 1.151884
    46 4.525587 0.000102 -0.616743 -0.026857 -0.022390 0.933833
    47 1.719867 0.000001 0.000001 0.000000 0.000000 0.907547
    48 1.383648 0.000001 -0.000001 0.000000 0.000000 1.151884
    49 4.525586 0.000303 -1.850223 0.029257 0.019236 0.933763
    50 1.433227 0.000002 0.000000 0.000000 0.000000 0.907324
    51 1.153036 0.000004 0.000000 0.000000 0.000000 1.151753
    52 7.223970 5.068054 1.800000 -6.283184 -3.141399 4.712295
    53 7.223960 5.068053 -1.800000 -6.283184 -3.141399 4.712295
    54 7.223950 5.068052 0.000000 -6.283184 -3.141399 4.712295
    55 3.723979 2.768055 -0.395205 -6.283184 -3.141399 4.712294
    56 20.747295 -0.313698 4.522630 0.003878 0.001942 1.564441
    57 2.448332 0.177352 0.168606 1.543132 0.019570 -3.045716
  time 18
    0 0.051272 -105.332358 26.102635 0.027039 0.012707 -1.511066
    1 -0.526041 0.000001 9.745319 -1.570764 -1.570796 0.000000
    2 -0.000009 0.000014 5.615740 -0.112837 3.328061 -0.783529
    3 15.693467 0.000042 -0.000137 -0.000002 0.000005 -2.371179
    4 22.146626 -0.000002 0.000000 0.089606 0.233263 0.102424
    5 0.000009 -0.000011 -5.615755 0.045157 3.199103 0.198117
    6 15.693451 0.000043 -0.000136 -0.000002 0.000005 -0.493480
    7 22.146624 -0.000001 0.000000 0.175941 -0.024772 0.657618
    8 1.384163 -0.004727 0.000003 0.040925 0.005675 0.383615
    9 5.939812 -0.004729 0.000088 0.000000 0.000000 0.000000
    10 5.939812 -0.003975 0.000088 0.000000 -0.014334 0.000000
    11 4.991436 -0.003974 0.000074 0.000000 0.000000 0.000000
    12 4.991427 -0.001574 0.000074 0.000000 0.000009 0.000016
    13 -0.001670 0.001564 3.638373 -0.000014 -1.284225 3.140794
    14 8.842823 0.000002 0.000054 0.064186 0.232519 -0.775228
    15 0.001739 0.001585 -3.638374 -0.000014 1.284245 3.140766
    16 8.842813 0.000001 -0.000025 0.320235 -1.019523 -0.819207
    17 1.977402 -0.000032 0.003050 -0.083469 -0.005407 -0.255642
    18 9.341940 0.000000 0.000009 0.000000 0.000000 -1.823827
    19 11.168410 0.000002 -0.000001 -3.972273 -0.514369 0.375083
    20 1.364904 0.231181 -1.984410 2.565369 0.787582 1.289645
    21 1.748533 -0.000003 0.000002 0.000000 0.000000 -0.043585
    22 1.272493 0.000001 -0.000003 0.000000 0.000000 0.253072
    23 4.525584 -0.000299 -1.850222 0.062830 0.072738 0.735167
    24 1.719874 -0.000007 0.000000 0.000000 0.000000 0.619418
    25 1.383651 0.000003 0.000001 0.000000 0.000000 0.741566
    26 4.525585 -0.000096 -0.616739 0.033453 0.040263 0.733447
    27 1.807677 -0.000001 -0.000002 0.000000 0.000000 0.567102
    28 1.614256 -0.000004 0.000003 0.000000 0.000000 0.741755
    29 4.525583 0.000106 0.616741 0.021763 0.027388 0.733134
    30 1.719871 -0.000003 0.000000 0.000000 0.000000 0.366391
    31 1.383651 -0.000001 0.000001 0.000000 0.000000 0.741562
    32 4.525584 0.000309 1.850224 -0.024762 -0.024689 0.733175
    33 1.433228 -0.000003 0.000000 0.000000 0.000000 0.366391
    34 1.153038 -0.000001 0.000000 0.000000 0.000000 0.741559
    35 9.341949 0.000000 0.000007 0.000000 0.000000 -1.792298
    36 11.168407 0.000002 0.000011 1.573346 -0.683075 0.059468
    37 1.364906 0.231175 1.984408 -3.139678 0.004068 1.002176
    38 1.748534 0.000002 -0.000001 0.000000 0.000000 0.436228
    39 1.272493 0.000003 0.000002 0.000000 0.000000 0.322870
    40 4.525587 -0.000302 1.850221 -0.016281 -0.094622 0.192575
    41 1.719872 0.000007 0.000000 0.000000 0.000000 0.034907
    42 1.383647 0.000004 -0.000001 0.000000 0.000000 0.689317
    43 4.525585 -0.000102 0.616738 -0.040896 -0.032761 0.934331
    44 1.807677 -0.000002 -0.000002 0.000000 0.000000 0.907547
    45 1.614256 0.000001 0.000000 0.000000 0.000000 1.151884
    46 4.525587 0.000102 -0.616743 -0.026857 -0.022390 0.933833
    47 1.719867 0.000001 0.000001 0.000000 0.000000 0.907547
    48 1.383648 0.000001 -0.000001 0.000000 0.000000 1.151884
    49 4.525586 0.000303 -1.850223 0.029257 0.019236 0.933763
    50 1.433227 0.000002 0.000000 0.000000 0.000000 0.907324
    51 1.153036 0.000004 0.000000 0.000000 0.000000 1.151753
    52 7.223970 5.068054 1.800000 -6.283184 -3.141399 4.712295
    53 7.223960 5.068053 -1.800000 -6.283184 -3.141399 4.712295
    54 7.223950 5.068052 0.000000 -6.283184 -3.141399 4.712295
    55 3.723979 2.768055 -0.395205 -6.283184 -3.141399 4.712294
    56 20.747295 -0.313698 4.522630 0.003878 0.001942 1.564441
    57 2.448332 0.177352 0.168606 1.543132 0.019570 -3.045716
  time 19
    0 0.036200 -111.183384 26.631781 0.019860 0.015669 -1.551333
    1 -0.526041 0.000001 9.745319 -1.570764 -1.570796 0.000000
    2 -0.000009 0.000014 5.615740 -0.141789 3.332757 -0.870691
    3 15.693467 0.000042 -0.000137 -0.000002 0.000005 -2.281689
    4 22.146626 -0.000002 0.000000 0.083176 0.222490 0.133198
    5 0.000009 -0.000011 -5.615755 0.029337 3.194502 0.263490
    6 15.693451 0.000043 -0.000136 -0.000002 0.000005 -0.552206
    7 22.146624 -0.000001 0.000000 0.145085 0.001658 0.607766
    8 1.384163 -0.004727 0.000003 0.018811 0.007339 0.344605
    9 5.939812 -0.004729 0.000088 0.000000 0.000000 0.000000
    10 5.939812 -0.003975 0.000088 0.000000 -0.015820 0.000000
    11 4.991436 -0.003974 0.000074 0.000000 0.000000 0.000000
    12 4.991427 -0.001574 0.000074 0.000000 0.000009 0.000016
    13 -0.001670 0.001564 3.638373 -0.000014 -1.284225 3.140794
    14 8.842823 0.000002 0.000054 0.097198 0.258007 -0.729692
    15 0.001739 0.001585 -3.638374 -0.000014 1.284245 3.140766
    16 8.842813 0.000001 -0.000025 0.287985 -1.038113 -0.787667
    17 1.977402 -0.000032 0.003050 -0.023576 0.005191 -0.218024
    18 9.341940 0.000000 0.000009 0.000000 0.000000 -1.884838
    19 11.168410 0.000002 -0.000001 -3.961292 -0.526712 0.437927
    20 1.364904 0.231181 -1.984410 2.565369 0.787582 1.289645
    21 1.748533 -0.000003 0.000002 0.000000 0.000000 -0.043585
    22 1.272493 0.000001 -0.000003 0.000000 0.000000 0.253072
    23 4.525584 -0.000299 -1.850222 0.062830 0.072738 0.735167
    24 1.719874 -0.000007 0.000000 0.000000 0.000000 0.619418
    25 1.383651 0.000003 0.000001 0.000000 0.000000 0.741566
    26 4.525585 -0.000096 -0.616739 0.033453 0.040263 0.733447
    27 1.807677 -0.000001 -0.000002 0.000000 0.000000 0.567102
    28 1.614256 -0.000004 0.000003 0.000000 0.000000 0.741755
    29 4.525583 0.000106 0.616741 0.021763 0.027388 0.733134
    30 1.719871 -0.000003 0.000000 0.000000 0.000000 0.366391
    31 1.383651 -0.000001 0.000001 0.000000 0.000000 0.741562
    32 4.525584 0.000309 1.850224 -0.024762 -0.024689 0.733175
    33 1.433228 -0.000003 0.000000 0.000000 0.000000 0.366391
    34 1.153038 -0.000001 0.000000 0.000000 0.000000 0.741559
    35 9.341949 0.000000 0.000007 0.000000 0.000000 -1.777309
    36 11.168407 0.000002 0.000011 1.605599 -0.710446 0.026001
    37 1.364906 0.231175 1.984408 -3.139678 0.004068 1.002176
    38 1.748534 0.000002 -0.000001 0.000000 0.000000 0.436228
    39 1.272493 0.000003 0.000002 0.000000 0.000000 0.322870
    40 4.525587 -0.000302 1.850221 -0.016281 -0.094622 0.192575
    41 1.719872 0.000007 0.000000 0.000000 0.000000 0.034907
    42 1.383647 0.000004 -0.000001 0.000000 0.000000 0.689317
    43 4.525585 -0.000102 0.616738 -0.040896 -0.032761 0.934331
    44 1.807677 -0.000002 -0.000002 0.000000 0.000000 0.907547
    45 1.614256 0.000001 0.000000 0.000000 0.000000 1.151884
    46 4.525587 0.000102 -0.616743 -0.026857 -0.022390 0.933833
    47 1.719867 0.000001 0.000001 0.000000 0.000000 0.907547
    48 1.383648 0.000001 -0.000001 0.000000 0.000000 1.151884
    49 4.525586 0.000303 -1.850223 0.029257 0.019236 0.933763
    50 1.433227 0.000002 0.000000 0.000000 0.000000 0.907324
    51 1.153036 0.000004 0.000000 0.000000 0.000000 1.151753
    52 7.223970 5.068054 1.800000 -6.283184 -3.141399 4.712295
    53 7.223960 5.068053 -1.800000 -6.283184 -3.141399 4.712295
    54 7.223950 5.068052 0.000000 -6.283184 -3.141399 4.712295
    55 3.723979 2.768055 -0.395205 -6.283184 -3.141399 4.712294
    56 20.747295 -0.313698 4.522630 0.003878 0.001942 1.564441
    57 2.448332 0.177352 0.168606 1.543132 0.019570 -3.045716
  time 20
    0 0.051272 -117.027369 27.219722 0.012121 0.018535 -1.592559
    1 -0.526041 0.000001 9.745319 -1.570764 -1.570796 0.000000
    2 -0.000009 0.000014 5.615740 -0.175918 3.338698 -0.896687
    3 15.693467 0.000042 -0.000137 -0.000002 0.000005 -2.046865
    4 22.146626 -0.000002 0.000000 0.079101 0.183584 0.145498
    5 0.000009 -0.000011 -5.615755 0.039212 3.165932 0.240773
    6 15.693451 0.000043 -0.000136 -0.000002 0.000005 -0.760538
    7 22.146624 -0.000001 0.000000 0.094486 0.036836 0.562406
    8 1.384163 -0.004727 0.000003 -0.012762 0.009405 0.305266
    9 5.939812 -0.004729 0.000088 0.000000 0.000000 0.000000
    10 5.939812 -0.003975 0.000088 0.000000 -0.014417 0.000000
    11 4.991436 -0.003974 0.000074 0.000000 0.000000 0.000000
    12 4.991427 -0.001574 0.000074 0.000000 0.000009 0.000016
    13 -0.001670 0.001564 3.638373 -0.000014 -1.284225 3.140794
    14 8.842823 0.000002 0.000054 0.134690 0.286566 -0.676168
    15 0.001739 0.001585 -3.638374 -0.000014 1.284245 3.140766
    16 8.842813 0.000001 -0.000025 0.277262 -1.044399 -0.785475
    17 1.977402 -0.000032 0.003050 0.047630 0.013244 -0.179660
    18 9.341940 0.000000 0.000009 0.000000 0.000000 -1.945930
    19 11.168410 0.000002 -0.000001 -3.948210 -0.547954 0.502736
    20 1.364904 0.231181 -1.984410 2.565369 0.787582 1.289645
    21 1.748533 -0.000003 0.000002 0.000000 0.000000 -0.043585
    22 1.272493 0.000001 -0.000003 0.000000 0.000000 0.253072
    23 4.525584 -0.000299 -1.850222 0.062830 0.072738 0.735167
    24 1.719874 -0.000007 0.000000 0.000000 0.000000 0.619418
    25 1.383651 0.000003 0.000001 0.000000 0.000000 0.741566
    26 4.525585 -0.000096 -0.616739 0.033453 0.040263 0.733447
    27 1.807677 -0.000001 -0.000002 0.000000 0.000000 0.567102
    28 1.614256 -0.000004 0.000003 0.000000 0.000000 0.741755
    29 4.525583 0.000106 0.616741 0.021763 0.027388 0.733134
    30 1.719871 -0.000003 0.000000 0.000000 0.000000 0.366391
    31 1.383651 -0.000001 0.000001 0.000000 0.000000 0.741562
    32 4.525584 0.000309 1.850224 -0.024762 -0.024689 0.733175
    33 1.433228 -0.000003 0.000000 0.000000 0.000000 0.366391
    34 1.153038 -0.000001 0.000000 0.000000 0.000000 0.741559
    35 9.341949 0.000000 0.000007 0.000000 0.000000 -1.741602
    36 11.168407 0.000002 0.000011 1.650250 -0.743519 -0.020346
    37 1.364906 0.231175 1.984408 -3.139678 0.004068 1.002176
    38 1.748534 0.000002 -0.000001 0.000000 0.000000 0.436228
    39 1.272493 0.000003 0.000002 0.000000 0.000000 0.322870
    40 4.525587 -0.000302 1.850221 -0.016281 -0.094622 0.192575
    41 1.719872 0.000007 0.000000 0.000000 0.000000 0.034907
    42 1.383647 0.000004 -0.000001 0.000000 0.000000 0.689317
    43 4.525585 -0.000102 0.616738 -0.040896 -0.032761 0.934331
    44 1.807677 -0.000002 -0.000002 0.000000 0.000000 0.907547
    45 1.614256 0.000001 0.000000 0.000000 0.000000 1.151884
    46 4.525587 0.000102 -0.616743 -0.026857 -0.022390 0.933833
    47 1.719867 0.000001 0.000001 0.000000 0.000000 0.907547
    48 1.383648 0.000001 -0.000001 0.000000 0.000000 1.151884
    49 4.525586 0.000303 -1.850223 0.029257 0.019236 0.933763
    50 1.433227 0.000002 0.000000 0.000000 0.000000 0.907324
    51 1.153036 0.000004 0.000000 0.000000 0.000000 1.151753
    52 7.223970 5.068054 1.800000 -6.283184 -3.141399 4.712295
    53 7.223960 5.068053 -1.800000 -6.283184 -3.141399 4.712295
    54 7.223950 5.068052 0.000000 -6.283184 -3.141399 4.712295
    55 3.723979 2.768055 -0.395205 -6.283184 -3.141399 4.712294
    56 20.747295 -0.313698 4.522630 0.003878 0.001942 1.564441
    57 2.448332 0.177352 0.168606 1.543132 0.019570 -3.045716
  time 21
    0 0.058808 -122.885437 27.788064 0.004196 0.021019 -1.634168
    1 -0.526041 0.000001 9.745319 -1.570764 -1.570796 0.000000
    2 -0.000009 0.000014 5.615740 -0.213306 3.342627 -0.873845
    3 15.693467 0.000042 -0.000137 -0.000002 0.000005 -1.694949
    4 22.146626 -0.000002 0.000000 0.068746 0.120854 0.145589
    5 0.000009 -0.000011 -5.615755 0.056757 3.113874 0.227065
    6 15.693451 0.000043 -0.000136 -0.000002 0.000005 -0.968572
    7 22.146624 -0.000001 0.000000 0.024651 0.062989 0.487100
    8 1.384163 -0.004727 0.000003 -0.050898 0.010908 0.265686
    9 5.939812 -0.004729 0.000088 0.000000 0.000000 0.000000
    10 5.939812 -0.003975 0.000088 0.000000 -0.011266 0.000000
    11 4.991436 -0.003974 0.000074 0.000000 0.000000 0.000000
    12 4.991427 -0.001574 0.000074 0.000000 0.000009 0.000016
    13 -0.001670 0.001564 3.638373 -0.000014 -1.284225 3.140794
    14 8.842823 0.000002 0.000054 0.170261 0.316985 -0.626451
    15 0.001739 0.001585 -3.638374 -0.000014 1.284245 3.140766
    16 8.842813 0.000001 -0.000025 0.285889 -1.039530 -0.805962
    17 1.977402 -0.000032 0.003050 0.125866 0.018265 -0.140452
    18 9.341940 0.000000 0.000009 0.000000 0.000000 -2.004070
    19 11.168410 0.000002 -0.000001 -3.936273 -0.572449 0.574719
    20 1.364904 0.231181 -1.984410 2.565369 0.787582 1.289645
    21 1.748533 -0.000003 0.000002 0.000000 0.000000 -0.043585
    22 1.272493 0.000001 -0.000003 0.000000 0.000000 0.253072
    23 4.525584 -0.000299 -1.850222 0.062830 0.072738 0.735167
    24 1.719874 -0.000007 0.000000 0.000000 0.000000 0.619418
    25 1.383651 0.000003 0.000001 0.000000 0.000000 0.741566
    26 4.525585 -0.000096 -0.616739 0.033453 0.040263 0.733447
    27 1.807677 -0.000001 -0.000002 0.000000 0.000000 0.567102
    28 1.614256 -0.000004 0.000003 0.000000 0.000000 0.741755
    29 4.525583 0.000106 0.616741 0.021763 0.027388 0.733134
    30 1.719871 -0.000003 0.000000 0.000000 0.000000 0.366391
    31 1.383651 -0.000001 0.000001 0.000000 0.000000 0.741562
    32 4.525584 0.000309 1.850224 -0.024762 -0.024689 0.733175
    33 1.433228 -0.000003 0.000000 0.000000 0.000000 0.366391
    34 1.153038 -0.000001 0.000000 0.000000 0.000000 0.741559
    35 9.341949 0.000000 0.000007 0.000000 0.000000 -1.695436
    36 11.168407 0.000002 0.000011 1.709163 -0.780678 -0.074025
    37 1.364906 0.231175 1.984408 -3.139678 0.004068 1.002176
    38 1.748534 0.000002 -0.000001 0.000000 0.000000 0.436228
    39 1.272493 0.000003 0.000002 0.000000 0.000000 0.322870
    40 4.525587 -0.000302 1.850221 -0.016281 -0.094622 0.192575
    41 1.719872 0.000007 0.000000 0.000000 0.000000 0.034907
    42 1.383647 0.000004 -0.000001 0.000000 0.000000 0.689317
    43 4.525585 -0.000102 0.616738 -0.040896 -0.032761 0.934331
    44 1.807677 -0.000002 -0.000002 0.000000 0.000000 0.907547
    45 1.614256 0.000001 0.000000 0.000000 0.000000 1.151884
    46 4.525587 0.000102 -0.616743 -0.026857 -0.022390 0.933833
    47 1.719867 0.000001 0.000001 0.000000 0.000000 0.907547
    48 1.383648 0.000001 -0.000001 0.000000 0.000000 1.151884
    49 4.525586 0.000303 -1.850223 0.029257 0.019236 0.933763
    50 1.433227 0.000002 0.000000 0.000000 0.000000 0.907324
    51 1.153036 0.000004 0.000000 0.000000 0.000000 1.151753
    52 7.223970 5.068054 1.800000 -6.283184 -3.141399 4.712295
    53 7.223960 5.068053 -1.800000 -6.283184 -3.141399 4.712295
    54 7.223950 5.068052 0.000000 -6.283184 -3.141399 4.712295
    55 3.723979 2.768055 -0.395205 -6.283184 -3.141399 4.712294
    56 20.747295 -0.313698 4.522630 0.003878 0.001942 1.564441
    57 2.448332 0.177352 0.168606 1.543132 0.019570 -3.045716
  time 22
    0 0.051272 -128.743506 28.219220 -0.003450 0.023121 -1.674435
    1 -0.526041 0.000001 9.745319 -1.570764 -1.570796 0.000000
    2 -0.000009 0.000014 5.615740 -0.253379 3.343106 -0.823670
    3 15.693467 0.000042 -0.000137 -0.000002 0.000005 -1.276092
    4 22.146626 -0.000002 0.000000 0.041270 0.043909 0.137770
    5 0.000009 -0.000011 -5.615755 0.075740 3.052230 0.236938
    6 15.693451 0.000043 -0.000136 -0.000002 0.000005 -1.146313
    7 22.146624 -0.000001 0.000000 -0.059625 0.061792 0.384666
    8 1.384163 -0.004727 0.000003 -0.092299 0.011230 0.225837
    9 5.939812 -0.004729 0.000088 0.000000 0.000000 0.000000
    10 5.939812 -0.003975 0.000088 0.000000 -0.007251 0.000000
    11 4.991436 -0.003974 0.000074 0.000000 0.000000 0.000000
    12 4.991427 -0.001574 0.000074 0.000000 0.000009 0.000016
    13 -0.001670 0.001564 3.638373 -0.000014 -1.284225 3.140794
    14 8.842823 0.000002 0.000054 0.195865 0.347590 -0.592709
    15 0.001739 0.001585 -3.638374 -0.000014 1.284245 3.140766
    16 8.842813 0.000001 -0.000025 0.310641 -1.025100 -0.840933
    17 1.977402 -0.000032 0.003050 0.205900 0.020741 -0.100449
    18 9.341940 0.000000 0.000009 0.000000 0.000000 -2.054420
    19 11.168410 0.000002 -0.000001 -3.928539 -0.591872 0.658347
    20 1.364904 0.231181 -1.984410 2.565369 0.787582 1.289645
    21 1.748533 -0.000003 0.000002 0.000000 0.000000 -0.043585
    22 1.272493 0.000001 -0.000003 0.000000 0.000000 0.253072
    23 4.525584 -0.000299 -1.850222 0.062830 0.072738 0.735167
    24 1.719874 -0.000007 0.000000 0.000000 0.000000 0.619418
    25 1.383651 0.000003 0.000001 0.000000 0.000000 0.741566
    26 4.525585 -0.000096 -0.616739 0.033453 0.040263 0.733447
    27 1.807677 -0.000001 -0.000002 0.000000 0.000000 0.567102
    28 1.614256 -0.000004 0.000003 0.000000 0.000000 0.741755
    29 4.525583 0.000106 0.616741 0.021763 0.027388 0.733134
    30 1.719871 -0.000003 0.000000 0.000000 0.000000 0.366391
    31 1.383651 -0.000001 0.000001 0.000000 0.000000 0.741562
    32 4.525584 0.000309 1.850224 -0.024762 -0.024689 0.733175
    33 1.433228 -0.000003 0.000000 0.000000 0.000000 0.366391
    34 1.153038 -0.000001 0.000000 0.000000 0.000000 0.741559
    35 9.341949 0.000000 0.000007 0.000000 0.000000 -1.647804
    36 11.168407 0.000002 0.000011 1.783830 -0.821259 -0.130712
    37 1.364906 0.231175 1.984408 -3.139678 0.004068 1.002176
    38 1.748534 0.000002 -0.000001 0.000000 0.000000 0.436228
    39 1.272493 0.000003 0.000002 0.000000 0.000000 0.322870
    40 4.525587 -0.000302 1.850221 -0.016281 -0.094622 0.192575
    41 1.719872 0.000007 0.000000 0.000000 0.000000 0.034907
    42 1.383647 0.000004 -0.000001 0.000000 0.000000 0.689317
    43 4.525585 -0.000102 0.616738 -0.040896 -0.032761 0.934331
    44 1.807677 -0.000002 -0.000002 0.000000 0.000000 0.907547
    45 1.614256 0.000001 0.000000 0.000000 0.000000 1.151884
    46 4.525587 0.000102 -0.616743 -0.026857 -0.022390 0.933833
    47 1.719867 0.000001 0.000001 0.000000 0.000000 0.907547
    48 1.383648 0.000001 -0.000001 0.000000 0.000000 1.151884
    49 4.525586 0.000303 -1.850223 0.029257 0.019236 0.933763
    50 1.433227 0.000002 0.000000 0.000000 0.000000 0.907324
    51 1.153036 0.000004 0.000000 0.000000 0.000000 1.151753
    52 7.223970 5.068054 1.800000 -6.283184 -3.141399 4.712295
    53 7.223960 5.068053 -1.800000 -6.283184 -3.141399 4.712295
    54 7.223950 5.068052 0.000000 -6.283184 -3.141399 4.712295
    55 3.723979 2.768055 -0.395205 -6.283184 -3.141399 4.712294
    56 20.747295 -0.313698 4.522630 0.003878 0.001942 1.564441
    57 2.448332 0.177352 0.168606 1.543132 0.019570 -3.045716
  time 23
    0 0.051272 -134.594533 28.376004 -0.010816 0.024745 -1.712305
    1 -0.526041 0.000001 9.745319 -1.570764 -1.570796 0.000000
    2 -0.000009 0.000014 5.615740 -0.293643 3.341094 -0.766422
    3 15.693467 0.000042 -0.000137 -0.000002 0.000005 -0.840590
    4 22.146626 -0.000002 0.000000 -0.007888 -0.032913 0.129128
    5 0.000009 -0.000011 -5.615755 0.096066 2.995666 0.248249
    6 15.693451 0.000043 -0.000136 -0.000002 0.000005 -1.314750
    7 22.146624 -0.000001 0.000000 -0.145367 0.020628 0.279942
    8 1.384163 -0.004727 0.000003 -0.133666 0.009915 0.186198
    9 5.939812 -0.004729 0.000088 0.000000 0.000000 0.000000
    10 5.939812 -0.003975 0.000088 0.000000 -0.003164 0.000000
    11 4.991436 -0.003974 0.000074 0.000000 0.000000 0.000000
    12 4.991427 -0.001574 0.000074 0.000000 0.000009 0.000016
    13 -0.001670 0.001564 3.638373 -0.000014 -1.284225 3.140794
    14 8.842823 0.000002 0.000054 0.190745 0.374753 -0.592112
    15 0.001739 0.001585 -3.638374 -0.000014 1.284245 3.140766
    16 8.842813 0.000001 -0.000025 0.352163 -0.999516 -0.885242
    17 1.977402 -0.000032 0.003050 0.283396 0.021181 -0.059899
    18 9.341940 0.000000 0.000009 0.000000 0.000000 -2.098128
    19 11.168410 0.000002 -0.000001 -3.927679 -0.589672 0.767034
    20 1.364904 0.231181 -1.984410 2.565369 0.787582 1.289645
    21 1.748533 -0.000003 0.000002 0.000000 0.000000 -0.043585
    22 1.272493 0.000001 -0.000003 0.000000 0.000000 0.253072
    23 4.525584 -0.000299 -1.850222 0.062830 0.072738 0.735167
    24 1.719874 -0.000007 0.000000 0.000000 0.000000 0.619418
    25 1.383651 0.000003 0.000001 0.000000 0.000000 0.741566
    26 4.525585 -0.000096 -0.616739 0.033453 0.040263 0.733447
    27 1.807677 -0.000001 -0.000002 0.000000 0.000000 0.567102
    28 1.614256 -0.000004 0.000003 0.000000 0.000000 0.741755
    29 4.525583 0.000106 0.616741 0.021763 0.027388 0.733134
    30 1.719871 -0.000003 0.000000 0.000000 0.000000 0.366391
    31 1.383651 -0.000001 0.000001 0.000000 0.000000 0.741562
    32 4.525584 0.000309 1.850224 -0.024762 -0.024689 0.733175
    33 1.433228 -0.000003 0.000000 0.000000 0.000000 0.366391
    34 1.153038 -0.000001 0.000000 0.000000 0.000000 0.741559
    35 9.341949 0.000000 0.000007 0.000000 0.000000 -1.613496
    36 11.168407 0.000002 0.000011 1.878072 -0.864216 -0.181947
    37 1.364906 0.231175 1.984408 -3.139678 0.004068 1.002176
    38 1.748534 0.000002 -0.000001 0.000000 0.000000 0.436228
    39 1.272493 0.000003 0.000002 0.000000 0.000000 0.322870
    40 4.525587 -0.000302 1.850221 -0.016281 -0.094622 0.192575
    41 1.719872 0.000007 0.000000 0.000000 0.000000 0.034907
    42 1.383647 0.000004 -0.000001 0.000000 0.000000 0.689317
    43 4.525585 -0.000102 0.616738 -0.040896 -0.032761 0.934331
    44 1.807677 -0.000002 -0.000002 0.000000 0.000000 0.907547
    45 1.614256 0.000001 0.000000 0.000000 0.000000 1.151884
    46 4.525587 0.000102 -0.616743 -0.026857 -0.022390 0.933833
    47 1.719867 0.000001 0.000001 0.000000 0.000000 0.907547
    48 1.383648 0.000001 -0.000001 0.000000 0.000000 1.151884
    49 4.525586 0.000303 -1.850223 0.029257 0.019236 0.933763
    50 1.433227 0.000002 0.000000 0.000000 0.000000 0.907324
    51 1.153036 0.000004 0.000000 0.000000 0.000000 1.151753
    52 7.223970 5.068054 1.800000 -6.283184 -3.141399 4.712295
    53 7.223960 5.068053 -1.800000 -6.283184 -3.141399 4.712295
    54 7.223950 5.068052 0.000000 -6.283184 -3.141399 4.712295
    55 3.723979 2.768055 -0.395205 -6.283184 -3.141399 4.712294
    56 20.747295 -0.313698 4.522630 0.003878 0.001942 1.564441
    57 2.448332 0.177352 0.168606 1.543132 0.019570 -3.045716
  time 24
    0 0.021128 -140.431475 28.376004 -0.017249 0.025987 -1.745861
    1 -0.526041 0.000001 9.745319 -1.570764 -1.570796 0.000000
    2 -0.000009 0.000014 5.615740 -0.333141 3.338411 -0.723032
    3 15.693467 0.000042 -0.000137 -0.000002 0.000005 -0.438380
    4 22.146626 -0.000002 0.000000 -0.071513 -0.094306 0.127070
    5 0.000009 -0.000011 -5.615755 0.113131 2.949840 0.254192
    6 15.693451 0.000043 -0.000136 -0.000002 0.000005 -1.485271
    7 22.146624 -0.000001 0.000000 -0.215371 -0.054179 0.198559
    8 1.384163 -0.004727 0.000003 -0.171735 0.006695 0.146739
    9 5.939812 -0.004729 0.000088 0.000000 0.000000 0.000000
    10 5.939812 -0.003975 0.000088 0.000000 0.000000 0.000000
    11 4.991436 -0.003974 0.000074 0.000000 0.000000 0.000000
    12 4.991427 -0.001574 0.000074 0.000000 0.000009 0.000016
    13 -0.001670 0.001564 3.638373 -0.000014 -1.284225 3.140794
    14 8.842823 0.000002 0.000054 0.157276 0.403032 -0.632423
    15 0.001739 0.001585 -3.638374 -0.000014 1.284245 3.140766
    16 8.842813 0.000001 -0.000025 0.404489 -0.967557 -0.929074
    17 1.977402 -0.000032 0.003050 0.353280 0.020487 -0.019150
    18 9.341940 0.000000 0.000009 0.000000 0.000000 -2.116579
    19 11.168410 0.000002 -0.000001 -3.926152 -0.570344 0.882157
    20 1.364904 0.231181 -1.984410 2.565369 0.787582 1.289645
    21 1.748533 -0.000003 0.000002 0.000000 0.000000 -0.043585
    22 1.272493 0.000001 -0.000003 0.000000 0.000000 0.253072
    23 4.525584 -0.000299 -1.850222 0.062830 0.072738 0.735167
    24 1.719874 -0.000007 0.000000 0.000000 0.000000 0.619418
    25 1.383651 0.000003 0.000001 0.000000 0.000000 0.741566
    26 4.525585 -0.000096 -0.616739 0.033453 0.040263 0.733447
    27 1.807677 -0.000001 -0.000002 0.000000 0.000000 0.567102
    28 1.614256 -0.000004 0.000003 0.000000 0.000000 0.741755
    29 4.525583 0.000106 0.616741 0.021763 0.027388 0.733134
    30 1.719871 -0.000003 0.000000 0.000000 0.000000 0.366391
    31 1.383651 -0.000001 0.000001 0.000000 0.000000 0.741562
    32 4.525584 0.000309 1.850224 -0.024762 -0.024689 0.733175
    33 1.433228 -0.000003 0.000000 0.000000 0.000000 0.366391
    34 1.153038 -0.000001 0.000000 0.000000 0.000000 0.741559
    35 9.341949 0.000000 0.000007 0.000000 0.000000 -1.582119
    36 11.168407 0.000002 0.000011 1.987229 -0.909264 -0.239669
    37 1.364906 0.231175 1.984408 -3.139678 0.004068 1.002176
    38 1.748534 0.000002 -0.000001 0.000000 0.000000 0.436228
    39 1.272493 0.000003 0.000002 0.000000 0.000000 0.322870
    40 4.525587 -0.000302 1.850221 -0.016281 -0.094622 0.192575
    41 1.719872 0.000007 0.000000 0.000000 0.000000 0.034907
    42 1.383647 0.000004 -0.000001 0.000000 0.000000 0.689317
    43 4.525585 -0.000102 0.616738 -0.040896 -0.032761 0.934331
    44 1.807677 -0.000002 -0.000002 0.000000 0.000000 0.907547
    45 1.614256 0.000001 0.000000 0.000000 0.000000 1.151884
    46 4.525587 0.000102 -0.616743 -0.026857 -0.022390 0.933833
    47 1.719867 0.000001 0.000001 0.000000 0.000000 0.907547
    48 1.383648 0.000001 -0.000001 0.000000 0.000000 1.151884
    49 4.525586 0.000303 -1.850223 0.029257 0.019236 0.933763
    50 1.433227 0.000002 0.000000 0.000000 0.000000 0.907324
    51 1.153036 0.000004 0.000000 0.000000 0.000000 1.151753
    52 7.223970 5.068054 1.800000 -6.283184 -3.141399 4.712295
    53 7.223960 5.068053 -1.800000 -6.283184 -3.141399 4.712295
    54 7.223950 5.068052 0.000000 -6.283184 -3.141399 4.712295
    55 3.723979 2.768055 -0.395205 -6.283184 -3.141399 4.712294
    56 20.747295 -0.313698 4.522630 0.003878 0.001942 1.564441
    57 2.448332 0.177352 0.168606 1.543132 0.019570 -3.045716
end
