version 1
nodes
  0 "Bip01" -1
  1 "Bip01 Pelvis" 0
  2 "Bip01 L Thigh" 1
  3 "Bip01 L Calf" 2
  4 "Bip01 L Foot" 3
  5 "Bip01 R Thigh" 1
  6 "Bip01 R Calf" 5
  7 "Bip01 R Foot" 6
  8 "Bip01 Spine" 1
  9 "Bip01 Spine1" 8
  10 "Bip01 Spine2" 9
  11 "Bip01 Spine3" 10
  12 "Bip01 Neck" 11
  13 "Bip01 L Clavicle" 12
  14 "Bip01 L UpperArm" 13
  15 "Bip01 R Clavicle" 12
  16 "Bip01 R UpperArm" 15
  17 "Bip01 Head" 12
  18 "Bip01 L Forearm" 14
  19 "Bip01 L Hand" 18
  20 "Bip01 L Finger0" 19
  21 "Bip01 L Finger01" 20
  22 "Bip01 L Finger02" 21
  23 "Bip01 L Finger1" 19
  24 "Bip01 L Finger11" 23
  25 "Bip01 L Finger12" 24
  26 "Bip01 L Finger2" 19
  27 "Bip01 L Finger21" 26
  28 "Bip01 L Finger22" 27
  29 "Bip01 L Finger3" 19
  30 "Bip01 L Finger31" 29
  31 "Bip01 L Finger32" 30
  32 "Bip01 L Finger4" 19
  33 "Bip01 L Finger41" 32
  34 "Bip01 L Finger42" 33
  35 "Bip01 R Forearm" 16
  36 "Bip01 R Hand" 35
  37 "Bip01 R Finger0" 36
  38 "Bip01 R Finger01" 37
  39 "Bip01 R Finger02" 38
  40 "Bip01 R Finger1" 36
  41 "Bip01 R Finger11" 40
  42 "Bip01 R Finger12" 41
  43 "Bip01 R Finger2" 36
  44 "Bip01 R Finger21" 43
  45 "Bip01 R Finger22" 44
  46 "Bip01 R Finger3" 36
  47 "Bip01 R Finger31" 46
  48 "Bip01 R Finger32" 47
  49 "Bip01 R Finger4" 36
  50 "Bip01 R Finger41" 49
  51 "Bip01 R Finger42" 50
  52 "R_eye" 17
  53 "L_eye" 17
  54 "E_lids" 17
  55 "Mouth" 17
  56 "p_rpg" 36
  57 "Line04" 36
end
skeleton
  time 0
    0 0.043736 5.014167 26.749369 -0.120276 0.157449 -2.022169
    1 -0.526041 0.000001 9.745319 -1.570764 -1.570796 0.000000
    2 -0.000009 0.000014 5.615740 -0.072955 3.583441 -0.950972
    3 15.693467 0.000042 -0.000137 -0.000002 0.000005 -0.609963
    4 22.146626 -0.000002 0.000000 0.134913 -0.139428 -0.202116
    5 0.000009 -0.000011 -5.615755 0.159438 3.029604 -0.344237
    6 15.693451 0.000043 -0.000136 -0.000002 0.000005 -0.777806
    7 22.146624 -0.000001 0.000000 0.329487 0.196211 0.554567
    8 1.384163 -0.004727 0.000003 -0.226869 -0.113982 0.459088
    9 5.939812 -0.004729 0.000088 0.000000 0.000000 0.000000
    10 5.939812 -0.003975 0.000088 0.000000 0.000000 0.000000
    11 4.991436 -0.003974 0.000074 0.000000 0.000000 0.165751
    12 4.991427 -0.001574 0.000074 0.000000 0.000009 0.000016
    13 -0.001670 0.001564 3.638373 -0.000014 -1.284225 3.140794
    14 8.842823 0.000002 0.000054 -0.788252 0.131866 -1.355258
    15 0.001739 0.001585 -3.638374 -0.000014 1.284245 3.140766
    16 8.842813 0.000001 -0.000025 0.572997 -0.609378 -1.790094
    17 1.977402 -0.000032 0.003050 0.641062 0.201468 0.006144
    18 9.341940 0.000000 0.000009 0.000000 0.000000 -0.540477
    19 11.168410 0.000002 -0.000001 -4.147210 0.638420 -0.522174
    20 1.364904 0.231181 -1.984410 2.565479 0.787601 1.289722
    21 1.748533 -0.000003 0.000002 0.000000 0.000000 -0.043585
    22 1.272493 0.000001 -0.000003 0.000000 0.000000 0.253072
    23 4.525584 -0.000299 -1.850222 0.062830 0.072703 0.735167
    24 1.719874 -0.000007 0.000000 0.000000 0.000000 0.619460
    25 1.383651 0.000003 0.000001 0.000000 0.000000 0.741633
    26 4.525585 -0.000096 -0.616739 0.033489 0.040263 0.733554
    27 1.807677 -0.000001 -0.000002 0.000000 0.000000 0.567102
    28 1.614256 -0.000004 0.000003 0.000000 0.000000 0.741755
    29 4.525583 0.000106 0.616741 0.021799 0.027352 0.733188
    30 1.719871 -0.000003 0.000000 0.000000 0.000000 0.366391
    31 1.383651 -0.000001 0.000001 0.000000 0.000000 0.741631
    32 4.525584 0.000309 1.850224 -0.024798 -0.024653 0.733228
    33 1.433228 -0.000003 0.000000 0.000000 0.000000 0.366391
    34 1.153038 -0.000001 0.000000 0.000000 0.000000 0.741627
    35 9.341949 0.000000 0.000007 0.000000 0.000000 -1.463939
    36 11.168407 0.000002 0.000011 1.937358 0.125503 1.022027
    37 1.364906 0.231175 1.984408 -3.139678 0.004122 1.002247
    38 1.748534 0.000002 -0.000001 0.000000 0.000000 0.436264
    39 1.272493 0.000003 0.000002 0.000000 0.000000 0.322870
    40 4.525587 -0.000302 1.850221 -0.016317 -0.094622 0.192575
    41 1.719872 0.000007 0.000000 0.000000 0.000000 0.453708
    42 1.383647 0.000004 -0.000001 0.000000 0.000000 1.108155
    43 4.525585 -0.000102 0.616738 -0.040896 -0.032761 0.934331
    44 1.807677 -0.000002 -0.000002 0.000000 0.000000 0.907547
    45 1.614256 0.000001 0.000000 0.000000 0.000000 1.151884
    46 4.525587 0.000102 -0.616743 -0.026857 -0.022390 0.933926
    47 1.719867 0.000001 0.000001 0.000000 0.000000 0.907547
    48 1.383648 0.000001 -0.000001 0.000000 0.000000 1.151884
    49 4.525586 0.000303 -1.850223 0.029257 0.019200 0.933948
    50 1.433227 0.000002 0.000000 0.000000 0.000000 0.907396
    51 1.153036 0.000004 0.000000 0.000000 0.000000 1.151753
    52 7.223970 5.068054 1.800000 -3.141592 -0.000002 1.570798
    53 7.223960 5.068053 -1.800000 -3.141592 -0.000002 1.570798
    54 7.223950 5.068052 0.000000 -3.141592 -0.000002 1.570798
    55 3.723979 2.768055 -0.395205 -3.141592 -0.000098 1.570894
    56 20.747295 -0.313698 4.522630 0.003878 0.001942 1.564441
    57 2.448332 0.177352 0.168606 1.543132 0.019570 -3.045716
  time 1
    0 0.043736 5.422608 26.553389 -0.118318 0.131176 -2.057163
    1 -0.526041 0.000001 9.745319 -1.570764 -1.570457 0.000000
    2 -0.000009 0.000014 5.615740 -0.076311 3.604044 -0.923925
    3 15.693467 0.000042 -0.000137 -0.000002 0.000005 -0.601498
    4 22.146626 -0.000002 0.000000 0.113680 -0.152801 -0.214782
    5 0.000009 -0.000011 -5.615755 0.152823 3.019154 -0.378075
    6 15.693451 0.000043 -0.000136 -0.000002 0.000005 -0.834522
    7 22.146624 -0.000001 0.000000 0.290339 0.195505 0.550868
    8 1.384163 -0.004727 0.000003 -0.226869 -0.113982 0.459088
    9 5.939812 -0.004729 0.000088 0.000000 0.000000 0.000000
    10 5.939812 -0.003975 0.000088 0.000000 0.000000 0.000000
    11 4.991436 -0.003974 0.000074 0.000000 0.000000 0.165751
    12 4.991427 -0.001574 0.000074 0.000000 0.000009 0.000016
    13 -0.001670 0.001564 3.638373 -0.000014 -1.284225 3.140794
    14 8.842823 0.000002 0.000054 -0.764111 0.260426 -1.199314
    15 0.001739 0.001585 -3.638374 -0.000014 1.284245 3.140766
    16 8.842813 0.000001 -0.000025 0.548648 -0.634431 -1.787236
    17 1.977402 -0.000032 0.003050 0.641062 0.201468 0.006144
    18 9.341940 0.000000 0.000009 0.000000 0.000000 -0.893583
    19 11.168410 0.000002 -0.000001 -4.141576 0.617178 -0.358603
    20 1.364904 0.231181 -1.984410 2.565479 0.787601 1.289722
    21 1.748533 -0.000003 0.000002 0.000000 0.000000 -0.043585
    22 1.272493 0.000001 -0.000003 0.000000 0.000000 0.253072
    23 4.525584 -0.000299 -1.850222 0.062830 0.072703 0.735167
    24 1.719874 -0.000007 0.000000 0.000000 0.000000 0.619460
    25 1.383651 0.000003 0.000001 0.000000 0.000000 0.741633
    26 4.525585 -0.000096 -0.616739 0.033489 0.040263 0.733554
    27 1.807677 -0.000001 -0.000002 0.000000 0.000000 0.567102
    28 1.614256 -0.000004 0.000003 0.000000 0.000000 0.741755
    29 4.525583 0.000106 0.616741 0.021799 0.027352 0.733188
    30 1.719871 -0.000003 0.000000 0.000000 0.000000 0.366391
    31 1.383651 -0.000001 0.000001 0.000000 0.000000 0.741631
    32 4.525584 0.000309 1.850224 -0.024798 -0.024653 0.733228
    33 1.433228 -0.000003 0.000000 0.000000 0.000000 0.366391
    34 1.153038 -0.000001 0.000000 0.000000 0.000000 0.741627
    35 9.341949 0.000000 0.000007 0.000000 0.000000 -1.541882
    36 11.168407 0.000002 0.000011 1.925799 0.129020 1.066587
    37 1.364906 0.231175 1.984408 -3.139678 0.004122 1.002247
    38 1.748534 0.000002 -0.000001 0.000000 0.000000 0.436264
    39 1.272493 0.000003 0.000002 0.000000 0.000000 0.322870
    40 4.525587 -0.000302 1.850221 -0.016317 -0.094622 0.192575
    41 1.719872 0.000007 0.000000 0.000000 0.000000 0.453708
    42 1.383647 0.000004 -0.000001 0.000000 0.000000 1.108155
    43 4.525585 -0.000102 0.616738 -0.040896 -0.032761 0.934331
    44 1.807677 -0.000002 -0.000002 0.000000 0.000000 0.907547
    45 1.614256 0.000001 0.000000 0.000000 0.000000 1.151884
    46 4.525587 0.000102 -0.616743 -0.026857 -0.022390 0.933926
    47 1.719867 0.000001 0.000001 0.000000 0.000000 0.907547
    48 1.383648 0.000001 -0.000001 0.000000 0.000000 1.151884
    49 4.525586 0.000303 -1.850223 0.029257 0.019200 0.933948
    50 1.433227 0.000002 0.000000 0.000000 0.000000 0.907396
    51 1.153036 0.000004 0.000000 0.000000 0.000000 1.151753
    52 7.223970 5.068054 1.800000 -3.141592 -0.000002 1.570798
    53 7.223960 5.068053 -1.800000 -3.141592 -0.000002 1.570798
    54 7.223950 5.068052 0.000000 -3.141592 -0.000002 1.570798
    55 3.723979 2.768055 -0.395205 -3.141592 -0.000098 1.570894
    56 20.747295 -0.313698 4.522630 0.003878 0.001942 1.564441
    57 2.448332 0.177352 0.168606 1.543132 0.019570 -3.045716
  time 2
    0 0.043736 4.957831 26.984545 -0.093051 0.088183 -2.013732
    1 -0.526041 0.000001 9.745319 -1.570764 -1.570457 0.000000
    2 -0.000009 0.000014 5.615740 -0.142651 3.560059 -0.790793
    3 15.693467 0.000042 -0.000137 -0.000002 0.000005 -0.466906
    4 22.146626 -0.000002 0.000000 0.146689 -0.130859 -0.272444
    5 0.000009 -0.000011 -5.615755 0.152152 3.011964 -0.296405
    6 15.693451 0.000043 -0.000136 -0.000002 0.000005 -0.781974
    7 22.146624 -0.000001 0.000000 0.329318 0.185222 0.539594
    8 1.384163 -0.004727 0.000003 -0.226869 -0.113982 0.459088
    9 5.939812 -0.004729 0.000088 0.000000 0.000000 0.000000
    10 5.939812 -0.003975 0.000088 0.000000 0.000000 0.000000
    11 4.991436 -0.003974 0.000074 0.000000 0.000000 0.165751
    12 4.991427 -0.001574 0.000074 0.000000 0.000009 0.000016
    13 -0.001670 0.001564 3.638373 -0.000014 -1.284225 3.140794
    14 8.842823 0.000002 0.000054 -0.745822 0.300240 -1.280832
    15 0.001739 0.001585 -3.638374 -0.000014 1.284245 3.140766
    16 8.842813 0.000001 -0.000025 0.447301 -0.706403 -1.617814
    17 1.977402 -0.000032 0.003050 0.641062 0.201468 0.006144
    18 9.341940 0.000000 0.000009 0.000000 0.000000 -0.806496
    19 11.168410 0.000002 -0.000001 -4.091635 0.588856 -0.381156
    20 1.364904 0.231181 -1.984410 2.565479 0.787601 1.289722
    21 1.748533 -0.000003 0.000002 0.000000 0.000000 -0.043585
    22 1.272493 0.000001 -0.000003 0.000000 0.000000 0.253072
    23 4.525584 -0.000299 -1.850222 0.062830 0.072703 0.735167
    24 1.719874 -0.000007 0.000000 0.000000 0.000000 0.619460
    25 1.383651 0.000003 0.000001 0.000000 0.000000 0.741633
    26 4.525585 -0.000096 -0.616739 0.033489 0.040263 0.733554
    27 1.807677 -0.000001 -0.000002 0.000000 0.000000 0.567102
    28 1.614256 -0.000004 0.000003 0.000000 0.000000 0.741755
    29 4.525583 0.000106 0.616741 0.021799 0.027352 0.733188
    30 1.719871 -0.000003 0.000000 0.000000 0.000000 0.366391
    31 1.383651 -0.000001 0.000001 0.000000 0.000000 0.741631
    32 4.525584 0.000309 1.850224 -0.024798 -0.024653 0.733228
    33 1.433228 -0.000003 0.000000 0.000000 0.000000 0.366391
    34 1.153038 -0.000001 0.000000 0.000000 0.000000 0.741627
    35 9.341949 0.000000 0.000007 0.000000 0.000000 -1.668256
    36 11.168407 0.000002 0.000011 1.953671 0.143750 1.073073
    37 1.364906 0.231175 1.984408 -3.139678 0.004122 1.002247
    38 1.748534 0.000002 -0.000001 0.000000 0.000000 0.436264
    39 1.272493 0.000003 0.000002 0.000000 0.000000 0.322870
    40 4.525587 -0.000302 1.850221 -0.016317 -0.094622 0.192575
    41 1.719872 0.000007 0.000000 0.000000 0.000000 0.453708
    42 1.383647 0.000004 -0.000001 0.000000 0.000000 1.108155
    43 4.525585 -0.000102 0.616738 -0.040896 -0.032761 0.934331
    44 1.807677 -0.000002 -0.000002 0.000000 0.000000 0.907547
    45 1.614256 0.000001 0.000000 0.000000 0.000000 1.151884
    46 4.525587 0.000102 -0.616743 -0.026857 -0.022390 0.933926
    47 1.719867 0.000001 0.000001 0.000000 0.000000 0.907547
    48 1.383648 0.000001 -0.000001 0.000000 0.000000 1.151884
    49 4.525586 0.000303 -1.850223 0.029257 0.019200 0.933948
    50 1.433227 0.000002 0.000000 0.000000 0.000000 0.907396
    51 1.153036 0.000004 0.000000 0.000000 0.000000 1.151753
    52 7.223970 5.068054 1.800000 -3.141592 -0.000002 1.570798
    53 7.223960 5.068053 -1.800000 -3.141592 -0.000002 1.570798
    54 7.223950 5.068052 0.000000 -3.141592 -0.000002 1.570798
    55 3.723979 2.768055 -0.395205 -3.141592 -0.000098 1.570894
    56 20.747295 -0.313698 4.522630 0.003878 0.001942 1.564441
    57 2.448332 0.177352 0.168606 1.543132 0.019570 -3.045716
  time 3
    0 0.043736 4.993041 26.847359 -0.087643 0.075954 -2.012390
    1 -0.526041 0.000001 9.745319 -1.570764 -1.570457 0.000000
    2 -0.000009 0.000014 5.615740 -0.145432 3.558430 -0.784772
    3 15.693467 0.000042 -0.000137 -0.000002 0.000005 -0.470534
    4 22.146626 -0.000002 0.000000 0.148819 -0.130166 -0.276605
    5 0.000009 -0.000011 -5.615755 0.148413 3.005924 -0.304265
    6 15.693451 0.000043 -0.000136 -0.000002 0.000005 -0.810109
    7 22.146624 -0.000001 0.000000 0.329487 0.183288 0.547609
    8 1.384163 -0.004727 0.000003 -0.226869 -0.113982 0.459088
    9 5.939812 -0.004729 0.000088 0.000000 0.000000 0.000000
    10 5.939812 -0.003975 0.000088 0.000000 0.000000 0.000000
    11 4.991436 -0.003974 0.000074 0.000000 0.000000 0.165751
    12 4.991427 -0.001574 0.000074 0.000000 0.000009 0.000016
    13 -0.001670 0.001564 3.638373 -0.000014 -1.284225 3.140794
    14 8.842823 0.000002 0.000054 -0.751126 0.282380 -1.290163
    15 0.001739 0.001585 -3.638374 -0.000014 1.284245 3.140766
    16 8.842813 0.000001 -0.000025 0.450526 -0.704190 -1.620577
    17 1.977402 -0.000032 0.003050 0.641062 0.201468 0.006144
    18 9.341940 0.000000 0.000009 0.000000 0.000000 -0.785011
    19 11.168410 0.000002 -0.000001 -4.085523 0.595075 -0.388772
    20 1.364904 0.231181 -1.984410 2.565479 0.787601 1.289722
    21 1.748533 -0.000003 0.000002 0.000000 0.000000 -0.043585
    22 1.272493 0.000001 -0.000003 0.000000 0.000000 0.253072
    23 4.525584 -0.000299 -1.850222 0.062830 0.072703 0.735167
    24 1.719874 -0.000007 0.000000 0.000000 0.000000 0.619460
    25 1.383651 0.000003 0.000001 0.000000 0.000000 0.741633
    26 4.525585 -0.000096 -0.616739 0.033489 0.040263 0.733554
    27 1.807677 -0.000001 -0.000002 0.000000 0.000000 0.567102
    28 1.614256 -0.000004 0.000003 0.000000 0.000000 0.741755
    29 4.525583 0.000106 0.616741 0.021799 0.027352 0.733188
    30 1.719871 -0.000003 0.000000 0.000000 0.000000 0.366391
    31 1.383651 -0.000001 0.000001 0.000000 0.000000 0.741631
    32 4.525584 0.000309 1.850224 -0.024798 -0.024653 0.733228
    33 1.433228 -0.000003 0.000000 0.000000 0.000000 0.366391
    34 1.153038 -0.000001 0.000000 0.000000 0.000000 0.741627
    35 9.341949 0.000000 0.000007 0.000000 0.000000 -1.656731
    36 11.168407 0.000002 0.000011 1.952832 0.147837 1.052015
    37 1.364906 0.231175 1.984408 -3.139678 0.004122 1.002247
    38 1.748534 0.000002 -0.000001 0.000000 0.000000 0.436264
    39 1.272493 0.000003 0.000002 0.000000 0.000000 0.322870
    40 4.525587 -0.000302 1.850221 -0.016317 -0.094622 0.192575
    41 1.719872 0.000007 0.000000 0.000000 0.000000 0.453708
    42 1.383647 0.000004 -0.000001 0.000000 0.000000 1.108155
    43 4.525585 -0.000102 0.616738 -0.040896 -0.032761 0.934331
    44 1.807677 -0.000002 -0.000002 0.000000 0.000000 0.907547
    45 1.614256 0.000001 0.000000 0.000000 0.000000 1.151884
    46 4.525587 0.000102 -0.616743 -0.026857 -0.022390 0.933926
    47 1.719867 0.000001 0.000001 0.000000 0.000000 0.907547
    48 1.383648 0.000001 -0.000001 0.000000 0.000000 1.151884
    49 4.525586 0.000303 -1.850223 0.029257 0.019200 0.933948
    50 1.433227 0.000002 0.000000 0.000000 0.000000 0.907396
    51 1.153036 0.000004 0.000000 0.000000 0.000000 1.151753
    52 7.223970 5.068054 1.800000 -3.141592 -0.000002 1.570798
    53 7.223960 5.068053 -1.800000 -3.141592 -0.000002 1.570798
    54 7.223950 5.068052 0.000000 -3.141592 -0.000002 1.570798
    55 3.723979 2.768055 -0.395205 -3.141592 -0.000098 1.570894
    56 20.747295 -0.313698 4.522630 0.003878 0.001942 1.564441
    57 2.448332 0.177352 0.168606 1.543132 0.019570 -3.045716
  time 4
    0 0.043736 5.056420 26.631781 -0.084380 0.068789 -2.011911
    1 -0.526041 0.000001 9.745319 -1.570764 -1.570457 0.000000
    2 -0.000009 0.000014 5.615740 -0.140159 3.560059 -0.798247
    3 15.693467 0.000042 -0.000137 -0.000002 0.000005 -0.495432
    4 22.146626 -0.000002 0.000000 0.150165 -0.130463 -0.272078
    5 0.000009 -0.000011 -5.615755 0.144194 3.000364 -0.320369
    6 15.693451 0.000043 -0.000136 -0.000002 0.000005 -0.845687
    7 22.146624 -0.000001 0.000000 0.329600 0.182183 0.560292
    8 1.384163 -0.004727 0.000003 -0.226869 -0.113982 0.459088
    9 5.939812 -0.004729 0.000088 0.000000 0.000000 0.000000
    10 5.939812 -0.003975 0.000088 0.000000 0.000000 0.000000
    11 4.991436 -0.003974 0.000074 0.000000 0.000000 0.165751
    12 4.991427 -0.001574 0.000074 0.000000 0.000009 0.000016
    13 -0.001670 0.001564 3.638373 -0.000014 -1.284225 3.140794
    14 8.842823 0.000002 0.000054 -0.752954 0.274380 -1.288670
    15 0.001739 0.001585 -3.638374 -0.000014 1.284245 3.140766
    16 8.842813 0.000001 -0.000025 0.448591 -0.704987 -1.617242
    17 1.977402 -0.000032 0.003050 0.641062 0.201468 0.006144
    18 9.341940 0.000000 0.000009 0.000000 0.000000 -0.805512
    19 11.168410 0.000002 -0.000001 -4.075879 0.600816 -0.369806
    20 1.364904 0.231181 -1.984410 2.565479 0.787601 1.289722
    21 1.748533 -0.000003 0.000002 0.000000 0.000000 -0.043585
    22 1.272493 0.000001 -0.000003 0.000000 0.000000 0.253072
    23 4.525584 -0.000299 -1.850222 0.062830 0.072703 0.735167
    24 1.719874 -0.000007 0.000000 0.000000 0.000000 0.619460
    25 1.383651 0.000003 0.000001 0.000000 0.000000 0.741633
    26 4.525585 -0.000096 -0.616739 0.033489 0.040263 0.733554
    27 1.807677 -0.000001 -0.000002 0.000000 0.000000 0.567102
    28 1.614256 -0.000004 0.000003 0.000000 0.000000 0.741755
    29 4.525583 0.000106 0.616741 0.021799 0.027352 0.733188
    30 1.719871 -0.000003 0.000000 0.000000 0.000000 0.366391
    31 1.383651 -0.000001 0.000001 0.000000 0.000000 0.741631
    32 4.525584 0.000309 1.850224 -0.024798 -0.024653 0.733228
    33 1.433228 -0.000003 0.000000 0.000000 0.000000 0.366391
    34 1.153038 -0.000001 0.000000 0.000000 0.000000 0.741627
    35 9.341949 0.000000 0.000007 0.000000 0.000000 -1.667323
    36 11.168407 0.000002 0.000011 1.951154 0.155345 1.043931
    37 1.364906 0.231175 1.984408 -3.139678 0.004122 1.002247
    38 1.748534 0.000002 -0.000001 0.000000 0.000000 0.436264
    39 1.272493 0.000003 0.000002 0.000000 0.000000 0.322870
    40 4.525587 -0.000302 1.850221 -0.016317 -0.094622 0.192575
    41 1.719872 0.000007 0.000000 0.000000 0.000000 0.453708
    42 1.383647 0.000004 -0.000001 0.000000 0.000000 1.108155
    43 4.525585 -0.000102 0.616738 -0.040896 -0.032761 0.934331
    44 1.807677 -0.000002 -0.000002 0.000000 0.000000 0.907547
    45 1.614256 0.000001 0.000000 0.000000 0.000000 1.151884
    46 4.525587 0.000102 -0.616743 -0.026857 -0.022390 0.933926
    47 1.719867 0.000001 0.000001 0.000000 0.000000 0.907547
    48 1.383648 0.000001 -0.000001 0.000000 0.000000 1.151884
    49 4.525586 0.000303 -1.850223 0.029257 0.019200 0.933948
    50 1.433227 0.000002 0.000000 0.000000 0.000000 0.907396
    51 1.153036 0.000004 0.000000 0.000000 0.000000 1.151753
    52 7.223970 5.068054 1.800000 -3.141592 -0.000002 1.570798
    53 7.223960 5.068053 -1.800000 -3.141592 -0.000002 1.570798
    54 7.223950 5.068052 0.000000 -3.141592 -0.000002 1.570798
    55 3.723979 2.768055 -0.395205 -3.141592 -0.000098 1.570894
    56 20.747295 -0.313698 4.522630 0.003878 0.001942 1.564441
    57 2.448332 0.177352 0.168606 1.543132 0.019570 -3.045716
  time 5
    0 0.043736 5.105714 26.435801 -0.082888 0.066878 -2.011719
    1 -0.526041 0.000001 9.745319 -1.570764 -1.570457 0.000000
    2 -0.000009 0.000014 5.615740 -0.131051 3.563030 -0.819942
    3 15.693467 0.000042 -0.000137 -0.000002 0.000005 -0.526021
    4 22.146626 -0.000002 0.000000 0.150614 -0.131305 -0.264076
    5 0.000009 -0.000011 -5.615755 0.141126 2.996721 -0.337144
    6 15.693451 0.000043 -0.000136 -0.000002 0.000005 -0.875757
    7 22.146624 -0.000001 0.000000 0.329600 0.181876 0.572183
    8 1.384163 -0.004727 0.000003 -0.226869 -0.113982 0.459088
    9 5.939812 -0.004729 0.000088 0.000000 0.000000 0.000000
    10 5.939812 -0.003975 0.000088 0.000000 0.000000 0.000000
    11 4.991436 -0.003974 0.000074 0.000000 0.000000 0.165751
    12 4.991427 -0.001574 0.000074 0.000000 0.000009 0.000016
    13 -0.001670 0.001564 3.638373 -0.000014 -1.284225 3.140794
    14 8.842823 0.000002 0.000054 -0.751308 0.275682 -1.278891
    15 0.001739 0.001585 -3.638374 -0.000014 1.284245 3.140766
    16 8.842813 0.000001 -0.000025 0.436739 -0.711892 -1.602377
    17 1.977402 -0.000032 0.003050 0.641062 0.201468 0.006144
    18 9.341940 0.000000 0.000009 0.000000 0.000000 -0.858896
    19 11.168410 0.000002 -0.000001 -4.058977 0.605122 -0.330596
    20 1.364904 0.231181 -1.984410 2.565479 0.787601 1.289722
    21 1.748533 -0.000003 0.000002 0.000000 0.000000 -0.043585
    22 1.272493 0.000001 -0.000003 0.000000 0.000000 0.253072
    23 4.525584 -0.000299 -1.850222 0.062830 0.072703 0.735167
    24 1.719874 -0.000007 0.000000 0.000000 0.000000 0.619460
    25 1.383651 0.000003 0.000001 0.000000 0.000000 0.741633
    26 4.525585 -0.000096 -0.616739 0.033489 0.040263 0.733554
    27 1.807677 -0.000001 -0.000002 0.000000 0.000000 0.567102
    28 1.614256 -0.000004 0.000003 0.000000 0.000000 0.741755
    29 4.525583 0.000106 0.616741 0.021799 0.027352 0.733188
    30 1.719871 -0.000003 0.000000 0.000000 0.000000 0.366391
    31 1.383651 -0.000001 0.000001 0.000000 0.000000 0.741631
    32 4.525584 0.000309 1.850224 -0.024798 -0.024653 0.733228
    33 1.433228 -0.000003 0.000000 0.000000 0.000000 0.366391
    34 1.153038 -0.000001 0.000000 0.000000 0.000000 0.741627
    35 9.341949 0.000000 0.000007 0.000000 0.000000 -1.698234
    36 11.168407 0.000002 0.000011 1.949383 0.168270 1.039700
    37 1.364906 0.231175 1.984408 -3.139678 0.004122 1.002247
    38 1.748534 0.000002 -0.000001 0.000000 0.000000 0.436264
    39 1.272493 0.000003 0.000002 0.000000 0.000000 0.322870
    40 4.525587 -0.000302 1.850221 -0.016317 -0.094622 0.192575
    41 1.719872 0.000007 0.000000 0.000000 0.000000 0.453708
    42 1.383647 0.000004 -0.000001 0.000000 0.000000 1.108155
    43 4.525585 -0.000102 0.616738 -0.040896 -0.032761 0.934331
    44 1.807677 -0.000002 -0.000002 0.000000 0.000000 0.907547
    45 1.614256 0.000001 0.000000 0.000000 0.000000 1.151884
    46 4.525587 0.000102 -0.616743 -0.026857 -0.022390 0.933926
    47 1.719867 0.000001 0.000001 0.000000 0.000000 0.907547
    48 1.383648 0.000001 -0.000001 0.000000 0.000000 1.151884
    49 4.525586 0.000303 -1.850223 0.029257 0.019200 0.933948
    50 1.433227 0.000002 0.000000 0.000000 0.000000 0.907396
    51 1.153036 0.000004 0.000000 0.000000 0.000000 1.151753
    52 7.223970 5.068054 1.800000 -3.141592 -0.000002 1.570798
    53 7.223960 5.068053 -1.800000 -3.141592 -0.000002 1.570798
    54 7.223950 5.068052 0.000000 -3.141592 -0.000002 1.570798
    55 3.723979 2.768055 -0.395205 -3.141592 -0.000098 1.570894
    56 20.747295 -0.313698 4.522630 0.003878 0.001942 1.564441
    57 2.448332 0.177352 0.168606 1.543132 0.019570 -3.045716
  time 6
    0 0.043736 5.133883 26.318213 -0.084100 0.070795 -2.012199
    1 -0.526041 0.000001 9.745319 -1.570764 -1.570457 0.000000
    2 -0.000009 0.000014 5.615740 -0.122711 3.566001 -0.839726
    3 15.693467 0.000042 -0.000137 -0.000002 0.000005 -0.548216
    4 22.146626 -0.000002 0.000000 0.149978 -0.132271 -0.256028
    5 0.000009 -0.000011 -5.615755 0.140359 2.996337 -0.347305
    6 15.693451 0.000043 -0.000136 -0.000002 0.000005 -0.888187
    7 22.146624 -0.000001 0.000000 0.329600 0.182582 0.577996
    8 1.384163 -0.004727 0.000003 -0.226869 -0.113982 0.459088
    9 5.939812 -0.004729 0.000088 0.000000 0.000000 0.000000
    10 5.939812 -0.003975 0.000088 0.000000 0.000000 0.000000
    11 4.991436 -0.003974 0.000074 0.000000 0.000000 0.165751
    12 4.991427 -0.001574 0.000074 0.000000 0.000009 0.000016
    13 -0.001670 0.001564 3.638373 -0.000014 -1.284225 3.140794
    14 8.842823 0.000002 0.000054 -0.746645 0.286845 -1.263737
    15 0.001739 0.001585 -3.638374 -0.000014 1.284245 3.140766
    16 8.842813 0.000001 -0.000025 0.408359 -0.728181 -1.569503
    17 1.977402 -0.000032 0.003050 0.641062 0.201468 0.006144
    18 9.341940 0.000000 0.000009 0.000000 0.000000 -0.935405
    19 11.168410 0.000002 -0.000001 -4.033482 0.606175 -0.277530
    20 1.364904 0.231181 -1.984410 2.565479 0.787601 1.289722
    21 1.748533 -0.000003 0.000002 0.000000 0.000000 -0.043585
    22 1.272493 0.000001 -0.000003 0.000000 0.000000 0.253072
    23 4.525584 -0.000299 -1.850222 0.062830 0.072703 0.735167
    24 1.719874 -0.000007 0.000000 0.000000 0.000000 0.619460
    25 1.383651 0.000003 0.000001 0.000000 0.000000 0.741633
    26 4.525585 -0.000096 -0.616739 0.033489 0.040263 0.733554
    27 1.807677 -0.000001 -0.000002 0.000000 0.000000 0.567102
    28 1.614256 -0.000004 0.000003 0.000000 0.000000 0.741755
    29 4.525583 0.000106 0.616741 0.021799 0.027352 0.733188
    30 1.719871 -0.000003 0.000000 0.000000 0.000000 0.366391
    31 1.383651 -0.000001 0.000001 0.000000 0.000000 0.741631
    32 4.525584 0.000309 1.850224 -0.024798 -0.024653 0.733228
    33 1.433228 -0.000003 0.000000 0.000000 0.000000 0.366391
    34 1.153038 -0.000001 0.000000 0.000000 0.000000 0.741627
    35 9.341949 0.000000 0.000007 0.000000 0.000000 -1.747331
    36 11.168407 0.000002 0.000011 1.947332 0.189844 1.032744
    37 1.364906 0.231175 1.984408 -3.139678 0.004122 1.002247
    38 1.748534 0.000002 -0.000001 0.000000 0.000000 0.436264
    39 1.272493 0.000003 0.000002 0.000000 0.000000 0.322870
    40 4.525587 -0.000302 1.850221 -0.016317 -0.094622 0.192575
    41 1.719872 0.000007 0.000000 0.000000 0.000000 0.453708
    42 1.383647 0.000004 -0.000001 0.000000 0.000000 1.108155
    43 4.525585 -0.000102 0.616738 -0.040896 -0.032761 0.934331
    44 1.807677 -0.000002 -0.000002 0.000000 0.000000 0.907547
    45 1.614256 0.000001 0.000000 0.000000 0.000000 1.151884
    46 4.525587 0.000102 -0.616743 -0.026857 -0.022390 0.933926
    47 1.719867 0.000001 0.000001 0.000000 0.000000 0.907547
    48 1.383648 0.000001 -0.000001 0.000000 0.000000 1.151884
    49 4.525586 0.000303 -1.850223 0.029257 0.019200 0.933948
    50 1.433227 0.000002 0.000000 0.000000 0.000000 0.907396
    51 1.153036 0.000004 0.000000 0.000000 0.000000 1.151753
    52 7.223970 5.068054 1.800000 -3.141592 -0.000002 1.570798
    53 7.223960 5.068053 -1.800000 -3.141592 -0.000002 1.570798
    54 7.223950 5.068052 0.000000 -3.141592 -0.000002 1.570798
    55 3.723979 2.768055 -0.395205 -3.141592 -0.000098 1.570894
    56 20.747295 -0.313698 4.522630 0.003878 0.001942 1.564441
    57 2.448332 0.177352 0.168606 1.543132 0.019570 -3.045716
  time 7
    0 0.043736 5.133883 26.318213 -0.087923 0.079967 -2.013157
    1 -0.526041 0.000001 9.745319 -1.570764 -1.570457 0.000000
    2 -0.000009 0.000014 5.615740 -0.115425 3.568684 -0.856546
    3 15.693467 0.000042 -0.000137 -0.000002 0.000005 -0.561305
    4 22.146626 -0.000002 0.000000 0.148446 -0.133212 -0.248391
    5 0.000009 -0.000011 -5.615755 0.141893 2.999118 -0.350660
    6 15.693451 0.000043 -0.000136 -0.000002 0.000005 -0.882679
    7 22.146624 -0.000001 0.000000 0.329487 0.184086 0.578084
    8 1.384163 -0.004727 0.000003 -0.226869 -0.113982 0.459088
    9 5.939812 -0.004729 0.000088 0.000000 0.000000 0.000000
    10 5.939812 -0.003975 0.000088 0.000000 0.000000 0.000000
    11 4.991436 -0.003974 0.000074 0.000000 0.000000 0.165751
    12 4.991427 -0.001574 0.000074 0.000000 0.000009 0.000016
    13 -0.001670 0.001564 3.638373 -0.000014 -1.284225 3.140794
    14 8.842823 0.000002 0.000054 -0.757527 0.256984 -1.281429
    15 0.001739 0.001585 -3.638374 -0.000014 1.284245 3.140766
    16 8.842813 0.000001 -0.000025 0.450123 -0.703836 -1.620863
    17 1.977402 -0.000032 0.003050 0.641062 0.201468 0.006144
    18 9.341940 0.000000 0.000009 0.000000 0.000000 -0.852417
    19 11.168410 0.000002 -0.000001 -4.059264 0.614116 -0.330989
    20 1.364904 0.231181 -1.984410 2.565479 0.787601 1.289722
    21 1.748533 -0.000003 0.000002 0.000000 0.000000 -0.043585
    22 1.272493 0.000001 -0.000003 0.000000 0.000000 0.253072
    23 4.525584 -0.000299 -1.850222 0.062830 0.072703 0.735167
    24 1.719874 -0.000007 0.000000 0.000000 0.000000 0.619460
    25 1.383651 0.000003 0.000001 0.000000 0.000000 0.741633
    26 4.525585 -0.000096 -0.616739 0.033489 0.040263 0.733554
    27 1.807677 -0.000001 -0.000002 0.000000 0.000000 0.567102
    28 1.614256 -0.000004 0.000003 0.000000 0.000000 0.741755
    29 4.525583 0.000106 0.616741 0.021799 0.027352 0.733188
    30 1.719871 -0.000003 0.000000 0.000000 0.000000 0.366391
    31 1.383651 -0.000001 0.000001 0.000000 0.000000 0.741631
    32 4.525584 0.000309 1.850224 -0.024798 -0.024653 0.733228
    33 1.433228 -0.000003 0.000000 0.000000 0.000000 0.366391
    34 1.153038 -0.000001 0.000000 0.000000 0.000000 0.741627
    35 9.341949 0.000000 0.000007 0.000000 0.000000 -1.684444
    36 11.168407 0.000002 0.000011 1.946307 0.172547 1.030581
    37 1.364906 0.231175 1.984408 -3.139678 0.004122 1.002247
    38 1.748534 0.000002 -0.000001 0.000000 0.000000 0.436264
    39 1.272493 0.000003 0.000002 0.000000 0.000000 0.322870
    40 4.525587 -0.000302 1.850221 -0.016317 -0.094622 0.192575
    41 1.719872 0.000007 0.000000 0.000000 0.000000 0.453708
    42 1.383647 0.000004 -0.000001 0.000000 0.000000 1.108155
    43 4.525585 -0.000102 0.616738 -0.040896 -0.032761 0.934331
    44 1.807677 -0.000002 -0.000002 0.000000 0.000000 0.907547
    45 1.614256 0.000001 0.000000 0.000000 0.000000 1.151884
    46 4.525587 0.000102 -0.616743 -0.026857 -0.022390 0.933926
    47 1.719867 0.000001 0.000001 0.000000 0.000000 0.907547
    48 1.383648 0.000001 -0.000001 0.000000 0.000000 1.151884
    49 4.525586 0.000303 -1.850223 0.029257 0.019200 0.933948
    50 1.433227 0.000002 0.000000 0.000000 0.000000 0.907396
    51 1.153036 0.000004 0.000000 0.000000 0.000000 1.151753
    52 7.223970 5.068054 1.800000 -3.141592 -0.000002 1.570798
    53 7.223960 5.068053 -1.800000 -3.141592 -0.000002 1.570798
    54 7.223950 5.068052 0.000000 -3.141592 -0.000002 1.570798
    55 3.723979 2.768055 -0.395205 -3.141592 -0.000098 1.570894
    56 20.747295 -0.313698 4.522630 0.003878 0.001942 1.564441
    57 2.448332 0.177352 0.168606 1.543132 0.019570 -3.045716
  time 8
    0 0.043736 5.119799 26.377007 -0.093144 0.093056 -2.014499
    1 -0.526041 0.000001 9.745319 -1.570764 -1.570457 0.000000
    2 -0.000009 0.000014 5.615740 -0.107372 3.571654 -0.874896
    3 15.693467 0.000042 -0.000137 -0.000002 0.000005 -0.573043
    4 22.146626 -0.000002 0.000000 0.146165 -0.134475 -0.239612
    5 0.000009 -0.000011 -5.615755 0.144769 3.003719 -0.351618
    6 15.693451 0.000043 -0.000136 -0.000002 0.000005 -0.868686
    7 22.146624 -0.000001 0.000000 0.329318 0.186204 0.575706
    8 1.384163 -0.004727 0.000003 -0.226869 -0.113982 0.459088
    9 5.939812 -0.004729 0.000088 0.000000 0.000000 0.000000
    10 5.939812 -0.003975 0.000088 0.000000 0.000000 0.000000
    11 4.991436 -0.003974 0.000074 0.000000 0.000000 0.165751
    12 4.991427 -0.001574 0.000074 0.000000 0.000009 0.000016
    13 -0.001670 0.001564 3.638373 -0.000014 -1.284225 3.140794
    14 8.842823 0.000002 0.000054 -0.765574 0.231682 -1.296359
    15 0.001739 0.001585 -3.638374 -0.000014 1.284245 3.140766
    16 8.842813 0.000001 -0.000025 0.481245 -0.683652 -1.661075
    17 1.977402 -0.000032 0.003050 0.641062 0.201468 0.006144
    18 9.341940 0.000000 0.000009 0.000000 0.000000 -0.784273
    19 11.168410 0.000002 -0.000001 -4.079699 0.619953 -0.374867
    20 1.364904 0.231181 -1.984410 2.565479 0.787601 1.289722
    21 1.748533 -0.000003 0.000002 0.000000 0.000000 -0.043585
    22 1.272493 0.000001 -0.000003 0.000000 0.000000 0.253072
    23 4.525584 -0.000299 -1.850222 0.062830 0.072703 0.735167
    24 1.719874 -0.000007 0.000000 0.000000 0.000000 0.619460
    25 1.383651 0.000003 0.000001 0.000000 0.000000 0.741633
    26 4.525585 -0.000096 -0.616739 0.033489 0.040263 0.733554
    27 1.807677 -0.000001 -0.000002 0.000000 0.000000 0.567102
    28 1.614256 -0.000004 0.000003 0.000000 0.000000 0.741755
    29 4.525583 0.000106 0.616741 0.021799 0.027352 0.733188
    30 1.719871 -0.000003 0.000000 0.000000 0.000000 0.366391
    31 1.383651 -0.000001 0.000001 0.000000 0.000000 0.741631
    32 4.525584 0.000309 1.850224 -0.024798 -0.024653 0.733228
    33 1.433228 -0.000003 0.000000 0.000000 0.000000 0.366391
    34 1.153038 -0.000001 0.000000 0.000000 0.000000 0.741627
    35 9.341949 0.000000 0.000007 0.000000 0.000000 -1.633215
    36 11.168407 0.000002 0.000011 1.945002 0.160287 1.028231
    37 1.364906 0.231175 1.984408 -3.139678 0.004122 1.002247
    38 1.748534 0.000002 -0.000001 0.000000 0.000000 0.436264
    39 1.272493 0.000003 0.000002 0.000000 0.000000 0.322870
    40 4.525587 -0.000302 1.850221 -0.016317 -0.094622 0.192575
    41 1.719872 0.000007 0.000000 0.000000 0.000000 0.453708
    42 1.383647 0.000004 -0.000001 0.000000 0.000000 1.108155
    43 4.525585 -0.000102 0.616738 -0.040896 -0.032761 0.934331
    44 1.807677 -0.000002 -0.000002 0.000000 0.000000 0.907547
    45 1.614256 0.000001 0.000000 0.000000 0.000000 1.151884
    46 4.525587 0.000102 -0.616743 -0.026857 -0.022390 0.933926
    47 1.719867 0.000001 0.000001 0.000000 0.000000 0.907547
    48 1.383648 0.000001 -0.000001 0.000000 0.000000 1.151884
    49 4.525586 0.000303 -1.850223 0.029257 0.019200 0.933948
    50 1.433227 0.000002 0.000000 0.000000 0.000000 0.907396
    51 1.153036 0.000004 0.000000 0.000000 0.000000 1.151753
    52 7.223970 5.068054 1.800000 -3.141592 -0.000002 1.570798
    53 7.223960 5.068053 -1.800000 -3.141592 -0.000002 1.570798
    54 7.223950 5.068052 0.000000 -3.141592 -0.000002 1.570798
    55 3.723979 2.768055 -0.395205 -3.141592 -0.000098 1.570894
    56 20.747295 -0.313698 4.522630 0.003878 0.001942 1.564441
    57 2.448332 0.177352 0.168606 1.543132 0.019570 -3.045716
  time 9
    0 0.043736 5.098672 26.455399 -0.099391 0.108533 -2.016033
    1 -0.526041 0.000001 9.745319 -1.570764 -1.570457 0.000000
    2 -0.000009 0.000014 5.615740 -0.098936 3.574721 -0.893915
    3 15.693467 0.000042 -0.000137 -0.000002 0.000005 -0.583002
    4 22.146626 -0.000002 0.000000 0.143474 -0.135738 -0.230146
    5 0.000009 -0.000011 -5.615755 0.148508 3.009567 -0.350660
    6 15.693451 0.000043 -0.000136 -0.000002 0.000005 -0.848441
    7 22.146624 -0.000001 0.000000 0.329318 0.188660 0.571478
    8 1.384163 -0.004727 0.000003 -0.226869 -0.113982 0.459088
    9 5.939812 -0.004729 0.000088 0.000000 0.000000 0.000000
    10 5.939812 -0.003975 0.000088 0.000000 0.000000 0.000000
    11 4.991436 -0.003974 0.000074 0.000000 0.000000 0.165751
    12 4.991427 -0.001574 0.000074 0.000000 0.000009 0.000016
    13 -0.001670 0.001564 3.638373 -0.000014 -1.284225 3.140794
    14 8.842823 0.000002 0.000054 -0.771975 0.209077 -1.309572
    15 0.001739 0.001585 -3.638374 -0.000014 1.284245 3.140766
    16 8.842813 0.000001 -0.000025 0.505836 -0.666035 -1.694616
    17 1.977402 -0.000032 0.003050 0.641062 0.201468 0.006144
    18 9.341940 0.000000 0.000009 0.000000 0.000000 -0.725805
    19 11.168410 0.000002 -0.000001 -4.096887 0.624833 -0.411915
    20 1.364904 0.231181 -1.984410 2.565479 0.787601 1.289722
    21 1.748533 -0.000003 0.000002 0.000000 0.000000 -0.043585
    22 1.272493 0.000001 -0.000003 0.000000 0.000000 0.253072
    23 4.525584 -0.000299 -1.850222 0.062830 0.072703 0.735167
    24 1.719874 -0.000007 0.000000 0.000000 0.000000 0.619460
    25 1.383651 0.000003 0.000001 0.000000 0.000000 0.741633
    26 4.525585 -0.000096 -0.616739 0.033489 0.040263 0.733554
    27 1.807677 -0.000001 -0.000002 0.000000 0.000000 0.567102
    28 1.614256 -0.000004 0.000003 0.000000 0.000000 0.741755
    29 4.525583 0.000106 0.616741 0.021799 0.027352 0.733188
    30 1.719871 -0.000003 0.000000 0.000000 0.000000 0.366391
    31 1.383651 -0.000001 0.000001 0.000000 0.000000 0.741631
    32 4.525584 0.000309 1.850224 -0.024798 -0.024653 0.733228
    33 1.433228 -0.000003 0.000000 0.000000 0.000000 0.366391
    34 1.153038 -0.000001 0.000000 0.000000 0.000000 0.741627
    35 9.341949 0.000000 0.000007 0.000000 0.000000 -1.589980
    36 11.168407 0.000002 0.000011 1.943231 0.150783 1.026257
    37 1.364906 0.231175 1.984408 -3.139678 0.004122 1.002247
    38 1.748534 0.000002 -0.000001 0.000000 0.000000 0.436264
    39 1.272493 0.000003 0.000002 0.000000 0.000000 0.322870
    40 4.525587 -0.000302 1.850221 -0.016317 -0.094622 0.192575
    41 1.719872 0.000007 0.000000 0.000000 0.000000 0.453708
    42 1.383647 0.000004 -0.000001 0.000000 0.000000 1.108155
    43 4.525585 -0.000102 0.616738 -0.040896 -0.032761 0.934331
    44 1.807677 -0.000002 -0.000002 0.000000 0.000000 0.907547
    45 1.614256 0.000001 0.000000 0.000000 0.000000 1.151884
    46 4.525587 0.000102 -0.616743 -0.026857 -0.022390 0.933926
    47 1.719867 0.000001 0.000001 0.000000 0.000000 0.907547
    48 1.383648 0.000001 -0.000001 0.000000 0.000000 1.151884
    49 4.525586 0.000303 -1.850223 0.029257 0.019200 0.933948
    50 1.433227 0.000002 0.000000 0.000000 0.000000 0.907396
    51 1.153036 0.000004 0.000000 0.000000 0.000000 1.151753
    52 7.223970 5.068054 1.800000 -3.141592 -0.000002 1.570798
    53 7.223960 5.068053 -1.800000 -3.141592 -0.000002 1.570798
    54 7.223950 5.068052 0.000000 -3.141592 -0.000002 1.570798
    55 3.723979 2.768055 -0.395205 -3.141592 -0.000098 1.570894
    56 20.747295 -0.313698 4.522630 0.003878 0.001942 1.564441
    57 2.448332 0.177352 0.168606 1.543132 0.019570 -3.045716
  time 10
    0 0.043736 5.063462 26.553389 -0.106477 0.125253 -2.018334
    1 -0.526041 0.000001 9.745319 -1.570764 -1.570457 0.000000
    2 -0.000009 0.000014 5.615740 -0.090020 3.577787 -0.913316
    3 15.693467 0.000042 -0.000137 -0.000002 0.000005 -0.592321
    4 22.146626 -0.000002 0.000000 0.140558 -0.137001 -0.220544
    5 0.000009 -0.000011 -5.615755 0.152248 3.016278 -0.348647
    6 15.693451 0.000043 -0.000136 -0.000002 0.000005 -0.824623
    7 22.146624 -0.000001 0.000000 0.329318 0.191269 0.565841
    8 1.384163 -0.004727 0.000003 -0.226869 -0.113982 0.459088
    9 5.939812 -0.004729 0.000088 0.000000 0.000000 0.000000
    10 5.939812 -0.003975 0.000088 0.000000 0.000000 0.000000
    11 4.991436 -0.003974 0.000074 0.000000 0.000000 0.165751
    12 4.991427 -0.001574 0.000074 0.000000 0.000009 0.000016
    13 -0.001670 0.001564 3.638373 -0.000014 -1.284225 3.140794
    14 8.842823 0.000002 0.000054 -0.777461 0.186751 -1.321964
    15 0.001739 0.001585 -3.638374 -0.000014 1.284245 3.140766
    16 8.842813 0.000001 -0.000025 0.527604 -0.649215 -1.725394
    17 1.977402 -0.000032 0.003050 0.641062 0.201468 0.006144
    18 9.341940 0.000000 0.000009 0.000000 0.000000 -0.671190
    19 11.168410 0.000002 -0.000001 -4.112833 0.629138 -0.445720
    20 1.364904 0.231181 -1.984410 2.565479 0.787601 1.289722
    21 1.748533 -0.000003 0.000002 0.000000 0.000000 -0.043585
    22 1.272493 0.000001 -0.000003 0.000000 0.000000 0.253072
    23 4.525584 -0.000299 -1.850222 0.062830 0.072703 0.735167
    24 1.719874 -0.000007 0.000000 0.000000 0.000000 0.619460
    25 1.383651 0.000003 0.000001 0.000000 0.000000 0.741633
    26 4.525585 -0.000096 -0.616739 0.033489 0.040263 0.733554
    27 1.807677 -0.000001 -0.000002 0.000000 0.000000 0.567102
    28 1.614256 -0.000004 0.000003 0.000000 0.000000 0.741755
    29 4.525583 0.000106 0.616741 0.021799 0.027352 0.733188
    30 1.719871 -0.000003 0.000000 0.000000 0.000000 0.366391
    31 1.383651 -0.000001 0.000001 0.000000 0.000000 0.741631
    32 4.525584 0.000309 1.850224 -0.024798 -0.024653 0.733228
    33 1.433228 -0.000003 0.000000 0.000000 0.000000 0.366391
    34 1.153038 -0.000001 0.000000 0.000000 0.000000 0.741627
    35 9.341949 0.000000 0.000007 0.000000 0.000000 -1.550209
    36 11.168407 0.000002 0.000011 1.941553 0.142895 1.024753
    37 1.364906 0.231175 1.984408 -3.139678 0.004122 1.002247
    38 1.748534 0.000002 -0.000001 0.000000 0.000000 0.436264
    39 1.272493 0.000003 0.000002 0.000000 0.000000 0.322870
    40 4.525587 -0.000302 1.850221 -0.016317 -0.094622 0.192575
    41 1.719872 0.000007 0.000000 0.000000 0.000000 0.453708
    42 1.383647 0.000004 -0.000001 0.000000 0.000000 1.108155
    43 4.525585 -0.000102 0.616738 -0.040896 -0.032761 0.934331
    44 1.807677 -0.000002 -0.000002 0.000000 0.000000 0.907547
    45 1.614256 0.000001 0.000000 0.000000 0.000000 1.151884
    46 4.525587 0.000102 -0.616743 -0.026857 -0.022390 0.933926
    47 1.719867 0.000001 0.000001 0.000000 0.000000 0.907547
    48 1.383648 0.000001 -0.000001 0.000000 0.000000 1.151884
    49 4.525586 0.000303 -1.850223 0.029257 0.019200 0.933948
    50 1.433227 0.000002 0.000000 0.000000 0.000000 0.907396
    51 1.153036 0.000004 0.000000 0.000000 0.000000 1.151753
    52 7.223970 5.068054 1.800000 -3.141592 -0.000002 1.570798
    53 7.223960 5.068053 -1.800000 -3.141592 -0.000002 1.570798
    54 7.223950 5.068052 0.000000 -3.141592 -0.000002 1.570798
    55 3.723979 2.768055 -0.395205 -3.141592 -0.000098 1.570894
    56 20.747295 -0.313698 4.522630 0.003878 0.001942 1.564441
    57 2.448332 0.177352 0.168606 1.543132 0.019570 -3.045716
  time 11
    0 0.043736 5.035294 26.651379 -0.113563 0.141972 -2.020060
    1 -0.526041 0.000001 9.745319 -1.570764 -1.570457 0.000000
    2 -0.000009 0.000014 5.615740 -0.081488 3.580758 -0.932431
    3 15.693467 0.000042 -0.000137 -0.000002 0.000005 -0.601142
    4 22.146626 -0.000002 0.000000 0.137642 -0.138264 -0.211078
    5 0.000009 -0.000011 -5.615755 0.156178 3.023181 -0.346059
    6 15.693451 0.000043 -0.000136 -0.000002 0.000005 -0.800061
    7 22.146624 -0.000001 0.000000 0.329318 0.193909 0.560116
    8 1.384163 -0.004727 0.000003 -0.226869 -0.113982 0.459088
    9 5.939812 -0.004729 0.000088 0.000000 0.000000 0.000000
    10 5.939812 -0.003975 0.000088 0.000000 0.000000 0.000000
    11 4.991436 -0.003974 0.000074 0.000000 0.000000 0.165751
    12 4.991427 -0.001574 0.000074 0.000000 0.000009 0.000016
    13 -0.001670 0.001564 3.638373 -0.000014 -1.284225 3.140794
    14 8.842823 0.000002 0.000054 -0.782674 0.162657 -1.335849
    15 0.001739 0.001585 -3.638374 -0.000014 1.284245 3.140766
    16 8.842813 0.000001 -0.000025 0.549293 -0.631067 -1.756172
    17 1.977402 -0.000032 0.003050 0.641062 0.201468 0.006144
    18 9.341940 0.000000 0.000009 0.000000 0.000000 -0.613132
    19 11.168410 0.000002 -0.000001 -4.128876 0.633540 -0.480409
    20 1.364904 0.231181 -1.984410 2.565479 0.787601 1.289722
    21 1.748533 -0.000003 0.000002 0.000000 0.000000 -0.043585
    22 1.272493 0.000001 -0.000003 0.000000 0.000000 0.253072
    23 4.525584 -0.000299 -1.850222 0.062830 0.072703 0.735167
    24 1.719874 -0.000007 0.000000 0.000000 0.000000 0.619460
    25 1.383651 0.000003 0.000001 0.000000 0.000000 0.741633
    26 4.525585 -0.000096 -0.616739 0.033489 0.040263 0.733554
    27 1.807677 -0.000001 -0.000002 0.000000 0.000000 0.567102
    28 1.614256 -0.000004 0.000003 0.000000 0.000000 0.741755
    29 4.525583 0.000106 0.616741 0.021799 0.027352 0.733188
    30 1.719871 -0.000003 0.000000 0.000000 0.000000 0.366391
    31 1.383651 -0.000001 0.000001 0.000000 0.000000 0.741631
    32 4.525584 0.000309 1.850224 -0.024798 -0.024653 0.733228
    33 1.433228 -0.000003 0.000000 0.000000 0.000000 0.366391
    34 1.153038 -0.000001 0.000000 0.000000 0.000000 0.741627
    35 9.341949 0.000000 0.000007 0.000000 0.000000 -1.509972
    36 11.168407 0.000002 0.000011 1.939502 0.135007 1.023437
    37 1.364906 0.231175 1.984408 -3.139678 0.004122 1.002247
    38 1.748534 0.000002 -0.000001 0.000000 0.000000 0.436264
    39 1.272493 0.000003 0.000002 0.000000 0.000000 0.322870
    40 4.525587 -0.000302 1.850221 -0.016317 -0.094622 0.192575
    41 1.719872 0.000007 0.000000 0.000000 0.000000 0.453708
    42 1.383647 0.000004 -0.000001 0.000000 0.000000 1.108155
    43 4.525585 -0.000102 0.616738 -0.040896 -0.032761 0.934331
    44 1.807677 -0.000002 -0.000002 0.000000 0.000000 0.907547
    45 1.614256 0.000001 0.000000 0.000000 0.000000 1.151884
    46 4.525587 0.000102 -0.616743 -0.026857 -0.022390 0.933926
    47 1.719867 0.000001 0.000001 0.000000 0.000000 0.907547
    48 1.383648 0.000001 -0.000001 0.000000 0.000000 1.151884
    49 4.525586 0.000303 -1.850223 0.029257 0.019200 0.933948
    50 1.433227 0.000002 0.000000 0.000000 0.000000 0.907396
    51 1.153036 0.000004 0.000000 0.000000 0.000000 1.151753
    52 7.223970 5.068054 1.800000 -3.141592 -0.000002 1.570798
    53 7.223960 5.068053 -1.800000 -3.141592 -0.000002 1.570798
    54 7.223950 5.068052 0.000000 -3.141592 -0.000002 1.570798
    55 3.723979 2.768055 -0.395205 -3.141592 -0.000098 1.570894
    56 20.747295 -0.313698 4.522630 0.003878 0.001942 1.564441
    57 2.448332 0.177352 0.168606 1.543132 0.019570 -3.045716
  time 12
    0 0.043736 5.014167 26.749369 -0.120276 0.157449 -2.022169
    1 -0.526041 0.000001 9.745319 -1.570764 -1.570796 0.000000
    2 -0.000009 0.000014 5.615740 -0.072955 3.583441 -0.950972
    3 15.693467 0.000042 -0.000137 -0.000002 0.000005 -0.609963
    4 22.146626 -0.000002 0.000000 0.134913 -0.139428 -0.202116
    5 0.000009 -0.000011 -5.615755 0.159438 3.029604 -0.344237
    6 15.693451 0.000043 -0.000136 -0.000002 0.000005 -0.777806
    7 22.146624 -0.000001 0.000000 0.329487 0.196211 0.554567
    8 1.384163 -0.004727 0.000003 -0.226869 -0.113982 0.459088
    9 5.939812 -0.004729 0.000088 0.000000 0.000000 0.000000
    10 5.939812 -0.003975 0.000088 0.000000 0.000000 0.000000
    11 4.991436 -0.003974 0.000074 0.000000 0.000000 0.165751
    12 4.991427 -0.001574 0.000074 0.000000 0.000009 0.000016
    13 -0.001670 0.001564 3.638373 -0.000014 -1.284225 3.140794
    14 8.842823 0.000002 0.000054 -0.788252 0.131866 -1.355258
    15 0.001739 0.001585 -3.638374 -0.000014 1.284245 3.140766
    16 8.842813 0.000001 -0.000025 0.572997 -0.609378 -1.790094
    17 1.977402 -0.000032 0.003050 0.641062 0.201468 0.006144
    18 9.341940 0.000000 0.000009 0.000000 0.000000 -0.540477
    19 11.168410 0.000002 -0.000001 -4.147210 0.638420 -0.522174
    20 1.364904 0.231181 -1.984410 2.565479 0.787601 1.289722
    21 1.748533 -0.000003 0.000002 0.000000 0.000000 -0.043585
    22 1.272493 0.000001 -0.000003 0.000000 0.000000 0.253072
    23 4.525584 -0.000299 -1.850222 0.062830 0.072703 0.735167
    24 1.719874 -0.000007 0.000000 0.000000 0.000000 0.619460
    25 1.383651 0.000003 0.000001 0.000000 0.000000 0.741633
    26 4.525585 -0.000096 -0.616739 0.033489 0.040263 0.733554
    27 1.807677 -0.000001 -0.000002 0.000000 0.000000 0.567102
    28 1.614256 -0.000004 0.000003 0.000000 0.000000 0.741755
    29 4.525583 0.000106 0.616741 0.021799 0.027352 0.733188
    30 1.719871 -0.000003 0.000000 0.000000 0.000000 0.366391
    31 1.383651 -0.000001 0.000001 0.000000 0.000000 0.741631
    32 4.525584 0.000309 1.850224 -0.024798 -0.024653 0.733228
    33 1.433228 -0.000003 0.000000 0.000000 0.000000 0.366391
    34 1.153038 -0.000001 0.000000 0.000000 0.000000 0.741627
    35 9.341949 0.000000 0.000007 0.000000 0.000000 -1.463939
    36 11.168407 0.000002 0.000011 1.937358 0.125503 1.022027
    37 1.364906 0.231175 1.984408 -3.139678 0.004122 1.002247
    38 1.748534 0.000002 -0.000001 0.000000 0.000000 0.436264
    39 1.272493 0.000003 0.000002 0.000000 0.000000 0.322870
    40 4.525587 -0.000302 1.850221 -0.016317 -0.094622 0.192575
    41 1.719872 0.000007 0.000000 0.000000 0.000000 0.453708
    42 1.383647 0.000004 -0.000001 0.000000 0.000000 1.108155
    43 4.525585 -0.000102 0.616738 -0.040896 -0.032761 0.934331
    44 1.807677 -0.000002 -0.000002 0.000000 0.000000 0.907547
    45 1.614256 0.000001 0.000000 0.000000 0.000000 1.151884
    46 4.525587 0.000102 -0.616743 -0.026857 -0.022390 0.933926
    47 1.719867 0.000001 0.000001 0.000000 0.000000 0.907547
    48 1.383648 0.000001 -0.000001 0.000000 0.000000 1.151884
    49 4.525586 0.000303 -1.850223 0.029257 0.019200 0.933948
    50 1.433227 0.000002 0.000000 0.000000 0.000000 0.907396
    51 1.153036 0.000004 0.000000 0.000000 0.000000 1.151753
    52 7.223970 5.068054 1.800000 -3.141592 -0.000002 1.570798
    53 7.223960 5.068053 -1.800000 -3.141592 -0.000002 1.570798
    54 7.223950 5.068052 0.000000 -3.141592 -0.000002 1.570798
    55 3.723979 2.768055 -0.395205 -3.141592 -0.000098 1.570894
    56 20.747295 -0.313698 4.522630 0.003878 0.001942 1.564441
    57 2.448332 0.177352 0.168606 1.543132 0.019570 -3.045716
end
