// Created by Crowbar 0.64
version 1
nodes
  0 "ValveBiped.Bip01_Pelvis" -1
  1 "ValveBiped.Bip01_L_Thigh" 0
  2 "ValveBiped.Bip01_L_Calf" 1
  3 "ValveBiped.Bip01_L_Foot" 2
  4 "ValveBiped.Bip01_L_Toe0" 3
  5 "ValveBiped.Bip01_R_Thigh" 0
  6 "ValveBiped.Bip01_R_Calf" 5
  7 "ValveBiped.Bip01_R_Foot" 6
  8 "ValveBiped.Bip01_R_Toe0" 7
  9 "ValveBiped.Bip01_Spine" 0
  10 "ValveBiped.Bip01_Spine1" 9
  11 "ValveBiped.Bip01_Spine2" 10
  12 "ValveBiped.Bip01_Spine4" 11
  13 "ValveBiped.Bip01_L_Clavicle" 12
  14 "ValveBiped.Bip01_L_UpperArm" 13
  15 "ValveBiped.Bip01_L_Forearm" 14
  16 "ValveBiped.Bip01_L_Hand" 15
  17 "ValveBiped.Bip01_L_Finger3" 16
  18 "ValveBiped.Bip01_L_Finger31" 17
  19 "ValveBiped.Bip01_L_Finger32" 18
  20 "ValveBiped.Bip01_L_Finger2" 16
  21 "ValveBiped.Bip01_L_Finger21" 20
  22 "ValveBiped.Bip01_L_Finger22" 21
  23 "ValveBiped.Bip01_L_Finger1" 16
  24 "ValveBiped.Bip01_L_Finger11" 23
  25 "ValveBiped.Bip01_L_Finger12" 24
  26 "ValveBiped.Bip01_R_Clavicle" 12
  27 "ValveBiped.Bip01_R_UpperArm" 26
  28 "ValveBiped.Bip01_R_Forearm" 27
  29 "ValveBiped.Bip01_R_Hand" 28
  30 "ValveBiped.Bip01_R_Finger3" 29
  31 "ValveBiped.Bip01_R_Finger31" 30
  32 "ValveBiped.Bip01_R_Finger32" 31
  33 "ValveBiped.Bip01_R_Finger2" 29
  34 "ValveBiped.Bip01_R_Finger21" 33
  35 "ValveBiped.Bip01_R_Finger22" 34
  36 "ValveBiped.Bip01_R_Finger1" 29
  37 "ValveBiped.Bip01_R_Finger11" 36
  38 "ValveBiped.Bip01_R_Finger12" 37
  39 "ValveBiped.Bip01_R_Finger0" 29
  40 "ValveBiped.Bip01_R_Finger01" 39
  41 "ValveBiped.Bip01_R_Finger02" 40
  42 "ValveBiped.Bip01_L_Finger0" 16
  43 "ValveBiped.Bip01_L_Finger01" 42
  44 "ValveBiped.Bip01_L_Finger02" 43
  45 "ValveBiped.HC_Body_Bone" 12
  46 "ValveBiped.HC_Rear_Bone" 45
  47 "ValveBiped.HC_Head_Bone" 45
  48 "ValveBiped.HC_ThighL_Bone" 46
  49 "ValveBiped.HC_CalfL_Bone" 48
  50 "ValveBiped.HC_ThighR_Bone" 46
  51 "ValveBiped.HC_CalfR_Bone" 50
  52 "ValveBiped.HC_UpperArmL_Bone" 45
  53 "ValveBiped.HC_ForeArmL_Bone" 52
  54 "ValveBiped.HC_UpperArmR_Bone" 45
  55 "ValveBiped.HC_ForeArmR_Bone" 54
  56 "ValveBiped" -1
end
skeleton
  time 0
    0 -0.000005 1.515989 38.353996 1.570797 0.000000 -0.000001
    1 3.890453 0.000000 -0.000004 -1.570796 -0.109921 -1.580062
    2 17.593170 0.000000 0.000000 0.000000 0.000000 0.279395
    3 17.699579 0.000000 0.000000 -0.015823 -0.048781 -1.155617
    4 6.879457 0.000000 0.000000 -0.063774 0.049411 -0.584607
    5 -3.890452 0.000000 0.000007 -1.570796 -0.109186 -1.576205
    6 17.593163 0.000000 0.000000 0.000000 0.000000 0.279462
    7 17.699577 0.000000 0.000000 0.038763 0.040677 -1.155872
    8 6.879457 0.000000 0.000000 -0.025721 -0.055308 -0.584140
    9 0.000002 3.345116 -2.981992 1.570796 0.086295 1.570796
    10 4.126709 0.000000 0.000000 0.000000 0.000000 0.088567
    11 3.613472 0.000000 0.000000 0.000000 0.000000 0.129808
    12 9.183788 0.000000 0.000000 0.000000 0.000000 0.351707
    13 1.673229 1.247213 2.595464 1.597166 -1.286516 2.942410
    14 6.028142 0.000008 0.000002 -1.777334 -0.225373 -0.572499
    15 11.692551 0.000000 0.000000 0.000000 0.000000 0.000000
    16 12.075548 0.000000 -0.000031 -3.107755 -0.135126 0.031394
    17 5.564224 -0.557981 -0.100456 -0.252934 -0.892910 -1.324811
    18 5.508579 0.000000 0.000000 0.000000 -0.002241 -1.363102
    19 3.800001 0.000000 -0.000002 0.000000 0.078995 -1.162267
    20 5.744638 0.557979 0.100449 0.153524 -1.071098 -1.024816
    21 6.052547 0.000000 -0.000002 0.000000 -0.410889 -1.467961
    22 3.325016 -0.000004 0.000002 0.000000 -0.038465 -1.030502
    23 5.613007 1.658157 0.708443 1.341977 -1.230448 -1.520129
    24 5.643135 0.000000 -0.000002 0.000000 -0.899187 -1.545550
    25 3.079116 -0.000004 0.000002 0.000000 -0.129582 -1.175842
    26 1.673225 1.247219 -2.595471 -1.669005 1.286516 2.942401
    27 6.028142 0.000000 0.000000 1.843508 0.278313 -0.543683
    28 11.692551 0.000000 0.000000 0.000000 0.000000 0.000000
    29 12.075577 0.000000 -0.000004 -3.100614 0.069388 0.097910
    30 5.943743 -0.602343 0.006439 0.491673 1.308263 -1.457378
    31 5.043457 0.000000 0.000000 0.000000 -0.235096 -1.339165
    32 3.384896 0.000000 0.000000 0.000000 -0.158202 -1.703085
    33 6.213892 0.602343 -0.006447 -0.340810 1.296067 -0.605064
    34 5.536304 0.000000 0.000002 0.000000 1.146458 -0.947792
    35 3.312716 0.000004 -0.000001 0.000000 0.507999 -1.337938
    36 5.899513 1.775719 -0.435104 -1.625983 1.473201 -0.894712
    37 5.285244 -0.000001 0.000000 -0.000001 1.190848 0.460973
    38 3.098851 -0.000002 0.000000 0.000000 0.860604 1.327213
    39 4.015263 1.836177 -0.578133 2.567182 1.076553 1.312704
    40 2.400002 0.000002 0.000000 0.000000 -0.746128 0.000000
    41 1.399994 -0.000002 0.000002 0.000000 -0.922843 0.000000
    42 3.420513 1.944044 0.267532 -2.739747 -0.984648 1.201649
    43 2.525002 -0.000002 0.000000 0.000000 0.667588 0.000000
    44 1.582001 0.000000 0.000000 0.000000 0.844303 0.000000
    45 7.856865 0.357136 2.410310 2.703516 -0.158578 1.262175
    46 -7.842795 -1.678413 -0.934004 0.510509 0.000000 0.353429
    47 3.738599 -2.965118 -0.136398 0.215984 -0.078540 -0.078540
    48 -0.450932 -0.675705 -6.164913 -3.019152 -0.536138 -1.223361
    49 6.098812 0.000000 -0.000001 0.000000 0.000000 0.000000
    50 -0.450915 -0.675709 6.164912 3.038030 -0.123569 -1.580198
    51 6.098812 -0.000001 0.000000 0.000000 0.000000 -2.270475
    52 2.630715 -3.155083 -5.016712 0.032818 0.297699 -0.502588
    53 8.255680 0.000000 0.000001 0.000000 0.000000 -2.112525
    54 2.630416 -3.155087 5.016869 -2.297150 -0.072314 -1.106009
    55 8.255669 -0.000004 0.000000 0.000000 0.000000 1.931636
    56 0.000000 0.000000 0.000000 1.570796 0.000000 0.000000
end
triangles
blankb
  6 -2.370357 -0.610230 15.231019 0.861504 -0.453866 -0.227631 0.369815 -0.002383 1 6 1.000000
  6 -3.277575 -1.840991 15.286037 0.375974 -0.897331 -0.231172 0.383228 -0.001956 1 6 1.000000
  6 -2.513204 -0.051175 5.472956 0.607076 -0.744723 0.277212 0.364105 -0.071464 1 6 1.000000
blankb
  6 -4.583297 3.780940 15.161263 -0.405379 0.913658 0.029931 0.321957 -0.002925 1 6 1.000000
  6 -2.879049 3.321807 15.161405 0.685062 0.727968 -0.027437 0.326961 -0.002924 1 6 1.000000
  6 -2.974590 4.117541 6.119536 0.362696 0.931306 -0.033470 0.318289 -0.073117 1 6 1.000000
blankb
  6 -2.974590 4.117541 6.119536 0.362696 0.931306 -0.033470 0.318289 -0.073117 1 6 1.000000
  6 -2.879049 3.321807 15.161405 0.685062 0.727968 -0.027437 0.326961 -0.002924 1 6 1.000000
  6 -2.385009 2.506715 5.641119 0.989788 0.141735 0.015183 0.333814 -0.072557 1 6 1.000000
blankb
  6 -2.879049 3.321807 15.161405 0.685062 0.727968 -0.027437 0.326961 -0.002924 1 6 1.000000
  6 -2.112301 1.451999 15.168321 0.988533 0.142700 -0.049392 0.347339 -0.002870 1 6 1.000000
  6 -2.385009 2.506715 5.641119 0.989788 0.141735 0.015183 0.333814 -0.072557 1 6 1.000000
blankb
  6 -2.385009 2.506715 5.641119 0.989788 0.141735 0.015183 0.333814 -0.072557 1 6 1.000000
  6 -2.112301 1.451999 15.168321 0.988533 0.142700 -0.049392 0.347339 -0.002870 1 6 1.000000
  6 -2.513204 -0.051175 5.472956 0.607076 -0.744723 0.277212 0.362240 -0.071531 1 6 1.000000
blankb
  6 -2.112301 1.451999 15.168321 0.988533 0.142700 -0.049392 0.347339 -0.002870 1 6 1.000000
  6 -2.370357 -0.610230 15.231019 0.861504 -0.453866 -0.227631 0.369815 -0.002383 1 6 1.000000
  6 -2.513204 -0.051175 5.472956 0.607076 -0.744723 0.277212 0.362240 -0.071531 1 6 1.000000
blankb
  6 -6.118645 1.473728 15.161322 -0.970117 0.171788 -0.171351 0.347102 -0.002925 1 6 1.000000
  6 -4.583297 3.780940 15.161263 -0.405379 0.913658 0.029931 0.321957 -0.002925 1 6 1.000000
  6 -5.330830 3.020541 5.667584 -0.878756 0.477224 0.006748 0.327764 -0.072775 1 6 1.000000
blankb
  6 -2.974590 4.117541 6.119536 0.362696 0.931306 -0.033470 0.318289 -0.073117 1 6 1.000000
  6 -5.330830 3.020541 5.667584 -0.878756 0.477224 0.006748 0.327764 -0.072775 1 6 1.000000
  6 -4.583297 3.780940 15.161263 -0.405379 0.913658 0.029931 0.321957 -0.002925 1 6 1.000000
blankb
  6 -2.974590 4.117541 6.119536 0.362696 0.931306 -0.033470 0.318289 -0.073117 1 6 1.000000
  7 -5.806110 0.622183 1.177645 -0.910518 0.214854 -0.353264 0.357301 -0.113437 1 7 1.000000
  6 -5.330830 3.020541 5.667584 -0.878756 0.477224 0.006748 0.327764 -0.072775 1 6 1.000000
blankb
  7 -5.892797 1.032235 0.004975 -0.687894 -0.371392 -0.623594 0.353724 -0.120786 1 7 1.000000
  7 -5.806110 0.622183 1.177645 -0.910518 0.214854 -0.353264 0.357301 -0.113437 1 7 1.000000
  6 -2.974590 4.117541 6.119536 0.362696 0.931306 -0.033470 0.318289 -0.073117 1 6 1.000000
blankb
  7 -5.892797 1.032235 0.004975 -0.687894 -0.371392 -0.623594 0.353724 -0.120786 1 7 1.000000
  6 -2.974590 4.117541 6.119536 0.362696 0.931306 -0.033470 0.318289 -0.073117 1 6 1.000000
  7 -5.139805 3.751554 0.004980 -0.580898 0.445329 -0.681351 0.322277 -0.120786 1 7 1.000000
blankb
  7 -3.800168 4.133764 0.004966 0.027856 0.692204 -0.721164 0.318111 -0.120786 1 7 1.000000
  7 -5.139805 3.751554 0.004980 -0.580898 0.445329 -0.681351 0.322277 -0.120786 1 7 1.000000
  6 -2.974590 4.117541 6.119536 0.362696 0.931306 -0.033470 0.318289 -0.073117 1 6 1.000000
blankb
  6 -2.974590 4.117541 6.119536 0.362696 0.931306 -0.033470 0.318289 -0.073117 1 6 1.000000
  7 -2.510995 3.584542 0.004980 0.669947 0.324576 -0.667698 0.324097 -0.120786 1 7 1.000000
  7 -3.800168 4.133764 0.004966 0.027856 0.692204 -0.721164 0.318111 -0.120786 1 7 1.000000
blankb
  6 -2.974590 4.117541 6.119536 0.362696 0.931306 -0.033470 0.318289 -0.073117 1 6 1.000000
  6 -2.385009 2.506715 5.641119 0.989788 0.141735 0.015183 0.333814 -0.072557 1 6 1.000000
  7 -2.510995 3.584542 0.004980 0.669947 0.324576 -0.667698 0.324097 -0.120786 1 7 1.000000
blankb
  6 -2.385009 2.506715 5.641119 0.989788 0.141735 0.015183 0.333814 -0.072557 1 6 1.000000
  7 -2.814049 0.362456 1.057626 0.749396 -0.182138 -0.636578 0.359214 -0.113437 1 7 1.000000
  7 -2.510995 3.584542 0.004980 0.669947 0.324576 -0.667698 0.324097 -0.120786 1 7 1.000000
blankb
  6 -2.385009 2.506715 5.641119 0.989788 0.141735 0.015183 0.333814 -0.072557 1 6 1.000000
  6 -2.513204 -0.051175 5.472956 0.607076 -0.744723 0.277212 0.362240 -0.071531 1 6 1.000000
  7 -2.814049 0.362456 1.057626 0.749396 -0.182138 -0.636578 0.359214 -0.113437 1 7 1.000000
blankb
  8 -4.087671 -6.526780 1.691758 0.125275 -0.721987 0.680470 0.434297 -0.107490 1 8 1.000000
  7 -2.814049 0.362456 1.057626 0.749396 -0.182138 -0.636578 0.359214 -0.113437 1 7 1.000000
  6 -2.513204 -0.051175 5.472956 0.607076 -0.744723 0.277212 0.362240 -0.071531 1 6 1.000000
blankb
  6 -2.513204 -0.051175 5.472956 0.607076 -0.744723 0.277212 0.362240 -0.071531 1 6 1.000000
  8 -6.833602 -3.502967 -0.048221 -0.880338 -0.229863 -0.414931 0.401341 -0.120786 1 8 1.000000
  8 -4.087671 -6.526780 1.691758 0.125275 -0.721987 0.680470 0.434297 -0.107490 1 8 1.000000
blankb
  8 -4.087671 -6.526780 1.691758 0.125275 -0.721987 0.680470 0.434297 -0.107490 1 8 1.000000
  8 -6.833602 -3.502967 -0.048221 -0.880338 -0.229863 -0.414931 0.401341 -0.120786 1 8 1.000000
  8 -4.669887 -7.212726 0.169969 -0.187774 -0.917428 -0.350809 0.441773 -0.118717 1 8 1.000000
blankb
  8 -4.669887 -7.212726 0.169969 -0.187774 -0.917428 -0.350809 0.441773 -0.118717 1 8 1.000000
  8 -1.816577 -3.801186 -0.048210 0.922157 -0.166552 -0.349124 0.404592 -0.120786 1 8 1.000000
  8 -4.087671 -6.526780 1.691758 0.125275 -0.721987 0.680470 0.434297 -0.107490 1 8 1.000000
blankb
  8 -4.087671 -6.526780 1.691758 0.125275 -0.721987 0.680470 0.434297 -0.107490 1 8 1.000000
  8 -1.816577 -3.801186 -0.048210 0.922157 -0.166552 -0.349124 0.404592 -0.120786 1 8 1.000000
  7 -2.814049 0.362456 1.057626 0.749396 -0.182138 -0.636578 0.359214 -0.113437 1 7 1.000000
blankb
  7 -2.814049 0.362456 1.057626 0.749396 -0.182138 -0.636578 0.359214 -0.113437 1 7 1.000000
  8 -1.816577 -3.801186 -0.048210 0.922157 -0.166552 -0.349124 0.404592 -0.120786 1 8 1.000000
  7 -2.357096 -1.709087 -0.000412 0.566726 0.290482 -0.771001 0.382283 -0.120786 1 7 1.000000
blankb
  8 -6.833602 -3.502967 -0.048221 -0.880338 -0.229863 -0.414931 0.401341 -0.120786 1 8 1.000000
  7 -5.806110 0.622183 1.177645 -0.910518 0.214854 -0.353264 0.357301 -0.113437 1 7 1.000000
  7 -6.113897 -1.533543 -0.004412 -0.527978 0.339692 -0.778363 0.380370 -0.120848 1 7 1.000000
blankb
  8 -6.833602 -3.502967 -0.048221 -0.880338 -0.229863 -0.414931 0.401341 -0.120786 1 8 1.000000
  6 -5.330830 3.020541 5.667584 -0.878756 0.477224 0.006748 0.327764 -0.072775 1 6 1.000000
  7 -5.806110 0.622183 1.177645 -0.910518 0.214854 -0.353264 0.357301 -0.113437 1 7 1.000000
blankb
  8 -6.833602 -3.502967 -0.048221 -0.880338 -0.229863 -0.414931 0.401341 -0.120786 1 8 1.000000
  6 -2.513204 -0.051175 5.472956 0.607076 -0.744723 0.277212 0.362240 -0.071531 1 6 1.000000
  6 -5.330830 3.020541 5.667584 -0.878756 0.477224 0.006748 0.327764 -0.072775 1 6 1.000000
blankb
  6 -2.513204 -0.051175 5.472956 0.607076 -0.744723 0.277212 0.362240 -0.071531 1 6 1.000000
  6 -6.118645 1.473728 15.161322 -0.970117 0.171788 -0.171351 0.347102 -0.002925 1 6 1.000000
  6 -5.330830 3.020541 5.667584 -0.878756 0.477224 0.006748 0.327764 -0.072775 1 6 1.000000
blankb
  6 -6.118645 1.473728 15.161322 -0.970117 0.171788 -0.171351 0.347102 -0.002925 1 6 1.000000
  6 -2.513204 -0.051175 5.472956 0.607076 -0.744723 0.277212 0.362240 -0.071531 1 6 1.000000
  6 -5.243416 -1.586054 15.288408 -0.678563 -0.700022 -0.222536 0.380450 -0.001938 1 6 1.000000
blankb
  6 -3.277575 -1.840991 15.286037 0.375974 -0.897331 -0.231172 0.383228 -0.001956 1 6 1.000000
  6 -5.243416 -1.586054 15.288408 -0.678563 -0.700022 -0.222536 0.380450 -0.001938 1 6 1.000000
  6 -2.513204 -0.051175 5.472956 0.607076 -0.744723 0.277212 0.362240 -0.071531 1 6 1.000000
blankb
  0 0.000026 -4.563465 34.777283 -0.049029 -0.983244 -0.175575 0.126001 0.493168 3 0 0.684905 5 0.172410 1 0.142685
  0 0.001379 -3.351909 33.552834 0.156221 -0.838890 -0.521400 0.127337 0.478541 2 0 0.808360 1 0.191640
  0 3.044417 -4.823008 34.915489 0.038686 -0.997575 0.057857 0.159141 0.495750 2 0 0.898462 1 0.101538
blankb
  0 0.000026 -4.563465 34.777283 -0.049029 -0.983244 -0.175575 0.126001 0.493168 3 0 0.684905 5 0.172410 1 0.142685
  0 -3.044365 -4.502083 34.915489 -0.088173 -0.987672 0.129345 0.092781 0.496489 2 0 0.821458 5 0.178542
  0 0.001379 -3.351909 33.552834 0.156221 -0.838890 -0.521400 0.127337 0.478541 2 0 0.808360 1 0.191640
blankb
  5 -0.134003 -0.933002 30.276760 0.992785 -0.104293 -0.059163 0.129432 0.439828 2 5 0.723621 0 0.276379
  0 0.000026 2.766612 33.802711 0.001600 0.674884 -0.737922 0.121673 0.417204 3 0 0.673025 1 0.144705 5 0.182270
  0 0.001379 -3.351909 33.552834 0.156221 -0.838890 -0.521400 0.127337 0.478541 2 0 0.808360 1 0.191640
blankb
  0 0.000026 2.766612 33.802711 0.001600 0.674884 -0.737922 0.121673 0.417204 3 0 0.673025 1 0.144705 5 0.182270
  0 0.312217 -0.933001 30.276768 -0.945651 -0.260692 -0.194379 0.134296 0.439774 2 0 0.170931 1 0.829069
  0 0.001379 -3.351909 33.552834 0.156221 -0.838890 -0.521400 0.127337 0.478541 2 0 0.808360 1 0.191640
blankb
  0 0.001379 -3.351909 33.552834 0.156221 -0.838890 -0.521400 0.090596 -0.529288 2 0 0.808360 1 0.191640
  5 -3.026017 -3.695302 20.893955 0.177995 -0.977889 -0.109775 0.112177 -0.843754 2 5 0.544000 6 0.456000
  5 -0.134003 -0.933002 30.276760 0.992785 -0.104293 -0.059163 0.075188 -0.610670 2 5 0.723621 0 0.276379
blankb
  0 -3.044365 -4.502083 34.915489 -0.088173 -0.987672 0.129345 0.113967 -0.495437 2 0 0.821458 5 0.178542
  5 -3.026017 -3.695302 20.893955 0.177995 -0.977889 -0.109775 0.112177 -0.843754 2 5 0.544000 6 0.456000
  0 0.001379 -3.351909 33.552834 0.156221 -0.838890 -0.521400 0.090596 -0.529288 2 0 0.808360 1 0.191640
blankb
  0 -3.044365 -4.502083 34.915489 -0.088173 -0.987672 0.129345 0.113967 -0.495437 2 0 0.821458 5 0.178542
  0 -5.660200 -3.317881 34.794815 -0.623179 -0.768231 0.146523 0.141162 -0.498435 2 0 0.597138 5 0.402862
  5 -3.026017 -3.695302 20.893955 0.177995 -0.977889 -0.109775 0.112177 -0.843754 2 5 0.544000 6 0.456000
blankb
  0 0.001379 -3.351909 33.552834 0.156221 -0.838890 -0.521400 0.090596 -0.529288 2 0 0.808360 1 0.191640
  0 0.312217 -0.933001 30.276768 -0.945651 -0.260692 -0.194379 0.075188 -0.610670 2 0 0.170931 1 0.829069
  0 3.044417 -4.823008 34.915489 0.038686 -0.997575 0.057857 0.113967 -0.495437 2 0 0.898462 1 0.101538
blankb
  0 0.000027 4.107653 34.488132 0.008518 0.977359 -0.211414 0.041306 -0.506053 1 0 1.000000
  5 -2.645159 4.018958 30.753584 0.063211 0.991700 -0.111962 0.000356 -0.598825 2 5 0.844979 0 0.155021
  0 -3.413133 4.189617 34.805977 -0.225121 0.972293 0.062987 0.000721 -0.498158 2 0 0.861514 5 0.138486
blankb
  0 0.000027 4.107653 34.488132 0.008518 0.977359 -0.211414 0.041306 -0.506053 1 0 1.000000
  0 0.000026 2.766612 33.802711 0.001600 0.674884 -0.737922 0.049941 -0.523080 3 0 0.673025 1 0.144705 5 0.182270
  5 -2.645159 4.018958 30.753584 0.063211 0.991700 -0.111962 0.000356 -0.598825 2 5 0.844979 0 0.155021
blankb
  0 0.000026 2.766612 33.802711 0.001600 0.674884 -0.737922 0.049941 -0.523080 3 0 0.673025 1 0.144705 5 0.182270
  5 -3.103481 4.456050 21.323360 0.205821 0.975884 -0.072712 0.000602 -0.833087 2 5 0.667644 6 0.332356
  5 -2.645159 4.018958 30.753584 0.063211 0.991700 -0.111962 0.000356 -0.598825 2 5 0.844979 0 0.155021
blankb
  0 0.000026 2.766612 33.802711 0.001600 0.674884 -0.737922 0.049941 -0.523080 3 0 0.673025 1 0.144705 5 0.182270
  5 -0.134003 -0.933002 30.276760 0.992785 -0.104293 -0.059163 0.075188 -0.610670 2 5 0.723621 0 0.276379
  5 -3.103481 4.456050 21.323360 0.205821 0.975884 -0.072712 0.000602 -0.833087 2 5 0.667644 6 0.332356
blankb
  6 -2.112301 1.451999 15.168321 0.988533 0.142700 -0.049392 0.048887 -0.985987 1 6 1.000000
  5 -3.103481 4.456050 21.323360 0.205821 0.975884 -0.072712 0.000602 -0.833087 2 5 0.667644 6 0.332356
  5 -0.134003 -0.933002 30.276760 0.992785 -0.104293 -0.059163 0.075188 -0.610670 2 5 0.723621 0 0.276379
blankb
  6 -2.370357 -0.610230 15.231019 0.861504 -0.453866 -0.227631 0.080450 -0.984430 1 6 1.000000
  6 -2.112301 1.451999 15.168321 0.988533 0.142700 -0.049392 0.048887 -0.985987 1 6 1.000000
  5 -0.134003 -0.933002 30.276760 0.992785 -0.104293 -0.059163 0.075188 -0.610670 2 5 0.723621 0 0.276379
blankb
  6 -2.370357 -0.610230 15.231019 0.861504 -0.453866 -0.227631 0.080450 -0.984430 1 6 1.000000
  5 -0.134003 -0.933002 30.276760 0.992785 -0.104293 -0.059163 0.075188 -0.610670 2 5 0.723621 0 0.276379
  5 -3.026017 -3.695302 20.893955 0.177995 -0.977889 -0.109775 0.112177 -0.843754 2 5 0.544000 6 0.456000
blankb
  6 -3.277575 -1.840991 15.286037 0.375974 -0.897331 -0.231172 0.108657 -0.983063 1 6 1.000000
  6 -2.370357 -0.610230 15.231019 0.861504 -0.453866 -0.227631 0.080450 -0.984430 1 6 1.000000
  5 -3.026017 -3.695302 20.893955 0.177995 -0.977889 -0.109775 0.112177 -0.843754 2 5 0.544000 6 0.456000
blankb
  6 -5.243416 -1.586054 15.288408 -0.678563 -0.700022 -0.222536 0.148073 -0.983004 1 6 1.000000
  6 -3.277575 -1.840991 15.286037 0.375974 -0.897331 -0.231172 0.108657 -0.983063 1 6 1.000000
  5 -3.026017 -3.695302 20.893955 0.177995 -0.977889 -0.109775 0.112177 -0.843754 2 5 0.544000 6 0.456000
blankb
  5 -3.026017 -3.695302 20.893955 0.177995 -0.977889 -0.109775 0.112177 -0.843754 2 5 0.544000 6 0.456000
  0 -5.660200 -3.317881 34.794815 -0.623179 -0.768231 0.146523 0.141162 -0.498435 2 0 0.597138 5 0.402862
  6 -5.243416 -1.586054 15.288408 -0.678563 -0.700022 -0.222536 0.148073 -0.983004 1 6 1.000000
blankb
  0 -5.660200 -3.317881 34.794815 -0.623179 -0.768231 0.146523 0.141162 -0.498435 2 0 0.597138 5 0.402862
  6 -6.118645 1.473728 15.161322 -0.970117 0.171788 -0.171351 0.192618 -0.986161 1 6 1.000000
  6 -5.243416 -1.586054 15.288408 -0.678563 -0.700022 -0.222536 0.148073 -0.983004 1 6 1.000000
blankb
  0 -7.098849 -0.309387 34.801991 -0.993939 -0.044394 0.100566 0.173127 -0.498257 2 0 0.624968 5 0.375032
  6 -6.118645 1.473728 15.161322 -0.970117 0.171788 -0.171351 0.192618 -0.986161 1 6 1.000000
  0 -5.660200 -3.317881 34.794815 -0.623179 -0.768231 0.146523 0.141162 -0.498435 2 0 0.597138 5 0.402862
blankb
  0 -7.098849 -0.309387 34.801991 -0.993939 -0.044394 0.100566 0.173127 -0.498257 2 0 0.624968 5 0.375032
  0 -5.342463 3.131654 34.837528 -0.657146 0.742209 0.131472 0.207605 -0.497374 2 0 0.793192 5 0.206808
  6 -6.118645 1.473728 15.161322 -0.970117 0.171788 -0.171351 0.192618 -0.986161 1 6 1.000000
blankb
  0 -5.342463 3.131654 34.837528 -0.657146 0.742209 0.131472 0.207605 -0.497374 2 0 0.793192 5 0.206808
  5 -3.103481 4.456050 21.323360 0.205821 0.975884 -0.072712 0.239629 -0.833087 2 5 0.667644 6 0.332356
  6 -6.118645 1.473728 15.161322 -0.970117 0.171788 -0.171351 0.192618 -0.986161 1 6 1.000000
blankb
  5 -2.645159 4.018958 30.753584 0.063211 0.991700 -0.111962 0.245078 -0.598825 2 5 0.844979 0 0.155021
  5 -3.103481 4.456050 21.323360 0.205821 0.975884 -0.072712 0.239629 -0.833087 2 5 0.667644 6 0.332356
  0 -5.342463 3.131654 34.837528 -0.657146 0.742209 0.131472 0.207605 -0.497374 2 0 0.793192 5 0.206808
blankb
  0 -3.413133 4.189617 34.805977 -0.225121 0.972293 0.062987 0.236982 -0.498158 2 0 0.861514 5 0.138486
  5 -2.645159 4.018958 30.753584 0.063211 0.991700 -0.111962 0.245078 -0.598825 2 5 0.844979 0 0.155021
  0 -5.342463 3.131654 34.837528 -0.657146 0.742209 0.131472 0.207605 -0.497374 2 0 0.793192 5 0.206808
blankb
  6 -4.583297 3.780940 15.161263 -0.405379 0.913658 0.029931 0.223915 -0.986163 1 6 1.000000
  6 -6.118645 1.473728 15.161322 -0.970117 0.171788 -0.171351 0.192618 -0.986161 1 6 1.000000
  5 -3.103481 4.456050 21.323360 0.205821 0.975884 -0.072712 0.239629 -0.833087 2 5 0.667644 6 0.332356
blankb
  6 -2.112301 1.451999 15.168321 0.988533 0.142700 -0.049392 0.048887 -0.985987 1 6 1.000000
  6 -2.879049 3.321807 15.161405 0.685062 0.727968 -0.027437 0.025945 -0.986159 1 6 1.000000
  5 -3.103481 4.456050 21.323360 0.205821 0.975884 -0.072712 0.000602 -0.833087 2 5 0.667644 6 0.332356
blankb
  6 -2.879049 3.321807 15.161405 0.685062 0.727968 -0.027437 0.025945 -0.986159 1 6 1.000000
  6 -4.583297 3.780940 15.161263 -0.405379 0.913658 0.029931 0.004806 -0.986163 1 6 1.000000
  5 -3.103481 4.456050 21.323360 0.205821 0.975884 -0.072712 0.000602 -0.833087 2 5 0.667644 6 0.332356
blankb
  0 0.000027 4.107653 34.488132 0.008518 0.977359 -0.211414 0.041306 -0.506053 1 0 1.000000
  0 3.413185 4.189617 34.805981 0.162560 0.985094 0.056242 0.000721 -0.498158 2 0 0.896540 1 0.103460
  0 2.645199 4.018960 30.753592 -0.374592 0.927117 -0.011642 0.000356 -0.598825 2 0 0.150486 1 0.849514
blankb
  0 0.000027 4.107653 34.488132 0.008518 0.977359 -0.211414 0.041306 -0.506053 1 0 1.000000
  0 2.645199 4.018960 30.753592 -0.374592 0.927117 -0.011642 0.000356 -0.598825 2 0 0.150486 1 0.849514
  0 0.000026 2.766612 33.802711 0.001600 0.674884 -0.737922 0.049941 -0.523080 3 0 0.673025 1 0.144705 5 0.182270
blankb
  0 0.000026 2.766612 33.802711 0.001600 0.674884 -0.737922 0.049941 -0.523080 3 0 0.673025 1 0.144705 5 0.182270
  0 2.645199 4.018960 30.753592 -0.374592 0.927117 -0.011642 0.000356 -0.598825 2 0 0.150486 1 0.849514
  1 3.103510 4.456050 21.323360 -0.737239 0.675039 -0.028310 0.000602 -0.833087 2 1 0.689660 2 0.310340
blankb
  0 0.000026 2.766612 33.802711 0.001600 0.674884 -0.737922 0.049941 -0.523080 3 0 0.673025 1 0.144705 5 0.182270
  1 3.103510 4.456050 21.323360 -0.737239 0.675039 -0.028310 0.000602 -0.833087 2 1 0.689660 2 0.310340
  0 0.312217 -0.933001 30.276768 -0.945651 -0.260692 -0.194379 0.075188 -0.610670 2 0 0.170931 1 0.829069
blankb
  2 2.112331 1.451998 15.168317 -0.988953 0.140962 -0.045847 0.048887 -0.985987 1 2 1.000000
  0 0.312217 -0.933001 30.276768 -0.945651 -0.260692 -0.194379 0.075188 -0.610670 2 0 0.170931 1 0.829069
  1 3.103510 4.456050 21.323360 -0.737239 0.675039 -0.028310 0.000602 -0.833087 2 1 0.689660 2 0.310340
blankb
  2 2.370388 -0.610230 15.231022 -0.921927 -0.377855 -0.085300 0.080450 -0.984430 1 2 1.000000
  0 0.312217 -0.933001 30.276768 -0.945651 -0.260692 -0.194379 0.075188 -0.610670 2 0 0.170931 1 0.829069
  2 2.112331 1.451998 15.168317 -0.988953 0.140962 -0.045847 0.048887 -0.985987 1 2 1.000000
blankb
  2 3.277605 -1.840991 15.286033 -0.372373 -0.916123 -0.148516 0.108657 -0.983063 1 2 1.000000
  0 0.312217 -0.933001 30.276768 -0.945651 -0.260692 -0.194379 0.075188 -0.610670 2 0 0.170931 1 0.829069
  2 2.370388 -0.610230 15.231022 -0.921927 -0.377855 -0.085300 0.080450 -0.984430 1 2 1.000000
blankb
  2 3.277605 -1.840991 15.286033 -0.372373 -0.916123 -0.148516 0.108657 -0.983063 1 2 1.000000
  0 3.044417 -4.823008 34.915489 0.038686 -0.997575 0.057857 0.113967 -0.495437 2 0 0.898462 1 0.101538
  0 0.312217 -0.933001 30.276768 -0.945651 -0.260692 -0.194379 0.075188 -0.610670 2 0 0.170931 1 0.829069
blankb
  2 5.243446 -1.586054 15.288414 0.653737 -0.727970 -0.206611 0.148073 -0.983004 1 2 1.000000
  0 3.044417 -4.823008 34.915489 0.038686 -0.997575 0.057857 0.113967 -0.495437 2 0 0.898462 1 0.101538
  2 3.277605 -1.840991 15.286033 -0.372373 -0.916123 -0.148516 0.108657 -0.983063 1 2 1.000000
blankb
  0 5.660254 -3.317881 34.794819 0.689525 -0.711572 0.134984 0.141162 -0.498435 2 0 0.807686 1 0.192314
  0 3.044417 -4.823008 34.915489 0.038686 -0.997575 0.057857 0.113967 -0.495437 2 0 0.898462 1 0.101538
  2 5.243446 -1.586054 15.288414 0.653737 -0.727970 -0.206611 0.148073 -0.983004 1 2 1.000000
blankb
  0 5.660254 -3.317881 34.794819 0.689525 -0.711572 0.134984 0.141162 -0.498435 2 0 0.807686 1 0.192314
  2 5.243446 -1.586054 15.288414 0.653737 -0.727970 -0.206611 0.148073 -0.983004 1 2 1.000000
  0 7.183697 -1.378375 34.783524 0.947535 -0.297422 0.117125 0.163999 -0.498715 1 0 1.000000
blankb
  2 6.118675 1.473727 15.161316 0.970117 0.171788 -0.171351 0.192618 -0.986161 1 2 1.000000
  0 7.183697 -1.378375 34.783524 0.947535 -0.297422 0.117125 0.163999 -0.498715 1 0 1.000000
  2 5.243446 -1.586054 15.288414 0.653737 -0.727970 -0.206611 0.148073 -0.983004 1 2 1.000000
blankb
  2 4.583327 3.780941 15.161257 0.477782 0.869669 -0.124097 0.223915 -0.986163 1 2 1.000000
  0 7.183697 -1.378375 34.783524 0.947535 -0.297422 0.117125 0.163999 -0.498715 1 0 1.000000
  2 6.118675 1.473727 15.161316 0.970117 0.171788 -0.171351 0.192618 -0.986161 1 2 1.000000
blankb
  2 4.583327 3.780941 15.161257 0.477782 0.869669 -0.124097 0.223915 -0.986163 1 2 1.000000
  2 3.920196 4.992426 16.952312 -0.006666 0.989635 -0.143448 0.231615 -0.941670 1 2 1.000000
  0 7.183697 -1.378375 34.783524 0.947535 -0.297422 0.117125 0.163999 -0.498715 1 0 1.000000
blankb
  0 5.965675 3.169612 34.837528 0.690060 0.719198 0.081065 0.207605 -0.497374 2 0 0.910000 1 0.090000
  0 7.183697 -1.378375 34.783524 0.947535 -0.297422 0.117125 0.163999 -0.498715 1 0 1.000000
  2 3.920196 4.992426 16.952312 -0.006666 0.989635 -0.143448 0.231615 -0.941670 1 2 1.000000
blankb
  0 5.965675 3.169612 34.837528 0.690060 0.719198 0.081065 0.207605 -0.497374 2 0 0.910000 1 0.090000
  2 3.920196 4.992426 16.952312 -0.006666 0.989635 -0.143448 0.231615 -0.941670 1 2 1.000000
  0 3.413185 4.189617 34.805981 0.162560 0.985094 0.056242 0.236982 -0.498158 2 0 0.896540 1 0.103460
blankb
  0 3.413185 4.189617 34.805981 0.162560 0.985094 0.056242 0.236982 -0.498158 2 0 0.896540 1 0.103460
  2 3.920196 4.992426 16.952312 -0.006666 0.989635 -0.143448 0.231615 -0.941670 1 2 1.000000
  0 2.645199 4.018960 30.753592 -0.374592 0.927117 -0.011642 0.245078 -0.598825 2 0 0.150486 1 0.849514
blankb
  0 2.645199 4.018960 30.753592 -0.374592 0.927117 -0.011642 0.245078 -0.598825 2 0 0.150486 1 0.849514
  2 3.920196 4.992426 16.952312 -0.006666 0.989635 -0.143448 0.231615 -0.941670 1 2 1.000000
  1 3.103510 4.456050 21.323360 -0.737239 0.675039 -0.028310 0.239629 -0.833087 2 1 0.689660 2 0.310340
blankb
  2 2.112331 1.451998 15.168317 -0.988953 0.140962 -0.045847 0.048887 -0.985987 1 2 1.000000
  1 3.103510 4.456050 21.323360 -0.737239 0.675039 -0.028310 0.000602 -0.833087 2 1 0.689660 2 0.310340
  2 2.879078 3.321805 15.161406 -0.734793 0.671460 -0.096028 0.025945 -0.986159 1 2 1.000000
blankb
  2 2.879078 3.321805 15.161406 -0.734793 0.671460 -0.096028 0.025945 -0.986159 1 2 1.000000
  1 3.103510 4.456050 21.323360 -0.737239 0.675039 -0.028310 0.000602 -0.833087 2 1 0.689660 2 0.310340
  2 3.920196 4.992426 16.952312 -0.006666 0.989635 -0.143448 0.012507 -0.941670 1 2 1.000000
blankb
  2 4.583327 3.780941 15.161257 0.477782 0.869669 -0.124097 0.004806 -0.986163 1 2 1.000000
  2 2.879078 3.321805 15.161406 -0.734793 0.671460 -0.096028 0.025945 -0.986159 1 2 1.000000
  2 3.920196 4.992426 16.952312 -0.006666 0.989635 -0.143448 0.012507 -0.941670 1 2 1.000000
blankb
  3 6.113930 -1.533544 0.006236 0.528116 0.338447 -0.778811 0.380370 -0.120848 1 3 1.000000
  3 5.806142 0.622184 1.177659 0.997680 0.004285 -0.067937 0.357301 -0.113437 1 3 1.000000
  4 6.833634 -3.502968 -0.037584 0.905258 -0.175945 -0.386718 0.401341 -0.120786 1 4 1.000000
blankb
  3 5.806142 0.622184 1.177659 0.997680 0.004285 -0.067937 0.357301 -0.113437 1 3 1.000000
  3 5.892828 1.032236 0.015619 0.688240 -0.370463 -0.623765 0.353724 -0.120786 1 3 1.000000
  2 2.974621 4.117541 6.119537 -0.361577 0.931761 -0.032908 0.318289 -0.073117 1 2 1.000000
blankb
  3 5.139835 3.751554 0.015605 0.580798 0.445090 -0.681593 0.322277 -0.120786 1 3 1.000000
  2 2.974621 4.117541 6.119537 -0.361577 0.931761 -0.032908 0.318289 -0.073117 1 2 1.000000
  3 5.892828 1.032236 0.015619 0.688240 -0.370463 -0.623765 0.353724 -0.120786 1 3 1.000000
blankb
  3 3.800198 4.133766 0.015607 -0.027798 0.692983 -0.720418 0.318111 -0.120786 1 3 1.000000
  2 2.974621 4.117541 6.119537 -0.361577 0.931761 -0.032908 0.318289 -0.073117 1 2 1.000000
  3 5.139835 3.751554 0.015605 0.580798 0.445090 -0.681593 0.322277 -0.120786 1 3 1.000000
blankb
  2 2.974621 4.117541 6.119537 -0.361577 0.931761 -0.032908 0.318289 -0.073117 1 2 1.000000
  3 3.800198 4.133766 0.015607 -0.027798 0.692983 -0.720418 0.318111 -0.120786 1 3 1.000000
  3 2.511027 3.584543 0.015616 -0.669800 0.324416 -0.667924 0.324097 -0.120786 1 3 1.000000
blankb
  2 2.974621 4.117541 6.119537 -0.361577 0.931761 -0.032908 0.318289 -0.073117 1 2 1.000000
  3 2.511027 3.584543 0.015616 -0.669800 0.324416 -0.667924 0.324097 -0.120786 1 3 1.000000
  2 2.385039 2.506714 5.798619 -0.989402 0.144536 0.013906 0.333814 -0.072557 1 2 1.000000
blankb
  3 2.814080 0.362457 1.057637 -0.766330 0.102081 -0.634285 0.359214 -0.113437 1 3 1.000000
  2 2.385039 2.506714 5.798619 -0.989402 0.144536 0.013906 0.333814 -0.072557 1 2 1.000000
  3 2.511027 3.584543 0.015616 -0.669800 0.324416 -0.667924 0.324097 -0.120786 1 3 1.000000
blankb
  2 2.385039 2.506714 5.798619 -0.989402 0.144536 0.013906 0.333814 -0.072557 1 2 1.000000
  3 2.814080 0.362457 1.057637 -0.766330 0.102081 -0.634285 0.359214 -0.113437 1 3 1.000000
  2 2.513235 -0.051175 5.490451 -0.564419 -0.765024 0.310113 0.362240 -0.071531 1 2 1.000000
blankb
  4 1.816609 -3.801182 -0.037580 -0.812425 -0.111332 -0.572338 0.404592 -0.120786 1 4 1.000000
  2 2.513235 -0.051175 5.490451 -0.564419 -0.765024 0.310113 0.362240 -0.071531 1 2 1.000000
  3 2.814080 0.362457 1.057637 -0.766330 0.102081 -0.634285 0.359214 -0.113437 1 3 1.000000
blankb
  2 2.513235 -0.051175 5.490451 -0.564419 -0.765024 0.310113 0.362240 -0.071531 1 2 1.000000
  4 1.816609 -3.801182 -0.037580 -0.812425 -0.111332 -0.572338 0.404592 -0.120786 1 4 1.000000
  4 4.068596 -6.526776 1.691771 -0.082313 -0.773254 0.628731 0.434297 -0.107490 1 4 1.000000
blankb
  4 4.669917 -7.212721 0.162483 0.190761 -0.915853 -0.353303 0.441773 -0.118717 1 4 1.000000
  4 4.068596 -6.526776 1.691771 -0.082313 -0.773254 0.628731 0.434297 -0.107490 1 4 1.000000
  4 1.816609 -3.801182 -0.037580 -0.812425 -0.111332 -0.572338 0.404592 -0.120786 1 4 1.000000
blankb
  4 6.833634 -3.502968 -0.037584 0.905258 -0.175945 -0.386718 0.401341 -0.120786 1 4 1.000000
  4 4.068596 -6.526776 1.691771 -0.082313 -0.773254 0.628731 0.434297 -0.107490 1 4 1.000000
  4 4.669917 -7.212721 0.162483 0.190761 -0.915853 -0.353303 0.441773 -0.118717 1 4 1.000000
blankb
  2 2.513235 -0.051175 5.490451 -0.564419 -0.765024 0.310113 0.362240 -0.071531 1 2 1.000000
  4 4.068596 -6.526776 1.691771 -0.082313 -0.773254 0.628731 0.434297 -0.107490 1 4 1.000000
  4 6.833634 -3.502968 -0.037584 0.905258 -0.175945 -0.386718 0.401341 -0.120786 1 4 1.000000
blankb
  3 5.806142 0.622184 1.177659 0.997680 0.004285 -0.067937 0.357301 -0.113437 1 3 1.000000
  2 2.513235 -0.051175 5.490451 -0.564419 -0.765024 0.310113 0.362240 -0.071531 1 2 1.000000
  4 6.833634 -3.502968 -0.037584 0.905258 -0.175945 -0.386718 0.401341 -0.120786 1 4 1.000000
blankb
  2 2.513235 -0.051175 5.490451 -0.564419 -0.765024 0.310113 0.362240 -0.071531 1 2 1.000000
  3 5.806142 0.622184 1.177659 0.997680 0.004285 -0.067937 0.357301 -0.113437 1 3 1.000000
  2 5.330859 3.020540 5.667583 0.923575 0.339810 -0.177590 0.330244 -0.072685 1 2 1.000000
blankb
  2 2.974621 4.117541 6.119537 -0.361577 0.931761 -0.032908 0.318289 -0.073117 1 2 1.000000
  2 5.330859 3.020540 5.667583 0.923575 0.339810 -0.177590 0.330244 -0.072685 1 2 1.000000
  3 5.806142 0.622184 1.177659 0.997680 0.004285 -0.067937 0.357301 -0.113437 1 3 1.000000
blankb
  2 2.974621 4.117541 6.119537 -0.361577 0.931761 -0.032908 0.318289 -0.073117 1 2 1.000000
  2 4.583327 3.780941 15.161257 0.477782 0.869669 -0.124097 0.321957 -0.002925 1 2 1.000000
  2 5.330859 3.020540 5.667583 0.923575 0.339810 -0.177590 0.330244 -0.072685 1 2 1.000000
blankb
  2 4.583327 3.780941 15.161257 0.477782 0.869669 -0.124097 0.321957 -0.002925 1 2 1.000000
  2 2.974621 4.117541 6.119537 -0.361577 0.931761 -0.032908 0.318289 -0.073117 1 2 1.000000
  2 2.879078 3.321805 15.161406 -0.734793 0.671460 -0.096028 0.326961 -0.002924 1 2 1.000000
blankb
  2 2.974621 4.117541 6.119537 -0.361577 0.931761 -0.032908 0.318289 -0.073117 1 2 1.000000
  2 2.385039 2.506714 5.798619 -0.989402 0.144536 0.013906 0.333814 -0.072557 1 2 1.000000
  2 2.879078 3.321805 15.161406 -0.734793 0.671460 -0.096028 0.326961 -0.002924 1 2 1.000000
blankb
  2 2.879078 3.321805 15.161406 -0.734793 0.671460 -0.096028 0.326961 -0.002924 1 2 1.000000
  2 2.385039 2.506714 5.798619 -0.989402 0.144536 0.013906 0.333814 -0.072557 1 2 1.000000
  2 2.112331 1.451998 15.168317 -0.988953 0.140962 -0.045847 0.347339 -0.002870 1 2 1.000000
blankb
  2 2.385039 2.506714 5.798619 -0.989402 0.144536 0.013906 0.333814 -0.072557 1 2 1.000000
  2 2.513235 -0.051175 5.490451 -0.564419 -0.765024 0.310113 0.362240 -0.071531 1 2 1.000000
  2 2.112331 1.451998 15.168317 -0.988953 0.140962 -0.045847 0.347339 -0.002870 1 2 1.000000
blankb
  2 2.112331 1.451998 15.168317 -0.988953 0.140962 -0.045847 0.347339 -0.002870 1 2 1.000000
  2 2.513235 -0.051175 5.490451 -0.564419 -0.765024 0.310113 0.362240 -0.071531 1 2 1.000000
  2 2.370388 -0.610230 15.231022 -0.921927 -0.377855 -0.085300 0.369815 -0.002383 1 2 1.000000
blankb
  3 2.814080 0.362457 1.057637 -0.766330 0.102081 -0.634285 0.359214 -0.113437 1 3 1.000000
  3 2.357127 -1.709088 0.010220 -0.544272 0.302427 -0.782500 0.382283 -0.120786 1 3 1.000000
  4 1.816609 -3.801182 -0.037580 -0.812425 -0.111332 -0.572338 0.404592 -0.120786 1 4 1.000000
blankb
  2 6.118675 1.473727 15.161316 0.970117 0.171788 -0.171351 0.347102 -0.002925 1 2 1.000000
  2 5.330859 3.020540 5.667583 0.923575 0.339810 -0.177590 0.330244 -0.072685 1 2 1.000000
  2 4.583327 3.780941 15.161257 0.477782 0.869669 -0.124097 0.321957 -0.002925 1 2 1.000000
blankb
  2 2.513235 -0.051175 5.490451 -0.564419 -0.765024 0.310113 0.362240 -0.071531 1 2 1.000000
  2 5.330859 3.020540 5.667583 0.923575 0.339810 -0.177590 0.330244 -0.072685 1 2 1.000000
  2 6.118675 1.473727 15.161316 0.970117 0.171788 -0.171351 0.347102 -0.002925 1 2 1.000000
blankb
  2 6.118675 1.473727 15.161316 0.970117 0.171788 -0.171351 0.347102 -0.002925 1 2 1.000000
  2 5.243446 -1.586054 15.288414 0.653737 -0.727970 -0.206611 0.380450 -0.001938 1 2 1.000000
  2 2.513235 -0.051175 5.490451 -0.564419 -0.765024 0.310113 0.362240 -0.071531 1 2 1.000000
blankb
  2 3.277605 -1.840991 15.286033 -0.372373 -0.916123 -0.148516 0.383228 -0.001956 1 2 1.000000
  2 2.513235 -0.051175 5.490451 -0.564419 -0.765024 0.310113 0.362240 -0.071531 1 2 1.000000
  2 5.243446 -1.586054 15.288414 0.653737 -0.727970 -0.206611 0.380450 -0.001938 1 2 1.000000
blankb
  2 2.370388 -0.610230 15.231022 -0.921927 -0.377855 -0.085300 0.369815 -0.002383 1 2 1.000000
  2 2.513235 -0.051175 5.490451 -0.564419 -0.765024 0.310113 0.364105 -0.071464 1 2 1.000000
  2 3.277605 -1.840991 15.286033 -0.372373 -0.916123 -0.148516 0.383228 -0.001956 1 2 1.000000
blankb
  0 3.154242 3.974535 35.575054 -0.425832 -0.686987 0.588825 0.473624 -0.442821 1 0 1.000000
  0 -0.014453 6.301683 35.586208 -0.343747 0.801811 0.488812 0.494664 -0.427952 1 0 1.000000
  0 0.532855 4.326933 35.370632 -0.067698 -0.640462 0.765000 0.488498 -0.425817 1 0 1.000000
blankb
  0 8.017160 0.151585 35.618443 0.793795 -0.170017 0.583938 0.433778 -0.426325 2 0 0.642955 1 0.357045
  0 6.814975 -1.126046 35.569973 -0.623961 0.181952 0.759978 0.424598 -0.443285 1 0 1.000000
  0 4.904233 -3.694183 35.541031 -0.590504 -0.791644 0.156856 0.383928 -0.433150 1 0 1.000000
blankb
  0 6.814975 -1.126046 35.569973 -0.623961 0.181952 0.759978 0.424598 -0.443285 1 0 1.000000
  0 8.017160 0.151585 35.618443 0.793795 -0.170017 0.583938 0.433778 -0.426325 2 0 0.642955 1 0.357045
  0 6.464842 3.499033 35.736801 0.500771 0.460772 0.732747 0.456990 -0.424448 1 0 1.000000
blankb
  0 8.017160 0.151585 35.618443 0.793795 -0.170017 0.583938 0.433778 -0.426325 2 0 0.642955 1 0.357045
  0 7.996171 0.840631 32.592262 0.493236 -0.175097 -0.852091 0.438511 -0.488631 2 0 0.431000 1 0.569000
  0 6.464842 3.499033 35.736801 0.500771 0.460772 0.732747 0.456990 -0.424448 1 0 1.000000
blankb
  0 1.649891 6.665975 32.984634 -0.036295 0.641173 -0.766537 0.489203 -0.480511 1 0 1.000000
  0 6.464842 3.499033 35.736801 0.500771 0.460772 0.732747 0.456990 -0.424448 1 0 1.000000
  0 7.996171 0.840631 32.592262 0.493236 -0.175097 -0.852091 0.438511 -0.488631 2 0 0.431000 1 0.569000
blankb
  0 7.996171 0.840631 32.592262 0.493236 -0.175097 -0.852091 0.438511 -0.488631 2 0 0.431000 1 0.569000
  0 3.154242 3.974535 35.575054 -0.425832 -0.686987 0.588825 0.473624 -0.442821 1 0 1.000000
  0 1.649891 6.665975 32.984634 -0.036295 0.641173 -0.766537 0.489203 -0.480511 1 0 1.000000
blankb
  0 0.000027 4.107653 34.488136 -0.081230 -0.736759 -0.671258 0.496876 -0.449398 1 0 1.000000
  0 1.649891 6.665975 32.984634 -0.036295 0.641173 -0.766537 0.489203 -0.480511 1 0 1.000000
  0 3.154242 3.974535 35.575054 -0.425832 -0.686987 0.588825 0.473624 -0.442821 1 0 1.000000
blankb
  0 1.649891 6.665975 32.984634 -0.036295 0.641173 -0.766537 0.489203 -0.480511 1 0 1.000000
  0 0.000027 4.107653 34.488136 -0.081230 -0.736759 -0.671258 0.496876 -0.449398 1 0 1.000000
  0 -0.014453 6.301683 35.586208 -0.343747 0.801811 0.488812 0.494664 -0.427952 1 0 1.000000
blankb
  0 -0.014453 6.301683 35.586208 -0.343747 0.801811 0.488812 0.494664 -0.427952 1 0 1.000000
  0 6.464842 3.499033 35.736801 0.500771 0.460772 0.732747 0.456990 -0.424448 1 0 1.000000
  0 1.649891 6.665975 32.984634 -0.036295 0.641173 -0.766537 0.489203 -0.480511 1 0 1.000000
blankb
  0 -0.014453 6.301683 35.586208 -0.343747 0.801811 0.488812 0.494664 -0.427952 1 0 1.000000
  0 3.154242 3.974535 35.575054 -0.425832 -0.686987 0.588825 0.473624 -0.442821 1 0 1.000000
  0 6.464842 3.499033 35.736801 0.500771 0.460772 0.732747 0.456990 -0.424448 1 0 1.000000
blankb
  0 6.814975 -1.126046 35.569973 -0.623961 0.181952 0.759978 0.424598 -0.443285 1 0 1.000000
  0 6.464842 3.499033 35.736801 0.500771 0.460772 0.732747 0.456990 -0.424448 1 0 1.000000
  0 3.154242 3.974535 35.575054 -0.425832 -0.686987 0.588825 0.473624 -0.442821 1 0 1.000000
blankb
  0 3.154242 3.974535 35.575054 -0.425832 -0.686987 0.588825 0.473624 -0.442821 1 0 1.000000
  0 7.996171 0.840631 32.592262 0.493236 -0.175097 -0.852091 0.438511 -0.488631 2 0 0.431000 1 0.569000
  0 6.814975 -1.126046 35.569973 -0.623961 0.181952 0.759978 0.424598 -0.443285 1 0 1.000000
blankb
  0 4.904233 -3.694183 35.541031 -0.590504 -0.791644 0.156856 0.383928 -0.433150 1 0 1.000000
  0 6.814975 -1.126046 35.569973 -0.623961 0.181952 0.759978 0.424598 -0.443285 1 0 1.000000
  0 7.996171 0.840631 32.592262 0.493236 -0.175097 -0.852091 0.438511 -0.488631 2 0 0.431000 1 0.569000
blankb
  0 7.996171 0.840631 32.592262 0.493236 -0.175097 -0.852091 0.438511 -0.488631 2 0 0.431000 1 0.569000
  0 8.017160 0.151585 35.618443 0.793795 -0.170017 0.583938 0.433778 -0.426325 2 0 0.642955 1 0.357045
  0 4.904233 -3.694183 35.541031 -0.590504 -0.791644 0.156856 0.383928 -0.433150 1 0 1.000000
blankb
  0 -6.355189 0.215205 35.704624 0.619107 -0.131206 0.774269 0.313491 -0.442815 1 0 1.000000
  0 -7.213683 -0.335693 35.732880 -0.711517 -0.221427 0.666869 0.320135 -0.423845 2 0 0.598000 5 0.402000
  0 -3.697889 -4.491877 35.642250 0.584714 -0.800738 0.130104 0.374562 -0.425382 2 0 0.774922 5 0.225078
blankb
  0 -3.697889 -4.491877 35.642250 0.584714 -0.800738 0.130104 0.374562 -0.425382 2 0 0.774922 5 0.225078
  0 -8.031094 0.871380 32.592262 -0.659072 -0.121441 -0.742210 0.311614 -0.488631 2 0 0.421477 5 0.578523
  0 -6.355189 0.215205 35.704624 0.619107 -0.131206 0.774269 0.313491 -0.442815 1 0 1.000000
blankb
  0 -8.031094 0.871380 32.592262 -0.659072 -0.121441 -0.742210 0.311614 -0.488631 2 0 0.421477 5 0.578523
  0 -3.697889 -4.491877 35.642250 0.584714 -0.800738 0.130104 0.374562 -0.425382 2 0 0.774922 5 0.225078
  0 -7.213683 -0.335693 35.732880 -0.711517 -0.221427 0.666869 0.320135 -0.423845 2 0 0.598000 5 0.402000
blankb
  0 -8.031094 0.871380 32.592262 -0.659072 -0.121441 -0.742210 0.311614 -0.488631 2 0 0.421477 5 0.578523
  0 -7.213683 -0.335693 35.732880 -0.711517 -0.221427 0.666869 0.320135 -0.423845 2 0 0.598000 5 0.402000
  0 -5.362945 4.176319 35.707443 -0.390195 0.747456 0.537640 0.285111 -0.427566 2 0 0.864557 5 0.135443
blankb
  0 -5.362945 4.176319 35.707443 -0.390195 0.747456 0.537640 0.285111 -0.427566 2 0 0.864557 5 0.135443
  0 -7.213683 -0.335693 35.732880 -0.711517 -0.221427 0.666869 0.320135 -0.423845 2 0 0.598000 5 0.402000
  0 -6.355189 0.215205 35.704624 0.619107 -0.131206 0.774269 0.313491 -0.442815 1 0 1.000000
blankb
  0 0.000027 4.107653 34.488136 -0.081230 -0.736759 -0.671258 0.256664 -0.449398 1 0 1.000000
  0 -5.362945 4.176319 35.707443 -0.390195 0.747456 0.537640 0.285111 -0.427566 2 0 0.864557 5 0.135443
  0 -6.355189 0.215205 35.704624 0.619107 -0.131206 0.774269 0.313491 -0.442815 1 0 1.000000
blankb
  0 0.000027 4.107653 34.488136 -0.081230 -0.736759 -0.671258 0.256664 -0.449398 1 0 1.000000
  0 -6.355189 0.215205 35.704624 0.619107 -0.131206 0.774269 0.313491 -0.442815 1 0 1.000000
  0 -8.031094 0.871380 32.592262 -0.659072 -0.121441 -0.742210 0.311614 -0.488631 2 0 0.421477 5 0.578523
blankb
  0 -8.031094 0.871380 32.592262 -0.659072 -0.121441 -0.742210 0.311614 -0.488631 2 0 0.421477 5 0.578523
  0 -0.014453 6.301683 35.586208 -0.343747 0.801811 0.488812 0.256664 -0.449398 1 0 1.000000
  0 0.000027 4.107653 34.488136 -0.081230 -0.736759 -0.671258 0.256664 -0.449398 1 0 1.000000
blankb
  0 -8.031094 0.871380 32.592262 -0.659072 -0.121441 -0.742210 0.311614 -0.488631 2 0 0.421477 5 0.578523
  0 -5.362945 4.176319 35.707443 -0.390195 0.747456 0.537640 0.285111 -0.427566 2 0 0.864557 5 0.135443
  0 -0.014453 6.301683 35.586208 -0.343747 0.801811 0.488812 0.256664 -0.449398 1 0 1.000000
blankb
  0 -0.014453 6.301683 35.586208 -0.343747 0.801811 0.488812 0.256664 -0.449398 1 0 1.000000
  0 -5.362945 4.176319 35.707443 -0.390195 0.747456 0.537640 0.285111 -0.427566 2 0 0.864557 5 0.135443
  0 0.532855 4.326933 35.370632 -0.067698 -0.640462 0.765000 0.256664 -0.449398 1 0 1.000000
blankb
  0 -5.362945 4.176319 35.707443 -0.390195 0.747456 0.537640 0.285111 -0.427566 2 0 0.864557 5 0.135443
  0 0.000027 4.107653 34.488136 -0.081230 -0.736759 -0.671258 0.256664 -0.449398 1 0 1.000000
  0 0.532855 4.326933 35.370632 -0.067698 -0.640462 0.765000 0.256664 -0.449398 1 0 1.000000
blankb
  0 3.154242 3.974535 35.575054 -0.425832 -0.686987 0.588825 0.256664 -0.449398 1 0 1.000000
  0 0.532855 4.326933 35.370632 -0.067698 -0.640462 0.765000 0.256664 -0.449398 1 0 1.000000
  0 0.000027 4.107653 34.488136 -0.081230 -0.736759 -0.671258 0.256664 -0.449398 1 0 1.000000
blankb
  7 -2.510995 3.584542 0.004980 0.669947 0.324576 -0.667698 0.703006 -0.583739 1 7 1.000000
  7 -2.814049 0.362456 1.057626 0.749396 -0.182138 -0.636578 0.732644 -0.578072 1 7 1.000000
  7 -3.800168 4.133764 0.004966 0.027856 0.692204 -0.721164 0.697954 -0.559631 1 7 1.000000
blankb
  7 -3.800168 4.133764 0.004966 0.027856 0.692204 -0.721164 0.697954 -0.559631 1 7 1.000000
  7 -2.814049 0.362456 1.057626 0.749396 -0.182138 -0.636578 0.732644 -0.578072 1 7 1.000000
  7 -5.139805 3.751554 0.004980 -0.580898 0.445329 -0.681351 0.701470 -0.534581 1 7 1.000000
blankb
  7 -5.892797 1.032235 0.004975 -0.687894 -0.371392 -0.623594 0.728011 -0.519390 1 7 1.000000
  7 -5.139805 3.751554 0.004980 -0.580898 0.445329 -0.681351 0.701470 -0.534581 1 7 1.000000
  7 -2.814049 0.362456 1.057626 0.749396 -0.182138 -0.636578 0.732644 -0.578072 1 7 1.000000
blankb
  7 -5.806110 0.622183 1.177645 -0.910518 0.214854 -0.353264 0.731030 -0.522457 1 7 1.000000
  7 -5.892797 1.032235 0.004975 -0.687894 -0.371392 -0.623594 0.728011 -0.519390 1 7 1.000000
  7 -2.814049 0.362456 1.057626 0.749396 -0.182138 -0.636578 0.732644 -0.578072 1 7 1.000000
blankb
  7 -2.814049 0.362456 1.057626 0.749396 -0.182138 -0.636578 0.732644 -0.578072 1 7 1.000000
  7 -2.357096 -1.709087 -0.000412 0.566726 0.290482 -0.771001 0.752115 -0.586558 1 7 1.000000
  7 -5.806110 0.622183 1.177645 -0.910518 0.214854 -0.353264 0.731030 -0.522457 1 7 1.000000
blankb
  7 -6.113897 -1.533543 -0.004412 -0.527978 0.339692 -0.778363 0.750500 -0.519682 1 7 1.000000
  7 -5.806110 0.622183 1.177645 -0.910518 0.214854 -0.353264 0.731030 -0.522457 1 7 1.000000
  7 -2.357096 -1.709087 -0.000412 0.566726 0.290482 -0.771001 0.752115 -0.586558 1 7 1.000000
blankb
  7 -2.357096 -1.709087 -0.000412 0.566726 0.290482 -0.771001 0.752115 -0.586558 1 7 1.000000
  8 -1.816577 -3.801186 -0.048210 0.922157 -0.166552 -0.349124 0.770943 -0.596725 1 8 1.000000
  7 -6.113897 -1.533543 -0.004412 -0.527978 0.339692 -0.778363 0.750500 -0.519682 1 7 1.000000
blankb
  8 -6.833602 -3.502967 -0.048221 -0.880338 -0.229863 -0.414931 0.768200 -0.502907 1 8 1.000000
  7 -6.113897 -1.533543 -0.004412 -0.527978 0.339692 -0.778363 0.750500 -0.519682 1 7 1.000000
  8 -1.816577 -3.801186 -0.048210 0.922157 -0.166552 -0.349124 0.770943 -0.596725 1 8 1.000000
blankb
  8 -1.816577 -3.801186 -0.048210 0.922157 -0.166552 -0.349124 0.770943 -0.596725 1 8 1.000000
  8 -4.669887 -7.212726 0.169969 -0.187774 -0.917428 -0.350809 0.802323 -0.543369 1 8 1.000000
  8 -6.833602 -3.502967 -0.048221 -0.880338 -0.229863 -0.414931 0.768200 -0.502907 1 8 1.000000
blankb
  4 1.816609 -3.801182 -0.037580 -0.812425 -0.111332 -0.572338 0.772607 -0.597155 1 4 1.000000
  4 6.833634 -3.502968 -0.037584 0.905258 -0.175945 -0.386718 0.769644 -0.502476 1 4 1.000000
  4 4.669917 -7.212721 0.162483 0.190761 -0.915853 -0.353303 0.806498 -0.543309 1 4 1.000000
blankb
  4 6.833634 -3.502968 -0.037584 0.905258 -0.175945 -0.386718 0.769644 -0.502476 1 4 1.000000
  4 1.816609 -3.801182 -0.037580 -0.812425 -0.111332 -0.572338 0.772607 -0.597155 1 4 1.000000
  3 6.113930 -1.533544 0.006236 0.528116 0.338447 -0.778811 0.750528 -0.519406 1 3 1.000000
blankb
  3 2.357127 -1.709088 0.010220 -0.544272 0.302427 -0.782500 0.752272 -0.586896 1 3 1.000000
  3 6.113930 -1.533544 0.006236 0.528116 0.338447 -0.778811 0.750528 -0.519406 1 3 1.000000
  4 1.816609 -3.801182 -0.037580 -0.812425 -0.111332 -0.572338 0.772607 -0.597155 1 4 1.000000
blankb
  3 6.113930 -1.533544 0.006236 0.528116 0.338447 -0.778811 0.750528 -0.519406 1 3 1.000000
  3 2.357127 -1.709088 0.010220 -0.544272 0.302427 -0.782500 0.752272 -0.586896 1 3 1.000000
  3 5.806142 0.622184 1.177659 0.997680 0.004285 -0.067937 0.729500 -0.522206 1 3 1.000000
blankb
  3 2.814080 0.362457 1.057637 -0.766330 0.102081 -0.634285 0.731244 -0.578331 1 3 1.000000
  3 5.806142 0.622184 1.177659 0.997680 0.004285 -0.067937 0.729500 -0.522206 1 3 1.000000
  3 2.357127 -1.709088 0.010220 -0.544272 0.302427 -0.782500 0.752272 -0.586896 1 3 1.000000
blankb
  3 5.806142 0.622184 1.177659 0.997680 0.004285 -0.067937 0.729500 -0.522206 1 3 1.000000
  3 2.814080 0.362457 1.057637 -0.766330 0.102081 -0.634285 0.731244 -0.578331 1 3 1.000000
  3 5.892828 1.032236 0.015619 0.688240 -0.370463 -0.623765 0.726240 -0.519110 1 3 1.000000
blankb
  3 5.892828 1.032236 0.015619 0.688240 -0.370463 -0.623765 0.726240 -0.519110 1 3 1.000000
  3 2.814080 0.362457 1.057637 -0.766330 0.102081 -0.634285 0.731244 -0.578331 1 3 1.000000
  3 5.139835 3.751554 0.015605 0.580798 0.445090 -0.681593 0.697576 -0.534441 1 3 1.000000
blankb
  3 3.800198 4.133766 0.015607 -0.027798 0.692983 -0.720418 0.693779 -0.559722 1 3 1.000000
  3 5.139835 3.751554 0.015605 0.580798 0.445090 -0.681593 0.697576 -0.534441 1 3 1.000000
  3 2.814080 0.362457 1.057637 -0.766330 0.102081 -0.634285 0.731244 -0.578331 1 3 1.000000
blankb
  3 2.511027 3.584543 0.015616 -0.669800 0.324416 -0.667924 0.699235 -0.584050 1 3 1.000000
  3 3.800198 4.133766 0.015607 -0.027798 0.692983 -0.720418 0.693779 -0.559722 1 3 1.000000
  3 2.814080 0.362457 1.057637 -0.766330 0.102081 -0.634285 0.731244 -0.578331 1 3 1.000000
blanke
  0 -5.496371 -3.101978 36.351601 -0.453323 -0.562496 0.691445 0.202485 0.791485 2 0 0.912687 5 0.087313
  0 -6.759752 0.709777 36.702034 -0.660961 0.200542 0.723127 0.173290 0.791666 1 0 1.000000
  0 -5.660200 -3.317881 34.794815 -0.623179 -0.768231 0.146523 0.204138 0.785181 2 0 0.597138 5 0.402862
blanke
  0 -7.098849 -0.309387 34.801991 -0.993939 -0.044394 0.100566 0.181096 0.785236 2 0 0.624968 5 0.375032
  0 -5.660200 -3.317881 34.794815 -0.623179 -0.768231 0.146523 0.204138 0.785181 2 0 0.597138 5 0.402862
  0 -6.759752 0.709777 36.702034 -0.660961 0.200542 0.723127 0.173290 0.791666 1 0 1.000000
blanke
  0 -6.759752 0.709777 36.702034 -0.660961 0.200542 0.723127 0.173290 0.791666 1 0 1.000000
  0 -5.131968 2.853827 36.714188 -0.440372 0.487343 0.754035 0.154698 0.791759 1 0 1.000000
  0 -7.098849 -0.309387 34.801991 -0.993939 -0.044394 0.100566 0.181096 0.785236 2 0 0.624968 5 0.375032
blanke
  0 -5.342463 3.131654 34.837528 -0.657146 0.742209 0.131472 0.153163 0.785508 2 0 0.793192 5 0.206808
  0 -7.098849 -0.309387 34.801991 -0.993939 -0.044394 0.100566 0.181096 0.785236 2 0 0.624968 5 0.375032
  0 -5.131968 2.853827 36.714188 -0.440372 0.487343 0.754035 0.154698 0.791759 1 0 1.000000
blanke
  0 5.746005 3.076699 36.714188 0.498200 0.545479 0.673980 0.205149 0.791759 1 0 1.000000
  0 6.918623 -1.291485 36.699867 0.695104 -0.227070 0.682107 0.171228 0.791423 1 0 1.000000
  0 5.965675 3.169612 34.837528 0.690060 0.719198 0.081065 0.206683 0.785508 2 0 0.910000 1 0.090000
blanke
  0 7.183697 -1.378375 34.783524 0.947535 -0.297422 0.117125 0.170563 0.785095 1 0 1.000000
  0 5.965675 3.169612 34.837528 0.690060 0.719198 0.081065 0.206683 0.785508 2 0 0.910000 1 0.090000
  0 6.918623 -1.291485 36.699867 0.695104 -0.227070 0.682107 0.171228 0.791423 1 0 1.000000
blanke
  0 6.918623 -1.291485 36.699867 0.695104 -0.227070 0.682107 0.171228 0.791423 1 0 1.000000
  0 5.359246 -3.101977 36.703346 0.285122 -0.526139 0.801176 0.157361 0.791485 1 0 1.000000
  0 7.183697 -1.378375 34.783524 0.947535 -0.297422 0.117125 0.170563 0.785095 1 0 1.000000
blanke
  0 5.660254 -3.317881 34.794819 0.689525 -0.711572 0.134984 0.155708 0.785181 2 0 0.807686 1 0.192314
  0 7.183697 -1.378375 34.783524 0.947535 -0.297422 0.117125 0.170563 0.785095 1 0 1.000000
  0 5.359246 -3.101977 36.703346 0.285122 -0.526139 0.801176 0.157361 0.791485 1 0 1.000000
blanke
  0 -5.660200 -3.317881 34.794815 -0.623179 -0.768231 0.146523 0.136571 0.785181 2 0 0.597138 5 0.402862
  0 -3.044365 -4.502083 34.915489 -0.088173 -0.987672 0.129345 0.156606 0.786106 2 0 0.821458 5 0.178542
  0 -5.496371 -3.101978 36.351601 -0.453323 -0.562496 0.691445 0.137826 0.791485 2 0 0.912687 5 0.087313
blanke
  0 -3.044365 -4.502083 34.915489 -0.088173 -0.987672 0.129345 0.156606 0.786106 2 0 0.821458 5 0.178542
  0 -3.599706 -3.768119 36.384418 -0.085568 -0.485851 0.869843 0.156959 0.792343 2 0 0.821467 5 0.178533
  0 -5.496371 -3.101978 36.351601 -0.453323 -0.562496 0.691445 0.137826 0.791485 2 0 0.912687 5 0.087313
blanke
  0 2.998353 -3.670655 36.258633 0.193985 -0.494537 0.847233 0.202888 0.792343 2 0 0.893382 1 0.106618
  0 -3.599706 -3.768119 36.384418 -0.085568 -0.485851 0.869843 0.156959 0.792343 2 0 0.821467 5 0.178533
  0 -3.044365 -4.502083 34.915489 -0.088173 -0.987672 0.129345 0.156606 0.786106 2 0 0.821458 5 0.178542
blanke
  0 0.000026 -4.563465 34.777283 -0.049029 -0.983244 -0.175575 0.179923 0.785047 3 0 0.684905 5 0.172410 1 0.142685
  0 2.998353 -3.670655 36.258633 0.193985 -0.494537 0.847233 0.202888 0.792343 2 0 0.893382 1 0.106618
  0 -3.044365 -4.502083 34.915489 -0.088173 -0.987672 0.129345 0.156606 0.786106 2 0 0.821458 5 0.178542
blanke
  0 0.000026 -4.563465 34.777283 -0.049029 -0.983244 -0.175575 0.179923 0.785047 3 0 0.684905 5 0.172410 1 0.142685
  0 3.044417 -4.823008 34.915489 0.038686 -0.997575 0.057857 0.203240 0.786106 2 0 0.898462 1 0.101538
  0 2.998353 -3.670655 36.258633 0.193985 -0.494537 0.847233 0.202888 0.792343 2 0 0.893382 1 0.106618
blanke
  0 2.998353 -3.670655 36.258633 0.193985 -0.494537 0.847233 0.202888 0.792343 2 0 0.893382 1 0.106618
  0 3.044417 -4.823008 34.915489 0.038686 -0.997575 0.057857 0.203240 0.786106 2 0 0.898462 1 0.101538
  0 4.037676 -2.885694 36.182911 -0.148724 -0.121983 0.981326 0.210848 0.791986 2 0 0.915244 1 0.084756
blanke
  0 4.037676 -2.885694 36.182911 -0.148724 -0.121983 0.981326 0.210848 0.791986 2 0 0.915244 1 0.084756
  0 3.044417 -4.823008 34.915489 0.038686 -0.997575 0.057857 0.203240 0.786106 2 0 0.898462 1 0.101538
  0 5.359246 -3.101977 36.703346 0.285122 -0.526139 0.801176 0.222020 0.791485 1 0 1.000000
blanke
  0 5.359246 -3.101977 36.703346 0.285122 -0.526139 0.801176 0.222020 0.791485 1 0 1.000000
  0 3.044417 -4.823008 34.915489 0.038686 -0.997575 0.057857 0.203240 0.786106 2 0 0.898462 1 0.101538
  0 5.660254 -3.317881 34.794819 0.689525 -0.711572 0.134984 0.223275 0.785181 2 0 0.807686 1 0.192314
blanke
  0 -5.342463 3.131654 34.837528 -0.657146 0.742209 0.131472 0.226232 0.785508 2 0 0.793192 5 0.206808
  0 -5.131968 2.853827 36.714188 -0.440372 0.487343 0.754035 0.224717 0.791759 1 0 1.000000
  0 -3.413133 4.189617 34.805977 -0.225121 0.972293 0.062987 0.206065 0.785267 2 0 0.861514 5 0.138486
blanke
  0 -3.413133 4.189617 34.805977 -0.225121 0.972293 0.062987 0.206065 0.785267 2 0 0.861514 5 0.138486
  0 -5.131968 2.853827 36.714188 -0.440372 0.487343 0.754035 0.224717 0.791759 1 0 1.000000
  0 -3.375637 3.937435 36.685814 -0.180335 0.678669 0.711960 0.205778 0.791542 1 0 1.000000
blanke
  0 -3.375637 3.937435 36.685814 -0.180335 0.678669 0.711960 0.205778 0.791542 1 0 1.000000
  0 3.375689 3.937435 36.685814 0.099255 0.680489 0.726005 0.154069 0.791542 1 0 1.000000
  0 -3.413133 4.189617 34.805977 -0.225121 0.972293 0.062987 0.206065 0.785267 2 0 0.861514 5 0.138486
blanke
  0 0.000027 4.107653 34.488132 0.008518 0.977359 -0.211414 0.179923 0.782832 1 0 1.000000
  0 -3.413133 4.189617 34.805977 -0.225121 0.972293 0.062987 0.206065 0.785267 2 0 0.861514 5 0.138486
  0 3.375689 3.937435 36.685814 0.099255 0.680489 0.726005 0.154069 0.791542 1 0 1.000000
blanke
  0 3.413185 4.189617 34.805981 0.162560 0.985094 0.056242 0.153782 0.785267 2 0 0.896540 1 0.103460
  0 0.000027 4.107653 34.488132 0.008518 0.977359 -0.211414 0.179923 0.782832 1 0 1.000000
  0 3.375689 3.937435 36.685814 0.099255 0.680489 0.726005 0.154069 0.791542 1 0 1.000000
blanke
  0 3.413185 4.189617 34.805981 0.162560 0.985094 0.056242 0.153782 0.785267 2 0 0.896540 1 0.103460
  0 3.375689 3.937435 36.685814 0.099255 0.680489 0.726005 0.154069 0.791542 1 0 1.000000
  0 5.965675 3.169612 34.837528 0.690060 0.719198 0.081065 0.133614 0.785508 2 0 0.910000 1 0.090000
blanke
  0 5.965675 3.169612 34.837528 0.690060 0.719198 0.081065 0.133614 0.785508 2 0 0.910000 1 0.090000
  0 3.375689 3.937435 36.685814 0.099255 0.680489 0.726005 0.154069 0.791542 1 0 1.000000
  0 5.746005 3.076699 36.714188 0.498200 0.545479 0.673980 0.135129 0.791759 1 0 1.000000
blanke
  0 6.918623 -1.291485 36.699867 0.695104 -0.227070 0.682107 0.232913 0.777928 1 0 1.000000
  0 5.746005 3.076699 36.714188 0.498200 0.545479 0.673980 0.224717 0.811848 1 0 1.000000
  0 5.359246 -3.101977 36.703346 0.285122 -0.526139 0.801176 0.222020 0.764061 1 0 1.000000
blanke
  0 5.746005 3.076699 36.714188 0.498200 0.545479 0.673980 0.224717 0.811848 1 0 1.000000
  0 3.375689 3.937435 36.685814 0.099255 0.680489 0.726005 0.205778 0.817976 1 0 1.000000
  0 5.359246 -3.101977 36.703346 0.285122 -0.526139 0.801176 0.222020 0.764061 1 0 1.000000
blanke
  0 3.375689 3.937435 36.685814 0.099255 0.680489 0.726005 0.205778 0.817976 1 0 1.000000
  0 4.037676 -2.885694 36.182911 -0.148724 -0.121983 0.981326 0.210848 0.759003 2 0 0.915244 1 0.084756
  0 5.359246 -3.101977 36.703346 0.285122 -0.526139 0.801176 0.222020 0.764061 1 0 1.000000
blanke
  0 2.998353 -3.670655 36.258633 0.193985 -0.494537 0.847233 0.202888 0.755400 2 0 0.893382 1 0.106618
  0 4.037676 -2.885694 36.182911 -0.148724 -0.121983 0.981326 0.210848 0.759003 2 0 0.915244 1 0.084756
  0 3.375689 3.937435 36.685814 0.099255 0.680489 0.726005 0.205778 0.817976 1 0 1.000000
blanke
  0 3.375689 3.937435 36.685814 0.099255 0.680489 0.726005 0.205778 0.817976 1 0 1.000000
  0 -3.599706 -3.768119 36.384418 -0.085568 -0.485851 0.869843 0.156959 0.755400 2 0 0.821467 5 0.178533
  0 2.998353 -3.670655 36.258633 0.193985 -0.494537 0.847233 0.202888 0.755400 2 0 0.893382 1 0.106618
blanke
  0 -3.599706 -3.768119 36.384418 -0.085568 -0.485851 0.869843 0.156959 0.755400 2 0 0.821467 5 0.178533
  0 3.375689 3.937435 36.685814 0.099255 0.680489 0.726005 0.205778 0.817976 1 0 1.000000
  0 -3.375637 3.937435 36.685814 -0.180335 0.678669 0.711960 0.154069 0.817976 1 0 1.000000
blanke
  0 -3.375637 3.937435 36.685814 -0.180335 0.678669 0.711960 0.154069 0.817976 1 0 1.000000
  0 -5.496371 -3.101978 36.351601 -0.453323 -0.562496 0.691445 0.137826 0.764061 2 0 0.912687 5 0.087313
  0 -3.599706 -3.768119 36.384418 -0.085568 -0.485851 0.869843 0.156959 0.755400 2 0 0.821467 5 0.178533
blanke
  0 -3.375637 3.937435 36.685814 -0.180335 0.678669 0.711960 0.154069 0.817976 1 0 1.000000
  0 -5.131968 2.853827 36.714188 -0.440372 0.487343 0.754035 0.135129 0.811848 1 0 1.000000
  0 -5.496371 -3.101978 36.351601 -0.453323 -0.562496 0.691445 0.137826 0.764061 2 0 0.912687 5 0.087313
blanke
  0 -5.131968 2.853827 36.714188 -0.440372 0.487343 0.754035 0.135129 0.811848 1 0 1.000000
  0 -6.759752 0.709777 36.702034 -0.660961 0.200542 0.723127 0.128150 0.793255 1 0 1.000000
  0 -5.496371 -3.101978 36.351601 -0.453323 -0.562496 0.691445 0.137826 0.764061 2 0 0.912687 5 0.087313
end
