"vertexlitgeneric"
{
	// original shader: basetimeslightmap
	"$detail" "detail/detail_noise1"
	"$detailscale" 2.5
	"$basetexture" "halflife/+0~tnnl_lgt2"
	"$surfaceprop" "glass"
	"$selfillum" 1
	"proxies"
	{
		"toggletexture"
		{
			"toggletexturevar" "$basetexture"
			"toggletextureframenumvar" "$frame"
		}
	}
}
