// Created by Crowbar 0.58
version 1
nodes
  0 "Bip01" -1
  1 "Bip01 Pelvis" 0
  2 "Bip01 Spine" 1
  3 "Bip01 Spine1" 2
  4 "Bip01 Spine2" 3
  5 "Bip01 Spine3" 4
  6 "Bip01 Neck" 5
  7 "Bip01 Head" 6
  8 "Bone09" 7
  9 "Bone10" 8
  10 "Bone12" 7
  11 "Bone13" 10
  12 "Bip01 L Clavicle" 6
  13 "Bip01 L UpperArm" 12
  14 "Bip01 L Forearm" 13
  15 "Bip01 L Hand" 14
  16 "Bip01 L Finger0" 15
  17 "Bip01 L Finger01" 16
  18 "Bip01 L Finger02" 17
  19 "Bip01 L Finger1" 15
  20 "Bip01 L Finger11" 19
  21 "Bip01 L Finger12" 20
  22 "Bip01 L Finger2" 15
  23 "Bip01 L Finger21" 22
  24 "Bip01 L Finger22" 23
  25 "Bip01 L Finger3" 15
  26 "Bip01 L Finger31" 25
  27 "Bip01 L Finger32" 26
  28 "Bip01 R Clavicle" 6
  29 "Bip01 R UpperArm" 28
  30 "Bip01 R Forearm" 29
  31 "Bip01 R Hand" 30
  32 "Bip01 R Finger0" 31
  33 "Bip01 R Finger01" 32
  34 "Bip01 R Finger02" 33
  35 "Bip01 R Finger1" 31
  36 "Bip01 R Finger11" 35
  37 "Bip01 R Finger12" 36
  38 "Bip01 R Finger2" 31
  39 "Bip01 R Finger21" 38
  40 "Bip01 R Finger22" 39
  41 "Bip01 R Finger3" 31
  42 "Bip01 R Finger31" 41
  43 "Bip01 R Finger32" 42
  44 "Bone01" 4
  45 "Bone03" 4
  46 "Bone05" 3
  47 "Bone07" 3
  48 "Bip01 L Thigh" 1
  49 "Bip01 L Calf" 48
  50 "Bip01 L Foot" 49
  51 "Bip01 R Thigh" 1
  52 "Bip01 R Calf" 51
  53 "Bip01 R Foot" 52
end
skeleton
  time 0
    0 -0.020980 0.000000 38.520203 0.000000 0.000000 -1.570795
    1 0.000000 0.000000 0.000000 0.000000 -1.570451 -1.570795
    2 1.576611 -0.003992 0.000002 -0.000004 -0.000001 0.000646
    3 5.015457 -0.003840 0.000000 0.000000 0.000000 0.000000
    4 4.822693 -0.003838 0.000000 0.000000 0.000000 0.034889
    5 4.822556 -0.004685 0.000000 0.000000 0.000000 0.000000
    6 5.883453 -0.001475 0.000000 0.000000 0.000000 -0.052333
    7 1.854832 0.000000 0.000000 -0.000001 -0.000001 0.348241
    8 4.577744 2.974503 -4.899295 0.000000 -1.570796 2.810149
    9 -0.576364 -6.294613 1.187798 0.000000 0.000000 0.000000
    10 4.598343 3.014902 4.786890 0.000000 -1.570796 2.810149
    11 0.671572 -6.281569 1.205063 0.000000 0.000000 0.000000
    12 0.988842 0.018080 3.418189 -0.000014 -1.370796 -3.090042
    13 5.304816 0.000000 0.000000 -0.159392 1.130895 -0.163932
    14 18.707375 0.000000 -0.000002 0.000000 0.000000 -0.304438
    15 13.951651 0.000000 -0.000004 -0.083142 -0.092141 0.117212
    16 -0.620571 0.325967 -1.592585 1.860746 0.900460 0.815947
    17 3.570904 0.000002 -0.000001 0.000000 0.000000 0.183144
    18 2.779234 -0.000001 0.000000 0.000000 0.000000 0.514536
    19 5.246642 0.034821 -2.517332 0.014037 0.254248 0.497446
    20 6.439503 -0.000001 0.000000 0.000000 0.000000 0.628009
    21 3.098978 0.000000 0.000000 0.000000 0.000000 0.593138
    22 5.603584 -0.087752 -0.344059 -0.019672 -0.058226 0.184099
    23 4.928793 0.000000 -0.000004 0.000000 0.000000 0.654145
    24 6.254896 0.000002 -0.000002 0.000000 0.000000 0.628000
    25 5.434063 -0.010812 1.636232 -0.083911 -0.318614 0.448028
    26 4.854518 0.000000 0.000002 0.000000 0.000000 0.636568
    27 5.521277 0.000000 0.000000 0.000000 0.000000 0.741482
    28 -0.000004 0.001486 -3.418189 -0.000014 1.370796 -3.090069
    29 5.304816 0.000000 0.000000 0.100263 -1.116972 -0.098624
    30 18.340565 0.000000 -0.000002 0.000000 0.000000 -0.400431
    31 14.370207 0.000000 0.000002 0.097843 0.076190 0.291635
    32 -0.620573 0.325966 1.592587 -1.904380 -0.900460 0.815947
    33 3.927999 -0.000001 0.000000 0.000000 0.000000 0.183145
    34 2.779240 0.000001 0.000000 0.000000 0.000000 0.514536
    35 5.246641 0.034821 2.517334 -0.134830 -0.332825 0.388147
    36 6.313238 0.000002 0.000002 0.000000 0.000000 0.628009
    37 3.098980 0.000000 0.000001 0.000000 0.000000 0.593138
    38 5.603580 -0.087754 0.344059 0.005498 0.008328 0.052533
    39 4.532814 0.000000 -0.000002 0.000000 0.000000 0.697778
    40 6.615754 0.000002 0.000000 0.000000 0.000000 0.628000
    41 5.434061 -0.010812 -1.636234 0.092228 0.299427 0.336527
    42 4.623351 0.000001 -0.000002 0.000000 0.000000 0.636567
    43 5.521277 0.000000 0.000000 0.000000 0.000000 0.741482
    44 4.170006 3.279094 -1.198655 0.000000 -1.570796 3.106058
    45 3.754124 3.204277 1.399633 0.000000 -1.570796 3.106058
    46 0.050228 4.476613 -0.976787 0.000000 -1.570796 3.140947
    47 0.921745 4.255628 1.163094 0.000000 -1.570796 3.140947
    48 -0.000008 0.000008 4.504590 -3.141035 -0.006341 3.094191
    49 18.184616 0.000000 0.000000 0.000000 0.000000 -0.182015
    50 16.862097 0.000000 0.000000 -0.000256 -0.006361 0.134616
    51 0.000011 -0.000005 -4.504589 3.141037 0.006344 3.094191
    52 18.184610 0.000000 0.000000 0.000000 0.000000 -0.182015
    53 16.862089 0.000000 0.000000 0.000256 0.006361 0.134616
end
triangles
  phy
    1 -6.084242 3.877965 38.626509 -0.392841 0.699395 -0.597095 0 0
    1 0.100897 4.556193 38.630781 -0.122354 0.368771 -0.921432 0 0
    1 0.104857 3.273989 32.785681 -0.689336 0.421853 -0.588945 0 0
  phy
    1 0.100897 4.556193 38.630781 -0.122354 0.368771 -0.921432 0 0
    1 -6.084242 3.877965 38.626509 -0.392841 0.699395 -0.597095 0 0
    1 0.096900 5.211997 44.475880 -0.705712 0.022398 -0.708144 0 0
  phy
    1 0.100897 4.556193 38.630781 -0.122354 0.368771 -0.921432 0 0
    1 6.433043 3.683211 38.635145 -0.251069 -0.210227 -0.944865 0 0
    1 0.104857 3.273989 32.785681 -0.689336 0.421853 -0.588945 0 0
  phy
    1 6.433043 3.683211 38.635145 -0.251069 -0.210227 -0.944865 0 0
    1 0.100897 4.556193 38.630781 -0.122354 0.368771 -0.921432 0 0
    1 0.096900 5.211997 44.475880 -0.705712 0.022398 -0.708144 0 0
  phy
    1 -6.290121 -4.702425 32.781269 0.585179 0.341625 0.735430 0 0
    1 0.100192 -7.192607 38.630788 -0.242452 0.142551 0.959633 0 0
    1 -6.294250 -6.247022 38.626370 -0.227315 0.481223 0.846612 0 0
  phy
    1 -6.290121 -4.702425 32.781269 0.585179 0.341625 0.735430 0 0
    1 0.104321 -5.648010 32.785685 0.253967 -0.130035 0.958432 0 0
    1 0.100192 -7.192607 38.630788 -0.242452 0.142551 0.959633 0 0
  phy
    1 0.100192 -7.192607 38.630788 -0.242452 0.142551 0.959633 0 0
    1 5.828783 -6.702048 44.479843 -0.787255 0.232008 0.571315 0 0
    1 0.096118 -7.780104 44.475887 -0.263602 -0.214159 0.940558 0 0
  phy
    1 0.100192 -7.192607 38.630788 -0.242452 0.142551 0.959633 0 0
    1 5.832856 -6.114552 38.634743 -0.243377 0.864693 0.439401 0 0
    1 5.828783 -6.702048 44.479843 -0.787255 0.232008 0.571315 0 0
  phy
    1 0.100192 -7.192607 38.630788 -0.242452 0.142551 0.959633 0 0
    1 5.836985 -4.569956 32.789643 0.688406 0.485349 0.539011 0 0
    1 5.832856 -6.114552 38.634743 -0.243377 0.864693 0.439401 0 0
  phy
    1 0.100192 -7.192607 38.630788 -0.242452 0.142551 0.959633 0 0
    1 0.104321 -5.648010 32.785685 0.253967 -0.130035 0.958432 0 0
    1 5.836985 -4.569956 32.789643 0.688406 0.485349 0.539011 0 0
  phy
    1 0.100192 -7.192607 38.630788 -0.242452 0.142551 0.959633 0 0
    1 0.096118 -7.780104 44.475887 -0.263602 -0.214159 0.940558 0 0
    1 -6.294250 -6.247022 38.626370 -0.227315 0.481223 0.846612 0 0
  phy
    1 -6.080242 2.595765 32.781410 0.439020 0.803103 -0.402849 0 0
    1 -6.084242 3.877965 38.626509 -0.392841 0.699395 -0.597095 0 0
    1 0.104857 3.273989 32.785681 -0.689336 0.421853 -0.588945 0 0
  phy
    1 -6.084242 3.877965 38.626509 -0.392841 0.699395 -0.597095 0 0
    1 -6.088239 4.533769 44.471610 0.739475 0.636191 -0.220085 0 0
    1 0.096900 5.211997 44.475880 -0.705712 0.022398 -0.708144 0 0
  phy
    1 -6.084242 3.877965 38.626509 -0.392841 0.699395 -0.597095 0 0
    1 -6.080242 2.595765 32.781410 0.439020 0.803103 -0.402849 0 0
    1 -7.567015 -1.283550 32.780387 0.281220 0.958806 0.040080 0 0
  phy
    1 -6.088239 4.533769 44.471610 0.739475 0.636191 -0.220085 0 0
    1 -6.084242 3.877965 38.626509 -0.392841 0.699395 -0.597095 0 0
    1 -7.567015 -1.283550 32.780387 0.281220 0.958806 0.040080 0 0
  phy
    1 6.433043 3.683211 38.635145 -0.251069 -0.210227 -0.944865 0 0
    1 6.437003 2.401009 32.790054 0.131035 -0.660729 -0.739099 0 0
    1 0.104857 3.273989 32.785681 -0.689336 0.421853 -0.588945 0 0
  phy
    1 6.429046 4.339016 44.480253 -0.279552 -0.694609 -0.662849 0 0
    1 6.433043 3.683211 38.635145 -0.251069 -0.210227 -0.944865 0 0
    1 0.096900 5.211997 44.475880 -0.705712 0.022398 -0.708144 0 0
  phy
    1 6.433043 3.683211 38.635145 -0.251069 -0.210227 -0.944865 0 0
    1 7.776282 -1.284472 32.790984 -0.211956 -0.959116 -0.187542 0 0
    1 6.437003 2.401009 32.790054 0.131035 -0.660729 -0.739099 0 0
  phy
    1 6.429046 4.339016 44.480253 -0.279552 -0.694609 -0.662849 0 0
    1 7.776282 -1.284472 32.790984 -0.211956 -0.959116 -0.187542 0 0
    1 6.433043 3.683211 38.635145 -0.251069 -0.210227 -0.944865 0 0
  phy
    1 5.836985 -4.569956 32.789643 0.688406 0.485349 0.539011 0 0
    1 0.104321 -5.648010 32.785685 0.253967 -0.130035 0.958432 0 0
    1 6.437003 2.401009 32.790054 0.131035 -0.660729 -0.739099 0 0
  phy
    1 6.437003 2.401009 32.790054 0.131035 -0.660729 -0.739099 0 0
    1 0.104321 -5.648010 32.785685 0.253967 -0.130035 0.958432 0 0
    1 0.104857 3.273989 32.785681 -0.689336 0.421853 -0.588945 0 0
  phy
    1 0.104857 3.273989 32.785681 -0.689336 0.421853 -0.588945 0 0
    1 0.104321 -5.648010 32.785685 0.253967 -0.130035 0.958432 0 0
    1 -6.080242 2.595765 32.781410 0.439020 0.803103 -0.402849 0 0
  phy
    1 -6.080242 2.595765 32.781410 0.439020 0.803103 -0.402849 0 0
    1 0.104321 -5.648010 32.785685 0.253967 -0.130035 0.958432 0 0
    1 -6.290121 -4.702425 32.781269 0.585179 0.341625 0.735430 0 0
  phy
    1 -6.080242 2.595765 32.781410 0.439020 0.803103 -0.402849 0 0
    1 -6.290121 -4.702425 32.781269 0.585179 0.341625 0.735430 0 0
    1 -7.567015 -1.283550 32.780387 0.281220 0.958806 0.040080 0 0
  phy
    1 -6.290121 -4.702425 32.781269 0.585179 0.341625 0.735430 0 0
    1 -6.294250 -6.247022 38.626370 -0.227315 0.481223 0.846612 0 0
    1 -7.567015 -1.283550 32.780387 0.281220 0.958806 0.040080 0 0
  phy
    1 5.836985 -4.569956 32.789643 0.688406 0.485349 0.539011 0 0
    1 7.776282 -1.284472 32.790984 -0.211956 -0.959116 -0.187542 0 0
    1 5.832856 -6.114552 38.634743 -0.243377 0.864693 0.439401 0 0
  phy
    1 5.832856 -6.114552 38.634743 -0.243377 0.864693 0.439401 0 0
    1 7.776282 -1.284472 32.790984 -0.211956 -0.959116 -0.187542 0 0
    1 5.828783 -6.702048 44.479843 -0.787255 0.232008 0.571315 0 0
  phy
    1 5.836985 -4.569956 32.789643 0.688406 0.485349 0.539011 0 0
    1 6.437003 2.401009 32.790054 0.131035 -0.660729 -0.739099 0 0
    1 7.776282 -1.284472 32.790984 -0.211956 -0.959116 -0.187542 0 0
  phy
    1 -6.294250 -6.247022 38.626370 -0.227315 0.481223 0.846612 0 0
    1 -6.298322 -6.834519 44.471470 0.590553 0.652648 0.474656 0 0
    1 -7.567015 -1.283550 32.780387 0.281220 0.958806 0.040080 0 0
  phy
    1 -6.294250 -6.247022 38.626370 -0.227315 0.481223 0.846612 0 0
    1 0.096118 -7.780104 44.475887 -0.263602 -0.214159 0.940558 0 0
    1 -6.298322 -6.834519 44.471470 0.590553 0.652648 0.474656 0 0
  phy
    1 6.429046 4.339016 44.480253 -0.279552 -0.694609 -0.662849 0 0
    1 0.096900 5.211997 44.475880 -0.705712 0.022398 -0.708144 0 0
    1 -6.088239 4.533769 44.471610 0.739475 0.636191 -0.220085 0 0
  phy
    1 -6.088239 4.533769 44.471610 0.739475 0.636191 -0.220085 0 0
    1 7.768209 -1.284464 44.481182 0.365692 -0.927621 0.076081 0 0
    1 6.429046 4.339016 44.480253 -0.279552 -0.694609 -0.662849 0 0
  phy
    1 -6.088239 4.533769 44.471610 0.739475 0.636191 -0.220085 0 0
    1 -7.575088 -1.283543 44.470585 0.476642 0.877287 0.056386 0 0
    1 -6.298322 -6.834519 44.471470 0.590553 0.652648 0.474656 0 0
  phy
    1 -6.298322 -6.834519 44.471470 0.590553 0.652648 0.474656 0 0
    1 0.096118 -7.780104 44.475887 -0.263602 -0.214159 0.940558 0 0
    1 -6.088239 4.533769 44.471610 0.739475 0.636191 -0.220085 0 0
  phy
    1 0.096118 -7.780104 44.475887 -0.263602 -0.214159 0.940558 0 0
    1 7.768209 -1.284464 44.481182 0.365692 -0.927621 0.076081 0 0
    1 -6.088239 4.533769 44.471610 0.739475 0.636191 -0.220085 0 0
  phy
    1 -7.575088 -1.283543 44.470585 0.476642 0.877287 0.056386 0 0
    1 -6.088239 4.533769 44.471610 0.739475 0.636191 -0.220085 0 0
    1 -7.567015 -1.283550 32.780387 0.281220 0.958806 0.040080 0 0
  phy
    1 6.429046 4.339016 44.480253 -0.279552 -0.694609 -0.662849 0 0
    1 7.768209 -1.284464 44.481182 0.365692 -0.927621 0.076081 0 0
    1 7.776282 -1.284472 32.790984 -0.211956 -0.959116 -0.187542 0 0
  phy
    1 -6.298322 -6.834519 44.471470 0.590553 0.652648 0.474656 0 0
    1 -7.575088 -1.283543 44.470585 0.476642 0.877287 0.056386 0 0
    1 -7.567015 -1.283550 32.780387 0.281220 0.958806 0.040080 0 0
  phy
    1 7.776282 -1.284472 32.790984 -0.211956 -0.959116 -0.187542 0 0
    1 7.768209 -1.284464 44.481182 0.365692 -0.927621 0.076081 0 0
    1 5.828783 -6.702048 44.479843 -0.787255 0.232008 0.571315 0 0
  phy
    1 5.828783 -6.702048 44.479843 -0.787255 0.232008 0.571315 0 0
    1 7.768209 -1.284464 44.481182 0.365692 -0.927621 0.076081 0 0
    1 0.096118 -7.780104 44.475887 -0.263602 -0.214159 0.940558 0 0
  phy
    4 -7.962664 5.043685 54.976412 -0.544664 0.627254 -0.556681 0 0
    4 -7.697316 1.949064 44.502403 -0.884092 -0.439835 -0.157882 0 0
    4 -8.628158 2.237347 62.361887 0.831739 0.343368 -0.436244 0 0
  phy
    4 -7.962664 5.043685 54.976412 -0.544664 0.627254 -0.556681 0 0
    4 -8.628158 2.237347 62.361887 0.831739 0.343368 -0.436244 0 0
    4 -0.252821 8.251023 55.051037 -0.137627 0.350473 -0.926406 0 0
  phy
    4 -7.962664 5.043685 54.976412 -0.544664 0.627254 -0.556681 0 0
    4 -0.252821 8.251023 55.051037 -0.137627 0.350473 -0.926406 0 0
    4 -0.248036 5.156416 44.378345 -0.731808 0.416412 -0.539498 0 0
  phy
    4 -7.697316 1.949064 44.502403 -0.884092 -0.439835 -0.157882 0 0
    4 -7.962664 5.043685 54.976412 -0.544664 0.627254 -0.556681 0 0
    4 -0.248036 5.156416 44.378345 -0.731808 0.416412 -0.539498 0 0
  phy
    4 -7.697401 0.118165 44.467800 -0.512672 0.540481 0.667119 0 0
    4 -7.697316 1.949064 44.502403 -0.884092 -0.439835 -0.157882 0 0
    4 -0.248152 2.696364 44.331851 -0.981873 -0.104668 0.158018 0 0
  phy
    4 -0.248152 2.696364 44.331851 -0.981873 -0.104668 0.158018 0 0
    4 -7.697316 1.949064 44.502403 -0.884092 -0.439835 -0.157882 0 0
    4 -0.248036 5.156416 44.378345 -0.731808 0.416412 -0.539498 0 0
  phy
    4 -7.697316 1.949064 44.502403 -0.884092 -0.439835 -0.157882 0 0
    4 -7.697401 0.118165 44.467800 -0.512672 0.540481 0.667119 0 0
    4 -8.628158 2.237347 62.361887 0.831739 0.343368 -0.436244 0 0
  phy
    4 -8.621241 0.118230 62.187259 0.359433 0.858396 0.366012 0 0
    4 -7.284513 -6.654653 53.884692 -0.107732 -0.110399 0.988031 0 0
    4 -7.943005 -3.924010 61.640732 0.052597 -0.763825 0.643276 0 0
  phy
    4 -7.284513 -6.654653 53.884692 -0.107732 -0.110399 0.988031 0 0
    4 -8.621241 0.118230 62.187259 0.359433 0.858396 0.366012 0 0
    4 -7.018101 -6.114691 44.485224 -0.230558 0.669709 0.705927 0 0
  phy
    4 -8.621241 0.118230 62.187259 0.359433 0.858396 0.366012 0 0
    4 -7.697401 0.118165 44.467800 -0.512672 0.540481 0.667119 0 0
    4 -7.018101 -6.114691 44.485224 -0.230558 0.669709 0.705927 0 0
  phy
    4 -0.260839 -5.202770 62.015943 0.673360 -0.158268 0.722175 0 0
    4 -0.260897 0.117728 62.562935 0.992394 -0.000673 0.123099 0 0
    4 -8.621241 0.118230 62.187259 0.359433 0.858396 0.366012 0 0
  phy
    4 -8.621241 0.118230 62.187259 0.359433 0.858396 0.366012 0 0
    4 -0.260897 0.117728 62.562935 0.992394 -0.000673 0.123099 0 0
    4 -8.628158 2.237347 62.361887 0.831739 0.343368 -0.436244 0 0
  phy
    4 -7.697401 0.118165 44.467800 -0.512672 0.540481 0.667119 0 0
    4 -8.621241 0.118230 62.187259 0.359433 0.858396 0.366012 0 0
    4 -8.628158 2.237347 62.361887 0.831739 0.343368 -0.436244 0 0
  phy
    4 -8.621241 0.118230 62.187259 0.359433 0.858396 0.366012 0 0
    4 -7.943005 -3.924010 61.640732 0.052597 -0.763825 0.643276 0 0
    4 -0.260839 -5.202770 62.015943 0.673360 -0.158268 0.722175 0 0
  phy
    4 -7.697401 0.118165 44.467800 -0.512672 0.540481 0.667119 0 0
    4 -0.248152 2.696364 44.331851 -0.981873 -0.104668 0.158018 0 0
    4 -7.018101 -6.114691 44.485224 -0.230558 0.669709 0.705927 0 0
  phy
    4 -0.260839 -5.202770 62.015943 0.673360 -0.158268 0.722175 0 0
    4 7.491305 -3.957380 61.647153 0.029337 0.614627 0.788272 0 0
    4 8.104855 0.117225 62.198815 0.930293 -0.350406 0.108492 0 0
  phy
    4 8.104855 0.117225 62.198815 0.930293 -0.350406 0.108492 0 0
    4 -0.260897 0.117728 62.562935 0.992394 -0.000673 0.123099 0 0
    4 -0.260839 -5.202770 62.015943 0.673360 -0.158268 0.722175 0 0
  phy
    4 -0.260839 -5.202770 62.015943 0.673360 -0.158268 0.722175 0 0
    4 -7.943005 -3.924010 61.640732 0.052597 -0.763825 0.643276 0 0
    4 -0.253039 -7.933275 53.958845 -0.245097 -0.084081 0.965846 0 0
  phy
    4 -0.253039 -7.933275 53.958845 -0.245097 -0.084081 0.965846 0 0
    4 7.491305 -3.957380 61.647153 0.029337 0.614627 0.788272 0 0
    4 -0.260839 -5.202770 62.015943 0.673360 -0.158268 0.722175 0 0
  phy
    4 -0.248790 -7.387181 44.378353 -0.755426 0.227948 0.614305 0 0
    4 -0.253039 -7.933275 53.958845 -0.245097 -0.084081 0.965846 0 0
    4 -7.284513 -6.654653 53.884692 -0.107732 -0.110399 0.988031 0 0
  phy
    4 -7.284513 -6.654653 53.884692 -0.107732 -0.110399 0.988031 0 0
    4 -7.018101 -6.114691 44.485224 -0.230558 0.669709 0.705927 0 0
    4 -0.248790 -7.387181 44.378353 -0.755426 0.227948 0.614305 0 0
  phy
    4 -0.253039 -7.933275 53.958845 -0.245097 -0.084081 0.965846 0 0
    4 -7.943005 -3.924010 61.640732 0.052597 -0.763825 0.643276 0 0
    4 -7.284513 -6.654653 53.884692 -0.107732 -0.110399 0.988031 0 0
  phy
    4 6.970498 -6.675562 53.902004 -0.359717 0.579389 0.731377 0 0
    4 7.491305 -3.957380 61.647153 0.029337 0.614627 0.788272 0 0
    4 -0.253039 -7.933275 53.958845 -0.245097 -0.084081 0.965846 0 0
  phy
    4 -0.253039 -7.933275 53.958845 -0.245097 -0.084081 0.965846 0 0
    4 7.175001 -6.108081 44.556750 -0.638856 0.599161 0.482566 0 0
    4 6.970498 -6.675562 53.902004 -0.359717 0.579389 0.731377 0 0
  phy
    4 6.970498 -6.675562 53.902004 -0.359717 0.579389 0.731377 0 0
    4 7.175001 -6.108081 44.556750 -0.638856 0.599161 0.482566 0 0
    4 7.491305 -3.957380 61.647153 0.029337 0.614627 0.788272 0 0
  phy
    4 -0.248152 2.696364 44.331851 -0.981873 -0.104668 0.158018 0 0
    4 -0.248790 -7.387181 44.378353 -0.755426 0.227948 0.614305 0 0
    4 -7.018101 -6.114691 44.485224 -0.230558 0.669709 0.705927 0 0
  phy
    4 -0.248790 -7.387181 44.378353 -0.755426 0.227948 0.614305 0 0
    4 -0.248152 2.696364 44.331851 -0.981873 -0.104668 0.158018 0 0
    4 7.175001 -6.108081 44.556750 -0.638856 0.599161 0.482566 0 0
  phy
    4 -0.248790 -7.387181 44.378353 -0.755426 0.227948 0.614305 0 0
    4 7.175001 -6.108081 44.556750 -0.638856 0.599161 0.482566 0 0
    4 -0.253039 -7.933275 53.958845 -0.245097 -0.084081 0.965846 0 0
  phy
    4 -8.628158 2.237347 62.361887 0.831739 0.343368 -0.436244 0 0
    4 -0.260698 5.520427 62.744134 -0.299037 0.440338 -0.846569 0 0
    4 -0.252821 8.251023 55.051037 -0.137627 0.350473 -0.926406 0 0
  phy
    4 -8.628158 2.237347 62.361887 0.831739 0.343368 -0.436244 0 0
    4 -0.260897 0.117728 62.562935 0.992394 -0.000673 0.123099 0 0
    4 -0.260698 5.520427 62.744134 -0.299037 0.440338 -0.846569 0 0
  phy
    4 8.107490 2.292594 62.378277 -0.031372 -0.895782 -0.443385 0 0
    4 -0.260897 0.117728 62.562935 0.992394 -0.000673 0.123099 0 0
    4 8.104855 0.117225 62.198815 0.930293 -0.350406 0.108492 0 0
  phy
    4 8.104855 0.117225 62.198815 0.930293 -0.350406 0.108492 0 0
    4 7.175001 -6.108081 44.556750 -0.638856 0.599161 0.482566 0 0
    4 7.781649 0.117235 44.543092 -0.003452 -0.998860 0.047614 0 0
  phy
    4 7.781649 0.117235 44.543092 -0.003452 -0.998860 0.047614 0 0
    4 8.107490 2.292594 62.378277 -0.031372 -0.895782 -0.443385 0 0
    4 8.104855 0.117225 62.198815 0.930293 -0.350406 0.108492 0 0
  phy
    4 7.491305 -3.957380 61.647153 0.029337 0.614627 0.788272 0 0
    4 7.175001 -6.108081 44.556750 -0.638856 0.599161 0.482566 0 0
    4 8.104855 0.117225 62.198815 0.930293 -0.350406 0.108492 0 0
  phy
    4 7.578489 5.055777 55.016795 0.013699 -0.551175 -0.834277 0 0
    4 7.781735 1.948134 44.577690 -0.037854 -0.807343 -0.588867 0 0
    4 -0.252821 8.251023 55.051037 -0.137627 0.350473 -0.926406 0 0
  phy
    4 7.578489 5.055777 55.016795 0.013699 -0.551175 -0.834277 0 0
    4 8.107490 2.292594 62.378277 -0.031372 -0.895782 -0.443385 0 0
    4 7.781735 1.948134 44.577690 -0.037854 -0.807343 -0.588867 0 0
  phy
    4 7.578489 5.055777 55.016795 0.013699 -0.551175 -0.834277 0 0
    4 -0.252821 8.251023 55.051037 -0.137627 0.350473 -0.926406 0 0
    4 8.107490 2.292594 62.378277 -0.031372 -0.895782 -0.443385 0 0
  phy
    4 7.781649 0.117235 44.543092 -0.003452 -0.998860 0.047614 0 0
    4 -0.248152 2.696364 44.331851 -0.981873 -0.104668 0.158018 0 0
    4 7.781735 1.948134 44.577690 -0.037854 -0.807343 -0.588867 0 0
  phy
    4 -0.248152 2.696364 44.331851 -0.981873 -0.104668 0.158018 0 0
    4 7.781649 0.117235 44.543092 -0.003452 -0.998860 0.047614 0 0
    4 7.175001 -6.108081 44.556750 -0.638856 0.599161 0.482566 0 0
  phy
    4 7.781735 1.948134 44.577690 -0.037854 -0.807343 -0.588867 0 0
    4 8.107490 2.292594 62.378277 -0.031372 -0.895782 -0.443385 0 0
    4 7.781649 0.117235 44.543092 -0.003452 -0.998860 0.047614 0 0
  phy
    4 -0.252821 8.251023 55.051037 -0.137627 0.350473 -0.926406 0 0
    4 -0.260698 5.520427 62.744134 -0.299037 0.440338 -0.846569 0 0
    4 8.107490 2.292594 62.378277 -0.031372 -0.895782 -0.443385 0 0
  phy
    4 -0.260698 5.520427 62.744134 -0.299037 0.440338 -0.846569 0 0
    4 -0.260897 0.117728 62.562935 0.992394 -0.000673 0.123099 0 0
    4 8.107490 2.292594 62.378277 -0.031372 -0.895782 -0.443385 0 0
  phy
    4 7.781735 1.948134 44.577690 -0.037854 -0.807343 -0.588867 0 0
    4 -0.248152 2.696364 44.331851 -0.981873 -0.104668 0.158018 0 0
    4 -0.248036 5.156416 44.378345 -0.731808 0.416412 -0.539498 0 0
  phy
    4 -0.252821 8.251023 55.051037 -0.137627 0.350473 -0.926406 0 0
    4 7.781735 1.948134 44.577690 -0.037854 -0.807343 -0.588867 0 0
    4 -0.248036 5.156416 44.378345 -0.731808 0.416412 -0.539498 0 0
  phy
    29 -10.479565 2.829543 60.870292 -0.681240 0.276151 0.677977 0 0
    29 -10.479944 -3.469660 60.870298 -0.601115 0.519800 -0.607017 0 0
    29 -5.471831 2.829241 59.813153 -0.641614 -0.761862 0.088867 0 0
  phy
    29 -5.471831 2.829241 59.813153 -0.641614 -0.761862 0.088867 0 0
    29 -10.479944 -3.469660 60.870298 -0.601115 0.519800 -0.607017 0 0
    29 -5.472209 -3.469961 59.813158 -0.661371 -0.174473 -0.729484 0 0
  phy
    29 -10.479565 2.829543 60.870292 -0.681240 0.276151 0.677977 0 0
    29 -14.382700 2.829766 42.380102 0.848094 0.121567 0.515711 0 0
    29 -14.383080 -3.469437 42.380104 0.650144 0.683282 -0.332324 0 0
  phy
    29 -10.479565 2.829543 60.870292 -0.681240 0.276151 0.677977 0 0
    29 -14.383080 -3.469437 42.380104 0.650144 0.683282 -0.332324 0 0
    29 -10.479944 -3.469660 60.870298 -0.601115 0.519800 -0.607017 0 0
  phy
    29 -5.471831 2.829241 59.813153 -0.641614 -0.761862 0.088867 0 0
    29 -9.374966 2.829464 41.322958 0.496412 -0.784971 0.370669 0 0
    29 -10.479565 2.829543 60.870292 -0.681240 0.276151 0.677977 0 0
  phy
    29 -9.374966 2.829464 41.322958 0.496412 -0.784971 0.370669 0 0
    29 -14.382700 2.829766 42.380102 0.848094 0.121567 0.515711 0 0
    29 -10.479565 2.829543 60.870292 -0.681240 0.276151 0.677977 0 0
  phy
    29 -5.471831 2.829241 59.813153 -0.641614 -0.761862 0.088867 0 0
    29 -9.375345 -3.469738 41.322960 0.322843 -0.614533 -0.719807 0 0
    29 -9.374966 2.829464 41.322958 0.496412 -0.784971 0.370669 0 0
  phy
    29 -5.471831 2.829241 59.813153 -0.641614 -0.761862 0.088867 0 0
    29 -5.472209 -3.469961 59.813158 -0.661371 -0.174473 -0.729484 0 0
    29 -9.375345 -3.469738 41.322960 0.322843 -0.614533 -0.719807 0 0
  phy
    29 -9.375345 -3.469738 41.322960 0.322843 -0.614533 -0.719807 0 0
    29 -14.383080 -3.469437 42.380104 0.650144 0.683282 -0.332324 0 0
    29 -9.374966 2.829464 41.322958 0.496412 -0.784971 0.370669 0 0
  phy
    29 -14.383080 -3.469437 42.380104 0.650144 0.683282 -0.332324 0 0
    29 -14.382700 2.829766 42.380102 0.848094 0.121567 0.515711 0 0
    29 -9.374966 2.829464 41.322958 0.496412 -0.784971 0.370669 0 0
  phy
    29 -10.479944 -3.469660 60.870298 -0.601115 0.519800 -0.607017 0 0
    29 -14.383080 -3.469437 42.380104 0.650144 0.683282 -0.332324 0 0
    29 -9.375345 -3.469738 41.322960 0.322843 -0.614533 -0.719807 0 0
  phy
    29 -10.479944 -3.469660 60.870298 -0.601115 0.519800 -0.607017 0 0
    29 -9.375345 -3.469738 41.322960 0.322843 -0.614533 -0.719807 0 0
    29 -5.472209 -3.469961 59.813158 -0.661371 -0.174473 -0.729484 0 0
  phy
    13 15.117461 -3.471207 43.186586 0.690444 -0.650732 -0.315966 0 0
    13 9.341290 2.828338 41.958892 0.769406 0.123360 0.626735 0 0
    13 15.117841 2.827991 43.186583 0.559201 -0.762529 0.325336 0 0
  phy
    13 15.117461 -3.471207 43.186586 0.690444 -0.650732 -0.315966 0 0
    13 9.340911 -3.470861 41.958896 0.430529 0.654882 -0.621108 0 0
    13 9.341290 2.828338 41.958892 0.769406 0.123360 0.626735 0 0
  phy
    13 15.117841 2.827991 43.186583 0.559201 -0.762529 0.325336 0 0
    13 9.341290 2.828338 41.958892 0.769406 0.123360 0.626735 0 0
    13 11.025443 2.828249 62.441549 -0.234647 -0.837090 0.494187 0 0
  phy
    13 9.341290 2.828338 41.958892 0.769406 0.123360 0.626735 0 0
    13 5.248993 2.828596 61.213865 -0.692609 0.650601 0.311467 0 0
    13 11.025443 2.828249 62.441549 -0.234647 -0.837090 0.494187 0 0
  phy
    13 11.025443 2.828249 62.441549 -0.234647 -0.837090 0.494187 0 0
    13 15.117461 -3.471207 43.186586 0.690444 -0.650732 -0.315966 0 0
    13 15.117841 2.827991 43.186583 0.559201 -0.762529 0.325336 0 0
  phy
    13 11.025443 2.828249 62.441549 -0.234647 -0.837090 0.494187 0 0
    13 11.025064 -3.470950 62.441551 -0.569736 -0.379947 -0.728726 0 0
    13 15.117461 -3.471207 43.186586 0.690444 -0.650732 -0.315966 0 0
  phy
    13 15.117461 -3.471207 43.186586 0.690444 -0.650732 -0.315966 0 0
    13 11.025064 -3.470950 62.441551 -0.569736 -0.379947 -0.728726 0 0
    13 9.340911 -3.470861 41.958896 0.430529 0.654882 -0.621108 0 0
  phy
    13 9.340911 -3.470861 41.958896 0.430529 0.654882 -0.621108 0 0
    13 11.025064 -3.470950 62.441551 -0.569736 -0.379947 -0.728726 0 0
    13 5.248615 -3.470603 61.213868 -0.449368 0.633322 -0.630056 0 0
  phy
    13 9.341290 2.828338 41.958892 0.769406 0.123360 0.626735 0 0
    13 9.340911 -3.470861 41.958896 0.430529 0.654882 -0.621108 0 0
    13 5.248993 2.828596 61.213865 -0.692609 0.650601 0.311467 0 0
  phy
    13 5.248993 2.828596 61.213865 -0.692609 0.650601 0.311467 0 0
    13 9.340911 -3.470861 41.958896 0.430529 0.654882 -0.621108 0 0
    13 5.248615 -3.470603 61.213868 -0.449368 0.633322 -0.630056 0 0
  phy
    13 5.248993 2.828596 61.213865 -0.692609 0.650601 0.311467 0 0
    13 5.248615 -3.470603 61.213868 -0.449368 0.633322 -0.630056 0 0
    13 11.025064 -3.470950 62.441551 -0.569736 -0.379947 -0.728726 0 0
  phy
    13 5.248993 2.828596 61.213865 -0.692609 0.650601 0.311467 0 0
    13 11.025064 -3.470950 62.441551 -0.569736 -0.379947 -0.728726 0 0
    13 11.025443 2.828249 62.441549 -0.234647 -0.837090 0.494187 0 0
  phy
    14 13.411574 -2.278119 28.496798 0.666575 0.695225 0.268963 0 0
    14 17.674341 -6.333670 30.974150 0.980093 -0.005288 -0.198471 0 0
    14 13.410223 -6.735417 30.062702 0.396987 0.428877 -0.811459 0 0
  phy
    14 13.411574 -2.278119 28.496798 0.666575 0.695225 0.268963 0 0
    14 17.675700 -1.876314 29.408228 0.413102 0.364755 0.834446 0 0
    14 17.674341 -6.333670 30.974150 0.980093 -0.005288 -0.198471 0 0
  phy
    14 17.674341 -6.333670 30.974150 0.980093 -0.005288 -0.198471 0 0
    14 14.230129 2.276641 41.700559 -0.488875 -0.054588 0.870644 0 0
    14 14.228779 -2.180757 43.266459 -0.035549 -0.327249 -0.944269 0 0
  phy
    14 17.675700 -1.876314 29.408228 0.413102 0.364755 0.834446 0 0
    14 14.230129 2.276641 41.700559 -0.488875 -0.054588 0.870644 0 0
    14 17.674341 -6.333670 30.974150 0.980093 -0.005288 -0.198471 0 0
  phy
    14 17.674341 -6.333670 30.974150 0.980093 -0.005288 -0.198471 0 0
    14 14.228779 -2.180757 43.266459 -0.035549 -0.327249 -0.944269 0 0
    14 13.410223 -6.735417 30.062702 0.396987 0.428877 -0.811459 0 0
  phy
    14 13.411574 -2.278119 28.496798 0.666575 0.695225 0.268963 0 0
    14 9.807749 -2.582492 42.118906 0.398650 0.773510 -0.492708 0 0
    14 9.809090 1.874816 40.553036 0.016223 0.628365 0.777749 0 0
  phy
    14 9.807749 -2.582492 42.118906 0.398650 0.773510 -0.492708 0 0
    14 13.411574 -2.278119 28.496798 0.666575 0.695225 0.268963 0 0
    14 13.410223 -6.735417 30.062702 0.396987 0.428877 -0.811459 0 0
  phy
    14 9.807749 -2.582492 42.118906 0.398650 0.773510 -0.492708 0 0
    14 14.228779 -2.180757 43.266459 -0.035549 -0.327249 -0.944269 0 0
    14 9.809090 1.874816 40.553036 0.016223 0.628365 0.777749 0 0
  phy
    14 14.228779 -2.180757 43.266459 -0.035549 -0.327249 -0.944269 0 0
    14 9.807749 -2.582492 42.118906 0.398650 0.773510 -0.492708 0 0
    14 13.410223 -6.735417 30.062702 0.396987 0.428877 -0.811459 0 0
  phy
    14 13.411574 -2.278119 28.496798 0.666575 0.695225 0.268963 0 0
    14 9.809090 1.874816 40.553036 0.016223 0.628365 0.777749 0 0
    14 17.675700 -1.876314 29.408228 0.413102 0.364755 0.834446 0 0
  phy
    14 9.809090 1.874816 40.553036 0.016223 0.628365 0.777749 0 0
    14 14.228779 -2.180757 43.266459 -0.035549 -0.327249 -0.944269 0 0
    14 14.230129 2.276641 41.700559 -0.488875 -0.054588 0.870644 0 0
  phy
    14 9.809090 1.874816 40.553036 0.016223 0.628365 0.777749 0 0
    14 14.230129 2.276641 41.700559 -0.488875 -0.054588 0.870644 0 0
    14 17.675700 -1.876314 29.408228 0.413102 0.364755 0.834446 0 0
  phy
    15 15.064314 -6.593418 27.608953 0.248992 0.407223 -0.878733 0 0
    15 18.226774 -7.126610 24.864138 0.073513 0.295935 -0.952375 0 0
    15 17.848318 -5.474484 30.157472 -0.344350 -0.746226 -0.569711 0 0
  phy
    15 18.226774 -7.126610 24.864138 0.073513 0.295935 -0.952375 0 0
    15 19.738530 -6.763000 25.392782 0.083383 -0.093588 -0.992113 0 0
    15 17.848318 -5.474484 30.157472 -0.344350 -0.746226 -0.569711 0 0
  phy
    15 18.226774 -7.126610 24.864138 0.073513 0.295935 -0.952375 0 0
    15 15.064314 -6.593418 27.608953 0.248992 0.407223 -0.878733 0 0
    15 16.503360 -7.148106 24.452350 0.167825 0.479318 -0.861446 0 0
  phy
    15 19.738530 -6.763000 25.392782 0.083383 -0.093588 -0.992113 0 0
    15 18.226774 -7.126610 24.864138 0.073513 0.295935 -0.952375 0 0
    15 19.476672 -6.750487 19.974603 0.334969 0.421253 -0.842818 0 0
  phy
    15 18.226774 -7.126610 24.864138 0.073513 0.295935 -0.952375 0 0
    15 16.503360 -7.148106 24.452350 0.167825 0.479318 -0.861446 0 0
    15 19.476672 -6.750487 19.974603 0.334969 0.421253 -0.842818 0 0
  phy
    15 15.064314 -6.593418 27.608953 0.248992 0.407223 -0.878733 0 0
    15 12.121151 -4.841542 26.987520 -0.337532 0.601185 -0.724326 0 0
    15 11.255290 -4.211991 24.524922 0.252849 0.302841 -0.918888 0 0
  phy
    15 12.121151 -4.841542 26.987520 -0.337532 0.601185 -0.724326 0 0
    15 15.064314 -6.593418 27.608953 0.248992 0.407223 -0.878733 0 0
    15 13.812523 -5.615042 29.707988 -0.838740 0.537498 -0.087237 0 0
  phy
    15 12.121151 -4.841542 26.987520 -0.337532 0.601185 -0.724326 0 0
    15 10.868181 -3.691468 24.729855 -0.923563 -0.300510 -0.238172 0 0
    15 11.255290 -4.211991 24.524922 0.252849 0.302841 -0.918888 0 0
  phy
    15 10.868181 -3.691468 24.729855 -0.923563 -0.300510 -0.238172 0 0
    15 12.121151 -4.841542 26.987520 -0.337532 0.601185 -0.724326 0 0
    15 13.812523 -5.615042 29.707988 -0.838740 0.537498 -0.087237 0 0
  phy
    15 16.503360 -7.148106 24.452350 0.167825 0.479318 -0.861446 0 0
    15 15.064314 -6.593418 27.608953 0.248992 0.407223 -0.878733 0 0
    15 11.255290 -4.211991 24.524922 0.252849 0.302841 -0.918888 0 0
  phy
    15 15.064314 -6.593418 27.608953 0.248992 0.407223 -0.878733 0 0
    15 17.848318 -5.474484 30.157472 -0.344350 -0.746226 -0.569711 0 0
    15 13.812523 -5.615042 29.707988 -0.838740 0.537498 -0.087237 0 0
  phy
    15 14.659910 -4.999661 18.353340 0.118485 0.812921 -0.570194 0 0
    15 15.664731 -5.885859 20.115971 0.020749 0.528866 -0.848452 0 0
    15 16.503360 -7.148106 24.452350 0.167825 0.479318 -0.861446 0 0
  phy
    15 15.664731 -5.885859 20.115971 0.020749 0.528866 -0.848452 0 0
    15 14.659910 -4.999661 18.353340 0.118485 0.812921 -0.570194 0 0
    15 15.411232 -5.160344 17.858797 0.375205 0.509701 -0.774226 0 0
  phy
    15 16.503360 -7.148106 24.452350 0.167825 0.479318 -0.861446 0 0
    15 15.664731 -5.885859 20.115971 0.020749 0.528866 -0.848452 0 0
    15 19.476672 -6.750487 19.974603 0.334969 0.421253 -0.842818 0 0
  phy
    15 19.476672 -6.750487 19.974603 0.334969 0.421253 -0.842818 0 0
    15 15.664731 -5.885859 20.115971 0.020749 0.528866 -0.848452 0 0
    15 15.411232 -5.160344 17.858797 0.375205 0.509701 -0.774226 0 0
  phy
    15 19.738530 -6.763000 25.392782 0.083383 -0.093588 -0.992113 0 0
    15 22.173329 -5.183649 21.329664 0.418562 -0.148553 -0.895956 0 0
    15 22.502924 -4.816469 21.948990 -0.248932 -0.585170 -0.771757 0 0
  phy
    15 19.738530 -6.763000 25.392782 0.083383 -0.093588 -0.992113 0 0
    15 22.502924 -4.816469 21.948990 -0.248932 -0.585170 -0.771757 0 0
    15 17.848318 -5.474484 30.157472 -0.344350 -0.746226 -0.569711 0 0
  phy
    15 22.173329 -5.183649 21.329664 0.418562 -0.148553 -0.895956 0 0
    15 19.738530 -6.763000 25.392782 0.083383 -0.093588 -0.992113 0 0
    15 19.476672 -6.750487 19.974603 0.334969 0.421253 -0.842818 0 0
  phy
    15 15.051067 -3.182524 15.809547 0.411637 0.858735 -0.305172 0 0
    15 14.659910 -4.999661 18.353340 0.118485 0.812921 -0.570194 0 0
    15 14.403485 -3.127886 16.368999 0.397403 0.915365 -0.064640 0 0
  phy
    15 14.659910 -4.999661 18.353340 0.118485 0.812921 -0.570194 0 0
    15 15.051067 -3.182524 15.809547 0.411637 0.858735 -0.305172 0 0
    15 15.411232 -5.160344 17.858797 0.375205 0.509701 -0.774226 0 0
  phy
    15 15.051067 -3.182524 15.809547 0.411637 0.858735 -0.305172 0 0
    15 20.543283 -3.354155 14.897339 0.723163 -0.434067 -0.537235 0 0
    15 15.411232 -5.160344 17.858797 0.375205 0.509701 -0.774226 0 0
  phy
    15 20.185935 1.699465 13.814990 0.649226 0.124174 0.750391 0 0
    15 20.543283 -3.354155 14.897339 0.723163 -0.434067 -0.537235 0 0
    15 15.051067 -3.182524 15.809547 0.411637 0.858735 -0.305172 0 0
  phy
    15 15.051067 -3.182524 15.809547 0.411637 0.858735 -0.305172 0 0
    15 14.403485 -3.127886 16.368999 0.397403 0.915365 -0.064640 0 0
    15 14.599264 1.021801 15.890633 0.066007 0.170365 0.983168 0 0
  phy
    15 15.051067 -3.182524 15.809547 0.411637 0.858735 -0.305172 0 0
    15 14.599264 1.021801 15.890633 0.066007 0.170365 0.983168 0 0
    15 20.185935 1.699465 13.814990 0.649226 0.124174 0.750391 0 0
  phy
    15 14.659910 -4.999661 18.353340 0.118485 0.812921 -0.570194 0 0
    15 16.503360 -7.148106 24.452350 0.167825 0.479318 -0.861446 0 0
    15 11.255290 -4.211991 24.524922 0.252849 0.302841 -0.918888 0 0
  phy
    15 14.403485 -3.127886 16.368999 0.397403 0.915365 -0.064640 0 0
    15 14.659910 -4.999661 18.353340 0.118485 0.812921 -0.570194 0 0
    15 11.395258 -1.976302 21.000019 0.260359 -0.947795 0.184113 0 0
  phy
    15 14.659910 -4.999661 18.353340 0.118485 0.812921 -0.570194 0 0
    15 11.255290 -4.211991 24.524922 0.252849 0.302841 -0.918888 0 0
    15 11.395258 -1.976302 21.000019 0.260359 -0.947795 0.184113 0 0
  phy
    15 11.369845 -3.105798 24.974300 -0.535220 -0.248934 0.807200 0 0
    15 10.868181 -3.691468 24.729855 -0.923563 -0.300510 -0.238172 0 0
    15 13.812523 -5.615042 29.707988 -0.838740 0.537498 -0.087237 0 0
  phy
    15 11.255290 -4.211991 24.524922 0.252849 0.302841 -0.918888 0 0
    15 10.868181 -3.691468 24.729855 -0.923563 -0.300510 -0.238172 0 0
    15 11.395258 -1.976302 21.000019 0.260359 -0.947795 0.184113 0 0
  phy
    15 10.868181 -3.691468 24.729855 -0.923563 -0.300510 -0.238172 0 0
    15 11.369845 -3.105798 24.974300 -0.535220 -0.248934 0.807200 0 0
    15 11.395258 -1.976302 21.000019 0.260359 -0.947795 0.184113 0 0
  phy
    15 23.571857 -1.009136 18.173427 0.914729 0.402239 -0.038412 0 0
    15 22.502924 -4.816469 21.948990 -0.248932 -0.585170 -0.771757 0 0
    15 22.173329 -5.183649 21.329664 0.418562 -0.148553 -0.895956 0 0
  phy
    15 22.173329 -5.183649 21.329664 0.418562 -0.148553 -0.895956 0 0
    15 20.543283 -3.354155 14.897339 0.723163 -0.434067 -0.537235 0 0
    15 23.571857 -1.009136 18.173427 0.914729 0.402239 -0.038412 0 0
  phy
    15 19.476672 -6.750487 19.974603 0.334969 0.421253 -0.842818 0 0
    15 20.543283 -3.354155 14.897339 0.723163 -0.434067 -0.537235 0 0
    15 22.173329 -5.183649 21.329664 0.418562 -0.148553 -0.895956 0 0
  phy
    15 17.848318 -5.474484 30.157472 -0.344350 -0.746226 -0.569711 0 0
    15 22.502924 -4.816469 21.948990 -0.248932 -0.585170 -0.771757 0 0
    15 23.834081 -0.846451 19.023209 0.852323 -0.520827 -0.047802 0 0
  phy
    15 23.834081 -0.846451 19.023209 0.852323 -0.520827 -0.047802 0 0
    15 22.624327 3.649921 18.771469 -0.199088 -0.160327 0.966778 0 0
    15 17.848318 -5.474484 30.157472 -0.344350 -0.746226 -0.569711 0 0
  phy
    15 23.834081 -0.846451 19.023209 0.852323 -0.520827 -0.047802 0 0
    15 22.502924 -4.816469 21.948990 -0.248932 -0.585170 -0.771757 0 0
    15 23.571857 -1.009136 18.173427 0.914729 0.402239 -0.038412 0 0
  phy
    15 23.571857 -1.009136 18.173427 0.914729 0.402239 -0.038412 0 0
    15 22.624327 3.649921 18.771469 -0.199088 -0.160327 0.966778 0 0
    15 23.834081 -0.846451 19.023209 0.852323 -0.520827 -0.047802 0 0
  phy
    15 12.707604 -4.123177 27.116325 -0.415455 -0.172185 0.893168 0 0
    15 17.146678 -4.453242 29.726589 -0.544142 -0.577037 0.609047 0 0
    15 11.369845 -3.105798 24.974300 -0.535220 -0.248934 0.807200 0 0
  phy
    15 11.369845 -3.105798 24.974300 -0.535220 -0.248934 0.807200 0 0
    15 17.146678 -4.453242 29.726589 -0.544142 -0.577037 0.609047 0 0
    15 22.624327 3.649921 18.771469 -0.199088 -0.160327 0.966778 0 0
  phy
    15 17.146678 -4.453242 29.726589 -0.544142 -0.577037 0.609047 0 0
    15 12.707604 -4.123177 27.116325 -0.415455 -0.172185 0.893168 0 0
    15 13.812523 -5.615042 29.707988 -0.838740 0.537498 -0.087237 0 0
  phy
    15 17.848318 -5.474484 30.157472 -0.344350 -0.746226 -0.569711 0 0
    15 22.624327 3.649921 18.771469 -0.199088 -0.160327 0.966778 0 0
    15 17.146678 -4.453242 29.726589 -0.544142 -0.577037 0.609047 0 0
  phy
    15 17.848318 -5.474484 30.157472 -0.344350 -0.746226 -0.569711 0 0
    15 17.146678 -4.453242 29.726589 -0.544142 -0.577037 0.609047 0 0
    15 13.812523 -5.615042 29.707988 -0.838740 0.537498 -0.087237 0 0
  phy
    15 14.599264 1.021801 15.890633 0.066007 0.170365 0.983168 0 0
    15 14.403485 -3.127886 16.368999 0.397403 0.915365 -0.064640 0 0
    15 11.395258 -1.976302 21.000019 0.260359 -0.947795 0.184113 0 0
  phy
    15 20.185935 1.699465 13.814990 0.649226 0.124174 0.750391 0 0
    15 22.624327 3.649921 18.771469 -0.199088 -0.160327 0.966778 0 0
    15 23.571857 -1.009136 18.173427 0.914729 0.402239 -0.038412 0 0
  phy
    15 23.571857 -1.009136 18.173427 0.914729 0.402239 -0.038412 0 0
    15 20.543283 -3.354155 14.897339 0.723163 -0.434067 -0.537235 0 0
    15 20.185935 1.699465 13.814990 0.649226 0.124174 0.750391 0 0
  phy
    15 14.599264 1.021801 15.890633 0.066007 0.170365 0.983168 0 0
    15 22.624327 3.649921 18.771469 -0.199088 -0.160327 0.966778 0 0
    15 20.185935 1.699465 13.814990 0.649226 0.124174 0.750391 0 0
  phy
    15 12.707604 -4.123177 27.116325 -0.415455 -0.172185 0.893168 0 0
    15 11.369845 -3.105798 24.974300 -0.535220 -0.248934 0.807200 0 0
    15 13.812523 -5.615042 29.707988 -0.838740 0.537498 -0.087237 0 0
  phy
    15 15.411232 -5.160344 17.858797 0.375205 0.509701 -0.774226 0 0
    15 20.543283 -3.354155 14.897339 0.723163 -0.434067 -0.537235 0 0
    15 19.476672 -6.750487 19.974603 0.334969 0.421253 -0.842818 0 0
  phy
    15 11.369845 -3.105798 24.974300 -0.535220 -0.248934 0.807200 0 0
    15 22.624327 3.649921 18.771469 -0.199088 -0.160327 0.966778 0 0
    15 14.599264 1.021801 15.890633 0.066007 0.170365 0.983168 0 0
  phy
    15 14.599264 1.021801 15.890633 0.066007 0.170365 0.983168 0 0
    15 11.395258 -1.976302 21.000019 0.260359 -0.947795 0.184113 0 0
    15 11.369845 -3.105798 24.974300 -0.535220 -0.248934 0.807200 0 0
  phy
    30 -18.041972 -1.874125 28.900973 0.320188 0.838239 0.441401 0 0
    30 -18.043321 -6.331526 30.466873 0.189686 0.661770 -0.725313 0 0
    30 -14.498991 -2.179028 43.246616 -0.589811 0.713869 -0.377510 0 0
  phy
    30 -18.041972 -1.874125 28.900973 0.320188 0.838239 0.441401 0 0
    30 -14.498991 -2.179028 43.246616 -0.589811 0.713869 -0.377510 0 0
    30 -14.497642 2.278372 41.680716 -0.238351 0.646069 0.725109 0 0
  phy
    30 -18.041972 -1.874125 28.900973 0.320188 0.838239 0.441401 0 0
    30 -13.619404 -2.276492 27.759525 0.214158 -0.219191 0.951888 0 0
    30 -18.043321 -6.331526 30.466873 0.189686 0.661770 -0.725313 0 0
  phy
    30 -18.041972 -1.874125 28.900973 0.320188 0.838239 0.441401 0 0
    30 -14.497642 2.278372 41.680716 -0.238351 0.646069 0.725109 0 0
    30 -13.619404 -2.276492 27.759525 0.214158 -0.219191 0.951888 0 0
  phy
    30 -18.043321 -6.331526 30.466873 0.189686 0.661770 -0.725313 0 0
    30 -10.076425 -2.581294 42.105171 -0.240243 -0.345908 -0.906990 0 0
    30 -14.498991 -2.179028 43.246616 -0.589811 0.713869 -0.377510 0 0
  phy
    30 -10.076425 -2.581294 42.105171 -0.240243 -0.345908 -0.906990 0 0
    30 -18.043321 -6.331526 30.466873 0.189686 0.661770 -0.725313 0 0
    30 -13.620763 -6.733803 29.325396 -0.324756 -0.850498 -0.413747 0 0
  phy
    30 -14.498991 -2.179028 43.246616 -0.589811 0.713869 -0.377510 0 0
    30 -10.076425 -2.581294 42.105171 -0.240243 -0.345908 -0.906990 0 0
    30 -10.075066 1.876016 40.539300 -0.585215 -0.797107 0.148806 0 0
  phy
    30 -10.076425 -2.581294 42.105171 -0.240243 -0.345908 -0.906990 0 0
    30 -13.620763 -6.733803 29.325396 -0.324756 -0.850498 -0.413747 0 0
    30 -10.075066 1.876016 40.539300 -0.585215 -0.797107 0.148806 0 0
  phy
    30 -13.619404 -2.276492 27.759525 0.214158 -0.219191 0.951888 0 0
    30 -13.620763 -6.733803 29.325396 -0.324756 -0.850498 -0.413747 0 0
    30 -18.043321 -6.331526 30.466873 0.189686 0.661770 -0.725313 0 0
  phy
    30 -10.075066 1.876016 40.539300 -0.585215 -0.797107 0.148806 0 0
    30 -13.620763 -6.733803 29.325396 -0.324756 -0.850498 -0.413747 0 0
    30 -13.619404 -2.276492 27.759525 0.214158 -0.219191 0.951888 0 0
  phy
    30 -13.619404 -2.276492 27.759525 0.214158 -0.219191 0.951888 0 0
    30 -14.497642 2.278372 41.680716 -0.238351 0.646069 0.725109 0 0
    30 -10.075066 1.876016 40.539300 -0.585215 -0.797107 0.148806 0 0
  phy
    30 -14.498991 -2.179028 43.246616 -0.589811 0.713869 -0.377510 0 0
    30 -10.075066 1.876016 40.539300 -0.585215 -0.797107 0.148806 0 0
    30 -14.497642 2.278372 41.680716 -0.238351 0.646069 0.725109 0 0
  phy
    31 -15.643333 -5.156674 17.274943 -0.143256 -0.716996 -0.682199 0 0
    31 -15.271998 -3.176497 15.223798 0.473871 -0.871829 -0.123939 0 0
    31 -14.972416 -4.976015 17.556005 -0.126597 -0.930236 -0.344432 0 0
  phy
    31 -20.764173 -3.356468 14.296309 0.743548 -0.023805 -0.668259 0 0
    31 -15.271998 -3.176497 15.223798 0.473871 -0.871829 -0.123939 0 0
    31 -15.643333 -5.156674 17.274943 -0.143256 -0.716996 -0.682199 0 0
  phy
    31 -20.764173 -3.356468 14.296309 0.743548 -0.023805 -0.668259 0 0
    31 -15.643333 -5.156674 17.274943 -0.143256 -0.716996 -0.682199 0 0
    31 -19.709085 -6.747830 19.378739 0.081412 0.289800 -0.953618 0 0
  phy
    31 -15.643333 -5.156674 17.274943 -0.143256 -0.716996 -0.682199 0 0
    31 -14.972416 -4.976015 17.556005 -0.126597 -0.930236 -0.344432 0 0
    31 -16.737298 -7.142706 23.858790 0.127556 -0.266629 -0.955321 0 0
  phy
    31 -15.643333 -5.156674 17.274943 -0.143256 -0.716996 -0.682199 0 0
    31 -16.737298 -7.142706 23.858790 0.127556 -0.266629 -0.955321 0 0
    31 -19.709085 -6.747830 19.378739 0.081412 0.289800 -0.953618 0 0
  phy
    31 -14.629679 -3.119735 15.780440 -0.564276 -0.115936 -0.817406 0 0
    31 -15.271998 -3.176497 15.223798 0.473871 -0.871829 -0.123939 0 0
    31 -14.836303 1.029780 15.305396 0.070903 -0.730531 0.679188 0 0
  phy
    31 -14.836303 1.029780 15.305396 0.070903 -0.730531 0.679188 0 0
    31 -11.627211 -1.977712 20.421012 -0.990747 -0.130746 -0.036423 0 0
    31 -14.629679 -3.119735 15.780440 -0.564276 -0.115936 -0.817406 0 0
  phy
    31 -14.972416 -4.976015 17.556005 -0.126597 -0.930236 -0.344432 0 0
    31 -15.271998 -3.176497 15.223798 0.473871 -0.871829 -0.123939 0 0
    31 -14.629679 -3.119735 15.780440 -0.564276 -0.115936 -0.817406 0 0
  phy
    31 -14.629679 -3.119735 15.780440 -0.564276 -0.115936 -0.817406 0 0
    31 -11.627211 -1.977712 20.421012 -0.990747 -0.130746 -0.036423 0 0
    31 -14.972416 -4.976015 17.556005 -0.126597 -0.930236 -0.344432 0 0
  phy
    31 -11.614719 -3.103411 24.390621 -0.528869 -0.585048 0.614830 0 0
    31 -22.853827 3.649665 18.168559 -0.605729 -0.429962 0.669496 0 0
    31 -17.171007 -4.449675 29.174688 -0.600036 -0.030690 0.799384 0 0
  phy
    31 -17.171007 -4.449675 29.174688 -0.600036 -0.030690 0.799384 0 0
    31 -14.343217 -5.237846 28.979438 -0.995440 -0.057696 0.075963 0 0
    31 -11.614719 -3.103411 24.390621 -0.528869 -0.585048 0.614830 0 0
  phy
    31 -17.720876 -5.475943 29.618907 -0.474234 0.839353 -0.265686 0 0
    31 -17.171007 -4.449675 29.174688 -0.600036 -0.030690 0.799384 0 0
    31 -22.853827 3.649665 18.168559 -0.605729 -0.429962 0.669496 0 0
  phy
    31 -17.171007 -4.449675 29.174688 -0.600036 -0.030690 0.799384 0 0
    31 -17.720876 -5.475943 29.618907 -0.474234 0.839353 -0.265686 0 0
    31 -14.343217 -5.237846 28.979438 -0.995440 -0.057696 0.075963 0 0
  phy
    31 -20.359283 -5.878987 24.668089 -0.085025 0.927906 -0.362990 0 0
    31 -22.409432 -5.182666 20.739472 0.142070 0.813848 -0.563442 0 0
    31 -19.951556 -6.773450 24.834868 -0.137214 0.592574 -0.793743 0 0
  phy
    31 -17.720876 -5.475943 29.618907 -0.474234 0.839353 -0.265686 0 0
    31 -20.359283 -5.878987 24.668089 -0.085025 0.927906 -0.362990 0 0
    31 -19.951556 -6.773450 24.834868 -0.137214 0.592574 -0.793743 0 0
  phy
    31 -20.359283 -5.878987 24.668089 -0.085025 0.927906 -0.362990 0 0
    31 -17.720876 -5.475943 29.618907 -0.474234 0.839353 -0.265686 0 0
    31 -24.070470 -0.842164 18.420523 -0.275410 0.938552 -0.208013 0 0
  phy
    31 -22.409432 -5.182666 20.739472 0.142070 0.813848 -0.563442 0 0
    31 -20.359283 -5.878987 24.668089 -0.085025 0.927906 -0.362990 0 0
    31 -24.070470 -0.842164 18.420523 -0.275410 0.938552 -0.208013 0 0
  phy
    31 -14.972416 -4.976015 17.556005 -0.126597 -0.930236 -0.344432 0 0
    31 -11.627211 -1.977712 20.421012 -0.990747 -0.130746 -0.036423 0 0
    31 -11.496975 -4.210120 23.939803 0.135042 -0.842845 -0.520938 0 0
  phy
    31 -16.737298 -7.142706 23.858790 0.127556 -0.266629 -0.955321 0 0
    31 -14.972416 -4.976015 17.556005 -0.126597 -0.930236 -0.344432 0 0
    31 -11.496975 -4.210120 23.939803 0.135042 -0.842845 -0.520938 0 0
  phy
    31 -19.951556 -6.773450 24.834868 -0.137214 0.592574 -0.793743 0 0
    31 -18.462486 -7.127902 24.273898 0.072508 0.259091 -0.963127 0 0
    31 -15.306945 -6.600890 27.016675 -0.095732 -0.075099 -0.992570 0 0
  phy
    31 -19.951556 -6.773450 24.834868 -0.137214 0.592574 -0.793743 0 0
    31 -15.306945 -6.600890 27.016675 -0.095732 -0.075099 -0.992570 0 0
    31 -17.720876 -5.475943 29.618907 -0.474234 0.839353 -0.265686 0 0
  phy
    31 -15.306945 -6.600890 27.016675 -0.095732 -0.075099 -0.992570 0 0
    31 -18.462486 -7.127902 24.273898 0.072508 0.259091 -0.963127 0 0
    31 -16.737298 -7.142706 23.858790 0.127556 -0.266629 -0.955321 0 0
  phy
    31 -16.737298 -7.142706 23.858790 0.127556 -0.266629 -0.955321 0 0
    31 -18.462486 -7.127902 24.273898 0.072508 0.259091 -0.963127 0 0
    31 -19.709085 -6.747830 19.378739 0.081412 0.289800 -0.953618 0 0
  phy
    31 -18.462486 -7.127902 24.273898 0.072508 0.259091 -0.963127 0 0
    31 -19.951556 -6.773450 24.834868 -0.137214 0.592574 -0.793743 0 0
    31 -19.709085 -6.747830 19.378739 0.081412 0.289800 -0.953618 0 0
  phy
    31 -17.720876 -5.475943 29.618907 -0.474234 0.839353 -0.265686 0 0
    31 -15.306945 -6.600890 27.016675 -0.095732 -0.075099 -0.992570 0 0
    31 -14.343217 -5.237846 28.979438 -0.995440 -0.057696 0.075963 0 0
  phy
    31 -15.306945 -6.600890 27.016675 -0.095732 -0.075099 -0.992570 0 0
    31 -16.737298 -7.142706 23.858790 0.127556 -0.266629 -0.955321 0 0
    31 -11.496975 -4.210120 23.939803 0.135042 -0.842845 -0.520938 0 0
  phy
    31 -15.306945 -6.600890 27.016675 -0.095732 -0.075099 -0.992570 0 0
    31 -11.496975 -4.210120 23.939803 0.135042 -0.842845 -0.520938 0 0
    31 -14.343217 -5.237846 28.979438 -0.995440 -0.057696 0.075963 0 0
  phy
    31 -11.100684 -3.708943 24.141577 -0.224514 -0.974470 0.000899 0 0
    31 -11.614719 -3.103411 24.390621 -0.528869 -0.585048 0.614830 0 0
    31 -14.343217 -5.237846 28.979438 -0.995440 -0.057696 0.075963 0 0
  phy
    31 -11.100684 -3.708943 24.141577 -0.224514 -0.974470 0.000899 0 0
    31 -14.343217 -5.237846 28.979438 -0.995440 -0.057696 0.075963 0 0
    31 -11.496975 -4.210120 23.939803 0.135042 -0.842845 -0.520938 0 0
  phy
    31 -11.100684 -3.708943 24.141577 -0.224514 -0.974470 0.000899 0 0
    31 -11.627211 -1.977712 20.421012 -0.990747 -0.130746 -0.036423 0 0
    31 -11.614719 -3.103411 24.390621 -0.528869 -0.585048 0.614830 0 0
  phy
    31 -11.496975 -4.210120 23.939803 0.135042 -0.842845 -0.520938 0 0
    31 -11.627211 -1.977712 20.421012 -0.990747 -0.130746 -0.036423 0 0
    31 -11.100684 -3.708943 24.141577 -0.224514 -0.974470 0.000899 0 0
  phy
    31 -17.720876 -5.475943 29.618907 -0.474234 0.839353 -0.265686 0 0
    31 -22.853827 3.649665 18.168559 -0.605729 -0.429962 0.669496 0 0
    31 -24.070470 -0.842164 18.420523 -0.275410 0.938552 -0.208013 0 0
  phy
    31 -22.409432 -5.182666 20.739472 0.142070 0.813848 -0.563442 0 0
    31 -23.802199 -1.007782 17.575311 -0.087559 0.993638 -0.070832 0 0
    31 -20.764173 -3.356468 14.296309 0.743548 -0.023805 -0.668259 0 0
  phy
    31 -22.409432 -5.182666 20.739472 0.142070 0.813848 -0.563442 0 0
    31 -20.764173 -3.356468 14.296309 0.743548 -0.023805 -0.668259 0 0
    31 -19.709085 -6.747830 19.378739 0.081412 0.289800 -0.953618 0 0
  phy
    31 -23.802199 -1.007782 17.575311 -0.087559 0.993638 -0.070832 0 0
    31 -22.409432 -5.182666 20.739472 0.142070 0.813848 -0.563442 0 0
    31 -24.070470 -0.842164 18.420523 -0.275410 0.938552 -0.208013 0 0
  phy
    31 -19.951556 -6.773450 24.834868 -0.137214 0.592574 -0.793743 0 0
    31 -22.409432 -5.182666 20.739472 0.142070 0.813848 -0.563442 0 0
    31 -19.709085 -6.747830 19.378739 0.081412 0.289800 -0.953618 0 0
  phy
    31 -23.802199 -1.007782 17.575311 -0.087559 0.993638 -0.070832 0 0
    31 -20.403126 1.698313 13.218354 0.525050 -0.745868 0.409883 0 0
    31 -20.764173 -3.356468 14.296309 0.743548 -0.023805 -0.668259 0 0
  phy
    31 -20.764173 -3.356468 14.296309 0.743548 -0.023805 -0.668259 0 0
    31 -20.403126 1.698313 13.218354 0.525050 -0.745868 0.409883 0 0
    31 -15.271998 -3.176497 15.223798 0.473871 -0.871829 -0.123939 0 0
  phy
    31 -14.836303 1.029780 15.305396 0.070903 -0.730531 0.679188 0 0
    31 -22.853827 3.649665 18.168559 -0.605729 -0.429962 0.669496 0 0
    31 -11.614719 -3.103411 24.390621 -0.528869 -0.585048 0.614830 0 0
  phy
    31 -11.614719 -3.103411 24.390621 -0.528869 -0.585048 0.614830 0 0
    31 -11.627211 -1.977712 20.421012 -0.990747 -0.130746 -0.036423 0 0
    31 -14.836303 1.029780 15.305396 0.070903 -0.730531 0.679188 0 0
  phy
    31 -15.271998 -3.176497 15.223798 0.473871 -0.871829 -0.123939 0 0
    31 -20.403126 1.698313 13.218354 0.525050 -0.745868 0.409883 0 0
    31 -14.836303 1.029780 15.305396 0.070903 -0.730531 0.679188 0 0
  phy
    31 -14.836303 1.029780 15.305396 0.070903 -0.730531 0.679188 0 0
    31 -20.403126 1.698313 13.218354 0.525050 -0.745868 0.409883 0 0
    31 -22.853827 3.649665 18.168559 -0.605729 -0.429962 0.669496 0 0
  phy
    31 -22.853827 3.649665 18.168559 -0.605729 -0.429962 0.669496 0 0
    31 -23.802199 -1.007782 17.575311 -0.087559 0.993638 -0.070832 0 0
    31 -24.070470 -0.842164 18.420523 -0.275410 0.938552 -0.208013 0 0
  phy
    31 -22.853827 3.649665 18.168559 -0.605729 -0.429962 0.669496 0 0
    31 -20.403126 1.698313 13.218354 0.525050 -0.745868 0.409883 0 0
    31 -23.802199 -1.007782 17.575311 -0.087559 0.993638 -0.070832 0 0
  phy
    51 -7.249592 -4.392665 34.069814 -0.375639 -0.650854 0.659761 0 0
    51 -0.372859 -4.393079 19.969963 0.565040 -0.614142 0.550961 0 0
    51 0.053362 -4.393105 33.845459 -0.734358 -0.447707 0.510173 0 0
  phy
    51 -7.249592 -4.392665 34.069814 -0.375639 -0.650854 0.659761 0 0
    51 -7.675812 -4.392639 20.194323 0.236584 -0.889823 0.390182 0 0
    51 -0.372859 -4.393079 19.969963 0.565040 -0.614142 0.550961 0 0
  phy
    51 -0.372859 -4.393079 19.969963 0.565040 -0.614142 0.550961 0 0
    51 -7.675361 3.087661 20.194323 0.848564 0.140762 -0.510024 0 0
    51 -0.372408 3.087220 19.969964 0.818500 0.403898 -0.408564 0 0
  phy
    51 -0.372859 -4.393079 19.969963 0.565040 -0.614142 0.550961 0 0
    51 -7.675812 -4.392639 20.194323 0.236584 -0.889823 0.390182 0 0
    51 -7.675361 3.087661 20.194323 0.848564 0.140762 -0.510024 0 0
  phy
    51 -7.249592 -4.392665 34.069814 -0.375639 -0.650854 0.659761 0 0
    51 -7.249141 3.087634 34.069815 -0.744079 -0.665153 -0.062588 0 0
    51 -7.675812 -4.392639 20.194323 0.236584 -0.889823 0.390182 0 0
  phy
    51 -7.249141 3.087634 34.069815 -0.744079 -0.665153 -0.062588 0 0
    51 -7.675361 3.087661 20.194323 0.848564 0.140762 -0.510024 0 0
    51 -7.675812 -4.392639 20.194323 0.236584 -0.889823 0.390182 0 0
  phy
    51 -0.372408 3.087220 19.969964 0.818500 0.403898 -0.408564 0 0
    51 -7.675361 3.087661 20.194323 0.848564 0.140762 -0.510024 0 0
    51 0.053813 3.087194 33.845460 -0.222719 0.867308 -0.445167 0 0
  phy
    51 0.053813 3.087194 33.845460 -0.222719 0.867308 -0.445167 0 0
    51 -7.675361 3.087661 20.194323 0.848564 0.140762 -0.510024 0 0
    51 -7.249141 3.087634 34.069815 -0.744079 -0.665153 -0.062588 0 0
  phy
    51 -7.249592 -4.392665 34.069814 -0.375639 -0.650854 0.659761 0 0
    51 0.053362 -4.393105 33.845459 -0.734358 -0.447707 0.510173 0 0
    51 -7.249141 3.087634 34.069815 -0.744079 -0.665153 -0.062588 0 0
  phy
    51 0.053362 -4.393105 33.845459 -0.734358 -0.447707 0.510173 0 0
    51 0.053813 3.087194 33.845460 -0.222719 0.867308 -0.445167 0 0
    51 -7.249141 3.087634 34.069815 -0.744079 -0.665153 -0.062588 0 0
  phy
    51 0.053362 -4.393105 33.845459 -0.734358 -0.447707 0.510173 0 0
    51 -0.372408 3.087220 19.969964 0.818500 0.403898 -0.408564 0 0
    51 0.053813 3.087194 33.845460 -0.222719 0.867308 -0.445167 0 0
  phy
    51 -0.372408 3.087220 19.969964 0.818500 0.403898 -0.408564 0 0
    51 0.053362 -4.393105 33.845459 -0.734358 -0.447707 0.510173 0 0
    51 -0.372859 -4.393079 19.969963 0.565040 -0.614142 0.550961 0 0
  phy
    52 -6.971226 -4.005581 19.667500 -0.191893 -0.894859 0.402995 0 0
    52 -1.574360 -2.382607 3.056228 0.240391 0.521868 0.818453 0 0
    52 -0.857941 -3.979650 19.402121 0.898749 0.298662 0.321016 0 0
  phy
    52 -6.971226 -4.005581 19.667500 -0.191893 -0.894859 0.402995 0 0
    52 -7.687644 -2.408539 3.321609 0.669312 -0.459885 0.583548 0 0
    52 -1.574360 -2.382607 3.056228 0.240391 0.521868 0.818453 0 0
  phy
    52 -6.971226 -4.005581 19.667500 -0.191893 -0.894859 0.402995 0 0
    52 -7.687694 4.644459 4.010708 0.554239 -0.744341 -0.372526 0 0
    52 -7.687644 -2.408539 3.321609 0.669312 -0.459885 0.583548 0 0
  phy
    52 -6.971226 -4.005581 19.667500 -0.191893 -0.894859 0.402995 0 0
    52 -6.971276 3.047416 20.356601 -0.330948 -0.148732 -0.931854 0 0
    52 -7.687694 4.644459 4.010708 0.554239 -0.744341 -0.372526 0 0
  phy
    52 -7.687694 4.644459 4.010708 0.554239 -0.744341 -0.372526 0 0
    52 -1.574410 4.670489 3.745337 0.765042 0.519253 -0.380903 0 0
    52 -7.687644 -2.408539 3.321609 0.669312 -0.459885 0.583548 0 0
  phy
    52 -1.574410 4.670489 3.745337 0.765042 0.519253 -0.380903 0 0
    52 -1.574360 -2.382607 3.056228 0.240391 0.521868 0.818453 0 0
    52 -7.687644 -2.408539 3.321609 0.669312 -0.459885 0.583548 0 0
  phy
    52 -1.574410 4.670489 3.745337 0.765042 0.519253 -0.380903 0 0
    52 -7.687694 4.644459 4.010708 0.554239 -0.744341 -0.372526 0 0
    52 -6.971276 3.047416 20.356601 -0.330948 -0.148732 -0.931854 0 0
  phy
    52 -1.574410 4.670489 3.745337 0.765042 0.519253 -0.380903 0 0
    52 -6.971276 3.047416 20.356601 -0.330948 -0.148732 -0.931854 0 0
    52 -0.857991 3.073446 20.091232 0.153549 0.808621 -0.567939 0 0
  phy
    52 -6.971276 3.047416 20.356601 -0.330948 -0.148732 -0.931854 0 0
    52 -6.971226 -4.005581 19.667500 -0.191893 -0.894859 0.402995 0 0
    52 -0.857991 3.073446 20.091232 0.153549 0.808621 -0.567939 0 0
  phy
    52 -0.857991 3.073446 20.091232 0.153549 0.808621 -0.567939 0 0
    52 -6.971226 -4.005581 19.667500 -0.191893 -0.894859 0.402995 0 0
    52 -0.857941 -3.979650 19.402121 0.898749 0.298662 0.321016 0 0
  phy
    52 -1.574360 -2.382607 3.056228 0.240391 0.521868 0.818453 0 0
    52 -0.857991 3.073446 20.091232 0.153549 0.808621 -0.567939 0 0
    52 -0.857941 -3.979650 19.402121 0.898749 0.298662 0.321016 0 0
  phy
    52 -0.857991 3.073446 20.091232 0.153549 0.808621 -0.567939 0 0
    52 -1.574360 -2.382607 3.056228 0.240391 0.521868 0.818453 0 0
    52 -1.574410 4.670489 3.745337 0.765042 0.519253 -0.380903 0 0
  phy
    7 2.202298 -6.005519 70.292178 0.098054 0.663256 0.741941 0 0
    7 4.539753 -3.034258 71.774086 0.779889 -0.625865 0.008121 0 0
    7 0.049897 -6.761889 71.529693 0.818060 0.266375 0.509728 0 0
  phy
    7 0.049897 -6.761889 71.529693 0.818060 0.266375 0.509728 0 0
    7 3.201209 -7.234381 67.272671 0.788177 -0.052907 0.613170 0 0
    7 2.202298 -6.005519 70.292178 0.098054 0.663256 0.741941 0 0
  phy
    7 2.202298 -6.005519 70.292178 0.098054 0.663256 0.741941 0 0
    7 3.201209 -7.234381 67.272671 0.788177 -0.052907 0.613170 0 0
    7 4.539753 -3.034258 71.774086 0.779889 -0.625865 0.008121 0 0
  phy
    7 0.049897 -6.761889 71.529693 0.818060 0.266375 0.509728 0 0
    7 -4.215889 -3.033732 71.832547 0.793230 0.496817 0.352079 0 0
    7 -2.015255 -6.149765 70.353862 0.828243 0.144177 0.541504 0 0
  phy
    7 0.049897 -6.761889 71.529693 0.818060 0.266375 0.509728 0 0
    7 0.049099 -3.033988 73.009992 0.863143 0.396788 -0.312319 0 0
    7 -4.215889 -3.033732 71.832547 0.793230 0.496817 0.352079 0 0
  phy
    7 4.539753 -3.034258 71.774086 0.779889 -0.625865 0.008121 0 0
    7 0.049099 -3.033988 73.009992 0.863143 0.396788 -0.312319 0 0
    7 0.049897 -6.761889 71.529693 0.818060 0.266375 0.509728 0 0
  phy
    7 -2.015255 -6.149765 70.353862 0.828243 0.144177 0.541504 0 0
    7 -3.089797 -7.365202 67.268324 0.236807 -0.201517 0.950428 0 0
    7 0.049897 -6.761889 71.529693 0.818060 0.266375 0.509728 0 0
  phy
    7 0.049897 -6.761889 71.529693 0.818060 0.266375 0.509728 0 0
    7 -3.089797 -7.365202 67.268324 0.236807 -0.201517 0.950428 0 0
    7 0.052765 -7.990791 67.270493 0.560499 0.097147 0.822437 0 0
  phy
    7 0.049897 -6.761889 71.529693 0.818060 0.266375 0.509728 0 0
    7 0.052765 -7.990791 67.270493 0.560499 0.097147 0.822437 0 0
    7 3.201209 -7.234381 67.272671 0.788177 -0.052907 0.613170 0 0
  phy
    7 4.539753 -3.034258 71.774086 0.779889 -0.625865 0.008121 0 0
    7 6.942977 -1.101405 67.275251 0.516466 -0.627116 0.583086 0 0
    7 7.668514 6.170051 67.275743 0.432629 -0.698233 -0.570353 0 0
  phy
    7 7.668514 6.170051 67.275743 0.432629 -0.698233 -0.570353 0 0
    7 5.315527 4.985784 70.230732 0.521443 -0.096385 -0.847825 0 0
    7 4.539753 -3.034258 71.774086 0.779889 -0.625865 0.008121 0 0
  phy
    7 4.539753 -3.034258 71.774086 0.779889 -0.625865 0.008121 0 0
    7 3.201209 -7.234381 67.272671 0.788177 -0.052907 0.613170 0 0
    7 6.942977 -1.101405 67.275251 0.516466 -0.627116 0.583086 0 0
  phy
    7 5.315527 4.985784 70.230732 0.521443 -0.096385 -0.847825 0 0
    7 0.049099 -3.033988 73.009992 0.863143 0.396788 -0.312319 0 0
    7 4.539753 -3.034258 71.774086 0.779889 -0.625865 0.008121 0 0
  phy
    7 -7.533583 6.162065 67.265245 0.119892 0.626232 -0.770363 0 0
    7 7.668514 6.170051 67.275743 0.432629 -0.698233 -0.570353 0 0
    7 -7.008073 4.286509 63.113744 -0.343084 0.898180 -0.274892 0 0
  phy
    7 7.668514 6.170051 67.275743 0.432629 -0.698233 -0.570353 0 0
    7 6.885967 4.293096 63.124400 -0.794241 -0.235800 0.559982 0 0
    7 -7.008073 4.286509 63.113744 -0.343084 0.898180 -0.274892 0 0
  phy
    7 7.668514 6.170051 67.275743 0.432629 -0.698233 -0.570353 0 0
    7 -7.533583 6.162065 67.265245 0.119892 0.626232 -0.770363 0 0
    7 5.315527 4.985784 70.230732 0.521443 -0.096385 -0.847825 0 0
  phy
    7 6.942977 -1.101405 67.275251 0.516466 -0.627116 0.583086 0 0
    7 6.885967 4.293096 63.124400 -0.794241 -0.235800 0.559982 0 0
    7 7.668514 6.170051 67.275743 0.432629 -0.698233 -0.570353 0 0
  phy
    7 6.942977 -1.101405 67.275251 0.516466 -0.627116 0.583086 0 0
    7 3.201209 -7.234381 67.272671 0.788177 -0.052907 0.613170 0 0
    7 4.356990 -4.585152 62.607759 0.182101 -0.169150 0.968621 0 0
  phy
    7 4.356990 -4.585152 62.607759 0.182101 -0.169150 0.968621 0 0
    7 6.161076 -1.101361 62.353403 -0.280811 0.539136 0.794026 0 0
    7 6.942977 -1.101405 67.275251 0.516466 -0.627116 0.583086 0 0
  phy
    7 3.201209 -7.234381 67.272671 0.788177 -0.052907 0.613170 0 0
    7 0.056119 -5.796494 62.604791 -0.216381 0.315933 0.923778 0 0
    7 4.356990 -4.585152 62.607759 0.182101 -0.169150 0.968621 0 0
  phy
    7 6.161076 -1.101361 62.353403 -0.280811 0.539136 0.794026 0 0
    7 4.356990 -4.585152 62.607759 0.182101 -0.169150 0.968621 0 0
    7 0.056119 -5.796494 62.604791 -0.216381 0.315933 0.923778 0 0
  phy
    7 -4.215889 -3.033732 71.832547 0.793230 0.496817 0.352079 0 0
    7 -3.089797 -7.365202 67.268324 0.236807 -0.201517 0.950428 0 0
    7 -2.015255 -6.149765 70.353862 0.828243 0.144177 0.541504 0 0
  phy
    7 -6.836620 -1.100577 67.265732 -0.212871 0.948927 0.232858 0 0
    7 -6.310421 -1.100612 62.344790 -0.467075 -0.061222 0.882095 0 0
    7 -3.089797 -7.365202 67.268324 0.236807 -0.201517 0.950428 0 0
  phy
    7 -4.215889 -3.033732 71.832547 0.793230 0.496817 0.352079 0 0
    7 -6.836620 -1.100577 67.265732 -0.212871 0.948927 0.232858 0 0
    7 -3.089797 -7.365202 67.268324 0.236807 -0.201517 0.950428 0 0
  phy
    7 -6.310421 -1.100612 62.344790 -0.467075 -0.061222 0.882095 0 0
    7 -6.836620 -1.100577 67.265732 -0.212871 0.948927 0.232858 0 0
    7 -7.008073 4.286509 63.113744 -0.343084 0.898180 -0.274892 0 0
  phy
    7 -6.836620 -1.100577 67.265732 -0.212871 0.948927 0.232858 0 0
    7 -7.533583 6.162065 67.265245 0.119892 0.626232 -0.770363 0 0
    7 -7.008073 4.286509 63.113744 -0.343084 0.898180 -0.274892 0 0
  phy
    7 -6.836620 -1.100577 67.265732 -0.212871 0.948927 0.232858 0 0
    7 -4.215889 -3.033732 71.832547 0.793230 0.496817 0.352079 0 0
    7 -5.786188 4.928661 70.351253 0.547442 0.691609 -0.471153 0 0
  phy
    7 -7.533583 6.162065 67.265245 0.119892 0.626232 -0.770363 0 0
    7 -6.836620 -1.100577 67.265732 -0.212871 0.948927 0.232858 0 0
    7 -5.786188 4.928661 70.351253 0.547442 0.691609 -0.471153 0 0
  phy
    7 -3.236644 -5.184296 62.602517 -0.210260 -0.139880 0.967587 0 0
    7 -6.310421 -1.100612 62.344790 -0.467075 -0.061222 0.882095 0 0
    7 0.056119 -5.796494 62.604791 -0.216381 0.315933 0.923778 0 0
  phy
    7 -6.310421 -1.100612 62.344790 -0.467075 -0.061222 0.882095 0 0
    7 6.161076 -1.101361 62.353403 -0.280811 0.539136 0.794026 0 0
    7 0.056119 -5.796494 62.604791 -0.216381 0.315933 0.923778 0 0
  phy
    7 6.161076 -1.101361 62.353403 -0.280811 0.539136 0.794026 0 0
    7 -6.310421 -1.100612 62.344790 -0.467075 -0.061222 0.882095 0 0
    7 6.885967 4.293096 63.124400 -0.794241 -0.235800 0.559982 0 0
  phy
    7 6.885967 4.293096 63.124400 -0.794241 -0.235800 0.559982 0 0
    7 -6.310421 -1.100612 62.344790 -0.467075 -0.061222 0.882095 0 0
    7 -7.008073 4.286509 63.113744 -0.343084 0.898180 -0.274892 0 0
  phy
    7 -6.310421 -1.100612 62.344790 -0.467075 -0.061222 0.882095 0 0
    7 -3.236644 -5.184296 62.602517 -0.210260 -0.139880 0.967587 0 0
    7 -3.089797 -7.365202 67.268324 0.236807 -0.201517 0.950428 0 0
  phy
    7 6.161076 -1.101361 62.353403 -0.280811 0.539136 0.794026 0 0
    7 6.885967 4.293096 63.124400 -0.794241 -0.235800 0.559982 0 0
    7 6.942977 -1.101405 67.275251 0.516466 -0.627116 0.583086 0 0
  phy
    7 0.052765 -7.990791 67.270493 0.560499 0.097147 0.822437 0 0
    7 0.056119 -5.796494 62.604791 -0.216381 0.315933 0.923778 0 0
    7 3.201209 -7.234381 67.272671 0.788177 -0.052907 0.613170 0 0
  phy
    7 0.050544 3.998511 71.529690 0.580991 0.680227 -0.446924 0 0
    7 5.315527 4.985784 70.230732 0.521443 -0.096385 -0.847825 0 0
    7 -5.786188 4.928661 70.351253 0.547442 0.691609 -0.471153 0 0
  phy
    7 0.050544 3.998511 71.529690 0.580991 0.680227 -0.446924 0 0
    7 0.049099 -3.033988 73.009992 0.863143 0.396788 -0.312319 0 0
    7 5.315527 4.985784 70.230732 0.521443 -0.096385 -0.847825 0 0
  phy
    7 -5.786188 4.928661 70.351253 0.547442 0.691609 -0.471153 0 0
    7 0.049099 -3.033988 73.009992 0.863143 0.396788 -0.312319 0 0
    7 0.050544 3.998511 71.529690 0.580991 0.680227 -0.446924 0 0
  phy
    7 0.052765 -7.990791 67.270493 0.560499 0.097147 0.822437 0 0
    7 -3.089797 -7.365202 67.268324 0.236807 -0.201517 0.950428 0 0
    7 -3.236644 -5.184296 62.602517 -0.210260 -0.139880 0.967587 0 0
  phy
    7 -3.236644 -5.184296 62.602517 -0.210260 -0.139880 0.967587 0 0
    7 0.056119 -5.796494 62.604791 -0.216381 0.315933 0.923778 0 0
    7 0.052765 -7.990791 67.270493 0.560499 0.097147 0.822437 0 0
  phy
    7 -4.215889 -3.033732 71.832547 0.793230 0.496817 0.352079 0 0
    7 0.049099 -3.033988 73.009992 0.863143 0.396788 -0.312319 0 0
    7 -5.786188 4.928661 70.351253 0.547442 0.691609 -0.471153 0 0
  phy
    7 5.315527 4.985784 70.230732 0.521443 -0.096385 -0.847825 0 0
    7 -7.533583 6.162065 67.265245 0.119892 0.626232 -0.770363 0 0
    7 -5.786188 4.928661 70.351253 0.547442 0.691609 -0.471153 0 0
  phy
    48 7.698894 -4.393564 20.204917 0.645676 0.698518 0.308504 0 0
    48 0.396700 3.087174 19.970470 0.757156 0.242645 -0.606496 0 0
    48 7.699340 3.086738 20.204917 0.567526 0.755652 -0.326961 0 0
  phy
    48 7.698894 -4.393564 20.204917 0.645676 0.698518 0.308504 0 0
    48 7.699340 3.086738 20.204917 0.567526 0.755652 -0.326961 0 0
    48 7.253954 3.086765 34.079812 -0.255063 0.821901 -0.509335 0 0
  phy
    48 7.699340 3.086738 20.204917 0.567526 0.755652 -0.326961 0 0
    48 0.396700 3.087174 19.970470 0.757156 0.242645 -0.606496 0 0
    48 7.253954 3.086765 34.079812 -0.255063 0.821901 -0.509335 0 0
  phy
    48 -0.049132 -4.393101 33.845373 0.407070 -0.699001 0.587956 0 0
    48 -0.048686 3.087201 33.845370 -0.169206 0.687408 -0.706286 0 0
    48 0.396700 3.087174 19.970470 0.757156 0.242645 -0.606496 0 0
  phy
    48 0.396700 3.087174 19.970470 0.757156 0.242645 -0.606496 0 0
    48 0.396254 -4.393128 19.970470 0.266049 -0.713423 0.648263 0 0
    48 -0.049132 -4.393101 33.845373 0.407070 -0.699001 0.587956 0 0
  phy
    48 -0.049132 -4.393101 33.845373 0.407070 -0.699001 0.587956 0 0
    48 7.253507 -4.393537 34.079815 -0.248264 -0.025529 0.968356 0 0
    48 -0.048686 3.087201 33.845370 -0.169206 0.687408 -0.706286 0 0
  phy
    48 -0.049132 -4.393101 33.845373 0.407070 -0.699001 0.587956 0 0
    48 0.396254 -4.393128 19.970470 0.266049 -0.713423 0.648263 0 0
    48 7.253507 -4.393537 34.079815 -0.248264 -0.025529 0.968356 0 0
  phy
    48 7.698894 -4.393564 20.204917 0.645676 0.698518 0.308504 0 0
    48 0.396254 -4.393128 19.970470 0.266049 -0.713423 0.648263 0 0
    48 0.396700 3.087174 19.970470 0.757156 0.242645 -0.606496 0 0
  phy
    48 7.253507 -4.393537 34.079815 -0.248264 -0.025529 0.968356 0 0
    48 0.396254 -4.393128 19.970470 0.266049 -0.713423 0.648263 0 0
    48 7.698894 -4.393564 20.204917 0.645676 0.698518 0.308504 0 0
  phy
    48 7.253507 -4.393537 34.079815 -0.248264 -0.025529 0.968356 0 0
    48 7.698894 -4.393564 20.204917 0.645676 0.698518 0.308504 0 0
    48 7.253954 3.086765 34.079812 -0.255063 0.821901 -0.509335 0 0
  phy
    48 0.396700 3.087174 19.970470 0.757156 0.242645 -0.606496 0 0
    48 -0.048686 3.087201 33.845370 -0.169206 0.687408 -0.706286 0 0
    48 7.253954 3.086765 34.079812 -0.255063 0.821901 -0.509335 0 0
  phy
    48 -0.048686 3.087201 33.845370 -0.169206 0.687408 -0.706286 0 0
    48 7.253507 -4.393537 34.079815 -0.248264 -0.025529 0.968356 0 0
    48 7.253954 3.086765 34.079812 -0.255063 0.821901 -0.509335 0 0
  phy
    49 1.642259 -2.382802 3.058420 0.270096 -0.481990 0.833507 0 0
    49 0.903071 -3.979757 19.403309 -0.226952 -0.866312 0.444968 0 0
    49 1.642204 4.670297 3.747529 0.798626 -0.544044 -0.257318 0 0
  phy
    49 0.903071 -3.979757 19.403309 -0.226952 -0.866312 0.444968 0 0
    49 0.903015 3.073342 20.092418 -0.883847 -0.024442 -0.467138 0 0
    49 1.642204 4.670297 3.747529 0.798626 -0.544044 -0.257318 0 0
  phy
    49 7.755115 4.643533 4.021342 0.549669 0.785528 -0.284271 0 0
    49 1.642204 4.670297 3.747529 0.798626 -0.544044 -0.257318 0 0
    49 7.015926 3.046578 20.366233 -0.179251 0.896197 -0.405833 0 0
  phy
    49 7.015926 3.046578 20.366233 -0.179251 0.896197 -0.405833 0 0
    49 1.642204 4.670297 3.747529 0.798626 -0.544044 -0.257318 0 0
    49 0.903015 3.073342 20.092418 -0.883847 -0.024442 -0.467138 0 0
  phy
    49 7.015926 3.046578 20.366233 -0.179251 0.896197 -0.405833 0 0
    49 0.903015 3.073342 20.092418 -0.883847 -0.024442 -0.467138 0 0
    49 7.015981 -4.006422 19.677134 -0.603360 0.521733 0.603118 0 0
  phy
    49 7.015981 -4.006422 19.677134 -0.603360 0.521733 0.603118 0 0
    49 0.903015 3.073342 20.092418 -0.883847 -0.024442 -0.467138 0 0
    49 0.903071 -3.979757 19.403309 -0.226952 -0.866312 0.444968 0 0
  phy
    49 1.642259 -2.382802 3.058420 0.270096 -0.481990 0.833507 0 0
    49 1.642204 4.670297 3.747529 0.798626 -0.544044 -0.257318 0 0
    49 7.755170 -2.409467 3.332243 0.517584 0.575173 0.633468 0 0
  phy
    49 7.755170 -2.409467 3.332243 0.517584 0.575173 0.633468 0 0
    49 1.642204 4.670297 3.747529 0.798626 -0.544044 -0.257318 0 0
    49 7.755115 4.643533 4.021342 0.549669 0.785528 -0.284271 0 0
  phy
    49 7.015926 3.046578 20.366233 -0.179251 0.896197 -0.405833 0 0
    49 7.755170 -2.409467 3.332243 0.517584 0.575173 0.633468 0 0
    49 7.755115 4.643533 4.021342 0.549669 0.785528 -0.284271 0 0
  phy
    49 7.755170 -2.409467 3.332243 0.517584 0.575173 0.633468 0 0
    49 7.015926 3.046578 20.366233 -0.179251 0.896197 -0.405833 0 0
    49 7.015981 -4.006422 19.677134 -0.603360 0.521733 0.603118 0 0
  phy
    49 7.755170 -2.409467 3.332243 0.517584 0.575173 0.633468 0 0
    49 7.015981 -4.006422 19.677134 -0.603360 0.521733 0.603118 0 0
    49 1.642259 -2.382802 3.058420 0.270096 -0.481990 0.833507 0 0
  phy
    49 1.642259 -2.382802 3.058420 0.270096 -0.481990 0.833507 0 0
    49 7.015981 -4.006422 19.677134 -0.603360 0.521733 0.603118 0 0
    49 0.903071 -3.979757 19.403309 -0.226952 -0.866312 0.444968 0 0
  phy
    50 2.930066 -7.018379 0.043008 0.587385 -0.806204 0.070808 0 0
    50 3.065666 -6.281187 2.277902 -0.300048 -0.904385 0.303414 0 0
    50 3.065137 3.819112 3.916202 -0.198828 -0.801172 -0.564438 0 0
  phy
    50 3.065137 3.819112 3.916202 -0.198828 -0.801172 -0.564438 0 0
    50 2.930724 4.005220 0.043008 0.778240 -0.450198 -0.437794 0 0
    50 2.930066 -7.018379 0.043008 0.587385 -0.806204 0.070808 0 0
  phy
    50 2.930066 -7.018379 0.043008 0.587385 -0.806204 0.070808 0 0
    50 7.587865 -7.018657 0.046226 0.883849 -0.197256 0.424147 0 0
    50 3.065666 -6.281187 2.277902 -0.300048 -0.904385 0.303414 0 0
  phy
    50 2.930066 -7.018379 0.043008 0.587385 -0.806204 0.070808 0 0
    50 2.930724 4.005220 0.043008 0.778240 -0.450198 -0.437794 0 0
    50 7.587865 -7.018657 0.046226 0.883849 -0.197256 0.424147 0 0
  phy
    50 3.065666 -6.281187 2.277902 -0.300048 -0.904385 0.303414 0 0
    50 7.587865 -7.018657 0.046226 0.883849 -0.197256 0.424147 0 0
    50 6.850265 -6.281413 2.280517 -0.730124 -0.572771 0.372630 0 0
  phy
    50 3.065666 -6.281187 2.277902 -0.300048 -0.904385 0.303414 0 0
    50 6.850265 -6.281413 2.280517 -0.730124 -0.572771 0.372630 0 0
    50 6.849736 3.818886 3.918817 -0.963741 0.265140 0.030075 0 0
  phy
    50 6.850265 -6.281413 2.280517 -0.730124 -0.572771 0.372630 0 0
    50 7.587865 -7.018657 0.046226 0.883849 -0.197256 0.424147 0 0
    50 6.849736 3.818886 3.918817 -0.963741 0.265140 0.030075 0 0
  phy
    50 3.065137 3.819112 3.916202 -0.198828 -0.801172 -0.564438 0 0
    50 7.588522 4.004942 0.046226 0.599157 0.426437 -0.677615 0 0
    50 2.930724 4.005220 0.043008 0.778240 -0.450198 -0.437794 0 0
  phy
    50 7.588522 4.004942 0.046226 0.599157 0.426437 -0.677615 0 0
    50 3.065137 3.819112 3.916202 -0.198828 -0.801172 -0.564438 0 0
    50 6.849736 3.818886 3.918817 -0.963741 0.265140 0.030075 0 0
  phy
    50 3.065137 3.819112 3.916202 -0.198828 -0.801172 -0.564438 0 0
    50 3.065666 -6.281187 2.277902 -0.300048 -0.904385 0.303414 0 0
    50 6.849736 3.818886 3.918817 -0.963741 0.265140 0.030075 0 0
  phy
    50 7.587865 -7.018657 0.046226 0.883849 -0.197256 0.424147 0 0
    50 2.930724 4.005220 0.043008 0.778240 -0.450198 -0.437794 0 0
    50 7.588522 4.004942 0.046226 0.599157 0.426437 -0.677615 0 0
  phy
    50 7.587865 -7.018657 0.046226 0.883849 -0.197256 0.424147 0 0
    50 7.588522 4.004942 0.046226 0.599157 0.426437 -0.677615 0 0
    50 6.849736 3.818886 3.918817 -0.963741 0.265140 0.030075 0 0
  phy
    53 -6.804906 3.819707 3.955113 -0.629608 -0.640022 -0.440415 0 0
    53 -6.804384 -6.280590 2.316813 -0.842544 -0.518515 0.145812 0 0
    53 -3.019787 -6.280819 2.319425 -0.929735 -0.303411 0.208650 0 0
  phy
    53 -6.804906 3.819707 3.955113 -0.629608 -0.640022 -0.440415 0 0
    53 -7.538985 -7.017746 0.081405 -0.147533 -0.964398 0.219477 0 0
    53 -6.804384 -6.280590 2.316813 -0.842544 -0.518515 0.145812 0 0
  phy
    53 -6.804384 -6.280590 2.316813 -0.842544 -0.518515 0.145812 0 0
    53 -7.538985 -7.017746 0.081405 -0.147533 -0.964398 0.219477 0 0
    53 -3.019787 -6.280819 2.319425 -0.929735 -0.303411 0.208650 0 0
  phy
    53 -7.538321 4.005851 0.081406 0.466987 -0.607091 -0.642934 0 0
    53 -6.804906 3.819707 3.955113 -0.629608 -0.640022 -0.440415 0 0
    53 -2.880524 4.005571 0.084621 0.799227 0.318855 -0.509478 0 0
  phy
    53 -2.880524 4.005571 0.084621 0.799227 0.318855 -0.509478 0 0
    53 -6.804906 3.819707 3.955113 -0.629608 -0.640022 -0.440415 0 0
    53 -3.020308 3.819479 3.957725 -0.830597 0.099443 -0.547923 0 0
  phy
    53 -6.804906 3.819707 3.955113 -0.629608 -0.640022 -0.440415 0 0
    53 -3.019787 -6.280819 2.319425 -0.929735 -0.303411 0.208650 0 0
    53 -3.020308 3.819479 3.957725 -0.830597 0.099443 -0.547923 0 0
  phy
    53 -7.538321 4.005851 0.081406 0.466987 -0.607091 -0.642934 0 0
    53 -7.538985 -7.017746 0.081405 -0.147533 -0.964398 0.219477 0 0
    53 -6.804906 3.819707 3.955113 -0.629608 -0.640022 -0.440415 0 0
  phy
    53 -3.019787 -6.280819 2.319425 -0.929735 -0.303411 0.208650 0 0
    53 -7.538985 -7.017746 0.081405 -0.147533 -0.964398 0.219477 0 0
    53 -2.881188 -7.018027 0.084620 -0.551926 0.105482 0.827195 0 0
  phy
    53 -3.019787 -6.280819 2.319425 -0.929735 -0.303411 0.208650 0 0
    53 -2.881188 -7.018027 0.084620 -0.551926 0.105482 0.827195 0 0
    53 -3.020308 3.819479 3.957725 -0.830597 0.099443 -0.547923 0 0
  phy
    53 -2.880524 4.005571 0.084621 0.799227 0.318855 -0.509478 0 0
    53 -7.538985 -7.017746 0.081405 -0.147533 -0.964398 0.219477 0 0
    53 -7.538321 4.005851 0.081406 0.466987 -0.607091 -0.642934 0 0
  phy
    53 -2.881188 -7.018027 0.084620 -0.551926 0.105482 0.827195 0 0
    53 -7.538985 -7.017746 0.081405 -0.147533 -0.964398 0.219477 0 0
    53 -2.880524 4.005571 0.084621 0.799227 0.318855 -0.509478 0 0
  phy
    53 -2.881188 -7.018027 0.084620 -0.551926 0.105482 0.827195 0 0
    53 -2.880524 4.005571 0.084621 0.799227 0.318855 -0.509478 0 0
    53 -3.020308 3.819479 3.957725 -0.830597 0.099443 -0.547923 0 0
end
