version 1
nodes
  0 "Bip01" -1
  1 "Bip01 Pelvis" 0
  2 "Bip01 Spine" 1
  3 "Bip01 Spine1" 2
  4 "Bip01 Spine2" 3
  5 "Bip01 Spine3" 4
  6 "Bip01 Neck" 5
  7 "Bip01 L Clavicle" 6
  8 "Bip01 L UpperArm" 7
  9 "Bip01 L Forearm" 8
  10 "Bip01 L Hand" 9
  11 "Bip01 L Finger0" 10
  12 "Bip01 L Finger01" 11
  13 "Bip01 L Finger02" 12
  14 "Bip01 L Finger2" 10
  15 "Bip01 L Finger21" 14
  16 "Bip01 L Finger22" 15
  17 "Bip01 R Clavicle" 6
  18 "Bip01 R UpperArm" 17
  19 "Bip01 R Forearm" 18
  20 "Bip01 R Hand" 19
  21 "Bip01 R Finger0" 20
  22 "Bip01 R Finger01" 21
  23 "Bip01 R Finger02" 22
  24 "Bip01 R Finger2" 20
  25 "Bip01 R Finger21" 24
  26 "Bip01 R Finger22" 25
  27 "tie1" 5
  28 "tie2" 27
  29 "tie3" 28
  30 "tie4" 29
  31 "tie5" 30
  32 "tie6" 31
  33 "tie7" 32
  34 "tie8" 33
  35 "Bip01 L Thigh" 2
  36 "Bip01 L Calf" 35
  37 "Bip01 L Foot" 36
  38 "Bip01 L Toe0" 37
  39 "Bip01 R Thigh" 2
  40 "Bip01 R Calf" 39
  41 "Bip01 R Foot" 40
  42 "Bip01 R Toe0" 41
  43 "Bip01 Head" 6
  44 "Dummy05" 43
  45 "Mouth" 44
  46 "needle" 20
end
skeleton
  time 0
    0 -0.221744 -2.287604 34.355147 0.000000 -0.026135 -1.570888
    1 -3.194491 -0.089846 0.000000 -1.570795 -1.570451 0.000000
    2 3.928664 0.383633 0.000004 -0.000004 -0.000001 0.297353
    3 3.442969 -0.003536 0.000000 0.012847 -0.002589 0.135174
    4 4.441442 -0.003536 0.000000 0.064122 -0.013626 0.213043
    5 4.441389 -0.003537 0.000000 0.152597 -0.037955 0.206095
    6 4.441391 -0.002040 0.000000 -0.000013 -0.026163 -0.249545
    7 0.039065 0.002036 1.614274 0.968306 -1.270263 2.450118
    8 5.073841 0.000000 0.000002 -0.735685 0.936223 -0.800972
    9 12.011117 0.000000 -0.000001 0.000000 0.000000 -0.787677
    10 10.249307 0.000000 0.000000 -1.391653 0.028316 0.254026
    11 1.183836 0.259443 -1.427523 -0.015253 0.341674 0.151353
    12 0.625233 0.000000 0.000000 0.000000 0.000000 0.061075
    13 1.041848 0.000000 0.000001 0.000000 0.000000 0.052345
    14 3.037806 -0.002122 -0.118180 0.004521 0.069540 0.174741
    15 1.172004 -0.000001 0.000000 0.000000 0.000000 0.331574
    16 1.160930 0.000000 0.000000 0.000000 0.000000 0.645747
    17 -0.039063 0.002045 -1.614274 0.988918 1.231649 4.359428
    18 4.700062 0.000000 -0.000002 1.044400 -0.456370 -1.533367
    19 12.049927 0.000000 0.000001 0.000000 0.000000 -0.674138
    20 10.340311 0.000001 0.000000 2.706195 0.227536 0.294821
    21 1.186625 0.034757 1.438863 -0.023040 -0.410634 0.371539
    22 0.607803 0.000000 0.000000 0.000000 0.000000 0.078501
    23 1.063061 0.000001 0.000000 0.000000 0.000000 0.078501
    24 2.950419 0.002914 0.177525 0.002770 0.025228 0.375269
    25 1.294388 0.000000 -0.000001 0.000000 0.000000 0.253042
    26 1.183920 0.000001 0.000000 0.000000 0.000000 0.488670
    27 2.738953 3.890889 0.113747 0.000034 -1.457373 2.940037
    28 0.000000 -1.023687 -1.922726 0.000000 0.000000 0.000000
    29 0.000000 -0.558375 -1.804806 -0.488688 0.000000 0.000000
    30 0.000000 -0.325718 -1.929488 -0.069809 0.000000 0.000000
    31 0.000000 0.046531 -1.430430 0.087258 0.000000 0.000000
    32 0.000000 0.000000 -1.347565 -0.087249 0.000000 0.000000
    33 0.000000 -0.046531 -2.135521 -0.061072 0.000000 0.000000
    34 0.000000 -0.279187 -2.151380 0.174530 0.000000 0.000000
    35 -3.872506 0.781899 3.416453 0.003134 -3.142233 -0.819691
    36 19.302956 0.000000 0.000000 0.000000 0.000000 -1.004938
    37 15.657714 0.000000 0.000000 -0.003111 -0.001049 0.465131
    38 3.741828 7.474068 0.000000 0.000000 0.000000 1.570796
    39 -3.872506 0.781918 -3.416451 0.004389 3.163897 -0.718824
    40 19.302958 0.000000 0.000000 0.000000 0.000000 -1.060924
    41 15.657715 0.000000 0.000000 0.006301 -0.021920 0.585734
    42 3.741828 7.351521 0.000000 0.000000 0.000000 1.570796
    43 2.562340 0.000000 0.000000 -0.243661 0.075475 0.180610
    44 8.541129 0.000000 0.000000 0.000000 0.000000 0.000000
    45 -7.351523 1.350579 0.144448 0.000001 -3.141591 -1.570794
    46 4.991368 -0.677071 0.532282 1.237053 -2.969057 -0.819481
  time 1
    0 -0.221744 -2.287604 34.355147 0.000000 -0.026135 -1.570888
    1 -3.210117 -0.089846 0.000000 -1.570795 -1.570451 0.000000
    2 3.928664 0.383633 0.000004 -0.000004 -0.000001 0.299793
    3 3.442969 -0.003536 0.000000 0.012847 -0.002589 0.135174
    4 4.441442 -0.003536 0.000000 0.064122 -0.013626 0.213043
    5 4.441389 -0.003537 0.000000 0.152597 -0.037955 0.206095
    6 4.441391 -0.002040 0.000000 -0.000013 -0.026163 -0.249545
    7 0.039065 0.002036 1.614274 0.968306 -1.270263 2.450118
    8 5.073841 0.000000 0.000002 -0.738328 0.934536 -0.803741
    9 12.011117 0.000000 -0.000001 0.000000 0.000000 -0.787677
    10 10.249307 0.000000 0.000000 -1.391653 0.028316 0.254026
    11 1.183836 0.259443 -1.427523 -0.015253 0.341674 0.151353
    12 0.625233 0.000000 0.000000 0.000000 0.000000 0.061075
    13 1.041848 0.000000 0.000001 0.000000 0.000000 0.052345
    14 3.037806 -0.002122 -0.118180 0.004521 0.069540 0.174741
    15 1.172004 -0.000001 0.000000 0.000000 0.000000 0.331574
    16 1.160930 0.000000 0.000000 0.000000 0.000000 0.645747
    17 -0.039063 0.002045 -1.614274 0.988918 1.231649 4.359428
    18 4.700062 0.000000 -0.000002 1.037109 -0.479577 -1.516895
    19 12.049927 0.000000 0.000001 0.000000 0.000000 -0.674138
    20 10.340311 0.000001 0.000000 2.694807 0.216312 0.296169
    21 1.186625 0.034757 1.438863 -0.023040 -0.410634 0.371539
    22 0.607803 0.000000 0.000000 0.000000 0.000000 0.078501
    23 1.063061 0.000001 0.000000 0.000000 0.000000 0.078501
    24 2.950419 0.002914 0.177525 0.002538 0.025252 0.365945
    25 1.294388 0.000000 -0.000001 0.000000 0.000000 0.258347
    26 1.183920 0.000001 0.000000 0.000000 0.000000 0.498603
    27 2.738953 3.890889 0.113747 0.000034 -1.457373 2.940037
    28 0.000000 -1.023687 -1.922726 -0.005006 0.000000 0.000000
    29 0.000000 -0.558375 -1.804806 -0.491637 0.000000 0.000000
    30 0.000000 -0.325718 -1.929488 -0.074827 0.000000 0.000000
    31 0.000000 0.046531 -1.430430 0.084367 0.000000 0.000000
    32 0.000000 0.000000 -1.347565 -0.078022 0.000000 0.000000
    33 0.000000 -0.046531 -2.135521 -0.033497 0.000000 0.000000
    34 0.000000 -0.279187 -2.151380 0.168728 0.000000 0.000000
    35 -3.868600 0.793619 3.416453 0.003134 -3.142233 -0.823582
    36 19.302956 0.000000 0.000000 0.000000 0.000000 -1.004249
    37 15.657714 0.000000 0.000000 -0.003111 -0.001049 0.462960
    38 3.741828 7.474068 0.000000 0.000000 0.000000 1.570796
    39 -3.868600 0.793637 -3.416451 0.004389 3.163897 -0.723157
    40 19.302958 0.000000 0.000000 0.000000 0.000000 -1.060991
    41 15.657715 0.000000 0.000000 0.006301 -0.021920 0.584008
    42 3.741828 7.351521 0.000000 0.000000 0.000000 1.570796
    43 2.562340 0.000000 0.000000 -0.243525 0.075948 0.182312
    44 8.541129 0.000000 0.000000 0.000000 0.000000 0.000000
    45 -7.351523 1.350579 0.144448 0.000001 -3.141591 -1.570794
    46 4.991368 -0.677071 0.532282 1.237053 -2.969057 -0.819481
  time 2
    0 -0.221744 -2.287604 34.355147 0.000000 -0.026135 -1.570888
    1 -3.264806 -0.089846 0.000000 -1.570795 -1.570451 0.000000
    2 3.928664 0.383633 0.000004 -0.000004 -0.000001 0.308687
    3 3.442969 -0.003536 0.000000 0.012847 -0.002589 0.135174
    4 4.441442 -0.003536 0.000000 0.064122 -0.013626 0.213043
    5 4.441389 -0.003537 0.000000 0.152597 -0.037955 0.206095
    6 4.441391 -0.002040 0.000000 -0.000013 -0.026163 -0.249545
    7 0.039065 0.002036 1.614274 0.968306 -1.270263 2.450118
    8 5.073841 0.000000 0.000002 -0.747900 0.928155 -0.813869
    9 12.011117 0.000000 -0.000001 0.000000 0.000000 -0.787677
    10 10.249307 0.000000 0.000000 -1.391653 0.028316 0.254026
    11 1.183836 0.259443 -1.427523 -0.015253 0.341674 0.151353
    12 0.625233 0.000000 0.000000 0.000000 0.000000 0.061075
    13 1.041848 0.000000 0.000001 0.000000 0.000000 0.052345
    14 3.037806 -0.002122 -0.118180 0.004521 0.069540 0.174741
    15 1.172004 -0.000001 0.000000 0.000000 0.000000 0.331574
    16 1.160930 0.000000 0.000000 0.000000 0.000000 0.645747
    17 -0.039063 0.002045 -1.614274 0.988918 1.231649 4.359428
    18 4.700062 0.000000 -0.000002 1.027267 -0.505507 -1.494825
    19 12.049927 0.000000 0.000001 0.000000 0.000000 -0.674138
    20 10.340311 0.000001 0.000000 2.682235 0.203891 0.297832
    21 1.186625 0.034757 1.438863 -0.023040 -0.410634 0.371539
    22 0.607803 0.000000 0.000000 0.000000 0.000000 0.078501
    23 1.063061 0.000001 0.000000 0.000000 0.000000 0.078501
    24 2.950419 0.002914 0.177525 0.002281 0.025276 0.355673
    25 1.294388 0.000000 -0.000001 0.000000 0.000000 0.264219
    26 1.183920 0.000001 0.000000 0.000000 0.000000 0.509646
    27 2.738953 3.890889 0.113747 0.000034 -1.457373 2.940037
    28 0.000000 -1.023687 -1.922726 -0.010601 0.000000 0.000000
    29 0.000000 -0.558375 -1.804806 -0.495028 0.000000 0.000000
    30 0.000000 -0.325718 -1.929488 -0.080411 0.000000 0.000000
    31 0.000000 0.046531 -1.430430 0.081234 0.000000 0.000000
    32 0.000000 0.000000 -1.347565 -0.066703 0.000000 0.000000
    33 0.000000 -0.046531 -2.135521 -0.002272 0.000000 0.000000
    34 0.000000 -0.279187 -2.151380 0.162486 0.000000 0.000000
    35 -3.860787 0.824870 3.416453 0.003134 -3.142233 -0.834754
    36 19.302956 0.000000 0.000000 0.000000 0.000000 -1.003184
    37 15.657714 0.000000 0.000000 -0.003111 -0.001049 0.459663
    38 3.741828 7.474068 0.000000 0.000000 0.000000 1.570796
    39 -3.860787 0.824888 -3.416451 0.004485 3.163897 -0.734912
    40 19.302958 0.000000 0.000000 0.000000 0.000000 -1.061193
    41 15.657715 0.000000 0.000000 0.006301 -0.021896 0.581301
    42 3.741828 7.351521 0.000000 0.000000 0.000000 1.570796
    43 2.562340 0.000000 0.000000 -0.243116 0.077700 0.188604
    44 8.541129 0.000000 0.000000 0.000000 0.000000 0.000000
    45 -7.351523 1.350579 0.144448 0.000001 -3.141591 -1.570794
    46 4.991368 -0.677071 0.532282 1.237053 -2.969057 -0.819481
  time 3
    0 -0.221744 -2.287604 34.355147 0.000000 -0.026135 -1.570888
    1 -3.319495 -0.089846 0.000000 -1.570795 -1.570451 0.000000
    2 3.928664 0.383633 0.000004 -0.000004 -0.000001 0.317991
    3 3.442969 -0.003536 0.000000 0.012847 -0.002589 0.135174
    4 4.441442 -0.003536 0.000000 0.064122 -0.013626 0.213043
    5 4.441389 -0.003537 0.000000 0.152597 -0.037955 0.206095
    6 4.441391 -0.002040 0.000000 -0.000013 -0.026163 -0.249545
    7 0.039065 0.002036 1.614274 0.968306 -1.270263 2.450118
    8 5.073841 0.000000 0.000002 -0.757759 0.921408 -0.824199
    9 12.011117 0.000000 -0.000001 0.000000 0.000000 -0.787677
    10 10.249307 0.000000 0.000000 -1.391653 0.028316 0.254026
    11 1.183836 0.259443 -1.427523 -0.015253 0.341674 0.151353
    12 0.625233 0.000000 0.000000 0.000000 0.000000 0.061075
    13 1.041848 0.000000 0.000001 0.000000 0.000000 0.052345
    14 3.037806 -0.002122 -0.118180 0.004521 0.069540 0.174741
    15 1.172004 -0.000001 0.000000 0.000000 0.000000 0.331574
    16 1.160930 0.000000 0.000000 0.000000 0.000000 0.645747
    17 -0.039063 0.002045 -1.614274 0.988918 1.231649 4.359428
    18 4.700062 0.000000 -0.000002 1.016987 -0.530605 -1.472356
    19 12.049927 0.000000 0.000001 0.000000 0.000000 -0.674138
    20 10.340311 0.000001 0.000000 2.668807 0.190646 0.299765
    21 1.186625 0.034757 1.438863 -0.023040 -0.410634 0.371539
    22 0.607803 0.000000 0.000000 0.000000 0.000000 0.078501
    23 1.063061 0.000001 0.000000 0.000000 0.000000 0.078501
    24 2.950419 0.002914 0.177525 0.002000 0.025300 0.344663
    25 1.294388 0.000000 -0.000001 0.000000 0.000000 0.270502
    26 1.183920 0.000001 0.000000 0.000000 0.000000 0.521429
    27 2.738953 3.890889 0.113747 0.000034 -1.457373 2.940037
    28 0.000000 -1.023687 -1.922726 -0.016589 0.000000 0.000000
    29 0.000000 -0.558375 -1.804806 -0.498720 0.000000 0.000000
    30 0.000000 -0.325718 -1.929488 -0.086406 0.000000 0.000000
    31 0.000000 0.046531 -1.430430 0.077940 0.000000 0.000000
    32 0.000000 0.000000 -1.347565 -0.055803 0.000000 0.000000
    33 0.000000 -0.046531 -2.135521 0.028207 0.000000 0.000000
    34 0.000000 -0.279187 -2.151380 0.155902 0.000000 0.000000
    35 -3.852974 0.863933 3.416453 0.003134 -3.142233 -0.846076
    36 19.302956 0.000000 0.000000 0.000000 0.000000 -1.002182
    37 15.657714 0.000000 0.000000 -0.003111 -0.001069 0.456657
    38 3.741828 7.474068 0.000000 0.000000 0.000000 1.570796
    39 -3.852974 0.863952 -3.416451 0.004485 3.163897 -0.746767
    40 19.302958 0.000000 0.000000 0.000000 0.000000 -1.061327
    41 15.657715 0.000000 0.000000 0.006301 -0.021871 0.578875
    42 3.741828 7.351521 0.000000 0.000000 0.000000 1.570796
    43 2.562340 0.000000 0.000000 -0.242663 0.079507 0.195119
    44 8.541129 0.000000 0.000000 0.000000 0.000000 0.000000
    45 -7.351523 1.350579 0.144448 0.000001 -3.141591 -1.570794
    46 4.991368 -0.677071 0.532282 1.237053 -2.969057 -0.819481
  time 4
    0 -0.221744 -2.287604 34.390845 0.000000 -0.026135 -1.570888
    1 -3.378090 -0.089846 0.000000 -1.570795 -1.570451 0.000000
    2 3.928664 0.383633 0.000004 -0.000004 -0.000001 0.327546
    3 3.442969 -0.003536 0.000000 0.012847 -0.002589 0.135174
    4 4.441442 -0.003536 0.000000 0.064122 -0.013626 0.213043
    5 4.441389 -0.003537 0.000000 0.152597 -0.037955 0.206095
    6 4.441391 -0.002040 0.000000 -0.000013 -0.026163 -0.249545
    7 0.039065 0.002036 1.614274 0.968306 -1.270263 2.450118
    8 5.073841 0.000000 0.000002 -0.767617 0.914440 -0.834598
    9 12.011117 0.000000 -0.000001 0.000000 0.000000 -0.787677
    10 10.249307 0.000000 0.000000 -1.391653 0.028316 0.254026
    11 1.183836 0.259443 -1.427523 -0.015253 0.341674 0.151353
    12 0.625233 0.000000 0.000000 0.000000 0.000000 0.061075
    13 1.041848 0.000000 0.000001 0.000000 0.000000 0.052345
    14 3.037806 -0.002122 -0.118180 0.004521 0.069540 0.174741
    15 1.172004 -0.000001 0.000000 0.000000 0.000000 0.331574
    16 1.160930 0.000000 0.000000 0.000000 0.000000 0.645747
    17 -0.039063 0.002045 -1.614274 0.988918 1.231649 4.359428
    18 4.700062 0.000000 -0.000002 1.006197 -0.554795 -1.449726
    19 12.049927 0.000000 0.000001 0.000000 0.000000 -0.674138
    20 10.340311 0.000001 0.000000 2.654786 0.176905 0.301967
    21 1.186625 0.034757 1.438863 -0.023040 -0.410634 0.371539
    22 0.607803 0.000000 0.000000 0.000000 0.000000 0.078501
    23 1.063061 0.000001 0.000000 0.000000 0.000000 0.078501
    24 2.950419 0.002914 0.177525 0.001706 0.025312 0.333232
    25 1.294388 0.000000 -0.000001 0.000000 0.000000 0.277043
    26 1.183920 0.000001 0.000000 0.000000 0.000000 0.533706
    27 2.738953 3.890889 0.113747 0.000034 -1.457373 2.940037
    28 0.000000 -1.023687 -1.922726 -0.022773 0.000000 0.000000
    29 0.000000 -0.558375 -1.804806 -0.502605 0.000000 0.000000
    30 0.000000 -0.325718 -1.929488 -0.092607 0.000000 0.000000
    31 0.000000 0.046531 -1.430430 0.074486 0.000000 0.000000
    32 0.000000 0.000000 -1.347565 -0.047878 0.000000 0.000000
    33 0.000000 -0.046531 -2.135521 0.053538 0.000000 0.000000
    34 0.000000 -0.279187 -2.151380 0.148999 0.000000 0.000000
    35 -3.845162 0.899091 3.416453 0.003134 -3.142233 -0.857248
    36 19.302956 0.000000 0.000000 0.000000 0.000000 -1.001368
    37 15.657714 0.000000 0.000000 -0.003111 -0.001069 0.454195
    38 3.741828 7.474068 0.000000 0.000000 0.000000 1.570796
    39 -3.845162 0.899109 -3.416451 0.004580 3.163801 -0.758372
    40 19.302958 0.000000 0.000000 0.000000 0.000000 -1.061462
    41 15.657715 0.000000 0.000000 0.006301 -0.021871 0.576915
    42 3.741828 7.351521 0.000000 0.000000 0.000000 1.570796
    43 2.562340 0.000000 0.000000 -0.242210 0.081371 0.201855
    44 8.541129 0.000000 0.000000 0.000000 0.000000 0.000000
    45 -7.351523 1.350579 0.144448 0.000001 -3.141591 -1.570794
    46 4.991368 -0.677071 0.532282 1.237053 -2.969057 -0.819481
  time 5
    0 -0.221744 -2.287604 34.390845 0.000000 -0.026135 -1.570888
    1 -3.436686 -0.089846 0.000000 -1.570795 -1.570451 0.000000
    2 3.928664 0.383633 0.000004 -0.000004 -0.000001 0.337261
    3 3.442969 -0.003536 0.000000 0.012847 -0.002589 0.135174
    4 4.441442 -0.003536 0.000000 0.064122 -0.013626 0.213043
    5 4.441389 -0.003537 0.000000 0.152597 -0.037955 0.206095
    6 4.441391 -0.002040 0.000000 -0.000013 -0.026163 -0.249545
    7 0.039065 0.002036 1.614274 0.968306 -1.270263 2.450118
    8 5.073841 0.000000 0.000002 -0.777476 0.907253 -0.844996
    9 12.011117 0.000000 -0.000001 0.000000 0.000000 -0.787677
    10 10.249307 0.000000 0.000000 -1.391653 0.028316 0.254026
    11 1.183836 0.259443 -1.427523 -0.015253 0.341674 0.151353
    12 0.625233 0.000000 0.000000 0.000000 0.000000 0.061075
    13 1.041848 0.000000 0.000001 0.000000 0.000000 0.052345
    14 3.037806 -0.002122 -0.118180 0.004521 0.069540 0.174741
    15 1.172004 -0.000001 0.000000 0.000000 0.000000 0.331574
    16 1.160930 0.000000 0.000000 0.000000 0.000000 0.645747
    17 -0.039063 0.002045 -1.614274 0.988918 1.231649 4.359428
    18 4.700062 0.000000 -0.000002 0.988115 -0.594181 -1.414303
    19 12.049927 0.000000 0.000001 0.000000 0.000000 -0.674138
    20 10.340311 0.000001 0.000000 2.640634 0.162999 0.304394
    21 1.186625 0.034757 1.438863 -0.023040 -0.410634 0.371539
    22 0.607803 0.000000 0.000000 0.000000 0.000000 0.078501
    23 1.063061 0.000001 0.000000 0.000000 0.000000 0.078501
    24 2.950419 0.002914 0.177525 0.001413 0.025336 0.321591
    25 1.294388 0.000000 -0.000001 0.000000 0.000000 0.283687
    26 1.183920 0.000001 0.000000 0.000000 0.000000 0.546168
    27 2.738953 3.890889 0.113747 0.000034 -1.457373 2.940037
    28 0.000000 -1.023687 -1.922726 -0.029055 0.000000 0.000000
    29 0.000000 -0.558375 -1.804806 -0.506526 0.000000 0.000000
    30 0.000000 -0.325718 -1.929488 -0.098860 0.000000 0.000000
    31 0.000000 0.046531 -1.430430 0.070931 0.000000 0.000000
    32 0.000000 0.000000 -1.347565 -0.045391 0.000000 0.000000
    33 0.000000 -0.046531 -2.135521 0.069266 0.000000 0.000000
    34 0.000000 -0.279187 -2.151380 0.141876 0.000000 0.000000
    35 -3.837349 0.934248 3.416453 0.003134 -3.142233 -0.868869
    36 19.302956 0.000000 0.000000 0.000000 0.000000 -1.000366
    37 15.657714 0.000000 0.000000 -0.003111 -0.001069 0.451315
    38 3.741828 7.474068 0.000000 0.000000 0.000000 1.570796
    39 -3.837349 0.934266 -3.416451 0.004580 3.163801 -0.770526
    40 19.302958 0.000000 0.000000 0.000000 0.000000 -1.061529
    41 15.657715 0.000000 0.000000 0.006301 -0.021847 0.574582
    42 3.741828 7.351521 0.000000 0.000000 0.000000 1.570796
    43 2.562340 0.000000 0.000000 -0.241711 0.083262 0.208666
    44 8.541129 0.000000 0.000000 0.000000 0.000000 0.000000
    45 -7.351523 1.350579 0.144448 0.000001 -3.141591 -1.570794
    46 4.991368 -0.677071 0.532282 1.237053 -2.969057 -0.819481
  time 6
    0 -0.221744 -2.287604 34.390845 0.000000 -0.026135 -1.570888
    1 -3.495281 -0.089846 0.000000 -1.570795 -1.570451 0.000000
    2 3.928664 0.383633 0.000004 -0.000004 -0.000001 0.347021
    3 3.442969 -0.003536 0.000000 0.012847 -0.002589 0.135174
    4 4.441442 -0.003536 0.000000 0.064122 -0.013626 0.213043
    5 4.441389 -0.003537 0.000000 0.152597 -0.037955 0.206095
    6 4.441391 -0.002040 0.000000 -0.000013 -0.026163 -0.249545
    7 0.039065 0.002036 1.614274 0.968306 -1.270263 2.450118
    8 5.073841 0.000000 0.000002 -0.787120 0.899992 -0.855192
    9 12.011117 0.000000 -0.000001 0.000000 0.000000 -0.787677
    10 10.249307 0.000000 0.000000 -1.391653 0.028316 0.254026
    11 1.183836 0.259443 -1.427523 -0.015253 0.341674 0.151353
    12 0.625233 0.000000 0.000000 0.000000 0.000000 0.061075
    13 1.041848 0.000000 0.000001 0.000000 0.000000 0.052345
    14 3.037806 -0.002122 -0.118180 0.004521 0.069540 0.174741
    15 1.172004 -0.000001 0.000000 0.000000 0.000000 0.331574
    16 1.160930 0.000000 0.000000 0.000000 0.000000 0.645747
    17 -0.039063 0.002045 -1.614274 0.988918 1.231649 4.359428
    18 4.700062 0.000000 -0.000002 0.983595 -0.600531 -1.404067
    19 12.049927 0.000000 0.000001 0.000000 0.000000 -0.674138
    20 10.340311 0.000001 0.000000 2.626548 0.149176 0.307000
    21 1.186625 0.034757 1.438863 -0.023040 -0.410634 0.371539
    22 0.607803 0.000000 0.000000 0.000000 0.000000 0.078501
    23 1.063061 0.000001 0.000000 0.000000 0.000000 0.078501
    24 2.950419 0.002914 0.177525 0.001119 0.025348 0.310054
    25 1.294388 0.000000 -0.000001 0.000000 0.000000 0.290280
    26 1.183920 0.000001 0.000000 0.000000 0.000000 0.558507
    27 2.738953 3.890889 0.113747 0.000034 -1.457373 2.940037
    28 0.000000 -1.023687 -1.922726 -0.035173 0.000000 0.000000
    29 0.000000 -0.558375 -1.804806 -0.510359 0.000000 0.000000
    30 0.000000 -0.325718 -1.929488 -0.105010 0.000000 0.000000
    31 0.000000 0.046531 -1.430430 0.067276 0.000000 0.000000
    32 0.000000 0.000000 -1.347565 -0.050504 0.000000 0.000000
    33 0.000000 -0.046531 -2.135521 0.072027 0.000000 0.000000
    34 0.000000 -0.279187 -2.151380 0.134581 0.000000 0.000000
    35 -3.829536 0.973312 3.416453 0.003134 -3.142233 -0.879194
    36 19.302956 0.000000 0.000000 0.000000 0.000000 -1.000053
    37 15.657714 0.000000 0.000000 -0.003111 -0.001069 0.450438
    38 3.741828 7.474068 0.000000 0.000000 0.000000 1.570796
    39 -3.829536 0.973330 -3.416451 0.004676 3.163801 -0.781035
    40 19.302958 0.000000 0.000000 0.000000 0.000000 -1.061529
    41 15.657715 0.000000 0.000000 0.006301 -0.021847 0.573882
    42 3.741828 7.351521 0.000000 0.000000 0.000000 1.570796
    43 2.562340 0.000000 0.000000 -0.241167 0.085180 0.215550
    44 8.541129 0.000000 0.000000 0.000000 0.000000 0.000000
    45 -7.351523 1.350579 0.144448 0.000001 -3.141591 -1.570794
    46 4.991368 -0.677071 0.532282 1.237053 -2.969057 -0.819481
  time 7
    0 -0.221744 -2.287604 34.390845 0.000000 -0.026135 -1.570888
    1 -3.553877 -0.089846 0.000000 -1.570795 -1.570451 0.000000
    2 3.928664 0.383633 0.000004 -0.000004 -0.000001 0.356736
    3 3.442969 -0.003536 0.000000 0.012847 -0.002589 0.135174
    4 4.441442 -0.003536 0.000000 0.064122 -0.013626 0.213043
    5 4.441389 -0.003537 0.000000 0.152597 -0.037955 0.206095
    6 4.441391 -0.002040 0.000000 -0.000013 -0.026163 -0.249545
    7 0.039065 0.002036 1.614274 0.968306 -1.270263 2.450118
    8 5.073841 0.000000 0.000002 -0.796549 0.892731 -0.865185
    9 12.011117 0.000000 -0.000001 0.000000 0.000000 -0.787677
    10 10.249307 0.000000 0.000000 -1.391653 0.028316 0.254026
    11 1.183836 0.259443 -1.427523 -0.015253 0.341674 0.151353
    12 0.625233 0.000000 0.000000 0.000000 0.000000 0.061075
    13 1.041848 0.000000 0.000001 0.000000 0.000000 0.052345
    14 3.037806 -0.002122 -0.118180 0.004521 0.069540 0.174741
    15 1.172004 -0.000001 0.000000 0.000000 0.000000 0.331574
    16 1.160930 0.000000 0.000000 0.000000 0.000000 0.645747
    17 -0.039063 0.002045 -1.614274 0.988918 1.231649 4.359428
    18 4.700062 0.000000 -0.000002 0.972076 -0.621698 -1.381438
    19 12.049927 0.000000 0.000001 0.000000 0.000000 -0.674138
    20 10.340311 0.000001 0.000000 2.612856 0.135847 0.309742
    21 1.186625 0.034757 1.438863 -0.023040 -0.410634 0.371539
    22 0.607803 0.000000 0.000000 0.000000 0.000000 0.078501
    23 1.063061 0.000001 0.000000 0.000000 0.000000 0.078501
    24 2.950419 0.002914 0.177525 0.000838 0.025360 0.298887
    25 1.294388 0.000000 -0.000001 0.000000 0.000000 0.296667
    26 1.183920 0.000001 0.000000 0.000000 0.000000 0.570475
    27 2.738953 3.890889 0.113747 0.000034 -1.457373 2.940037
    28 0.000000 -1.023687 -1.922726 -0.041062 0.000000 0.000000
    29 0.000000 -0.558375 -1.804806 -0.513980 0.000000 0.000000
    30 0.000000 -0.325718 -1.929488 -0.110877 0.000000 0.000000
    31 0.000000 0.046531 -1.430430 0.063601 0.000000 0.000000
    32 0.000000 0.000000 -1.347565 -0.061660 0.000000 0.000000
    33 0.000000 -0.046531 -2.135521 0.065902 0.000000 0.000000
    34 0.000000 -0.279187 -2.151380 0.127189 0.000000 0.000000
    35 -3.817817 1.012375 3.416453 0.003134 -3.142233 -0.890117
    36 19.302956 0.000000 0.000000 0.000000 0.000000 -0.999426
    37 15.657714 0.000000 0.000000 -0.003111 -0.001089 0.448601
    38 3.741828 7.474068 0.000000 0.000000 0.000000 1.570796
    39 -3.817817 1.012394 -3.416451 0.004676 3.163801 -0.792242
    40 19.302958 0.000000 0.000000 0.000000 0.000000 -1.061596
    41 15.657715 0.000000 0.000000 0.006301 -0.021847 0.572389
    42 3.741828 7.351521 0.000000 0.000000 0.000000 1.570796
    43 2.562340 0.000000 0.000000 -0.240668 0.087071 0.222397
    44 8.541129 0.000000 0.000000 0.000000 0.000000 0.000000
    45 -7.351523 1.350579 0.144448 0.000001 -3.141591 -1.570794
    46 4.991368 -0.677071 0.532282 1.237053 -2.969057 -0.819481
  time 8
    0 -0.221744 -2.287604 34.390845 0.000000 -0.026135 -1.570888
    1 -3.612473 -0.089846 0.000000 -1.570795 -1.570451 0.000000
    2 3.928664 0.383633 0.000004 -0.000004 -0.000001 0.366268
    3 3.442969 -0.003536 0.000000 0.012847 -0.002589 0.135174
    4 4.441442 -0.003536 0.000000 0.064122 -0.013626 0.213043
    5 4.441389 -0.003537 0.000000 0.152597 -0.037955 0.206095
    6 4.441391 -0.002040 0.000000 -0.000013 -0.026163 -0.249545
    7 0.039065 0.002036 1.614274 0.968306 -1.270263 2.450118
    8 5.073841 0.000000 0.000002 -0.805622 0.885544 -0.874773
    9 12.011117 0.000000 -0.000001 0.000000 0.000000 -0.787677
    10 10.249307 0.000000 0.000000 -1.391653 0.028316 0.254026
    11 1.183836 0.259443 -1.427523 -0.015253 0.341674 0.151353
    12 0.625233 0.000000 0.000000 0.000000 0.000000 0.061075
    13 1.041848 0.000000 0.000001 0.000000 0.000000 0.052345
    14 3.037806 -0.002122 -0.118180 0.004521 0.069540 0.174741
    15 1.172004 -0.000001 0.000000 0.000000 0.000000 0.331574
    16 1.160930 0.000000 0.000000 0.000000 0.000000 0.645747
    17 -0.039063 0.002045 -1.614274 0.988918 1.231649 4.359428
    18 4.700062 0.000000 -0.000002 0.960556 -0.641353 -1.359448
    19 12.049927 0.000000 0.000001 0.000000 0.000000 -0.674138
    20 10.340311 0.000001 0.000000 2.599954 0.123303 0.312438
    21 1.186625 0.034757 1.438863 -0.023040 -0.410634 0.371539
    22 0.607803 0.000000 0.000000 0.000000 0.000000 0.078501
    23 1.063061 0.000001 0.000000 0.000000 0.000000 0.078501
    24 2.950419 0.002914 0.177525 0.000569 0.025372 0.288351
    25 1.294388 0.000000 -0.000001 0.000000 0.000000 0.302693
    26 1.183920 0.000001 0.000000 0.000000 0.000000 0.581765
    27 2.738953 3.890889 0.113747 0.000034 -1.457373 2.940037
    28 0.000000 -1.023687 -1.922726 -0.046461 0.000000 0.000000
    29 0.000000 -0.558375 -1.804806 -0.517230 0.000000 0.000000
    30 0.000000 -0.325718 -1.929488 -0.116280 0.000000 0.000000
    31 0.000000 0.046531 -1.430430 0.059886 0.000000 0.000000
    32 0.000000 0.000000 -1.347565 -0.076953 0.000000 0.000000
    33 0.000000 -0.046531 -2.135521 0.053538 0.000000 0.000000
    34 0.000000 -0.279187 -2.151380 0.119796 0.000000 0.000000
    35 -3.810004 1.047533 3.416453 0.003134 -3.142233 -0.901090
    36 19.302956 0.000000 0.000000 0.000000 0.000000 -0.998675
    37 15.657714 0.000000 0.000000 -0.003111 -0.001089 0.446431
    38 3.741828 7.474068 0.000000 0.000000 0.000000 1.570796
    39 -3.810004 1.047551 -3.416451 0.004676 3.163801 -0.803599
    40 19.302958 0.000000 0.000000 0.000000 0.000000 -1.061663
    41 15.657715 0.000000 0.000000 0.006301 -0.021823 0.570662
    42 3.741828 7.351521 0.000000 0.000000 0.000000 1.570796
    43 2.562340 0.000000 0.000000 -0.240124 0.088907 0.229134
    44 8.541129 0.000000 0.000000 0.000000 0.000000 0.000000
    45 -7.351523 1.350579 0.144448 0.000001 -3.141591 -1.570794
    46 4.991368 -0.677071 0.532282 1.237053 -2.969057 -0.819481
  time 9
    0 -0.221744 -2.287604 34.390845 0.000000 -0.026135 -1.570888
    1 -3.667162 -0.089846 0.000000 -1.570795 -1.570451 0.000000
    2 3.928664 0.383633 0.000004 -0.000004 -0.000001 0.375549
    3 3.442969 -0.003536 0.000000 0.012847 -0.002589 0.135174
    4 4.441442 -0.003536 0.000000 0.064122 -0.013626 0.213043
    5 4.441389 -0.003537 0.000000 0.152597 -0.037955 0.206095
    6 4.441391 -0.002040 0.000000 -0.000013 -0.026163 -0.249545
    7 0.039065 0.002036 1.614274 0.968306 -1.270263 2.450118
    8 5.073841 0.000000 0.000002 -0.814266 0.878503 -0.883888
    9 12.011117 0.000000 -0.000001 0.000000 0.000000 -0.787677
    10 10.249307 0.000000 0.000000 -1.391653 0.028316 0.254026
    11 1.183836 0.259443 -1.427523 -0.015253 0.341674 0.151353
    12 0.625233 0.000000 0.000000 0.000000 0.000000 0.061075
    13 1.041848 0.000000 0.000001 0.000000 0.000000 0.052345
    14 3.037806 -0.002122 -0.118180 0.004521 0.069540 0.174741
    15 1.172004 -0.000001 0.000000 0.000000 0.000000 0.331574
    16 1.160930 0.000000 0.000000 0.000000 0.000000 0.645747
    17 -0.039063 0.002045 -1.614274 0.988918 1.231649 4.359428
    18 4.700062 0.000000 -0.000002 0.949693 -0.658740 -1.338978
    19 12.049927 0.000000 0.000001 0.000000 0.000000 -0.674138
    20 10.340311 0.000001 0.000000 2.588106 0.111873 0.315090
    21 1.186625 0.034757 1.438863 -0.023040 -0.410634 0.371539
    22 0.607803 0.000000 0.000000 0.000000 0.000000 0.078501
    23 1.063061 0.000001 0.000000 0.000000 0.000000 0.078501
    24 2.950419 0.002914 0.177525 0.000325 0.025372 0.278659
    25 1.294388 0.000000 -0.000001 0.000000 0.000000 0.308255
    26 1.183920 0.000001 0.000000 0.000000 0.000000 0.592129
    27 2.738953 3.890889 0.113747 0.000034 -1.457373 2.940037
    28 0.000000 -1.023687 -1.922726 -0.051271 0.000000 0.000000
    29 0.000000 -0.558375 -1.804806 -0.520020 0.000000 0.000000
    30 0.000000 -0.325718 -1.929488 -0.121092 0.000000 0.000000
    31 0.000000 0.046531 -1.430430 0.056211 0.000000 0.000000
    32 0.000000 0.000000 -1.347565 -0.094709 0.000000 0.000000
    33 0.000000 -0.046531 -2.135521 0.036862 0.000000 0.000000
    34 0.000000 -0.279187 -2.151380 0.112428 0.000000 0.000000
    35 -3.798285 1.082690 3.416453 0.003134 -3.142233 -0.912062
    36 19.302956 0.000000 0.000000 0.000000 0.000000 -0.997672
    37 15.657714 0.000000 0.000000 -0.003111 -0.001089 0.443718
    38 3.741828 7.474068 0.000000 0.000000 0.000000 1.570796
    39 -3.798285 1.082708 -3.416451 0.004772 3.163801 -0.815105
    40 19.302958 0.000000 0.000000 0.000000 0.000000 -1.061663
    41 15.657715 0.000000 0.000000 0.006301 -0.021823 0.568469
    42 3.741828 7.351521 0.000000 0.000000 0.000000 1.570796
    43 2.562340 0.000000 0.000000 -0.239580 0.090715 0.235648
    44 8.541129 0.000000 0.000000 0.000000 0.000000 0.000000
    45 -7.351523 1.350579 0.144448 0.000001 -3.141591 -1.570794
    46 4.991368 -0.677071 0.532282 1.237053 -2.969057 -0.819481
  time 10
    0 -0.221744 -2.287604 34.390845 0.000000 -0.026135 -1.570888
    1 -3.717945 -0.089846 0.000000 -1.570795 -1.570451 0.000000
    2 3.928664 0.383633 0.000004 -0.000004 -0.000001 0.384443
    3 3.442969 -0.003536 0.000000 0.012847 -0.002589 0.135174
    4 4.441442 -0.003536 0.000000 0.064122 -0.013626 0.213043
    5 4.441389 -0.003537 0.000000 0.152597 -0.037955 0.206095
    6 4.441391 -0.002040 0.000000 -0.000013 -0.026163 -0.249545
    7 0.039065 0.002036 1.614274 0.968306 -1.270263 2.450118
    8 5.073841 0.000000 0.000002 -0.822410 0.871682 -0.892531
    9 12.011117 0.000000 -0.000001 0.000000 0.000000 -0.787677
    10 10.249307 0.000000 0.000000 -1.391653 0.028316 0.254026
    11 1.183836 0.259443 -1.427523 -0.015253 0.341674 0.151353
    12 0.625233 0.000000 0.000000 0.000000 0.000000 0.061075
    13 1.041848 0.000000 0.000001 0.000000 0.000000 0.052345
    14 3.037806 -0.002122 -0.118180 0.004521 0.069540 0.174741
    15 1.172004 -0.000001 0.000000 0.000000 0.000000 0.331574
    16 1.160930 0.000000 0.000000 0.000000 0.000000 0.645747
    17 -0.039063 0.002045 -1.614274 0.988918 1.231649 4.359428
    18 4.700062 0.000000 -0.000002 0.940215 -0.672952 -1.321066
    19 12.049927 0.000000 0.000001 0.000000 0.000000 -0.674138
    20 10.340311 0.000001 0.000000 2.577706 0.101805 0.317517
    21 1.186625 0.034757 1.438863 -0.023040 -0.410634 0.371539
    22 0.607803 0.000000 0.000000 0.000000 0.000000 0.078501
    23 1.063061 0.000001 0.000000 0.000000 0.000000 0.078501
    24 2.950419 0.002914 0.177525 0.000117 0.025372 0.270177
    25 1.294388 0.000000 -0.000001 0.000000 0.000000 0.313097
    26 1.183920 0.000001 0.000000 0.000000 0.000000 0.601260
    27 2.738953 3.890889 0.113747 0.000034 -1.457373 2.940037
    28 0.000000 -1.023687 -1.922726 -0.055328 0.000000 0.000000
    29 0.000000 -0.558375 -1.804806 -0.522175 0.000000 0.000000
    30 0.000000 -0.325718 -1.929488 -0.125132 0.000000 0.000000
    31 0.000000 0.046531 -1.430430 0.052596 0.000000 0.000000
    32 0.000000 0.000000 -1.347565 -0.113256 0.000000 0.000000
    33 0.000000 -0.046531 -2.135521 0.017741 0.000000 0.000000
    34 0.000000 -0.279187 -2.151380 0.105207 0.000000 0.000000
    35 -3.790472 1.117847 3.416453 0.003134 -3.142233 -0.923035
    36 19.302956 0.000000 0.000000 0.000000 0.000000 -0.996545
    37 15.657714 0.000000 0.000000 -0.003111 -0.001109 0.440545
    38 3.741828 7.474068 0.000000 0.000000 0.000000 1.570796
    39 -3.790472 1.117866 -3.416451 0.004772 3.163705 -0.826611
    40 19.302958 0.000000 0.000000 0.000000 0.000000 -1.061730
    41 15.657715 0.000000 0.000000 0.006301 -0.021799 0.565856
    42 3.741828 7.351521 0.000000 0.000000 0.000000 1.570796
    43 2.562340 0.000000 0.000000 -0.239036 0.092439 0.241903
    44 8.541129 0.000000 0.000000 0.000000 0.000000 0.000000
    45 -7.351523 1.350579 0.144448 0.000001 -3.141591 -1.570794
    46 4.991368 -0.677071 0.532282 1.237053 -2.969057 -0.819481
  time 11
    0 -0.221744 -2.287604 34.390845 0.000000 -0.026135 -1.570888
    1 -3.768727 -0.089846 0.000000 -1.570795 -1.570451 0.000000
    2 3.928664 0.383633 0.000004 -0.000004 -0.000001 0.392858
    3 3.442969 -0.003536 0.000000 0.012847 -0.002589 0.135174
    4 4.441442 -0.003536 0.000000 0.064122 -0.013626 0.213043
    5 4.441389 -0.003537 0.000000 0.152597 -0.037955 0.206095
    6 4.441391 -0.002040 0.000000 -0.000013 -0.026163 -0.249545
    7 0.039065 0.002036 1.614274 0.968306 -1.270263 2.450118
    8 5.073841 0.000000 0.000002 -0.829911 0.865228 -0.900498
    9 12.011117 0.000000 -0.000001 0.000000 0.000000 -0.787677
    10 10.249307 0.000000 0.000000 -1.391653 0.028316 0.254026
    11 1.183836 0.259443 -1.427523 -0.015253 0.341674 0.151353
    12 0.625233 0.000000 0.000000 0.000000 0.000000 0.061075
    13 1.041848 0.000000 0.000001 0.000000 0.000000 0.052345
    14 3.037806 -0.002122 -0.118180 0.004521 0.069540 0.174741
    15 1.172004 -0.000001 0.000000 0.000000 0.000000 0.331574
    16 1.160930 0.000000 0.000000 0.000000 0.000000 0.645747
    17 -0.039063 0.002045 -1.614274 0.988918 1.231649 4.359428
    18 4.700062 0.000000 -0.000002 0.932633 -0.683535 -1.306433
    19 12.049927 0.000000 0.000001 0.000000 0.000000 -0.674138
    20 10.340311 0.000001 0.000000 2.569017 0.093428 0.319584
    21 1.186625 0.034757 1.438863 -0.023040 -0.410634 0.371539
    22 0.607803 0.000000 0.000000 0.000000 0.000000 0.078501
    23 1.063061 0.000001 0.000000 0.000000 0.000000 0.078501
    24 2.950419 0.002914 0.177525 -0.000067 0.025372 0.263066
    25 1.294388 0.000000 -0.000001 0.000000 0.000000 0.317114
    26 1.183920 0.000001 0.000000 0.000000 0.000000 0.608848
    27 2.738953 3.890889 0.113747 0.000034 -1.457373 2.940037
    28 0.000000 -1.023687 -1.922726 -0.058404 0.000000 0.000000
    29 0.000000 -0.558375 -1.804806 -0.523570 0.000000 0.000000
    30 0.000000 -0.325718 -1.929488 -0.128219 0.000000 0.000000
    31 0.000000 0.046531 -1.430430 0.049062 0.000000 0.000000
    32 0.000000 0.000000 -1.347565 -0.130943 0.000000 0.000000
    33 0.000000 -0.046531 -2.135521 -0.001840 0.000000 0.000000
    34 0.000000 -0.279187 -2.151380 0.098133 0.000000 0.000000
    35 -3.778753 1.149098 3.416453 0.003134 -3.142233 -0.933310
    36 19.302956 0.000000 0.000000 0.000000 0.000000 -0.995418
    37 15.657714 0.000000 0.000000 -0.003111 -0.001109 0.437498
    38 3.741828 7.474068 0.000000 0.000000 0.000000 1.570796
    39 -3.778753 1.149117 -3.416451 0.004868 3.163705 -0.837469
    40 19.302958 0.000000 0.000000 0.000000 0.000000 -1.061730
    41 15.657715 0.000000 0.000000 0.006301 -0.021799 0.563430
    42 3.741828 7.351521 0.000000 0.000000 0.000000 1.570796
    43 2.562340 0.000000 0.000000 -0.238537 0.094052 0.247826
    44 8.541129 0.000000 0.000000 0.000000 0.000000 0.000000
    45 -7.351523 1.350579 0.144448 0.000001 -3.141591 -1.570794
    46 4.991368 -0.677071 0.532282 1.237053 -2.969057 -0.819481
  time 12
    0 -0.221744 -2.287604 34.390845 0.000000 -0.026135 -1.570888
    1 -3.745289 -0.089846 0.000000 -1.570795 -1.570451 0.000000
    2 3.928664 0.383633 0.000004 -0.000004 -0.000001 0.389164
    3 3.442969 -0.003536 0.000000 0.012847 -0.002589 0.135174
    4 4.441442 -0.003536 0.000000 0.064122 -0.013626 0.213043
    5 4.441389 -0.003537 0.000000 0.152597 -0.037955 0.206095
    6 4.441391 -0.002040 0.000000 -0.000013 -0.026163 -0.249545
    7 0.039065 0.002036 1.614274 0.968306 -1.270263 2.450118
    8 5.073841 0.000000 0.000002 -0.826625 0.868089 -0.897055
    9 12.011117 0.000000 -0.000001 0.000000 0.000000 -0.787677
    10 10.249307 0.000000 0.000000 -1.391653 0.028316 0.254026
    11 1.183836 0.259443 -1.427523 -0.015253 0.341674 0.151353
    12 0.625233 0.000000 0.000000 0.000000 0.000000 0.061075
    13 1.041848 0.000000 0.000001 0.000000 0.000000 0.052345
    14 3.037806 -0.002122 -0.118180 0.004521 0.069540 0.174741
    15 1.172004 -0.000001 0.000000 0.000000 0.000000 0.331574
    16 1.160930 0.000000 0.000000 0.000000 0.000000 0.645747
    17 -0.039063 0.002045 -1.614274 0.988918 1.231649 4.359428
    18 4.700062 0.000000 -0.000002 0.938247 -0.675068 -1.316509
    19 12.049927 0.000000 0.000001 0.000000 0.000000 -0.674138
    20 10.340311 0.000001 0.000000 2.562369 0.087115 0.321247
    21 1.186625 0.034757 1.438863 -0.023040 -0.410634 0.371539
    22 0.607803 0.000000 0.000000 0.000000 0.000000 0.078501
    23 1.063061 0.000001 0.000000 0.000000 0.000000 0.078501
    24 2.950419 0.002914 0.177525 -0.000201 0.025372 0.257693
    25 1.294388 0.000000 -0.000001 0.000000 0.000000 0.320204
    26 1.183920 0.000001 0.000000 0.000000 0.000000 0.614585
    27 2.738953 3.890889 0.113747 0.000034 -1.457373 2.940037
    28 0.000000 -1.023687 -1.922726 -0.060367 0.000000 0.000000
    29 0.000000 -0.558375 -1.804806 -0.524082 0.000000 0.000000
    30 0.000000 -0.325718 -1.929488 -0.130201 0.000000 0.000000
    31 0.000000 0.046531 -1.430430 0.045668 0.000000 0.000000
    32 0.000000 0.000000 -1.347565 -0.146120 0.000000 0.000000
    33 0.000000 -0.046531 -2.135521 -0.020041 0.000000 0.000000
    34 0.000000 -0.279187 -2.151380 0.091328 0.000000 0.000000
    35 -3.782660 1.133473 3.416453 0.003134 -3.142233 -0.928970
    36 19.302956 0.000000 0.000000 0.000000 0.000000 -0.995793
    37 15.657714 0.000000 0.000000 -0.003111 -0.001109 0.438584
    38 3.741828 7.474068 0.000000 0.000000 0.000000 1.570796
    39 -3.782660 1.133491 -3.416451 0.004868 3.163705 -0.832936
    40 19.302958 0.000000 0.000000 0.000000 0.000000 -1.061730
    41 15.657715 0.000000 0.000000 0.006301 -0.021799 0.564270
    42 3.741828 7.351521 0.000000 0.000000 0.000000 1.570796
    43 2.562340 0.000000 0.000000 -0.238764 0.093356 0.245198
    44 8.541129 0.000000 0.000000 0.000000 0.000000 0.000000
    45 -7.351523 1.350579 0.144448 0.000001 -3.141591 -1.570794
    46 4.991368 -0.677071 0.532282 1.237053 -2.969057 -0.819481
  time 13
    0 -0.221744 -2.287604 34.390845 0.000000 -0.026135 -1.570888
    1 -3.717945 -0.089846 0.000000 -1.570795 -1.570451 0.000000
    2 3.928664 0.383633 0.000004 -0.000004 -0.000001 0.384124
    3 3.442969 -0.003536 0.000000 0.012847 -0.002589 0.135174
    4 4.441442 -0.003536 0.000000 0.064122 -0.013626 0.213043
    5 4.441389 -0.003537 0.000000 0.152597 -0.037955 0.206095
    6 4.441391 -0.002040 0.000000 -0.000013 -0.026163 -0.249545
    7 0.039065 0.002036 1.614274 0.968306 -1.270263 2.450118
    8 5.073841 0.000000 0.000002 -0.822053 0.871902 -0.892193
    9 12.011117 0.000000 -0.000001 0.000000 0.000000 -0.787677
    10 10.249307 0.000000 0.000000 -1.391653 0.028316 0.254026
    11 1.183836 0.259443 -1.427523 -0.015253 0.341674 0.151353
    12 0.625233 0.000000 0.000000 0.000000 0.000000 0.061075
    13 1.041848 0.000000 0.000001 0.000000 0.000000 0.052345
    14 3.037806 -0.002122 -0.118180 0.004521 0.069540 0.174741
    15 1.172004 -0.000001 0.000000 0.000000 0.000000 0.331574
    16 1.160930 0.000000 0.000000 0.000000 0.000000 0.645747
    17 -0.039063 0.002045 -1.614274 0.988918 1.231649 4.359428
    18 4.700062 0.000000 -0.000002 0.952099 -0.651936 -1.340417
    19 12.049927 0.000000 0.000001 0.000000 0.000000 -0.674138
    20 10.340311 0.000001 0.000000 2.558156 0.083071 0.322326
    21 1.186625 0.034757 1.438863 -0.023040 -0.410634 0.371539
    22 0.607803 0.000000 0.000000 0.000000 0.000000 0.078501
    23 1.063061 0.000001 0.000000 0.000000 0.000000 0.078501
    24 2.950419 0.002914 0.177525 -0.000287 0.025372 0.254269
    25 1.294388 0.000000 -0.000001 0.000000 0.000000 0.322161
    26 1.183920 0.000001 0.000000 0.000000 0.000000 0.618287
    27 2.738953 3.890889 0.113747 0.000034 -1.457373 2.940037
    28 0.000000 -1.023687 -1.922726 -0.061087 0.000000 0.000000
    29 0.000000 -0.558375 -1.804806 -0.523588 0.000000 0.000000
    30 0.000000 -0.325718 -1.929488 -0.130896 0.000000 0.000000
    31 0.000000 0.046531 -1.430430 0.042414 0.000000 0.000000
    32 0.000000 0.000000 -1.347565 -0.157067 0.000000 0.000000
    33 0.000000 -0.046531 -2.135521 -0.034906 0.000000 0.000000
    34 0.000000 -0.279187 -2.151380 0.084841 0.000000 0.000000
    35 -3.790472 1.113941 3.416453 0.003134 -3.142233 -0.922786
    36 19.302956 0.000000 0.000000 0.000000 0.000000 -0.996482
    37 15.657714 0.000000 0.000000 -0.003111 -0.001109 0.440337
    38 3.741828 7.474068 0.000000 0.000000 0.000000 1.570796
    39 -3.790472 1.113959 -3.416451 0.004772 3.163705 -0.826461
    40 19.302958 0.000000 0.000000 0.000000 0.000000 -1.061730
    41 15.657715 0.000000 0.000000 0.006301 -0.021799 0.565716
    42 3.741828 7.351521 0.000000 0.000000 0.000000 1.570796
    43 2.562340 0.000000 0.000000 -0.239081 0.092355 0.241681
    44 8.541129 0.000000 0.000000 0.000000 0.000000 0.000000
    45 -7.351523 1.350579 0.144448 0.000001 -3.141591 -1.570794
    46 4.991368 -0.677071 0.532282 1.237053 -2.969057 -0.819481
  time 14
    0 -0.221744 -2.287604 34.390845 0.000000 -0.026135 -1.570888
    1 -3.686694 -0.089846 0.000000 -1.570795 -1.570451 0.000000
    2 3.928664 0.383633 0.000004 -0.000004 -0.000001 0.379061
    3 3.442969 -0.003536 0.000000 0.012847 -0.002589 0.135174
    4 4.441442 -0.003536 0.000000 0.064122 -0.013626 0.213043
    5 4.441389 -0.003537 0.000000 0.152597 -0.037955 0.206095
    6 4.441391 -0.002040 0.000000 -0.000013 -0.026163 -0.249545
    7 0.039065 0.002036 1.614274 0.968306 -1.270263 2.450118
    8 5.073841 0.000000 0.000002 -0.817481 0.875789 -0.887332
    9 12.011117 0.000000 -0.000001 0.000000 0.000000 -0.787677
    10 10.249307 0.000000 0.000000 -1.391653 0.028316 0.254026
    11 1.183836 0.259443 -1.427523 -0.015253 0.341674 0.151353
    12 0.625233 0.000000 0.000000 0.000000 0.000000 0.061075
    13 1.041848 0.000000 0.000001 0.000000 0.000000 0.052345
    14 3.037806 -0.002122 -0.118180 0.004521 0.069540 0.174741
    15 1.172004 -0.000001 0.000000 0.000000 0.000000 0.331574
    16 1.160930 0.000000 0.000000 0.000000 0.000000 0.645747
    17 -0.039063 0.002045 -1.614274 0.988918 1.231649 4.359428
    18 4.700062 0.000000 -0.000002 0.965004 -0.628804 -1.363447
    19 12.049927 0.000000 0.000001 0.000000 0.000000 -0.674138
    20 10.340311 0.000001 0.000000 2.556708 0.081668 0.322685
    21 1.186625 0.034757 1.438863 -0.023040 -0.410634 0.371539
    22 0.607803 0.000000 0.000000 0.000000 0.000000 0.078501
    23 1.063061 0.000001 0.000000 0.000000 0.000000 0.078501
    24 2.950419 0.002914 0.177525 -0.000324 0.025372 0.253057
    25 1.294388 0.000000 -0.000001 0.000000 0.000000 0.322882
    26 1.183920 0.000001 0.000000 0.000000 0.000000 0.619583
    27 2.738953 3.890889 0.113747 0.000034 -1.457373 2.940037
    28 0.000000 -1.023687 -1.922726 -0.060661 0.000000 0.000000
    29 0.000000 -0.558375 -1.804806 -0.520974 0.000000 0.000000
    30 0.000000 -0.325718 -1.929488 -0.130484 0.000000 0.000000
    31 0.000000 0.046531 -1.430430 0.039382 0.000000 0.000000
    32 0.000000 0.000000 -1.347565 -0.164945 0.000000 0.000000
    33 0.000000 -0.046531 -2.135521 -0.048104 0.000000 0.000000
    34 0.000000 -0.279187 -2.151380 0.078771 0.000000 0.000000
    35 -3.794379 1.094409 3.416453 0.003134 -3.142233 -0.916402
    36 19.302956 0.000000 0.000000 0.000000 0.000000 -0.997234
    37 15.657714 0.000000 0.000000 -0.003111 -0.001089 0.442507
    38 3.741828 7.474068 0.000000 0.000000 0.000000 1.570796
    39 -3.794379 1.094428 -3.416451 0.004772 3.163705 -0.819637
    40 19.302958 0.000000 0.000000 0.000000 0.000000 -1.061730
    41 15.657715 0.000000 0.000000 0.006301 -0.021823 0.567489
    42 3.741828 7.351521 0.000000 0.000000 0.000000 1.570796
    43 2.562340 0.000000 0.000000 -0.239399 0.091382 0.238091
    44 8.541129 0.000000 0.000000 0.000000 0.000000 0.000000
    45 -7.351523 1.350579 0.144448 0.000001 -3.141591 -1.570794
    46 4.991368 -0.677071 0.532282 1.237053 -2.969057 -0.819481
  time 15
    0 -0.221744 -2.287604 34.390845 0.000000 -0.026135 -1.570888
    1 -3.655443 -0.089846 0.000000 -1.570795 -1.570451 0.000000
    2 3.928664 0.383633 0.000004 -0.000004 -0.000001 0.373999
    3 3.442969 -0.003536 0.000000 0.012847 -0.002589 0.135174
    4 4.441442 -0.003536 0.000000 0.064122 -0.013626 0.213043
    5 4.441389 -0.003537 0.000000 0.152597 -0.037955 0.206095
    6 4.441391 -0.002040 0.000000 -0.000013 -0.026163 -0.249545
    7 0.039065 0.002036 1.614274 0.968306 -1.270263 2.450118
    8 5.073841 0.000000 0.000002 -0.812837 0.879676 -0.882403
    9 12.011117 0.000000 -0.000001 0.000000 0.000000 -0.787677
    10 10.249307 0.000000 0.000000 -1.391653 0.028316 0.254026
    11 1.183836 0.259443 -1.427523 -0.015253 0.341674 0.151353
    12 0.625233 0.000000 0.000000 0.000000 0.000000 0.061075
    13 1.041848 0.000000 0.000001 0.000000 0.000000 0.052345
    14 3.037806 -0.002122 -0.118180 0.004521 0.069540 0.174741
    15 1.172004 -0.000001 0.000000 0.000000 0.000000 0.331574
    16 1.160930 0.000000 0.000000 0.000000 0.000000 0.645747
    17 -0.039063 0.002045 -1.614274 0.988918 1.231649 4.359428
    18 4.700062 0.000000 -0.000002 0.976961 -0.605671 -1.385516
    19 12.049927 0.000000 0.000001 0.000000 0.000000 -0.674138
    20 10.340311 0.000001 0.000000 2.557827 0.082741 0.322416
    21 1.186625 0.034757 1.438863 -0.023040 -0.410634 0.371539
    22 0.607803 0.000000 0.000000 0.000000 0.000000 0.078501
    23 1.063061 0.000001 0.000000 0.000000 0.000000 0.078501
    24 2.950419 0.002914 0.177525 -0.000299 0.025372 0.254006
    25 1.294388 0.000000 -0.000001 0.000000 0.000000 0.322316
    26 1.183920 0.000001 0.000000 0.000000 0.000000 0.618596
    27 2.738953 3.890889 0.113747 0.000034 -1.457373 2.940037
    28 0.000000 -1.023687 -1.922726 -0.059483 0.000000 0.000000
    29 0.000000 -0.558375 -1.804806 -0.515693 0.000000 0.000000
    30 0.000000 -0.325718 -1.929488 -0.129300 0.000000 0.000000
    31 0.000000 0.046531 -1.430430 0.036550 0.000000 0.000000
    32 0.000000 0.000000 -1.347565 -0.171918 0.000000 0.000000
    33 0.000000 -0.046531 -2.135521 -0.062222 0.000000 0.000000
    34 0.000000 -0.279187 -2.151380 0.073116 0.000000 0.000000
    35 -3.798285 1.074877 3.416453 0.003134 -3.142233 -0.909868
    36 19.302956 0.000000 0.000000 0.000000 0.000000 -0.998048
    37 15.657714 0.000000 0.000000 -0.003111 -0.001089 0.444761
    38 3.741828 7.474068 0.000000 0.000000 0.000000 1.570796
    39 -3.798285 1.074896 -3.416451 0.004772 3.163801 -0.812714
    40 19.302958 0.000000 0.000000 0.000000 0.000000 -1.061663
    41 15.657715 0.000000 0.000000 0.006301 -0.021823 0.569309
    42 3.741828 7.351521 0.000000 0.000000 0.000000 1.570796
    43 2.562340 0.000000 0.000000 -0.239671 0.090409 0.234538
    44 8.541129 0.000000 0.000000 0.000000 0.000000 0.000000
    45 -7.351523 1.350579 0.144448 0.000001 -3.141591 -1.570794
    46 4.991368 -0.677071 0.532282 1.237053 -2.969057 -0.819481
  time 16
    0 -0.221744 -2.287604 34.390845 0.000000 -0.026135 -1.570888
    1 -3.628098 -0.089846 0.000000 -1.570795 -1.570451 0.000000
    2 3.928664 0.383633 0.000004 -0.000004 -0.000001 0.368936
    3 3.442969 -0.003536 0.000000 0.012847 -0.002589 0.135174
    4 4.441442 -0.003536 0.000000 0.064122 -0.013626 0.213043
    5 4.441389 -0.003537 0.000000 0.152597 -0.037955 0.206095
    6 4.441391 -0.002040 0.000000 -0.000013 -0.026163 -0.249545
    7 0.039065 0.002036 1.614274 0.968306 -1.270263 2.450118
    8 5.073841 0.000000 0.000002 -0.808122 0.883564 -0.877406
    9 12.011117 0.000000 -0.000001 0.000000 0.000000 -0.787677
    10 10.249307 0.000000 0.000000 -1.391653 0.028316 0.254026
    11 1.183836 0.259443 -1.427523 -0.015253 0.341674 0.151353
    12 0.625233 0.000000 0.000000 0.000000 0.000000 0.061075
    13 1.041848 0.000000 0.000001 0.000000 0.000000 0.052345
    14 3.037806 -0.002122 -0.118180 0.004521 0.069540 0.174741
    15 1.172004 -0.000001 0.000000 0.000000 0.000000 0.331574
    16 1.160930 0.000000 0.000000 0.000000 0.000000 0.645747
    17 -0.039063 0.002045 -1.614274 0.988918 1.231649 4.359428
    18 4.700062 0.000000 -0.000002 0.988115 -0.582690 -1.406706
    19 12.049927 0.000000 0.000001 0.000000 0.000000 -0.674138
    20 10.340311 0.000001 0.000000 2.561118 0.085877 0.321562
    21 1.186625 0.034757 1.438863 -0.023040 -0.410634 0.371539
    22 0.607803 0.000000 0.000000 0.000000 0.000000 0.078501
    23 1.063061 0.000001 0.000000 0.000000 0.000000 0.078501
    24 2.950419 0.002914 0.177525 -0.000226 0.025372 0.256639
    25 1.294388 0.000000 -0.000001 0.000000 0.000000 0.320822
    26 1.183920 0.000001 0.000000 0.000000 0.000000 0.615696
    27 2.738953 3.890889 0.113747 0.000034 -1.457373 2.940037
    28 0.000000 -1.023687 -1.922726 -0.057586 0.000000 0.000000
    29 0.000000 -0.558375 -1.804806 -0.508505 0.000000 0.000000
    30 0.000000 -0.325718 -1.929488 -0.127422 0.000000 0.000000
    31 0.000000 0.046531 -1.430430 0.034000 0.000000 0.000000
    32 0.000000 0.000000 -1.347565 -0.177845 0.000000 0.000000
    33 0.000000 -0.046531 -2.135521 -0.076599 0.000000 0.000000
    34 0.000000 -0.279187 -2.151380 0.068025 0.000000 0.000000
    35 -3.806098 1.055345 3.416453 0.003134 -3.142233 -0.903384
    36 19.302956 0.000000 0.000000 0.000000 0.000000 -0.998862
    37 15.657714 0.000000 0.000000 -0.003111 -0.001089 0.446974
    38 3.741828 7.474068 0.000000 0.000000 0.000000 1.570796
    39 -3.806098 1.055364 -3.416451 0.004676 3.163801 -0.805790
    40 19.302958 0.000000 0.000000 0.000000 0.000000 -1.061663
    41 15.657715 0.000000 0.000000 0.006301 -0.021823 0.571082
    42 3.741828 7.351521 0.000000 0.000000 0.000000 1.570796
    43 2.562340 0.000000 0.000000 -0.239988 0.089435 0.230948
    44 8.541129 0.000000 0.000000 0.000000 0.000000 0.000000
    45 -7.351523 1.350579 0.144448 0.000001 -3.141591 -1.570794
    46 4.991368 -0.677071 0.532282 1.237053 -2.969057 -0.819481
  time 17
    0 -0.221744 -2.287604 34.390845 0.000000 -0.026135 -1.570888
    1 -3.596847 -0.089846 0.000000 -1.570795 -1.570451 0.000000
    2 3.928664 0.383633 0.000004 -0.000004 -0.000001 0.363851
    3 3.442969 -0.003536 0.000000 0.012847 -0.002589 0.135174
    4 4.441442 -0.003536 0.000000 0.064122 -0.013626 0.213043
    5 4.441389 -0.003537 0.000000 0.152597 -0.037955 0.206095
    6 4.441391 -0.002040 0.000000 -0.000013 -0.026163 -0.249545
    7 0.039065 0.002036 1.614274 0.968306 -1.270263 2.450118
    8 5.073841 0.000000 0.000002 -0.803336 0.887377 -0.872342
    9 12.011117 0.000000 -0.000001 0.000000 0.000000 -0.787677
    10 10.249307 0.000000 0.000000 -1.391653 0.028316 0.254026
    11 1.183836 0.259443 -1.427523 -0.015253 0.341674 0.151353
    12 0.625233 0.000000 0.000000 0.000000 0.000000 0.061075
    13 1.041848 0.000000 0.000001 0.000000 0.000000 0.052345
    14 3.037806 -0.002122 -0.118180 0.004521 0.069540 0.174741
    15 1.172004 -0.000001 0.000000 0.000000 0.000000 0.331574
    16 1.160930 0.000000 0.000000 0.000000 0.000000 0.645747
    17 -0.039063 0.002045 -1.614274 0.988918 1.231649 4.359428
    18 4.700062 0.000000 -0.000002 0.998395 -0.559860 -1.427017
    19 12.049927 0.000000 0.000001 0.000000 0.000000 -0.674138
    20 10.340311 0.000001 0.000000 2.566252 0.090829 0.320258
    21 1.186625 0.034757 1.438863 -0.023040 -0.410634 0.371539
    22 0.607803 0.000000 0.000000 0.000000 0.000000 0.078501
    23 1.063061 0.000001 0.000000 0.000000 0.000000 0.078501
    24 2.950419 0.002914 0.177525 -0.000128 0.025372 0.260854
    25 1.294388 0.000000 -0.000001 0.000000 0.000000 0.318402
    26 1.183920 0.000001 0.000000 0.000000 0.000000 0.611192
    27 2.738953 3.890889 0.113747 0.000034 -1.457373 2.940037
    28 0.000000 -1.023687 -1.922726 -0.055099 0.000000 0.000000
    29 0.000000 -0.558375 -1.804806 -0.500097 0.000000 0.000000
    30 0.000000 -0.325718 -1.929488 -0.124926 0.000000 0.000000
    31 0.000000 0.046531 -1.430430 0.031750 0.000000 0.000000
    32 0.000000 0.000000 -1.347565 -0.182563 0.000000 0.000000
    33 0.000000 -0.046531 -2.135521 -0.090688 0.000000 0.000000
    34 0.000000 -0.279187 -2.151380 0.063521 0.000000 0.000000
    35 -3.810004 1.039720 3.416453 0.003134 -3.142233 -0.896900
    36 19.302956 0.000000 0.000000 0.000000 0.000000 -0.999614
    37 15.657714 0.000000 0.000000 -0.003111 -0.001089 0.449061
    38 3.741828 7.474068 0.000000 0.000000 0.000000 1.570796
    39 -3.810004 1.039738 -3.416451 0.004676 3.163801 -0.798967
    40 19.302958 0.000000 0.000000 0.000000 0.000000 -1.061596
    41 15.657715 0.000000 0.000000 0.006301 -0.021847 0.572809
    42 3.741828 7.351521 0.000000 0.000000 0.000000 1.570796
    43 2.562340 0.000000 0.000000 -0.240260 0.088434 0.227394
    44 8.541129 0.000000 0.000000 0.000000 0.000000 0.000000
    45 -7.351523 1.350579 0.144448 0.000001 -3.141591 -1.570794
    46 4.991368 -0.677071 0.532282 1.237053 -2.969057 -0.819481
  time 18
    0 -0.221744 -2.287604 34.390845 0.000000 -0.026135 -1.570888
    1 -3.565596 -0.089846 0.000000 -1.570795 -1.570451 0.000000
    2 3.928664 0.383633 0.000004 -0.000004 -0.000001 0.358743
    3 3.442969 -0.003536 0.000000 0.012847 -0.002589 0.135174
    4 4.441442 -0.003536 0.000000 0.064122 -0.013626 0.213043
    5 4.441389 -0.003537 0.000000 0.152597 -0.037955 0.206095
    6 4.441391 -0.002040 0.000000 -0.000013 -0.026163 -0.249545
    7 0.039065 0.002036 1.614274 0.968306 -1.270263 2.450118
    8 5.073841 0.000000 0.000002 -0.798478 0.891264 -0.867210
    9 12.011117 0.000000 -0.000001 0.000000 0.000000 -0.787677
    10 10.249307 0.000000 0.000000 -1.391653 0.028316 0.254026
    11 1.183836 0.259443 -1.427523 -0.015253 0.341674 0.151353
    12 0.625233 0.000000 0.000000 0.000000 0.000000 0.061075
    13 1.041848 0.000000 0.000001 0.000000 0.000000 0.052345
    14 3.037806 -0.002122 -0.118180 0.004521 0.069540 0.174741
    15 1.172004 -0.000001 0.000000 0.000000 0.000000 0.331574
    16 1.160930 0.000000 0.000000 0.000000 0.000000 0.645747
    17 -0.039063 0.002045 -1.614274 0.988918 1.231649 4.359428
    18 4.700062 0.000000 -0.000002 1.007873 -0.537484 -1.446368
    19 12.049927 0.000000 0.000001 0.000000 0.000000 -0.674138
    20 10.340311 0.000001 0.000000 2.573098 0.097390 0.318595
    21 1.186625 0.034757 1.438863 -0.023040 -0.410634 0.371539
    22 0.607803 0.000000 0.000000 0.000000 0.000000 0.078501
    23 1.063061 0.000001 0.000000 0.000000 0.000000 0.078501
    24 2.950419 0.002914 0.177525 0.000019 0.025372 0.266437
    25 1.294388 0.000000 -0.000001 0.000000 0.000000 0.315208
    26 1.183920 0.000001 0.000000 0.000000 0.000000 0.605270
    27 2.738953 3.890889 0.113747 0.000034 -1.457373 2.940037
    28 0.000000 -1.023687 -1.922726 -0.052056 0.000000 0.000000
    29 0.000000 -0.558375 -1.804806 -0.491231 0.000000 0.000000
    30 0.000000 -0.325718 -1.929488 -0.121864 0.000000 0.000000
    31 0.000000 0.046531 -1.430430 0.029823 0.000000 0.000000
    32 0.000000 0.000000 -1.347565 -0.186002 0.000000 0.000000
    33 0.000000 -0.046531 -2.135521 -0.103828 0.000000 0.000000
    34 0.000000 -0.279187 -2.151380 0.059678 0.000000 0.000000
    35 -3.817817 1.020188 3.416453 0.003134 -3.142233 -0.890566
    36 19.302956 0.000000 0.000000 0.000000 0.000000 -1.000240
    37 15.657714 0.000000 0.000000 -0.003111 -0.001069 0.450981
    38 3.741828 7.474068 0.000000 0.000000 0.000000 1.570796
    39 -3.817817 1.020207 -3.416451 0.004580 3.163801 -0.792292
    40 19.302958 0.000000 0.000000 0.000000 0.000000 -1.061529
    41 15.657715 0.000000 0.000000 0.006301 -0.021847 0.574349
    42 3.741828 7.351521 0.000000 0.000000 0.000000 1.570796
    43 2.562340 0.000000 0.000000 -0.240532 0.087461 0.223804
    44 8.541129 0.000000 0.000000 0.000000 0.000000 0.000000
    45 -7.351523 1.350579 0.144448 0.000001 -3.141591 -1.570794
    46 4.991368 -0.677071 0.532282 1.237053 -2.969057 -0.819481
  time 19
    0 -0.221744 -2.287604 34.390845 0.000000 -0.026135 -1.570888
    1 -3.534345 -0.089846 0.000000 -1.570795 -1.570451 0.000000
    2 3.928664 0.383633 0.000004 -0.000004 -0.000001 0.353634
    3 3.442969 -0.003536 0.000000 0.012847 -0.002589 0.135174
    4 4.441442 -0.003536 0.000000 0.064122 -0.013626 0.213043
    5 4.441389 -0.003537 0.000000 0.152597 -0.037955 0.206095
    6 4.441391 -0.002040 0.000000 -0.000013 -0.026163 -0.249545
    7 0.039065 0.002036 1.614274 0.968306 -1.270263 2.450118
    8 5.073841 0.000000 0.000002 -0.793621 0.895078 -0.862011
    9 12.011117 0.000000 -0.000001 0.000000 0.000000 -0.787677
    10 10.249307 0.000000 0.000000 -1.391653 0.028316 0.254026
    11 1.183836 0.259443 -1.427523 -0.015253 0.341674 0.151353
    12 0.625233 0.000000 0.000000 0.000000 0.000000 0.061075
    13 1.041848 0.000000 0.000001 0.000000 0.000000 0.052345
    14 3.037806 -0.002122 -0.118180 0.004521 0.069540 0.174741
    15 1.172004 -0.000001 0.000000 0.000000 0.000000 0.331574
    16 1.160930 0.000000 0.000000 0.000000 0.000000 0.645747
    17 -0.039063 0.002045 -1.614274 0.988918 1.231649 4.359428
    18 4.700062 0.000000 -0.000002 1.016549 -0.515788 -1.464679
    19 12.049927 0.000000 0.000001 0.000000 0.000000 -0.674138
    20 10.340311 0.000001 0.000000 2.581392 0.105395 0.316618
    21 1.186625 0.034757 1.438863 -0.023040 -0.410634 0.371539
    22 0.607803 0.000000 0.000000 0.000000 0.000000 0.078501
    23 1.063061 0.000001 0.000000 0.000000 0.000000 0.078501
    24 2.950419 0.002914 0.177525 0.000190 0.025372 0.273180
    25 1.294388 0.000000 -0.000001 0.000000 0.000000 0.311345
    26 1.183920 0.000001 0.000000 0.000000 0.000000 0.597990
    27 2.738953 3.890889 0.113747 0.000034 -1.457373 2.940037
    28 0.000000 -1.023687 -1.922726 -0.048522 0.000000 0.000000
    29 0.000000 -0.558375 -1.804806 -0.482612 0.000000 0.000000
    30 0.000000 -0.325718 -1.929488 -0.118364 0.000000 0.000000
    31 0.000000 0.046531 -1.430430 0.028276 0.000000 0.000000
    32 0.000000 0.000000 -1.347565 -0.187978 0.000000 0.000000
    33 0.000000 -0.046531 -2.135521 -0.115444 0.000000 0.000000
    34 0.000000 -0.279187 -2.151380 0.056569 0.000000 0.000000
    35 -3.821723 1.000656 3.416453 0.003134 -3.142233 -0.884331
    36 19.302956 0.000000 0.000000 0.000000 0.000000 -1.000867
    37 15.657714 0.000000 0.000000 -0.003111 -0.001069 0.452734
    38 3.741828 7.474068 0.000000 0.000000 0.000000 1.570796
    39 -3.821723 1.000675 -3.416451 0.004580 3.163801 -0.785717
    40 19.302958 0.000000 0.000000 0.000000 0.000000 -1.061462
    41 15.657715 0.000000 0.000000 0.006301 -0.021871 0.575749
    42 3.741828 7.351521 0.000000 0.000000 0.000000 1.570796
    43 2.562340 0.000000 0.000000 -0.240849 0.086460 0.220214
    44 8.541129 0.000000 0.000000 0.000000 0.000000 0.000000
    45 -7.351523 1.350579 0.144448 0.000001 -3.141591 -1.570794
    46 4.991368 -0.677071 0.532282 1.237053 -2.969057 -0.819481
  time 20
    0 -0.221744 -2.287604 34.390845 0.000000 -0.026135 -1.570888
    1 -3.503094 -0.089846 0.000000 -1.570795 -1.570451 0.000000
    2 3.928664 0.383633 0.000004 -0.000004 -0.000001 0.348526
    3 3.442969 -0.003536 0.000000 0.012847 -0.002589 0.135174
    4 4.441442 -0.003536 0.000000 0.064122 -0.013626 0.213043
    5 4.441389 -0.003537 0.000000 0.152597 -0.037955 0.206095
    6 4.441391 -0.002040 0.000000 -0.000013 -0.026163 -0.249545
    7 0.039065 0.002036 1.614274 0.968306 -1.270263 2.450118
    8 5.073841 0.000000 0.000002 -0.788620 0.898892 -0.856745
    9 12.011117 0.000000 -0.000001 0.000000 0.000000 -0.787677
    10 10.249307 0.000000 0.000000 -1.391653 0.028316 0.254026
    11 1.183836 0.259443 -1.427523 -0.015253 0.341674 0.151353
    12 0.625233 0.000000 0.000000 0.000000 0.000000 0.061075
    13 1.041848 0.000000 0.000001 0.000000 0.000000 0.052345
    14 3.037806 -0.002122 -0.118180 0.004521 0.069540 0.174741
    15 1.172004 -0.000001 0.000000 0.000000 0.000000 0.331574
    16 1.160930 0.000000 0.000000 0.000000 0.000000 0.645747
    17 -0.039063 0.002045 -1.614274 0.988918 1.231649 4.359428
    18 4.700062 0.000000 -0.000002 1.024350 -0.495075 -1.481791
    19 12.049927 0.000000 0.000001 0.000000 0.000000 -0.674138
    20 10.340311 0.000001 0.000000 2.590937 0.114597 0.314416
    21 1.186625 0.034757 1.438863 -0.023040 -0.410634 0.371539
    22 0.607803 0.000000 0.000000 0.000000 0.000000 0.078501
    23 1.063061 0.000001 0.000000 0.000000 0.000000 0.078501
    24 2.950419 0.002914 0.177525 0.000386 0.025372 0.280976
    25 1.294388 0.000000 -0.000001 0.000000 0.000000 0.306916
    26 1.183920 0.000001 0.000000 0.000000 0.000000 0.589662
    27 2.738953 3.890889 0.113747 0.000034 -1.457373 2.940037
    28 0.000000 -1.023687 -1.922726 -0.044629 0.000000 0.000000
    29 0.000000 -0.558375 -1.804806 -0.474982 0.000000 0.000000
    30 0.000000 -0.325718 -1.929488 -0.114427 0.000000 0.000000
    31 0.000000 0.046531 -1.430430 0.027131 0.000000 0.000000
    32 0.000000 0.000000 -1.347565 -0.188373 0.000000 0.000000
    33 0.000000 -0.046531 -2.135521 -0.124933 0.000000 0.000000
    34 0.000000 -0.279187 -2.151380 0.054268 0.000000 0.000000
    35 -3.825630 0.981124 3.416453 0.003134 -3.142233 -0.878146
    36 19.302956 0.000000 0.000000 0.000000 0.000000 -1.001368
    37 15.657714 0.000000 0.000000 -0.003111 -0.001069 0.454320
    38 3.741828 7.474068 0.000000 0.000000 0.000000 1.570796
    39 -3.825630 0.981143 -3.416451 0.004580 3.163801 -0.779292
    40 19.302958 0.000000 0.000000 0.000000 0.000000 -1.061462
    41 15.657715 0.000000 0.000000 0.006301 -0.021871 0.577009
    42 3.741828 7.351521 0.000000 0.000000 0.000000 1.570796
    43 2.562340 0.000000 0.000000 -0.241121 0.085459 0.216623
    44 8.541129 0.000000 0.000000 0.000000 0.000000 0.000000
    45 -7.351523 1.350579 0.144448 0.000001 -3.141591 -1.570794
    46 4.991368 -0.677071 0.532282 1.237053 -2.969057 -0.819481
  time 21
    0 -0.221744 -2.287604 34.390845 0.000000 -0.026135 -1.570888
    1 -3.475750 -0.089846 0.000000 -1.570795 -1.570451 0.000000
    2 3.928664 0.383633 0.000004 -0.000004 -0.000001 0.343418
    3 3.442969 -0.003536 0.000000 0.012847 -0.002589 0.135174
    4 4.441442 -0.003536 0.000000 0.064122 -0.013626 0.213043
    5 4.441389 -0.003537 0.000000 0.152597 -0.037955 0.206095
    6 4.441391 -0.002040 0.000000 -0.000013 -0.026163 -0.249545
    7 0.039065 0.002036 1.614274 0.968306 -1.270263 2.450118
    8 5.073841 0.000000 0.000002 -0.783619 0.902706 -0.851478
    9 12.011117 0.000000 -0.000001 0.000000 0.000000 -0.787677
    10 10.249307 0.000000 0.000000 -1.391653 0.028316 0.254026
    11 1.183836 0.259443 -1.427523 -0.015253 0.341674 0.151353
    12 0.625233 0.000000 0.000000 0.000000 0.000000 0.061075
    13 1.041848 0.000000 0.000001 0.000000 0.000000 0.052345
    14 3.037806 -0.002122 -0.118180 0.004521 0.069540 0.174741
    15 1.172004 -0.000001 0.000000 0.000000 0.000000 0.331574
    16 1.160930 0.000000 0.000000 0.000000 0.000000 0.645747
    17 -0.039063 0.002045 -1.614274 0.988918 1.231649 4.359428
    18 4.700062 0.000000 -0.000002 1.031204 -0.475873 -1.497464
    19 12.049927 0.000000 0.000001 0.000000 0.000000 -0.674138
    20 10.340311 0.000001 0.000000 2.601534 0.124830 0.312124
    21 1.186625 0.034757 1.438863 -0.023040 -0.410634 0.371539
    22 0.607803 0.000000 0.000000 0.000000 0.000000 0.078501
    23 1.063061 0.000001 0.000000 0.000000 0.000000 0.078501
    24 2.950419 0.002914 0.177525 0.000606 0.025372 0.289615
    25 1.294388 0.000000 -0.000001 0.000000 0.000000 0.301972
    26 1.183920 0.000001 0.000000 0.000000 0.000000 0.580408
    27 2.738953 3.890889 0.113747 0.000034 -1.457373 2.940037
    28 0.000000 -1.023687 -1.922726 -0.040375 0.000000 0.000000
    29 0.000000 -0.558375 -1.804806 -0.469048 0.000000 0.000000
    30 0.000000 -0.325718 -1.929488 -0.110208 0.000000 0.000000
    31 0.000000 0.046531 -1.430430 0.026408 0.000000 0.000000
    32 0.000000 0.000000 -1.347565 -0.187048 0.000000 0.000000
    33 0.000000 -0.046531 -2.135521 -0.131690 0.000000 0.000000
    34 0.000000 -0.279187 -2.151380 0.052824 0.000000 0.000000
    35 -3.829536 0.961592 3.416453 0.003134 -3.142233 -0.872111
    36 19.302956 0.000000 0.000000 0.000000 0.000000 -1.001869
    37 15.657714 0.000000 0.000000 -0.003111 -0.001069 0.455739
    38 3.741828 7.474068 0.000000 0.000000 0.000000 1.570796
    39 -3.829536 0.961611 -3.416451 0.004580 3.163897 -0.772966
    40 19.302958 0.000000 0.000000 0.000000 0.000000 -1.061394
    41 15.657715 0.000000 0.000000 0.006301 -0.021871 0.578175
    42 3.741828 7.351521 0.000000 0.000000 0.000000 1.570796
    43 2.562340 0.000000 0.000000 -0.241394 0.084457 0.212996
    44 8.541129 0.000000 0.000000 0.000000 0.000000 0.000000
    45 -7.351523 1.350579 0.144448 0.000001 -3.141591 -1.570794
    46 4.991368 -0.677071 0.532282 1.237053 -2.969057 -0.819481
  time 22
    0 -0.221744 -2.287604 34.390845 0.000000 -0.026135 -1.570888
    1 -3.444499 -0.089846 0.000000 -1.570795 -1.570451 0.000000
    2 3.928664 0.383633 0.000004 -0.000004 -0.000001 0.338287
    3 3.442969 -0.003536 0.000000 0.012847 -0.002589 0.135174
    4 4.441442 -0.003536 0.000000 0.064122 -0.013626 0.213043
    5 4.441389 -0.003537 0.000000 0.152597 -0.037955 0.206095
    6 4.441391 -0.002040 0.000000 -0.000013 -0.026163 -0.249545
    7 0.039065 0.002036 1.614274 0.968306 -1.270263 2.450118
    8 5.073841 0.000000 0.000002 -0.778547 0.906519 -0.846076
    9 12.011117 0.000000 -0.000001 0.000000 0.000000 -0.787677
    10 10.249307 0.000000 0.000000 -1.391653 0.028316 0.254026
    11 1.183836 0.259443 -1.427523 -0.015253 0.341674 0.151353
    12 0.625233 0.000000 0.000000 0.000000 0.000000 0.061075
    13 1.041848 0.000000 0.000001 0.000000 0.000000 0.052345
    14 3.037806 -0.002122 -0.118180 0.004521 0.069540 0.174741
    15 1.172004 -0.000001 0.000000 0.000000 0.000000 0.331574
    16 1.160930 0.000000 0.000000 0.000000 0.000000 0.645747
    17 -0.039063 0.002045 -1.614274 0.988918 1.231649 4.359428
    18 4.700062 0.000000 -0.000002 1.037036 -0.459167 -1.511137
    19 12.049927 0.000000 0.000001 0.000000 0.000000 -0.674138
    20 10.340311 0.000001 0.000000 2.612856 0.135847 0.309742
    21 1.186625 0.034757 1.438863 -0.023040 -0.410634 0.371539
    22 0.607803 0.000000 0.000000 0.000000 0.000000 0.078501
    23 1.063061 0.000001 0.000000 0.000000 0.000000 0.078501
    24 2.950419 0.002914 0.177525 0.000838 0.025360 0.298887
    25 1.294388 0.000000 -0.000001 0.000000 0.000000 0.296667
    26 1.183920 0.000001 0.000000 0.000000 0.000000 0.570475
    27 2.738953 3.890889 0.113747 0.000034 -1.457373 2.940037
    28 0.000000 -1.023687 -1.922726 -0.035893 0.000000 0.000000
    29 0.000000 -0.558375 -1.804806 -0.465551 0.000000 0.000000
    30 0.000000 -0.325718 -1.929488 -0.105705 0.000000 0.000000
    31 0.000000 0.046531 -1.430430 0.026167 0.000000 0.000000
    32 0.000000 0.000000 -1.347565 -0.183911 0.000000 0.000000
    33 0.000000 -0.046531 -2.135521 -0.135083 0.000000 0.000000
    34 0.000000 -0.279187 -2.151380 0.052359 0.000000 0.000000
    35 -3.837349 0.942061 3.416453 0.003134 -3.142233 -0.866126
    36 19.302956 0.000000 0.000000 0.000000 0.000000 -1.002307
    37 15.657714 0.000000 0.000000 -0.003111 -0.001069 0.457033
    38 3.741828 7.474068 0.000000 0.000000 0.000000 1.570796
    39 -3.837349 0.942079 -3.416451 0.004485 3.163897 -0.766740
    40 19.302958 0.000000 0.000000 0.000000 0.000000 -1.061327
    41 15.657715 0.000000 0.000000 0.006301 -0.021871 0.579202
    42 3.741828 7.351521 0.000000 0.000000 0.000000 1.570796
    43 2.562340 0.000000 0.000000 -0.241666 0.083456 0.209406
    44 8.541129 0.000000 0.000000 0.000000 0.000000 0.000000
    45 -7.351523 1.350579 0.144448 0.000001 -3.141591 -1.570794
    46 4.991368 -0.677071 0.532282 1.237053 -2.969057 -0.819481
  time 23
    0 -0.221744 -2.287604 34.390845 0.000000 -0.026135 -1.570888
    1 -3.413248 -0.089846 0.000000 -1.570795 -1.570451 0.000000
    2 3.928664 0.383633 0.000004 -0.000004 -0.000001 0.333179
    3 3.442969 -0.003536 0.000000 0.012847 -0.002589 0.135174
    4 4.441442 -0.003536 0.000000 0.064122 -0.013626 0.213043
    5 4.441389 -0.003537 0.000000 0.152597 -0.037955 0.206095
    6 4.441391 -0.002040 0.000000 -0.000013 -0.026163 -0.249545
    7 0.039065 0.002036 1.614274 0.968306 -1.270263 2.450118
    8 5.073841 0.000000 0.000002 -0.773332 0.910260 -0.840607
    9 12.011117 0.000000 -0.000001 0.000000 0.000000 -0.787677
    10 10.249307 0.000000 0.000000 -1.391653 0.028316 0.254026
    11 1.183836 0.259443 -1.427523 -0.015253 0.341674 0.151353
    12 0.625233 0.000000 0.000000 0.000000 0.000000 0.061075
    13 1.041848 0.000000 0.000001 0.000000 0.000000 0.052345
    14 3.037806 -0.002122 -0.118180 0.004521 0.069540 0.174741
    15 1.172004 -0.000001 0.000000 0.000000 0.000000 0.331574
    16 1.160930 0.000000 0.000000 0.000000 0.000000 0.645747
    17 -0.039063 0.002045 -1.614274 0.988918 1.231649 4.359428
    18 4.700062 0.000000 -0.000002 1.039807 -0.452061 -1.518334
    19 12.049927 0.000000 0.000001 0.000000 0.000000 -0.674138
    20 10.340311 0.000001 0.000000 2.624770 0.147484 0.307360
    21 1.186625 0.034757 1.438863 -0.023040 -0.410634 0.371539
    22 0.607803 0.000000 0.000000 0.000000 0.000000 0.078501
    23 1.063061 0.000001 0.000000 0.000000 0.000000 0.078501
    24 2.950419 0.002914 0.177525 0.001095 0.025348 0.308632
    25 1.294388 0.000000 -0.000001 0.000000 0.000000 0.291104
    26 1.183920 0.000001 0.000000 0.000000 0.000000 0.560049
    27 2.738953 3.890889 0.113747 0.000034 -1.457373 2.940037
    28 0.000000 -1.023687 -1.922726 -0.031214 0.000000 0.000000
    29 0.000000 -0.558375 -1.804806 -0.464668 0.000000 0.000000
    30 0.000000 -0.325718 -1.929488 -0.101047 0.000000 0.000000
    31 0.000000 0.046531 -1.430430 0.027975 0.000000 0.000000
    32 0.000000 0.000000 -1.347565 -0.177914 0.000000 0.000000
    33 0.000000 -0.046531 -2.135521 -0.134047 0.000000 0.000000
    34 0.000000 -0.279187 -2.151380 0.055957 0.000000 0.000000
    35 -3.841255 0.918622 3.416453 0.003134 -3.142233 -0.860191
    36 19.302956 0.000000 0.000000 0.000000 0.000000 -1.002683
    37 15.657714 0.000000 0.000000 -0.003111 -0.001049 0.458244
    38 3.741828 7.474068 0.000000 0.000000 0.000000 1.570796
    39 -3.841255 0.918641 -3.416451 0.004485 3.163897 -0.760614
    40 19.302958 0.000000 0.000000 0.000000 0.000000 -1.061260
    41 15.657715 0.000000 0.000000 0.006301 -0.021896 0.580182
    42 3.741828 7.351521 0.000000 0.000000 0.000000 1.570796
    43 2.562340 0.000000 0.000000 -0.241938 0.082455 0.205816
    44 8.541129 0.000000 0.000000 0.000000 0.000000 0.000000
    45 -7.351523 1.350579 0.144448 0.000001 -3.141591 -1.570794
    46 4.991368 -0.677071 0.532282 1.237053 -2.969057 -0.819481
  time 24
    0 -0.221744 -2.287604 34.390845 0.000000 -0.026135 -1.570888
    1 -3.381997 -0.089846 0.000000 -1.570795 -1.570451 0.000000
    2 3.928664 0.383633 0.000004 -0.000004 -0.000001 0.328048
    3 3.442969 -0.003536 0.000000 0.012847 -0.002589 0.135174
    4 4.441442 -0.003536 0.000000 0.064122 -0.013626 0.213043
    5 4.441389 -0.003537 0.000000 0.152597 -0.037955 0.206095
    6 4.441391 -0.002040 0.000000 -0.000013 -0.026163 -0.249545
    7 0.039065 0.002036 1.614274 0.968306 -1.270263 2.450118
    8 5.073841 0.000000 0.000002 -0.768189 0.914074 -0.835138
    9 12.011117 0.000000 -0.000001 0.000000 0.000000 -0.787677
    10 10.249307 0.000000 0.000000 -1.391653 0.028316 0.254026
    11 1.183836 0.259443 -1.427523 -0.015253 0.341674 0.151353
    12 0.625233 0.000000 0.000000 0.000000 0.000000 0.061075
    13 1.041848 0.000000 0.000001 0.000000 0.000000 0.052345
    14 3.037806 -0.002122 -0.118180 0.004521 0.069540 0.174741
    15 1.172004 -0.000001 0.000000 0.000000 0.000000 0.331574
    16 1.160930 0.000000 0.000000 0.000000 0.000000 0.645747
    17 -0.039063 0.002045 -1.614274 0.988918 1.231649 4.359428
    18 4.700062 0.000000 -0.000002 1.040171 -0.453799 -1.519773
    19 12.049927 0.000000 0.000001 0.000000 0.000000 -0.674138
    20 10.340311 0.000001 0.000000 2.637079 0.159492 0.305023
    21 1.186625 0.034757 1.438863 -0.023040 -0.410634 0.371539
    22 0.607803 0.000000 0.000000 0.000000 0.000000 0.078501
    23 1.063061 0.000001 0.000000 0.000000 0.000000 0.078501
    24 2.950419 0.002914 0.177525 0.001339 0.025336 0.318693
    25 1.294388 0.000000 -0.000001 0.000000 0.000000 0.285387
    26 1.183920 0.000001 0.000000 0.000000 0.000000 0.549253
    27 2.738953 3.890889 0.113747 0.000034 -1.457373 2.940037
    28 0.000000 -1.023687 -1.922726 -0.026470 0.000000 0.000000
    29 0.000000 -0.558375 -1.804806 -0.465798 0.000000 0.000000
    30 0.000000 -0.325718 -1.929488 -0.096287 0.000000 0.000000
    31 0.000000 0.046531 -1.430430 0.032875 0.000000 0.000000
    32 0.000000 0.000000 -1.347565 -0.168687 0.000000 0.000000
    33 0.000000 -0.046531 -2.135521 -0.128671 0.000000 0.000000
    34 0.000000 -0.279187 -2.151380 0.065773 0.000000 0.000000
    35 -3.845162 0.899091 3.416453 0.003134 -3.142233 -0.854306
    36 19.302956 0.000000 0.000000 0.000000 0.000000 -1.003059
    37 15.657714 0.000000 0.000000 -0.003111 -0.001049 0.459371
    38 3.741828 7.474068 0.000000 0.000000 0.000000 1.570796
    39 -3.845162 0.899109 -3.416451 0.004485 3.163897 -0.754537
    40 19.302958 0.000000 0.000000 0.000000 0.000000 -1.061193
    41 15.657715 0.000000 0.000000 0.006301 -0.021896 0.581068
    42 3.741828 7.351521 0.000000 0.000000 0.000000 1.570796
    43 2.562340 0.000000 0.000000 -0.242164 0.081454 0.202188
    44 8.541129 0.000000 0.000000 0.000000 0.000000 0.000000
    45 -7.351523 1.350579 0.144448 0.000001 -3.141591 -1.570794
    46 4.991368 -0.677071 0.532282 1.237053 -2.969057 -0.819481
  time 25
    0 -0.221744 -2.287604 34.390845 0.000000 -0.026135 -1.570888
    1 -3.350746 -0.089846 0.000000 -1.570795 -1.570451 0.000000
    2 3.928664 0.383633 0.000004 -0.000004 -0.000001 0.322917
    3 3.442969 -0.003536 0.000000 0.012847 -0.002589 0.135174
    4 4.441442 -0.003536 0.000000 0.064122 -0.013626 0.213043
    5 4.441389 -0.003537 0.000000 0.152597 -0.037955 0.206095
    6 4.441391 -0.002040 0.000000 -0.000013 -0.026163 -0.249545
    7 0.039065 0.002036 1.614274 0.968306 -1.270263 2.450118
    8 5.073841 0.000000 0.000002 -0.762902 0.917814 -0.829601
    9 12.011117 0.000000 -0.000001 0.000000 0.000000 -0.787677
    10 10.249307 0.000000 0.000000 -1.391653 0.028316 0.254026
    11 1.183836 0.259443 -1.427523 -0.015253 0.341674 0.151353
    12 0.625233 0.000000 0.000000 0.000000 0.000000 0.061075
    13 1.041848 0.000000 0.000001 0.000000 0.000000 0.052345
    14 3.037806 -0.002122 -0.118180 0.004521 0.069540 0.174741
    15 1.172004 -0.000001 0.000000 0.000000 0.000000 0.331574
    16 1.160930 0.000000 0.000000 0.000000 0.000000 0.645747
    17 -0.039063 0.002045 -1.614274 0.988918 1.231649 4.359428
    18 4.700062 0.000000 -0.000002 1.040682 -0.454782 -1.521612
    19 12.049927 0.000000 0.000001 0.000000 0.000000 -0.674138
    20 10.340311 0.000001 0.000000 2.649454 0.171706 0.302866
    21 1.186625 0.034757 1.438863 -0.023040 -0.410634 0.371539
    22 0.607803 0.000000 0.000000 0.000000 0.000000 0.078501
    23 1.063061 0.000001 0.000000 0.000000 0.000000 0.078501
    24 2.950419 0.002914 0.177525 0.001596 0.025324 0.328860
    25 1.294388 0.000000 -0.000001 0.000000 0.000000 0.279567
    26 1.183920 0.000001 0.000000 0.000000 0.000000 0.538333
    27 2.738953 3.890889 0.113747 0.000034 -1.457373 2.940037
    28 0.000000 -1.023687 -1.922726 -0.021693 0.000000 0.000000
    29 0.000000 -0.558375 -1.804806 -0.468465 0.000000 0.000000
    30 0.000000 -0.325718 -1.929488 -0.091501 0.000000 0.000000
    31 0.000000 0.046531 -1.430430 0.040165 0.000000 0.000000
    32 0.000000 0.000000 -1.347565 -0.156974 0.000000 0.000000
    33 0.000000 -0.046531 -2.135521 -0.119930 0.000000 0.000000
    34 0.000000 -0.279187 -2.151380 0.080337 0.000000 0.000000
    35 -3.849068 0.879559 3.416453 0.003134 -3.142233 -0.848470
    36 19.302956 0.000000 0.000000 0.000000 0.000000 -1.003435
    37 15.657714 0.000000 0.000000 -0.003111 -0.001049 0.460414
    38 3.741828 7.474068 0.000000 0.000000 0.000000 1.570796
    39 -3.849068 0.879577 -3.416451 0.004485 3.163897 -0.748460
    40 19.302958 0.000000 0.000000 0.000000 0.000000 -1.061193
    41 15.657715 0.000000 0.000000 0.006301 -0.021896 0.581955
    42 3.741828 7.351521 0.000000 0.000000 0.000000 1.570796
    43 2.562340 0.000000 0.000000 -0.242436 0.080453 0.198598
    44 8.541129 0.000000 0.000000 0.000000 0.000000 0.000000
    45 -7.351523 1.350579 0.144448 0.000001 -3.141591 -1.570794
    46 4.991368 -0.677071 0.532282 1.237053 -2.969057 -0.819481
  time 26
    0 -0.221744 -2.287604 34.355147 0.000000 -0.026135 -1.570888
    1 -3.319495 -0.089846 0.000000 -1.570795 -1.570451 0.000000
    2 3.928664 0.383633 0.000004 -0.000004 -0.000001 0.317809
    3 3.442969 -0.003536 0.000000 0.012847 -0.002589 0.135174
    4 4.441442 -0.003536 0.000000 0.064122 -0.013626 0.213043
    5 4.441389 -0.003537 0.000000 0.152597 -0.037955 0.206095
    6 4.441391 -0.002040 0.000000 -0.000013 -0.026163 -0.249545
    7 0.039065 0.002036 1.614274 0.968306 -1.270263 2.450118
    8 5.073841 0.000000 0.000002 -0.757545 0.921554 -0.823997
    9 12.011117 0.000000 -0.000001 0.000000 0.000000 -0.787677
    10 10.249307 0.000000 0.000000 -1.391653 0.028316 0.254026
    11 1.183836 0.259443 -1.427523 -0.015253 0.341674 0.151353
    12 0.625233 0.000000 0.000000 0.000000 0.000000 0.061075
    13 1.041848 0.000000 0.000001 0.000000 0.000000 0.052345
    14 3.037806 -0.002122 -0.118180 0.004521 0.069540 0.174741
    15 1.172004 -0.000001 0.000000 0.000000 0.000000 0.331574
    16 1.160930 0.000000 0.000000 0.000000 0.000000 0.645747
    17 -0.039063 0.002045 -1.614274 0.988918 1.231649 4.359428
    18 4.700062 0.000000 -0.000002 1.041338 -0.455311 -1.523851
    19 12.049927 0.000000 0.000001 0.000000 0.000000 -0.674138
    20 10.340311 0.000001 0.000000 2.661829 0.183837 0.300843
    21 1.186625 0.034757 1.438863 -0.023040 -0.410634 0.371539
    22 0.607803 0.000000 0.000000 0.000000 0.000000 0.078501
    23 1.063061 0.000001 0.000000 0.000000 0.000000 0.078501
    24 2.950419 0.002914 0.177525 0.001853 0.025312 0.338974
    25 1.294388 0.000000 -0.000001 0.000000 0.000000 0.273799
    26 1.183920 0.000001 0.000000 0.000000 0.000000 0.527537
    27 2.738953 3.890889 0.113747 0.000034 -1.457373 2.940037
    28 0.000000 -1.023687 -1.922726 -0.016949 0.000000 0.000000
    29 0.000000 -0.558375 -1.804806 -0.472192 0.000000 0.000000
    30 0.000000 -0.325718 -1.929488 -0.086766 0.000000 0.000000
    31 0.000000 0.046531 -1.430430 0.049102 0.000000 0.000000
    32 0.000000 0.000000 -1.347565 -0.143517 0.000000 0.000000
    33 0.000000 -0.046531 -2.135521 -0.108831 0.000000 0.000000
    34 0.000000 -0.279187 -2.151380 0.098231 0.000000 0.000000
    35 -3.852974 0.860027 3.416453 0.003134 -3.142233 -0.842635
    36 19.302956 0.000000 0.000000 0.000000 0.000000 -1.003748
    37 15.657714 0.000000 0.000000 -0.003111 -0.001049 0.461458
    38 3.741828 7.474068 0.000000 0.000000 0.000000 1.570796
    39 -3.852974 0.860045 -3.416451 0.004485 3.163897 -0.742483
    40 19.302958 0.000000 0.000000 0.000000 0.000000 -1.061126
    41 15.657715 0.000000 0.000000 0.006301 -0.021896 0.582748
    42 3.741828 7.351521 0.000000 0.000000 0.000000 1.570796
    43 2.562340 0.000000 0.000000 -0.242663 0.079479 0.195008
    44 8.541129 0.000000 0.000000 0.000000 0.000000 0.000000
    45 -7.351523 1.350579 0.144448 0.000001 -3.141591 -1.570794
    46 4.991368 -0.677071 0.532282 1.237053 -2.969057 -0.819481
  time 27
    0 -0.221744 -2.287604 34.355147 0.000000 -0.026135 -1.570888
    1 -3.288244 -0.089846 0.000000 -1.570795 -1.570451 0.000000
    2 3.928664 0.383633 0.000004 -0.000004 -0.000001 0.312678
    3 3.442969 -0.003536 0.000000 0.012847 -0.002589 0.135174
    4 4.441442 -0.003536 0.000000 0.064122 -0.013626 0.213043
    5 4.441389 -0.003537 0.000000 0.152597 -0.037955 0.206095
    6 4.441391 -0.002040 0.000000 -0.000013 -0.026163 -0.249545
    7 0.039065 0.002036 1.614274 0.968306 -1.270263 2.450118
    8 5.073841 0.000000 0.000002 -0.752187 0.925221 -0.818325
    9 12.011117 0.000000 -0.000001 0.000000 0.000000 -0.787677
    10 10.249307 0.000000 0.000000 -1.391653 0.028316 0.254026
    11 1.183836 0.259443 -1.427523 -0.015253 0.341674 0.151353
    12 0.625233 0.000000 0.000000 0.000000 0.000000 0.061075
    13 1.041848 0.000000 0.000001 0.000000 0.000000 0.052345
    14 3.037806 -0.002122 -0.118180 0.004521 0.069540 0.174741
    15 1.172004 -0.000001 0.000000 0.000000 0.000000 0.331574
    16 1.160930 0.000000 0.000000 0.000000 0.000000 0.645747
    17 -0.039063 0.002045 -1.614274 0.988918 1.231649 4.359428
    18 4.700062 0.000000 -0.000002 1.042067 -0.455462 -1.526330
    19 12.049927 0.000000 0.000001 0.000000 0.000000 -0.674138
    20 10.340311 0.000001 0.000000 2.673875 0.195721 0.299001
    21 1.186625 0.034757 1.438863 -0.023040 -0.410634 0.371539
    22 0.607803 0.000000 0.000000 0.000000 0.000000 0.078501
    23 1.063061 0.000001 0.000000 0.000000 0.000000 0.078501
    24 2.950419 0.002914 0.177525 0.002110 0.025288 0.348877
    25 1.294388 0.000000 -0.000001 0.000000 0.000000 0.268133
    26 1.183920 0.000001 0.000000 0.000000 0.000000 0.516926
    27 2.738953 3.890889 0.113747 0.000034 -1.457373 2.940037
    28 0.000000 -1.023687 -1.922726 -0.012335 0.000000 0.000000
    29 0.000000 -0.558375 -1.804806 -0.476554 0.000000 0.000000
    30 0.000000 -0.325718 -1.929488 -0.082135 0.000000 0.000000
    31 0.000000 0.046531 -1.430430 0.059002 0.000000 0.000000
    32 0.000000 0.000000 -1.347565 -0.129084 0.000000 0.000000
    33 0.000000 -0.046531 -2.135521 -0.096381 0.000000 0.000000
    34 0.000000 -0.279187 -2.151380 0.118009 0.000000 0.000000
    35 -3.860787 0.840495 3.416453 0.003134 -3.142233 -0.836849
    36 19.302956 0.000000 0.000000 0.000000 0.000000 -1.004061
    37 15.657714 0.000000 0.000000 -0.003111 -0.001049 0.462459
    38 3.741828 7.474068 0.000000 0.000000 0.000000 1.570796
    39 -3.860787 0.840514 -3.416451 0.004389 3.163897 -0.736506
    40 19.302958 0.000000 0.000000 0.000000 0.000000 -1.061058
    41 15.657715 0.000000 0.000000 0.006301 -0.021920 0.583588
    42 3.741828 7.351521 0.000000 0.000000 0.000000 1.570796
    43 2.562340 0.000000 0.000000 -0.242935 0.078478 0.191380
    44 8.541129 0.000000 0.000000 0.000000 0.000000 0.000000
    45 -7.351523 1.350579 0.144448 0.000001 -3.141591 -1.570794
    46 4.991368 -0.677071 0.532282 1.237053 -2.969057 -0.819481
  time 28
    0 -0.221744 -2.287604 34.355147 0.000000 -0.026135 -1.570888
    1 -3.256993 -0.089846 0.000000 -1.570795 -1.570451 0.000000
    2 3.928664 0.383633 0.000004 -0.000004 -0.000001 0.307570
    3 3.442969 -0.003536 0.000000 0.012847 -0.002589 0.135174
    4 4.441442 -0.003536 0.000000 0.064122 -0.013626 0.213043
    5 4.441389 -0.003537 0.000000 0.152597 -0.037955 0.206095
    6 4.441391 -0.002040 0.000000 -0.000013 -0.026163 -0.249545
    7 0.039065 0.002036 1.614274 0.968306 -1.270263 2.450118
    8 5.073841 0.000000 0.000002 -0.746757 0.928962 -0.812586
    9 12.011117 0.000000 -0.000001 0.000000 0.000000 -0.787677
    10 10.249307 0.000000 0.000000 -1.391653 0.028316 0.254026
    11 1.183836 0.259443 -1.427523 -0.015253 0.341674 0.151353
    12 0.625233 0.000000 0.000000 0.000000 0.000000 0.061075
    13 1.041848 0.000000 0.000001 0.000000 0.000000 0.052345
    14 3.037806 -0.002122 -0.118180 0.004521 0.069540 0.174741
    15 1.172004 -0.000001 0.000000 0.000000 0.000000 0.331574
    16 1.160930 0.000000 0.000000 0.000000 0.000000 0.645747
    17 -0.039063 0.002045 -1.614274 0.988918 1.231649 4.359428
    18 4.700062 0.000000 -0.000002 1.042942 -0.455387 -1.528889
    19 12.049927 0.000000 0.000001 0.000000 0.000000 -0.674138
    20 10.340311 0.000001 0.000000 2.685460 0.207110 0.297383
    21 1.186625 0.034757 1.438863 -0.023040 -0.410634 0.371539
    22 0.607803 0.000000 0.000000 0.000000 0.000000 0.078501
    23 1.063061 0.000001 0.000000 0.000000 0.000000 0.078501
    24 2.950419 0.002914 0.177525 0.002342 0.025264 0.358307
    25 1.294388 0.000000 -0.000001 0.000000 0.000000 0.262725
    26 1.183920 0.000001 0.000000 0.000000 0.000000 0.506808
    27 2.738953 3.890889 0.113747 0.000034 -1.457373 2.940037
    28 0.000000 -1.023687 -1.922726 -0.007918 0.000000 0.000000
    29 0.000000 -0.558375 -1.804806 -0.481058 0.000000 0.000000
    30 0.000000 -0.325718 -1.929488 -0.077735 0.000000 0.000000
    31 0.000000 0.046531 -1.430430 0.069144 0.000000 0.000000
    32 0.000000 0.000000 -1.347565 -0.114395 0.000000 0.000000
    33 0.000000 -0.046531 -2.135521 -0.083586 0.000000 0.000000
    34 0.000000 -0.279187 -2.151380 0.138277 0.000000 0.000000
    35 -3.864693 0.820963 3.416453 0.003134 -3.142233 -0.831063
    36 19.302956 0.000000 0.000000 0.000000 0.000000 -1.004374
    37 15.657714 0.000000 0.000000 -0.003111 -0.001049 0.463419
    38 3.741828 7.474068 0.000000 0.000000 0.000000 1.570796
    39 -3.864693 0.820982 -3.416451 0.004389 3.163897 -0.730529
    40 19.302958 0.000000 0.000000 0.000000 0.000000 -1.060991
    41 15.657715 0.000000 0.000000 0.006301 -0.021920 0.584334
    42 3.741828 7.351521 0.000000 0.000000 0.000000 1.570796
    43 2.562340 0.000000 0.000000 -0.243162 0.077477 0.187790
    44 8.541129 0.000000 0.000000 0.000000 0.000000 0.000000
    45 -7.351523 1.350579 0.144448 0.000001 -3.141591 -1.570794
    46 4.991368 -0.677071 0.532282 1.237053 -2.969057 -0.819481
  time 29
    0 -0.221744 -2.287604 34.355147 0.000000 -0.026135 -1.570888
    1 -3.225742 -0.089846 0.000000 -1.570795 -1.570451 0.000000
    2 3.928664 0.383633 0.000004 -0.000004 -0.000001 0.302461
    3 3.442969 -0.003536 0.000000 0.012847 -0.002589 0.135174
    4 4.441442 -0.003536 0.000000 0.064122 -0.013626 0.213043
    5 4.441389 -0.003537 0.000000 0.152597 -0.037955 0.206095
    6 4.441391 -0.002040 0.000000 -0.000013 -0.026163 -0.249545
    7 0.039065 0.002036 1.614274 0.968306 -1.270263 2.450118
    8 5.073841 0.000000 0.000002 -0.741257 0.932629 -0.806779
    9 12.011117 0.000000 -0.000001 0.000000 0.000000 -0.787677
    10 10.249307 0.000000 0.000000 -1.391653 0.028316 0.254026
    11 1.183836 0.259443 -1.427523 -0.015253 0.341674 0.151353
    12 0.625233 0.000000 0.000000 0.000000 0.000000 0.061075
    13 1.041848 0.000000 0.000001 0.000000 0.000000 0.052345
    14 3.037806 -0.002122 -0.118180 0.004521 0.069540 0.174741
    15 1.172004 -0.000001 0.000000 0.000000 0.000000 0.331574
    16 1.160930 0.000000 0.000000 0.000000 0.000000 0.645747
    17 -0.039063 0.002045 -1.614274 0.988918 1.231649 4.359428
    18 4.700062 0.000000 -0.000002 1.043890 -0.455160 -1.531608
    19 12.049927 0.000000 0.000001 0.000000 0.000000 -0.674138
    20 10.340311 0.000001 0.000000 2.696321 0.217797 0.295990
    21 1.186625 0.034757 1.438863 -0.023040 -0.410634 0.371539
    22 0.607803 0.000000 0.000000 0.000000 0.000000 0.078501
    23 1.063061 0.000001 0.000000 0.000000 0.000000 0.078501
    24 2.950419 0.002914 0.177525 0.002575 0.025240 0.367209
    25 1.294388 0.000000 -0.000001 0.000000 0.000000 0.257678
    26 1.183920 0.000001 0.000000 0.000000 0.000000 0.497307
    27 2.738953 3.890889 0.113747 0.000034 -1.457373 2.940037
    28 0.000000 -1.023687 -1.922726 -0.003763 0.000000 0.000000
    29 0.000000 -0.558375 -1.804806 -0.485261 0.000000 0.000000
    30 0.000000 -0.325718 -1.929488 -0.073592 0.000000 0.000000
    31 0.000000 0.046531 -1.430430 0.078784 0.000000 0.000000
    32 0.000000 0.000000 -1.347565 -0.100194 0.000000 0.000000
    33 0.000000 -0.046531 -2.135521 -0.071480 0.000000 0.000000
    34 0.000000 -0.279187 -2.151380 0.157591 0.000000 0.000000
    35 -3.868600 0.801431 3.416453 0.003134 -3.142233 -0.825327
    36 19.302956 0.000000 0.000000 0.000000 0.000000 -1.004688
    37 15.657714 0.000000 0.000000 -0.003111 -0.001049 0.464338
    38 3.741828 7.474068 0.000000 0.000000 0.000000 1.570796
    39 -3.868600 0.801450 -3.416451 0.004389 3.163897 -0.724652
    40 19.302958 0.000000 0.000000 0.000000 0.000000 -1.060924
    41 15.657715 0.000000 0.000000 0.006301 -0.021920 0.585081
    42 3.741828 7.351521 0.000000 0.000000 0.000000 1.570796
    43 2.562340 0.000000 0.000000 -0.243389 0.076476 0.184200
    44 8.541129 0.000000 0.000000 0.000000 0.000000 0.000000
    45 -7.351523 1.350579 0.144448 0.000001 -3.141591 -1.570794
    46 4.991368 -0.677071 0.532282 1.237053 -2.969057 -0.819481
  time 30
    0 -0.221744 -2.287604 34.355147 0.000000 -0.026135 -1.570888
    1 -3.194491 -0.089846 0.000000 -1.570795 -1.570451 0.000000
    2 3.928664 0.383633 0.000004 -0.000004 -0.000001 0.297353
    3 3.442969 -0.003536 0.000000 0.012847 -0.002589 0.135174
    4 4.441442 -0.003536 0.000000 0.064122 -0.013626 0.213043
    5 4.441389 -0.003537 0.000000 0.152597 -0.037955 0.206095
    6 4.441391 -0.002040 0.000000 -0.000013 -0.026163 -0.249545
    7 0.039065 0.002036 1.614274 0.968306 -1.270263 2.450118
    8 5.073841 0.000000 0.000002 -0.735685 0.936223 -0.800972
    9 12.011117 0.000000 -0.000001 0.000000 0.000000 -0.787677
    10 10.249307 0.000000 0.000000 -1.391653 0.028316 0.254026
    11 1.183836 0.259443 -1.427523 -0.015253 0.341674 0.151353
    12 0.625233 0.000000 0.000000 0.000000 0.000000 0.061075
    13 1.041848 0.000000 0.000001 0.000000 0.000000 0.052345
    14 3.037806 -0.002122 -0.118180 0.004521 0.069540 0.174741
    15 1.172004 -0.000001 0.000000 0.000000 0.000000 0.331574
    16 1.160930 0.000000 0.000000 0.000000 0.000000 0.645747
    17 -0.039063 0.002045 -1.614274 0.988918 1.231649 4.359428
    18 4.700062 0.000000 -0.000002 1.044400 -0.456370 -1.533367
    19 12.049927 0.000000 0.000001 0.000000 0.000000 -0.674138
    20 10.340311 0.000001 0.000000 2.706195 0.227536 0.294821
    21 1.186625 0.034757 1.438863 -0.023040 -0.410634 0.371539
    22 0.607803 0.000000 0.000000 0.000000 0.000000 0.078501
    23 1.063061 0.000001 0.000000 0.000000 0.000000 0.078501
    24 2.950419 0.002914 0.177525 0.002770 0.025228 0.375269
    25 1.294388 0.000000 -0.000001 0.000000 0.000000 0.253042
    26 1.183920 0.000001 0.000000 0.000000 0.000000 0.488670
    27 2.738953 3.890889 0.113747 0.000034 -1.457373 2.940037
    28 0.000000 -1.023687 -1.922726 0.000000 0.000000 0.000000
    29 0.000000 -0.558375 -1.804806 -0.488688 0.000000 0.000000
    30 0.000000 -0.325718 -1.929488 -0.069809 0.000000 0.000000
    31 0.000000 0.046531 -1.430430 0.087258 0.000000 0.000000
    32 0.000000 0.000000 -1.347565 -0.087249 0.000000 0.000000
    33 0.000000 -0.046531 -2.135521 -0.061072 0.000000 0.000000
    34 0.000000 -0.279187 -2.151380 0.174530 0.000000 0.000000
    35 -3.872506 0.781899 3.416453 0.003134 -3.142233 -0.819691
    36 19.302956 0.000000 0.000000 0.000000 0.000000 -1.004938
    37 15.657714 0.000000 0.000000 -0.003111 -0.001049 0.465131
    38 3.741828 7.474068 0.000000 0.000000 0.000000 1.570796
    39 -3.872506 0.781918 -3.416451 0.004389 3.163897 -0.718824
    40 19.302958 0.000000 0.000000 0.000000 0.000000 -1.060924
    41 15.657715 0.000000 0.000000 0.006301 -0.021920 0.585734
    42 3.741828 7.351521 0.000000 0.000000 0.000000 1.570796
    43 2.562340 0.000000 0.000000 -0.243661 0.075475 0.180610
    44 8.541129 0.000000 0.000000 0.000000 0.000000 0.000000
    45 -7.351523 1.350579 0.144448 0.000001 -3.141591 -1.570794
    46 4.991368 -0.677071 0.532282 1.237053 -2.969057 -0.819481
end
