version 1
nodes
  0 "Bip01" -1
  1 "Bip01 Pelvis" 0
  2 "Bip01 Spine" 1
  3 "Bip01 Spine1" 2
  4 "Bip01 Spine2" 3
  5 "Bip01 Spine3" 4
  6 "Bip01 Neck" 5
  7 "Bip01 L Clavicle" 6
  8 "Bip01 L UpperArm" 7
  9 "Bip01 L Forearm" 8
  10 "Bip01 L Hand" 9
  11 "Bip01 L Finger0" 10
  12 "Bip01 L Finger01" 11
  13 "Bip01 L Finger02" 12
  14 "Bip01 L Finger2" 10
  15 "Bip01 L Finger21" 14
  16 "Bip01 L Finger22" 15
  17 "Bip01 R Clavicle" 6
  18 "Bip01 R UpperArm" 17
  19 "Bip01 R Forearm" 18
  20 "Bip01 R Hand" 19
  21 "Bip01 R Finger0" 20
  22 "Bip01 R Finger01" 21
  23 "Bip01 R Finger02" 22
  24 "Bip01 R Finger2" 20
  25 "Bip01 R Finger21" 24
  26 "Bip01 R Finger22" 25
  27 "tie1" 5
  28 "tie2" 27
  29 "tie3" 28
  30 "tie4" 29
  31 "tie5" 30
  32 "tie6" 31
  33 "tie7" 32
  34 "tie8" 33
  35 "Bip01 L Thigh" 2
  36 "Bip01 L Calf" 35
  37 "Bip01 L Foot" 36
  38 "Bip01 L Toe0" 37
  39 "Bip01 R Thigh" 2
  40 "Bip01 R Calf" 39
  41 "Bip01 R Foot" 40
  42 "Bip01 R Toe0" 41
  43 "Bip01 Head" 6
  44 "Dummy05" 43
  45 "Mouth" 44
  46 "needle" 20
end
skeleton
  time 0
    0 2.536153 -0.122611 5.618059 -0.033922 -1.096452 -2.128769
    1 -1.803824 0.082034 0.000000 -1.570795 -1.570451 0.000000
    2 3.928664 0.383633 0.000004 -0.000004 -0.000001 0.053118
    3 3.442969 -0.003536 0.000000 -0.025587 0.005860 0.152541
    4 4.441442 -0.003536 0.000000 -0.033386 0.010534 0.252745
    5 4.441389 -0.003537 0.000000 -0.024877 0.008281 0.274635
    6 4.441391 -0.002040 0.000000 -0.000013 -0.026163 -0.249545
    7 0.039065 0.002036 1.614274 1.317188 -0.971408 2.140342
    8 5.073841 0.000000 0.000002 -0.161254 0.613374 -0.437843
    9 12.350971 0.000000 -0.000001 0.000000 0.000000 -1.087117
    10 9.233651 0.000000 0.000000 -0.692496 0.019952 -0.152070
    11 1.488532 0.259443 -1.427523 -0.000866 0.453946 -0.000356
    12 0.625233 0.000000 0.000000 0.000000 0.000000 0.000000
    13 1.041848 0.000000 0.000001 0.000000 0.000000 0.000000
    14 3.826892 -0.002122 -0.118180 0.109292 0.216196 -0.206161
    15 1.172004 -0.000001 0.000000 0.000000 0.000000 0.375224
    16 1.160930 0.000000 0.000000 0.000000 0.000000 0.628295
    17 -0.039063 0.002045 -1.614274 1.148930 1.126085 4.510716
    18 4.700062 0.000000 -0.000002 0.169219 -0.976318 -0.423327
    19 12.393687 0.000000 0.000001 0.000000 0.000000 -0.672012
    20 9.316842 0.000001 0.000000 2.777220 0.066565 0.153657
    21 1.491322 0.034757 1.438863 0.008218 -0.661858 0.617601
    22 0.607803 0.000000 0.000000 0.000000 0.000000 0.078501
    23 1.063061 0.000001 0.000000 0.000000 0.000000 0.122150
    24 3.716067 0.002914 0.177525 0.002501 -0.228521 0.636443
    25 1.294388 0.000000 -0.000001 0.000000 0.000000 0.418836
    26 1.183920 0.000001 0.000000 0.000000 0.000000 0.575904
    27 2.738953 3.890889 0.113747 2.975026 -1.570796 0.000000
    28 0.000000 -1.023687 -1.922726 0.060138 -0.093878 0.019999
    29 0.000000 -0.558375 -1.804806 -0.322595 0.060330 0.009562
    30 0.000000 -0.325718 -1.929488 -0.145279 0.182662 -0.059099
    31 0.000000 0.046531 -1.430430 -0.304671 -0.017366 -0.085512
    32 0.000000 0.000000 -1.347565 0.000000 0.087255 0.000000
    33 0.000000 -0.046531 -2.135521 -0.097761 0.298584 -0.226209
    34 0.000000 -0.279187 -2.151380 -0.113432 0.000000 0.000000
    35 -3.942821 -0.175161 3.416453 -0.014786 -3.302497 -1.091567
    36 19.302956 0.000000 0.000000 0.000000 0.000000 -0.378397
    37 15.657714 0.000000 0.000000 -0.133135 0.091943 -0.682365
    38 3.741828 7.474068 0.000000 0.000000 0.000000 1.570796
    39 -3.942821 -0.175142 -3.416451 -0.119625 2.951289 -1.216216
    40 19.302958 0.000000 0.000000 0.000000 0.000000 -1.874718
    41 15.657715 0.000000 0.000000 0.190225 -0.217599 0.144965
    42 3.741828 7.351521 0.000000 0.000000 0.000000 1.570796
    43 2.562340 0.000000 0.000000 0.050918 -0.733697 0.673700
    44 8.541129 0.000000 0.000000 0.000000 0.000000 0.000000
    45 -7.351523 1.350579 0.144448 0.000001 -3.141591 -1.570794
    46 4.991368 -0.677071 0.532282 1.237053 -2.969057 -0.819481
  time 1
    0 2.536153 -0.122611 5.618059 -0.033922 -1.096452 -2.128769
    1 -1.803824 0.082034 0.000000 -1.570795 -1.570451 0.000000
    2 3.928664 0.383633 0.000004 -0.000004 -0.000001 0.053118
    3 3.442969 -0.003536 0.000000 -0.025587 0.005860 0.152541
    4 4.441442 -0.003536 0.000000 -0.033386 0.010534 0.252745
    5 4.441389 -0.003537 0.000000 -0.024877 0.008281 0.274635
    6 4.441391 -0.002040 0.000000 -0.000013 -0.026163 -0.249545
    7 0.039065 0.002036 1.614274 1.317188 -0.971408 2.140342
    8 5.073841 0.000000 0.000002 -0.161254 0.613374 -0.437843
    9 12.350971 0.000000 -0.000001 0.000000 0.000000 -1.087117
    10 9.233651 0.000000 0.000000 -0.692496 0.019952 -0.152070
    11 1.488532 0.259443 -1.427523 -0.000866 0.453946 -0.000356
    12 0.625233 0.000000 0.000000 0.000000 0.000000 0.000000
    13 1.041848 0.000000 0.000001 0.000000 0.000000 0.000000
    14 3.826892 -0.002122 -0.118180 0.109292 0.216196 -0.206161
    15 1.172004 -0.000001 0.000000 0.000000 0.000000 0.375224
    16 1.160930 0.000000 0.000000 0.000000 0.000000 0.628295
    17 -0.039063 0.002045 -1.614274 1.148930 1.126085 4.510716
    18 4.700062 0.000000 -0.000002 0.169219 -0.976318 -0.423327
    19 12.393687 0.000000 0.000001 0.000000 0.000000 -0.672012
    20 9.316842 0.000001 0.000000 2.777220 0.066565 0.153657
    21 1.491322 0.034757 1.438863 0.008218 -0.661858 0.617601
    22 0.607803 0.000000 0.000000 0.000000 0.000000 0.078501
    23 1.063061 0.000001 0.000000 0.000000 0.000000 0.122150
    24 3.716067 0.002914 0.177525 0.002501 -0.228521 0.636443
    25 1.294388 0.000000 -0.000001 0.000000 0.000000 0.418836
    26 1.183920 0.000001 0.000000 0.000000 0.000000 0.575904
    27 2.738953 3.890889 0.113747 2.975026 -1.570796 0.000000
    28 0.000000 -1.023687 -1.922726 0.060138 -0.093878 0.019999
    29 0.000000 -0.558375 -1.804806 -0.322595 0.060330 0.009562
    30 0.000000 -0.325718 -1.929488 -0.145279 0.182662 -0.059099
    31 0.000000 0.046531 -1.430430 -0.304671 -0.017366 -0.085512
    32 0.000000 0.000000 -1.347565 0.000000 0.087255 0.000000
    33 0.000000 -0.046531 -2.135521 -0.097761 0.298584 -0.226209
    34 0.000000 -0.279187 -2.151380 -0.113432 0.000000 0.000000
    35 -3.942821 -0.175161 3.416453 -0.014786 -3.302497 -1.091567
    36 19.302956 0.000000 0.000000 0.000000 0.000000 -0.378397
    37 15.657714 0.000000 0.000000 -0.133135 0.091943 -0.682365
    38 3.741828 7.474068 0.000000 0.000000 0.000000 1.570796
    39 -3.942821 -0.175142 -3.416451 -0.119625 2.951289 -1.216216
    40 19.302958 0.000000 0.000000 0.000000 0.000000 -1.874718
    41 15.657715 0.000000 0.000000 0.190225 -0.217599 0.144965
    42 3.741828 7.351521 0.000000 0.000000 0.000000 1.570796
    43 2.562340 0.000000 0.000000 0.050918 -0.733697 0.673700
    44 8.541129 0.000000 0.000000 0.000000 0.000000 0.000000
    45 -7.351523 1.350579 0.144448 0.000001 -3.141591 -1.570794
    46 4.991368 -0.677071 0.532282 1.237053 -2.969057 -0.819481
end
