version 1
nodes
  0 "Bip01" -1
  1 "Bip01 Pelvis" 0
  2 "Bip01 Spine" 1
  3 "Bip01 Spine1" 2
  4 "Bip01 Spine2" 3
  5 "Bip01 Spine3" 4
  6 "Bip01 Neck" 5
  7 "Bip01 L Clavicle" 6
  8 "Bip01 L UpperArm" 7
  9 "Bip01 L Forearm" 8
  10 "Bip01 L Hand" 9
  11 "Bip01 L Finger0" 10
  12 "Bip01 L Finger01" 11
  13 "Bip01 L Finger02" 12
  14 "Bip01 L Finger2" 10
  15 "Bip01 L Finger21" 14
  16 "Bip01 L Finger22" 15
  17 "Bip01 R Clavicle" 6
  18 "Bip01 R UpperArm" 17
  19 "Bip01 R Forearm" 18
  20 "Bip01 R Hand" 19
  21 "Bip01 R Finger0" 20
  22 "Bip01 R Finger01" 21
  23 "Bip01 R Finger02" 22
  24 "Bip01 R Finger2" 20
  25 "Bip01 R Finger21" 24
  26 "Bip01 R Finger22" 25
  27 "tie1" 5
  28 "tie2" 27
  29 "tie3" 28
  30 "tie4" 29
  31 "tie5" 30
  32 "tie6" 31
  33 "tie7" 32
  34 "tie8" 33
  35 "Bip01 L Thigh" 2
  36 "Bip01 L Calf" 35
  37 "Bip01 L Foot" 36
  38 "Bip01 L Toe0" 37
  39 "Bip01 R Thigh" 2
  40 "Bip01 R Calf" 39
  41 "Bip01 R Foot" 40
  42 "Bip01 R Toe0" 41
  43 "Bip01 Head" 6
  44 "Dummy05" 43
  45 "Mouth" 44
  46 "needle" 20
end
skeleton
  time 0
    0 -0.213931 -0.633134 38.496143 0.000000 0.000000 -1.570888
    1 -0.202212 0.000000 0.000000 -1.570795 -1.570451 0.000000
    2 3.928664 0.383633 0.000004 -0.000004 -0.000001 0.018250
    3 3.442969 -0.003536 0.000000 0.000000 0.000000 0.008727
    4 4.441442 -0.003536 0.000000 0.000000 0.000000 0.017453
    5 4.441389 -0.003537 0.000000 0.000000 0.000000 0.000000
    6 4.441391 -0.002040 0.000000 0.000000 0.000000 0.000000
    7 0.000001 0.002036 1.614274 -0.000014 -1.292298 3.140810
    8 5.073841 0.000000 0.000002 -0.098318 1.129184 -0.100913
    9 12.011117 0.000000 -0.000001 0.000000 0.000000 -0.104104
    10 10.249307 0.000000 0.000000 -1.325518 0.033892 0.008413
    11 1.183836 0.259443 -1.427523 0.278356 0.234471 0.139094
    12 0.625233 0.000000 0.000000 0.000000 0.000000 0.139626
    13 1.041848 0.000000 0.000001 0.000000 0.000000 0.139626
    14 3.037806 -0.002122 -0.118180 0.244798 -0.007617 0.135461
    15 1.172004 -0.000001 0.000000 0.000000 0.000000 0.139610
    16 1.160930 0.000000 0.000000 0.000000 0.000000 0.139609
    17 0.000001 0.002045 -1.614274 -0.000014 1.318464 3.140783
    18 4.700062 0.000000 -0.000002 -0.203411 -1.181182 0.215094
    19 12.049927 0.000000 0.000001 0.000000 0.000000 -0.363414
    20 10.340311 0.000001 0.000000 1.325133 0.067721 -0.016898
    21 1.186625 0.034757 1.438863 -0.315029 -0.216707 0.353063
    22 0.607803 0.000000 0.000000 0.000000 0.000000 0.139618
    23 1.063061 0.000001 0.000000 0.000000 0.000000 0.139618
    24 2.950419 0.002914 0.177525 -0.239187 0.033054 0.257746
    25 1.294388 0.000000 -0.000001 0.000000 0.000000 0.139578
    26 1.183920 0.000001 0.000000 0.000000 0.000000 0.139611
    27 2.738953 3.890889 0.113747 3.097163 -1.570796 0.000000
    28 0.000000 -1.023687 -1.922726 0.000000 0.000000 0.000000
    29 0.000000 -0.558375 -1.804806 0.000000 0.000000 0.000000
    30 0.000000 -0.325718 -1.929488 0.000000 0.000000 0.000000
    31 0.000000 0.046531 -1.430430 0.000000 0.000000 0.000000
    32 0.000000 0.000000 -1.347565 0.000000 0.000000 0.000000
    33 0.000000 -0.046531 -2.135521 0.000000 0.000000 0.000000
    34 0.000000 -0.279187 -2.151380 0.000000 0.000000 0.000000
    35 -3.935008 -0.311884 3.416453 -0.000987 -3.100811 -0.032295
    36 19.302956 0.000000 0.000000 0.000000 0.000000 -0.158548
    37 15.657714 0.000000 0.000000 0.001579 -0.040858 0.144436
    38 3.741828 7.474068 0.000000 0.000000 0.000000 1.570796
    39 -3.935008 -0.311865 -3.416451 0.002091 3.115416 -0.035496
    40 19.302958 0.000000 0.000000 0.000000 0.000000 -0.165536
    41 15.657715 0.000000 0.000000 -0.002585 0.026181 0.148185
    42 3.741828 7.351521 0.000000 0.000000 0.000000 1.570796
    43 2.562340 0.000000 0.000000 0.000000 0.000000 0.130012
    44 8.541129 0.000000 0.000000 0.000000 0.000000 0.000000
    45 -7.351523 1.350579 0.144448 0.000001 -3.141591 -1.570794
    46 4.991368 -0.677071 0.532282 1.237053 -2.969057 -0.819481
  time 1
    0 -0.104553 0.737713 38.531842 0.004695 -0.099957 -1.353998
    1 0.622032 0.093753 0.000000 -0.000033 -1.579080 -1.570756
    2 3.928664 0.383633 -0.031247 0.102207 0.016094 -0.062478
    3 3.442969 -0.003536 0.000000 0.067246 0.001798 -0.021067
    4 4.441442 -0.003536 0.000000 0.096426 0.001750 -0.024275
    5 4.441389 -0.003537 0.000000 0.087426 0.001486 -0.035655
    6 4.441391 -0.002040 0.000000 0.000000 0.000000 -0.193315
    7 0.000001 0.002036 1.614274 -0.550230 -1.247158 3.860936
    8 5.073841 0.000000 0.000002 0.228367 0.667060 0.119544
    9 12.011117 0.000000 -0.000001 0.000000 0.000000 -0.096134
    10 10.249307 0.000000 0.000000 -1.429536 -0.097694 -0.060755
    11 1.183836 0.259443 -1.427523 0.284151 0.306774 0.160773
    12 0.625233 0.000000 0.000000 0.000000 0.000000 0.139626
    13 1.041848 0.000000 0.000001 0.000000 0.000000 0.139626
    14 3.037806 -0.002122 -0.118180 0.244051 0.011751 0.127925
    15 1.172004 -0.000001 0.000000 0.000000 0.000000 0.137843
    16 1.160930 0.000000 0.000000 0.000000 0.000000 0.136237
    17 0.000001 0.002045 -1.614274 -0.728363 1.238142 2.633710
    18 4.700062 0.000000 -0.000002 0.497157 -1.090014 -0.356318
    19 12.049927 0.000000 0.000001 0.000000 0.000000 -0.817123
    20 10.340311 0.000001 0.000000 1.321052 0.190893 -0.048178
    21 1.186625 0.034757 1.438863 -0.317912 -0.253218 0.365380
    22 0.607803 0.000000 0.000000 0.000000 0.000000 0.139618
    23 1.063061 0.000001 0.000000 0.000000 0.000000 0.139618
    24 2.950419 0.002914 0.177525 -0.242660 0.009852 0.213339
    25 1.294388 0.000000 -0.000001 0.000000 0.000000 0.137929
    26 1.183920 0.000001 0.000000 0.000000 0.000000 0.138007
    27 2.738953 3.890889 0.113747 3.249882 -1.519419 -0.204593
    28 0.000000 -1.023687 -1.922726 0.003076 -0.020944 -0.000158
    29 0.000000 -0.558375 -1.804806 -0.017114 0.016405 0.001385
    30 0.000000 -0.325718 -1.929488 0.000000 0.013574 0.000000
    31 0.000000 0.046531 -1.430430 -0.032835 -0.065783 0.007139
    32 0.000000 0.000000 -1.347565 0.000000 -0.016808 0.000000
    33 0.000000 -0.046531 -2.135521 0.000000 -0.050899 0.000000
    34 0.000000 -0.279187 -2.151380 -0.090912 -0.035783 0.011001
    35 -3.950634 -0.280633 3.432078 0.096761 -3.094240 0.161624
    36 19.302956 0.000000 0.000000 0.000000 0.000000 -0.001959
    37 15.657714 0.000000 0.000000 0.229974 -0.040719 -0.000696
    38 3.741828 7.474068 0.000000 0.000000 0.000000 1.570796
    39 -3.845162 -0.975948 -3.365668 0.108005 3.135536 0.225802
    40 19.302958 0.000000 0.000000 0.000000 0.000000 -0.002011
    41 15.657715 0.000000 0.000000 0.219074 0.019265 0.057801
    42 3.741828 7.351521 0.000000 0.000000 0.000000 1.570796
    43 2.562340 0.000000 0.000000 0.216320 -0.236686 0.150814
    44 8.541129 0.000000 0.000000 0.000000 0.000000 0.000000
    45 -7.351523 1.350579 0.144448 -0.001821 -3.141495 -1.435608
    46 4.991368 -0.677071 0.532282 1.237053 -2.969057 -0.819481
  time 2
    0 -0.213931 1.560221 38.317652 0.000000 -0.156953 -1.221949
    1 0.965792 0.222663 0.000000 -3.141557 -1.554056 1.570756
    2 3.928664 0.383633 -0.062498 0.163118 0.033748 -0.102477
    3 3.442969 -0.003536 0.000000 0.104542 0.005141 -0.030145
    4 4.441442 -0.003536 0.000000 0.148105 0.006687 -0.036493
    5 4.441389 -0.003537 0.000000 0.130657 0.006855 -0.045284
    6 4.441391 -0.002040 0.000000 0.000000 0.000000 -0.331443
    7 0.000001 0.002036 1.614274 -0.838138 -1.166814 4.268506
    8 5.073841 0.000000 0.000002 0.124068 0.343552 -0.043182
    9 12.011117 0.000000 -0.000001 0.000000 0.000000 -0.104104
    10 10.249307 0.000000 0.000000 -1.531901 -0.236081 -0.121510
    11 1.183836 0.259443 -1.427523 0.292743 0.386840 0.186013
    12 0.625233 0.000000 0.000000 0.000000 0.000000 0.139626
    13 1.041848 0.000000 0.000001 0.000000 0.000000 0.139626
    14 3.037806 -0.002122 -0.118180 0.243104 0.033718 0.118988
    15 1.172004 -0.000001 0.000000 0.000000 0.000000 0.133381
    16 1.160930 0.000000 0.000000 0.000000 0.000000 0.127886
    17 0.000001 0.002045 -1.614274 -1.017037 1.114972 2.504472
    18 4.700062 0.000000 -0.000002 0.722149 -0.849846 -0.602443
    19 12.049927 0.000000 0.000001 0.000000 0.000000 -1.174547
    20 10.340311 0.000001 0.000000 1.312890 0.313447 -0.080896
    21 1.186625 0.034757 1.438863 -0.321917 -0.296039 0.380114
    22 0.607803 0.000000 0.000000 0.000000 0.000000 0.139618
    23 1.063061 0.000001 0.000000 0.000000 0.000000 0.139618
    24 2.950419 0.002914 0.177525 -0.245485 -0.016670 0.164875
    25 1.294388 0.000000 -0.000001 0.000000 0.000000 0.133758
    26 1.183920 0.000001 0.000000 0.000000 0.000000 0.133935
    27 2.738953 3.890889 0.113747 3.211630 -1.464157 -0.218111
    28 0.000000 -1.023687 -1.922726 0.009881 -0.046084 -0.000632
    29 0.000000 -0.558375 -1.804806 -0.036313 0.033171 0.002638
    30 0.000000 -0.325718 -1.929488 0.000000 0.029044 0.000000
    31 0.000000 0.046531 -1.430430 -0.069365 -0.140699 0.017889
    32 0.000000 0.000000 -1.347565 0.000000 -0.038090 0.000000
    33 0.000000 -0.046531 -2.135521 0.000000 -0.110534 0.000000
    34 0.000000 -0.279187 -2.151380 -0.190538 -0.076082 0.027629
    35 -3.981884 -0.229850 3.432078 0.162692 -3.110809 0.102571
    36 19.302956 0.000000 0.000000 0.000000 0.000000 -0.221684
    37 15.657714 0.000000 0.000000 0.356550 -0.029828 0.068427
    38 3.741828 7.474068 0.000000 0.000000 0.000000 1.570796
    39 -3.755315 -1.335334 -3.307073 0.168145 3.138027 0.210460
    40 19.302958 0.000000 0.000000 0.000000 0.000000 -0.199141
    41 15.657715 0.000000 0.000000 0.344388 0.020855 0.146645
    42 3.741828 7.351521 0.000000 0.000000 0.000000 1.570796
    43 2.562340 0.000000 0.000000 0.462429 -0.357407 0.124645
    44 8.541129 0.000000 0.000000 0.000000 0.000000 0.000000
    45 -7.351523 1.350579 0.144448 0.000001 -3.141591 -1.352675
    46 4.991368 -0.677071 0.532282 1.237053 -2.969057 -0.819481
  time 3
    0 -0.768636 1.418409 37.853575 0.009487 -0.142203 -1.237366
    1 0.532185 0.207038 0.000000 -0.000033 -1.596098 -1.570756
    2 3.928664 0.383633 -0.097655 0.156309 0.042868 -0.075157
    3 3.442969 -0.003536 0.000000 0.088398 0.008245 -0.001894
    4 4.441442 -0.003536 0.000000 0.122912 0.012200 0.000592
    5 4.441389 -0.003537 0.000000 0.097872 0.015352 -0.011865
    6 4.441391 -0.002040 0.000000 0.000000 0.000000 -0.362510
    7 0.000001 0.002036 1.614274 -0.915987 -1.131829 4.370614
    8 5.073841 0.000000 0.000002 -0.137323 0.361447 -0.196523
    9 12.011117 0.000000 -0.000001 0.000000 0.000000 -0.146636
    10 10.249307 0.000000 0.000000 -1.627005 -0.379368 -0.167577
    11 1.183836 0.259443 -1.427523 0.304572 0.470627 0.214407
    12 0.625233 0.000000 0.000000 0.000000 0.000000 0.139626
    13 1.041848 0.000000 0.000001 0.000000 0.000000 0.139626
    14 3.037806 -0.002122 -0.118180 0.241946 0.057004 0.109351
    15 1.172004 -0.000001 0.000000 0.000000 0.000000 0.127593
    16 1.160930 0.000000 0.000000 0.000000 0.000000 0.117073
    17 0.000001 0.002045 -1.614274 -1.071589 1.076744 2.487023
    18 4.700062 0.000000 -0.000002 0.710994 -0.677034 -0.865360
    19 12.049927 0.000000 0.000001 0.000000 0.000000 -1.320494
    20 10.340311 0.000001 0.000000 1.299857 0.435876 -0.116355
    21 1.186625 0.034757 1.438863 -0.327009 -0.341999 0.396411
    22 0.607803 0.000000 0.000000 0.000000 0.000000 0.139618
    23 1.063061 0.000001 0.000000 0.000000 0.000000 0.139618
    24 2.950419 0.002914 0.177525 -0.247148 -0.044918 0.114516
    25 1.294388 0.000000 -0.000001 0.000000 0.000000 0.128350
    26 1.183920 0.000001 0.000000 0.000000 0.000000 0.128692
    27 2.738953 3.890889 0.113747 3.181719 -1.409005 -0.240257
    28 0.000000 -1.023687 -1.922726 0.016719 -0.071208 -0.001309
    29 0.000000 -0.558375 -1.804806 -0.056801 0.050159 0.003671
    30 0.000000 -0.325718 -1.929488 0.000000 0.045900 0.000000
    31 0.000000 0.046531 -1.430430 -0.107241 -0.215171 0.031593
    32 0.000000 0.000000 -1.347565 0.000000 -0.059358 0.000000
    33 0.000000 -0.046531 -2.135521 0.000000 -0.170169 0.000000
    34 0.000000 -0.279187 -2.151380 -0.291168 -0.114501 0.048275
    35 -4.032667 -0.151723 3.412546 0.160584 -3.118999 -0.035088
    36 19.302956 0.000000 0.000000 0.000000 0.000000 -0.423808
    37 15.657714 0.000000 0.000000 0.329030 -0.056300 0.182671
    38 3.741828 7.474068 0.000000 0.000000 0.000000 1.570796
    39 -3.743596 -1.210330 -3.334417 0.160292 3.122506 0.052616
    40 19.302958 0.000000 0.000000 0.000000 0.000000 -0.435254
    41 15.657715 0.000000 0.000000 0.318126 -0.002328 0.274406
    42 3.741828 7.351521 0.000000 0.000000 0.000000 1.570796
    43 2.562340 0.000000 0.000000 0.622164 -0.342335 -0.007196
    44 8.541129 0.000000 0.000000 0.000000 0.000000 0.000000
    45 -7.351523 1.350579 0.144448 0.007671 -3.141975 -1.349032
    46 4.991368 -0.677071 0.532282 1.237053 -2.969057 -0.819481
  time 4
    0 -1.503033 1.106424 37.353799 0.021561 -0.113276 -1.281414
    1 -0.057677 0.187506 0.000000 -0.000033 -1.604751 -1.570756
    2 3.928664 0.383633 -0.132812 0.136477 0.050957 -0.035318
    3 3.442969 -0.003536 0.000000 0.059384 0.011901 0.035850
    4 4.441442 -0.003536 0.000000 0.082124 0.019583 0.046618
    5 4.441389 -0.003537 0.000000 0.049565 0.026318 0.028708
    6 4.441391 -0.002040 0.000000 0.000000 0.000000 -0.359037
    7 0.000001 0.002036 1.614274 -0.936600 -1.121163 4.385858
    8 5.073841 0.000000 0.000002 -0.440004 0.417846 -0.398478
    9 12.011117 0.000000 -0.000001 0.000000 0.000000 -0.203247
    10 10.249307 0.000000 0.000000 -1.711111 -0.523880 -0.194044
    11 1.183836 0.259443 -1.427523 0.319718 0.554093 0.245281
    12 0.625233 0.000000 0.000000 0.000000 0.000000 0.139626
    13 1.041848 0.000000 0.000001 0.000000 0.000000 0.139626
    14 3.037806 -0.002122 -0.118180 0.240551 0.080266 0.099648
    15 1.172004 -0.000001 0.000000 0.000000 0.000000 0.121850
    16 1.160930 0.000000 0.000000 0.000000 0.000000 0.106206
    17 0.000001 0.002045 -1.614274 -1.068521 1.079078 2.486257
    18 4.700062 0.000000 -0.000002 0.630650 -0.584202 -1.111564
    19 12.049927 0.000000 0.000001 0.000000 0.000000 -1.380862
    20 10.340311 0.000001 0.000000 1.280702 0.558554 -0.156444
    21 1.186625 0.034757 1.438863 -0.333035 -0.387894 0.413228
    22 0.607803 0.000000 0.000000 0.000000 0.000000 0.139618
    23 1.063061 0.000001 0.000000 0.000000 0.000000 0.139618
    24 2.950419 0.002914 0.177525 -0.247380 -0.073213 0.064051
    25 1.294388 0.000000 -0.000001 0.000000 0.000000 0.122890
    26 1.183920 0.000001 0.000000 0.000000 0.000000 0.123448
    27 2.738953 3.890889 0.113747 3.159478 -1.357819 -0.270361
    28 0.000000 -1.023687 -1.922726 0.019861 -0.092152 -0.001761
    29 0.000000 -0.558375 -1.804806 -0.077818 0.067260 0.004352
    30 0.000000 -0.325718 -1.929488 0.000000 0.063604 0.000000
    31 0.000000 0.046531 -1.430430 -0.143469 -0.279768 0.046402
    32 0.000000 0.000000 -1.347565 0.000000 -0.076180 0.000000
    33 0.000000 -0.046531 -2.135521 0.000000 -0.221068 0.000000
    34 0.000000 -0.279187 -2.151380 -0.384651 -0.145473 0.069540
    35 -4.083450 -0.065783 3.389108 0.143239 -3.117380 -0.162272
    36 19.302956 0.000000 0.000000 0.000000 0.000000 -0.573694
    37 15.657714 0.000000 0.000000 0.281816 -0.086291 0.277548
    38 3.741828 7.474068 0.000000 0.000000 0.000000 1.570796
    39 -3.739690 -0.987667 -3.377388 0.136351 3.116278 -0.090933
    40 19.302958 0.000000 0.000000 0.000000 0.000000 -0.597166
    41 15.657715 0.000000 0.000000 0.273119 -0.027486 0.365256
    42 3.741828 7.351521 0.000000 0.000000 0.000000 1.570796
    43 2.562340 0.000000 0.000000 0.723228 -0.282127 -0.140702
    44 8.541129 0.000000 0.000000 0.000000 0.000000 0.000000
    45 -7.351523 1.350579 0.144448 0.015725 -3.142358 -1.347210
    46 4.991368 -0.677071 0.532282 1.237053 -2.969057 -0.819481
  time 5
    0 -2.307745 0.680988 36.746929 0.033347 -0.074109 -1.343848
    1 -0.753010 0.214850 0.000000 -0.000033 -1.613464 -1.570756
    2 3.928664 0.383633 -0.164063 0.108774 0.059275 0.013415
    3 3.442969 -0.003536 0.000000 0.023945 0.017138 0.077995
    4 4.441442 -0.003536 0.000000 0.031916 0.029794 0.098682
    5 4.441389 -0.003537 0.000000 -0.007908 0.040460 0.074243
    6 4.441391 -0.002040 0.000000 0.000000 0.000000 -0.341799
    7 0.000001 0.002036 1.614274 -0.947241 -1.115454 4.378092
    8 5.073841 0.000000 0.000002 -0.768832 0.394084 -0.592467
    9 12.011117 0.000000 -0.000001 0.000000 0.000000 -0.263880
    10 10.249307 0.000000 0.000000 -1.781055 -0.665140 -0.196818
    11 1.183836 0.259443 -1.427523 0.337941 0.633197 0.277822
    12 0.625233 0.000000 0.000000 0.000000 0.000000 0.139626
    13 1.041848 0.000000 0.000001 0.000000 0.000000 0.139626
    14 3.037806 -0.002122 -0.118180 0.238982 0.102222 0.090578
    15 1.172004 -0.000001 0.000000 0.000000 0.000000 0.117387
    16 1.160930 0.000000 0.000000 0.000000 0.000000 0.097855
    17 0.000001 0.002045 -1.614274 -1.054907 1.089195 2.481079
    18 4.700062 0.000000 -0.000002 0.503062 -0.498023 -1.354731
    19 12.049927 0.000000 0.000001 0.000000 0.000000 -1.428624
    20 10.340311 0.000001 0.000000 1.253187 0.681726 -0.203723
    21 1.186625 0.034757 1.438863 -0.339474 -0.430523 0.429478
    22 0.607803 0.000000 0.000000 0.000000 0.000000 0.139618
    23 1.063061 0.000001 0.000000 0.000000 0.000000 0.139618
    24 2.950419 0.002914 0.177525 -0.246206 -0.099867 0.015535
    25 1.294388 0.000000 -0.000001 0.000000 0.000000 0.118718
    26 1.183920 0.000001 0.000000 0.000000 0.000000 0.119376
    27 2.738953 3.890889 0.113747 3.145385 -1.314513 -0.309094
    28 0.000000 -1.023687 -1.922726 0.015509 -0.104722 -0.001467
    29 0.000000 -0.558375 -1.804806 -0.098589 0.084323 0.004682
    30 0.000000 -0.325718 -1.929488 0.000000 0.081647 0.000000
    31 0.000000 0.046531 -1.430430 -0.174175 -0.325346 0.059280
    32 0.000000 0.000000 -1.347565 0.000000 -0.084053 0.000000
    33 0.000000 -0.046531 -2.135521 0.000000 -0.254517 0.000000
    34 0.000000 -0.279187 -2.151380 -0.462051 -0.164423 0.086603
    35 -4.134233 0.031877 3.361763 0.118323 -3.105096 -0.276289
    36 19.302956 0.000000 0.000000 0.000000 0.000000 -0.686125
    37 15.657714 0.000000 0.000000 0.232646 -0.115864 0.356897
    38 3.741828 7.474068 0.000000 0.000000 0.000000 1.570796
    39 -3.731877 -0.706409 -3.416451 0.104941 3.121739 -0.220287
    40 19.302958 0.000000 0.000000 0.000000 0.000000 -0.715391
    41 15.657715 0.000000 0.000000 0.226255 -0.052669 0.436136
    42 3.741828 7.351521 0.000000 0.000000 0.000000 1.570796
    43 2.562340 0.000000 0.000000 0.761179 -0.199533 -0.202292
    44 8.541129 0.000000 0.000000 0.000000 0.000000 0.000000
    45 -7.351523 1.350579 0.144448 0.023970 -3.142742 -1.346922
    46 4.991368 -0.677071 0.532282 1.237053 -2.969057 -0.819481
  time 6
    0 -3.073394 0.198829 36.032964 0.042642 -0.028999 -1.415091
    1 -1.463969 0.308603 0.000000 -0.000033 -1.622188 -1.570756
    2 3.924758 0.383633 -0.199220 0.078351 0.068695 0.067371
    3 3.442969 -0.003536 0.000000 -0.011505 0.024269 0.119437
    4 4.441442 -0.003536 0.000000 -0.021460 0.043109 0.153836
    5 4.441389 -0.003537 0.000000 -0.068317 0.057898 0.122593
    6 4.441391 -0.002040 0.000000 0.000000 0.000000 -0.331443
    7 0.000001 0.002036 1.614274 -0.958171 -1.109331 4.377517
    8 5.073841 0.000000 0.000002 -1.066298 0.284805 -0.724606
    9 12.011117 0.000000 -0.000001 0.000000 0.000000 -0.325779
    10 10.249307 0.000000 0.000000 -1.848340 -0.842601 -0.172352
    11 1.183836 0.259443 -1.427523 0.358243 0.703960 0.310544
    12 0.625233 0.000000 0.000000 0.000000 0.000000 0.139626
    13 1.041848 0.000000 0.000001 0.000000 0.000000 0.139626
    14 3.037806 -0.002122 -0.118180 0.237363 0.121541 0.082909
    15 1.172004 -0.000001 0.000000 0.000000 0.000000 0.115620
    16 1.160930 0.000000 0.000000 0.000000 0.000000 0.094536
    17 0.000001 0.002045 -1.614274 -0.998725 1.126328 2.520963
    18 4.700062 0.000000 -0.000002 0.388233 -0.367771 -1.542403
    19 12.049927 0.000000 0.000001 0.000000 0.000000 -1.437585
    20 10.340311 0.000001 0.000000 1.204938 0.841458 -0.291046
    21 1.186625 0.034757 1.438863 -0.345688 -0.466714 0.443785
    22 0.607803 0.000000 0.000000 0.000000 0.000000 0.139618
    23 1.063061 0.000001 0.000000 0.000000 0.000000 0.139618
    24 2.950419 0.002914 0.177525 -0.243870 -0.123225 -0.029083
    25 1.294388 0.000000 -0.000001 0.000000 0.000000 0.117070
    26 1.183920 0.000001 0.000000 0.000000 0.000000 0.117772
    27 2.738953 3.890889 0.113747 3.141550 -1.282833 -0.358564
    28 0.000000 -1.023687 -1.922726 0.000000 -0.104706 0.000000
    29 0.000000 -0.558375 -1.804806 -0.118353 0.101225 0.004616
    30 0.000000 -0.325718 -1.929488 0.000000 0.099520 0.000000
    31 0.000000 0.046531 -1.430430 -0.194720 -0.342975 0.066223
    32 0.000000 0.000000 -1.347565 0.000000 -0.078529 0.000000
    33 0.000000 -0.046531 -2.135521 0.000000 -0.261791 0.000000
    34 0.000000 -0.279187 -2.151380 -0.514042 -0.167663 0.093954
    35 -4.177203 0.141255 3.342232 0.091298 -3.087574 -0.381678
    36 19.302956 0.000000 0.000000 0.000000 0.000000 -0.773125
    37 15.657714 0.000000 0.000000 0.174188 -0.142237 0.428148
    38 3.741828 7.474068 0.000000 0.000000 0.000000 1.570796
    39 -3.712345 -0.389993 -3.455515 0.071328 3.133908 -0.343315
    40 19.302958 0.000000 0.000000 0.000000 0.000000 -0.806462
    41 15.657715 0.000000 0.000000 0.171358 -0.074888 0.495023
    42 3.741828 7.351521 0.000000 0.000000 0.000000 1.570796
    43 2.562340 0.000000 0.000000 0.747350 -0.128563 -0.130968
    44 8.541129 0.000000 0.000000 0.000000 0.000000 0.000000
    45 -7.351523 1.350579 0.144448 0.032503 -3.143221 -1.348265
    46 4.991368 -0.677071 0.532282 1.237053 -2.969057 -0.819481
  time 7
    0 -3.698413 -0.254969 35.283301 0.048296 0.017471 -1.485760
    1 -2.124146 0.457045 0.000000 -0.000033 -1.630901 -1.570756
    2 3.924758 0.383633 -0.234378 0.050228 0.079397 0.122899
    3 3.442969 -0.003536 0.000000 -0.040616 0.032742 0.155187
    4 4.441442 -0.003536 0.000000 -0.071960 0.058928 0.209320
    5 4.441389 -0.003537 0.000000 -0.125413 0.077972 0.171832
    6 4.441391 -0.002040 0.000000 0.000000 0.000000 -0.378675
    7 0.000001 0.002036 1.614274 -0.959993 -1.108311 4.426414
    8 5.073841 0.000000 0.000002 -1.299328 0.116927 -0.816975
    9 12.011117 0.000000 -0.000001 0.000000 0.000000 -0.391626
    10 10.249307 0.000000 0.000000 -1.931224 -1.041058 -0.104093
    11 1.183836 0.259443 -1.427523 0.378664 0.762727 0.341057
    12 0.625233 0.000000 0.000000 0.000000 0.000000 0.139626
    13 1.041848 0.000000 0.000001 0.000000 0.000000 0.139626
    14 3.037806 -0.002122 -0.118180 0.235844 0.136918 0.077307
    15 1.172004 -0.000001 0.000000 0.000000 0.000000 0.117829
    16 1.160930 0.000000 0.000000 0.000000 0.000000 0.098711
    17 0.000001 0.002045 -1.614274 -0.700272 1.245583 2.845589
    18 4.700062 0.000000 -0.000002 0.538058 0.025856 -1.584943
    19 12.049927 0.000000 0.000001 0.000000 0.000000 -1.298017
    20 10.340311 0.000001 0.000000 1.104095 1.021245 -0.441557
    21 1.186625 0.034757 1.438863 -0.350742 -0.493329 0.454681
    22 0.607803 0.000000 0.000000 0.000000 0.000000 0.139618
    23 1.063061 0.000001 0.000000 0.000000 0.000000 0.139618
    24 2.950419 0.002914 0.177525 -0.240874 -0.141657 -0.067748
    25 1.294388 0.000000 -0.000001 0.000000 0.000000 0.119130
    26 1.183920 0.000001 0.000000 0.000000 0.000000 0.119808
    27 2.738953 3.890889 0.113747 3.150849 -1.267267 -0.424621
    28 0.000000 -1.023687 -1.922726 -0.039819 -0.085994 0.003408
    29 0.000000 -0.558375 -1.804806 -0.136297 0.117817 0.004177
    30 0.000000 -0.325718 -1.929488 0.000000 0.116716 0.000000
    31 0.000000 0.046531 -1.430430 -0.204420 -0.330535 0.065453
    32 0.000000 0.000000 -1.347565 0.000000 -0.056953 0.000000
    33 0.000000 -0.046531 -2.135521 0.000000 -0.238685 0.000000
    34 0.000000 -0.279187 -2.151380 -0.540895 -0.154001 0.089014
    35 -4.216267 0.266259 3.322700 0.064370 -3.070053 -0.484174
    36 19.302956 0.000000 0.000000 0.000000 0.000000 -0.845406
    37 15.657714 0.000000 0.000000 0.099330 -0.161953 0.498356
    38 3.741828 7.474068 0.000000 0.000000 0.000000 1.570796
    39 -3.677188 -0.077483 -3.482859 0.037523 3.147800 -0.468285
    40 19.302958 0.000000 0.000000 0.000000 0.000000 -0.881940
    41 15.657715 0.000000 0.000000 0.102037 -0.090962 0.547098
    42 3.741828 7.351521 0.000000 0.000000 0.000000 1.570796
    43 2.562340 0.000000 0.000000 0.462792 -0.009427 0.452139
    44 8.541129 0.000000 0.000000 0.000000 0.000000 0.000000
    45 -7.351523 1.350579 0.144448 0.041132 -3.143700 -1.350853
    46 4.991368 -0.677071 0.532282 1.237053 -2.969057 -0.819481
  time 8
    0 -4.077330 -0.652042 34.497940 0.050979 0.060648 -1.546470
    1 -2.671038 0.625019 0.000000 -0.000033 -1.639578 -1.570756
    2 3.920851 0.383633 -0.269535 0.029247 0.090842 0.176353
    3 3.442969 -0.003536 0.000000 -0.057190 0.041335 0.180379
    4 4.441442 -0.003536 0.000000 -0.113652 0.075755 0.262663
    5 4.441389 -0.003537 0.000000 -0.173153 0.099244 0.220375
    6 4.441391 -0.002040 0.000000 0.000000 0.000000 -0.331443
    7 0.000001 0.002036 1.614274 -0.961143 -1.107631 4.380202
    8 5.073841 0.000000 0.000002 -1.450633 -0.071707 -0.879432
    9 12.011117 0.000000 -0.000001 0.000000 0.000000 -0.459037
    10 10.249307 0.000000 0.000000 -2.018996 -1.174967 0.009959
    11 1.183836 0.259443 -1.427523 0.396208 0.805711 0.365846
    12 0.625233 0.000000 0.000000 0.000000 0.000000 0.139626
    13 1.041848 0.000000 0.000001 0.000000 0.000000 0.139626
    14 3.037806 -0.002122 -0.118180 0.234599 0.147069 0.074539
    15 1.172004 -0.000001 0.000000 0.000000 0.000000 0.125384
    16 1.160930 0.000000 0.000000 0.000000 0.000000 0.112897
    17 0.000001 0.002045 -1.614274 -0.206812 1.313211 3.272034
    18 4.700062 0.000000 -0.000002 0.854549 0.281899 -1.516815
    19 12.049927 0.000000 0.000001 0.000000 0.000000 -1.189734
    20 10.340311 0.000001 0.000000 0.957899 1.146357 -0.610315
    21 1.186625 0.034757 1.438863 -0.353550 -0.507293 0.460555
    22 0.607803 0.000000 0.000000 0.000000 0.000000 0.139618
    23 1.063061 0.000001 0.000000 0.000000 0.000000 0.139618
    24 2.950419 0.002914 0.177525 -0.237829 -0.153606 -0.098248
    25 1.294388 0.000000 -0.000001 0.000000 0.000000 0.126238
    26 1.183920 0.000001 0.000000 0.000000 0.000000 0.126656
    27 2.738953 3.890889 0.113747 3.174816 -1.265817 -0.508606
    28 0.000000 -1.023687 -1.922726 -0.102247 -0.050010 0.006930
    29 0.000000 -0.558375 -1.804806 -0.151698 0.133999 0.003429
    30 0.000000 -0.325718 -1.929488 0.000000 0.132694 0.000000
    31 0.000000 0.046531 -1.430430 -0.207131 -0.296403 0.059014
    32 0.000000 0.000000 -1.347565 0.000000 -0.022709 0.000000
    33 0.000000 -0.046531 -2.135521 0.000000 -0.192209 0.000000
    34 0.000000 -0.279187 -2.151380 -0.551910 -0.127658 0.074698
    35 -4.243611 0.402982 3.307074 0.044533 -3.057769 -0.583527
    36 19.302956 0.000000 0.000000 0.000000 0.000000 -0.912990
    37 15.657714 0.000000 0.000000 0.019036 -0.171393 0.568481
    38 3.741828 7.474068 0.000000 0.000000 0.000000 1.570796
    39 -3.626405 0.207682 -3.494579 0.011763 3.159298 -0.589869
    40 19.302958 0.000000 0.000000 0.000000 0.000000 -0.949353
    41 15.657715 0.000000 0.000000 0.027664 -0.098167 0.595487
    42 3.741828 7.351521 0.000000 0.000000 0.000000 1.570796
    43 2.562340 0.000000 0.000000 0.160098 0.239189 1.066299
    44 8.541129 0.000000 0.000000 0.000000 0.000000 0.000000
    45 -7.351523 1.350579 0.144448 0.049953 -3.144180 -1.354784
    46 4.991368 -0.677071 0.532282 1.237053 -2.969057 -0.819481
  time 9
    0 -4.100769 -0.897849 33.748277 0.045230 0.115424 -1.596455
    1 -3.038236 0.605487 0.000000 -0.000033 -1.648171 -1.570756
    2 3.920851 0.383633 -0.300786 0.036432 0.096667 0.255302
    3 3.442969 -0.003536 0.000000 0.042018 0.049472 0.101694
    4 4.441442 -0.003536 0.000000 -0.111487 0.084839 0.334160
    5 4.441389 -0.003537 0.000000 -0.168811 0.115987 0.304217
    6 4.441391 -0.002040 0.000000 0.000000 0.000000 0.235496
    7 0.000001 0.002036 1.614274 -0.962294 -1.106999 3.814244
    8 5.073841 0.000000 0.000002 -1.377695 -0.173285 -1.194756
    9 12.011117 0.000000 -0.000001 0.000000 0.000000 -0.533599
    10 10.249307 0.000000 0.000000 -2.001815 -1.165969 0.072351
    11 1.183836 0.259443 -1.427523 0.406958 0.829513 0.380630
    12 0.625233 0.000000 0.000000 0.000000 0.000000 0.139626
    13 1.041848 0.000000 0.000001 0.000000 0.000000 0.139626
    14 3.037806 -0.002122 -0.118180 0.233777 0.150676 0.075306
    15 1.172004 -0.000001 0.000000 0.000000 0.000000 0.139610
    16 1.160930 0.000000 0.000000 0.000000 0.000000 0.139609
    17 0.000001 0.002045 -1.614274 -0.206812 1.313211 2.705135
    18 4.700062 0.000000 -0.000002 0.903470 0.039161 -1.254697
    19 12.049927 0.000000 0.000001 0.000000 0.000000 -1.386633
    20 10.340311 0.000001 0.000000 0.916495 1.161542 -0.612428
    21 1.186625 0.034757 1.438863 -0.353175 -0.505500 0.459797
    22 0.607803 0.000000 0.000000 0.000000 0.000000 0.139618
    23 1.063061 0.000001 0.000000 0.000000 0.000000 0.139618
    24 2.950419 0.002914 0.177525 -0.235384 -0.157525 -0.118476
    25 1.294388 0.000000 -0.000001 0.000000 0.000000 0.139578
    26 1.183920 0.000001 0.000000 0.000000 0.000000 0.139611
    27 2.738953 3.890889 0.113747 3.214985 -1.272300 -0.607259
    28 0.000000 -1.023687 -1.922726 -0.169027 -0.004211 0.007630
    29 0.000000 -0.558375 -1.804806 -0.163726 0.149609 0.002396
    30 0.000000 -0.325718 -1.929488 0.000000 0.146961 0.000000
    31 0.000000 0.046531 -1.430430 -0.205002 -0.247374 0.048866
    32 0.000000 0.000000 -1.347565 0.000000 0.019618 0.000000
    33 0.000000 -0.046531 -2.135521 0.000000 -0.130512 0.000000
    34 0.000000 -0.279187 -2.151380 -0.551396 -0.092956 0.054336
    35 -4.227986 0.735023 3.303168 0.051816 -3.055483 -0.727570
    36 19.302956 0.000000 0.000000 0.000000 0.000000 -0.985521
    37 15.657714 0.000000 0.000000 -0.041628 -0.170121 0.631510
    38 3.741828 7.474068 0.000000 0.000000 0.000000 1.570796
    39 -3.571716 0.488940 -3.490672 0.012816 3.162747 -0.744227
    40 19.302958 0.000000 0.000000 0.000000 0.000000 -1.011322
    41 15.657715 0.000000 0.000000 -0.027112 -0.095733 0.636643
    42 3.741828 7.351521 0.000000 0.000000 0.000000 1.570796
    43 2.562340 0.000000 0.000000 -0.048061 0.266248 0.715525
    44 8.541129 0.000000 0.000000 0.000000 0.000000 0.000000
    45 -7.351523 1.350579 0.144448 0.058869 -3.144851 -1.359674
    46 4.991368 -0.677071 0.532282 1.237053 -2.969057 -0.819481
  time 10
    0 -3.690600 -0.803308 33.248501 0.047721 0.118861 -1.574048
    1 -3.585128 0.277352 0.000000 -0.000033 -1.656668 -1.570756
    2 3.916945 0.383633 -0.335943 0.039041 0.082645 0.263055
    3 3.442969 -0.003536 0.000000 0.128499 0.034959 0.230022
    4 4.441442 -0.003536 0.000000 -0.111034 0.076414 0.342612
    5 4.441389 -0.003537 0.000000 -0.168119 0.115651 0.313579
    6 4.441391 -0.002040 0.000000 0.000000 0.000000 0.235496
    7 0.000001 0.002036 1.614274 -0.962006 -1.107145 3.814053
    8 5.073841 0.000000 0.000002 -1.170025 -0.224403 -1.475711
    9 12.011117 0.000000 -0.000001 0.000000 0.000000 -0.611886
    10 10.249307 0.000000 0.000000 -1.875009 -1.020021 0.080673
    11 1.183836 0.259443 -1.427523 0.403001 0.818606 0.375897
    12 0.625233 0.000000 0.000000 0.000000 0.000000 0.139626
    13 1.041848 0.000000 0.000001 0.000000 0.000000 0.139626
    14 3.037806 -0.002122 -0.118180 0.235296 0.142095 0.084609
    15 1.172004 -0.000001 0.000000 0.000000 0.000000 0.168725
    16 1.160930 0.000000 0.000000 0.000000 0.000000 0.193248
    17 0.000001 0.002045 -1.614274 -0.499322 1.337091 2.417420
    18 4.700062 0.000000 -0.000002 1.085082 0.040522 -1.225751
    19 12.049927 0.000000 0.000001 0.000000 0.000000 -1.284425
    20 10.340311 0.000001 0.000000 1.010361 1.077570 -0.418098
    21 1.186625 0.034757 1.438863 -0.346549 -0.471454 0.445727
    22 0.607803 0.000000 0.000000 0.000000 0.000000 0.139618
    23 1.063061 0.000001 0.000000 0.000000 0.000000 0.139618
    24 2.950419 0.002914 0.177525 -0.234418 -0.146930 -0.121584
    25 1.294388 0.000000 -0.000001 0.000000 0.000000 0.165793
    26 1.183920 0.000001 0.000000 0.000000 0.000000 0.164597
    27 2.738953 3.890889 0.113747 3.270302 -1.280562 -0.715307
    28 0.000000 -1.023687 -1.922726 -0.222326 0.043614 0.004718
    29 0.000000 -0.558375 -1.804806 -0.171603 0.164536 0.001231
    30 0.000000 -0.325718 -1.929488 0.000000 0.159010 0.000000
    31 0.000000 0.046531 -1.430430 -0.200142 -0.190231 0.037024
    32 0.000000 0.000000 -1.347565 0.000000 0.065441 0.000000
    33 0.000000 -0.046531 -2.135521 0.000000 -0.061709 0.000000
    34 0.000000 -0.279187 -2.151380 -0.543441 -0.054116 0.031329
    35 -4.173297 0.777993 3.393014 0.068491 -3.049389 -0.770513
    36 19.302956 0.000000 0.000000 0.000000 0.000000 -1.047154
    37 15.657714 0.000000 0.000000 -0.013734 -0.165570 0.661772
    38 3.741828 7.474068 0.000000 0.000000 0.000000 1.570796
    39 -3.614686 0.512379 -3.412545 0.024978 3.169454 -0.773016
    40 19.302958 0.000000 0.000000 0.000000 0.000000 -1.063478
    41 15.657715 0.000000 0.000000 0.002406 -0.089684 0.670472
    42 3.741828 7.351521 0.000000 0.000000 0.000000 1.570796
    43 2.562340 0.000000 0.000000 -0.384806 0.082650 0.591568
    44 8.541129 0.000000 0.000000 0.000000 0.000000 0.000000
    45 -7.351523 1.350579 0.144448 0.067882 -3.145522 -1.365618
    46 4.991368 -0.677071 0.532282 1.237053 -2.969057 -0.819481
  time 11
    0 -2.913232 -0.330602 32.962915 0.051075 0.119505 -1.544555
    1 -3.479656 0.289071 0.000000 -0.000033 -1.665021 -1.570756
    2 3.913039 0.383633 -0.367194 0.041031 0.066130 0.262234
    3 3.442969 -0.003536 0.000000 0.148010 0.083473 0.200692
    4 4.441442 -0.003536 0.000000 -0.110840 0.065867 0.343547
    5 4.441389 -0.003537 0.000000 -0.167951 0.113290 0.314082
    6 4.441391 -0.002040 0.000000 -0.000067 -0.098587 0.235496
    7 0.156256 0.002036 1.606461 -1.123265 -1.180006 3.961031
    8 5.073841 0.000000 0.000002 -0.989788 -0.021101 -1.681786
    9 12.011117 0.000000 -0.000001 0.000000 0.000000 -0.691588
    10 10.249307 0.000000 0.000000 -1.735768 -0.808934 0.120965
    11 1.183836 0.259443 -1.427523 0.384379 0.769335 0.351469
    12 0.625233 0.000000 0.000000 0.000000 0.000000 0.139626
    13 1.041848 0.000000 0.000001 0.000000 0.000000 0.139626
    14 3.037806 -0.002122 -0.118180 0.239455 0.120007 0.103616
    15 1.172004 -0.000001 0.000000 0.000000 0.000000 0.214893
    16 1.160930 0.000000 0.000000 0.000000 0.000000 0.277452
    17 -0.156254 0.002045 -1.606461 -0.545341 1.276515 2.363539
    18 4.700062 0.000000 -0.000002 1.125254 -0.066824 -1.165059
    19 12.049927 0.000000 0.000001 0.000000 0.000000 -1.161259
    20 10.340311 0.000001 0.000000 1.091325 0.939625 -0.204083
    21 1.186625 0.034757 1.438863 -0.334907 -0.400865 0.418108
    22 0.607803 0.000000 0.000000 0.000000 0.000000 0.139618
    23 1.063061 0.000001 0.000000 0.000000 0.000000 0.139618
    24 2.950419 0.002914 0.177525 -0.234784 -0.120361 -0.106361
    25 1.294388 0.000000 -0.000001 0.000000 0.000000 0.206431
    26 1.183920 0.000001 0.000000 0.000000 0.000000 0.203093
    27 2.738953 3.890889 0.113747 3.334246 -1.284830 -0.821343
    28 0.000000 -1.023687 -1.922726 -0.244314 0.085820 0.000000
    29 0.000000 -0.558375 -1.804806 -0.174517 0.178657 0.000000
    30 0.000000 -0.325718 -1.929488 0.000000 0.168301 0.000000
    31 0.000000 0.046531 -1.430430 -0.194298 -0.131759 0.025210
    32 0.000000 0.000000 -1.347565 0.000000 0.110187 0.000000
    33 0.000000 -0.046531 -2.135521 0.000000 0.006076 0.000000
    34 0.000000 -0.279187 -2.151380 -0.531863 -0.015458 0.008824
    35 -4.118607 0.785806 3.490674 0.078840 -3.058531 -0.803781
    36 19.302956 0.000000 0.000000 0.000000 0.000000 -1.101960
    37 15.657714 0.000000 0.000000 0.023105 -0.143768 0.681891
    38 3.741828 7.474068 0.000000 0.000000 0.000000 1.570796
    39 -3.669375 0.504566 -3.322698 0.030820 3.162076 -0.788606
    40 19.302958 0.000000 0.000000 0.000000 0.000000 -1.105015
    41 15.657715 0.000000 0.000000 0.040871 -0.066743 0.694783
    42 3.741828 7.351521 0.000000 0.000000 0.000000 1.570796
    43 2.562340 0.000000 0.000000 -0.542455 0.257043 0.522168
    44 8.541129 0.000000 0.000000 0.000000 0.000000 0.000000
    45 -7.351523 1.350579 0.144448 0.076894 -3.146289 -1.372234
    46 4.991368 -0.677071 0.532282 1.237053 -2.969057 -0.819481
  time 12
    0 -1.893670 0.312278 32.820122 0.055004 0.118001 -1.510944
    1 -3.256993 0.058596 0.000000 -0.000033 -1.673195 -1.570756
    2 3.909132 0.383633 -0.398445 0.042910 0.049052 0.260205
    3 3.442969 -0.003536 0.000000 0.157262 0.076761 0.139901
    4 4.441442 -0.003536 0.000000 -0.110679 0.054997 0.343489
    5 4.441389 -0.003537 0.000000 -0.167846 0.110606 0.313401
    6 4.441391 -0.002040 0.000000 -0.000162 -0.201811 0.235496
    7 0.320323 0.002036 1.583023 -1.358634 -1.242323 4.181546
    8 5.073841 0.000000 0.000002 -0.874274 0.204863 -1.725945
    9 12.011117 0.000000 -0.000001 0.000000 0.000000 -0.782984
    10 10.249307 0.000000 0.000000 -1.587253 -0.558730 0.194180
    11 1.183836 0.259443 -1.427523 0.360521 0.695748 0.317846
    12 0.625233 0.000000 0.000000 0.000000 0.000000 0.139626
    13 1.041848 0.000000 0.000001 0.000000 0.000000 0.139626
    14 3.037806 -0.002122 -0.118180 0.243901 0.089555 0.127491
    15 1.172004 -0.000001 0.000000 0.000000 0.000000 0.270296
    16 1.160930 0.000000 0.000000 0.000000 0.000000 0.378680
    17 -0.320321 0.002045 -1.583023 -0.569693 1.213216 2.321930
    18 4.700062 0.000000 -0.000002 1.198162 -0.217940 -1.153225
    19 12.049927 0.000000 0.000001 0.000000 0.000000 -1.023969
    20 10.340311 0.000001 0.000000 1.121473 0.759797 -0.012449
    21 1.186625 0.034757 1.438863 -0.323265 -0.309042 0.384662
    22 0.607803 0.000000 0.000000 0.000000 0.000000 0.139618
    23 1.063061 0.000001 0.000000 0.000000 0.000000 0.139618
    24 2.950419 0.002914 0.177525 -0.235249 -0.083891 -0.078968
    25 1.294388 0.000000 -0.000001 0.000000 0.000000 0.255308
    26 1.183920 0.000001 0.000000 0.000000 0.000000 0.249486
    27 2.738953 3.890889 0.113747 3.437496 -1.286745 -0.947607
    28 0.000000 -1.023687 -1.922726 -0.187481 0.128057 -0.003973
    29 0.000000 -0.558375 -1.804806 -0.133754 0.193273 -0.000989
    30 0.000000 -0.325718 -1.929488 0.000000 0.174326 0.000000
    31 0.000000 0.046531 -1.430430 -0.188836 -0.078835 0.014838
    32 0.000000 0.000000 -1.347565 0.000000 0.149242 0.000000
    33 0.000000 -0.046531 -2.135521 0.000000 0.064741 0.000000
    34 0.000000 -0.279187 -2.151380 -0.519917 0.018501 -0.010415
    35 -4.056105 0.789712 3.592239 0.082099 -3.077956 -0.833258
    36 19.302956 0.000000 0.000000 0.000000 0.000000 -1.151880
    37 15.657714 0.000000 0.000000 0.057210 -0.109345 0.697585
    38 3.741828 7.474068 0.000000 0.000000 0.000000 1.570796
    39 -3.724064 0.496753 -3.228945 0.030054 3.145213 -0.800859
    40 19.302958 0.000000 0.000000 0.000000 0.000000 -1.139427
    41 15.657715 0.000000 0.000000 0.077022 -0.031704 0.712655
    42 3.741828 7.351521 0.000000 0.000000 0.000000 1.570796
    43 2.562340 0.000000 0.000000 -0.349894 0.212270 0.649863
    44 8.541129 0.000000 0.000000 0.000000 0.000000 0.000000
    45 -7.351523 1.350579 0.144448 0.085907 -3.147152 -1.379616
    46 4.991368 -0.677071 0.532282 1.237053 -2.969057 -0.819481
  time 13
    0 -0.753010 0.936250 32.641631 0.058837 0.115066 -1.476280
    1 -2.979641 -0.207038 0.000000 -0.000033 -1.681165 -1.570756
    2 3.909132 0.383633 -0.429696 0.044723 0.031183 0.257902
    3 3.442969 -0.003536 0.000000 0.169402 0.063243 0.069029
    4 4.441442 -0.003536 0.000000 -0.110501 0.043768 0.343345
    5 4.441389 -0.003537 0.000000 -0.167741 0.107622 0.312616
    6 4.441391 -0.002040 0.000000 -0.000242 -0.302681 0.235527
    7 0.480485 0.002036 1.543959 1.474516 -1.861072 1.334119
    8 5.073841 0.000000 0.000002 -0.833268 0.395551 -1.635872
    9 12.011117 0.000000 -0.000001 0.000000 0.000000 -0.890991
    10 10.249307 0.000000 0.000000 -1.423857 -0.297882 0.297546
    11 1.183836 0.259443 -1.427523 0.338141 0.612346 0.283006
    12 0.625233 0.000000 0.000000 0.000000 0.000000 0.139626
    13 1.041848 0.000000 0.000001 0.000000 0.000000 0.139626
    14 3.037806 -0.002122 -0.118180 0.246641 0.056058 0.151567
    15 1.172004 -0.000001 0.000000 0.000000 0.000000 0.327067
    16 1.160930 0.000000 0.000000 0.000000 0.000000 0.483172
    17 -0.480482 0.002045 -1.543959 -0.585128 1.153224 2.280321
    18 4.700062 0.000000 -0.000002 1.296077 -0.369283 -1.168338
    19 12.049927 0.000000 0.000001 0.000000 0.000000 -0.879769
    20 10.340311 0.000001 0.000000 1.101330 0.557687 0.155320
    21 1.186625 0.034757 1.438863 -0.314655 -0.211518 0.351358
    22 0.607803 0.000000 0.000000 0.000000 0.000000 0.139618
    23 1.063061 0.000001 0.000000 0.000000 0.000000 0.139618
    24 2.950419 0.002914 0.177525 -0.234797 -0.043599 -0.045465
    25 1.294388 0.000000 -0.000001 0.000000 0.000000 0.306298
    26 1.183920 0.000001 0.000000 0.000000 0.000000 0.298162
    27 2.738953 3.890889 0.113747 3.571808 -1.286608 -1.084322
    28 0.000000 -1.023687 -1.922726 -0.075876 0.169297 -0.003183
    29 0.000000 -0.558375 -1.804806 -0.053975 0.201731 -0.000615
    30 0.000000 -0.325718 -1.929488 0.000000 0.176576 0.000000
    31 0.000000 0.046531 -1.430430 -0.184839 -0.038327 0.007125
    32 0.000000 0.000000 -1.347565 0.000000 0.178033 0.000000
    33 0.000000 -0.046531 -2.135521 0.000000 0.106148 0.000000
    34 0.000000 -0.279187 -2.151380 -0.510640 0.043062 -0.023995
    35 -3.989697 0.789712 3.693805 0.079703 -3.101763 -0.857198
    36 19.302956 0.000000 0.000000 0.000000 0.000000 -1.197103
    37 15.657714 0.000000 0.000000 0.087619 -0.067490 0.712946
    38 3.741828 7.474068 0.000000 0.000000 0.000000 1.570796
    39 -3.782660 0.485034 -3.131286 0.024499 3.124326 -0.808978
    40 19.302958 0.000000 0.000000 0.000000 0.000000 -1.168193
    41 15.657715 0.000000 0.000000 0.110009 0.010131 0.728567
    42 3.741828 7.351521 0.000000 0.000000 0.000000 1.570796
    43 2.562340 0.000000 0.000000 -0.088913 0.096777 0.760052
    44 8.541129 0.000000 0.000000 0.000000 0.000000 0.000000
    45 -7.351523 1.350579 0.144448 0.094823 -3.148111 -1.387478
    46 4.991368 -0.677071 0.532282 1.237053 -2.969057 -0.819481
  time 14
    0 0.383743 1.333322 32.391743 0.062382 0.111342 -1.443531
    1 -2.733539 -0.480483 0.000000 -0.000033 -1.688895 -1.570756
    2 3.905226 0.383633 -0.460947 0.046514 0.014500 0.255507
    3 3.442969 -0.003536 0.000000 0.173309 0.045697 0.010921
    4 4.441442 -0.003536 0.000000 -0.110372 0.033353 0.343015
    5 4.441389 -0.003537 0.000000 -0.167678 0.105309 0.311594
    6 4.441391 -0.002040 0.000000 -0.000323 -0.387126 0.235559
    7 0.609395 0.002036 1.497083 -1.965799 -1.288435 4.762364
    8 5.073841 0.000000 0.000002 -0.814695 0.539226 -1.463287
    9 12.011117 0.000000 -0.000001 0.000000 0.000000 -1.008309
    10 10.249307 0.000000 0.000000 -1.240765 -0.055704 0.429015
    11 1.183836 0.259443 -1.427523 0.320478 0.533820 0.251411
    12 0.625233 0.000000 0.000000 0.000000 0.000000 0.139626
    13 1.041848 0.000000 0.000001 0.000000 0.000000 0.139626
    14 3.037806 -0.002122 -0.118180 0.246205 0.024898 0.171440
    15 1.172004 -0.000001 0.000000 0.000000 0.000000 0.377433
    16 1.160930 0.000000 0.000000 0.000000 0.000000 0.577441
    17 -0.609393 0.002045 -1.497083 -0.612740 1.106193 2.220688
    18 4.700062 0.000000 -0.000002 1.416301 -0.496133 -1.221993
    19 12.049927 0.000000 0.000001 0.000000 0.000000 -0.735569
    20 10.340311 0.000001 0.000000 1.040574 0.354546 0.307405
    21 1.186625 0.034757 1.438863 -0.309901 -0.123987 0.322696
    22 0.607803 0.000000 0.000000 0.000000 0.000000 0.139618
    23 1.063061 0.000001 0.000000 0.000000 0.000000 0.139618
    24 2.950419 0.002914 0.177525 -0.233158 -0.005584 -0.011805
    25 1.294388 0.000000 -0.000001 0.000000 0.000000 0.353219
    26 1.183920 0.000001 0.000000 0.000000 0.000000 0.343445
    27 2.738953 3.890889 0.113747 3.662308 -1.284365 -1.162938
    28 0.000000 -1.023687 -1.922726 0.000000 0.191982 0.000000
    29 0.000000 -0.558375 -1.804806 0.000000 0.191982 0.000000
    30 0.000000 -0.325718 -1.929488 0.000000 0.174526 0.000000
    31 0.000000 0.046531 -1.430430 -0.183273 -0.017150 0.003177
    32 0.000000 0.000000 -1.347565 0.000000 0.191974 0.000000
    33 0.000000 -0.046531 -2.135521 0.000000 0.122171 0.000000
    34 0.000000 -0.279187 -2.151380 -0.506919 0.053414 -0.029638
    35 -3.931102 0.789712 3.787558 0.072132 -3.125569 -0.874605
    36 19.302956 0.000000 0.000000 0.000000 0.000000 -1.240008
    37 15.657714 0.000000 0.000000 0.116942 -0.023945 0.732188
    38 3.741828 7.474068 0.000000 0.000000 0.000000 1.570796
    39 -3.829536 0.473315 -3.037533 0.015019 3.103631 -0.811618
    40 19.302958 0.000000 0.000000 0.000000 0.000000 -1.194674
    41 15.657715 0.000000 0.000000 0.142175 0.052978 0.747885
    42 3.741828 7.351521 0.000000 0.000000 0.000000 1.570796
    43 2.562340 0.000000 0.000000 0.154612 -0.058066 0.776338
    44 8.541129 0.000000 0.000000 0.000000 0.000000 0.000000
    45 -7.351523 1.350579 0.144448 0.103644 -3.149165 -1.395724
    46 4.991368 -0.677071 0.532282 1.237053 -2.969057 -0.819481
  time 15
    0 1.411118 1.295506 31.927666 0.065353 0.107619 -1.415570
    1 -2.624161 -0.714866 0.000000 -0.000033 -1.696361 -1.570756
    2 3.901320 0.383633 -0.488292 0.048261 0.001018 0.253135
    3 3.442969 -0.003536 0.000000 0.156806 0.025671 -0.011135
    4 4.441442 -0.003536 0.000000 -0.110323 0.024916 0.342411
    5 4.441389 -0.003537 0.000000 -0.167720 0.104625 0.310201
    6 4.441391 -0.002040 0.000000 -0.000404 -0.469788 0.235590
    7 0.730492 0.002036 1.442394 -2.250446 -1.272862 5.035228
    8 5.073841 0.000000 0.000002 -0.820195 0.630096 -1.258766
    9 12.011117 0.000000 -0.000001 0.000000 0.000000 -1.126819
    10 10.249307 0.000000 0.000000 -1.040565 0.140513 0.581767
    11 1.183836 0.259443 -1.427523 0.308329 0.475246 0.225720
    12 0.625233 0.000000 0.000000 0.000000 0.000000 0.139626
    13 1.041848 0.000000 0.000001 0.000000 0.000000 0.139626
    14 3.037806 -0.002122 -0.118180 0.241635 0.001492 0.182711
    15 1.172004 -0.000001 0.000000 0.000000 0.000000 0.413529
    16 1.160930 0.000000 0.000000 0.000000 0.000000 0.647781
    17 -0.730490 0.002045 -1.442394 -0.622902 1.063320 2.171792
    18 4.700062 0.000000 -0.000002 1.543014 -0.575584 -1.312350
    19 12.049927 0.000000 0.000001 0.000000 0.000000 -0.598431
    20 10.340311 0.000001 0.000000 0.948815 0.170591 0.448344
    21 1.186625 0.034757 1.438863 -0.308029 -0.062301 0.302941
    22 0.607803 0.000000 0.000000 0.000000 0.000000 0.139618
    23 1.063061 0.000001 0.000000 0.000000 0.000000 0.139618
    24 2.950419 0.002914 0.177525 -0.230896 0.024054 0.016009
    25 1.294388 0.000000 -0.000001 0.000000 0.000000 0.389890
    26 1.183920 0.000001 0.000000 0.000000 0.000000 0.379720
    27 2.738953 3.890889 0.113747 3.710242 -1.285131 -1.194480
    28 0.000000 -1.023687 -1.922726 0.024703 0.195323 0.001151
    29 0.000000 -0.558375 -1.804806 0.009873 0.162760 -0.000440
    30 0.000000 -0.325718 -1.929488 -0.007076 0.155436 -0.000849
    31 0.000000 0.046531 -1.430430 -0.185823 -0.022939 0.003989
    32 0.000000 0.000000 -1.347565 -0.004602 0.183123 -0.000439
    33 0.000000 -0.046531 -2.135521 -0.005377 0.099568 -0.000947
    34 0.000000 -0.279187 -2.151380 -0.515487 0.041940 -0.024347
    35 -3.876413 0.789712 3.869591 0.060920 -3.144709 -0.885428
    36 19.302956 0.000000 0.000000 0.000000 0.000000 -1.286797
    37 15.657714 0.000000 0.000000 0.147786 0.014552 0.762409
    38 3.741828 7.474068 0.000000 0.000000 0.000000 1.570796
    39 -3.868600 0.461596 -2.955500 0.003048 3.087151 -0.808480
    40 19.302958 0.000000 0.000000 0.000000 0.000000 -1.226465
    41 15.657715 0.000000 0.000000 0.175862 0.090138 0.778868
    42 3.741828 7.351521 0.000000 0.000000 0.000000 1.570796
    43 2.562340 0.000000 0.000000 0.409199 -0.159265 0.694872
    44 8.541129 0.000000 0.000000 0.000000 0.000000 0.000000
    45 -7.351523 1.350579 0.144448 0.112369 -3.150316 -1.404257
    46 4.991368 -0.677071 0.532282 1.237053 -2.969057 -0.819481
  time 16
    0 2.200205 0.614810 31.142305 0.067365 0.104755 -1.395461
    1 -3.022611 -0.890652 0.000000 -0.000033 -1.703516 -1.570756
    2 3.897413 0.383633 -0.519543 0.045519 -0.007935 0.249555
    3 3.442969 -0.003536 0.000000 0.058377 -0.011469 0.099612
    4 4.441442 -0.003536 0.000000 -0.110243 0.017474 0.339838
    5 4.441389 -0.003537 0.000000 -0.167825 0.104554 0.306868
    6 4.441391 -0.002040 0.000000 -0.000471 -0.542551 0.235622
    7 0.832058 0.002036 1.383798 -2.465873 -1.242590 5.240307
    8 5.073841 0.000000 0.000002 -0.950855 0.629656 -1.094284
    9 12.011117 0.000000 -0.000001 0.000000 0.000000 -1.238476
    10 10.249307 0.000000 0.000000 -0.841658 0.272015 0.735793
    11 1.183836 0.259443 -1.427523 0.301655 0.451893 0.207827
    12 0.625233 0.000000 0.000000 0.000000 0.000000 0.139626
    13 1.041848 0.000000 0.000001 0.000000 0.000000 0.139626
    14 3.037806 -0.002122 -0.118180 0.232120 -0.008803 0.180977
    15 1.172004 -0.000001 0.000000 0.000000 0.000000 0.427578
    16 1.160930 0.000000 0.000000 0.000000 0.000000 0.680649
    17 -0.832056 0.002045 -1.383798 -0.629613 1.029980 2.123568
    18 4.700062 0.000000 -0.000002 1.613078 -0.528261 -1.460361
    19 12.049927 0.000000 0.000001 0.000000 0.000000 -0.475417
    20 10.340311 0.000001 0.000000 0.836980 0.023073 0.575081
    21 1.186625 0.034757 1.438863 -0.307692 -0.042188 0.296546
    22 0.607803 0.000000 0.000000 0.000000 0.000000 0.139618
    23 1.063061 0.000001 0.000000 0.000000 0.000000 0.139618
    24 2.950419 0.002914 0.177525 -0.229171 0.039322 0.031970
    25 1.294388 0.000000 -0.000001 0.000000 0.000000 0.410131
    26 1.183920 0.000001 0.000000 0.000000 0.000000 0.401375
    27 2.738953 3.890889 0.113747 3.763641 -1.289098 -1.231774
    28 0.000000 -1.023687 -1.922726 0.042535 0.191460 0.001603
    29 0.000000 -0.558375 -1.804806 0.005811 0.124001 -0.001319
    30 0.000000 -0.325718 -1.929488 -0.022515 0.113418 -0.002249
    31 0.000000 0.046531 -1.430430 -0.191587 -0.052289 0.009015
    32 0.000000 0.000000 -1.347565 -0.014642 0.152514 -0.001180
    33 0.000000 -0.046531 -2.135521 -0.017108 0.040652 -0.002517
    34 0.000000 -0.279187 -2.151380 -0.534457 0.010296 -0.008607
    35 -3.841255 0.766274 3.936000 0.048749 -3.146709 -0.889817
    36 19.302956 0.000000 0.000000 0.000000 0.000000 -1.348618
    37 15.657714 0.000000 0.000000 0.179810 0.036533 0.814209
    38 3.741828 7.474068 0.000000 0.000000 0.000000 1.570796
    39 -3.892038 0.457689 -2.892998 -0.009784 3.086672 -0.800660
    40 19.302958 0.000000 0.000000 0.000000 0.000000 -1.276941
    41 15.657715 0.000000 0.000000 0.209670 0.110791 0.832903
    42 3.741828 7.351521 0.000000 0.000000 0.000000 1.570796
    43 2.562340 0.000000 0.000000 0.639756 -0.213271 0.461244
    44 8.541129 0.000000 0.000000 0.000000 0.000000 0.000000
    45 -7.351523 1.350579 0.144448 0.120902 -3.151562 -1.412885
    46 4.991368 -0.677071 0.532282 1.237053 -2.969057 -0.819481
  time 17
    0 2.625999 -0.897849 29.964262 0.068228 0.103538 -1.386173
    1 -3.475750 -0.761742 0.000000 -0.000033 -1.710347 -1.570756
    2 3.893507 0.383633 -0.542981 0.051555 0.000023 0.249145
    3 3.442969 -0.003536 0.000000 -0.050084 -0.015999 0.228818
    4 4.441442 -0.003536 0.000000 -0.110970 0.023586 0.339004
    5 4.441389 -0.003537 0.000000 -0.168811 0.115987 0.304217
    6 4.441391 -0.002040 0.000000 -0.000525 -0.584372 0.235654
    7 0.886747 0.002036 1.348641 -2.571046 -1.219680 5.339443
    8 5.073841 0.000000 0.000002 -1.145451 0.637944 -1.050058
    9 12.011117 0.000000 -0.000001 0.000000 0.000000 -1.310878
    10 10.249307 0.000000 0.000000 -0.651018 0.357218 0.867717
    11 1.183836 0.259443 -1.427523 0.297898 0.454909 0.194982
    12 0.625233 0.000000 0.000000 0.000000 0.000000 0.139626
    13 1.041848 0.000000 0.000001 0.000000 0.000000 0.139626
    14 3.037806 -0.002122 -0.118180 0.219082 -0.009486 0.169473
    15 1.172004 -0.000001 0.000000 0.000000 0.000000 0.425192
    16 1.160930 0.000000 0.000000 0.000000 0.000000 0.685520
    17 -0.886745 0.002045 -1.348641 -0.595387 1.038467 2.142455
    18 4.700062 0.000000 -0.000002 1.598424 -0.479653 -1.553438
    19 12.049927 0.000000 0.000001 0.000000 0.000000 -0.477847
    20 10.340311 0.000001 0.000000 0.674393 -0.108971 0.702447
    21 1.186625 0.034757 1.438863 -0.307879 -0.053141 0.300004
    22 0.607803 0.000000 0.000000 0.000000 0.000000 0.139618
    23 1.063061 0.000001 0.000000 0.000000 0.000000 0.139618
    24 2.950419 0.002914 0.177525 -0.228267 0.043912 0.038976
    25 1.294388 0.000000 -0.000001 0.000000 0.000000 0.418115
    26 1.183920 0.000001 0.000000 0.000000 0.000000 0.412171
    27 2.738953 3.890889 0.113747 3.820108 -1.294651 -1.271849
    28 0.000000 -1.023687 -1.922726 0.051173 0.183054 0.001399
    29 0.000000 -0.558375 -1.804806 -0.004627 0.080697 -0.001737
    30 0.000000 -0.325718 -1.929488 -0.037748 0.058273 -0.002736
    31 0.000000 0.046531 -1.430430 -0.197732 -0.095625 0.016923
    32 0.000000 0.000000 -1.347565 -0.024590 0.109068 -0.001426
    33 0.000000 -0.046531 -2.135521 -0.028638 -0.039333 -0.003080
    34 0.000000 -0.279187 -2.151380 -0.554040 -0.032444 0.014417
    35 -3.868600 0.789712 3.924281 0.038591 -3.148328 -0.914756
    36 19.302956 0.000000 0.000000 0.000000 0.000000 -1.443385
    37 15.657714 0.000000 0.000000 0.204100 0.038163 0.882831
    38 3.741828 7.474068 0.000000 0.000000 0.000000 1.570796
    39 -3.868600 0.438158 -2.896904 -0.021563 3.085139 -0.818093
    40 19.302958 0.000000 0.000000 0.000000 0.000000 -1.367743
    41 15.657715 0.000000 0.000000 0.234624 0.113128 0.905695
    42 3.741828 7.351521 0.000000 0.000000 0.000000 1.570796
    43 2.562340 0.000000 0.000000 0.962491 -0.339415 0.083043
    44 8.541129 0.000000 0.000000 0.000000 0.000000 0.000000
    45 -7.351523 1.350579 0.144448 0.129339 -3.152809 -1.421418
    46 4.991368 -0.677071 0.532282 1.237053 -2.969057 -0.819481
  time 18
    0 2.247081 -4.755128 27.858066 0.064970 0.091007 -1.407335
    1 -3.530439 -0.367199 0.000000 -0.000033 -1.714086 -1.570756
    2 3.889601 0.383633 -0.558606 0.083304 0.024759 0.257058
    3 3.442969 -0.003536 0.000000 -0.075347 0.029602 0.229395
    4 4.441442 -0.003536 0.000000 -0.113119 0.051857 0.345473
    5 4.441389 -0.003537 0.000000 -0.171223 0.146691 0.306602
    6 4.441391 -0.002040 0.000000 -0.000525 -0.584372 0.235654
    7 0.886747 0.002036 1.348641 -2.557816 -1.227041 5.325349
    8 5.073841 0.000000 0.000002 -1.235320 0.696910 -1.176728
    9 12.011117 0.000000 -0.000001 0.000000 0.000000 -1.307526
    10 10.249307 0.000000 0.000000 -0.479572 0.414288 0.959532
    11 1.183836 0.259443 -1.427523 0.294542 0.464725 0.182768
    12 0.625233 0.000000 0.000000 0.000000 0.000000 0.139626
    13 1.041848 0.000000 0.000001 0.000000 0.000000 0.139626
    14 3.037806 -0.002122 -0.118180 0.204636 -0.007748 0.154768
    15 1.172004 -0.000001 0.000000 0.000000 0.000000 0.417593
    16 1.160930 0.000000 0.000000 0.000000 0.000000 0.681773
    17 -0.886745 0.002045 -1.348641 -0.364620 1.107482 2.428733
    18 4.700062 0.000000 -0.000002 1.553002 -0.557592 -1.531448
    19 12.049927 0.000000 0.000001 0.000000 0.000000 -0.797836
    20 10.340311 0.000001 0.000000 0.462636 -0.221126 0.833948
    21 1.186625 0.034757 1.438863 -0.308291 -0.073319 0.306447
    22 0.607803 0.000000 0.000000 0.000000 0.000000 0.139618
    23 1.063061 0.000001 0.000000 0.000000 0.000000 0.139618
    24 2.950419 0.002914 0.177525 -0.227594 0.045698 0.044244
    25 1.294388 0.000000 -0.000001 0.000000 0.000000 0.422441
    26 1.183920 0.000001 0.000000 0.000000 0.000000 0.419697
    27 2.738953 3.890889 0.113747 3.876095 -1.300479 -1.310486
    28 0.000000 -1.023687 -1.922726 0.048424 0.172748 0.000813
    29 0.000000 -0.558375 -1.804806 -0.014024 0.037890 -0.001319
    30 0.000000 -0.325718 -1.929488 -0.044567 -0.000108 -0.001930
    31 0.000000 0.046531 -1.430430 -0.201347 -0.143396 0.026148
    32 0.000000 0.000000 -1.347565 -0.029029 0.061763 -0.001015
    33 0.000000 -0.046531 -2.135521 -0.033814 -0.125131 -0.002193
    34 0.000000 -0.279187 -2.151380 -0.564198 -0.077779 0.040673
    35 -3.954540 0.938154 3.814902 0.041946 -3.159184 -0.849817
    36 19.302956 0.000000 0.000000 0.000000 0.000000 -1.563520
    37 15.657714 0.000000 0.000000 0.204473 0.019739 1.070080
    38 3.741828 7.474068 0.000000 0.000000 0.000000 1.570796
    39 -3.790472 0.367843 -2.994563 -0.013519 3.067510 -0.754039
    40 19.302958 0.000000 0.000000 0.000000 0.000000 -1.479717
    41 15.657715 0.000000 0.000000 0.233589 0.097657 1.082964
    42 3.741828 7.351521 0.000000 0.000000 0.000000 1.570796
    43 2.562340 0.000000 0.000000 0.434363 -0.162685 0.521131
    44 8.541129 0.000000 0.000000 0.000000 0.000000 0.000000
    45 -7.351523 1.350579 0.144448 0.137392 -3.154151 -1.429856
    46 4.991368 -0.677071 0.532282 1.237053 -2.969057 -0.819481
  time 19
    0 1.047826 -11.165018 24.680922 0.058549 0.071030 -1.459810
    1 -3.479656 0.152348 0.000000 -0.000033 -1.713667 -1.570756
    2 3.889601 0.383633 -0.558606 0.122260 0.055464 0.268848
    3 3.442969 -0.003536 0.000000 -0.076258 0.090112 0.191915
    4 4.441442 -0.003536 0.000000 -0.115543 0.089345 0.353838
    5 4.441389 -0.003537 0.000000 -0.174139 0.185282 0.310083
    6 4.441391 -0.002040 0.000000 -0.000525 -0.584372 0.235654
    7 0.886747 0.002036 1.348641 -2.541805 -1.235423 5.308475
    8 5.073841 0.000000 0.000002 -1.336547 0.758003 -1.380371
    9 12.011117 0.000000 -0.000001 0.000000 0.000000 -1.289872
    10 10.249307 0.000000 0.000000 -0.370522 0.442379 0.980541
    11 1.183836 0.259443 -1.427523 0.291384 0.480571 0.171004
    12 0.625233 0.000000 0.000000 0.000000 0.000000 0.139626
    13 1.041848 0.000000 0.000001 0.000000 0.000000 0.139626
    14 3.037806 -0.002122 -0.118180 0.188882 -0.003985 0.137195
    15 1.172004 -0.000001 0.000000 0.000000 0.000000 0.405444
    16 1.160930 0.000000 0.000000 0.000000 0.000000 0.670424
    17 -0.886745 0.002045 -1.348641 -0.014778 1.132797 2.843288
    18 4.700062 0.000000 -0.000002 1.472731 -0.629938 -1.432134
    19 12.049927 0.000000 0.000001 0.000000 0.000000 -1.177281
    20 10.340311 0.000001 0.000000 0.281224 -0.287437 0.918664
    21 1.186625 0.034757 1.438863 -0.309077 -0.101599 0.315495
    22 0.607803 0.000000 0.000000 0.000000 0.000000 0.139618
    23 1.063061 0.000001 0.000000 0.000000 0.000000 0.139618
    24 2.950419 0.002914 0.177525 -0.227166 0.045027 0.047984
    25 1.294388 0.000000 -0.000001 0.000000 0.000000 0.423574
    26 1.183920 0.000001 0.000000 0.000000 0.000000 0.424509
    27 2.738953 3.890889 0.113747 3.927097 -1.305403 -1.342220
    28 0.000000 -1.023687 -1.922726 0.032097 0.163202 0.000226
    29 0.000000 -0.558375 -1.804806 -0.014942 0.000584 -0.000462
    30 0.000000 -0.325718 -1.929488 -0.034737 -0.051910 -0.000615
    31 0.000000 0.046531 -1.430430 -0.199158 -0.186145 0.034714
    32 0.000000 0.000000 -1.347565 -0.022614 0.019506 -0.000302
    33 0.000000 -0.046531 -2.135521 -0.026424 -0.201473 -0.000695
    34 0.000000 -0.279187 -2.151380 -0.554064 -0.117769 0.064818
    35 -4.063918 1.113941 3.646928 0.091969 -3.119951 -0.581682
    36 19.302956 0.000000 0.000000 0.000000 0.000000 -1.605235
    37 15.657714 0.000000 0.000000 0.146357 -0.054512 1.381007
    38 3.741828 7.474068 0.000000 0.000000 0.000000 1.570796
    39 -3.688907 0.281903 -3.127380 0.050738 3.087630 -0.504745
    40 19.302958 0.000000 0.000000 0.000000 0.000000 -1.516482
    41 15.657715 0.000000 0.000000 0.172910 0.032808 1.363356
    42 3.741828 7.351521 0.000000 0.000000 0.000000 1.570796
    43 2.562340 0.000000 0.000000 0.178551 -0.012320 0.714526
    44 8.541129 0.000000 0.000000 0.000000 0.000000 0.000000
    45 -7.351523 1.350579 0.144448 0.145254 -3.155589 -1.437909
    46 4.991368 -0.677071 0.532282 1.237053 -2.969057 -0.819481
  time 20
    0 -0.409250 -18.501412 21.111097 0.053087 0.069813 -1.519179
    1 -3.428873 0.683615 0.000000 -0.000033 -1.711594 -1.570756
    2 3.893507 0.383633 -0.550794 0.141628 0.095336 0.277764
    3 3.442969 -0.003536 0.000000 -0.074784 0.131651 0.167012
    4 4.441442 -0.003536 0.000000 -0.117595 0.125227 0.355779
    5 4.441389 -0.003537 0.000000 -0.176971 0.221787 0.308068
    6 4.441391 -0.002040 0.000000 -0.000525 -0.584390 0.235654
    7 0.886747 0.002036 1.348641 -2.533943 -1.239408 5.300038
    8 5.073841 0.000000 0.000002 -1.460777 0.794894 -1.578411
    9 12.011117 0.000000 -0.000001 0.000000 0.000000 -1.270580
    10 10.249307 0.000000 0.000000 -0.364843 0.437310 0.901869
    11 1.183836 0.259443 -1.427523 0.288267 0.501614 0.159511
    12 0.625233 0.000000 0.000000 0.000000 0.000000 0.139626
    13 1.041848 0.000000 0.000001 0.000000 0.000000 0.139626
    14 3.037806 -0.002122 -0.118180 0.171945 0.001408 0.117088
    15 1.172004 -0.000001 0.000000 0.000000 0.000000 0.389362
    16 1.160930 0.000000 0.000000 0.000000 0.000000 0.652545
    17 -0.886745 0.002045 -1.348641 0.324037 1.099165 3.244422
    18 4.700062 0.000000 -0.000002 1.393772 -0.665543 -1.329223
    19 12.049927 0.000000 0.000001 0.000000 0.000000 -1.554676
    20 10.340311 0.000001 0.000000 0.224023 -0.309843 0.888193
    21 1.186625 0.034757 1.438863 -0.310425 -0.136926 0.326865
    22 0.607803 0.000000 0.000000 0.000000 0.000000 0.139618
    23 1.063061 0.000001 0.000000 0.000000 0.000000 0.139618
    24 2.950419 0.002914 0.177525 -0.226958 0.042234 0.050407
    25 1.294388 0.000000 -0.000001 0.000000 0.000000 0.421926
    26 1.183920 0.000001 0.000000 0.000000 0.000000 0.426854
    27 2.738953 3.890889 0.113747 3.967266 -1.308522 -1.360819
    28 0.000000 -1.023687 -1.922726 0.000000 0.157075 0.000000
    29 0.000000 -0.558375 -1.804806 0.000000 -0.026179 0.000000
    30 0.000000 -0.325718 -1.929488 0.000000 -0.087255 0.000000
    31 0.000000 0.046531 -1.430430 -0.187591 -0.214452 0.040369
    32 0.000000 0.000000 -1.347565 0.000000 -0.008725 0.000000
    33 0.000000 -0.046531 -2.135521 0.000000 -0.253067 0.000000
    34 0.000000 -0.279187 -2.151380 -0.512011 -0.144855 0.080943
    35 -4.204548 1.195975 3.447704 0.099827 -3.094335 -0.197485
    36 19.302956 0.000000 0.000000 0.000000 0.000000 -1.659978
    37 15.657714 0.000000 0.000000 0.079171 -0.061070 1.493874
    38 3.741828 7.474068 0.000000 0.000000 0.000000 1.570796
    39 -3.559997 0.235026 -3.287541 0.078797 3.083223 -0.167041
    40 19.302958 0.000000 0.000000 0.000000 0.000000 -1.587054
    41 15.657715 0.000000 0.000000 0.083413 0.048882 1.441795
    42 3.741828 7.351521 0.000000 0.000000 0.000000 1.570796
    43 2.562340 0.000000 0.000000 -0.040308 0.161657 0.752316
    44 8.541129 0.000000 0.000000 0.000000 0.000000 0.000000
    45 -7.351523 1.350579 0.144448 0.152828 -3.157027 -1.445579
    46 4.991368 -0.677071 0.532282 1.237053 -2.969057 -0.819481
  time 21
    0 -1.592880 -25.081476 17.862557 0.049158 0.113777 -1.561408
    1 -3.339027 1.222694 0.000000 -0.000033 -1.710347 -1.570756
    2 3.893507 0.383633 -0.542981 0.052660 0.191645 0.259179
    3 3.442969 -0.003536 0.000000 -0.059240 0.066682 0.221909
    4 4.441442 -0.003536 0.000000 -0.119583 0.149340 0.323020
    5 4.441389 -0.003537 0.000000 -0.180285 0.244390 0.276605
    6 4.441391 -0.002040 0.000000 -0.000525 -0.584372 0.235654
    7 0.886747 0.002036 1.348641 -2.571046 -1.219680 5.339443
    8 5.073841 0.000000 0.000002 1.559179 2.285043 1.525673
    9 12.011117 0.000000 -0.000001 0.000000 0.000000 -1.247787
    10 10.249307 0.000000 0.000000 -0.474037 0.365371 0.694774
    11 1.183836 0.259443 -1.427523 0.285030 0.527084 0.148198
    12 0.625233 0.000000 0.000000 0.000000 0.000000 0.139626
    13 1.041848 0.000000 0.000001 0.000000 0.000000 0.139626
    14 3.037806 -0.002122 -0.118180 0.153925 0.008023 0.094780
    15 1.172004 -0.000001 0.000000 0.000000 0.000000 0.369922
    16 1.160930 0.000000 0.000000 0.000000 0.000000 0.629098
    17 -0.886745 0.002045 -1.348641 0.574362 1.047489 3.551888
    18 4.700062 0.000000 -0.000002 1.321594 -0.721031 -1.288442
    19 12.049927 0.000000 0.000001 0.000000 0.000000 -1.901393
    20 10.340311 0.000001 0.000000 0.319402 -0.269446 0.695526
    21 1.186625 0.034757 1.438863 -0.312521 -0.178145 0.340320
    22 0.607803 0.000000 0.000000 0.000000 0.000000 0.139618
    23 1.063061 0.000001 0.000000 0.000000 0.000000 0.139618
    24 2.950419 0.002914 0.177525 -0.226934 0.037656 0.051724
    25 1.294388 0.000000 -0.000001 0.000000 0.000000 0.417909
    26 1.183920 0.000001 0.000000 0.000000 0.000000 0.427162
    27 2.738953 3.890889 0.113747 3.990754 -1.308932 -1.359477
    28 0.000000 -1.023687 -1.922726 -0.078722 0.154985 0.000068
    29 0.000000 -0.558375 -1.804806 0.049330 -0.038920 -0.000308
    30 0.000000 -0.325718 -1.929488 0.088259 -0.102679 -0.000679
    31 0.000000 0.046531 -1.430430 -0.158712 -0.225969 0.042441
    32 0.000000 0.000000 -1.347565 0.057918 -0.020206 -0.002441
    33 0.000000 -0.046531 -2.135521 0.071797 -0.275082 -0.000815
    34 0.000000 -0.279187 -2.151380 -0.403572 -0.156932 0.086971
    35 -4.540495 0.789712 3.119569 0.018850 -3.142138 0.071897
    36 19.302956 0.000000 0.000000 0.000000 0.000000 -1.699125
    37 15.657714 0.000000 0.000000 0.099268 -0.017684 0.569650
    38 3.741828 7.474068 0.000000 0.000000 0.000000 1.570796
    39 -3.243581 0.438158 -3.576612 0.005825 3.016442 0.066662
    40 19.302958 0.000000 0.000000 0.000000 0.000000 -1.671000
    41 15.657715 0.000000 0.000000 -0.008123 0.046592 0.533146
    42 3.741828 7.351521 0.000000 0.000000 0.000000 1.570796
    43 2.562340 0.000000 0.000000 -0.413189 0.326316 0.325553
    44 8.541129 0.000000 0.000000 0.000000 0.000000 0.000000
    45 -7.351523 1.350579 0.144448 0.160115 -3.158465 -1.452578
    46 4.991368 -0.677071 0.532282 1.237053 -2.969057 -0.819481
  time 22
    0 -1.667101 -29.203470 16.827308 0.049350 0.280754 -1.560451
    1 -1.674913 1.179724 0.000000 -0.000033 -1.710347 -1.570756
    2 3.893507 0.383633 -0.542981 0.026196 0.205043 0.119889
    3 3.442969 -0.003536 0.000000 -0.056915 0.051234 0.108214
    4 4.441442 -0.003536 0.000000 -0.119890 0.131615 0.153893
    5 4.441389 -0.003537 0.000000 -0.182990 0.216681 0.129600
    6 4.441391 -0.002040 0.000000 -0.000229 -0.283456 -0.135160
    7 0.449234 0.002036 1.551772 -1.923806 -1.145920 5.115380
    8 5.073841 0.000000 0.000002 -0.344135 1.336079 -0.326906
    9 12.011117 0.000000 -0.000001 0.000000 0.000000 -1.194155
    10 10.249307 0.000000 0.000000 -0.627224 0.206243 0.415964
    11 1.183836 0.259443 -1.427523 0.281514 0.556082 0.136930
    12 0.625233 0.000000 0.000000 0.000000 0.000000 0.139626
    13 1.041848 0.000000 0.000001 0.000000 0.000000 0.139626
    14 3.037806 -0.002122 -0.118180 0.134958 0.015502 0.070638
    15 1.172004 -0.000001 0.000000 0.000000 0.000000 0.347788
    16 1.160930 0.000000 0.000000 0.000000 0.000000 0.601155
    17 -0.449231 0.002045 -1.551772 1.759259 1.438546 5.080107
    18 4.700062 0.000000 -0.000002 0.719962 -1.247480 -0.520481
    19 12.049927 0.000000 0.000001 0.000000 0.000000 -2.058274
    20 10.340311 0.000001 0.000000 0.480540 -0.143385 0.406727
    21 1.186625 0.034757 1.438863 -0.315591 -0.224105 0.355527
    22 0.607803 0.000000 0.000000 0.000000 0.000000 0.139618
    23 1.063061 0.000001 0.000000 0.000000 0.000000 0.139618
    24 2.950419 0.002914 0.177525 -0.227056 0.031628 0.052093
    25 1.294388 0.000000 -0.000001 0.000000 0.000000 0.412037
    26 1.183920 0.000001 0.000000 0.000000 0.000000 0.425805
    27 2.738953 3.890889 0.113747 3.991904 -1.305704 -1.331962
    28 0.000000 -1.023687 -1.922726 -0.203153 0.155033 0.000158
    29 0.000000 -0.558375 -1.804806 0.128720 -0.040535 -0.000923
    30 0.000000 -0.325718 -1.929488 0.226796 -0.104697 -0.001994
    31 0.000000 0.046531 -1.430430 -0.113888 -0.227468 0.042399
    32 0.000000 0.000000 -1.347565 0.149025 -0.020905 -0.007297
    33 0.000000 -0.046531 -2.135521 0.186436 -0.277935 -0.002409
    34 0.000000 -0.279187 -2.151380 -0.233130 -0.159191 0.086620
    35 -4.630342 0.164693 3.084411 0.024600 -3.129759 0.239182
    36 19.302956 0.000000 0.000000 0.000000 0.000000 -1.524373
    37 15.657714 0.000000 0.000000 0.100727 0.034287 -0.121035
    38 3.741828 7.474068 0.000000 0.000000 0.000000 1.570796
    39 -3.243581 -0.011075 -3.603957 0.010709 3.030047 0.253545
    40 19.302958 0.000000 0.000000 0.000000 0.000000 -1.553515
    41 15.657715 0.000000 0.000000 -0.023643 0.040086 -0.084332
    42 3.741828 7.351521 0.000000 0.000000 0.000000 1.570796
    43 2.562340 0.000000 0.000000 -0.177101 -0.031286 0.001465
    44 8.541129 0.000000 0.000000 0.000000 0.000000 0.000000
    45 -7.351523 1.350579 0.144448 0.166922 -3.159808 -1.458906
    46 4.991368 -0.677071 0.532282 1.237053 -2.969057 -0.819481
  time 23
    0 -1.592880 -31.538637 12.400725 0.057591 0.558000 -1.536416
    1 -0.010800 1.050813 0.000000 -0.000033 -1.710347 -1.570756
    2 3.893507 0.383633 -0.542981 0.017772 0.200585 0.001922
    3 3.442969 -0.003536 0.000000 -0.056615 0.047974 0.000301
    4 4.441442 -0.003536 0.000000 -0.116803 0.112547 0.011416
    5 4.441389 -0.003537 0.000000 -0.181019 0.188913 0.006725
    6 4.441391 -0.002040 0.000000 0.000013 0.017442 -0.505878
    7 -0.027343 0.002036 1.614274 -1.462081 -1.201969 5.106943
    8 5.073841 0.000000 0.000002 0.682353 0.969813 0.594420
    9 12.011117 0.000000 -0.000001 0.000000 0.000000 -1.176278
    10 10.249307 0.000000 0.000000 -0.756258 -0.010758 0.148023
    11 1.183836 0.259443 -1.427523 0.277677 0.587839 0.125572
    12 0.625233 0.000000 0.000000 0.000000 0.000000 0.139626
    13 1.041848 0.000000 0.000001 0.000000 0.000000 0.139626
    14 3.037806 -0.002122 -0.118180 0.115182 0.023459 0.045028
    15 1.172004 -0.000001 0.000000 0.000000 0.000000 0.323577
    16 1.160930 0.000000 0.000000 0.000000 0.000000 0.569732
    17 0.027346 0.002045 -1.614274 2.791238 1.012301 0.201885
    18 4.700062 0.000000 -0.000002 -0.027193 -0.624797 0.349591
    19 12.049927 0.000000 0.000001 0.000000 0.000000 -1.914302
    20 10.340311 0.000001 0.000000 0.634109 0.052206 0.115052
    21 1.186625 0.034757 1.438863 -0.319709 -0.273652 0.372392
    22 0.607803 0.000000 0.000000 0.000000 0.000000 0.139618
    23 1.063061 0.000001 0.000000 0.000000 0.000000 0.139618
    24 2.950419 0.002914 0.177525 -0.227276 0.024473 0.051830
    25 1.294388 0.000000 -0.000001 0.000000 0.000000 0.404672
    26 1.183920 0.000001 0.000000 0.000000 0.000000 0.423214
    27 2.738953 3.890889 0.113747 3.967745 -1.297360 -1.274342
    28 0.000000 -1.023687 -1.922726 -0.327911 0.155983 0.000113
    29 0.000000 -0.558375 -1.804806 0.211325 -0.035741 -0.001011
    30 0.000000 -0.325718 -1.929488 0.376090 -0.098842 -0.002206
    31 0.000000 0.046531 -1.430430 -0.063461 -0.223165 0.041503
    32 0.000000 0.000000 -1.347565 0.246919 -0.015493 -0.010424
    33 0.000000 -0.046531 -2.135521 0.306768 -0.269617 -0.002637
    34 0.000000 -0.279187 -2.151380 -0.047145 -0.154842 0.083840
    35 -4.599091 -0.319697 3.115662 0.036675 -3.093573 0.432004
    36 19.302956 0.000000 0.000000 0.000000 0.000000 -1.307717
    37 15.657714 0.000000 0.000000 0.105480 0.051896 -0.387508
    38 3.741828 7.474068 0.000000 0.000000 0.000000 1.570796
    39 -3.243581 -0.436869 -3.576612 0.035416 3.073258 0.519823
    40 19.302958 0.000000 0.000000 0.000000 0.000000 -1.535234
    41 15.657715 0.000000 0.000000 -0.031037 0.033844 -0.518428
    42 3.741828 7.351521 0.000000 0.000000 0.000000 1.570796
    43 2.562340 0.000000 0.000000 0.311445 -0.167775 -0.251927
    44 8.541129 0.000000 0.000000 0.000000 0.000000 0.000000
    45 -7.351523 1.350579 0.144448 0.173346 -3.161246 -1.464371
    46 4.991368 -0.677071 0.532282 1.237053 -2.969057 -0.819481
  time 24
    0 -1.585067 -32.729855 9.759055 0.079056 0.903483 -1.504816
    1 0.293897 1.023469 0.000000 -0.000033 -1.710347 -1.570756
    2 3.893507 0.383633 -0.542981 0.015893 0.200801 -0.011601
    3 3.442969 -0.003536 0.000000 -0.056052 0.045949 -0.024214
    4 4.441442 -0.003536 0.000000 -0.115769 0.108497 -0.023298
    5 4.441389 -0.003537 0.000000 -0.180138 0.182621 -0.023834
    6 4.441391 -0.002040 0.000000 0.000013 0.017442 -0.505878
    7 -0.027343 0.002036 1.614274 -1.462081 -1.201969 5.106943
    8 5.073841 0.000000 0.000002 0.060917 1.205165 0.056344
    9 12.011117 0.000000 -0.000001 0.000000 0.000000 -1.367339
    10 10.249307 0.000000 0.000000 -0.843455 -0.222225 -0.068895
    11 1.183836 0.259443 -1.427523 0.273361 0.621521 0.113944
    12 0.625233 0.000000 0.000000 0.000000 0.000000 0.139626
    13 1.041848 0.000000 0.000001 0.000000 0.000000 0.139626
    14 3.037806 -0.002122 -0.118180 0.094734 0.031537 0.018319
    15 1.172004 -0.000001 0.000000 0.000000 0.000000 0.297953
    16 1.160930 0.000000 0.000000 0.000000 0.000000 0.535954
    17 0.027346 0.002045 -1.614274 -3.106881 1.040072 0.535332
    18 4.700062 0.000000 -0.000002 0.174396 -0.977754 -0.177442
    19 12.049927 0.000000 0.000001 0.000000 0.000000 -2.079536
    20 10.340311 0.000001 0.000000 0.750881 0.258195 -0.123906
    21 1.186625 0.034757 1.438863 -0.325099 -0.325761 0.390584
    22 0.607803 0.000000 0.000000 0.000000 0.000000 0.139618
    23 1.063061 0.000001 0.000000 0.000000 0.000000 0.139618
    24 2.950419 0.002914 0.177525 -0.227582 0.016551 0.051040
    25 1.294388 0.000000 -0.000001 0.000000 0.000000 0.396277
    26 1.183920 0.000001 0.000000 0.000000 0.000000 0.419697
    27 2.738953 3.890889 0.113747 3.918756 -1.281793 -1.186714
    28 0.000000 -1.023687 -1.922726 -0.407517 0.156568 0.000045
    29 0.000000 -0.558375 -1.804806 0.270422 -0.029358 -0.000418
    30 0.000000 -0.325718 -1.929488 0.496770 -0.091092 -0.000976
    31 0.000000 0.046531 -1.430430 -0.017753 -0.217365 0.040677
    32 0.000000 0.000000 -1.347565 0.325266 -0.009523 -0.008668
    33 0.000000 -0.046531 -2.135521 0.396219 -0.258556 -0.001139
    34 0.000000 -0.279187 -2.151380 0.107924 -0.148278 0.081647
    35 -4.595184 -0.378292 3.115662 0.025846 -3.113761 0.257636
    36 19.302956 0.000000 0.000000 0.000000 0.000000 -0.856743
    37 15.657714 0.000000 0.000000 0.094018 0.035360 -0.663665
    38 3.741828 7.474068 0.000000 0.000000 0.000000 1.570796
    39 -3.235768 -0.483746 -3.576612 0.013103 3.071342 0.333289
    40 19.302958 0.000000 0.000000 0.000000 0.000000 -0.902171
    41 15.657715 0.000000 0.000000 -0.023551 0.054400 -0.890417
    42 3.741828 7.351521 0.000000 0.000000 0.000000 1.570796
    43 2.562340 0.000000 0.000000 0.137110 0.187213 -0.329766
    44 8.541129 0.000000 0.000000 0.000000 0.000000 0.000000
    45 -7.351523 1.350579 0.144448 0.138447 -3.161246 -1.464371
    46 4.991368 -0.677071 0.532282 1.237053 -2.969057 -0.819481
  time 25
    0 -1.588973 -33.675267 7.117385 0.171432 1.280113 -1.402547
    1 0.114204 1.027375 0.000000 -0.000033 -1.710347 -1.570756
    2 3.893507 0.383633 -0.542981 0.018789 0.200453 0.009219
    3 3.442969 -0.003536 0.000000 -0.056160 0.046356 -0.019198
    4 4.441442 -0.003536 0.000000 -0.115979 0.109228 -0.016556
    5 4.441389 -0.003537 0.000000 -0.180285 0.183664 -0.018650
    6 4.441391 -0.002040 0.000000 0.000013 0.017442 -0.505878
    7 -0.027343 0.002036 1.614274 -1.462081 -1.201969 5.106943
    8 5.073841 0.000000 0.000002 -1.042724 0.937689 -0.463704
    9 12.011117 0.000000 -0.000001 0.000000 0.000000 -1.485030
    10 10.249307 0.000000 0.000000 -0.907721 -0.355543 -0.204230
    11 1.183836 0.259443 -1.427523 0.268486 0.656164 0.101910
    12 0.625233 0.000000 0.000000 0.000000 0.000000 0.139626
    13 1.041848 0.000000 0.000001 0.000000 0.000000 0.139626
    14 3.037806 -0.002122 -0.118180 0.073812 0.039435 -0.009091
    15 1.172004 -0.000001 0.000000 0.000000 0.000000 0.271444
    16 1.160930 0.000000 0.000000 0.000000 0.000000 0.500731
    17 0.027346 0.002045 -1.614274 -2.694147 0.993552 0.891213
    18 4.700062 0.000000 -0.000002 1.141950 -0.745524 -0.481859
    19 12.049927 0.000000 0.000001 0.000000 0.000000 -1.653998
    20 10.340311 0.000001 0.000000 0.844418 0.397872 -0.271406
    21 1.186625 0.034757 1.438863 -0.331800 -0.379215 0.410007
    22 0.607803 0.000000 0.000000 0.000000 0.000000 0.139618
    23 1.063061 0.000001 0.000000 0.000000 0.000000 0.139618
    24 2.950419 0.002914 0.177525 -0.227924 0.008174 0.049986
    25 1.294388 0.000000 -0.000001 0.000000 0.000000 0.387315
    26 1.183920 0.000001 0.000000 0.000000 0.000000 0.415687
    27 2.738953 3.890889 0.113747 3.828352 -1.249594 -1.045014
    28 0.000000 -1.023687 -1.922726 -0.209435 0.157075 0.000000
    29 0.000000 -0.558375 -1.804806 0.279253 -0.026179 0.000000
    30 0.000000 -0.325718 -1.929488 0.549777 -0.087255 0.000000
    31 0.000000 0.046531 -1.430430 0.013094 -0.214452 0.040369
    32 0.000000 0.000000 -1.347565 0.357781 -0.008725 0.000000
    33 0.000000 -0.046531 -2.135521 0.418877 -0.253067 0.000000
    34 0.000000 -0.279187 -2.151380 0.186108 -0.144855 0.080943
    35 -4.602997 -0.292352 3.115662 0.008788 -3.132901 0.010998
    36 19.302956 0.000000 0.000000 0.000000 0.000000 -0.427316
    37 15.657714 0.000000 0.000000 0.084109 0.019998 -0.855339
    38 3.741828 7.474068 0.000000 0.000000 0.000000 1.570796
    39 -3.247487 -0.413431 -3.580519 -0.015530 3.075845 0.058244
    40 19.302958 0.000000 0.000000 0.000000 0.000000 -0.327716
    41 15.657715 0.000000 0.000000 0.011018 0.069582 -1.058727
    42 3.741828 7.351521 0.000000 0.000000 0.000000 1.570796
    43 2.562340 0.000000 0.000000 0.005849 0.299425 -0.376551
    44 8.541129 0.000000 0.000000 0.000000 0.000000 0.000000
    45 -7.351523 1.350579 0.144448 0.138447 -3.161246 -1.464371
    46 4.991368 -0.677071 0.532282 1.237053 -2.969057 -0.819481
  time 26
    0 -1.592880 -34.308692 5.082585 2.057754 1.515400 -5.791668
    1 -0.010800 1.050813 0.000000 -0.000033 -1.710347 -1.570756
    2 3.893507 0.383633 -0.542981 0.017772 0.200585 0.001922
    3 3.442969 -0.003536 0.000000 -0.056615 0.047974 0.000301
    4 4.441442 -0.003536 0.000000 -0.116803 0.112547 0.011416
    5 4.441389 -0.003537 0.000000 -0.181019 0.188913 0.006725
    6 4.441391 -0.002040 0.000000 0.000013 0.017442 -0.505878
    7 -0.027343 0.002036 1.614274 -1.462081 -1.201969 5.106943
    8 5.073841 0.000000 0.000002 -1.580721 0.755510 -0.371132
    9 12.011117 0.000000 -0.000001 0.000000 0.000000 -1.754898
    10 10.249307 0.000000 0.000000 -0.987801 -0.381902 -0.244567
    11 1.183836 0.259443 -1.427523 0.262891 0.691129 0.089335
    12 0.625233 0.000000 0.000000 0.000000 0.000000 0.139626
    13 1.041848 0.000000 0.000001 0.000000 0.000000 0.139626
    14 3.037806 -0.002122 -0.118180 0.052591 0.046841 -0.036801
    15 1.172004 -0.000001 0.000000 0.000000 0.000000 0.244759
    16 1.160930 0.000000 0.000000 0.000000 0.000000 0.465186
    17 0.027346 0.002045 -1.614274 -2.444589 0.916343 1.097916
    18 4.700062 0.000000 -0.000002 1.557960 -0.917126 -0.243251
    19 12.049927 0.000000 0.000001 0.000000 0.000000 -1.994641
    20 10.340311 0.000001 0.000000 0.956122 0.440209 -0.314551
    21 1.186625 0.034757 1.438863 -0.339886 -0.432925 0.430378
    22 0.607803 0.000000 0.000000 0.000000 0.000000 0.139618
    23 1.063061 0.000001 0.000000 0.000000 0.000000 0.139618
    24 2.950419 0.002914 0.177525 -0.228254 -0.000299 0.048827
    25 1.294388 0.000000 -0.000001 0.000000 0.000000 0.378198
    26 1.183920 0.000001 0.000000 0.000000 0.000000 0.411554
    27 2.738953 3.890889 0.113747 3.717720 -1.193074 -0.867266
    28 0.000000 -1.023687 -1.922726 -0.178941 0.157123 0.000000
    29 0.000000 -0.558375 -1.804806 0.066568 -0.025309 -0.008111
    30 0.000000 -0.325718 -1.929488 0.518487 -0.087255 0.000000
    31 0.000000 0.046531 -1.430430 0.025947 -0.214452 0.040369
    32 0.000000 0.000000 -1.347565 0.333098 -0.013298 0.017309
    33 0.000000 -0.046531 -2.135521 0.357834 -0.253067 0.000000
    34 0.000000 -0.279187 -2.151380 0.169071 -0.144855 0.080943
    35 -4.599091 -0.319697 3.115662 0.011567 -3.115856 -0.134840
    36 19.302956 0.000000 0.000000 0.000000 0.000000 -0.339814
    37 15.657714 0.000000 0.000000 0.100293 -0.013372 -0.619503
    38 3.741828 7.474068 0.000000 0.000000 0.000000 1.570796
    39 -3.243581 -0.436869 -3.576612 -0.021372 3.116566 -0.111903
    40 19.302958 0.000000 0.000000 0.000000 0.000000 -0.660278
    41 15.657715 0.000000 0.000000 0.078514 0.042953 -0.276112
    42 3.741828 7.351521 0.000000 0.000000 0.000000 1.570796
    43 2.562340 0.000000 0.000000 0.233776 0.216831 0.668851
    44 8.541129 0.000000 0.000000 0.000000 0.000000 0.000000
    45 -7.351523 1.350579 0.144448 0.138447 -3.161246 -1.464371
    46 4.991368 -0.677071 0.532282 1.237053 -2.969057 -0.819481
  time 27
    0 -1.592880 -33.306556 6.474816 1.051109 1.514398 -0.516507
    1 0.360305 1.168004 0.000000 -0.000033 -1.710347 -1.570756
    2 3.893507 0.383633 -0.542981 -0.005863 0.201556 -0.166899
    3 3.442969 -0.003536 0.000000 -0.058293 0.055393 0.087148
    4 4.441442 -0.003536 0.000000 -0.119405 0.128283 0.138800
    5 4.441389 -0.003537 0.000000 -0.182802 0.214249 0.128311
    6 4.441391 -0.002040 0.000000 0.000013 0.017442 -0.505878
    7 -0.027343 0.002036 1.614274 -1.508771 -0.949979 5.152197
    8 5.073841 0.000000 0.000002 -1.823966 0.747222 -0.726969
    9 12.011117 0.000000 -0.000001 0.000000 0.000000 -1.692478
    10 10.249307 0.000000 0.000000 -1.094263 -0.335309 -0.225740
    11 1.183836 0.259443 -1.427523 0.256577 0.725452 0.076084
    12 0.625233 0.000000 0.000000 0.000000 0.000000 0.139626
    13 1.041848 0.000000 0.000001 0.000000 0.000000 0.139626
    14 3.037806 -0.002122 -0.118180 0.031321 0.053493 -0.064444
    15 1.172004 -0.000001 0.000000 0.000000 0.000000 0.218472
    16 1.160930 0.000000 0.000000 0.000000 0.000000 0.430337
    17 0.027346 0.002045 -1.614274 -3.072175 1.039270 0.565628
    18 4.700062 0.000000 -0.000002 2.050741 -0.764725 -0.670091
    19 12.049927 0.000000 0.000001 0.000000 0.000000 -2.061387
    20 10.340311 0.000001 0.000000 1.099685 0.417101 -0.293248
    21 1.186625 0.034757 1.438863 -0.349245 -0.485706 0.451554
    22 0.607803 0.000000 0.000000 0.000000 0.000000 0.139618
    23 1.063061 0.000001 0.000000 0.000000 0.000000 0.139618
    24 2.950419 0.002914 0.177525 -0.228560 -0.008556 0.047826
    25 1.294388 0.000000 -0.000001 0.000000 0.000000 0.369391
    26 1.183920 0.000001 0.000000 0.000000 0.000000 0.407667
    27 2.738953 3.890889 0.113747 3.628371 -1.115762 -0.699488
    28 0.000000 -1.023687 -1.922726 -0.165951 0.157138 0.000000
    29 0.000000 -0.558375 -1.804806 -0.176443 -0.026179 0.000000
    30 0.000000 -0.325718 -1.929488 0.429071 -0.087255 0.000000
    31 0.000000 0.046531 -1.430430 0.027553 -0.214452 0.040369
    32 0.000000 0.000000 -1.347565 0.268649 -0.018402 0.042106
    33 0.000000 -0.046531 -2.135521 0.237214 -0.253067 0.000000
    34 0.000000 -0.279187 -2.151380 0.087510 -0.144855 0.080943
    35 -4.485806 -1.042375 3.123475 0.026229 -3.101477 -0.001571
    36 19.302956 0.000000 0.000000 0.000000 0.000000 -0.827993
    37 15.657714 0.000000 0.000000 0.115357 0.016758 -0.537316
    38 3.741828 7.474068 0.000000 0.000000 0.000000 1.570796
    39 -3.122483 -1.003293 -3.572706 -0.016105 3.102673 0.020689
    40 19.302958 0.000000 0.000000 0.000000 0.000000 -0.437204
    41 15.657715 0.000000 0.000000 0.068350 0.056328 -0.586415
    42 3.741828 7.351521 0.000000 0.000000 0.000000 1.570796
    43 2.562340 0.000000 0.000000 0.128495 0.307184 -0.041211
    44 8.541129 0.000000 0.000000 0.000000 0.000000 0.000000
    45 -7.351523 1.350579 0.144448 0.138447 -3.161246 -1.464371
    46 4.991368 -0.677071 0.532282 1.237053 -2.969057 -0.819481
  time 28
    0 -1.592880 -33.684721 5.939343 1.413041 1.521200 -0.154066
    1 0.223582 1.125034 0.000000 -0.000033 -1.710347 -1.570756
    2 3.893507 0.383633 -0.542981 0.003003 0.201652 -0.103594
    3 3.442969 -0.003536 0.000000 -0.057742 0.052600 0.054571
    4 4.441442 -0.003536 0.000000 -0.118662 0.122351 0.091006
    5 4.441389 -0.003537 0.000000 -0.182508 0.204733 0.082642
    6 4.441391 -0.002040 0.000000 0.000013 0.017442 -0.505878
    7 -0.027343 0.002036 1.614274 -1.491322 -1.074857 5.135514
    8 5.073841 0.000000 0.000002 -1.710737 0.701457 -0.659110
    9 12.011117 0.000000 -0.000001 0.000000 0.000000 -1.631994
    10 10.249307 0.000000 0.000000 -1.208705 -0.241445 -0.184085
    11 1.183836 0.259443 -1.427523 0.249463 0.758300 0.062067
    12 0.625233 0.000000 0.000000 0.000000 0.000000 0.139626
    13 1.041848 0.000000 0.000001 0.000000 0.000000 0.139626
    14 3.037806 -0.002122 -0.118180 0.010224 0.059138 -0.091487
    15 1.172004 -0.000001 0.000000 0.000000 0.000000 0.193201
    16 1.160930 0.000000 0.000000 0.000000 0.000000 0.397201
    17 0.027346 0.002045 -1.614274 -2.731633 1.001456 0.859384
    18 4.700062 0.000000 -0.000002 1.740156 -0.724357 -0.629630
    19 12.049927 0.000000 0.000001 0.000000 0.000000 -1.943841
    20 10.340311 0.000001 0.000000 1.254043 0.348397 -0.246913
    21 1.186625 0.034757 1.438863 -0.359801 -0.536502 0.473062
    22 0.607803 0.000000 0.000000 0.000000 0.000000 0.139618
    23 1.063061 0.000001 0.000000 0.000000 0.000000 0.139618
    24 2.950419 0.002914 0.177525 -0.228817 -0.016262 0.047194
    25 1.294388 0.000000 -0.000001 0.000000 0.000000 0.361253
    26 1.183920 0.000001 0.000000 0.000000 0.000000 0.404459
    27 2.738953 3.890889 0.113747 3.572287 -1.025756 -0.557980
    28 0.000000 -1.023687 -1.922726 -0.163007 0.157107 0.000000
    29 0.000000 -0.558375 -1.804806 0.021389 -0.034226 0.095686
    30 0.000000 -0.325718 -1.929488 0.306409 -0.087255 0.000000
    31 0.000000 0.046531 -1.430430 0.022733 -0.214452 0.040369
    32 0.000000 0.000000 -1.347565 0.181401 -0.021884 0.071374
    33 0.000000 -0.046531 -2.135521 0.082493 -0.253067 0.000000
    34 0.000000 -0.279187 -2.151380 -0.030867 -0.144855 0.080943
    35 -4.544402 -0.772835 3.119569 0.018755 -3.119284 -0.057732
    36 19.302956 0.000000 0.000000 0.000000 0.000000 -0.304049
    37 15.657714 0.000000 0.000000 0.099982 0.008132 -0.892154
    38 3.741828 7.474068 0.000000 0.000000 0.000000 1.570796
    39 -3.177172 -0.792349 -3.572706 -0.022616 3.098074 -0.082466
    40 19.302958 0.000000 0.000000 0.000000 0.000000 -0.353593
    41 15.657715 0.000000 0.000000 0.064576 0.059051 -0.684451
    42 3.741828 7.351521 0.000000 0.000000 0.000000 1.570796
    43 2.562340 0.000000 0.000000 0.174153 0.276621 0.227616
    44 8.541129 0.000000 0.000000 0.000000 0.000000 0.000000
    45 -7.351523 1.350579 0.144448 0.138447 -3.161246 -1.464371
    46 4.991368 -0.677071 0.532282 1.237053 -2.969057 -0.819481
  time 29
    0 -1.592880 -34.308692 5.082585 2.057754 1.515400 -5.791668
    1 -0.010800 1.050813 0.000000 -0.000033 -1.710347 -1.570756
    2 3.893507 0.383633 -0.542981 0.017772 0.200585 0.001922
    3 3.442969 -0.003536 0.000000 -0.056615 0.047974 0.000301
    4 4.441442 -0.003536 0.000000 -0.116803 0.112547 0.011416
    5 4.441389 -0.003537 0.000000 -0.181019 0.188913 0.006725
    6 4.441391 -0.002040 0.000000 0.000013 0.017442 -0.505878
    7 -0.027343 0.002036 1.614274 -1.462081 -1.201969 5.106943
    8 5.073841 0.000000 0.000002 -1.580721 0.755510 -0.371132
    9 12.011117 0.000000 -0.000001 0.000000 0.000000 -1.754898
    10 10.249307 0.000000 0.000000 -1.318617 -0.131783 -0.148068
    11 1.183836 0.259443 -1.427523 0.241470 0.788902 0.047194
    12 0.625233 0.000000 0.000000 0.000000 0.000000 0.139626
    13 1.041848 0.000000 0.000001 0.000000 0.000000 0.139626
    14 3.037806 -0.002122 -0.118180 -0.010424 0.063572 -0.117563
    15 1.172004 -0.000001 0.000000 0.000000 0.000000 0.169609
    16 1.160930 0.000000 0.000000 0.000000 0.000000 0.366849
    17 0.027346 0.002045 -1.614274 -2.444589 0.916343 1.097916
    18 4.700062 0.000000 -0.000002 1.557960 -0.917126 -0.243251
    19 12.049927 0.000000 0.000001 0.000000 0.000000 -1.994641
    20 10.340311 0.000001 0.000000 1.403530 0.262527 -0.207004
    21 1.186625 0.034757 1.438863 -0.371256 -0.584159 0.494617
    22 0.607803 0.000000 0.000000 0.000000 0.000000 0.139618
    23 1.063061 0.000001 0.000000 0.000000 0.000000 0.139618
    24 2.950419 0.002914 0.177525 -0.229000 -0.023070 0.047141
    25 1.294388 0.000000 -0.000001 0.000000 0.000000 0.354352
    26 1.183920 0.000001 0.000000 0.000000 0.000000 0.402238
    27 2.738953 3.890889 0.113747 3.545061 -0.933070 -0.443220
    28 0.000000 -1.023687 -1.922726 -0.162516 0.157091 0.000000
    29 0.000000 -0.558375 -1.804806 0.439076 -0.026179 0.000000
    30 0.000000 -0.325718 -1.929488 0.175437 -0.087255 0.000000
    31 0.000000 0.046531 -1.430430 0.016307 -0.214452 0.040369
    32 0.000000 0.000000 -1.347565 0.088411 -0.022667 0.101905
    33 0.000000 -0.046531 -2.135521 -0.080681 -0.253067 0.000000
    34 0.000000 -0.279187 -2.151380 -0.158472 -0.144855 0.080943
    35 -4.599091 -0.319697 3.115662 0.011663 -3.120903 -0.157883
    36 19.302956 0.000000 0.000000 0.000000 0.000000 -0.229200
    37 15.657714 0.000000 0.000000 0.096627 -0.010311 -0.753115
    38 3.741828 7.474068 0.000000 0.000000 0.000000 1.570796
    39 -3.243581 -0.436869 -3.576612 -0.026160 3.097691 -0.140941
    40 19.302958 0.000000 0.000000 0.000000 0.000000 -0.225421
    41 15.657715 0.000000 0.000000 0.064728 0.057388 -0.740259
    42 3.741828 7.351521 0.000000 0.000000 0.000000 1.570796
    43 2.562340 0.000000 0.000000 0.233776 0.216831 0.668851
    44 8.541129 0.000000 0.000000 0.000000 0.000000 0.000000
    45 -7.351523 1.350579 0.144448 0.138447 -3.161246 -1.464371
    46 4.991368 -0.677071 0.532282 1.237053 -2.969057 -0.819481
  time 30
    0 -1.592880 -34.308692 5.082585 2.057754 1.515400 -5.791668
    1 -0.010800 1.050813 0.000000 -0.000033 -1.710347 -1.570756
    2 3.893507 0.383633 -0.542981 0.017772 0.200585 0.001922
    3 3.442969 -0.003536 0.000000 -0.056615 0.047974 0.000301
    4 4.441442 -0.003536 0.000000 -0.116803 0.112547 0.011416
    5 4.441389 -0.003537 0.000000 -0.181019 0.188913 0.006725
    6 4.441391 -0.002040 0.000000 0.000013 0.017442 -0.505878
    7 -0.027343 0.002036 1.614274 -1.462081 -1.201969 5.106943
    8 5.073841 0.000000 0.000002 -1.583507 0.769591 -0.301721
    9 12.011117 0.000000 -0.000001 0.000000 0.000000 -1.786183
    10 10.249307 0.000000 0.000000 -1.421054 -0.043412 -0.135380
    11 1.183836 0.259443 -1.427523 0.232679 0.816297 0.031464
    12 0.625233 0.000000 0.000000 0.000000 0.000000 0.139626
    13 1.041848 0.000000 0.000001 0.000000 0.000000 0.139626
    14 3.037806 -0.002122 -0.118180 -0.030362 0.066604 -0.142138
    15 1.172004 -0.000001 0.000000 0.000000 0.000000 0.148314
    16 1.160930 0.000000 0.000000 0.000000 0.000000 0.340298
    17 0.027346 0.002045 -1.614274 -2.444589 0.916343 1.097916
    18 4.700062 0.000000 -0.000002 1.553148 -0.927936 -0.164168
    19 12.049927 0.000000 0.000001 0.000000 0.000000 -2.027217
    20 10.340311 0.000001 0.000000 1.543078 0.195721 -0.191319
    21 1.186625 0.034757 1.438863 -0.383198 -0.627653 0.515604
    22 0.607803 0.000000 0.000000 0.000000 0.000000 0.139618
    23 1.063061 0.000001 0.000000 0.000000 0.000000 0.139618
    24 2.950419 0.002914 0.177525 -0.229086 -0.028654 0.047826
    25 1.294388 0.000000 -0.000001 0.000000 0.000000 0.349047
    26 1.183920 0.000001 0.000000 0.000000 0.000000 0.401375
    27 2.738953 3.890889 0.113747 3.538350 -0.847825 -0.352045
    28 0.000000 -1.023687 -1.922726 -0.157052 0.157075 0.000000
    29 0.000000 -0.558375 -1.804806 0.488688 -0.026179 0.000000
    30 0.000000 -0.325718 -1.929488 0.061086 -0.087255 0.000000
    31 0.000000 0.046531 -1.430430 0.013094 -0.214452 0.040369
    32 0.000000 0.000000 -1.347565 0.006763 -0.021156 0.130323
    33 0.000000 -0.046531 -2.135521 -0.226892 -0.253067 0.000000
    34 0.000000 -0.279187 -2.151380 -0.267669 -0.144855 0.080943
    35 -4.599091 -0.319697 3.115662 0.011567 -3.120903 -0.157883
    36 19.302956 0.000000 0.000000 0.000000 0.000000 -0.229200
    37 15.657714 0.000000 0.000000 -0.422597 0.066146 -0.548210
    38 3.741828 7.474068 0.000000 0.000000 0.000000 1.570796
    39 -3.243581 -0.436869 -3.576612 -0.026256 3.097691 -0.140941
    40 19.302958 0.000000 0.000000 0.000000 0.000000 -0.225421
    41 15.657715 0.000000 0.000000 0.391495 -0.002231 -0.594954
    42 3.741828 7.351521 0.000000 0.000000 0.000000 1.570796
    43 2.562340 0.000000 0.000000 0.233776 0.216831 0.668851
    44 8.541129 0.000000 0.000000 0.000000 0.000000 0.000000
    45 -7.351523 1.350579 0.144448 0.138447 -3.161246 -1.464371
    46 4.991368 -0.677071 0.532282 1.237053 -2.969057 -0.819481
  time 31
    0 -1.592880 -34.308692 5.082585 2.057754 1.515400 -5.791668
    1 -0.010800 1.050813 0.000000 -0.000033 -1.710347 -1.570756
    2 3.893507 0.383633 -0.542981 0.017772 0.200585 0.001922
    3 3.442969 -0.003536 0.000000 -0.056615 0.047974 0.000301
    4 4.441442 -0.003536 0.000000 -0.116803 0.112547 0.011416
    5 4.441389 -0.003537 0.000000 -0.181019 0.188913 0.006725
    6 4.441391 -0.002040 0.000000 0.000013 0.017442 -0.505878
    7 -0.027343 0.002036 1.614274 -1.462081 -1.201969 5.106943
    8 5.073841 0.000000 0.000002 -1.583507 0.769591 -0.301721
    9 12.011117 0.000000 -0.000001 0.000000 0.000000 -1.786183
    10 10.249307 0.000000 0.000000 -1.421054 -0.043412 -0.135380
    11 1.183836 0.259443 -1.427523 0.232679 0.816297 0.031464
    12 0.625233 0.000000 0.000000 0.000000 0.000000 0.139626
    13 1.041848 0.000000 0.000001 0.000000 0.000000 0.139626
    14 3.037806 -0.002122 -0.118180 -0.030362 0.066604 -0.142138
    15 1.172004 -0.000001 0.000000 0.000000 0.000000 0.148314
    16 1.160930 0.000000 0.000000 0.000000 0.000000 0.340298
    17 0.027346 0.002045 -1.614274 -2.444589 0.916343 1.097916
    18 4.700062 0.000000 -0.000002 1.553148 -0.927936 -0.164168
    19 12.049927 0.000000 0.000001 0.000000 0.000000 -2.027217
    20 10.340311 0.000001 0.000000 1.543078 0.195721 -0.191319
    21 1.186625 0.034757 1.438863 -0.383198 -0.627653 0.515604
    22 0.607803 0.000000 0.000000 0.000000 0.000000 0.139618
    23 1.063061 0.000001 0.000000 0.000000 0.000000 0.139618
    24 2.950419 0.002914 0.177525 -0.229086 -0.028654 0.047826
    25 1.294388 0.000000 -0.000001 0.000000 0.000000 0.349047
    26 1.183920 0.000001 0.000000 0.000000 0.000000 0.401375
    27 2.738953 3.890889 0.113747 3.538350 -0.847825 -0.352045
    28 0.000000 -1.023687 -1.922726 -0.157052 0.157075 0.000000
    29 0.000000 -0.558375 -1.804806 0.488688 -0.026179 0.000000
    30 0.000000 -0.325718 -1.929488 0.061086 -0.087255 0.000000
    31 0.000000 0.046531 -1.430430 0.013094 -0.214452 0.040369
    32 0.000000 0.000000 -1.347565 0.006763 -0.021156 0.130323
    33 0.000000 -0.046531 -2.135521 -0.226892 -0.253067 0.000000
    34 0.000000 -0.279187 -2.151380 -0.267669 -0.144855 0.080943
    35 -4.599091 -0.319697 3.115662 0.011567 -3.120903 -0.157883
    36 19.302956 0.000000 0.000000 0.000000 0.000000 -0.229200
    37 15.657714 0.000000 0.000000 -0.422597 0.066146 -0.548210
    38 3.741828 7.474068 0.000000 0.000000 0.000000 1.570796
    39 -3.243581 -0.436869 -3.576612 -0.026256 3.097691 -0.140941
    40 19.302958 0.000000 0.000000 0.000000 0.000000 -0.225421
    41 15.657715 0.000000 0.000000 0.391495 -0.002231 -0.594954
    42 3.741828 7.351521 0.000000 0.000000 0.000000 1.570796
    43 2.562340 0.000000 0.000000 0.233776 0.216831 0.668851
    44 8.541129 0.000000 0.000000 0.000000 0.000000 0.000000
    45 -7.351523 1.350579 0.144448 0.138447 -3.161246 -1.464371
    46 4.991368 -0.677071 0.532282 1.237053 -2.969057 -0.819481
  time 32
    0 -1.592880 -34.308692 5.082585 2.057754 1.515400 -5.791668
    1 -0.010800 1.050813 0.000000 -0.000033 -1.710347 -1.570756
    2 3.893507 0.383633 -0.542981 0.017772 0.200585 0.001922
    3 3.442969 -0.003536 0.000000 -0.056615 0.047974 0.000301
    4 4.441442 -0.003536 0.000000 -0.116803 0.112547 0.011416
    5 4.441389 -0.003537 0.000000 -0.181019 0.188913 0.006725
    6 4.441391 -0.002040 0.000000 0.000013 0.017442 -0.505878
    7 -0.027343 0.002036 1.614274 -1.462081 -1.201969 5.106943
    8 5.073841 0.000000 0.000002 -1.583507 0.769591 -0.301721
    9 12.011117 0.000000 -0.000001 0.000000 0.000000 -1.786183
    10 10.249307 0.000000 0.000000 -1.421054 -0.043412 -0.135380
    11 1.183836 0.259443 -1.427523 0.232679 0.816297 0.031464
    12 0.625233 0.000000 0.000000 0.000000 0.000000 0.139626
    13 1.041848 0.000000 0.000001 0.000000 0.000000 0.139626
    14 3.037806 -0.002122 -0.118180 -0.030362 0.066604 -0.142138
    15 1.172004 -0.000001 0.000000 0.000000 0.000000 0.148314
    16 1.160930 0.000000 0.000000 0.000000 0.000000 0.340298
    17 0.027346 0.002045 -1.614274 -2.444589 0.916343 1.097916
    18 4.700062 0.000000 -0.000002 1.553148 -0.927936 -0.164168
    19 12.049927 0.000000 0.000001 0.000000 0.000000 -2.027217
    20 10.340311 0.000001 0.000000 1.543078 0.195721 -0.191319
    21 1.186625 0.034757 1.438863 -0.383198 -0.627653 0.515604
    22 0.607803 0.000000 0.000000 0.000000 0.000000 0.139618
    23 1.063061 0.000001 0.000000 0.000000 0.000000 0.139618
    24 2.950419 0.002914 0.177525 -0.229086 -0.028654 0.047826
    25 1.294388 0.000000 -0.000001 0.000000 0.000000 0.349047
    26 1.183920 0.000001 0.000000 0.000000 0.000000 0.401375
    27 2.738953 3.890889 0.113747 3.538350 -0.847825 -0.352045
    28 0.000000 -1.023687 -1.922726 -0.157052 0.157075 0.000000
    29 0.000000 -0.558375 -1.804806 0.488688 -0.026179 0.000000
    30 0.000000 -0.325718 -1.929488 0.061086 -0.087255 0.000000
    31 0.000000 0.046531 -1.430430 0.013094 -0.214452 0.040369
    32 0.000000 0.000000 -1.347565 0.006763 -0.021156 0.130323
    33 0.000000 -0.046531 -2.135521 -0.226892 -0.253067 0.000000
    34 0.000000 -0.279187 -2.151380 -0.267669 -0.144855 0.080943
    35 -4.599091 -0.319697 3.115662 0.011567 -3.120903 -0.157883
    36 19.302956 0.000000 0.000000 0.000000 0.000000 -0.229200
    37 15.657714 0.000000 0.000000 -0.422597 0.066146 -0.548210
    38 3.741828 7.474068 0.000000 0.000000 0.000000 1.570796
    39 -3.243581 -0.436869 -3.576612 -0.026256 3.097691 -0.140941
    40 19.302958 0.000000 0.000000 0.000000 0.000000 -0.225421
    41 15.657715 0.000000 0.000000 0.391495 -0.002231 -0.594954
    42 3.741828 7.351521 0.000000 0.000000 0.000000 1.570796
    43 2.562340 0.000000 0.000000 0.233776 0.216831 0.668851
    44 8.541129 0.000000 0.000000 0.000000 0.000000 0.000000
    45 -7.351523 1.350579 0.144448 0.138447 -3.161246 -1.464371
    46 4.991368 -0.677071 0.532282 1.237053 -2.969057 -0.819481
end
