version 1
nodes
  0 "Bip01" -1
  1 "Bip01 Pelvis" 0
  2 "Bip01 Spine" 1
  3 "Bip01 Spine1" 2
  4 "Bip01 Spine2" 3
  5 "Bip01 Spine3" 4
  6 "Bip01 Neck" 5
  7 "Bip01 L Clavicle" 6
  8 "Bip01 L UpperArm" 7
  9 "Bip01 L Forearm" 8
  10 "Bip01 L Hand" 9
  11 "Bip01 L Finger0" 10
  12 "Bip01 L Finger01" 11
  13 "Bip01 L Finger02" 12
  14 "Bip01 L Finger2" 10
  15 "Bip01 L Finger21" 14
  16 "Bip01 L Finger22" 15
  17 "Bip01 R Clavicle" 6
  18 "Bip01 R UpperArm" 17
  19 "Bip01 R Forearm" 18
  20 "Bip01 R Hand" 19
  21 "Bip01 R Finger0" 20
  22 "Bip01 R Finger01" 21
  23 "Bip01 R Finger02" 22
  24 "Bip01 R Finger2" 20
  25 "Bip01 R Finger21" 24
  26 "Bip01 R Finger22" 25
  27 "tie1" 5
  28 "tie2" 27
  29 "tie3" 28
  30 "tie4" 29
  31 "tie5" 30
  32 "tie6" 31
  33 "tie7" 32
  34 "tie8" 33
  35 "Bip01 L Thigh" 2
  36 "Bip01 L Calf" 35
  37 "Bip01 L Foot" 36
  38 "Bip01 L Toe0" 37
  39 "Bip01 R Thigh" 2
  40 "Bip01 R Calf" 39
  41 "Bip01 R Foot" 40
  42 "Bip01 R Toe0" 41
  43 "Bip01 Head" 6
  44 "Dummy05" 43
  45 "Mouth" 44
  46 "needle" 20
end
skeleton
  time 0
    0 -0.221744 -0.803308 36.354249 0.000000 -0.026135 -1.570888
    1 1.563467 -0.011719 0.000000 -1.570795 -1.570451 0.000000
    2 3.928664 0.383633 0.000004 -0.000004 -0.000001 -0.199806
    3 3.442969 -0.003536 0.000000 -0.026162 -0.000084 0.000012
    4 4.441442 -0.003536 0.000000 -0.034841 -0.001582 -0.030471
    5 4.441389 -0.003537 0.000000 -0.025926 -0.003559 -0.117690
    6 4.441391 -0.002040 0.000000 -0.000013 -0.026163 -0.249545
    7 0.039065 0.002036 1.614274 -0.606412 -1.359523 3.983274
    8 5.073841 0.000000 0.000002 0.693211 0.942457 0.471870
    9 12.350971 0.000000 -0.000001 0.000000 0.000000 -1.289723
    10 9.233651 0.000000 0.000000 -2.204532 -0.539003 0.239974
    11 1.488532 0.259443 -1.427523 -0.000946 0.576098 -0.000491
    12 0.625233 0.000000 0.000000 0.000000 0.000000 0.000000
    13 1.041848 0.000000 0.000001 0.000000 0.000000 0.000000
    14 3.826892 -0.002122 -0.118180 -0.013562 0.162121 -0.508169
    15 1.172004 -0.000001 0.000000 0.000000 0.000000 0.418874
    16 1.160930 0.000000 0.000000 0.000000 0.000000 0.418828
    17 -0.039063 0.002045 -1.614274 -0.565953 1.346016 2.832934
    18 4.700062 0.000000 -0.000002 -0.613515 -1.095608 0.395410
    19 12.393687 0.000000 0.000001 0.000000 0.000000 -0.672012
    20 9.316842 0.000001 0.000000 1.971463 0.659196 0.060627
    21 1.491322 0.034757 1.438863 -0.054672 -0.824687 0.246187
    22 0.607803 0.000000 0.000000 0.000000 0.000000 0.000000
    23 1.063061 0.000001 0.000000 0.000000 0.000000 0.000000
    24 3.716067 0.002914 0.177525 -0.012491 0.022927 -0.488798
    25 1.294388 0.000000 -0.000001 0.000000 0.000000 0.506136
    26 1.183920 0.000001 0.000000 0.000000 0.000000 0.689357
    27 2.738953 3.890889 0.113747 2.915204 -1.565489 0.121087
    28 0.000000 -1.023687 -1.922726 0.000000 0.000000 0.000000
    29 0.000000 -0.558375 -1.804806 0.000000 0.000000 0.000000
    30 0.000000 -0.325718 -1.929488 0.000000 0.000000 0.000000
    31 0.000000 0.046531 -1.430430 0.000000 0.000000 0.000000
    32 0.000000 0.000000 -1.347565 0.000000 0.000000 0.000000
    33 0.000000 -0.046531 -2.135521 0.000000 0.000000 0.000000
    34 0.000000 -0.279187 -2.151380 0.000000 0.000000 0.000000
    35 -3.774847 -1.155660 3.416453 0.002463 -3.145376 -0.062669
    36 19.302956 0.000000 0.000000 0.000000 0.000000 -0.732475
    37 15.657714 0.000000 0.000000 -0.003515 0.002945 0.452609
    38 3.741828 7.474068 0.000000 0.000000 0.000000 1.570796
    39 -3.774847 -1.155641 -3.416451 -0.002410 3.159968 0.054409
    40 19.302958 0.000000 0.000000 0.000000 0.000000 -0.712904
    41 15.657715 0.000000 0.000000 0.006058 -0.017558 0.513828
    42 3.741828 7.351521 0.000000 0.000000 0.000000 1.570796
    43 2.562340 0.000000 0.000000 0.066424 0.079452 -0.310075
    44 8.541129 0.000000 0.000000 0.000000 0.000000 0.000000
    45 -7.351523 1.350579 0.144448 0.000001 -3.141591 -1.570794
    46 4.991368 -0.677071 0.532282 1.237053 -2.969057 -0.819481
  time 1
    0 -0.221744 -0.340056 33.141406 -0.051075 -0.153087 -1.476950
    1 1.676751 -0.027345 0.000000 -1.570795 -1.570451 0.000000
    2 3.928664 0.383633 0.000004 -0.000004 -0.000001 -0.199806
    3 3.442969 -0.003536 0.000000 -0.026162 -0.002097 -0.016803
    4 4.441442 -0.003536 0.000000 -0.034776 -0.003595 -0.047288
    5 4.441389 -0.003537 0.000000 -0.025926 -0.003559 -0.117690
    6 4.441391 -0.002040 0.000000 -0.000013 -0.026163 -0.249545
    7 0.039065 0.002036 1.614274 -0.606412 -1.359523 3.983274
    8 5.073841 0.000000 0.000002 0.832372 0.792914 0.620349
    9 12.350971 0.000000 -0.000001 0.000000 0.000000 -1.289723
    10 9.233651 0.000000 0.000000 -2.114028 -0.518515 0.240838
    11 1.488532 0.259443 -1.427523 -0.000946 0.576098 -0.000491
    12 0.625233 0.000000 0.000000 0.000000 0.000000 0.000000
    13 1.041848 0.000000 0.000001 0.000000 0.000000 0.000000
    14 3.826892 -0.002122 -0.118180 -0.013562 0.162121 -0.508169
    15 1.172004 -0.000001 0.000000 0.000000 0.000000 0.418874
    16 1.160930 0.000000 0.000000 0.000000 0.000000 0.418828
    17 -0.039063 0.002045 -1.614274 -0.565953 1.346016 2.832934
    18 4.700062 0.000000 -0.000002 -0.575093 -1.013133 0.335358
    19 12.393687 0.000000 0.000001 0.000000 0.000000 -0.672012
    20 9.316842 0.000001 0.000000 1.900373 0.632003 0.034291
    21 1.491322 0.034757 1.438863 -0.054672 -0.824687 0.246187
    22 0.607803 0.000000 0.000000 0.000000 0.000000 0.000000
    23 1.063061 0.000001 0.000000 0.000000 0.000000 0.000000
    24 3.716067 0.002914 0.177525 -0.012491 0.022927 -0.488798
    25 1.294388 0.000000 -0.000001 0.000000 0.000000 0.506136
    26 1.183920 0.000001 0.000000 0.000000 0.000000 0.689357
    27 2.738953 3.890889 0.113747 2.877816 -1.566282 0.083505
    28 0.000000 -1.023687 -1.922726 -0.056768 -0.003704 -0.000609
    29 0.000000 -0.558375 -1.804806 -0.101450 -0.012617 -0.003253
    30 0.000000 -0.325718 -1.929488 0.053804 -0.002142 -0.000021
    31 0.000000 0.046531 -1.430430 -0.006808 -0.009648 0.000098
    32 0.000000 0.000000 -1.347565 0.182981 -0.003202 0.000686
    33 0.000000 -0.046531 -2.135521 0.160558 -0.006975 -0.006268
    34 0.000000 -0.279187 -2.151380 0.218272 -0.009258 -0.005727
    35 -3.774847 -1.155660 3.416453 0.045683 -3.115475 -0.083418
    36 19.302956 0.000000 0.000000 0.000000 0.000000 -1.033938
    37 15.657714 0.000000 0.000000 0.055781 0.007059 0.605797
    38 3.741828 7.474068 0.000000 0.000000 0.000000 1.570796
    39 -3.774847 -1.155641 -3.416451 0.029479 3.209599 0.070746
    40 19.302958 0.000000 0.000000 0.000000 0.000000 -0.977515
    41 15.657715 0.000000 0.000000 0.077357 -0.020907 0.668653
    42 3.741828 7.351521 0.000000 0.000000 0.000000 1.570796
    43 2.562340 0.000000 0.000000 0.069598 0.078145 -0.235493
    44 8.541129 0.000000 0.000000 0.000000 0.000000 0.000000
    45 -7.351523 1.350579 0.144448 0.000001 -3.141591 -1.570794
    46 4.991368 -0.677071 0.532282 1.237053 -2.969057 -0.819481
  time 2
    0 -0.221744 0.161012 29.678677 -0.172965 -0.358801 -1.290416
    1 1.875976 -0.054689 0.000000 -1.570795 -1.570451 0.000000
    2 3.928664 0.383633 0.000004 -0.000004 -0.000001 -0.199806
    3 3.442969 -0.003536 0.000000 -0.026198 -0.005633 -0.046371
    4 4.441442 -0.003536 0.000000 -0.034679 -0.007131 -0.076856
    5 4.441389 -0.003537 0.000000 -0.025926 -0.003559 -0.117690
    6 4.441391 -0.002040 0.000000 -0.000013 -0.026163 -0.249545
    7 0.039065 0.002036 1.614274 -0.606412 -1.359523 3.983274
    8 5.073841 0.000000 0.000002 0.979462 0.501455 0.783615
    9 12.350971 0.000000 -0.000001 0.000000 0.000000 -1.289723
    10 9.233651 0.000000 0.000000 -2.024459 -0.498154 0.243794
    11 1.488532 0.259443 -1.427523 -0.000946 0.576098 -0.000491
    12 0.625233 0.000000 0.000000 0.000000 0.000000 0.000000
    13 1.041848 0.000000 0.000001 0.000000 0.000000 0.000000
    14 3.826892 -0.002122 -0.118180 -0.013562 0.162121 -0.508169
    15 1.172004 -0.000001 0.000000 0.000000 0.000000 0.418874
    16 1.160930 0.000000 0.000000 0.000000 0.000000 0.418828
    17 -0.039063 0.002045 -1.614274 -0.565953 1.346016 2.832934
    18 4.700062 0.000000 -0.000002 -0.536306 -0.869954 0.248119
    19 12.393687 0.000000 0.000001 0.000000 0.000000 -0.672012
    20 9.316842 0.000001 0.000000 1.831652 0.603449 0.010876
    21 1.491322 0.034757 1.438863 -0.054672 -0.824687 0.246187
    22 0.607803 0.000000 0.000000 0.000000 0.000000 0.000000
    23 1.063061 0.000001 0.000000 0.000000 0.000000 0.000000
    24 3.716067 0.002914 0.177525 -0.012491 0.022927 -0.488798
    25 1.294388 0.000000 -0.000001 0.000000 0.000000 0.506136
    26 1.183920 0.000001 0.000000 0.000000 0.000000 0.689357
    27 2.738953 3.890889 0.113747 2.835921 -1.567103 0.041513
    28 0.000000 -1.023687 -1.922726 -0.119425 -0.007520 -0.001083
    29 0.000000 -0.558375 -1.804806 -0.202900 -0.025508 -0.005232
    30 0.000000 -0.325718 -1.929488 0.107634 -0.004283 -0.000191
    31 0.000000 0.046531 -1.430430 -0.009298 -0.019295 0.000476
    32 0.000000 0.000000 -1.347565 0.365985 -0.006488 0.000768
    33 0.000000 -0.046531 -2.135521 0.321173 -0.012871 -0.013591
    34 0.000000 -0.279187 -2.151380 0.436618 -0.017071 -0.013362
    35 -3.774847 -1.155660 3.416453 0.128576 -3.060340 -0.040425
    36 19.302956 0.000000 0.000000 0.000000 0.000000 -1.369538
    37 15.657714 0.000000 0.000000 0.159372 0.020594 0.773804
    38 3.741828 7.474068 0.000000 0.000000 0.000000 1.570796
    39 -3.774847 -1.155641 -3.416451 0.091438 3.308669 0.169966
    40 19.302958 0.000000 0.000000 0.000000 0.000000 -1.254425
    41 15.657715 0.000000 0.000000 0.198867 -0.021847 0.840135
    42 3.741828 7.351521 0.000000 0.000000 0.000000 1.570796
    43 2.562340 0.000000 0.000000 0.076580 0.074446 -0.088958
    44 8.541129 0.000000 0.000000 0.000000 0.000000 0.000000
    45 -7.351523 1.350579 0.144448 0.000001 -3.141591 -1.570794
    46 4.991368 -0.677071 0.532282 1.237053 -2.969057 -0.819481
  time 3
    0 -0.221744 0.643172 26.608627 -0.332993 -0.523917 -1.077931
    1 1.438463 -0.039064 0.000000 -1.570795 -1.570451 0.000000
    2 3.928664 0.383633 0.000004 -0.000004 -0.000001 -0.200307
    3 3.442969 -0.003536 0.000000 -0.025959 -0.005321 0.000815
    4 4.441442 -0.003536 0.000000 -0.034647 -0.005525 -0.002326
    5 4.441389 -0.003537 0.000000 -0.026094 -0.001055 -0.035611
    6 4.441391 -0.002040 0.000000 -0.000013 -0.026163 -0.249545
    7 0.039065 0.002036 1.614274 -0.606412 -1.359523 3.983274
    8 5.073841 0.000000 0.000002 0.764792 0.686055 0.386523
    9 12.350971 0.000000 -0.000001 0.000000 0.000000 -1.289723
    10 9.233651 0.000000 0.000000 -1.935752 -0.478131 0.248796
    11 1.488532 0.259443 -1.427523 -0.000946 0.576098 -0.000491
    12 0.625233 0.000000 0.000000 0.000000 0.000000 0.000000
    13 1.041848 0.000000 0.000001 0.000000 0.000000 0.000000
    14 3.826892 -0.002122 -0.118180 -0.013562 0.162121 -0.508169
    15 1.172004 -0.000001 0.000000 0.000000 0.000000 0.418874
    16 1.160930 0.000000 0.000000 0.000000 0.000000 0.418828
    17 -0.039063 0.002045 -1.614274 -0.565953 1.346016 2.832934
    18 4.700062 0.000000 -0.000002 -0.083624 -0.792695 -0.250608
    19 12.393687 0.000000 0.000001 0.000000 0.000000 -0.672012
    20 9.316842 0.000001 0.000000 1.764972 0.573656 -0.009618
    21 1.491322 0.034757 1.438863 -0.054672 -0.824687 0.246187
    22 0.607803 0.000000 0.000000 0.000000 0.000000 0.000000
    23 1.063061 0.000001 0.000000 0.000000 0.000000 0.000000
    24 3.716067 0.002914 0.177525 -0.012491 0.022927 -0.488798
    25 1.294388 0.000000 -0.000001 0.000000 0.000000 0.506136
    26 1.183920 0.000001 0.000000 0.000000 0.000000 0.689357
    27 2.738953 3.890889 0.113747 2.792972 -1.567951 -0.001630
    28 0.000000 -1.023687 -1.922726 -0.183587 -0.011367 -0.001332
    29 0.000000 -0.558375 -1.804806 -0.280259 -0.038511 -0.005627
    30 0.000000 -0.325718 -1.929488 0.102977 -0.006887 -0.000467
    31 0.000000 0.046531 -1.430430 -0.010724 -0.028955 0.000924
    32 0.000000 0.000000 -1.347565 0.433641 -0.009592 0.000192
    33 0.000000 -0.046531 -2.135521 0.363642 -0.017725 -0.021764
    34 0.000000 -0.279187 -2.151380 0.513479 -0.023243 -0.022505
    35 -3.774847 -1.155660 3.416453 0.166621 -2.974256 -0.079877
    36 19.302956 0.000000 0.000000 0.000000 0.000000 -1.764767
    37 15.657714 0.000000 0.000000 0.330955 0.048656 0.959634
    38 3.741828 7.474068 0.000000 0.000000 0.000000 1.570796
    39 -3.774847 -1.155641 -3.416451 -0.026256 3.284237 -0.236176
    40 19.302958 0.000000 0.000000 0.000000 0.000000 -1.272169
    41 15.657715 0.000000 0.000000 0.244848 -0.002279 0.665293
    42 3.741828 7.351521 0.000000 0.000000 0.000000 1.570796
    43 2.562340 0.000000 0.000000 0.088958 0.051892 0.041625
    44 8.541129 0.000000 0.000000 0.000000 0.000000 0.000000
    45 -7.351523 1.350579 0.144448 0.000001 -3.141591 -1.570794
    46 4.991368 -0.677071 0.532282 1.237053 -2.969057 -0.819481
  time 4
    0 -0.221744 1.040245 23.788466 -0.507491 -0.632109 -0.863531
    1 0.856414 -0.015625 0.000000 -1.570795 -1.570451 0.000000
    2 3.928664 0.383633 0.000004 -0.000004 -0.000001 -0.201151
    3 3.442969 -0.003536 0.000000 -0.025599 -0.004398 0.063637
    4 4.441442 -0.003536 0.000000 -0.034404 -0.003020 0.093809
    5 4.441389 -0.003537 0.000000 -0.026052 0.001977 0.064393
    6 4.441391 -0.002040 0.000000 -0.000013 -0.026163 -0.249545
    7 0.039065 0.002036 1.614274 -0.606412 -1.359523 3.983274
    8 5.073841 0.000000 0.000002 0.314092 0.738201 -0.254118
    9 12.350971 0.000000 -0.000001 0.000000 0.000000 -1.289723
    10 9.233651 0.000000 0.000000 -1.847837 -0.458573 0.255663
    11 1.488532 0.259443 -1.427523 -0.000946 0.576098 -0.000491
    12 0.625233 0.000000 0.000000 0.000000 0.000000 0.000000
    13 1.041848 0.000000 0.000001 0.000000 0.000000 0.000000
    14 3.826892 -0.002122 -0.118180 -0.013562 0.162121 -0.508169
    15 1.172004 -0.000001 0.000000 0.000000 0.000000 0.418874
    16 1.160930 0.000000 0.000000 0.000000 0.000000 0.418828
    17 -0.039063 0.002045 -1.614274 -0.565953 1.346016 2.832934
    18 4.700062 0.000000 -0.000002 0.284850 -0.543683 -0.659056
    19 12.393687 0.000000 0.000001 0.000000 0.000000 -0.672012
    20 9.316842 0.000001 0.000000 1.700332 0.542832 -0.027460
    21 1.491322 0.034757 1.438863 -0.054672 -0.824687 0.246187
    22 0.607803 0.000000 0.000000 0.000000 0.000000 0.000000
    23 1.063061 0.000001 0.000000 0.000000 0.000000 0.000000
    24 3.716067 0.002914 0.177525 -0.012491 0.022927 -0.488798
    25 1.294388 0.000000 -0.000001 0.000000 0.000000 0.506136
    26 1.183920 0.000001 0.000000 0.000000 0.000000 0.689357
    27 2.738953 3.890889 0.113747 2.752324 -1.568772 -0.042663
    28 0.000000 -1.023687 -1.922726 -0.244804 -0.015198 -0.001309
    29 0.000000 -0.558375 -1.804806 -0.328989 -0.051463 -0.004836
    30 0.000000 -0.325718 -1.929488 0.007359 -0.010431 -0.000573
    31 0.000000 0.046531 -1.430430 -0.014299 -0.038602 0.001302
    32 0.000000 0.000000 -1.347565 0.337933 -0.012655 -0.000329
    33 0.000000 -0.046531 -2.135521 0.239025 -0.023322 -0.029530
    34 0.000000 -0.279187 -2.151380 0.391162 -0.030046 -0.031312
    35 -3.774847 -1.159566 3.416453 -0.178177 -2.750001 -0.367713
    36 19.302956 0.000000 0.000000 0.000000 0.000000 -1.790447
    37 15.657714 0.000000 0.000000 0.475205 -0.069914 0.189850
    38 3.741828 7.474068 0.000000 0.000000 0.000000 1.570796
    39 -3.774847 -1.159547 -3.416451 -0.179382 3.302154 -0.726744
    40 19.302958 0.000000 0.000000 0.000000 0.000000 -1.239975
    41 15.657715 0.000000 0.000000 0.249170 0.046592 0.428250
    42 3.741828 7.351521 0.000000 0.000000 0.000000 1.570796
    43 2.562340 0.000000 0.000000 0.094354 0.024222 0.166137
    44 8.541129 0.000000 0.000000 0.000000 0.000000 0.000000
    45 -7.351523 1.350579 0.144448 0.000001 -3.141591 -1.570794
    46 4.991368 -0.677071 0.532282 1.237053 -2.969057 -0.819481
  time 5
    0 -0.221744 1.267144 21.111097 -0.546013 -0.699201 -0.807034
    1 0.344679 0.000000 0.000000 -1.570795 -1.570451 0.000000
    2 3.928664 0.383633 0.000004 -0.000004 -0.000001 -0.201334
    3 3.442969 -0.003536 0.000000 -0.025240 -0.003523 0.117995
    4 4.441442 -0.003536 0.000000 -0.034016 -0.000755 0.177409
    5 4.441389 -0.003537 0.000000 -0.025737 0.004638 0.152145
    6 4.441391 -0.002040 0.000000 -0.000013 -0.026163 -0.249545
    7 0.039065 0.002036 1.614274 -0.606412 -1.359523 3.983274
    8 5.073841 0.000000 0.000002 -0.025523 0.548394 -0.795233
    9 12.350971 0.000000 -0.000001 0.000000 0.000000 -1.289723
    10 9.233651 0.000000 0.000000 -1.760640 -0.439606 0.264349
    11 1.488532 0.259443 -1.427523 -0.000946 0.576098 -0.000491
    12 0.625233 0.000000 0.000000 0.000000 0.000000 0.000000
    13 1.041848 0.000000 0.000001 0.000000 0.000000 0.000000
    14 3.826892 -0.002122 -0.118180 -0.013562 0.162121 -0.508169
    15 1.172004 -0.000001 0.000000 0.000000 0.000000 0.418874
    16 1.160930 0.000000 0.000000 0.000000 0.000000 0.418828
    17 -0.039063 0.002045 -1.614274 -0.565953 1.346016 2.832934
    18 4.700062 0.000000 -0.000002 0.459245 -0.234496 -0.875995
    19 12.393687 0.000000 0.000001 0.000000 0.000000 -0.672012
    20 9.316842 0.000001 0.000000 1.637536 0.511100 -0.042605
    21 1.491322 0.034757 1.438863 -0.054672 -0.824687 0.246187
    22 0.607803 0.000000 0.000000 0.000000 0.000000 0.000000
    23 1.063061 0.000001 0.000000 0.000000 0.000000 0.000000
    24 3.716067 0.002914 0.177525 -0.012491 0.022927 -0.488798
    25 1.294388 0.000000 -0.000001 0.000000 0.000000 0.506136
    26 1.183920 0.000001 0.000000 0.000000 0.000000 0.689357
    27 2.738953 3.890889 0.113747 2.717524 -1.569565 -0.078424
    28 0.000000 -1.023687 -1.922726 -0.298627 -0.018918 -0.001038
    29 0.000000 -0.558375 -1.804806 -0.363006 -0.064354 -0.003407
    30 0.000000 -0.325718 -1.929488 -0.138306 -0.014453 -0.000148
    31 0.000000 0.046531 -1.430430 -0.023276 -0.048238 0.001526
    32 0.000000 0.000000 -1.347565 0.154138 -0.015759 -0.000329
    33 0.000000 -0.046531 -2.135521 0.024411 -0.030669 -0.035798
    34 0.000000 -0.279187 -2.151380 0.161630 -0.038896 -0.038161
    35 -3.774847 -1.159566 3.416453 -0.168786 -2.732956 -0.541581
    36 19.302956 0.000000 0.000000 0.000000 0.000000 -1.862415
    37 15.657714 0.000000 0.000000 0.381493 -0.039248 0.039876
    38 3.741828 7.474068 0.000000 0.000000 0.000000 1.570796
    39 -3.774847 -1.159547 -3.416451 -0.276103 3.307807 -1.048858
    40 19.302958 0.000000 0.000000 0.000000 0.000000 -1.186609
    41 15.657715 0.000000 0.000000 0.165089 0.112092 0.219111
    42 3.741828 7.351521 0.000000 0.000000 0.000000 1.570796
    43 2.562340 0.000000 0.000000 0.092132 -0.001780 0.298608
    44 8.541129 0.000000 0.000000 0.000000 0.000000 0.000000
    45 -7.351523 1.350579 0.144448 0.000001 -3.141591 -1.570794
    46 4.991368 -0.677071 0.532282 1.237053 -2.969057 -0.819481
  time 6
    0 -0.221744 1.314414 18.183841 -0.580798 -0.764502 -0.755995
    1 0.118110 0.007813 0.000000 -1.570795 -1.570451 0.000000
    2 3.928664 0.383633 0.000004 -0.000004 -0.000001 -0.199806
    3 3.442969 -0.003536 0.000000 -0.025120 -0.003356 0.139801
    4 4.441442 -0.003536 0.000000 -0.033823 0.000096 0.214265
    5 4.441389 -0.003537 0.000000 -0.025485 0.005992 0.197385
    6 4.441391 -0.002040 0.000000 -0.000013 -0.026163 -0.249545
    7 0.039065 0.002036 1.614274 -0.606412 -1.359523 3.983274
    8 5.073841 0.000000 0.000002 -0.102747 0.345385 -1.086317
    9 12.350971 0.000000 -0.000001 0.000000 0.000000 -1.289723
    10 9.233651 0.000000 0.000000 -1.673946 -0.421399 0.274763
    11 1.488532 0.259443 -1.427523 -0.000946 0.576098 -0.000491
    12 0.625233 0.000000 0.000000 0.000000 0.000000 0.000000
    13 1.041848 0.000000 0.000001 0.000000 0.000000 0.000000
    14 3.826892 -0.002122 -0.118180 -0.013562 0.162121 -0.508169
    15 1.172004 -0.000001 0.000000 0.000000 0.000000 0.418874
    16 1.160930 0.000000 0.000000 0.000000 0.000000 0.418828
    17 -0.039063 0.002045 -1.614274 -0.565953 1.346016 2.832934
    18 4.700062 0.000000 -0.000002 0.497303 -0.018443 -0.967072
    19 12.393687 0.000000 0.000001 0.000000 0.000000 -0.672012
    20 9.316842 0.000001 0.000000 1.576319 0.478584 -0.055279
    21 1.491322 0.034757 1.438863 -0.054672 -0.824687 0.246187
    22 0.607803 0.000000 0.000000 0.000000 0.000000 0.000000
    23 1.063061 0.000001 0.000000 0.000000 0.000000 0.000000
    24 3.716067 0.002914 0.177525 -0.012491 0.022927 -0.488798
    25 1.294388 0.000000 -0.000001 0.000000 0.000000 0.506136
    26 1.183920 0.000001 0.000000 0.000000 0.000000 0.689357
    27 2.738953 3.890889 0.113747 2.586471 -1.570222 0.000000
    28 0.000000 -1.023687 -1.922726 -0.340671 -0.022433 -0.000564
    29 0.000000 -0.558375 -1.804806 -0.385931 -0.077195 -0.001715
    30 0.000000 -0.325718 -1.929488 -0.282556 -0.018120 0.000849
    31 0.000000 0.046531 -1.430430 -0.040888 -0.057874 0.001568
    32 0.000000 0.000000 -1.347565 -0.048133 -0.018612 0.000110
    33 0.000000 -0.046531 -2.135521 -0.209611 -0.039190 -0.040280
    34 0.000000 -0.279187 -2.151380 -0.092356 -0.049080 -0.042665
    35 -3.774847 -1.155660 3.416453 -0.104292 -2.773807 -0.695998
    36 19.302956 0.000000 0.000000 0.000000 0.000000 -1.940083
    37 15.657714 0.000000 0.000000 0.275511 -0.015856 0.003854
    38 3.741828 7.474068 0.000000 0.000000 0.000000 1.570796
    39 -3.774847 -1.155641 -3.416451 -0.316132 3.239780 -1.156296
    40 19.302958 0.000000 0.000000 0.000000 0.000000 -1.112677
    41 15.657715 0.000000 0.000000 -0.020478 0.157445 0.052855
    42 3.741828 7.351521 0.000000 0.000000 0.000000 1.570796
    43 2.562340 0.000000 0.000000 0.087190 -0.021246 0.452842
    44 8.541129 0.000000 0.000000 0.000000 0.000000 0.000000
    45 -7.351523 1.350579 0.144448 0.000001 -3.141591 -1.570794
    46 4.991368 -0.677071 0.532282 1.237053 -2.969057 -0.819481
  time 7
    0 -0.221744 1.238781 15.006697 -0.613666 -0.828229 -0.708021
    1 0.122016 0.007813 0.000000 -1.570795 -1.570451 0.000000
    2 3.928664 0.383633 0.000004 -0.000004 -0.000001 -0.196910
    3 3.442969 -0.003536 0.000000 -0.025192 -0.003823 0.134547
    4 4.441442 -0.003536 0.000000 -0.033920 -0.000192 0.212166
    5 4.441389 -0.003537 0.000000 -0.025443 0.006280 0.206895
    6 4.441391 -0.002040 0.000000 -0.000013 -0.026163 -0.249545
    7 0.039065 0.002036 1.614274 -0.606412 -1.359523 3.983274
    8 5.073841 0.000000 0.000002 -0.155325 0.336657 -1.134729
    9 12.350971 0.000000 -0.000001 0.000000 0.000000 -1.289723
    10 9.233651 0.000000 0.000000 -1.587756 -0.404080 0.286768
    11 1.488532 0.259443 -1.427523 -0.000946 0.576098 -0.000491
    12 0.625233 0.000000 0.000000 0.000000 0.000000 0.000000
    13 1.041848 0.000000 0.000001 0.000000 0.000000 0.000000
    14 3.826892 -0.002122 -0.118180 -0.013562 0.162121 -0.508169
    15 1.172004 -0.000001 0.000000 0.000000 0.000000 0.418874
    16 1.160930 0.000000 0.000000 0.000000 0.000000 0.418828
    17 -0.039063 0.002045 -1.614274 -0.565953 1.346016 2.832934
    18 4.700062 0.000000 -0.000002 0.487533 -0.049815 -0.850247
    19 12.393687 0.000000 0.000001 0.000000 0.000000 -0.672012
    20 9.316842 0.000001 0.000000 1.516616 0.445491 -0.065481
    21 1.491322 0.034757 1.438863 -0.054672 -0.824687 0.246187
    22 0.607803 0.000000 0.000000 0.000000 0.000000 0.000000
    23 1.063061 0.000001 0.000000 0.000000 0.000000 0.000000
    24 3.716067 0.002914 0.177525 -0.012491 0.022927 -0.488798
    25 1.294388 0.000000 -0.000001 0.000000 0.000000 0.506136
    26 1.183920 0.000001 0.000000 0.000000 0.000000 0.689357
    27 2.738953 3.890889 0.113747 2.558478 -1.570796 0.000000
    28 0.000000 -1.023687 -1.922726 -0.366487 -0.025710 0.000000
    29 0.000000 -0.558375 -1.804806 -0.401420 -0.090011 0.000000
    30 0.000000 -0.325718 -1.929488 -0.373800 -0.020724 0.001867
    31 0.000000 0.046531 -1.430430 -0.070369 -0.067509 0.001484
    32 0.000000 0.000000 -1.347565 -0.199366 -0.021115 0.000439
    33 0.000000 -0.046531 -2.135521 -0.392395 -0.047771 -0.044115
    34 0.000000 -0.279187 -2.151380 -0.287962 -0.059263 -0.046366
    35 -3.778753 -1.143941 3.416453 -0.051010 -2.831514 -0.817647
    36 19.302956 0.000000 0.000000 0.000000 0.000000 -1.968958
    37 15.657714 0.000000 0.000000 0.172169 0.002528 -0.052997
    38 3.741828 7.474068 0.000000 0.000000 0.000000 1.570796
    39 -3.778753 -1.143922 -3.416451 -0.339307 3.130554 -1.187078
    40 19.302958 0.000000 0.000000 0.000000 0.000000 -1.015220
    41 15.657715 0.000000 0.000000 -0.268519 0.175374 -0.102343
    42 3.741828 7.351521 0.000000 0.000000 0.000000 1.570796
    43 2.562340 0.000000 0.000000 0.083563 -0.033260 0.591012
    44 8.541129 0.000000 0.000000 0.000000 0.000000 0.000000
    45 -7.351523 1.350579 0.144448 0.000001 -3.141591 -1.570794
    46 4.991368 -0.677071 0.532282 1.237053 -2.969057 -0.819481
  time 8
    0 -0.221744 1.087515 11.793855 -0.647396 -0.890380 -0.660238
    1 0.168893 0.003906 0.000000 -1.570795 -1.570451 0.000000
    2 3.928664 0.383633 0.000004 -0.000004 -0.000001 -0.193717
    3 3.442969 -0.003536 0.000000 -0.025311 -0.004386 0.124340
    4 4.441442 -0.003536 0.000000 -0.034065 -0.000707 0.202492
    5 4.441389 -0.003537 0.000000 -0.025422 0.006352 0.208613
    6 4.441391 -0.002040 0.000000 -0.000013 -0.026163 -0.249545
    7 0.039065 0.002036 1.614274 -0.606412 -1.359523 3.983274
    8 5.073841 0.000000 0.000002 -0.222691 0.388510 -1.117511
    9 12.350971 0.000000 -0.000001 0.000000 0.000000 -1.318550
    10 9.233651 0.000000 0.000000 -1.501997 -0.387774 0.300229
    11 1.488532 0.259443 -1.427523 -0.000946 0.576098 -0.000491
    12 0.625233 0.000000 0.000000 0.000000 0.000000 0.000000
    13 1.041848 0.000000 0.000001 0.000000 0.000000 0.000000
    14 3.826892 -0.002122 -0.118180 -0.013562 0.162121 -0.508169
    15 1.172004 -0.000001 0.000000 0.000000 0.000000 0.418874
    16 1.160930 0.000000 0.000000 0.000000 0.000000 0.418828
    17 -0.039063 0.002045 -1.614274 -0.565953 1.346016 2.832934
    18 4.700062 0.000000 -0.000002 0.475139 -0.084816 -0.807947
    19 12.393687 0.000000 0.000001 0.000000 0.000000 -0.670645
    20 9.316842 0.000001 0.000000 1.458099 0.411902 -0.073346
    21 1.491322 0.034757 1.438863 -0.054672 -0.824687 0.246187
    22 0.607803 0.000000 0.000000 0.000000 0.000000 0.000000
    23 1.063061 0.000001 0.000000 0.000000 0.000000 0.000000
    24 3.716067 0.002914 0.177525 -0.012491 0.022927 -0.488798
    25 1.294388 0.000000 -0.000001 0.000000 0.000000 0.506136
    26 1.183920 0.000001 0.000000 0.000000 0.000000 0.689357
    27 2.738953 3.890889 0.113747 2.589443 -1.570796 0.000000
    28 0.000000 -1.023687 -1.922726 -0.353105 -0.028290 0.000474
    29 0.000000 -0.558375 -1.804806 -0.412212 -0.102852 0.001209
    30 0.000000 -0.325718 -1.929488 -0.392326 -0.021664 0.002185
    31 0.000000 0.046531 -1.430430 -0.142807 -0.077133 0.000896
    32 0.000000 0.000000 -1.347565 -0.289683 -0.023282 0.000055
    33 0.000000 -0.046531 -2.135521 -0.523653 -0.055704 -0.048873
    34 0.000000 -0.279187 -2.151380 -0.420585 -0.068704 -0.051272
    35 -3.782660 -1.132221 3.416453 -0.031077 -2.896267 -0.906875
    36 19.302956 0.000000 0.000000 0.000000 0.000000 -1.904694
    37 15.657714 0.000000 0.000000 0.057738 0.016003 -0.195542
    38 3.741828 7.474068 0.000000 0.000000 0.000000 1.570796
    39 -3.782660 -1.132203 -3.416451 -0.349554 2.998621 -1.169694
    40 19.302958 0.000000 0.000000 0.000000 0.000000 -0.918100
    41 15.657715 0.000000 0.000000 -0.523347 0.158722 -0.231644
    42 3.741828 7.351521 0.000000 0.000000 0.000000 1.570796
    43 2.562340 0.000000 0.000000 0.081250 -0.040213 0.683101
    44 8.541129 0.000000 0.000000 0.000000 0.000000 0.000000
    45 -7.351523 1.350579 0.144448 0.000001 -3.141591 -1.570794
    46 4.991368 -0.677071 0.532282 1.237053 -2.969057 -0.819481
  time 9
    0 -0.221744 0.888979 8.688108 -0.685726 -0.950311 -0.608625
    1 0.250927 0.000000 0.000000 -1.570795 -1.570451 0.000000
    2 3.928664 0.383633 0.000004 -0.000004 -0.000001 -0.190274
    3 3.442969 -0.003536 0.000000 -0.025443 -0.005034 0.109932
    4 4.441442 -0.003536 0.000000 -0.034259 -0.001402 0.186451
    5 4.441389 -0.003537 0.000000 -0.025464 0.006220 0.203932
    6 4.441391 -0.002040 0.000000 -0.000013 -0.026163 -0.249545
    7 0.039065 0.002036 1.614274 -0.606412 -1.359523 3.983274
    8 5.073841 0.000000 0.000002 -0.285699 0.460091 -1.090571
    9 12.350971 0.000000 -0.000001 0.000000 0.000000 -1.376203
    10 9.233651 0.000000 0.000000 -1.416525 -0.372567 0.315099
    11 1.488532 0.259443 -1.427523 -0.000946 0.576098 -0.000491
    12 0.625233 0.000000 0.000000 0.000000 0.000000 0.000000
    13 1.041848 0.000000 0.000001 0.000000 0.000000 0.000000
    14 3.826892 -0.002122 -0.118180 -0.013562 0.162121 -0.508169
    15 1.172004 -0.000001 0.000000 0.000000 0.000000 0.418874
    16 1.160930 0.000000 0.000000 0.000000 0.000000 0.418828
    17 -0.039063 0.002045 -1.614274 -0.565953 1.346016 2.832934
    18 4.700062 0.000000 -0.000002 0.454725 -0.119061 -0.791314
    19 12.393687 0.000000 0.000001 0.000000 0.000000 -0.667836
    20 9.316842 0.000001 0.000000 1.400700 0.377942 -0.079008
    21 1.491322 0.034757 1.438863 -0.054672 -0.824687 0.246187
    22 0.607803 0.000000 0.000000 0.000000 0.000000 0.000000
    23 1.063061 0.000001 0.000000 0.000000 0.000000 0.000000
    24 3.716067 0.002914 0.177525 -0.012491 0.022927 -0.488798
    25 1.294388 0.000000 -0.000001 0.000000 0.000000 0.506136
    26 1.183920 0.000001 0.000000 0.000000 0.000000 0.689357
    27 2.738953 3.890889 0.113747 2.682052 -1.570468 0.000000
    28 0.000000 -1.023687 -1.922726 -0.298856 -0.030237 0.000745
    29 0.000000 -0.558375 -1.804806 -0.415744 -0.115718 0.001956
    30 0.000000 -0.325718 -1.929488 -0.367573 -0.021525 0.001994
    31 0.000000 0.046531 -1.430430 -0.254646 -0.086816 0.000448
    32 0.000000 0.000000 -1.347565 -0.353318 -0.025254 -0.000823
    33 0.000000 -0.046531 -2.135521 -0.634842 -0.063506 -0.054062
    34 0.000000 -0.279187 -2.151380 -0.528534 -0.077989 -0.056798
    35 -3.786566 -1.116596 3.416453 -0.018524 -2.970162 -0.965729
    36 19.302956 0.000000 0.000000 0.000000 0.000000 -1.791763
    37 15.657714 0.000000 0.000000 -0.055947 0.026536 -0.359249
    38 3.741828 7.474068 0.000000 0.000000 0.000000 1.570796
    39 -3.786566 -1.116577 -3.416451 -0.354342 2.864292 -1.133882
    40 19.302958 0.000000 0.000000 0.000000 0.000000 -0.845041
    41 15.657715 0.000000 0.000000 -0.733594 0.114285 -0.323474
    42 3.741828 7.351521 0.000000 0.000000 0.000000 1.570796
    43 2.562340 0.000000 0.000000 0.080208 -0.044662 0.754019
    44 8.541129 0.000000 0.000000 0.000000 0.000000 0.000000
    45 -7.351523 1.350579 0.144448 0.000001 -3.141591 -1.570794
    46 4.991368 -0.677071 0.532282 1.237053 -2.969057 -0.819481
  time 10
    0 -0.221744 0.690443 5.760852 -0.733927 -1.007307 -0.547628
    1 0.356399 -0.007813 0.000000 -1.570795 -1.570451 0.000000
    2 3.928664 0.383633 0.000004 -0.000004 -0.000001 -0.186625
    3 3.442969 -0.003536 0.000000 -0.025599 -0.005753 0.092051
    4 4.441442 -0.003536 0.000000 -0.034453 -0.002253 0.165263
    5 4.441389 -0.003537 0.000000 -0.025527 0.005944 0.194229
    6 4.441391 -0.002040 0.000000 -0.000013 -0.026163 -0.249545
    7 0.039065 0.002036 1.614274 -0.606412 -1.359523 3.983274
    8 5.073841 0.000000 0.000002 -0.338277 0.545460 -1.052894
    9 12.350971 0.000000 -0.000001 0.000000 0.000000 -1.419480
    10 9.233651 0.000000 0.000000 -1.331269 -0.358584 0.331198
    11 1.488532 0.259443 -1.427523 -0.000946 0.576098 -0.000491
    12 0.625233 0.000000 0.000000 0.000000 0.000000 0.000000
    13 1.041848 0.000000 0.000001 0.000000 0.000000 0.000000
    14 3.826892 -0.002122 -0.118180 -0.013562 0.162121 -0.508169
    15 1.172004 -0.000001 0.000000 0.000000 0.000000 0.418874
    16 1.160930 0.000000 0.000000 0.000000 0.000000 0.418828
    17 -0.039063 0.002045 -1.614274 -0.565953 1.346016 2.832934
    18 4.700062 0.000000 -0.000002 0.423374 -0.169106 -0.760769
    19 12.393687 0.000000 0.000001 0.000000 0.000000 -0.665785
    20 9.316842 0.000001 0.000000 1.344288 0.343734 -0.082514
    21 1.491322 0.034757 1.438863 -0.054672 -0.824687 0.246187
    22 0.607803 0.000000 0.000000 0.000000 0.000000 0.000000
    23 1.063061 0.000001 0.000000 0.000000 0.000000 0.000000
    24 3.716067 0.002914 0.177525 -0.012491 0.022927 -0.488798
    25 1.294388 0.000000 -0.000001 0.000000 0.000000 0.506136
    26 1.183920 0.000001 0.000000 0.000000 0.000000 0.689357
    27 2.738953 3.890889 0.113747 2.795369 -1.570796 0.000000
    28 0.000000 -1.023687 -1.922726 -0.231488 -0.032200 0.000903
    29 0.000000 -0.558375 -1.804806 -0.407726 -0.128584 0.002770
    30 0.000000 -0.325718 -1.929488 -0.321900 -0.021510 0.001761
    31 0.000000 0.046531 -1.430430 -0.357247 -0.096512 0.001064
    32 0.000000 0.000000 -1.347565 -0.386624 -0.027183 -0.001948
    33 0.000000 -0.046531 -2.135521 -0.702958 -0.071608 -0.059096
    34 0.000000 -0.279187 -2.151380 -0.593278 -0.087570 -0.062256
    35 -3.790472 -1.104877 3.416453 0.011471 -3.019012 -0.994358
    36 19.302956 0.000000 0.000000 0.000000 0.000000 -1.708896
    37 15.657714 0.000000 0.000000 -0.131613 0.030769 -0.468068
    38 3.741828 7.474068 0.000000 0.000000 0.000000 1.570796
    39 -3.790472 -1.104858 -3.416451 -0.370622 2.748359 -1.113560
    40 19.302958 0.000000 0.000000 0.000000 0.000000 -0.819703
    41 15.657715 0.000000 0.000000 -0.856808 0.061389 -0.382222
    42 3.741828 7.351521 0.000000 0.000000 0.000000 1.570796
    43 2.562340 0.000000 0.000000 0.079346 -0.048945 0.828934
    44 8.541129 0.000000 0.000000 0.000000 0.000000 0.000000
    45 -7.351523 1.350579 0.144448 0.000001 -3.141591 -1.570794
    46 4.991368 -0.677071 0.532282 1.237053 -2.969057 -0.819481
  time 11
    0 -0.221744 0.539177 3.119181 -0.798705 -1.059720 -0.470256
    1 0.493121 -0.015625 0.000000 -1.570795 -1.570451 0.000000
    2 3.928664 0.383633 0.000004 -0.000004 -0.000001 -0.182839
    3 3.442969 -0.003536 0.000000 -0.025743 -0.006532 0.071436
    4 4.441442 -0.003536 0.000000 -0.034663 -0.003224 0.140151
    5 4.441389 -0.003537 0.000000 -0.025590 0.005561 0.180927
    6 4.441391 -0.002040 0.000000 -0.000013 -0.026163 -0.249545
    7 0.039065 0.002036 1.614274 -0.606412 -1.359523 3.983274
    8 5.073841 0.000000 0.000002 -0.373710 0.638237 -1.002185
    9 12.350971 0.000000 -0.000001 0.000000 0.000000 -1.405030
    10 9.233651 0.000000 0.000000 -1.246229 -0.345954 0.348387
    11 1.488532 0.259443 -1.427523 -0.000946 0.576098 -0.000491
    12 0.625233 0.000000 0.000000 0.000000 0.000000 0.000000
    13 1.041848 0.000000 0.000001 0.000000 0.000000 0.000000
    14 3.826892 -0.002122 -0.118180 -0.013562 0.162121 -0.508169
    15 1.172004 -0.000001 0.000000 0.000000 0.000000 0.418874
    16 1.160930 0.000000 0.000000 0.000000 0.000000 0.418828
    17 -0.039063 0.002045 -1.614274 -0.565953 1.346016 2.832934
    18 4.700062 0.000000 -0.000002 0.370298 -0.246289 -0.673130
    19 12.393687 0.000000 0.000001 0.000000 0.000000 -0.666469
    20 9.316842 0.000001 0.000000 1.288601 0.309444 -0.083907
    21 1.491322 0.034757 1.438863 -0.054672 -0.824687 0.246187
    22 0.607803 0.000000 0.000000 0.000000 0.000000 0.000000
    23 1.063061 0.000001 0.000000 0.000000 0.000000 0.000000
    24 3.716067 0.002914 0.177525 -0.012491 0.022927 -0.488798
    25 1.294388 0.000000 -0.000001 0.000000 0.000000 0.506136
    26 1.183920 0.000001 0.000000 0.000000 0.000000 0.689357
    27 2.738953 3.890889 0.113747 2.888361 -1.570796 0.000000
    28 0.000000 -1.023687 -1.922726 -0.178614 -0.034844 0.001129
    29 0.000000 -0.558375 -1.804806 -0.383900 -0.141413 0.004067
    30 0.000000 -0.325718 -1.929488 -0.277564 -0.022819 0.001973
    31 0.000000 0.046531 -1.430430 -0.401811 -0.106100 0.002688
    32 0.000000 0.000000 -1.347565 -0.385973 -0.029127 -0.003072
    33 0.000000 -0.046531 -2.135521 -0.704914 -0.080045 -0.063686
    34 0.000000 -0.279187 -2.151380 -0.596289 -0.097473 -0.067213
    35 -3.794379 -1.089251 3.416453 0.061016 -3.041485 -1.004333
    36 19.302956 0.000000 0.000000 0.000000 0.000000 -1.670563
    37 15.657714 0.000000 0.000000 -0.171962 0.030432 -0.517238
    38 3.741828 7.474068 0.000000 0.000000 0.000000 1.570796
    39 -3.794379 -1.089233 -3.416451 -0.434113 2.702561 -1.016831
    40 19.302958 0.000000 0.000000 0.000000 0.000000 -1.225524
    41 15.657715 0.000000 0.000000 -0.278835 0.123057 -0.342606
    42 3.741828 7.351521 0.000000 0.000000 0.000000 1.570796
    43 2.562340 0.000000 0.000000 0.077215 -0.055146 0.932941
    44 8.541129 0.000000 0.000000 0.000000 0.000000 0.000000
    45 -7.351523 1.350579 0.144448 0.000001 -3.141591 -1.570794
    46 4.991368 -0.677071 0.532282 1.237053 -2.969057 -0.819481
  time 12
    0 -0.221744 0.539177 1.905441 -0.877952 -1.099746 -0.380149
    1 0.649376 -0.023438 0.000000 -1.570795 -1.570787 0.000000
    2 3.928664 0.383633 0.000004 -0.000004 -0.000001 -0.178940
    3 3.442969 -0.003536 0.000000 -0.025887 -0.007347 0.048840
    4 4.441442 -0.003536 0.000000 -0.034841 -0.004267 0.112337
    5 4.441389 -0.003537 0.000000 -0.025695 0.005117 0.165433
    6 4.441391 -0.002040 0.000000 -0.000013 -0.026163 -0.249545
    7 0.039065 0.002036 1.614274 -0.606412 -1.359523 3.983274
    8 5.073841 0.000000 0.000002 -0.383711 0.731674 -0.934529
    9 12.350971 0.000000 -0.000001 0.000000 0.000000 -1.289723
    10 9.233651 0.000000 0.000000 -1.161260 -0.334760 0.366623
    11 1.488532 0.259443 -1.427523 -0.000946 0.576098 -0.000491
    12 0.625233 0.000000 0.000000 0.000000 0.000000 0.000000
    13 1.041848 0.000000 0.000001 0.000000 0.000000 0.000000
    14 3.826892 -0.002122 -0.118180 -0.013562 0.162121 -0.508169
    15 1.172004 -0.000001 0.000000 0.000000 0.000000 0.418874
    16 1.160930 0.000000 0.000000 0.000000 0.000000 0.418828
    17 -0.039063 0.002045 -1.614274 -0.565953 1.346016 2.832934
    18 4.700062 0.000000 -0.000002 0.268300 -0.348419 -0.475862
    19 12.393687 0.000000 0.000001 0.000000 0.000000 -0.672012
    20 9.316842 0.000001 0.000000 1.233572 0.275071 -0.083368
    21 1.491322 0.034757 1.438863 -0.054672 -0.824687 0.246187
    22 0.607803 0.000000 0.000000 0.000000 0.000000 0.000000
    23 1.063061 0.000001 0.000000 0.000000 0.000000 0.000000
    24 3.716067 0.002914 0.177525 -0.012491 0.022927 -0.488798
    25 1.294388 0.000000 -0.000001 0.000000 0.000000 0.506136
    26 1.183920 0.000001 0.000000 0.000000 0.000000 0.689357
    27 2.738953 3.890889 0.113747 2.384189 -1.568525 0.566321
    28 0.000000 -1.023687 -1.922726 -0.143506 -0.038169 0.001422
    29 0.000000 -0.558375 -1.804806 -0.347322 -0.154266 0.005539
    30 0.000000 -0.325718 -1.929488 -0.239945 -0.025469 0.002524
    31 0.000000 0.046531 -1.430430 -0.247959 -0.115747 0.003793
    32 0.000000 0.000000 -1.347565 -0.359454 -0.031084 -0.004169
    33 0.000000 -0.046531 -2.135521 -0.652353 -0.088470 -0.068372
    34 0.000000 -0.279187 -2.151380 -0.549193 -0.107376 -0.072236
    35 -3.798285 -1.073626 3.416453 0.114393 -3.059292 -1.008224
    36 19.302956 0.000000 0.000000 0.000000 0.000000 -1.637868
    37 15.657714 0.000000 0.000000 -0.205446 0.029358 -0.556850
    38 3.741828 7.474068 0.000000 0.000000 0.000000 1.570796
    39 -3.798285 -1.073607 -3.416451 -0.368994 2.650056 -0.860481
    40 19.302958 0.000000 0.000000 0.000000 0.000000 -1.954632
    41 15.657715 0.000000 0.000000 -0.299741 -0.129977 -0.458981
    42 3.741828 7.351521 0.000000 0.000000 0.000000 1.570796
    43 2.562340 0.000000 0.000000 0.073316 -0.063044 1.063116
    44 8.541129 0.000000 0.000000 0.000000 0.000000 0.000000
    45 -7.351523 1.350579 0.144448 0.000001 -3.141591 -1.570794
    46 4.991368 -0.677071 0.532282 1.237053 -2.969057 -0.819481
  time 13
    0 -0.221744 0.539177 2.226725 -0.939760 -1.121800 -0.311395
    1 0.813444 -0.031251 0.000000 -1.570795 -1.570787 0.000000
    2 3.928664 0.383633 0.000004 -0.000004 -0.000001 -0.174995
    3 3.442969 -0.003536 0.000000 -0.026019 -0.008185 0.025016
    4 4.441442 -0.003536 0.000000 -0.035018 -0.005357 0.083028
    5 4.441389 -0.003537 0.000000 -0.025779 0.004638 0.149124
    6 4.441391 -0.002040 0.000000 -0.000013 -0.026163 -0.249545
    7 0.039065 0.002036 1.614274 -0.606412 -1.359523 3.983274
    8 5.073841 0.000000 0.000002 -0.247408 0.800615 -0.772816
    9 12.350971 0.000000 -0.000001 0.000000 0.000000 -0.208163
    10 9.233651 0.000000 0.000000 -1.076436 -0.325044 0.385723
    11 1.488532 0.259443 -1.427523 -0.000946 0.576098 -0.000491
    12 0.625233 0.000000 0.000000 0.000000 0.000000 0.000000
    13 1.041848 0.000000 0.000001 0.000000 0.000000 0.000000
    14 3.826892 -0.002122 -0.118180 -0.013562 0.162121 -0.508169
    15 1.172004 -0.000001 0.000000 0.000000 0.000000 0.418874
    16 1.160930 0.000000 0.000000 0.000000 0.000000 0.418828
    17 -0.039063 0.002045 -1.614274 -0.565953 1.346016 2.832934
    18 4.700062 0.000000 -0.000002 -0.282807 -0.365201 0.751563
    19 12.393687 0.000000 0.000001 0.000000 0.000000 -0.724407
    20 9.316842 0.000001 0.000000 1.179003 0.240822 -0.080851
    21 1.491322 0.034757 1.438863 -0.054672 -0.824687 0.246187
    22 0.607803 0.000000 0.000000 0.000000 0.000000 0.000000
    23 1.063061 0.000001 0.000000 0.000000 0.000000 0.000000
    24 3.716067 0.002914 0.177525 -0.012491 0.022927 -0.488798
    25 1.294388 0.000000 -0.000001 0.000000 0.000000 0.506136
    26 1.183920 0.000001 0.000000 0.000000 0.000000 0.689357
    27 2.738953 3.890889 0.113747 2.973301 -1.570796 0.000000
    28 0.000000 -1.023687 -1.922726 -0.110558 -0.041699 0.001670
    29 0.000000 -0.558375 -1.804806 -0.304845 -0.167169 0.006616
    30 0.000000 -0.325718 -1.929488 -0.199830 -0.028505 0.003076
    31 0.000000 0.046531 -1.430430 -0.064947 -0.125407 0.003135
    32 0.000000 0.000000 -1.347565 -0.319618 -0.032972 -0.005376
    33 0.000000 -0.046531 -2.135521 -0.575927 -0.096488 -0.073873
    34 0.000000 -0.279187 -2.151380 -0.479357 -0.116872 -0.078164
    35 -3.802191 -1.058000 3.416453 0.171029 -3.072910 -1.007126
    36 19.302956 0.000000 0.000000 0.000000 0.000000 -1.609557
    37 15.657714 0.000000 0.000000 -0.233619 0.027669 -0.588865
    38 3.741828 7.474068 0.000000 0.000000 0.000000 1.570796
    39 -3.802191 -1.057982 -3.416451 -0.373112 2.796074 -0.799016
    40 19.302958 0.000000 0.000000 0.000000 0.000000 -1.954632
    41 15.657715 0.000000 0.000000 -0.218156 -0.051175 -0.447922
    42 3.741828 7.351521 0.000000 0.000000 0.000000 1.570796
    43 2.562340 0.000000 0.000000 0.066288 0.072833 -0.435032
    44 8.541129 0.000000 0.000000 0.000000 0.000000 0.000000
    45 -7.351523 1.350579 0.144448 0.000001 -3.141591 -1.570794
    46 4.991368 -0.677071 0.532282 1.237053 -2.969057 -0.819481
  time 14
    0 -0.221744 0.539177 4.368620 -0.955092 -1.127098 -0.294446
    1 0.977511 -0.042970 0.000000 -1.570795 -1.570451 0.000000
    2 3.928664 0.383633 0.000004 -0.000004 -0.000001 -0.171027
    3 3.442969 -0.003536 0.000000 -0.026138 -0.009036 0.000689
    4 4.441442 -0.003536 0.000000 -0.035164 -0.006448 0.053446
    5 4.441389 -0.003537 0.000000 -0.025842 0.004159 0.133422
    6 4.441391 -0.002040 0.000000 -0.000013 -0.026163 -0.692059
    7 0.039065 0.002036 1.614274 -0.631723 -1.349392 4.450479
    8 5.073841 0.000000 0.000002 -0.217047 0.831491 -0.764781
    9 12.350971 0.000000 -0.000001 0.000000 0.000000 -0.612929
    10 9.233651 0.000000 0.000000 -0.991683 -0.316891 0.405550
    11 1.488532 0.259443 -1.427523 -0.000946 0.576098 -0.000491
    12 0.625233 0.000000 0.000000 0.000000 0.000000 0.000000
    13 1.041848 0.000000 0.000001 0.000000 0.000000 0.000000
    14 3.826892 -0.002122 -0.118180 -0.013562 0.162121 -0.508169
    15 1.172004 -0.000001 0.000000 0.000000 0.000000 0.418874
    16 1.160930 0.000000 0.000000 0.000000 0.000000 0.418828
    17 -0.039063 0.002045 -1.614274 -0.617054 1.344751 3.225439
    18 4.700062 0.000000 -0.000002 -0.338873 -0.324833 0.786027
    19 12.393687 0.000000 0.000001 0.000000 0.000000 -1.084717
    20 9.316842 0.000001 0.000000 1.124764 0.206739 -0.076447
    21 1.491322 0.034757 1.438863 -0.054672 -0.824687 0.246187
    22 0.607803 0.000000 0.000000 0.000000 0.000000 0.000000
    23 1.063061 0.000001 0.000000 0.000000 0.000000 0.000000
    24 3.716067 0.002914 0.177525 -0.012491 0.022927 -0.488798
    25 1.294388 0.000000 -0.000001 0.000000 0.000000 0.506136
    26 1.183920 0.000001 0.000000 0.000000 0.000000 0.689357
    27 2.738953 3.890889 0.113747 5.528677 -1.560729 -2.570831
    28 0.000000 -1.023687 -1.922726 -0.079246 -0.045372 0.001828
    29 0.000000 -0.558375 -1.804806 -0.257776 -0.180110 0.007166
    30 0.000000 -0.325718 -1.929488 -0.157836 -0.031879 0.003564
    31 0.000000 0.046531 -1.430430 -0.017171 -0.135054 0.002772
    32 0.000000 0.000000 -1.347565 -0.269556 -0.034762 -0.006775
    33 0.000000 -0.046531 -2.135521 -0.481127 -0.103846 -0.080297
    34 0.000000 -0.279187 -2.151380 -0.392019 -0.125709 -0.085129
    35 -3.806098 -1.046281 3.416453 0.230253 -3.082908 -1.002388
    36 19.302956 0.000000 0.000000 0.000000 0.000000 -1.584628
    37 15.657714 0.000000 0.000000 -0.257940 0.025443 -0.615204
    38 3.741828 7.474068 0.000000 0.000000 0.000000 1.570796
    39 -3.806098 -1.046263 -3.416451 -0.393318 2.803068 -0.955018
    40 19.302958 0.000000 0.000000 0.000000 0.000000 -1.954632
    41 15.657715 0.000000 0.000000 -0.003437 -0.398289 -0.378862
    42 3.741828 7.351521 0.000000 0.000000 0.000000 1.570796
    43 2.562340 0.000000 0.000000 0.097981 0.049028 0.352906
    44 8.541129 0.000000 0.000000 0.000000 0.000000 0.000000
    45 -7.351523 1.350579 0.144448 0.000001 -3.141591 -1.570794
    46 4.991368 -0.677071 0.532282 1.237053 -2.969057 -0.819481
  time 15
    0 -0.221744 0.539177 6.082136 -0.939760 -1.121800 -0.311395
    1 1.137672 -0.050783 0.000000 -1.570795 -1.570787 0.000000
    2 3.928664 0.383633 0.000004 -0.000004 -0.000001 -0.167127
    3 3.442969 -0.003536 0.000000 -0.026222 -0.009887 -0.023399
    4 4.441442 -0.003536 0.000000 -0.035277 -0.007514 0.024813
    5 4.441389 -0.003537 0.000000 -0.025905 0.003739 0.119720
    6 4.441391 -0.002040 0.000000 -0.000013 -0.026163 -1.034552
    7 0.039065 0.002036 1.614274 -0.635270 -1.340524 4.796208
    8 5.073841 0.000000 0.000002 -0.190687 0.861268 -0.759042
    9 12.350971 0.000000 -0.000001 0.000000 0.000000 -1.019706
    10 9.233651 0.000000 0.000000 -0.907002 -0.310343 0.426014
    11 1.488532 0.259443 -1.427523 -0.000946 0.576098 -0.000491
    12 0.625233 0.000000 0.000000 0.000000 0.000000 0.000000
    13 1.041848 0.000000 0.000001 0.000000 0.000000 0.000000
    14 3.826892 -0.002122 -0.118180 -0.013562 0.162121 -0.508169
    15 1.172004 -0.000001 0.000000 0.000000 0.000000 0.418874
    16 1.160930 0.000000 0.000000 0.000000 0.000000 0.418828
    17 -0.039063 0.002045 -1.614274 -0.655883 1.346843 3.529933
    18 4.700062 0.000000 -0.000002 -0.339092 -0.339650 0.652169
    19 12.393687 0.000000 0.000001 0.000000 0.000000 -1.306218
    20 9.316842 0.000001 0.000000 1.070722 0.172944 -0.070200
    21 1.491322 0.034757 1.438863 -0.054672 -0.824687 0.246187
    22 0.607803 0.000000 0.000000 0.000000 0.000000 0.000000
    23 1.063061 0.000001 0.000000 0.000000 0.000000 0.000000
    24 3.716067 0.002914 0.177525 -0.012491 0.022927 -0.488798
    25 1.294388 0.000000 -0.000001 0.000000 0.000000 0.506136
    26 1.183920 0.000001 0.000000 0.000000 0.000000 0.689357
    27 2.738953 3.890889 0.113747 5.516597 -1.549156 -2.583006
    28 0.000000 -1.023687 -1.922726 -0.049111 -0.049139 0.001896
    29 0.000000 -0.558375 -1.804806 -0.207422 -0.193075 0.007100
    30 0.000000 -0.325718 -1.929488 -0.114505 -0.035469 0.003924
    31 0.000000 0.046531 -1.430430 0.012351 -0.144702 0.002310
    32 0.000000 0.000000 -1.347565 -0.212312 -0.036468 -0.008284
    33 0.000000 -0.046531 -2.135521 -0.373389 -0.110342 -0.087643
    34 0.000000 -0.279187 -2.151380 -0.292319 -0.133676 -0.093150
    35 -3.810004 -1.030656 3.416453 0.291105 -3.090241 -0.995156
    36 19.302956 0.000000 0.000000 0.000000 0.000000 -1.561954
    37 15.657714 0.000000 0.000000 -0.279807 0.022780 -0.638078
    38 3.741828 7.474068 0.000000 0.000000 0.000000 1.570796
    39 -3.810004 -1.030637 -3.416451 -0.369281 2.713484 -0.832189
    40 19.302958 0.000000 0.000000 0.000000 0.000000 -1.954632
    41 15.657715 0.000000 0.000000 -0.143753 -0.306812 -0.300097
    42 3.741828 7.351521 0.000000 0.000000 0.000000 1.570796
    43 2.562340 0.000000 0.000000 0.115755 -0.002864 1.153207
    44 8.541129 0.000000 0.000000 0.000000 0.000000 0.000000
    45 -7.351523 1.350579 0.144448 0.000001 -3.141591 -1.570794
    46 4.991368 -0.677071 0.532282 1.237053 -2.969057 -0.819481
  time 16
    0 -0.221744 0.539177 5.332473 -0.912353 -1.111775 -0.341942
    1 1.286114 -0.058596 0.000000 -1.570795 -1.570451 0.000000
    2 3.928664 0.383633 0.000004 -0.000004 -0.000001 -0.163319
    3 3.442969 -0.003536 0.000000 -0.026294 -0.010714 -0.046509
    4 4.441442 -0.003536 0.000000 -0.035358 -0.008509 -0.001650
    5 4.441389 -0.003537 0.000000 -0.025947 0.003416 0.109410
    6 4.441391 -0.002040 0.000000 -0.000013 -0.026163 -0.845972
    7 0.039065 0.002036 1.614274 -0.635078 -1.345456 4.607524
    8 5.073841 0.000000 0.000002 -0.086674 0.896912 -0.649320
    9 12.350971 0.000000 -0.000001 0.000000 0.000000 -0.496654
    10 9.233651 0.000000 0.000000 -0.822321 -0.305485 0.446933
    11 1.488532 0.259443 -1.427523 -0.000946 0.576098 -0.000491
    12 0.625233 0.000000 0.000000 0.000000 0.000000 0.000000
    13 1.041848 0.000000 0.000001 0.000000 0.000000 0.000000
    14 3.826892 -0.002122 -0.118180 -0.013562 0.162121 -0.508169
    15 1.172004 -0.000001 0.000000 0.000000 0.000000 0.418874
    16 1.160930 0.000000 0.000000 0.000000 0.000000 0.418828
    17 -0.039063 0.002045 -1.614274 -0.634790 1.345359 3.361963
    18 4.700062 0.000000 -0.000002 -0.397199 -0.297316 0.707104
    19 12.393687 0.000000 0.000001 0.000000 0.000000 -0.919027
    20 9.316842 0.000001 0.000000 1.016812 0.139561 -0.062155
    21 1.491322 0.034757 1.438863 -0.054672 -0.824687 0.246187
    22 0.607803 0.000000 0.000000 0.000000 0.000000 0.000000
    23 1.063061 0.000001 0.000000 0.000000 0.000000 0.000000
    24 3.716067 0.002914 0.177525 -0.012491 0.022927 -0.488798
    25 1.294388 0.000000 -0.000001 0.000000 0.000000 0.506136
    26 1.183920 0.000001 0.000000 0.000000 0.000000 0.689357
    27 2.738953 3.890889 0.113747 5.501642 -1.536545 -2.598059
    28 0.000000 -1.023687 -1.922726 -0.019599 -0.052970 0.001896
    29 0.000000 -0.558375 -1.804806 -0.155142 -0.206003 0.006353
    30 0.000000 -0.325718 -1.929488 -0.070427 -0.039198 0.004158
    31 0.000000 0.046531 -1.430430 0.029742 -0.154350 0.001862
    32 0.000000 0.000000 -1.347565 -0.150977 -0.038034 -0.009957
    33 0.000000 -0.046531 -2.135521 -0.258204 -0.115843 -0.095817
    34 0.000000 -0.279187 -2.151380 -0.185496 -0.140619 -0.102109
    35 -3.813911 -1.015030 3.416453 0.352820 -3.095668 -0.986428
    36 19.302956 0.000000 0.000000 0.000000 0.000000 -1.540407
    37 15.657714 0.000000 0.000000 -0.300494 0.019739 -0.659700
    38 3.741828 7.474068 0.000000 0.000000 0.000000 1.570796
    39 -3.813911 -1.015012 -3.416451 -0.323697 2.653505 -0.692525
    40 19.302958 0.000000 0.000000 0.000000 0.000000 -1.954632
    41 15.657715 0.000000 0.000000 -0.290551 -0.177065 -0.274059
    42 3.741828 7.351521 0.000000 0.000000 0.000000 1.570796
    43 2.562340 0.000000 0.000000 0.105190 0.045135 0.604744
    44 8.541129 0.000000 0.000000 0.000000 0.000000 0.000000
    45 -7.351523 1.350579 0.144448 0.000001 -3.141591 -1.570794
    46 4.991368 -0.677071 0.532282 1.237053 -2.969057 -0.819481
  time 17
    0 -0.221744 0.539177 3.690353 -0.877952 -1.097885 -0.380436
    1 1.415025 -0.066408 0.000000 -1.570795 -1.570451 0.000000
    2 3.928664 0.383633 0.000004 -0.000004 -0.000001 -0.159647
    3 3.442969 -0.003536 0.000000 -0.026342 -0.011493 -0.067889
    4 4.441442 -0.003536 0.000000 -0.035422 -0.009396 -0.024750
    5 4.441389 -0.003537 0.000000 -0.025968 0.003224 0.103914
    6 4.441391 -0.002040 0.000000 -0.000013 -0.026163 -0.495775
    7 0.039065 0.002036 1.614274 -0.623382 -1.354202 4.246071
    8 5.073841 0.000000 0.000002 0.038985 0.919574 -0.511441
    9 12.350971 0.000000 -0.000001 0.000000 0.000000 0.135970
    10 9.233651 0.000000 0.000000 -0.737712 -0.302359 0.468170
    11 1.488532 0.259443 -1.427523 -0.000946 0.576098 -0.000491
    12 0.625233 0.000000 0.000000 0.000000 0.000000 0.000000
    13 1.041848 0.000000 0.000001 0.000000 0.000000 0.000000
    14 3.826892 -0.002122 -0.118180 -0.013562 0.162121 -0.508169
    15 1.172004 -0.000001 0.000000 0.000000 0.000000 0.418874
    16 1.160930 0.000000 0.000000 0.000000 0.000000 0.418828
    17 -0.039063 0.002045 -1.614274 -0.594140 1.344751 3.051621
    18 4.700062 0.000000 -0.000002 -0.450567 -0.243643 0.783148
    19 12.393687 0.000000 0.000001 0.000000 0.000000 -0.459243
    20 9.316842 0.000001 0.000000 0.962770 0.106591 -0.052358
    21 1.491322 0.034757 1.438863 -0.054672 -0.824687 0.246187
    22 0.607803 0.000000 0.000000 0.000000 0.000000 0.000000
    23 1.063061 0.000001 0.000000 0.000000 0.000000 0.000000
    24 3.716067 0.002914 0.177525 -0.012491 0.022927 -0.488798
    25 1.294388 0.000000 -0.000001 0.000000 0.000000 0.506136
    26 1.183920 0.000001 0.000000 0.000000 0.000000 0.689357
    27 2.738953 3.890889 0.113747 5.485152 -1.523441 -2.614549
    28 0.000000 -1.023687 -1.922726 0.009685 -0.056817 0.001761
    29 0.000000 -0.558375 -1.804806 -0.102245 -0.218881 0.004902
    30 0.000000 -0.325718 -1.929488 -0.026143 -0.042973 0.004243
    31 0.000000 0.046531 -1.430430 0.041029 -0.163997 0.001428
    32 0.000000 0.000000 -1.347565 -0.088597 -0.039502 -0.011713
    33 0.000000 -0.046531 -2.135521 -0.141092 -0.120313 -0.104602
    34 0.000000 -0.279187 -2.151380 -0.076764 -0.146511 -0.111837
    35 -3.817817 -1.003311 3.416453 0.414631 -3.100334 -0.977300
    36 19.302956 0.000000 0.000000 0.000000 0.000000 -1.518798
    37 15.657714 0.000000 0.000000 -0.321150 0.016500 -0.682490
    38 3.741828 7.474068 0.000000 0.000000 0.000000 1.570796
    39 -3.817817 -1.003293 -3.416451 -0.309141 2.722107 -0.703782
    40 19.302958 0.000000 0.000000 0.000000 0.000000 -1.954632
    41 15.657715 0.000000 0.000000 -0.244540 -0.135520 -0.325947
    42 3.741828 7.351521 0.000000 0.000000 0.000000 1.570796
    43 2.562340 0.000000 0.000000 0.063749 0.089241 -0.202329
    44 8.541129 0.000000 0.000000 0.000000 0.000000 0.000000
    45 -7.351523 1.350579 0.144448 0.000001 -3.141591 -1.570794
    46 4.991368 -0.677071 0.532282 1.237053 -2.969057 -0.819481
  time 18
    0 -0.221744 0.539177 2.048234 -0.845659 -1.083492 -0.416824
    1 1.516590 -0.074221 0.000000 -1.570795 -1.570451 0.000000
    2 3.928664 0.383633 0.000004 -0.000004 -0.000001 -0.156181
    3 3.442969 -0.003536 0.000000 -0.026366 -0.012212 -0.086811
    4 4.441442 -0.003536 0.000000 -0.035487 -0.010139 -0.043235
    5 4.441389 -0.003537 0.000000 -0.025968 0.003200 0.104610
    6 4.441391 -0.002040 0.000000 -0.000013 -0.026163 -0.249545
    7 0.039065 0.002036 1.614274 -0.606412 -1.359523 3.983274
    8 5.073841 0.000000 0.000002 0.133069 0.928668 -0.409349
    9 12.350971 0.000000 -0.000001 0.000000 0.000000 -0.103582
    10 9.233651 0.000000 0.000000 -0.653031 -0.300923 0.489589
    11 1.488532 0.259443 -1.427523 -0.000946 0.576098 -0.000491
    12 0.625233 0.000000 0.000000 0.000000 0.000000 0.000000
    13 1.041848 0.000000 0.000001 0.000000 0.000000 0.000000
    14 3.826892 -0.002122 -0.118180 -0.013562 0.162121 -0.508169
    15 1.172004 -0.000001 0.000000 0.000000 0.000000 0.418874
    16 1.160930 0.000000 0.000000 0.000000 0.000000 0.418828
    17 -0.039063 0.002045 -1.614274 -0.565953 1.346016 2.832934
    18 4.700062 0.000000 -0.000002 -0.484615 -0.202065 0.833764
    19 12.393687 0.000000 0.000001 0.000000 0.000000 -0.672012
    20 9.316842 0.000001 0.000000 0.908596 0.074241 -0.040808
    21 1.491322 0.034757 1.438863 -0.054672 -0.824687 0.246187
    22 0.607803 0.000000 0.000000 0.000000 0.000000 0.000000
    23 1.063061 0.000001 0.000000 0.000000 0.000000 0.000000
    24 3.716067 0.002914 0.177525 -0.012491 0.022927 -0.488798
    25 1.294388 0.000000 -0.000001 0.000000 0.000000 0.506136
    26 1.183920 0.000001 0.000000 0.000000 0.000000 0.689357
    27 2.738953 3.890889 0.113747 5.468759 -1.510364 -2.630943
    28 0.000000 -1.023687 -1.922726 0.039361 -0.060633 0.001512
    29 0.000000 -0.558375 -1.804806 -0.050072 -0.231672 0.002748
    30 0.000000 -0.325718 -1.929488 0.017755 -0.046671 0.004136
    31 0.000000 0.046531 -1.430430 0.052335 -0.173633 0.000896
    32 0.000000 0.000000 -1.347565 -0.028285 -0.040873 -0.013523
    33 0.000000 -0.046531 -2.135521 -0.027546 -0.123861 -0.113770
    34 0.000000 -0.279187 -2.151380 0.028591 -0.151462 -0.122051
    35 -3.821723 -0.987686 3.416453 0.475675 -3.105381 -0.968522
    36 19.302956 0.000000 0.000000 0.000000 0.000000 -1.496124
    37 15.657714 0.000000 0.000000 -0.342738 0.013240 -0.708995
    38 3.741828 7.474068 0.000000 0.000000 0.000000 1.570796
    39 -3.821723 -0.987667 -3.416451 -0.275433 2.813607 -0.752595
    40 19.302958 0.000000 0.000000 0.000000 0.000000 -1.954632
    41 15.657715 0.000000 0.000000 -0.139006 -0.146822 -0.390621
    42 3.741828 7.351521 0.000000 0.000000 0.000000 1.570796
    43 2.562340 0.000000 0.000000 0.077578 0.071387 -0.187894
    44 8.541129 0.000000 0.000000 0.000000 0.000000 0.000000
    45 -7.351523 1.350579 0.144448 0.000001 -3.141591 -1.570794
    46 4.991368 -0.677071 0.532282 1.237053 -2.969057 -0.819481
  time 19
    0 -0.221744 0.539177 2.262423 -0.845659 -1.083492 -0.416824
    1 1.286114 -0.054689 0.000000 -1.570795 -1.570451 0.000000
    2 3.928664 0.383633 0.000004 -0.000004 -0.000001 -0.156181
    3 3.442969 -0.003536 0.000000 -0.026366 -0.012212 -0.086811
    4 4.441442 -0.003536 0.000000 -0.035972 -0.008257 0.009087
    5 4.441389 -0.003537 0.000000 -0.025213 0.007011 0.252919
    6 4.441391 -0.002040 0.000000 -0.000013 -0.026163 -0.249545
    7 0.039065 0.002036 1.614274 -0.606412 -1.359523 3.983274
    8 5.073841 0.000000 0.000002 -0.150539 0.845793 -0.669576
    9 12.350971 0.000000 -0.000001 0.000000 0.000000 -0.103582
    10 9.233651 0.000000 0.000000 -0.568422 -0.301219 0.511053
    11 1.488532 0.259443 -1.427523 -0.000946 0.576098 -0.000491
    12 0.625233 0.000000 0.000000 0.000000 0.000000 0.000000
    13 1.041848 0.000000 0.000001 0.000000 0.000000 0.000000
    14 3.826892 -0.002122 -0.118180 -0.013562 0.162121 -0.508169
    15 1.172004 -0.000001 0.000000 0.000000 0.000000 0.418874
    16 1.160930 0.000000 0.000000 0.000000 0.000000 0.418828
    17 -0.039063 0.002045 -1.614274 -0.565953 1.346016 2.832934
    18 4.700062 0.000000 -0.000002 -0.326333 -0.328083 0.758919
    19 12.393687 0.000000 0.000001 0.000000 0.000000 -0.672012
    20 9.316842 0.000001 0.000000 0.854225 0.042550 -0.027550
    21 1.491322 0.034757 1.438863 -0.054672 -0.824687 0.246187
    22 0.607803 0.000000 0.000000 0.000000 0.000000 0.000000
    23 1.063061 0.000001 0.000000 0.000000 0.000000 0.000000
    24 3.716067 0.002914 0.177525 -0.012491 0.022927 -0.488798
    25 1.294388 0.000000 -0.000001 0.000000 0.000000 0.506136
    26 1.183920 0.000001 0.000000 0.000000 0.000000 0.689357
    27 2.738953 3.890889 0.113747 5.453707 -1.497807 -2.645995
    28 0.000000 -1.023687 -1.922726 0.069855 -0.064369 0.001129
    29 0.000000 -0.558375 -1.804806 0.000000 -0.244339 0.000000
    30 0.000000 -0.325718 -1.929488 0.060726 -0.050215 0.003861
    31 0.000000 0.046531 -1.430430 0.069807 -0.183256 0.000000
    32 0.000000 0.000000 -1.347565 0.026914 -0.042187 -0.015389
    33 0.000000 -0.046531 -2.135521 0.076915 -0.126725 -0.123118
    34 0.000000 -0.279187 -2.151380 0.125377 -0.155712 -0.132500
    35 -3.821723 -0.987686 3.416453 0.535090 -3.112142 -0.957649
    36 19.302956 0.000000 0.000000 0.000000 0.000000 -1.471195
    37 15.657714 0.000000 0.000000 -0.366127 0.010180 -0.741678
    38 3.741828 7.474068 0.000000 0.000000 0.000000 1.570796
    39 -3.821723 -0.987667 -3.416451 -0.122402 2.808338 -0.756529
    40 19.302958 0.000000 0.000000 0.000000 0.000000 -1.954632
    41 15.657715 0.000000 0.000000 -0.032620 -0.347249 -0.411992
    42 3.741828 7.351521 0.000000 0.000000 0.000000 1.570796
    43 2.562340 0.000000 0.000000 0.070187 0.073056 -0.415267
    44 8.541129 0.000000 0.000000 0.000000 0.000000 0.000000
    45 -7.351523 1.350579 0.144448 0.000001 -3.141591 -1.570794
    46 4.991368 -0.677071 0.532282 1.237053 -2.969057 -0.819481
end
