version 1
nodes
  0 "Bip01" -1
  1 "Bip01 Pelvis" 0
  2 "Bip01 Spine" 1
  3 "Bip01 Spine1" 2
  4 "Bip01 Spine2" 3
  5 "Bip01 Spine3" 4
  6 "Bip01 Neck" 5
  7 "Bip01 L Clavicle" 6
  8 "Bip01 L UpperArm" 7
  9 "Bip01 L Forearm" 8
  10 "Bip01 L Hand" 9
  11 "Bip01 L Finger0" 10
  12 "Bip01 L Finger01" 11
  13 "Bip01 L Finger02" 12
  14 "Bip01 L Finger2" 10
  15 "Bip01 L Finger21" 14
  16 "Bip01 L Finger22" 15
  17 "Bip01 R Clavicle" 6
  18 "Bip01 R UpperArm" 17
  19 "Bip01 R Forearm" 18
  20 "Bip01 R Hand" 19
  21 "Bip01 R Finger0" 20
  22 "Bip01 R Finger01" 21
  23 "Bip01 R Finger02" 22
  24 "Bip01 R Finger2" 20
  25 "Bip01 R Finger21" 24
  26 "Bip01 R Finger22" 25
  27 "tie1" 5
  28 "tie2" 27
  29 "tie3" 28
  30 "tie4" 29
  31 "tie5" 30
  32 "tie6" 31
  33 "tie7" 32
  34 "tie8" 33
  35 "Bip01 L Thigh" 2
  36 "Bip01 L Calf" 35
  37 "Bip01 L Foot" 36
  38 "Bip01 L Toe0" 37
  39 "Bip01 R Thigh" 2
  40 "Bip01 R Calf" 39
  41 "Bip01 R Foot" 40
  42 "Bip01 R Toe0" 41
  43 "Bip01 Head" 6
  44 "Dummy05" 43
  45 "Mouth" 44
  46 "needle" 20
end
skeleton
  time 0
    0 -0.229557 -0.633134 38.496143 0.000000 0.000000 -1.570888
    1 -0.202212 0.000000 0.000000 -1.570795 -1.570451 0.000000
    2 3.928664 0.383633 0.000004 -0.000004 -0.000001 0.018250
    3 3.442969 -0.003536 0.000000 0.000000 0.000000 0.008727
    4 4.441442 -0.003536 0.000000 0.000000 0.000000 0.017453
    5 4.441389 -0.003537 0.000000 0.000000 0.000000 0.000000
    6 4.441391 -0.002040 0.000000 0.000000 0.000000 0.000000
    7 0.000001 0.002036 1.614274 -0.000014 -1.292298 3.140810
    8 5.073841 0.000000 0.000002 0.068346 1.130357 0.083218
    9 12.011117 0.000000 -0.000001 0.000000 0.000000 -0.243619
    10 10.249307 0.000000 0.000000 -1.284328 0.188628 -0.009322
    11 1.183836 0.259443 -1.427523 -0.000826 0.270526 -0.000221
    12 0.625233 0.000000 0.000000 0.000000 0.000000 0.000000
    13 1.041848 0.000000 0.000001 0.000000 0.000000 0.000000
    14 3.037806 -0.002122 -0.118180 0.003076 0.026012 0.148365
    15 1.172004 -0.000001 0.000000 0.000000 0.000000 0.000000
    16 1.160930 0.000000 0.000000 0.000000 0.000000 0.532314
    17 0.000001 0.002045 -1.614274 -0.000014 1.318464 3.140783
    18 4.700062 0.000000 -0.000002 -0.343539 -1.164702 0.367023
    19 12.049927 0.000000 0.000001 0.000000 0.000000 -0.476860
    20 10.340311 0.000001 0.000000 1.617789 -0.070018 0.035954
    21 1.186625 0.034757 1.438863 -1.255648 0.090695 1.049465
    22 0.607803 0.000000 0.000000 0.000000 0.000000 0.000000
    23 1.063061 0.000001 0.000000 0.000000 0.000000 0.000000
    24 2.950419 0.002914 0.177525 0.003541 0.091227 0.180468
    25 1.294388 0.000000 -0.000001 0.000000 0.000000 0.027246
    26 1.183920 0.000001 0.000000 0.000000 0.000000 0.298841
    27 2.738953 3.890889 0.113747 3.097163 -1.570796 0.000000
    28 0.000000 -1.023687 -1.922726 0.000000 0.000000 0.000000
    29 0.000000 -0.558375 -1.804806 0.000000 0.000000 0.000000
    30 0.000000 -0.325718 -1.929488 0.000000 0.000000 0.000000
    31 0.000000 0.046531 -1.430430 0.000000 0.000000 0.000000
    32 0.000000 0.000000 -1.347565 0.000000 0.000000 0.000000
    33 0.000000 -0.046531 -2.135521 0.000000 0.000000 0.000000
    34 0.000000 -0.279187 -2.151380 0.000000 0.000000 0.000000
    35 -3.935008 -0.311884 3.416453 0.000930 -3.100811 -0.078580
    36 19.302956 0.000000 0.000000 0.000000 0.000000 -0.189239
    37 15.657714 0.000000 0.000000 0.001579 -0.040798 0.128867
    38 3.741828 7.474068 0.000000 0.000000 0.000000 1.570796
    39 -3.935008 -0.311865 -3.416451 0.001037 3.115416 -0.077983
    40 19.302958 0.000000 0.000000 0.000000 0.000000 -0.193630
    41 15.657715 0.000000 0.000000 -0.002585 0.026109 0.133813
    42 3.741828 7.351521 0.000000 0.000000 0.000000 1.570796
    43 2.562340 0.000000 0.000000 0.000000 0.000000 0.025265
    44 8.541129 0.000000 0.000000 0.000000 0.000000 0.000000
    45 -7.351523 1.350579 0.144448 0.000001 -3.141591 -1.570794
    46 4.991368 -0.677071 0.532282 1.237053 -2.969057 -0.819481
  time 1
    0 -0.229557 -0.642588 38.496143 0.000000 0.000000 -1.570888
    1 -0.155336 0.003906 0.000000 -1.570795 -1.570451 0.000000
    2 3.928664 0.383633 0.000004 -0.018023 0.000814 0.011774
    3 3.442969 -0.003536 0.000000 0.000000 0.000000 0.008727
    4 4.441442 -0.003536 0.000000 0.000000 0.000000 0.017453
    5 4.441389 -0.003537 0.000000 0.000000 0.000000 0.000000
    6 4.441391 -0.002040 0.000000 0.000000 0.000000 0.000000
    7 0.000001 0.002036 1.614274 -0.000014 -1.291910 3.140810
    8 5.073841 0.000000 0.000002 0.121853 1.121703 0.143919
    9 12.011117 0.000000 -0.000001 0.000000 0.000000 -0.257772
    10 10.249307 0.000000 0.000000 -1.270598 0.203539 -0.003684
    11 1.183836 0.259443 -1.427523 -0.000826 0.293173 -0.000221
    12 0.625233 0.000000 0.000000 0.000000 0.000000 0.000000
    13 1.041848 0.000000 0.000001 0.000000 0.000000 0.000000
    14 3.037806 -0.002122 -0.118180 0.003039 0.029679 0.147432
    15 1.172004 -0.000001 0.000000 0.000000 0.000000 0.060483
    16 1.160930 0.000000 0.000000 0.000000 0.000000 0.549123
    17 0.000001 0.002045 -1.614274 0.000849 1.318464 3.141646
    18 4.700062 0.000000 -0.000002 -0.289952 -1.147240 0.265710
    19 12.049927 0.000000 0.000001 0.000000 0.000000 -0.657433
    20 10.340311 0.000001 0.000000 1.583692 -0.074681 0.001168
    21 1.186625 0.034757 1.438863 -1.255648 0.090695 1.049465
    22 0.607803 0.000000 0.000000 0.000000 0.000000 0.000000
    23 1.063061 0.000001 0.000000 0.000000 0.000000 0.000000
    24 2.950419 0.002914 0.177525 0.003541 0.091227 0.180468
    25 1.294388 0.000000 -0.000001 0.000000 0.000000 0.027246
    26 1.183920 0.000001 0.000000 0.000000 0.000000 0.298841
    27 2.738953 3.890889 0.113747 3.097163 -1.570796 0.000000
    28 0.000000 -1.023687 -1.922726 0.000000 0.000000 0.000000
    29 0.000000 -0.558375 -1.804806 0.000000 -0.004334 0.000000
    30 0.000000 -0.325718 -1.929488 0.000000 0.004253 0.000000
    31 0.000000 0.046531 -1.430430 0.000000 0.000000 0.000000
    32 0.000000 0.000000 -1.347565 0.000000 0.009033 0.000000
    33 0.000000 -0.046531 -2.135521 0.000000 0.005321 0.000000
    34 0.000000 -0.279187 -2.151380 0.000000 -0.005204 0.000000
    35 -3.935008 -0.397824 3.408640 -0.017086 -3.100430 -0.074191
    36 19.302956 0.000000 0.000000 0.000000 0.000000 -0.199073
    37 15.657714 0.000000 0.000000 0.001579 -0.040619 0.135880
    38 3.741828 7.474068 0.000000 0.000000 0.000000 1.570796
    39 -3.931102 -0.276708 -3.424264 -0.017062 3.115703 -0.074596
    40 19.302958 0.000000 0.000000 0.000000 0.000000 -0.202905
    41 15.657715 0.000000 0.000000 -0.002585 0.026325 0.140532
    42 3.741828 7.351521 0.000000 0.000000 0.000000 1.570796
    43 2.562340 0.000000 0.000000 0.003854 0.000417 0.021675
    44 8.541129 0.000000 0.000000 0.000000 0.000000 0.000000
    45 -7.351523 1.350579 0.144448 0.000001 -3.141591 -1.570794
    46 4.991368 -0.677071 0.532282 1.237053 -2.969057 -0.819481
  time 2
    0 -0.229557 -0.614225 38.496143 0.000000 0.000000 -1.570888
    1 -0.108459 0.011719 0.000000 -1.570795 -1.570451 0.000000
    2 3.928664 0.383633 0.000004 -0.038342 0.001581 0.004704
    3 3.442969 -0.003536 0.000000 0.000000 0.000000 0.008727
    4 4.441442 -0.003536 0.000000 0.000000 0.000000 0.017453
    5 4.441389 -0.003537 0.000000 0.000000 0.000000 0.000000
    6 4.441391 -0.002040 0.000000 0.000000 0.000000 0.000000
    7 0.000001 0.002036 1.614274 -0.000014 -1.290841 3.140810
    8 5.073841 0.000000 0.000002 0.179146 1.112315 0.212453
    9 12.011117 0.000000 -0.000001 0.000000 0.000000 -0.269466
    10 10.249307 0.000000 0.000000 -1.256005 0.230912 0.008549
    11 1.183836 0.259443 -1.427523 -0.000826 0.316141 -0.000221
    12 0.625233 0.000000 0.000000 0.000000 0.000000 0.000000
    13 1.041848 0.000000 0.000001 0.000000 0.000000 0.000000
    14 3.037806 -0.002122 -0.118180 0.002976 0.033419 0.146365
    15 1.172004 -0.000001 0.000000 0.000000 0.000000 0.128786
    16 1.160930 0.000000 0.000000 0.000000 0.000000 0.571178
    17 0.000001 0.002045 -1.614274 0.003150 1.318464 3.143755
    18 4.700062 0.000000 -0.000002 -0.245187 -1.127887 0.169915
    19 12.049927 0.000000 0.000001 0.000000 0.000000 -0.840663
    20 10.340311 0.000001 0.000000 1.547686 -0.085079 -0.033257
    21 1.186625 0.034757 1.438863 -1.255648 0.090695 1.049465
    22 0.607803 0.000000 0.000000 0.000000 0.000000 0.000000
    23 1.063061 0.000001 0.000000 0.000000 0.000000 0.000000
    24 2.950419 0.002914 0.177525 0.003541 0.091227 0.180468
    25 1.294388 0.000000 -0.000001 0.000000 0.000000 0.027246
    26 1.183920 0.000001 0.000000 0.000000 0.000000 0.298841
    27 2.738953 3.890889 0.113747 3.097163 -1.570796 0.000000
    28 0.000000 -1.023687 -1.922726 0.000000 0.000000 0.000000
    29 0.000000 -0.558375 -1.804806 0.000000 -0.009016 0.000000
    30 0.000000 -0.325718 -1.929488 0.000000 0.009091 0.000000
    31 0.000000 0.046531 -1.430430 0.000000 0.000000 0.000000
    32 0.000000 0.000000 -1.347565 0.000000 0.020024 0.000000
    33 0.000000 -0.046531 -2.135521 0.000000 0.011361 0.000000
    34 0.000000 -0.279187 -2.151380 0.000000 -0.010829 0.000000
    35 -3.935008 -0.495483 3.396921 -0.037306 -3.100144 -0.068056
    36 19.302956 0.000000 0.000000 0.000000 0.000000 -0.204334
    37 15.657714 0.000000 0.000000 0.001610 -0.040421 0.139386
    38 3.741828 7.474068 0.000000 0.000000 0.000000 1.570796
    39 -3.927195 -0.233738 -3.432077 -0.037460 3.116086 -0.069615
    40 19.302958 0.000000 0.000000 0.000000 0.000000 -0.207744
    41 15.657715 0.000000 0.000000 -0.002585 0.026518 0.143799
    42 3.741828 7.351521 0.000000 0.000000 0.000000 1.570796
    43 2.562340 0.000000 0.000000 0.008161 0.001057 0.015234
    44 8.541129 0.000000 0.000000 0.000000 0.000000 0.000000
    45 -7.351523 1.350579 0.144448 0.000001 -3.141591 -1.570794
    46 4.991368 -0.677071 0.532282 1.237053 -2.969057 -0.819481
  time 3
    0 -0.229557 -0.557501 38.496143 0.000000 0.000000 -1.570888
    1 -0.053770 0.019532 0.000000 -1.570795 -1.570451 0.000000
    2 3.928664 0.383633 0.000004 -0.059942 0.002252 -0.002730
    3 3.442969 -0.003536 0.000000 0.000000 0.000000 0.008727
    4 4.441442 -0.003536 0.000000 0.000000 0.000000 0.017453
    5 4.441389 -0.003537 0.000000 0.000000 0.000000 0.000000
    6 4.441391 -0.002040 0.000000 0.000000 0.000000 0.000000
    7 0.000001 0.002036 1.614274 -0.000014 -1.289431 3.140810
    8 5.073841 0.000000 0.000002 0.237368 1.101827 0.284228
    9 12.011117 0.000000 -0.000001 0.000000 0.000000 -0.279820
    10 10.249307 0.000000 0.000000 -1.240406 0.265298 0.025057
    11 1.183836 0.259443 -1.427523 -0.000826 0.339301 -0.000266
    12 0.625233 0.000000 0.000000 0.000000 0.000000 0.000000
    13 1.041848 0.000000 0.000001 0.000000 0.000000 0.000000
    14 3.037806 -0.002122 -0.118180 0.002914 0.037170 0.145231
    15 1.172004 -0.000001 0.000000 0.000000 0.000000 0.201507
    16 1.160930 0.000000 0.000000 0.000000 0.000000 0.596230
    17 0.000001 0.002045 -1.614274 0.006122 1.318464 3.146727
    18 4.700062 0.000000 -0.000002 -0.207566 -1.107401 0.079078
    19 12.049927 0.000000 0.000001 0.000000 0.000000 -1.025336
    20 10.340311 0.000001 0.000000 1.510824 -0.099274 -0.067234
    21 1.186625 0.034757 1.438863 -1.255648 0.090695 1.049465
    22 0.607803 0.000000 0.000000 0.000000 0.000000 0.000000
    23 1.063061 0.000001 0.000000 0.000000 0.000000 0.000000
    24 2.950419 0.002914 0.177525 0.003541 0.091227 0.180468
    25 1.294388 0.000000 -0.000001 0.000000 0.000000 0.027246
    26 1.183920 0.000001 0.000000 0.000000 0.000000 0.298841
    27 2.738953 3.890889 0.113747 3.097163 -1.570796 0.000000
    28 0.000000 -1.023687 -1.922726 0.000000 0.000000 0.000000
    29 0.000000 -0.558375 -1.804806 0.000000 -0.013984 0.000000
    30 0.000000 -0.325718 -1.929488 0.000000 0.014206 0.000000
    31 0.000000 0.046531 -1.430430 0.000000 0.000000 0.000000
    32 0.000000 0.000000 -1.347565 0.000000 0.031965 0.000000
    33 0.000000 -0.046531 -2.135521 0.000000 0.017773 0.000000
    34 0.000000 -0.279187 -2.151380 0.000000 -0.016790 0.000000
    35 -3.935008 -0.597049 3.381295 -0.058964 -3.099858 -0.060974
    36 19.302956 0.000000 0.000000 0.000000 0.000000 -0.207090
    37 15.657714 0.000000 0.000000 0.001610 -0.040242 0.140972
    38 3.741828 7.474068 0.000000 0.000000 0.000000 1.570796
    39 -3.923289 -0.190768 -3.439889 -0.059102 3.116278 -0.063837
    40 19.302958 0.000000 0.000000 0.000000 0.000000 -0.210298
    41 15.657715 0.000000 0.000000 -0.002585 0.026711 0.145245
    42 3.741828 7.351521 0.000000 0.000000 0.000000 1.570796
    43 2.562340 0.000000 0.000000 0.012786 0.002030 0.007165
    44 8.541129 0.000000 0.000000 0.000000 0.000000 0.000000
    45 -7.351523 1.350579 0.144448 0.000001 -3.141591 -1.570794
    46 4.991368 -0.677071 0.532282 1.237053 -2.969057 -0.819481
  time 4
    0 -0.229557 -0.510230 38.496143 0.000000 0.000000 -1.570888
    1 0.000919 0.023438 0.000000 -1.570795 -1.570451 0.000000
    2 3.928664 0.383633 0.000004 -0.081897 0.002767 -0.010256
    3 3.442969 -0.003536 0.000000 0.000000 0.000000 0.008727
    4 4.441442 -0.003536 0.000000 0.000000 0.000000 0.017453
    5 4.441389 -0.003537 0.000000 0.000000 0.000000 0.000000
    6 4.441391 -0.002040 0.000000 0.000000 0.000000 0.000000
    7 0.000001 0.002036 1.614274 -0.000014 -1.287949 3.140810
    8 5.073841 0.000000 0.000002 0.293732 1.090019 0.354788
    9 12.011117 0.000000 -0.000001 0.000000 0.000000 -0.289801
    10 10.249307 0.000000 0.000000 -1.223872 0.301162 0.043293
    11 1.183836 0.259443 -1.427523 -0.000826 0.362525 -0.000266
    12 0.625233 0.000000 0.000000 0.000000 0.000000 0.000000
    13 1.041848 0.000000 0.000001 0.000000 0.000000 0.000000
    14 3.037806 -0.002122 -0.118180 0.002852 0.040945 0.144064
    15 1.172004 -0.000001 0.000000 0.000000 0.000000 0.275332
    16 1.160930 0.000000 0.000000 0.000000 0.000000 0.622032
    17 0.000001 0.002045 -1.614274 0.009382 1.318464 3.149891
    18 4.700062 0.000000 -0.000002 -0.175341 -1.086536 -0.007362
    19 12.049927 0.000000 0.000001 0.000000 0.000000 -1.210388
    20 10.340311 0.000001 0.000000 1.474094 -0.115367 -0.100716
    21 1.186625 0.034757 1.438863 -1.255648 0.090695 1.049465
    22 0.607803 0.000000 0.000000 0.000000 0.000000 0.000000
    23 1.063061 0.000001 0.000000 0.000000 0.000000 0.000000
    24 2.950419 0.002914 0.177525 0.003541 0.091227 0.180468
    25 1.294388 0.000000 -0.000001 0.000000 0.000000 0.027246
    26 1.183920 0.000001 0.000000 0.000000 0.000000 0.298841
    27 2.738953 3.890889 0.113747 3.097163 -1.570796 0.000000
    28 0.000000 -1.023687 -1.922726 0.000000 0.000000 0.000000
    29 0.000000 -0.558375 -1.804806 0.000000 -0.019175 0.000000
    30 0.000000 -0.325718 -1.929488 0.000000 0.019337 0.000000
    31 0.000000 0.046531 -1.430430 0.000000 0.000000 0.000000
    32 0.000000 0.000000 -1.347565 0.000000 0.043907 0.000000
    33 0.000000 -0.046531 -2.135521 0.000000 0.024173 0.000000
    34 0.000000 -0.279187 -2.151380 0.000000 -0.023018 0.000000
    35 -3.935008 -0.698614 3.361763 -0.080909 -3.099763 -0.053642
    36 19.302956 0.000000 0.000000 0.000000 0.000000 -0.209219
    37 15.657714 0.000000 0.000000 0.001641 -0.040103 0.142099
    38 3.741828 7.474068 0.000000 0.000000 0.000000 1.570796
    39 -3.915476 -0.143891 -3.447702 -0.081128 3.116566 -0.057910
    40 19.302958 0.000000 0.000000 0.000000 0.000000 -0.212180
    41 15.657715 0.000000 0.000000 -0.002585 0.026880 0.146272
    42 3.741828 7.351521 0.000000 0.000000 0.000000 1.570796
    43 2.562340 0.000000 0.000000 0.017456 0.003282 -0.001311
    44 8.541129 0.000000 0.000000 0.000000 0.000000 0.000000
    45 -7.351523 1.350579 0.144448 0.000001 -3.141591 -1.570794
    46 4.991368 -0.677071 0.532282 1.237053 -2.969057 -0.819481
  time 5
    0 -0.229557 -0.462960 38.496143 0.000000 0.000000 -1.570888
    1 0.051702 0.027345 0.000000 -1.570795 -1.570451 0.000000
    2 3.928664 0.383633 0.000004 -0.103188 0.003115 -0.017621
    3 3.442969 -0.003536 0.000000 0.000000 0.000000 0.008727
    4 4.441442 -0.003536 0.000000 0.000000 0.000000 0.017453
    5 4.441389 -0.003537 0.000000 0.000000 0.000000 0.000000
    6 4.441391 -0.002040 0.000000 0.000000 0.000000 0.000000
    7 0.000001 0.002036 1.614274 -0.000014 -1.286613 3.140810
    8 5.073841 0.000000 0.000002 0.346096 1.077111 0.420081
    9 12.011117 0.000000 -0.000001 0.000000 0.000000 -0.300453
    10 10.249307 0.000000 0.000000 -1.206836 0.333224 0.060346
    11 1.183836 0.259443 -1.427523 -0.000826 0.385685 -0.000311
    12 0.625233 0.000000 0.000000 0.000000 0.000000 0.000000
    13 1.041848 0.000000 0.000001 0.000000 0.000000 0.000000
    14 3.037806 -0.002122 -0.118180 0.002790 0.044696 0.142963
    15 1.172004 -0.000001 0.000000 0.000000 0.000000 0.346949
    16 1.160930 0.000000 0.000000 0.000000 0.000000 0.646335
    17 0.000001 0.002045 -1.614274 0.012258 1.318464 3.152671
    18 4.700062 0.000000 -0.000002 -0.146616 -1.065596 -0.089963
    19 12.049927 0.000000 0.000001 0.000000 0.000000 -1.394682
    20 10.340311 0.000001 0.000000 1.438417 -0.131336 -0.133748
    21 1.186625 0.034757 1.438863 -1.255648 0.090695 1.049465
    22 0.607803 0.000000 0.000000 0.000000 0.000000 0.000000
    23 1.063061 0.000001 0.000000 0.000000 0.000000 0.000000
    24 2.950419 0.002914 0.177525 0.003541 0.091227 0.180468
    25 1.294388 0.000000 -0.000001 0.000000 0.000000 0.027246
    26 1.183920 0.000001 0.000000 0.000000 0.000000 0.298841
    27 2.738953 3.890889 0.113747 3.097163 -1.570796 0.000000
    28 0.000000 -1.023687 -1.922726 0.000000 0.000000 0.000000
    29 0.000000 -0.558375 -1.804806 0.000000 -0.024540 0.000000
    30 0.000000 -0.325718 -1.929488 0.000000 0.024175 0.000000
    31 0.000000 0.046531 -1.430430 0.000000 0.000000 0.000000
    32 0.000000 0.000000 -1.347565 0.000000 0.054884 0.000000
    33 0.000000 -0.046531 -2.135521 0.000000 0.030225 0.000000
    34 0.000000 -0.279187 -2.151380 0.000000 -0.029456 0.000000
    35 -3.935008 -0.800180 3.342232 -0.102184 -3.099668 -0.046659
    36 19.302956 0.000000 0.000000 0.000000 0.000000 -0.212476
    37 15.657714 0.000000 0.000000 0.001641 -0.039983 0.144103
    38 3.741828 7.474068 0.000000 0.000000 0.000000 1.570796
    39 -3.911570 -0.100921 -3.455515 -0.102483 3.116661 -0.052282
    40 19.302958 0.000000 0.000000 0.000000 0.000000 -0.215205
    41 15.657715 0.000000 0.000000 -0.002585 0.027000 0.148138
    42 3.741828 7.351521 0.000000 0.000000 0.000000 1.570796
    43 2.562340 0.000000 0.000000 0.021945 0.004700 -0.008898
    44 8.541129 0.000000 0.000000 0.000000 0.000000 0.000000
    45 -7.351523 1.350579 0.144448 0.000001 -3.141591 -1.570794
    46 4.991368 -0.677071 0.532282 1.237053 -2.969057 -0.819481
  time 6
    0 -0.229557 -0.444051 38.496143 0.000000 0.000000 -1.570888
    1 0.102485 0.031251 0.000000 -1.570795 -1.570451 0.000000
    2 3.928664 0.383633 0.000004 -0.122887 0.003283 -0.024577
    3 3.442969 -0.003536 0.000000 0.000000 0.000000 0.008727
    4 4.441442 -0.003536 0.000000 0.000000 0.000000 0.017453
    5 4.441389 -0.003537 0.000000 0.000000 0.000000 0.000000
    6 4.441391 -0.002040 0.000000 0.000000 0.000000 0.000000
    7 0.000001 0.002036 1.614274 -0.000014 -1.285763 3.140810
    8 5.073841 0.000000 0.000002 0.392530 1.063470 0.476393
    9 12.011117 0.000000 -0.000001 0.000000 0.000000 -0.312818
    10 10.249307 0.000000 0.000000 -1.190374 0.356204 0.073079
    11 1.183836 0.259443 -1.427523 -0.000866 0.408589 -0.000311
    12 0.625233 0.000000 0.000000 0.000000 0.000000 0.000000
    13 1.041848 0.000000 0.000001 0.000000 0.000000 0.000000
    14 3.037806 -0.002122 -0.118180 0.002715 0.048411 0.141930
    15 1.172004 -0.000001 0.000000 0.000000 0.000000 0.412998
    16 1.160930 0.000000 0.000000 0.000000 0.000000 0.666891
    17 0.000001 0.002045 -1.614274 0.014175 1.318440 3.154493
    18 4.700062 0.000000 -0.000002 -0.119859 -1.044807 -0.168726
    19 12.049927 0.000000 0.000001 0.000000 0.000000 -1.577153
    20 10.340311 0.000001 0.000000 1.404518 -0.145159 -0.166601
    21 1.186625 0.034757 1.438863 -1.255648 0.090695 1.049465
    22 0.607803 0.000000 0.000000 0.000000 0.000000 0.000000
    23 1.063061 0.000001 0.000000 0.000000 0.000000 0.000000
    24 2.950419 0.002914 0.177525 0.003541 0.091227 0.180468
    25 1.294388 0.000000 -0.000001 0.000000 0.000000 0.027246
    26 1.183920 0.000001 0.000000 0.000000 0.000000 0.298841
    27 2.738953 3.890889 0.113747 3.097163 -1.570796 0.000000
    28 0.000000 -1.023687 -1.922726 0.000000 0.000000 0.000000
    29 0.000000 -0.558375 -1.804806 0.000000 -0.030016 0.000000
    30 0.000000 -0.325718 -1.929488 0.000000 0.028428 0.000000
    31 0.000000 0.046531 -1.430430 0.000000 0.000000 0.000000
    32 0.000000 0.000000 -1.347565 0.000000 0.063931 0.000000
    33 0.000000 -0.046531 -2.135521 0.000000 0.035546 0.000000
    34 0.000000 -0.279187 -2.151380 0.000000 -0.036021 0.000000
    35 -3.931102 -0.890027 3.318793 -0.121829 -3.099668 -0.040674
    36 19.302956 0.000000 0.000000 0.000000 0.000000 -0.218364
    37 15.657714 0.000000 0.000000 0.001672 -0.039924 0.148277
    38 3.741828 7.474068 0.000000 0.000000 0.000000 1.570796
    39 -3.907663 -0.057951 -3.459421 -0.122211 3.116757 -0.047550
    40 19.302958 0.000000 0.000000 0.000000 0.000000 -0.220918
    41 15.657715 0.000000 0.000000 -0.002554 0.027073 0.152198
    42 3.741828 7.351521 0.000000 0.000000 0.000000 1.570796
    43 2.562340 0.000000 0.000000 0.026162 0.006090 -0.014376
    44 8.541129 0.000000 0.000000 0.000000 0.000000 0.000000
    45 -7.351523 1.350579 0.144448 0.000001 -3.141591 -1.570794
    46 4.991368 -0.677071 0.532282 1.237053 -2.969057 -0.819481
  time 7
    0 -0.229557 -0.462960 38.460445 0.000000 0.000000 -1.570888
    1 0.145455 0.031251 0.000000 -1.570795 -1.570451 0.000000
    2 3.928664 0.383633 0.000004 -0.139978 0.003307 -0.030848
    3 3.442969 -0.003536 0.000000 0.000000 0.000000 0.008727
    4 4.441442 -0.003536 0.000000 0.000000 0.000000 0.017453
    5 4.441389 -0.003537 0.000000 0.000000 0.000000 0.000000
    6 4.441391 -0.002040 0.000000 0.000000 0.000000 0.000000
    7 0.000001 0.002036 1.614274 -0.000014 -1.285617 3.140810
    8 5.073841 0.000000 0.000002 0.431464 1.049608 0.520417
    9 12.011117 0.000000 -0.000001 0.000000 0.000000 -0.328014
    10 10.249307 0.000000 0.000000 -1.175565 0.364991 0.077899
    11 1.183836 0.259443 -1.427523 -0.000866 0.431107 -0.000356
    12 0.625233 0.000000 0.000000 0.000000 0.000000 0.000000
    13 1.041848 0.000000 0.000001 0.000000 0.000000 0.000000
    14 3.037806 -0.002122 -0.118180 0.002653 0.052067 0.141029
    15 1.172004 -0.000001 0.000000 0.000000 0.000000 0.470168
    16 1.160930 0.000000 0.000000 0.000000 0.000000 0.681452
    17 0.000001 0.002045 -1.614274 0.014463 1.318440 3.154781
    18 4.700062 0.000000 -0.000002 -0.093539 -1.024245 -0.244131
    19 12.049927 0.000000 0.000001 0.000000 0.000000 -1.756586
    20 10.340311 0.000001 0.000000 1.373119 -0.154774 -0.199678
    21 1.186625 0.034757 1.438863 -1.255648 0.090695 1.049465
    22 0.607803 0.000000 0.000000 0.000000 0.000000 0.000000
    23 1.063061 0.000001 0.000000 0.000000 0.000000 0.000000
    24 2.950419 0.002914 0.177525 0.003541 0.091227 0.180468
    25 1.294388 0.000000 -0.000001 0.000000 0.000000 0.027246
    26 1.183920 0.000001 0.000000 0.000000 0.000000 0.298841
    27 2.738953 3.890889 0.113747 3.097163 -1.570796 0.000000
    28 0.000000 -1.023687 -1.922726 0.000000 0.000000 0.000000
    29 0.000000 -0.558375 -1.804806 0.000000 -0.035543 0.000000
    30 0.000000 -0.325718 -1.929488 0.000000 0.031833 0.000000
    31 0.000000 0.046531 -1.430430 0.000000 0.000000 0.000000
    32 0.000000 0.000000 -1.347565 0.000000 0.070083 0.000000
    33 0.000000 -0.046531 -2.135521 0.000000 0.039801 0.000000
    34 0.000000 -0.279187 -2.151380 0.000000 -0.042656 0.000000
    35 -3.927195 -0.972060 3.303168 -0.138887 -3.099573 -0.036185
    36 19.302956 0.000000 0.000000 0.000000 0.000000 -0.228261
    37 15.657714 0.000000 0.000000 0.001703 -0.039924 0.155706
    38 3.741828 7.474068 0.000000 0.000000 0.000000 1.570796
    39 -3.903757 -0.022794 -3.463328 -0.139352 3.116949 -0.044063
    40 19.302958 0.000000 0.000000 0.000000 0.000000 -0.230596
    41 15.657715 0.000000 0.000000 -0.002554 0.027145 0.159524
    42 3.741828 7.351521 0.000000 0.000000 0.000000 1.570796
    43 2.562340 0.000000 0.000000 0.029789 0.007203 -0.016597
    44 8.541129 0.000000 0.000000 0.000000 0.000000 0.000000
    45 -7.351523 1.350579 0.144448 0.000001 -3.141591 -1.570794
    46 4.991368 -0.677071 0.532282 1.237053 -2.969057 -0.819481
  time 8
    0 -0.229557 -0.548047 38.424747 0.000000 0.000000 -1.570888
    1 0.184518 0.031251 0.000000 -1.570795 -1.570451 0.000000
    2 3.928664 0.383633 0.000004 -0.153487 0.003235 -0.036207
    3 3.442969 -0.003536 0.000000 0.000000 0.000000 0.008727
    4 4.441442 -0.003536 0.000000 0.000000 0.000000 0.017453
    5 4.441389 -0.003537 0.000000 0.000000 0.000000 0.000000
    6 4.441391 -0.002040 0.000000 0.000000 0.000000 0.000000
    7 0.000001 0.002036 1.614274 -0.000014 -1.286492 3.140810
    8 5.073841 0.000000 0.000002 0.461825 1.035967 0.549046
    9 12.011117 0.000000 -0.000001 0.000000 0.000000 -0.347008
    10 10.249307 0.000000 0.000000 -1.163704 0.354515 0.071260
    11 1.183836 0.259443 -1.427523 -0.000866 0.453112 -0.000356
    12 0.625233 0.000000 0.000000 0.000000 0.000000 0.000000
    13 1.041848 0.000000 0.000001 0.000000 0.000000 0.000000
    14 3.037806 -0.002122 -0.118180 0.002603 0.055638 0.140363
    15 1.172004 -0.000001 0.000000 0.000000 0.000000 0.515143
    16 1.160930 0.000000 0.000000 0.000000 0.000000 0.687769
    17 0.000001 0.002045 -1.614274 0.012545 1.318464 3.152959
    18 4.700062 0.000000 -0.000002 -0.066491 -1.003759 -0.315777
    19 12.049927 0.000000 0.000001 0.000000 0.000000 -1.931919
    20 10.340311 0.000001 0.000000 1.344815 -0.158033 -0.233475
    21 1.186625 0.034757 1.438863 -1.255648 0.090695 1.049465
    22 0.607803 0.000000 0.000000 0.000000 0.000000 0.000000
    23 1.063061 0.000001 0.000000 0.000000 0.000000 0.000000
    24 2.950419 0.002914 0.177525 0.003541 0.091227 0.180468
    25 1.294388 0.000000 -0.000001 0.000000 0.000000 0.027246
    26 1.183920 0.000001 0.000000 0.000000 0.000000 0.298841
    27 2.738953 3.890889 0.113747 3.097163 -1.570796 0.000000
    28 0.000000 -1.023687 -1.922726 0.000000 0.000000 0.000000
    29 0.000000 -0.558375 -1.804806 0.000000 -0.041081 0.000000
    30 0.000000 -0.325718 -1.929488 0.000000 0.034082 0.000000
    31 0.000000 0.046531 -1.430430 0.000000 0.000000 0.000000
    32 0.000000 0.000000 -1.347565 0.000000 0.072363 0.000000
    33 0.000000 -0.046531 -2.135521 0.000000 0.042617 0.000000
    34 0.000000 -0.279187 -2.151380 0.000000 -0.049290 0.000000
    35 -3.923289 -1.038469 3.283636 -0.152303 -3.099287 -0.033442
    36 19.302956 0.000000 0.000000 0.000000 0.000000 -0.243105
    37 15.657714 0.000000 0.000000 0.001734 -0.039944 0.167394
    38 3.741828 7.474068 0.000000 0.000000 0.000000 1.570796
    39 -3.903757 0.004551 -3.467234 -0.152951 3.117236 -0.042120
    40 19.302958 0.000000 0.000000 0.000000 0.000000 -0.245114
    41 15.657715 0.000000 0.000000 -0.002554 0.027193 0.171003
    42 3.741828 7.351521 0.000000 0.000000 0.000000 1.570796
    43 2.562340 0.000000 0.000000 0.032736 0.007759 -0.014265
    44 8.541129 0.000000 0.000000 0.000000 0.000000 0.000000
    45 -7.351523 1.350579 0.144448 0.000001 -3.141591 -1.570794
    46 4.991368 -0.677071 0.532282 1.237053 -2.969057 -0.819481
  time 9
    0 -0.229557 -0.699312 38.389049 0.000000 0.000000 -1.570888
    1 0.211863 0.031251 0.000000 -1.570795 -1.570451 0.000000
    2 3.928664 0.383633 0.000004 -0.162485 0.003115 -0.040357
    3 3.442969 -0.003536 0.000000 0.000000 0.000000 0.008727
    4 4.441442 -0.003536 0.000000 0.000000 0.000000 0.017453
    5 4.441389 -0.003537 0.000000 0.000000 0.000000 0.000000
    6 4.441391 -0.002040 0.000000 0.000000 0.000000 0.000000
    7 0.000001 0.002036 1.614274 -0.000014 -1.288630 3.140810
    8 5.073841 0.000000 0.000002 0.482470 1.023279 0.559580
    9 12.011117 0.000000 -0.000001 0.000000 0.000000 -0.370918
    10 10.249307 0.000000 0.000000 -1.155150 0.319749 0.049841
    11 1.183836 0.259443 -1.427523 -0.000866 0.474540 -0.000401
    12 0.625233 0.000000 0.000000 0.000000 0.000000 0.000000
    13 1.041848 0.000000 0.000001 0.000000 0.000000 0.000000
    14 3.037806 -0.002122 -0.118180 0.002565 0.059114 0.139896
    15 1.172004 -0.000001 0.000000 0.000000 0.000000 0.544568
    16 1.160930 0.000000 0.000000 0.000000 0.000000 0.683647
    17 0.000001 0.002045 -1.614274 0.007943 1.318464 3.148453
    18 4.700062 0.000000 -0.000002 -0.037765 -0.983046 -0.383346
    19 12.049927 0.000000 0.000001 0.000000 0.000000 -2.102088
    20 10.340311 0.000001 0.000000 1.320065 -0.152917 -0.268395
    21 1.186625 0.034757 1.438863 -1.255648 0.090695 1.049465
    22 0.607803 0.000000 0.000000 0.000000 0.000000 0.000000
    23 1.063061 0.000001 0.000000 0.000000 0.000000 0.000000
    24 2.950419 0.002914 0.177525 0.003541 0.091227 0.180468
    25 1.294388 0.000000 -0.000001 0.000000 0.000000 0.027246
    26 1.183920 0.000001 0.000000 0.000000 0.000000 0.298841
    27 2.738953 3.890889 0.113747 3.097163 -1.570796 0.000000
    28 0.000000 -1.023687 -1.922726 0.000000 0.000000 0.000000
    29 0.000000 -0.558375 -1.804806 0.000000 -0.046558 0.000000
    30 0.000000 -0.325718 -1.929488 0.000000 0.034899 0.000000
    31 0.000000 0.046531 -1.430430 0.000000 0.000000 0.000000
    32 0.000000 0.000000 -1.347565 0.000000 0.069804 0.000000
    33 0.000000 -0.046531 -2.135521 0.000000 0.043636 0.000000
    34 0.000000 -0.279187 -2.151380 0.000000 -0.055869 0.000000
    35 -3.923289 -1.085345 3.271917 -0.161215 -3.098906 -0.032444
    36 19.302956 0.000000 0.000000 0.000000 0.000000 -0.263023
    37 15.657714 0.000000 0.000000 0.001765 -0.040023 0.183756
    38 3.741828 7.474068 0.000000 0.000000 0.000000 1.570796
    39 -3.899851 0.016270 -3.471140 -0.162048 3.117524 -0.041523
    40 19.302958 0.000000 0.000000 0.000000 0.000000 -0.264672
    41 15.657715 0.000000 0.000000 -0.002554 0.027241 0.187241
    42 3.741828 7.351521 0.000000 0.000000 0.000000 1.570796
    43 2.562340 0.000000 0.000000 0.034776 0.007453 -0.006307
    44 8.541129 0.000000 0.000000 0.000000 0.000000 0.000000
    45 -7.351523 1.350579 0.144448 0.000001 -3.141591 -1.570794
    46 4.991368 -0.677071 0.532282 1.237053 -2.969057 -0.819481
  time 10
    0 -0.229557 -0.945119 38.317652 0.000000 0.000000 -1.570888
    1 0.231395 0.031251 0.000000 -1.570795 -1.570451 0.000000
    2 3.928664 0.383633 0.000004 -0.165956 0.003007 -0.043071
    3 3.442969 -0.003536 0.000000 0.000000 0.000000 0.008727
    4 4.441442 -0.003536 0.000000 0.000000 0.000000 0.017453
    5 4.441389 -0.003537 0.000000 0.000000 0.000000 0.000000
    6 4.441391 -0.002040 0.000000 0.000000 0.000000 0.000000
    7 0.000001 0.002036 1.614274 -0.000014 -1.292298 3.140810
    8 5.073841 0.000000 0.000002 0.492329 1.011984 0.548979
    9 12.011117 0.000000 -0.000001 0.000000 0.000000 -0.400713
    10 10.249307 0.000000 0.000000 -1.148896 0.255540 0.010960
    11 1.183836 0.259443 -1.427523 -0.000866 0.495134 -0.000401
    12 0.625233 0.000000 0.000000 0.000000 0.000000 0.000000
    13 1.041848 0.000000 0.000001 0.000000 0.000000 0.000000
    14 3.037806 -0.002122 -0.118180 0.002541 0.062457 0.139729
    15 1.172004 -0.000001 0.000000 0.000000 0.000000 0.555127
    16 1.160930 0.000000 0.000000 0.000000 0.000000 0.666731
    17 0.000001 0.002045 -1.614274 -0.000014 1.318464 3.140783
    18 4.700062 0.000000 -0.000002 -0.006488 -0.961652 -0.446196
    19 12.049927 0.000000 0.000001 0.000000 0.000000 -2.265803
    20 10.340311 0.000001 0.000000 1.299001 -0.137319 -0.304978
    21 1.186625 0.034757 1.438863 -1.255648 0.090695 1.049465
    22 0.607803 0.000000 0.000000 0.000000 0.000000 0.000000
    23 1.063061 0.000001 0.000000 0.000000 0.000000 0.000000
    24 2.950419 0.002914 0.177525 0.003541 0.091227 0.180468
    25 1.294388 0.000000 -0.000001 0.000000 0.000000 0.027246
    26 1.183920 0.000001 0.000000 0.000000 0.000000 0.298841
    27 2.738953 3.890889 0.113747 3.097163 -1.570796 0.000000
    28 0.000000 -1.023687 -1.922726 0.000000 0.000000 0.000000
    29 0.000000 -0.558375 -1.804806 0.000000 -0.051910 0.000000
    30 0.000000 -0.325718 -1.929488 0.000000 0.034745 0.000000
    31 0.000000 0.046531 -1.430430 0.000000 0.000000 0.000000
    32 0.000000 0.000000 -1.347565 0.000000 0.062057 0.000000
    33 0.000000 -0.046531 -2.135521 0.000000 0.043432 0.000000
    34 0.000000 -0.279187 -2.151380 0.000000 -0.062293 0.000000
    35 -3.919383 -1.104877 3.268011 -0.164570 -3.098525 -0.032843
    36 19.302956 0.000000 0.000000 0.000000 0.000000 -0.287701
    37 15.657714 0.000000 0.000000 0.001828 -0.040142 0.205128
    38 3.741828 7.474068 0.000000 0.000000 0.000000 1.570796
    39 -3.899851 0.020176 -3.471140 -0.165592 3.117811 -0.042071
    40 19.302958 0.000000 0.000000 0.000000 0.000000 -0.289003
    41 15.657715 0.000000 0.000000 -0.002524 0.027289 0.208379
    42 3.741828 7.351521 0.000000 0.000000 0.000000 1.570796
    43 2.562340 0.000000 0.000000 0.035683 0.006090 0.008609
    44 8.541129 0.000000 0.000000 0.000000 0.000000 0.000000
    45 -7.351523 1.350579 0.144448 0.000001 -3.141591 -1.570794
    46 4.991368 -0.677071 0.532282 1.237053 -2.969057 -0.819481
  time 11
    0 -0.229557 -1.294922 38.210557 0.000000 0.000000 -1.570888
    1 0.239207 0.031251 0.000000 -1.570795 -1.570451 0.000000
    2 3.928664 0.383633 0.000004 -0.163613 0.002935 -0.044188
    3 3.442969 -0.003536 0.000000 0.000000 0.000000 0.008727
    4 4.441442 -0.003536 0.000000 0.000000 0.000000 0.017453
    5 4.441389 -0.003537 0.000000 0.000000 0.000000 0.000000
    6 4.441391 -0.002040 0.000000 0.000000 0.000000 0.000000
    7 0.000001 0.002036 1.614274 -0.000014 -1.305150 3.140810
    8 5.073841 0.000000 0.000002 0.442394 1.008977 0.445536
    9 12.011117 0.000000 -0.000001 0.000000 0.000000 -0.466263
    10 10.249307 0.000000 0.000000 -1.140989 -0.015869 -0.144521
    11 1.183836 0.259443 -1.427523 -0.000906 0.516370 -0.000446
    12 0.625233 0.000000 0.000000 0.000000 0.000000 0.000000
    13 1.041848 0.000000 0.000001 0.000000 0.000000 0.000000
    14 3.037806 -0.002122 -0.118180 0.002553 0.065897 0.140296
    15 1.172004 -0.000001 0.000000 0.000000 0.000000 0.519120
    16 1.160930 0.000000 0.000000 0.000000 0.000000 0.613574
    17 0.000001 0.002045 -1.614274 -0.040568 1.318269 3.101571
    18 4.700062 0.000000 -0.000002 0.035434 -0.946608 -0.497372
    19 12.049927 0.000000 0.000001 0.000000 0.000000 -2.400132
    20 10.340311 0.000001 0.000000 1.317432 0.071476 -0.374099
    21 1.186625 0.034757 1.438863 -1.255648 0.090695 1.049465
    22 0.607803 0.000000 0.000000 0.000000 0.000000 0.000000
    23 1.063061 0.000001 0.000000 0.000000 0.000000 0.000000
    24 2.950419 0.002914 0.177525 0.003541 0.091227 0.180468
    25 1.294388 0.000000 -0.000001 0.000000 0.000000 0.027246
    26 1.183920 0.000001 0.000000 0.000000 0.000000 0.298841
    27 2.738953 3.890889 0.113747 3.097163 -1.570796 0.000000
    28 0.000000 -1.023687 -1.922726 0.000000 0.000000 0.000000
    29 0.000000 -0.558375 -1.804806 0.000000 -0.057114 0.000000
    30 0.000000 -0.325718 -1.929488 0.000000 0.034298 0.000000
    31 0.000000 0.046531 -1.430430 0.000000 0.000000 0.000000
    32 0.000000 0.000000 -1.347565 0.000000 0.049976 0.000000
    33 0.000000 -0.046531 -2.135521 0.000000 0.042881 0.000000
    34 0.000000 -0.279187 -2.151380 0.000000 -0.068535 0.000000
    35 -3.919383 -1.100970 3.271917 -0.162174 -3.098049 -0.034439
    36 19.302956 0.000000 0.000000 0.000000 0.000000 -0.317140
    37 15.657714 0.000000 0.000000 0.001859 -0.040282 0.231842
    38 3.741828 7.474068 0.000000 0.000000 0.000000 1.570796
    39 -3.899851 0.008457 -3.471140 -0.163389 3.117907 -0.043366
    40 19.302958 0.000000 0.000000 0.000000 0.000000 -0.318038
    41 15.657715 0.000000 0.000000 -0.002524 0.027386 0.234883
    42 3.741828 7.351521 0.000000 0.000000 0.000000 1.570796
    43 2.562340 0.000000 0.000000 0.040716 0.001724 0.043735
    44 8.541129 0.000000 0.000000 0.000000 0.000000 0.000000
    45 -7.351523 1.350579 0.144448 0.000001 -3.141591 -1.570794
    46 4.991368 -0.677071 0.532282 1.237053 -2.969057 -0.819481
  time 12
    0 -0.229557 -1.739265 38.103463 0.000000 0.000000 -1.570888
    1 0.239207 0.031251 0.000000 -1.570795 -1.570451 0.000000
    2 3.928664 0.383633 0.000004 -0.156361 0.002899 -0.043915
    3 3.442969 -0.003536 0.000000 0.000000 0.000000 0.008727
    4 4.441442 -0.003536 0.000000 0.000000 0.000000 0.017453
    5 4.441389 -0.003537 0.000000 0.000000 0.000000 0.000000
    6 4.441391 -0.002040 0.000000 0.000000 0.000000 0.000000
    7 0.000001 0.002036 1.614274 -0.000014 -1.328109 3.140810
    8 5.073841 0.000000 0.000002 0.320807 1.007144 0.237571
    9 12.011117 0.000000 -0.000001 0.000000 0.000000 -0.570471
    10 10.249307 0.000000 0.000000 -1.028632 -0.467317 -0.442385
    11 1.183836 0.259443 -1.427523 -0.000906 0.538375 -0.000446
    12 0.625233 0.000000 0.000000 0.000000 0.000000 0.000000
    13 1.041848 0.000000 0.000001 0.000000 0.000000 0.000000
    14 3.037806 -0.002122 -0.118180 0.002640 0.069456 0.141696
    15 1.172004 -0.000001 0.000000 0.000000 0.000000 0.427578
    16 1.160930 0.000000 0.000000 0.000000 0.000000 0.517058
    17 0.000001 0.002045 -1.614274 -0.118034 1.316786 3.026502
    18 4.700062 0.000000 -0.000002 0.090333 -0.938595 -0.537513
    19 12.049927 0.000000 0.000001 0.000000 0.000000 -2.399372
    20 10.340311 0.000001 0.000000 1.353964 0.244866 -0.414098
    21 1.186625 0.034757 1.438863 -1.255648 0.090695 1.049465
    22 0.607803 0.000000 0.000000 0.000000 0.000000 0.000000
    23 1.063061 0.000001 0.000000 0.000000 0.000000 0.000000
    24 2.950419 0.002914 0.177525 0.003541 0.091227 0.180468
    25 1.294388 0.000000 -0.000001 0.000000 0.000000 0.027246
    26 1.183920 0.000001 0.000000 0.000000 0.000000 0.298841
    27 2.738953 3.890889 0.113747 3.097163 -1.570796 0.000000
    28 0.000000 -1.023687 -1.922726 0.000000 0.000000 0.000000
    29 0.000000 -0.558375 -1.804806 0.000000 -0.062069 0.000000
    30 0.000000 -0.325718 -1.929488 0.000000 0.033574 0.000000
    31 0.000000 0.046531 -1.430430 0.000000 0.000000 0.000000
    32 0.000000 0.000000 -1.347565 0.000000 0.034482 0.000000
    33 0.000000 -0.046531 -2.135521 0.000000 0.041970 0.000000
    34 0.000000 -0.279187 -2.151380 0.000000 -0.074483 0.000000
    35 -3.919383 -1.077532 3.279730 -0.154891 -3.097859 -0.036185
    36 19.302956 0.000000 0.000000 0.000000 0.000000 -0.349021
    37 15.657714 0.000000 0.000000 0.001921 -0.040480 0.262563
    38 3.741828 7.474068 0.000000 0.000000 0.000000 1.570796
    39 -3.899851 -0.018888 -3.471140 -0.156207 3.117715 -0.044462
    40 19.302958 0.000000 0.000000 0.000000 0.000000 -0.349493
    41 15.657715 0.000000 0.000000 -0.002493 0.027482 0.265353
    42 3.741828 7.351521 0.000000 0.000000 0.000000 1.570796
    43 2.562340 0.000000 0.000000 0.052368 -0.006535 0.103511
    44 8.541129 0.000000 0.000000 0.000000 0.000000 0.000000
    45 -7.351523 1.350579 0.144448 0.000001 -3.141591 -1.570794
    46 4.991368 -0.677071 0.532282 1.237053 -2.969057 -0.819481
  time 13
    0 -0.229557 -2.268696 37.960670 0.000000 0.000000 -1.570888
    1 0.227488 0.031251 0.000000 -1.570795 -1.570451 0.000000
    2 3.928664 0.383633 0.000004 -0.144886 0.002875 -0.042455
    3 3.442969 -0.003536 0.000000 0.000000 0.000000 0.008727
    4 4.441442 -0.003536 0.000000 0.000000 0.000000 0.017453
    5 4.441389 -0.003537 0.000000 0.000000 0.000000 0.000000
    6 4.441391 -0.002040 0.000000 0.000000 0.000000 0.000000
    7 0.000001 0.002036 1.614274 -0.000014 -1.351481 3.140810
    8 5.073841 0.000000 0.000002 0.191576 0.993209 0.019410
    9 12.011117 0.000000 -0.000001 0.000000 0.000000 -0.674083
    10 10.249307 0.000000 0.000000 -0.765100 -0.780927 -0.818194
    11 1.183836 0.259443 -1.427523 -0.000906 0.559097 -0.000491
    12 0.625233 0.000000 0.000000 0.000000 0.000000 0.000000
    13 1.041848 0.000000 0.000001 0.000000 0.000000 0.000000
    14 3.037806 -0.002122 -0.118180 0.002752 0.072812 0.143597
    15 1.172004 -0.000001 0.000000 0.000000 0.000000 0.305154
    16 1.160930 0.000000 0.000000 0.000000 0.000000 0.399717
    17 0.000001 0.002045 -1.614274 -0.203457 1.313381 2.943859
    18 4.700062 0.000000 -0.000002 0.150190 -0.929977 -0.573257
    19 12.049927 0.000000 0.000001 0.000000 0.000000 -2.271043
    20 10.340311 0.000001 0.000000 1.384639 0.165640 -0.399132
    21 1.186625 0.034757 1.438863 -1.255648 0.090695 1.049465
    22 0.607803 0.000000 0.000000 0.000000 0.000000 0.000000
    23 1.063061 0.000001 0.000000 0.000000 0.000000 0.000000
    24 2.950419 0.002914 0.177525 0.003541 0.091227 0.180468
    25 1.294388 0.000000 -0.000001 0.000000 0.000000 0.027246
    26 1.183920 0.000001 0.000000 0.000000 0.000000 0.298841
    27 2.738953 3.890889 0.113747 3.097163 -1.570796 0.000000
    28 0.000000 -1.023687 -1.922726 0.000000 0.000000 0.000000
    29 0.000000 -0.558375 -1.804806 0.000000 -0.066763 0.000000
    30 0.000000 -0.325718 -1.929488 0.000000 0.032603 0.000000
    31 0.000000 0.046531 -1.430430 0.000000 0.000000 0.000000
    32 0.000000 0.000000 -1.347565 0.000000 0.016444 0.000000
    33 0.000000 -0.046531 -2.135521 0.000000 0.040760 0.000000
    34 0.000000 -0.279187 -2.151380 0.000000 -0.080107 0.000000
    35 -3.919383 -1.034562 3.291449 -0.133520 -3.073100 -0.206363
    36 19.302956 0.000000 0.000000 0.000000 0.000000 -0.572755
    37 15.657714 0.000000 0.000000 -0.025569 -0.043680 0.389413
    38 3.741828 7.474068 0.000000 0.000000 0.000000 1.570796
    39 -3.899851 -0.050139 -3.471140 -0.144715 3.117140 -0.044312
    40 19.302958 0.000000 0.000000 0.000000 0.000000 -0.380545
    41 15.657715 0.000000 0.000000 -0.002463 0.027603 0.297737
    42 3.741828 7.351521 0.000000 0.000000 0.000000 1.570796
    43 2.562340 0.000000 0.000000 0.066288 -0.016936 0.175687
    44 8.541129 0.000000 0.000000 0.000000 0.000000 0.000000
    45 -7.351523 1.350579 0.144448 0.000001 -3.141591 -1.570794
    46 4.991368 -0.677071 0.532282 1.237053 -2.969057 -0.819481
  time 14
    0 -0.229557 -2.845397 37.782178 0.000000 0.000000 -1.570888
    1 0.211863 0.027345 0.000000 -1.570795 -1.570451 0.000000
    2 3.928664 0.383633 0.000004 -0.129918 0.002851 -0.040061
    3 3.442969 -0.003536 0.000000 0.000000 0.000000 0.008727
    4 4.441442 -0.003536 0.000000 0.000000 0.000000 0.017453
    5 4.441389 -0.003537 0.000000 0.000000 0.000000 0.000000
    6 4.441391 -0.002040 0.000000 0.000000 0.000000 0.000000
    7 0.000001 0.002036 1.614274 -0.000014 -1.375291 3.140810
    8 5.073841 0.000000 0.000002 0.063917 0.964826 -0.199426
    9 12.011117 0.000000 -0.000001 0.000000 0.000000 -0.778515
    10 10.249307 0.000000 0.000000 -0.511489 -0.874157 -1.111056
    11 1.183836 0.259443 -1.427523 -0.000946 0.576483 -0.000491
    12 0.625233 0.000000 0.000000 0.000000 0.000000 0.000000
    13 1.041848 0.000000 0.000001 0.000000 0.000000 0.000000
    14 3.037806 -0.002122 -0.118180 0.002877 0.075640 0.145598
    15 1.172004 -0.000001 0.000000 0.000000 0.000000 0.176633
    16 1.160930 0.000000 0.000000 0.000000 0.000000 0.284143
    17 0.000001 0.002045 -1.614274 -0.290510 1.307934 2.859779
    18 4.700062 0.000000 -0.000002 0.212162 -0.919167 -0.605402
    19 12.049927 0.000000 0.000001 0.000000 0.000000 -2.113023
    20 10.340311 0.000001 0.000000 1.409520 0.042591 -0.379492
    21 1.186625 0.034757 1.438863 -1.255648 0.090695 1.049465
    22 0.607803 0.000000 0.000000 0.000000 0.000000 0.000000
    23 1.063061 0.000001 0.000000 0.000000 0.000000 0.000000
    24 2.950419 0.002914 0.177525 0.003541 0.091227 0.180468
    25 1.294388 0.000000 -0.000001 0.000000 0.000000 0.027246
    26 1.183920 0.000001 0.000000 0.000000 0.000000 0.298841
    27 2.738953 3.890889 0.113747 3.097163 -1.570796 0.000000
    28 0.000000 -1.023687 -1.922726 0.000000 0.000000 0.000000
    29 0.000000 -0.558375 -1.804806 0.000000 -0.071097 0.000000
    30 0.000000 -0.325718 -1.929488 0.000000 0.031417 0.000000
    31 0.000000 0.046531 -1.430430 0.000000 0.000000 0.000000
    32 0.000000 0.000000 -1.347565 0.000000 -0.003202 0.000000
    33 0.000000 -0.046531 -2.135521 0.000000 0.039274 0.000000
    34 0.000000 -0.279187 -2.151380 0.000000 -0.085325 0.000000
    35 -3.923289 -0.975967 3.307074 -0.113492 -3.066625 -0.281925
    36 19.302956 0.000000 0.000000 0.000000 0.000000 -0.650610
    37 15.657714 0.000000 0.000000 -0.060078 -0.043799 0.486293
    38 3.741828 7.474068 0.000000 0.000000 0.000000 1.570796
    39 -3.903757 -0.093109 -3.467234 -0.129680 3.116182 -0.042320
    40 19.302958 0.000000 0.000000 0.000000 0.000000 -0.409244
    41 15.657715 0.000000 0.000000 -0.002432 0.027723 0.330493
    42 3.741828 7.351521 0.000000 0.000000 0.000000 1.570796
    43 2.562340 0.000000 0.000000 0.078621 -0.027142 0.248159
    44 8.541129 0.000000 0.000000 0.000000 0.000000 0.000000
    45 -7.351523 1.350579 0.144448 0.000001 -3.141591 -1.570794
    46 4.991368 -0.677071 0.532282 1.237053 -2.969057 -0.819481
  time 15
    0 -0.229557 -3.469368 37.639385 0.000000 0.000000 -1.570888
    1 0.188425 0.027345 0.000000 -1.570795 -1.570451 0.000000
    2 3.928664 0.383633 0.000004 -0.112187 0.002779 -0.036982
    3 3.442969 -0.003536 0.000000 0.000000 0.000000 0.008727
    4 4.441442 -0.003536 0.000000 0.000000 0.000000 0.017453
    5 4.441389 -0.003537 0.000000 0.000000 0.000000 0.000000
    6 4.441391 -0.002040 0.000000 0.000000 0.000000 0.000000
    7 0.000001 0.002036 1.614274 -0.000014 -1.399537 3.140810
    8 5.073841 0.000000 0.000002 -0.057313 0.921408 -0.412793
    9 12.011117 0.000000 -0.000001 0.000000 0.000000 -0.882276
    10 10.249307 0.000000 0.000000 -0.330698 -0.880493 -1.302144
    11 1.183836 0.259443 -1.427523 -0.000946 0.588609 -0.000491
    12 0.625233 0.000000 0.000000 0.000000 0.000000 0.000000
    13 1.041848 0.000000 0.000001 0.000000 0.000000 0.000000
    14 3.037806 -0.002122 -0.118180 0.003001 0.077594 0.147365
    15 1.172004 -0.000001 0.000000 0.000000 0.000000 0.066668
    16 1.160930 0.000000 0.000000 0.000000 0.000000 0.192819
    17 0.000001 0.002045 -1.614274 -0.376029 1.300396 2.777232
    18 4.700062 0.000000 -0.000002 0.275081 -0.906013 -0.634188
    19 12.049927 0.000000 0.000001 0.000000 0.000000 -1.935336
    20 10.340311 0.000001 0.000000 1.432032 -0.108228 -0.357246
    21 1.186625 0.034757 1.438863 -1.255648 0.090695 1.049465
    22 0.607803 0.000000 0.000000 0.000000 0.000000 0.000000
    23 1.063061 0.000001 0.000000 0.000000 0.000000 0.000000
    24 2.950419 0.002914 0.177525 0.003541 0.091227 0.180468
    25 1.294388 0.000000 -0.000001 0.000000 0.000000 0.027246
    26 1.183920 0.000001 0.000000 0.000000 0.000000 0.298841
    27 2.738953 3.890889 0.113747 3.097163 -1.570796 0.000000
    28 0.000000 -1.023687 -1.922726 0.000000 0.000000 0.000000
    29 0.000000 -0.558375 -1.804806 0.000000 -0.075047 0.000000
    30 0.000000 -0.325718 -1.929488 0.000000 0.030015 0.000000
    31 0.000000 0.046531 -1.430430 0.000000 0.000000 0.000000
    32 0.000000 0.000000 -1.347565 0.000000 -0.023590 0.000000
    33 0.000000 -0.046531 -2.135521 0.000000 0.037524 0.000000
    34 0.000000 -0.279187 -2.151380 0.000000 -0.090052 0.000000
    35 -3.923289 -0.905652 3.326606 -0.094901 -3.069101 -0.305816
    36 19.302956 0.000000 0.000000 0.000000 0.000000 -0.672658
    37 15.657714 0.000000 0.000000 -0.076976 -0.042488 0.533711
    38 3.741828 7.474068 0.000000 0.000000 0.000000 1.570796
    39 -3.903757 -0.143891 -3.463328 -0.111868 3.115033 -0.038235
    40 19.302958 0.000000 0.000000 0.000000 0.000000 -0.434515
    41 15.657715 0.000000 0.000000 -0.002372 0.027844 0.362457
    42 3.741828 7.351521 0.000000 0.000000 0.000000 1.570796
    43 2.562340 0.000000 0.000000 0.085966 -0.034428 0.308934
    44 8.541129 0.000000 0.000000 0.000000 0.000000 0.000000
    45 -7.351523 1.350579 0.144448 0.000001 -3.141591 -1.570794
    46 4.991368 -0.677071 0.532282 1.237053 -2.969057 -0.819481
  time 16
    0 -0.229557 -4.112248 37.460894 0.000000 0.000000 -1.570888
    1 0.164986 0.023438 0.000000 -1.570795 -1.570451 0.000000
    2 3.928664 0.383633 0.000004 -0.092443 0.002636 -0.033470
    3 3.442969 -0.003536 0.000000 0.000000 0.000000 0.008727
    4 4.441442 -0.003536 0.000000 0.000000 0.000000 0.017453
    5 4.441389 -0.003537 0.000000 0.000000 0.000000 0.000000
    6 4.441391 -0.002040 0.000000 0.000000 0.000000 0.000000
    7 0.000001 0.002036 1.614274 -0.000014 -1.414454 3.140810
    8 5.073841 0.000000 0.000002 -0.126964 0.886277 -0.547768
    9 12.011117 0.000000 -0.000001 0.000000 0.000000 -0.941791
    10 10.249307 0.000000 0.000000 -0.247095 -0.867863 -1.384954
    11 1.183836 0.259443 -1.427523 -0.000946 0.593356 -0.000536
    12 0.625233 0.000000 0.000000 0.000000 0.000000 0.000000
    13 1.041848 0.000000 0.000001 0.000000 0.000000 0.000000
    14 3.037806 -0.002122 -0.118180 0.003088 0.078361 0.148532
    15 1.172004 -0.000001 0.000000 0.000000 0.000000 0.000000
    16 1.160930 0.000000 0.000000 0.000000 0.000000 0.148335
    17 0.000001 0.002045 -1.614274 -0.457233 1.290985 2.699095
    18 4.700062 0.000000 -0.000002 0.337344 -0.890214 -0.659696
    19 12.049927 0.000000 0.000001 0.000000 0.000000 -1.748081
    20 10.340311 0.000001 0.000000 1.456519 -0.271014 -0.334370
    21 1.186625 0.034757 1.438863 -1.255648 0.090695 1.049465
    22 0.607803 0.000000 0.000000 0.000000 0.000000 0.000000
    23 1.063061 0.000001 0.000000 0.000000 0.000000 0.000000
    24 2.950419 0.002914 0.177525 0.003541 0.091227 0.180468
    25 1.294388 0.000000 -0.000001 0.000000 0.000000 0.027246
    26 1.183920 0.000001 0.000000 0.000000 0.000000 0.298841
    27 2.738953 3.890889 0.113747 3.097163 -1.570796 0.000000
    28 0.000000 -1.023687 -1.922726 0.000000 0.000000 0.000000
    29 0.000000 -0.558375 -1.804806 0.000000 -0.078549 0.000000
    30 0.000000 -0.325718 -1.929488 0.000000 0.028428 0.000000
    31 0.000000 0.046531 -1.430430 0.000000 0.000000 0.000000
    32 0.000000 0.000000 -1.347565 0.000000 -0.043823 0.000000
    33 0.000000 -0.046531 -2.135521 0.000000 0.035546 0.000000
    34 0.000000 -0.279187 -2.151380 0.000000 -0.094260 0.000000
    35 -3.923289 -0.823618 3.346138 -0.077364 -3.076719 -0.290704
    36 19.302956 0.000000 0.000000 0.000000 0.000000 -0.603509
    37 15.657714 0.000000 0.000000 -0.060917 -0.043283 0.441881
    38 3.741828 7.474068 0.000000 0.000000 0.000000 1.570796
    39 -3.907663 -0.198581 -3.459421 -0.091854 3.113787 -0.032009
    40 19.302958 0.000000 0.000000 0.000000 0.000000 -0.455485
    41 15.657715 0.000000 0.000000 -0.002341 0.027940 0.392740
    42 3.741828 7.351521 0.000000 0.000000 0.000000 1.570796
    43 2.562340 0.000000 0.000000 0.085104 -0.036152 0.345874
    44 8.541129 0.000000 0.000000 0.000000 0.000000 0.000000
    45 -7.351523 1.350579 0.144448 0.000001 -3.141591 -1.570794
    46 4.991368 -0.677071 0.532282 1.237053 -2.969057 -0.819481
  time 17
    0 -0.229557 -4.755128 37.318101 0.000000 0.000000 -1.570888
    1 0.137642 0.019532 0.000000 -1.570795 -1.570451 0.000000
    2 3.928664 0.383633 0.000004 -0.071373 0.002408 -0.029753
    3 3.442969 -0.003536 0.000000 0.000000 0.000000 0.008727
    4 4.441442 -0.003536 0.000000 0.000000 0.000000 0.017453
    5 4.441389 -0.003537 0.000000 0.000000 0.000000 0.000000
    6 4.441391 -0.002040 0.000000 0.000000 0.000000 0.000000
    7 0.000001 0.002036 1.614274 -0.000014 -1.419896 3.140810
    8 5.073841 0.000000 0.000002 -0.156397 0.872269 -0.616639
    9 12.011117 0.000000 -0.000001 0.000000 0.000000 -0.944696
    10 10.249307 0.000000 0.000000 -0.217191 -0.861737 -1.412603
    11 1.183836 0.259443 -1.427523 -0.000946 0.589956 -0.000491
    12 0.625233 0.000000 0.000000 0.000000 0.000000 0.000000
    13 1.041848 0.000000 0.000001 0.000000 0.000000 0.000000
    14 3.037806 -0.002122 -0.118180 0.003126 0.077810 0.149032
    15 1.172004 -0.000001 0.000000 0.000000 0.000000 -0.017142
    16 1.160930 0.000000 0.000000 0.000000 0.000000 0.161396
    17 0.000001 0.002045 -1.614274 -0.532110 1.280090 2.627190
    18 4.700062 0.000000 -0.000002 0.397565 -0.871693 -0.682246
    19 12.049927 0.000000 0.000001 0.000000 0.000000 -1.561434
    20 10.340311 0.000001 0.000000 1.489234 -0.429921 -0.314011
    21 1.186625 0.034757 1.438863 -1.255648 0.090695 1.049465
    22 0.607803 0.000000 0.000000 0.000000 0.000000 0.000000
    23 1.063061 0.000001 0.000000 0.000000 0.000000 0.000000
    24 2.950419 0.002914 0.177525 0.003541 0.091227 0.180468
    25 1.294388 0.000000 -0.000001 0.000000 0.000000 0.027246
    26 1.183920 0.000001 0.000000 0.000000 0.000000 0.298841
    27 2.738953 3.890889 0.113747 3.097163 -1.570796 0.000000
    28 0.000000 -1.023687 -1.922726 0.000000 0.000000 0.000000
    29 0.000000 -0.558375 -1.804806 0.000000 -0.081529 0.000000
    30 0.000000 -0.325718 -1.929488 0.000000 0.026702 0.000000
    31 0.000000 0.046531 -1.430430 0.000000 0.000000 0.000000
    32 0.000000 0.000000 -1.347565 0.000000 -0.062994 0.000000
    33 0.000000 -0.046531 -2.135521 0.000000 0.033377 0.000000
    34 0.000000 -0.279187 -2.151380 0.000000 -0.097837 0.000000
    35 -3.927195 -0.741585 3.365670 -0.058964 -3.084908 -0.263770
    36 19.302956 0.000000 0.000000 0.000000 0.000000 -0.506048
    37 15.657714 0.000000 0.000000 -0.027401 -0.043322 0.287023
    38 3.741828 7.474068 0.000000 0.000000 0.000000 1.570796
    39 -3.907663 -0.257176 -3.451609 -0.070498 3.112733 -0.023691
    40 19.302958 0.000000 0.000000 0.000000 0.000000 -0.471817
    41 15.657715 0.000000 0.000000 -0.002280 0.028012 0.420504
    42 3.741828 7.351521 0.000000 0.000000 0.000000 1.570796
    43 2.562340 0.000000 0.000000 0.074948 -0.030674 0.342357
    44 8.541129 0.000000 0.000000 0.000000 0.000000 0.000000
    45 -7.351523 1.350579 0.144448 0.000001 -3.141591 -1.570794
    46 4.991368 -0.677071 0.532282 1.237053 -2.969057 -0.819481
  time 18
    0 -0.229557 -5.388554 37.175308 0.000000 0.000000 -1.570888
    1 0.110297 0.015625 0.000000 -1.570795 -1.570451 0.000000
    2 3.928664 0.383633 0.000004 -0.049750 0.002096 -0.026105
    3 3.442969 -0.003536 0.000000 0.000000 0.000000 0.008727
    4 4.441442 -0.003536 0.000000 0.000000 0.000000 0.017453
    5 4.441389 -0.003537 0.000000 0.000000 0.000000 0.000000
    6 4.441391 -0.002040 0.000000 0.000000 0.000000 0.000000
    7 0.000001 0.002036 1.614274 -0.000014 -1.422545 3.140810
    8 5.073841 0.000000 0.000002 -0.176685 0.867135 -0.669036
    9 12.011117 0.000000 -0.000001 0.000000 0.000000 -0.919371
    10 10.249307 0.000000 0.000000 -0.212231 -0.855950 -1.412103
    11 1.183836 0.259443 -1.427523 -0.000946 0.579819 -0.000491
    12 0.625233 0.000000 0.000000 0.000000 0.000000 0.000000
    13 1.041848 0.000000 0.000001 0.000000 0.000000 0.000000
    14 3.037806 -0.002122 -0.118180 0.003126 0.076168 0.149166
    15 1.172004 -0.000001 0.000000 0.000000 0.000000 -0.003269
    16 1.160930 0.000000 0.000000 0.000000 0.000000 0.216105
    17 0.000001 0.002045 -1.614274 -0.599413 1.268126 2.562955
    18 4.700062 0.000000 -0.000002 0.454433 -0.850602 -0.701916
    19 12.049927 0.000000 0.000001 0.000000 0.000000 -1.385494
    20 10.340311 0.000001 0.000000 1.538602 -0.569145 -0.301248
    21 1.186625 0.034757 1.438863 -1.255648 0.090695 1.049465
    22 0.607803 0.000000 0.000000 0.000000 0.000000 0.000000
    23 1.063061 0.000001 0.000000 0.000000 0.000000 0.000000
    24 2.950419 0.002914 0.177525 0.003541 0.091227 0.180468
    25 1.294388 0.000000 -0.000001 0.000000 0.000000 0.027246
    26 1.183920 0.000001 0.000000 0.000000 0.000000 0.298841
    27 2.738953 3.890889 0.113747 3.097163 -1.570796 0.000000
    28 0.000000 -1.023687 -1.922726 0.000000 0.000000 0.000000
    29 0.000000 -0.558375 -1.804806 0.000000 -0.083951 0.000000
    30 0.000000 -0.325718 -1.929488 0.000000 0.024822 0.000000
    31 0.000000 0.046531 -1.430430 0.000000 0.000000 0.000000
    32 0.000000 0.000000 -1.347565 0.000000 -0.080193 0.000000
    33 0.000000 -0.046531 -2.135521 0.000000 0.031040 0.000000
    34 0.000000 -0.279187 -2.151380 0.000000 -0.100741 0.000000
    35 -3.927195 -0.651738 3.381295 -0.038744 -3.091002 -0.253596
    36 19.302956 0.000000 0.000000 0.000000 0.000000 -0.459322
    37 15.657714 0.000000 0.000000 0.001610 -0.041275 0.177620
    38 3.741828 7.474068 0.000000 0.000000 0.000000 1.570796
    39 -3.911570 -0.311865 -3.443796 -0.048568 3.112062 -0.013580
    40 19.302958 0.000000 0.000000 0.000000 0.000000 -0.483378
    41 15.657715 0.000000 0.000000 -0.002250 0.028061 0.445188
    42 3.741828 7.351521 0.000000 0.000000 0.000000 1.570796
    43 2.562340 0.000000 0.000000 0.058263 -0.021330 0.305714
    44 8.541129 0.000000 0.000000 0.000000 0.000000 0.000000
    45 -7.351523 1.350579 0.144448 0.000001 -3.141591 -1.570794
    46 4.991368 -0.677071 0.532282 1.237053 -2.969057 -0.819481
  time 19
    0 -0.229557 -5.984163 37.032515 0.000000 0.000000 -1.570888
    1 0.086859 0.011719 0.000000 -1.570795 -1.570451 0.000000
    2 3.928664 0.383633 0.000004 -0.028260 0.001725 -0.022752
    3 3.442969 -0.003536 0.000000 0.000000 0.000000 0.008727
    4 4.441442 -0.003536 0.000000 0.000000 0.000000 0.017453
    5 4.441389 -0.003537 0.000000 0.000000 0.000000 0.000000
    6 4.441391 -0.002040 0.000000 0.000000 0.000000 0.000000
    7 0.000001 0.002036 1.614274 -0.000014 -1.422885 3.140810
    8 5.073841 0.000000 0.000002 -0.188472 0.867795 -0.706105
    9 12.011117 0.000000 -0.000001 0.000000 0.000000 -0.882946
    10 10.249307 0.000000 0.000000 -0.230418 -0.850459 -1.385591
    11 1.183836 0.259443 -1.427523 -0.000906 0.564422 -0.000491
    12 0.625233 0.000000 0.000000 0.000000 0.000000 0.000000
    13 1.041848 0.000000 0.000001 0.000000 0.000000 0.000000
    14 3.037806 -0.002122 -0.118180 0.003126 0.073663 0.149066
    15 1.172004 -0.000001 0.000000 0.000000 0.000000 0.029115
    16 1.160930 0.000000 0.000000 0.000000 0.000000 0.295117
    17 0.000001 0.002045 -1.614274 -0.662306 1.254800 2.502938
    18 4.700062 0.000000 -0.000002 0.507801 -0.827772 -0.717989
    19 12.049927 0.000000 0.000001 0.000000 0.000000 -1.211451
    20 10.340311 0.000001 0.000000 1.700661 -0.680103 -0.307675
    21 1.186625 0.034757 1.438863 -1.255648 0.090695 1.049465
    22 0.607803 0.000000 0.000000 0.000000 0.000000 0.000000
    23 1.063061 0.000001 0.000000 0.000000 0.000000 0.000000
    24 2.950419 0.002914 0.177525 0.003541 0.091227 0.180468
    25 1.294388 0.000000 -0.000001 0.000000 0.000000 0.027246
    26 1.183920 0.000001 0.000000 0.000000 0.000000 0.298841
    27 2.738953 3.890889 0.113747 3.097163 -1.570796 0.000000
    28 0.000000 -1.023687 -1.922726 0.000000 0.000000 0.000000
    29 0.000000 -0.558375 -1.804806 0.000000 -0.085752 0.000000
    30 0.000000 -0.325718 -1.929488 0.000000 0.022835 0.000000
    31 0.000000 0.046531 -1.430430 0.000000 0.000000 0.000000
    32 0.000000 0.000000 -1.347565 0.000000 -0.094554 0.000000
    33 0.000000 -0.046531 -2.135521 0.000000 0.028547 0.000000
    34 0.000000 -0.279187 -2.151380 0.000000 -0.102901 0.000000
    35 -3.927195 -0.565798 3.396921 -0.017661 -3.095668 -0.260329
    36 19.302956 0.000000 0.000000 0.000000 0.000000 -0.501851
    37 15.657714 0.000000 0.000000 0.001610 -0.041593 0.217775
    38 3.741828 7.474068 0.000000 0.000000 0.000000 1.570796
    39 -3.915476 -0.374367 -3.432077 -0.026639 3.111775 -0.001975
    40 19.302958 0.000000 0.000000 0.000000 0.000000 -0.490233
    41 15.657715 0.000000 0.000000 -0.002219 0.028085 0.466280
    42 3.741828 7.351521 0.000000 0.000000 0.000000 1.570796
    43 2.562340 0.000000 0.000000 0.038131 -0.012292 0.259892
    44 8.541129 0.000000 0.000000 0.000000 0.000000 0.000000
    45 -7.351523 1.350579 0.144448 0.000001 -3.141591 -1.570794
    46 4.991368 -0.677071 0.532282 1.237053 -2.969057 -0.819481
  time 20
    0 -0.229557 -6.523047 36.925421 0.000000 0.000000 -1.570888
    1 0.067327 0.007813 0.000000 -1.570795 -1.570451 0.000000
    2 3.928664 0.383633 0.000004 -0.007632 0.001317 -0.019925
    3 3.442969 -0.003536 0.000000 0.000000 0.000000 0.008727
    4 4.441442 -0.003536 0.000000 0.000000 0.000000 0.017453
    5 4.441389 -0.003537 0.000000 0.000000 0.000000 0.000000
    6 4.441391 -0.002040 0.000000 0.000000 0.000000 0.000000
    7 0.000001 0.002036 1.614274 -0.000014 -1.421330 3.140810
    8 5.073841 0.000000 0.000002 -0.191544 0.871022 -0.727914
    9 12.011117 0.000000 -0.000001 0.000000 0.000000 -0.852630
    10 10.249307 0.000000 0.000000 -0.270098 -0.844080 -1.335204
    11 1.183836 0.259443 -1.427523 -0.000906 0.545047 -0.000446
    12 0.625233 0.000000 0.000000 0.000000 0.000000 0.000000
    13 1.041848 0.000000 0.000001 0.000000 0.000000 0.000000
    14 3.037806 -0.002122 -0.118180 0.003101 0.070523 0.148832
    15 1.172004 -0.000001 0.000000 0.000000 0.000000 0.067640
    16 1.160930 0.000000 0.000000 0.000000 0.000000 0.380981
    17 0.000001 0.002045 -1.614274 -0.705257 1.244319 2.462192
    18 4.700062 0.000000 -0.000002 0.557889 -0.801691 -0.738779
    19 12.049927 0.000000 0.000001 0.000000 0.000000 -1.061557
    20 10.340311 0.000001 0.000000 1.880955 -0.737377 -0.328977
    21 1.186625 0.034757 1.438863 -1.255648 0.090695 1.049465
    22 0.607803 0.000000 0.000000 0.000000 0.000000 0.000000
    23 1.063061 0.000001 0.000000 0.000000 0.000000 0.000000
    24 2.950419 0.002914 0.177525 0.003541 0.091227 0.180468
    25 1.294388 0.000000 -0.000001 0.000000 0.000000 0.027246
    26 1.183920 0.000001 0.000000 0.000000 0.000000 0.298841
    27 2.738953 3.890889 0.113747 3.097163 -1.570796 0.000000
    28 0.000000 -1.023687 -1.922726 0.000000 0.000000 0.000000
    29 0.000000 -0.558375 -1.804806 0.000000 -0.086882 0.000000
    30 0.000000 -0.325718 -1.929488 0.000000 0.020755 0.000000
    31 0.000000 0.046531 -1.430430 0.000000 0.000000 0.000000
    32 0.000000 0.000000 -1.347565 0.000000 -0.105153 0.000000
    33 0.000000 -0.046531 -2.135521 0.000000 0.025959 0.000000
    34 0.000000 -0.279187 -2.151380 0.000000 -0.104248 0.000000
    35 -3.927195 -0.487671 3.408640 0.002367 -3.100239 -0.263172
    36 19.302956 0.000000 0.000000 0.000000 0.000000 -0.534297
    37 15.657714 0.000000 0.000000 0.001579 -0.041891 0.251001
    38 3.741828 7.474068 0.000000 0.000000 0.000000 1.570796
    39 -3.919383 -0.432963 -3.424264 -0.005666 3.112158 0.010577
    40 19.302958 0.000000 0.000000 0.000000 0.000000 -0.492451
    41 15.657715 0.000000 0.000000 -0.002189 0.028061 0.483265
    42 3.741828 7.351521 0.000000 0.000000 0.000000 1.570796
    43 2.562340 0.000000 0.000000 0.018680 -0.005673 0.229023
    44 8.541129 0.000000 0.000000 0.000000 0.000000 0.000000
    45 -7.351523 1.350579 0.144448 0.000001 -3.141591 -1.570794
    46 4.991368 -0.677071 0.532282 1.237053 -2.969057 -0.819481
  time 21
    0 -0.229557 -7.061932 36.818326 0.000000 0.000000 -1.570888
    1 0.047795 0.000000 0.000000 -1.570795 -1.570451 0.000000
    2 3.928664 0.383633 0.000004 0.037648 0.000466 -0.016937
    3 3.442969 -0.003536 0.000000 0.000000 0.000000 0.008727
    4 4.441442 -0.003536 0.000000 0.000000 0.000000 0.017453
    5 4.441389 -0.003537 0.000000 0.000000 0.000000 0.000000
    6 4.441391 -0.002040 0.000000 0.000000 0.000000 0.000000
    7 0.000001 0.002036 1.614274 -0.000014 -1.418366 3.140810
    8 5.073841 0.000000 0.000002 -0.180971 0.874323 -0.757083
    9 12.011117 0.000000 -0.000001 0.000000 0.000000 -0.845479
    10 10.249307 0.000000 0.000000 -0.329404 -0.834787 -1.263444
    11 1.183836 0.259443 -1.427523 -0.000906 0.523170 -0.000446
    12 0.625233 0.000000 0.000000 0.000000 0.000000 0.000000
    13 1.041848 0.000000 0.000001 0.000000 0.000000 0.000000
    14 3.037806 -0.002122 -0.118180 0.003088 0.066976 0.148599
    15 1.172004 -0.000001 0.000000 0.000000 0.000000 0.099892
    16 1.160930 0.000000 0.000000 0.000000 0.000000 0.456246
    17 0.000001 0.002045 -1.614274 -0.718584 1.240792 2.449633
    18 4.700062 0.000000 -0.000002 0.629994 -0.756031 -0.775882
    19 12.049927 0.000000 0.000001 0.000000 0.000000 -0.933379
    20 10.340311 0.000001 0.000000 1.931968 -0.714971 -0.329292
    21 1.186625 0.034757 1.438863 -1.255648 0.090695 1.049465
    22 0.607803 0.000000 0.000000 0.000000 0.000000 0.000000
    23 1.063061 0.000001 0.000000 0.000000 0.000000 0.000000
    24 2.950419 0.002914 0.177525 0.003541 0.091227 0.180468
    25 1.294388 0.000000 -0.000001 0.000000 0.000000 0.027246
    26 1.183920 0.000001 0.000000 0.000000 0.000000 0.298841
    27 2.738953 3.890889 0.113747 3.097163 -1.570796 0.000000
    28 0.000000 -1.023687 -1.922726 0.000000 0.000000 0.000000
    29 0.000000 -0.558375 -1.804806 0.000000 -0.087267 0.000000
    30 0.000000 -0.325718 -1.929488 0.000000 0.018613 0.000000
    31 0.000000 0.046531 -1.430430 0.000000 0.000000 0.000000
    32 0.000000 0.000000 -1.347565 0.000000 -0.111096 0.000000
    33 0.000000 -0.046531 -2.135521 0.000000 0.023274 0.000000
    34 0.000000 -0.279187 -2.151380 0.000000 -0.104710 0.000000
    35 -3.923289 -0.319697 3.428172 0.046354 -3.110809 -0.265017
    36 19.302956 0.000000 0.000000 0.000000 0.000000 -0.562232
    37 15.657714 0.000000 0.000000 0.001579 -0.042329 0.281722
    38 3.741828 7.474068 0.000000 0.000000 0.000000 1.570796
    39 -3.923289 -0.577498 -3.400826 0.040013 3.114170 0.024623
    40 19.302958 0.000000 0.000000 0.000000 0.000000 -0.491981
    41 15.657715 0.000000 0.000000 -0.002189 0.027916 0.498570
    42 3.741828 7.351521 0.000000 0.000000 0.000000 1.570796
    43 2.562340 0.000000 0.000000 -0.025255 0.006869 0.241755
    44 8.541129 0.000000 0.000000 0.000000 0.000000 0.000000
    45 -7.351523 1.350579 0.144448 0.000001 -3.141591 -1.570794
    46 4.991368 -0.677071 0.532282 1.237053 -2.969057 -0.819481
  time 22
    0 -0.229557 -7.052478 36.711231 0.000000 0.000000 -1.570888
    1 0.020451 -0.007813 0.000000 -1.570795 -1.570451 0.000000
    2 3.928664 0.383633 0.000004 0.073355 -0.000361 -0.013311
    3 3.442969 -0.003536 0.000000 0.000000 0.000000 0.008727
    4 4.441442 -0.003536 0.000000 0.000000 0.000000 0.017453
    5 4.441389 -0.003537 0.000000 0.000000 0.000000 0.000000
    6 4.441391 -0.002040 0.000000 0.000000 0.000000 0.000000
    7 0.000001 0.002036 1.614274 -0.000014 -1.414454 3.140810
    8 5.073841 0.000000 0.000002 -0.164326 0.870876 -0.766739
    9 12.011117 0.000000 -0.000001 0.000000 0.000000 -0.878775
    10 10.249307 0.000000 0.000000 -0.405530 -0.819959 -1.173357
    11 1.183836 0.259443 -1.427523 -0.000906 0.500203 -0.000401
    12 0.625233 0.000000 0.000000 0.000000 0.000000 0.000000
    13 1.041848 0.000000 0.000001 0.000000 0.000000 0.000000
    14 3.037806 -0.002122 -0.118180 0.003076 0.063248 0.148465
    15 1.172004 -0.000001 0.000000 0.000000 0.000000 0.113411
    16 1.160930 0.000000 0.000000 0.000000 0.000000 0.503514
    17 0.000001 0.002045 -1.614274 -0.705257 1.244319 2.462192
    18 4.700062 0.000000 -0.000002 0.658647 -0.724886 -0.779640
    19 12.049927 0.000000 0.000001 0.000000 0.000000 -0.909384
    20 10.340311 0.000001 0.000000 1.859430 -0.654024 -0.295360
    21 1.186625 0.034757 1.438863 -1.255648 0.090695 1.049465
    22 0.607803 0.000000 0.000000 0.000000 0.000000 0.000000
    23 1.063061 0.000001 0.000000 0.000000 0.000000 0.000000
    24 2.950419 0.002914 0.177525 0.003541 0.091227 0.180468
    25 1.294388 0.000000 -0.000001 0.000000 0.000000 0.027246
    26 1.183920 0.000001 0.000000 0.000000 0.000000 0.298841
    27 2.738953 3.890889 0.113747 3.097163 -1.570796 0.000000
    28 0.000000 -1.023687 -1.922726 0.000000 0.000000 0.000000
    29 0.000000 -0.558375 -1.804806 0.000000 -0.085230 0.000000
    30 0.000000 -0.325718 -1.929488 0.000000 0.016425 0.000000
    31 0.000000 0.046531 -1.430430 0.000000 0.000000 0.000000
    32 0.000000 0.000000 -1.347565 0.000000 -0.111138 0.000000
    33 0.000000 -0.046531 -2.135521 0.000000 0.020542 0.000000
    34 0.000000 -0.279187 -2.151380 0.000000 -0.102270 0.000000
    35 -3.923289 -0.186880 3.439891 0.081332 -3.120046 -0.280280
    36 19.302956 0.000000 0.000000 0.000000 0.000000 -0.583591
    37 15.657714 0.000000 0.000000 0.001579 -0.042726 0.292407
    38 3.741828 7.474068 0.000000 0.000000 0.000000 1.570796
    39 -3.927195 -0.682970 -3.377388 0.075446 3.114937 0.010029
    40 19.302958 0.000000 0.000000 0.000000 0.000000 -0.517857
    41 15.657715 0.000000 0.000000 -0.002219 0.027747 0.512568
    42 3.741828 7.351521 0.000000 0.000000 0.000000 1.570796
    43 2.562340 0.000000 0.000000 -0.061437 0.017937 0.249269
    44 8.541129 0.000000 0.000000 0.000000 0.000000 0.000000
    45 -7.351523 1.350579 0.144448 0.000001 -3.141591 -1.570794
    46 4.991368 -0.677071 0.532282 1.237053 -2.969057 -0.819481
  time 23
    0 -0.229557 -6.409598 36.639835 0.000000 0.000000 -1.570888
    1 -0.006894 -0.007813 0.000000 -1.570795 -1.570451 0.000000
    2 3.928664 0.383633 0.000004 0.071785 -0.000600 -0.009480
    3 3.442969 -0.003536 0.000000 0.000000 0.000000 0.008727
    4 4.441442 -0.003536 0.000000 0.000000 0.000000 0.017453
    5 4.441389 -0.003537 0.000000 0.000000 0.000000 0.000000
    6 4.441391 -0.002040 0.000000 0.000000 0.000000 0.000000
    7 0.000001 0.002036 1.614274 -0.000014 -1.408356 3.140810
    8 5.073841 0.000000 0.000002 -0.130179 0.845279 -0.716166
    9 12.011117 0.000000 -0.000001 0.000000 0.000000 -1.029314
    10 10.249307 0.000000 0.000000 -0.512567 -0.792290 -1.048936
    11 1.183836 0.259443 -1.427523 -0.000866 0.475823 -0.000401
    12 0.625233 0.000000 0.000000 0.000000 0.000000 0.000000
    13 1.041848 0.000000 0.000001 0.000000 0.000000 0.000000
    14 3.037806 -0.002122 -0.118180 0.003076 0.059293 0.148465
    15 1.172004 -0.000001 0.000000 0.000000 0.000000 0.110098
    16 1.160930 0.000000 0.000000 0.000000 0.000000 0.525355
    17 0.000001 0.002045 -1.614274 -0.672469 1.252441 2.493351
    18 4.700062 0.000000 -0.000002 0.603966 -0.723147 -0.729743
    19 12.049927 0.000000 0.000001 0.000000 0.000000 -1.077275
    20 10.340311 0.000001 0.000000 1.644842 -0.586228 -0.239048
    21 1.186625 0.034757 1.438863 -1.255648 0.090695 1.049465
    22 0.607803 0.000000 0.000000 0.000000 0.000000 0.000000
    23 1.063061 0.000001 0.000000 0.000000 0.000000 0.000000
    24 2.950419 0.002914 0.177525 0.003541 0.091227 0.180468
    25 1.294388 0.000000 -0.000001 0.000000 0.000000 0.027246
    26 1.183920 0.000001 0.000000 0.000000 0.000000 0.298841
    27 2.738953 3.890889 0.113747 3.097163 -1.570796 0.000000
    28 0.000000 -1.023687 -1.922726 0.000000 0.000000 0.000000
    29 0.000000 -0.558375 -1.804806 0.000000 -0.079604 0.000000
    30 0.000000 -0.325718 -1.929488 0.000000 0.014206 0.000000
    31 0.000000 0.046531 -1.430430 0.000000 0.000000 0.000000
    32 0.000000 0.000000 -1.347565 0.000000 -0.105363 0.000000
    33 0.000000 -0.046531 -2.135521 0.000000 0.017773 0.000000
    34 0.000000 -0.279187 -2.151380 0.000000 -0.095523 0.000000
    35 -3.923289 -0.175161 3.439891 0.080374 -3.121379 -0.307612
    36 19.302956 0.000000 0.000000 0.000000 0.000000 -0.591733
    37 15.657714 0.000000 0.000000 0.001579 -0.042826 0.276963
    38 3.741828 7.474068 0.000000 0.000000 0.000000 1.570796
    39 -3.927195 -0.663439 -3.377388 0.072764 3.111967 -0.032806
    40 19.302958 0.000000 0.000000 0.000000 0.000000 -0.563292
    41 15.657715 0.000000 0.000000 -0.002250 0.027723 0.518961
    42 3.741828 7.351521 0.000000 0.000000 0.000000 1.570796
    43 2.562340 0.000000 0.000000 -0.062797 0.015963 0.213995
    44 8.541129 0.000000 0.000000 0.000000 0.000000 0.000000
    45 -7.351523 1.350579 0.144448 0.000001 -3.141591 -1.570794
    46 4.991368 -0.677071 0.532282 1.237053 -2.969057 -0.819481
  time 24
    0 -0.229557 -5.681631 36.639835 0.000000 0.000000 -1.570888
    1 -0.034238 -0.007813 0.000000 -1.570795 -1.570451 0.000000
    2 3.928664 0.383633 0.000004 0.066191 -0.000732 -0.005581
    3 3.442969 -0.003536 0.000000 0.000000 0.000000 0.008727
    4 4.441442 -0.003536 0.000000 0.000000 0.000000 0.017453
    5 4.441389 -0.003537 0.000000 0.000000 0.000000 0.000000
    6 4.441391 -0.002040 0.000000 0.000000 0.000000 0.000000
    7 0.000001 0.002036 1.614274 -0.000014 -1.398857 3.140810
    8 5.073841 0.000000 0.000002 -0.076172 0.803988 -0.632439
    9 12.011117 0.000000 -0.000001 0.000000 0.000000 -1.275645
    10 10.249307 0.000000 0.000000 -0.651090 -0.740628 -0.887817
    11 1.183836 0.259443 -1.427523 -0.000866 0.449135 -0.000356
    12 0.625233 0.000000 0.000000 0.000000 0.000000 0.000000
    13 1.041848 0.000000 0.000001 0.000000 0.000000 0.000000
    14 3.037806 -0.002122 -0.118180 0.003076 0.054967 0.148465
    15 1.172004 -0.000001 0.000000 0.000000 0.000000 0.100996
    16 1.160930 0.000000 0.000000 0.000000 0.000000 0.537507
    17 0.000001 0.002045 -1.614274 -0.630572 1.261803 2.533139
    18 4.700062 0.000000 -0.000002 0.522674 -0.720501 -0.657137
    19 12.049927 0.000000 0.000001 0.000000 0.000000 -1.324974
    20 10.340311 0.000001 0.000000 1.381676 -0.500853 -0.197341
    21 1.186625 0.034757 1.438863 -1.255648 0.090695 1.049465
    22 0.607803 0.000000 0.000000 0.000000 0.000000 0.000000
    23 1.063061 0.000001 0.000000 0.000000 0.000000 0.000000
    24 2.950419 0.002914 0.177525 0.003541 0.091227 0.180468
    25 1.294388 0.000000 -0.000001 0.000000 0.000000 0.027246
    26 1.183920 0.000001 0.000000 0.000000 0.000000 0.298841
    27 2.738953 3.890889 0.113747 3.097163 -1.570796 0.000000
    28 0.000000 -1.023687 -1.922726 0.000000 0.000000 0.000000
    29 0.000000 -0.558375 -1.804806 0.000000 -0.071097 0.000000
    30 0.000000 -0.325718 -1.929488 0.000000 0.012003 0.000000
    31 0.000000 0.046531 -1.430430 0.000000 0.000000 0.000000
    32 0.000000 0.000000 -1.347565 0.000000 -0.094959 0.000000
    33 0.000000 -0.046531 -2.135521 0.000000 0.015005 0.000000
    34 0.000000 -0.279187 -2.151380 0.000000 -0.085325 0.000000
    35 -3.927195 -0.179067 3.435984 0.075390 -3.121284 -0.329607
    36 19.302956 0.000000 0.000000 0.000000 0.000000 -0.582213
    37 15.657714 0.000000 0.000000 0.001579 -0.042806 0.249206
    38 3.741828 7.474068 0.000000 0.000000 0.000000 1.570796
    39 -3.931102 -0.628281 -3.381294 0.066156 3.109763 -0.071956
    40 19.302958 0.000000 0.000000 0.000000 0.000000 -0.592932
    41 15.657715 0.000000 0.000000 -0.002311 0.027651 0.513408
    42 3.741828 7.351521 0.000000 0.000000 0.000000 1.570796
    43 2.562340 0.000000 0.000000 -0.060666 0.012403 0.166026
    44 8.541129 0.000000 0.000000 0.000000 0.000000 0.000000
    45 -7.351523 1.350579 0.144448 0.000001 -3.141591 -1.570794
    46 4.991368 -0.677071 0.532282 1.237053 -2.969057 -0.819481
  time 25
    0 -0.229557 -4.896940 36.746929 0.000000 0.000000 -1.570888
    1 -0.061583 -0.007813 0.000000 -1.570795 -1.570451 0.000000
    2 3.928664 0.383633 0.000004 0.057480 -0.000780 -0.001635
    3 3.442969 -0.003536 0.000000 0.000000 0.000000 0.008727
    4 4.441442 -0.003536 0.000000 0.000000 0.000000 0.017453
    5 4.441389 -0.003537 0.000000 0.000000 0.000000 0.000000
    6 4.441391 -0.002040 0.000000 0.000000 0.000000 0.000000
    7 0.000001 0.002036 1.614274 -0.000014 -1.386612 3.140810
    8 5.073841 0.000000 0.000002 -0.029095 0.771131 -0.537032
    9 12.011117 0.000000 -0.000001 0.000000 0.000000 -1.487264
    10 10.249307 0.000000 0.000000 -0.797161 -0.659141 -0.715283
    11 1.183836 0.259443 -1.427523 -0.000866 0.420650 -0.000311
    12 0.625233 0.000000 0.000000 0.000000 0.000000 0.000000
    13 1.041848 0.000000 0.000001 0.000000 0.000000 0.000000
    14 3.037806 -0.002122 -0.118180 0.003076 0.050353 0.148432
    15 1.172004 -0.000001 0.000000 0.000000 0.000000 0.087521
    16 1.160930 0.000000 0.000000 0.000000 0.000000 0.542217
    17 0.000001 0.002045 -1.614274 -0.576116 1.272503 2.585102
    18 4.700062 0.000000 -0.000002 0.437154 -0.731312 -0.575416
    19 12.049927 0.000000 0.000001 0.000000 0.000000 -1.536907
    20 10.340311 0.000001 0.000000 1.158532 -0.406730 -0.178600
    21 1.186625 0.034757 1.438863 -1.255648 0.090695 1.049465
    22 0.607803 0.000000 0.000000 0.000000 0.000000 0.000000
    23 1.063061 0.000001 0.000000 0.000000 0.000000 0.000000
    24 2.950419 0.002914 0.177525 0.003541 0.091227 0.180468
    25 1.294388 0.000000 -0.000001 0.000000 0.000000 0.027246
    26 1.183920 0.000001 0.000000 0.000000 0.000000 0.298841
    27 2.738953 3.890889 0.113747 3.097163 -1.570796 0.000000
    28 0.000000 -1.023687 -1.922726 0.000000 0.000000 0.000000
    29 0.000000 -0.558375 -1.804806 0.000000 -0.060442 0.000000
    30 0.000000 -0.325718 -1.929488 0.000000 0.009815 0.000000
    31 0.000000 0.046531 -1.430430 0.000000 0.000000 0.000000
    32 0.000000 0.000000 -1.347565 0.000000 -0.081060 0.000000
    33 0.000000 -0.046531 -2.135521 0.000000 0.012272 0.000000
    34 0.000000 -0.279187 -2.151380 0.000000 -0.072533 0.000000
    35 -3.927195 -0.194693 3.435984 0.067532 -3.118999 -0.347114
    36 19.302956 0.000000 0.000000 0.000000 0.000000 -0.730470
    37 15.657714 0.000000 0.000000 -0.113535 -0.038851 0.409574
    38 3.741828 7.474068 0.000000 0.000000 0.000000 1.570796
    39 -3.931102 -0.585311 -3.385200 0.056676 3.108709 -0.104431
    40 19.302958 0.000000 0.000000 0.000000 0.000000 -0.600997
    41 15.657715 0.000000 0.000000 -0.002372 0.027530 0.493204
    42 3.741828 7.351521 0.000000 0.000000 0.000000 1.570796
    43 2.562340 0.000000 0.000000 -0.055044 0.008621 0.117317
    44 8.541129 0.000000 0.000000 0.000000 0.000000 0.000000
    45 -7.351523 1.350579 0.144448 0.000001 -3.141591 -1.570794
    46 4.991368 -0.677071 0.532282 1.237053 -2.969057 -0.819481
  time 26
    0 -0.229557 -4.055523 36.961119 0.000000 0.000000 -1.570888
    1 -0.088928 -0.007813 0.000000 -1.570795 -1.570451 0.000000
    2 3.928664 0.383633 0.000004 0.046602 -0.000720 0.002355
    3 3.442969 -0.003536 0.000000 0.000000 0.000000 0.008727
    4 4.441442 -0.003536 0.000000 0.000000 0.000000 0.017453
    5 4.441389 -0.003537 0.000000 0.000000 0.000000 0.000000
    6 4.441391 -0.002040 0.000000 0.000000 0.000000 0.000000
    7 0.000001 0.002036 1.614274 -0.000014 -1.372229 3.140810
    8 5.073841 0.000000 0.000002 -0.004306 0.774138 -0.441219
    9 12.011117 0.000000 -0.000001 0.000000 0.000000 -1.533893
    10 10.249307 0.000000 0.000000 -0.931443 -0.548339 -0.551390
    11 1.183836 0.259443 -1.427523 -0.000826 0.391010 -0.000311
    12 0.625233 0.000000 0.000000 0.000000 0.000000 0.000000
    13 1.041848 0.000000 0.000001 0.000000 0.000000 0.000000
    14 3.037806 -0.002122 -0.118180 0.003076 0.045547 0.148432
    15 1.172004 -0.000001 0.000000 0.000000 0.000000 0.070865
    16 1.160930 0.000000 0.000000 0.000000 0.000000 0.541735
    17 0.000001 0.002045 -1.614274 -0.504595 1.284370 2.653651
    18 4.700062 0.000000 -0.000002 0.361622 -0.774401 -0.490895
    19 12.049927 0.000000 0.000001 0.000000 0.000000 -1.597275
    20 10.340311 0.000001 0.000000 1.053278 -0.317435 -0.169522
    21 1.186625 0.034757 1.438863 -1.255648 0.090695 1.049465
    22 0.607803 0.000000 0.000000 0.000000 0.000000 0.000000
    23 1.063061 0.000001 0.000000 0.000000 0.000000 0.000000
    24 2.950419 0.002914 0.177525 0.003541 0.091227 0.180468
    25 1.294388 0.000000 -0.000001 0.000000 0.000000 0.027246
    26 1.183920 0.000001 0.000000 0.000000 0.000000 0.298841
    27 2.738953 3.890889 0.113747 3.097163 -1.570796 0.000000
    28 0.000000 -1.023687 -1.922726 0.000000 0.000000 0.000000
    29 0.000000 -0.558375 -1.804806 0.000000 -0.048359 0.000000
    30 0.000000 -0.325718 -1.929488 0.000000 0.007673 0.000000
    31 0.000000 0.046531 -1.430430 0.000000 0.000000 0.000000
    32 0.000000 0.000000 -1.347565 0.000000 -0.064854 0.000000
    33 0.000000 -0.046531 -2.135521 0.000000 0.009588 0.000000
    34 0.000000 -0.279187 -2.151380 0.000000 -0.058029 0.000000
    35 -3.927195 -0.218131 3.432078 0.055745 -3.113095 -0.299083
    36 19.302956 0.000000 0.000000 0.000000 0.000000 -0.659317
    37 15.657714 0.000000 0.000000 -0.112448 -0.034101 0.435203
    38 3.741828 7.474068 0.000000 0.000000 0.000000 1.570796
    39 -3.935008 -0.530622 -3.393013 0.045280 3.108996 -0.126198
    40 19.302958 0.000000 0.000000 0.000000 0.000000 -0.580364
    41 15.657715 0.000000 0.000000 -0.002432 0.027314 0.455081
    42 3.741828 7.351521 0.000000 0.000000 0.000000 1.570796
    43 2.562340 0.000000 0.000000 -0.046247 0.005645 0.079711
    44 8.541129 0.000000 0.000000 0.000000 0.000000 0.000000
    45 -7.351523 1.350579 0.144448 0.000001 -3.141591 -1.570794
    46 4.991368 -0.677071 0.532282 1.237053 -2.969057 -0.819481
  time 27
    0 -0.229557 -3.185745 37.318101 0.000000 0.000000 -1.570888
    1 -0.120178 -0.003906 0.000000 -1.570795 -1.570451 0.000000
    2 3.928664 0.383633 0.000004 0.034464 -0.000600 0.006323
    3 3.442969 -0.003536 0.000000 0.000000 0.000000 0.008727
    4 4.441442 -0.003536 0.000000 0.000000 0.000000 0.017453
    5 4.441389 -0.003537 0.000000 0.000000 0.000000 0.000000
    6 4.441391 -0.002040 0.000000 0.000000 0.000000 0.000000
    7 0.000001 0.002036 1.614274 -0.000014 -1.354907 3.140810
    8 5.073841 0.000000 0.000002 0.000266 0.830538 -0.338250
    9 12.011117 0.000000 -0.000001 0.000000 0.000000 -1.348121
    10 10.249307 0.000000 0.000000 -1.052785 -0.402686 -0.395545
    11 1.183836 0.259443 -1.427523 -0.000826 0.360600 -0.000266
    12 0.625233 0.000000 0.000000 0.000000 0.000000 0.000000
    13 1.041848 0.000000 0.000001 0.000000 0.000000 0.000000
    14 3.037806 -0.002122 -0.118180 0.003076 0.040621 0.148399
    15 1.172004 -0.000001 0.000000 0.000000 0.000000 0.052486
    16 1.160930 0.000000 0.000000 0.000000 0.000000 0.538256
    17 0.000001 0.002045 -1.614274 -0.407379 1.297040 2.747128
    18 4.700062 0.000000 -0.000002 0.285434 -0.865192 -0.387344
    19 12.049927 0.000000 0.000001 0.000000 0.000000 -1.444267
    20 10.340311 0.000001 0.000000 1.102318 -0.238374 -0.145793
    21 1.186625 0.034757 1.438863 -1.255648 0.090695 1.049465
    22 0.607803 0.000000 0.000000 0.000000 0.000000 0.000000
    23 1.063061 0.000001 0.000000 0.000000 0.000000 0.000000
    24 2.950419 0.002914 0.177525 0.003541 0.091227 0.180468
    25 1.294388 0.000000 -0.000001 0.000000 0.000000 0.027246
    26 1.183920 0.000001 0.000000 0.000000 0.000000 0.298841
    27 2.738953 3.890889 0.113747 3.097163 -1.570796 0.000000
    28 0.000000 -1.023687 -1.922726 0.000000 0.000000 0.000000
    29 0.000000 -0.558375 -1.804806 0.000000 -0.035543 0.000000
    30 0.000000 -0.325718 -1.929488 0.000000 0.005593 0.000000
    31 0.000000 0.046531 -1.430430 0.000000 0.000000 0.000000
    32 0.000000 0.000000 -1.347565 0.000000 -0.047473 0.000000
    33 0.000000 -0.046531 -2.135521 0.000000 0.006987 0.000000
    34 0.000000 -0.279187 -2.151380 0.000000 -0.042656 0.000000
    35 -3.931102 -0.241569 3.428172 0.042904 -3.108714 -0.269407
    36 19.302956 0.000000 0.000000 0.000000 0.000000 -0.609522
    37 15.657714 0.000000 0.000000 -0.087537 -0.031318 0.465840
    38 3.741828 7.474068 0.000000 0.000000 0.000000 1.570796
    39 -3.935008 -0.475933 -3.400826 0.033214 3.110434 -0.136160
    40 19.302958 0.000000 0.000000 0.000000 0.000000 -0.530694
    41 15.657715 0.000000 0.000000 -0.002493 0.027048 0.399833
    42 3.741828 7.351521 0.000000 0.000000 0.000000 1.570796
    43 2.562340 0.000000 0.000000 -0.034958 0.003615 0.058022
    44 8.541129 0.000000 0.000000 0.000000 0.000000 0.000000
    45 -7.351523 1.350579 0.144448 0.000001 -3.141591 -1.570794
    46 4.991368 -0.677071 0.532282 1.237053 -2.969057 -0.819481
  time 28
    0 -0.229557 -2.315966 37.710782 0.000000 0.000000 -1.570888
    1 -0.147523 -0.003906 0.000000 -1.570795 -1.570451 0.000000
    2 3.928664 0.383633 0.000004 0.022039 -0.000420 0.010314
    3 3.442969 -0.003536 0.000000 0.000000 0.000000 0.008727
    4 4.441442 -0.003536 0.000000 0.000000 0.000000 0.017453
    5 4.441389 -0.003537 0.000000 0.000000 0.000000 0.000000
    6 4.441391 -0.002040 0.000000 0.000000 0.000000 0.000000
    7 0.000001 0.002036 1.614274 -0.000014 -1.334645 3.140810
    8 5.073841 0.000000 0.000002 0.003481 0.923828 -0.217387
    9 12.011117 0.000000 -0.000001 0.000000 0.000000 -1.010320
    10 10.249307 0.000000 0.000000 -1.156228 -0.220578 -0.249933
    11 1.183836 0.259443 -1.427523 -0.000826 0.330062 -0.000266
    12 0.625233 0.000000 0.000000 0.000000 0.000000 0.000000
    13 1.041848 0.000000 0.000001 0.000000 0.000000 0.000000
    14 3.037806 -0.002122 -0.118180 0.003076 0.035660 0.148399
    15 1.172004 -0.000001 0.000000 0.000000 0.000000 0.033665
    16 1.160930 0.000000 0.000000 0.000000 0.000000 0.534027
    17 0.000001 0.002045 -1.614274 -0.283223 1.308469 2.866777
    18 4.700062 0.000000 -0.000002 0.167761 -0.985162 -0.229738
    19 12.049927 0.000000 0.000001 0.000000 0.000000 -1.150096
    20 10.340311 0.000001 0.000000 1.252266 -0.169794 -0.098558
    21 1.186625 0.034757 1.438863 -1.255648 0.090695 1.049465
    22 0.607803 0.000000 0.000000 0.000000 0.000000 0.000000
    23 1.063061 0.000001 0.000000 0.000000 0.000000 0.000000
    24 2.950419 0.002914 0.177525 0.003541 0.091227 0.180468
    25 1.294388 0.000000 -0.000001 0.000000 0.000000 0.027246
    26 1.183920 0.000001 0.000000 0.000000 0.000000 0.298841
    27 2.738953 3.890889 0.113747 3.097163 -1.570796 0.000000
    28 0.000000 -1.023687 -1.922726 0.000000 0.000000 0.000000
    29 0.000000 -0.558375 -1.804806 0.000000 -0.022739 0.000000
    30 0.000000 -0.325718 -1.929488 0.000000 0.003605 0.000000
    31 0.000000 0.046531 -1.430430 0.000000 0.000000 0.000000
    32 0.000000 0.000000 -1.347565 0.000000 -0.030106 0.000000
    33 0.000000 -0.046531 -2.135521 0.000000 0.004506 0.000000
    34 0.000000 -0.279187 -2.151380 0.000000 -0.027282 0.000000
    35 -3.931102 -0.268914 3.424265 0.029679 -3.105096 -0.242723
    36 19.302956 0.000000 0.000000 0.000000 0.000000 -0.554340
    37 15.657714 0.000000 0.000000 -0.060637 -0.031119 0.479323
    38 3.741828 7.474068 0.000000 0.000000 0.000000 1.570796
    39 -3.935008 -0.417337 -3.408638 0.021148 3.112254 -0.133868
    40 19.302958 0.000000 0.000000 0.000000 0.000000 -0.453805
    41 15.657715 0.000000 0.000000 -0.002554 0.026711 0.329560
    42 3.741828 7.351521 0.000000 0.000000 0.000000 1.570796
    43 2.562340 0.000000 0.000000 -0.022534 0.002086 0.045289
    44 8.541129 0.000000 0.000000 0.000000 0.000000 0.000000
    45 -7.351523 1.350579 0.144448 0.000001 -3.141591 -1.570794
    46 4.991368 -0.677071 0.532282 1.237053 -2.969057 -0.819481
  time 29
    0 -0.229557 -1.455642 38.139161 0.000000 0.000000 -1.570888
    1 -0.174868 0.000000 0.000000 -1.570795 -1.570451 0.000000
    2 3.928664 0.383633 0.000004 0.010233 -0.000205 0.014305
    3 3.442969 -0.003536 0.000000 0.000000 0.000000 0.008727
    4 4.441442 -0.003536 0.000000 0.000000 0.000000 0.017453
    5 4.441389 -0.003537 0.000000 0.000000 0.000000 0.000000
    6 4.441391 -0.002040 0.000000 0.000000 0.000000 0.000000
    7 0.000001 0.002036 1.614274 -0.000014 -1.313168 3.140810
    8 5.073841 0.000000 0.000002 0.021197 1.031713 -0.077753
    9 12.011117 0.000000 -0.000001 0.000000 0.000000 -0.611811
    10 10.249307 0.000000 0.000000 -1.233649 -0.017390 -0.121419
    11 1.183836 0.259443 -1.427523 -0.000826 0.299845 -0.000221
    12 0.625233 0.000000 0.000000 0.000000 0.000000 0.000000
    13 1.041848 0.000000 0.000001 0.000000 0.000000 0.000000
    14 3.037806 -0.002122 -0.118180 0.003076 0.030758 0.148365
    15 1.172004 -0.000001 0.000000 0.000000 0.000000 0.015728
    16 1.160930 0.000000 0.000000 0.000000 0.000000 0.531297
    17 0.000001 0.002045 -1.614274 -0.142386 1.316008 3.003013
    18 4.700062 0.000000 -0.000002 -0.036599 -1.098783 0.018466
    19 12.049927 0.000000 0.000001 0.000000 0.000000 -0.799354
    20 10.340311 0.000001 0.000000 1.443880 -0.115367 -0.033617
    21 1.186625 0.034757 1.438863 -1.255648 0.090695 1.049465
    22 0.607803 0.000000 0.000000 0.000000 0.000000 0.000000
    23 1.063061 0.000001 0.000000 0.000000 0.000000 0.000000
    24 2.950419 0.002914 0.177525 0.003541 0.091227 0.180468
    25 1.294388 0.000000 -0.000001 0.000000 0.000000 0.027246
    26 1.183920 0.000001 0.000000 0.000000 0.000000 0.298841
    27 2.738953 3.890889 0.113747 3.097163 -1.570796 0.000000
    28 0.000000 -1.023687 -1.922726 0.000000 0.000000 0.000000
    29 0.000000 -0.558375 -1.804806 0.000000 -0.010643 0.000000
    30 0.000000 -0.325718 -1.929488 0.000000 0.001726 0.000000
    31 0.000000 0.046531 -1.430430 0.000000 0.000000 0.000000
    32 0.000000 0.000000 -1.347565 0.000000 -0.013885 0.000000
    33 0.000000 -0.046531 -2.135521 0.000000 0.002169 0.000000
    34 0.000000 -0.279187 -2.151380 0.000000 -0.012778 0.000000
    35 -3.935008 -0.296258 3.420359 0.013675 -3.101763 -0.138781
    36 19.302956 0.000000 0.000000 0.000000 0.000000 -0.326849
    37 15.657714 0.000000 0.000000 -0.030042 -0.036386 0.290863
    38 3.741828 7.474068 0.000000 0.000000 0.000000 1.570796
    39 -3.935008 -0.358742 -3.412545 0.010039 3.114074 -0.117432
    40 19.302958 0.000000 0.000000 0.000000 0.000000 -0.347477
    41 15.657715 0.000000 0.000000 -0.002585 0.026398 0.244029
    42 3.741828 7.351521 0.000000 0.000000 0.000000 1.570796
    43 2.562340 0.000000 0.000000 -0.010428 0.000862 0.036184
    44 8.541129 0.000000 0.000000 0.000000 0.000000 0.000000
    45 -7.351523 1.350579 0.144448 0.000001 -3.141591 -1.570794
    46 4.991368 -0.677071 0.532282 1.237053 -2.969057 -0.819481
  time 30
    0 -0.229557 -0.633134 38.496143 0.000000 0.000000 -1.570888
    1 -0.202212 0.000000 0.000000 -1.570795 -1.570451 0.000000
    2 3.928664 0.383633 0.000004 -0.000004 -0.000001 0.018250
    3 3.442969 -0.003536 0.000000 0.000000 0.000000 0.008727
    4 4.441442 -0.003536 0.000000 0.000000 0.000000 0.017453
    5 4.441389 -0.003537 0.000000 0.000000 0.000000 0.000000
    6 4.441391 -0.002040 0.000000 0.000000 0.000000 0.000000
    7 0.000001 0.002036 1.614274 -0.000014 -1.292298 3.140810
    8 5.073841 0.000000 0.000002 0.068346 1.130357 0.083218
    9 12.011117 0.000000 -0.000001 0.000000 0.000000 -0.243619
    10 10.249307 0.000000 0.000000 -1.284328 0.188628 -0.009322
    11 1.183836 0.259443 -1.427523 -0.000826 0.270526 -0.000221
    12 0.625233 0.000000 0.000000 0.000000 0.000000 0.000000
    13 1.041848 0.000000 0.000001 0.000000 0.000000 0.000000
    14 3.037806 -0.002122 -0.118180 0.003076 0.026012 0.148365
    15 1.172004 -0.000001 0.000000 0.000000 0.000000 0.000000
    16 1.160930 0.000000 0.000000 0.000000 0.000000 0.532314
    17 0.000001 0.002045 -1.614274 -0.000014 1.318464 3.140783
    18 4.700062 0.000000 -0.000002 -0.343539 -1.164702 0.367023
    19 12.049927 0.000000 0.000001 0.000000 0.000000 -0.476860
    20 10.340311 0.000001 0.000000 1.617789 -0.070018 0.035954
    21 1.186625 0.034757 1.438863 -1.255648 0.090695 1.049465
    22 0.607803 0.000000 0.000000 0.000000 0.000000 0.000000
    23 1.063061 0.000001 0.000000 0.000000 0.000000 0.000000
    24 2.950419 0.002914 0.177525 0.003541 0.091227 0.180468
    25 1.294388 0.000000 -0.000001 0.000000 0.000000 0.027246
    26 1.183920 0.000001 0.000000 0.000000 0.000000 0.298841
    27 2.738953 3.890889 0.113747 3.097163 -1.570796 0.000000
    28 0.000000 -1.023687 -1.922726 0.000000 0.000000 0.000000
    29 0.000000 -0.558375 -1.804806 0.000000 0.000000 0.000000
    30 0.000000 -0.325718 -1.929488 0.000000 0.000000 0.000000
    31 0.000000 0.046531 -1.430430 0.000000 0.000000 0.000000
    32 0.000000 0.000000 -1.347565 0.000000 0.000000 0.000000
    33 0.000000 -0.046531 -2.135521 0.000000 0.000000 0.000000
    34 0.000000 -0.279187 -2.151380 0.000000 0.000000 0.000000
    35 -3.935008 -0.311884 3.416453 0.000930 -3.100811 -0.078580
    36 19.302956 0.000000 0.000000 0.000000 0.000000 -0.189239
    37 15.657714 0.000000 0.000000 0.001579 -0.040798 0.128867
    38 3.741828 7.474068 0.000000 0.000000 0.000000 1.570796
    39 -3.935008 -0.311865 -3.416451 0.001037 3.115416 -0.077983
    40 19.302958 0.000000 0.000000 0.000000 0.000000 -0.193630
    41 15.657715 0.000000 0.000000 -0.002585 0.026109 0.133813
    42 3.741828 7.351521 0.000000 0.000000 0.000000 1.570796
    43 2.562340 0.000000 0.000000 0.000000 0.000000 0.025265
    44 8.541129 0.000000 0.000000 0.000000 0.000000 0.000000
    45 -7.351523 1.350579 0.144448 0.000001 -3.141591 -1.570794
    46 4.991368 -0.677071 0.532282 1.237053 -2.969057 -0.819481
end
