version 1
nodes
  0 "Bip01" -1
  1 "Bip01 Pelvis" 0
  2 "Bip01 Spine" 1
  3 "Bip01 Spine1" 2
  4 "Bip01 Spine2" 3
  5 "Bip01 Spine3" 4
  6 "Bip01 Neck" 5
  7 "Bip01 L Clavicle" 6
  8 "Bip01 L UpperArm" 7
  9 "Bip01 L Forearm" 8
  10 "Bip01 L Hand" 9
  11 "Bip01 L Finger0" 10
  12 "Bip01 L Finger01" 11
  13 "Bip01 L Finger02" 12
  14 "Bip01 L Finger2" 10
  15 "Bip01 L Finger21" 14
  16 "Bip01 L Finger22" 15
  17 "Bip01 R Clavicle" 6
  18 "Bip01 R UpperArm" 17
  19 "Bip01 R Forearm" 18
  20 "Bip01 R Hand" 19
  21 "Bip01 R Finger0" 20
  22 "Bip01 R Finger01" 21
  23 "Bip01 R Finger02" 22
  24 "Bip01 R Finger2" 20
  25 "Bip01 R Finger21" 24
  26 "Bip01 R Finger22" 25
  27 "tie1" 5
  28 "tie2" 27
  29 "tie3" 28
  30 "tie4" 29
  31 "tie5" 30
  32 "tie6" 31
  33 "tie7" 32
  34 "tie8" 33
  35 "Bip01 L Thigh" 2
  36 "Bip01 L Calf" 35
  37 "Bip01 L Foot" 36
  38 "Bip01 L Toe0" 37
  39 "Bip01 R Thigh" 2
  40 "Bip01 R Calf" 39
  41 "Bip01 R Foot" 40
  42 "Bip01 R Toe0" 41
  43 "Bip01 Head" 6
  44 "Dummy05" 43
  45 "Mouth" 44
  46 "needle" 20
end
skeleton
  time 0
    0 -0.229557 -0.633134 38.496143 0.000000 0.000000 -1.570888
    1 -0.202212 0.000000 0.000000 -1.570795 -1.570451 0.000000
    2 3.928664 0.383633 0.000004 -0.000004 -0.000001 0.018250
    3 3.442969 -0.003536 0.000000 0.000000 0.000000 0.008727
    4 4.441442 -0.003536 0.000000 0.000000 0.000000 0.017453
    5 4.441389 -0.003537 0.000000 0.000000 0.000000 0.000000
    6 4.441391 -0.002040 0.000000 0.000000 0.000000 0.000000
    7 0.000001 0.002036 1.614274 -0.000014 -1.292298 3.140810
    8 5.073841 0.000000 0.000002 0.068346 1.130357 0.083218
    9 12.011117 0.000000 -0.000001 0.000000 0.000000 -0.243619
    10 10.249307 0.000000 0.000000 -1.284328 0.188628 -0.009322
    11 1.183836 0.259443 -1.427523 -0.000826 0.270526 -0.000221
    12 0.625233 0.000000 0.000000 0.000000 0.000000 0.000000
    13 1.041848 0.000000 0.000001 0.000000 0.000000 0.000000
    14 3.037806 -0.002122 -0.118180 0.003076 0.026012 0.148365
    15 1.172004 -0.000001 0.000000 0.000000 0.000000 0.000000
    16 1.160930 0.000000 0.000000 0.000000 0.000000 0.532314
    17 0.000001 0.002045 -1.614274 -0.000014 1.318464 3.140783
    18 4.700062 0.000000 -0.000002 -0.343539 -1.164702 0.367023
    19 12.049927 0.000000 0.000001 0.000000 0.000000 -0.476860
    20 10.340311 0.000001 0.000000 1.222645 -0.054915 0.221116
    21 1.186625 0.034757 1.438863 -0.036104 -0.258182 0.206819
    22 0.607803 0.000000 0.000000 0.000000 0.000000 0.000000
    23 1.063061 0.000001 0.000000 0.000000 0.000000 0.000000
    24 2.950419 0.002914 0.177525 0.002868 -0.000575 0.244313
    25 1.294388 0.000000 -0.000001 0.000000 0.000000 0.000000
    26 1.183920 0.000001 0.000000 0.000000 0.000000 0.706817
    27 2.738953 3.890889 0.113747 3.097163 -1.570796 0.000000
    28 0.000000 -1.023687 -1.922726 0.000000 0.000000 0.000000
    29 0.000000 -0.558375 -1.804806 0.000000 0.000000 0.000000
    30 0.000000 -0.325718 -1.929488 0.000000 0.000000 0.000000
    31 0.000000 0.046531 -1.430430 0.000000 0.000000 0.000000
    32 0.000000 0.000000 -1.347565 0.000000 0.000000 0.000000
    33 0.000000 -0.046531 -2.135521 0.000000 0.000000 0.000000
    34 0.000000 -0.279187 -2.151380 0.000000 0.000000 0.000000
    35 -3.935008 -0.311884 3.416453 0.000930 -3.100811 -0.078580
    36 19.302956 0.000000 0.000000 0.000000 0.000000 -0.189239
    37 15.657714 0.000000 0.000000 0.001579 -0.040798 0.128867
    38 3.741828 7.474068 0.000000 0.000000 0.000000 1.570796
    39 -3.935008 -0.311865 -3.416451 0.001037 3.115416 -0.077983
    40 19.302958 0.000000 0.000000 0.000000 0.000000 -0.193630
    41 15.657715 0.000000 0.000000 -0.002585 0.026109 0.133813
    42 3.741828 7.351521 0.000000 0.000000 0.000000 1.570796
    43 2.562340 0.000000 0.000000 0.000000 0.000000 0.025265
    44 8.541129 0.000000 0.000000 0.000000 0.000000 0.000000
    45 -7.351523 1.350579 0.144448 0.000001 -3.141591 -1.570794
    46 4.991368 -0.677071 0.532282 1.237053 -2.969057 -0.819481
  time 1
    0 -0.221744 -0.822216 38.531842 0.000000 0.000000 -1.570888
    1 -0.307684 0.000000 0.000000 -0.000033 -1.573915 -1.570756
    2 3.928664 0.383633 -0.011715 0.000062 0.003127 0.024795
    3 3.442969 -0.003536 0.000000 0.000000 0.000000 0.013780
    4 4.441442 -0.003536 0.000000 0.000000 0.000000 0.027084
    5 4.441389 -0.003537 0.000000 0.000000 0.000000 0.013747
    6 4.441391 -0.002040 0.000000 0.000000 0.000000 -0.007704
    7 0.000001 0.002036 1.614274 -0.000014 -1.312803 3.148480
    8 5.073841 0.000000 0.000002 0.043129 1.150893 0.061206
    9 12.011117 0.000000 -0.000001 0.000000 0.000000 -0.249951
    10 10.249307 0.000000 0.000000 -1.248529 0.153693 0.010550
    11 1.183836 0.259443 -1.427523 -0.043786 0.277262 -0.022035
    12 0.625233 0.000000 0.000000 0.000000 0.000000 -0.000904
    13 1.041848 0.000000 0.000001 0.000000 0.000000 0.001808
    14 3.037806 -0.002122 -0.118180 -0.035530 0.019576 0.116354
    15 1.172004 -0.000001 0.000000 0.000000 0.000000 0.037244
    16 1.160930 0.000000 0.000000 0.000000 0.000000 0.537774
    17 0.000001 0.002045 -1.614274 -0.000014 1.353457 3.148453
    18 4.700062 0.000000 -0.000002 -0.359579 -1.198191 0.384535
    19 12.049927 0.000000 0.000001 0.000000 0.000000 -0.505108
    20 10.340311 0.000001 0.000000 1.174461 -0.025247 0.232981
    21 1.186625 0.034757 1.438863 0.004287 -0.296295 0.190617
    22 0.607803 0.000000 0.000000 0.000000 0.000000 -0.002691
    23 1.063061 0.000001 0.000000 0.000000 0.000000 -0.003630
    24 2.950419 0.002914 0.177525 0.041890 -0.006507 0.237043
    25 1.294388 0.000000 -0.000001 0.000000 0.000000 0.048157
    26 1.183920 0.000001 0.000000 0.000000 0.000000 0.714343
    27 2.738953 3.890889 0.113747 3.090260 -1.570796 0.000000
    28 0.000000 -1.023687 -1.922726 -0.007885 0.000000 0.000000
    29 0.000000 -0.558375 -1.804806 -0.018368 0.000000 0.000000
    30 0.000000 -0.325718 -1.929488 -0.005584 0.000000 0.000000
    31 0.000000 0.046531 -1.430430 -0.000181 0.005525 0.000000
    32 0.000000 0.000000 -1.347565 0.013666 0.000000 0.000000
    33 0.000000 -0.046531 -2.135521 -0.002185 0.015101 0.000036
    34 0.000000 -0.279187 -2.151380 0.036570 0.000000 0.000000
    35 -3.946727 -0.288446 3.416453 0.000547 -3.101001 -0.077632
    36 19.302956 0.000000 0.000000 0.000000 0.000000 -0.177964
    37 15.657714 0.000000 0.000000 0.001579 -0.040580 0.125110
    38 3.741828 7.474068 0.000000 0.000000 0.000000 1.570796
    39 -3.927195 -0.288427 -3.416451 0.001324 3.115224 -0.070711
    40 19.302958 0.000000 0.000000 0.000000 0.000000 -0.168157
    41 15.657715 0.000000 0.000000 -0.002585 0.026277 0.122148
    42 3.741828 7.351521 0.000000 0.000000 0.000000 1.570796
    43 2.562340 0.000000 0.000000 0.000000 0.006591 0.013643
    44 8.541129 0.000000 0.000000 0.000000 0.000000 0.000000
    45 -7.351523 1.350579 0.144448 -3.141399 -0.000097 1.570694
    46 4.991368 -0.677071 0.532282 1.237053 -2.969057 -0.819481
  time 2
    0 -0.210025 -1.020752 38.567540 0.000000 0.000000 -1.570888
    1 -0.413156 0.000000 0.000000 -3.141557 -1.564183 1.570756
    2 3.928664 0.383633 -0.023434 0.000195 0.006614 0.031750
    3 3.442969 -0.003536 0.000000 0.000000 0.000000 0.018947
    4 4.441442 -0.003536 0.000000 0.000000 0.000000 0.037131
    5 4.441389 -0.003537 0.000000 0.000000 0.000000 0.028382
    6 4.441391 -0.002040 0.000000 0.000000 0.000000 -0.020553
    7 0.000001 0.002036 1.614274 -0.000014 -1.333284 3.161328
    8 5.073841 0.000000 0.000002 0.011125 1.171428 0.032577
    9 12.011117 0.000000 -0.000001 0.000000 0.000000 -0.256282
    10 10.249307 0.000000 0.000000 -1.212658 0.117153 0.029559
    11 1.183836 0.259443 -1.427523 -0.089664 0.283485 -0.045563
    12 0.625233 0.000000 0.000000 0.000000 0.000000 -0.001874
    13 1.041848 0.000000 0.000001 0.000000 0.000000 0.003748
    14 3.037806 -0.002122 -0.118180 -0.076315 0.011235 0.081742
    15 1.172004 -0.000001 0.000000 0.000000 0.000000 0.076918
    16 1.160930 0.000000 0.000000 0.000000 0.000000 0.543556
    17 0.000001 0.002045 -1.614274 -0.000014 1.388402 3.161300
    18 4.700062 0.000000 -0.000002 -0.374452 -1.232512 0.401007
    19 12.049927 0.000000 0.000001 0.000000 0.000000 -0.533356
    20 10.340311 0.000001 0.000000 1.125290 0.005784 0.243632
    21 1.186625 0.034757 1.438863 0.048498 -0.336073 0.171383
    22 0.607803 0.000000 0.000000 0.000000 0.000000 -0.005595
    23 1.063061 0.000001 0.000000 0.000000 0.000000 -0.007474
    24 2.950419 0.002914 0.177525 0.083443 -0.012391 0.228510
    25 1.294388 0.000000 -0.000001 0.000000 0.000000 0.099404
    26 1.183920 0.000001 0.000000 0.000000 0.000000 0.720019
    27 2.738953 3.890889 0.113747 3.082207 -1.570796 0.000000
    28 0.000000 -1.023687 -1.922726 -0.016360 0.000000 0.000000
    29 0.000000 -0.558375 -1.804806 -0.037973 0.000000 0.000000
    30 0.000000 -0.325718 -1.929488 -0.011991 0.000000 0.000000
    31 0.000000 0.046531 -1.430430 -0.000582 0.011337 0.000000
    32 0.000000 0.000000 -1.347565 0.028936 0.000000 0.000000
    33 0.000000 -0.046531 -2.135521 -0.006556 0.031364 0.000048
    34 0.000000 -0.279187 -2.151380 0.075344 0.000000 0.000000
    35 -3.958446 -0.261101 3.416453 0.000163 -3.101382 -0.075887
    36 19.302956 0.000000 0.000000 0.000000 0.000000 -0.164373
    37 15.657714 0.000000 0.000000 0.001610 -0.040202 0.120185
    38 3.741828 7.474068 0.000000 0.000000 0.000000 1.570796
    39 -3.919383 -0.261083 -3.416451 0.001803 3.114937 -0.059653
    40 19.302958 0.000000 0.000000 0.000000 0.000000 -0.133543
    41 15.657715 0.000000 0.000000 -0.002585 0.026615 0.105629
    42 3.741828 7.351521 0.000000 0.000000 0.000000 1.570796
    43 2.562340 0.000000 0.000000 0.000181 0.013265 -0.001644
    44 8.541129 0.000000 0.000000 0.000000 0.000000 0.000000
    45 -7.351523 1.350579 0.144448 -3.141112 -0.000097 1.570694
    46 4.991368 -0.677071 0.532282 1.237053 -2.969057 -0.819481
  time 3
    0 -0.198306 -1.219289 38.603238 0.000000 0.000000 -1.570888
    1 -0.522535 0.000000 0.000000 -3.141557 -1.560444 1.570756
    2 3.928664 0.383633 -0.039059 0.000394 0.010342 0.038842
    3 3.442969 -0.003536 0.000000 0.000000 0.000000 0.024125
    4 4.441442 -0.003536 0.000000 0.000000 0.000000 0.047280
    5 4.441389 -0.003537 0.000000 0.000000 0.000000 0.043254
    6 4.441391 -0.002040 0.000000 0.000000 0.000000 -0.023111
    7 0.000001 0.002036 1.614274 -0.000014 -1.344630 3.163916
    8 5.073841 0.000000 0.000002 0.007767 1.182576 0.035548
    9 12.011117 0.000000 -0.000001 0.000000 0.000000 -0.283395
    10 10.249307 0.000000 0.000000 -1.177434 0.079684 0.047340
    11 1.183836 0.259443 -1.427523 -0.137380 0.288874 -0.070261
    12 0.625233 0.000000 0.000000 0.000000 0.000000 -0.002861
    13 1.041848 0.000000 0.000001 0.000000 0.000000 0.005738
    14 3.037806 -0.002122 -0.118180 -0.118146 0.001036 0.045862
    15 1.172004 -0.000001 0.000000 0.000000 0.000000 0.117873
    16 1.160930 0.000000 0.000000 0.000000 0.000000 0.549551
    17 0.000001 0.002045 -1.614274 -0.000014 1.405668 3.163889
    18 4.700062 0.000000 -0.000002 -0.400771 -1.246270 0.432113
    19 12.049927 0.000000 0.000001 0.000000 0.000000 -0.580359
    20 10.340311 0.000001 0.000000 1.076120 0.037516 0.252845
    21 1.186625 0.034757 1.438863 0.095740 -0.376300 0.149212
    22 0.607803 0.000000 0.000000 0.000000 0.000000 -0.008585
    23 1.063061 0.000001 0.000000 0.000000 0.000000 -0.011489
    24 2.950419 0.002914 0.177525 0.126464 -0.018036 0.219133
    25 1.294388 0.000000 -0.000001 0.000000 0.000000 0.152402
    26 1.183920 0.000001 0.000000 0.000000 0.000000 0.724584
    27 2.738953 3.890889 0.113747 3.073963 -1.570796 0.000000
    28 0.000000 -1.023687 -1.922726 -0.024932 0.000000 0.000000
    29 0.000000 -0.558375 -1.804806 -0.057878 0.000000 0.000000
    30 0.000000 -0.325718 -1.929488 -0.018604 0.000000 0.000000
    31 0.000000 0.046531 -1.430430 -0.000884 0.017006 0.000000
    32 0.000000 0.000000 -1.347565 0.044624 0.000000 0.000000
    33 0.000000 -0.046531 -2.135521 -0.009862 0.047040 0.000000
    34 0.000000 -0.279187 -2.151380 0.114705 0.000000 0.000000
    35 -3.974072 -0.229850 3.416453 -0.000220 -3.101763 -0.073542
    36 19.302956 0.000000 0.000000 0.000000 0.000000 -0.149340
    37 15.657714 0.000000 0.000000 0.001610 -0.039785 0.114550
    38 3.741828 7.474068 0.000000 0.000000 0.000000 1.570796
    39 -3.907663 -0.233738 -3.416451 0.002474 3.114649 -0.041573
    40 19.302958 0.000000 0.000000 0.000000 0.000000 -0.083269
    41 15.657715 0.000000 0.000000 -0.002554 0.026976 0.080525
    42 3.741828 7.351521 0.000000 0.000000 0.000000 1.570796
    43 2.562340 0.000000 0.000000 0.000227 0.019828 -0.013673
    44 8.541129 0.000000 0.000000 0.000000 0.000000 0.000000
    45 -7.351523 1.350579 0.144448 -3.140824 -0.000193 1.570598
    46 4.991368 -0.677071 0.532282 1.237053 -2.969057 -0.819481
  time 4
    0 -0.186587 -1.417825 38.603238 0.000000 0.000000 -1.570888
    1 -0.628006 0.000000 0.000000 -0.000033 -1.585000 -1.570756
    2 3.928664 0.383633 -0.054685 0.000637 0.014189 0.045707
    3 3.442969 -0.003536 0.000000 0.000000 0.000000 0.029267
    4 4.441442 -0.003536 0.000000 0.000000 0.000000 0.057212
    5 4.441389 -0.003537 0.000000 0.000000 0.000000 0.057667
    6 4.441391 -0.002040 0.000000 0.000000 0.000000 0.000000
    7 0.000001 0.002036 1.614274 -0.000014 -1.340962 3.140810
    8 5.073841 0.000000 0.000002 0.059345 1.178029 0.097937
    9 12.011117 0.000000 -0.000001 0.000000 0.000000 -0.343879
    10 10.249307 0.000000 0.000000 -1.143433 0.042130 0.063484
    11 1.183836 0.259443 -1.427523 -0.185655 0.293045 -0.095411
    12 0.625233 0.000000 0.000000 0.000000 0.000000 -0.003880
    13 1.041848 0.000000 0.000001 0.000000 0.000000 0.007760
    14 3.037806 -0.002122 -0.118180 -0.159915 -0.010768 0.010016
    15 1.172004 -0.000001 0.000000 0.000000 0.000000 0.159182
    16 1.160930 0.000000 0.000000 0.000000 0.000000 0.555600
    17 0.000001 0.002045 -1.614274 -0.000014 1.395138 3.140783
    18 4.700062 0.000000 -0.000002 -0.444005 -1.226464 0.485048
    19 12.049927 0.000000 0.000001 0.000000 0.000000 -0.658496
    20 10.340311 0.000001 0.000000 1.027804 0.069206 0.260440
    21 1.186625 0.034757 1.438863 0.145154 -0.415822 0.124435
    22 0.607803 0.000000 0.000000 0.000000 0.000000 -0.011617
    23 1.063061 0.000001 0.000000 0.000000 0.000000 -0.015504
    24 2.950419 0.002914 0.177525 0.169900 -0.023297 0.209388
    25 1.294388 0.000000 -0.000001 0.000000 0.000000 0.205761
    26 1.183920 0.000001 0.000000 0.000000 0.000000 0.728903
    27 2.738953 3.890889 0.113747 3.066197 -1.570796 0.000000
    28 0.000000 -1.023687 -1.922726 -0.033275 0.000000 0.000000
    29 0.000000 -0.558375 -1.804806 -0.077183 0.000000 0.000000
    30 0.000000 -0.325718 -1.929488 -0.024831 0.000000 0.000000
    31 0.000000 0.046531 -1.430430 -0.000783 0.022088 0.000000
    32 0.000000 0.000000 -1.347565 0.059498 0.000000 0.000000
    33 0.000000 -0.046531 -2.135521 -0.008770 0.060438 -0.000048
    34 0.000000 -0.279187 -2.151380 0.152940 0.000000 0.000000
    35 -3.989697 -0.202506 3.416453 -0.000603 -3.102144 -0.071049
    36 19.302956 0.000000 0.000000 0.000000 0.000000 -0.134120
    37 15.657714 0.000000 0.000000 0.001641 -0.039467 0.108706
    38 3.741828 7.474068 0.000000 0.000000 0.000000 1.570796
    39 -3.895944 -0.206393 -3.416451 0.003527 3.114458 -0.009496
    40 19.302958 0.000000 0.000000 0.000000 0.000000 -0.002011
    41 15.657715 0.000000 0.000000 -0.002554 0.027289 0.038156
    42 3.741828 7.351521 0.000000 0.000000 0.000000 1.570796
    43 2.562340 0.000000 0.000000 0.000000 0.026169 -0.015450
    44 8.541129 0.000000 0.000000 0.000000 0.000000 0.000000
    45 -7.351523 1.350579 0.144448 -3.140441 -0.000193 1.570502
    46 4.991368 -0.677071 0.532282 1.237053 -2.969057 -0.819481
  time 5
    0 -0.182680 -1.597453 38.638936 0.000000 0.000000 -1.570888
    1 -0.729572 0.000000 0.000000 -0.000033 -1.588859 -1.570756
    2 3.928664 0.383633 -0.070310 0.000925 0.018036 0.052046
    3 3.442969 -0.003536 0.000000 0.000000 0.000000 0.034282
    4 4.441442 -0.003536 0.000000 0.000000 0.000000 0.066656
    5 4.441389 -0.003537 0.000000 0.000000 0.000000 0.070970
    6 4.441391 -0.002040 0.000000 0.000000 0.000000 0.083192
    7 0.000001 0.002036 1.614274 -0.000014 -1.328911 3.057685
    8 5.073841 0.000000 0.000002 0.140141 1.162407 0.192602
    9 12.011117 0.000000 -0.000001 0.000000 0.000000 -0.422911
    10 10.249307 0.000000 0.000000 -1.111156 0.005336 0.077854
    11 1.183836 0.259443 -1.427523 -0.233292 0.296060 -0.120380
    12 0.625233 0.000000 0.000000 0.000000 0.000000 -0.004866
    13 1.041848 0.000000 0.000001 0.000000 0.000000 0.009749
    14 3.037806 -0.002122 -0.118180 -0.200588 -0.023772 -0.024463
    15 1.172004 -0.000001 0.000000 0.000000 0.000000 0.199828
    16 1.160930 0.000000 0.000000 0.000000 0.000000 0.561542
    17 0.000001 0.002045 -1.614274 -0.000014 1.369313 3.057661
    18 4.700062 0.000000 -0.000002 -0.489645 -1.186927 0.544140
    19 12.049927 0.000000 0.000001 0.000000 0.000000 -0.753946
    20 10.340311 0.000001 0.000000 0.981267 0.100154 0.266283
    21 1.186625 0.034757 1.438863 0.195690 -0.453487 0.097574
    22 0.607803 0.000000 0.000000 0.000000 0.000000 -0.014607
    23 1.063061 0.000001 0.000000 0.000000 0.000000 -0.019476
    24 2.950419 0.002914 0.177525 0.212676 -0.028079 0.199695
    25 1.294388 0.000000 -0.000001 0.000000 0.000000 0.258296
    26 1.183920 0.000001 0.000000 0.000000 0.000000 0.733776
    27 2.738953 3.890889 0.113747 3.059678 -1.570796 0.000000
    28 0.000000 -1.023687 -1.922726 -0.040899 0.000000 0.000000
    29 0.000000 -0.558375 -1.804806 -0.094933 0.000000 0.000000
    30 0.000000 -0.325718 -1.929488 -0.030003 0.000000 0.000000
    31 0.000000 0.046531 -1.430430 0.000000 0.026174 0.000000
    32 0.000000 0.000000 -1.347565 0.072374 0.000000 0.000000
    33 0.000000 -0.046531 -2.135521 0.000000 0.069810 0.000000
    34 0.000000 -0.279187 -2.151380 0.188384 0.000000 0.000000
    35 -4.001416 -0.179067 3.416453 -0.000891 -3.102239 -0.069103
    36 19.302956 0.000000 0.000000 0.000000 0.000000 -0.120841
    37 15.657714 0.000000 0.000000 0.001641 -0.039348 0.103697
    38 3.741828 7.474068 0.000000 0.000000 0.000000 1.570796
    39 -3.884225 -0.182955 -3.416451 0.003527 3.114362 -0.013530
    40 19.302958 0.000000 0.000000 0.000000 0.000000 -0.002011
    41 15.657715 0.000000 0.000000 -0.002554 0.027386 0.040442
    42 3.741828 7.351521 0.000000 0.000000 0.000000 1.570796
    43 2.562340 0.000000 0.000000 -0.001134 0.035874 0.011792
    44 8.541129 0.000000 0.000000 0.000000 0.000000 0.000000
    45 -7.351523 1.350579 0.144448 -3.140249 -0.000289 1.570502
    46 4.991368 -0.677071 0.532282 1.237053 -2.969057 -0.819481
  time 6
    0 -0.190493 -1.758173 38.674635 0.000000 0.000000 -1.570888
    1 -0.819419 0.000000 0.000000 -0.000033 -1.592599 -1.570756
    2 3.928664 0.383633 -0.082029 0.001234 0.021763 0.057542
    3 3.442969 -0.003536 0.000000 0.000000 0.000000 0.039085
    4 4.441442 -0.003536 0.000000 0.000000 0.000000 0.075309
    5 4.441389 -0.003537 0.000000 0.000000 0.000000 0.082494
    6 4.441391 -0.002040 0.000000 0.000000 0.000000 0.202945
    7 0.000001 0.002036 1.614274 -0.000014 -1.318173 2.937936
    8 5.073841 0.000000 0.000002 0.218437 1.145245 0.284701
    9 12.011117 0.000000 -0.000001 0.000000 0.000000 -0.499856
    10 10.249307 0.000000 0.000000 -1.081180 -0.029767 0.090360
    11 1.183836 0.259443 -1.427523 -0.279049 0.297920 -0.144403
    12 0.625233 0.000000 0.000000 0.000000 0.000000 -0.005820
    13 1.041848 0.000000 0.000001 0.000000 0.000000 0.011640
    14 3.037806 -0.002122 -0.118180 -0.239194 -0.037386 -0.056475
    15 1.172004 -0.000001 0.000000 0.000000 0.000000 0.238795
    16 1.160930 0.000000 0.000000 0.000000 0.000000 0.567270
    17 0.000001 0.002045 -1.614274 -0.000014 1.344216 2.937915
    18 4.700062 0.000000 -0.000002 -0.529526 -1.146862 0.598115
    19 12.049927 0.000000 0.000001 0.000000 0.000000 -0.846434
    20 10.340311 0.000001 0.000000 0.937296 0.129575 0.270462
    21 1.186625 0.034757 1.438863 0.246077 -0.488397 0.069291
    22 0.607803 0.000000 0.000000 0.000000 0.000000 -0.017468
    23 1.063061 0.000001 0.000000 0.000000 0.000000 -0.023277
    24 2.950419 0.002914 0.177525 0.253728 -0.032382 0.190582
    25 1.294388 0.000000 -0.000001 0.000000 0.000000 0.308667
    26 1.183920 0.000001 0.000000 0.000000 0.000000 0.739946
    27 2.738953 3.890889 0.113747 3.055268 -1.570796 0.000000
    28 0.000000 -1.023687 -1.922726 -0.047377 0.000000 0.000000
    29 0.000000 -0.558375 -1.804806 -0.110246 0.000000 0.000000
    30 0.000000 -0.325718 -1.929488 -0.033579 0.000000 0.000000
    31 0.000000 0.046531 -1.430430 0.005784 0.026606 0.000014
    32 0.000000 0.000000 -1.347565 0.082020 0.000000 0.000000
    33 0.000000 -0.046531 -2.135521 0.051439 0.064285 0.000431
    34 0.000000 -0.279187 -2.151380 0.219423 0.000000 0.000000
    35 -4.017042 -0.155629 3.416453 -0.001178 -3.102048 -0.068904
    36 19.302956 0.000000 0.000000 0.000000 0.000000 -0.112448
    37 15.657714 0.000000 0.000000 0.001641 -0.039586 0.100984
    38 3.741828 7.474068 0.000000 0.000000 0.000000 1.570796
    39 -3.872506 -0.163423 -3.416451 0.003623 3.114649 -0.017116
    40 19.302958 0.000000 0.000000 0.000000 0.000000 -0.002011
    41 15.657715 0.000000 0.000000 -0.002554 0.027145 0.042356
    42 3.741828 7.351521 0.000000 0.000000 0.000000 1.570796
    43 2.562340 0.000000 0.000000 -0.001088 0.045385 0.056023
    44 8.541129 0.000000 0.000000 0.000000 0.000000 0.000000
    45 -7.351523 1.350579 0.144448 -3.140345 -0.000289 1.570502
    46 4.991368 -0.677071 0.532282 1.237053 -2.969057 -0.819481
  time 7
    0 -0.213931 -1.881077 38.674635 0.000000 0.000000 -1.570888
    1 -0.893640 0.000000 0.000000 -0.000033 -1.596086 -1.570756
    2 3.928664 0.383633 -0.097655 0.001544 0.025239 0.061875
    3 3.442969 -0.003536 0.000000 0.000000 0.000000 0.043612
    4 4.441442 -0.003536 0.000000 0.000000 0.000000 0.082856
    5 4.441389 -0.003537 0.000000 0.000000 0.000000 0.091575
    6 4.441391 -0.002040 0.000000 0.000000 0.000000 0.287811
    7 0.000001 0.002036 1.614274 -0.000014 -1.318513 2.852990
    8 5.073841 0.000000 0.000002 0.275587 1.139305 0.352019
    9 12.011117 0.000000 -0.000001 0.000000 0.000000 -0.554232
    10 10.249307 0.000000 0.000000 -1.054007 -0.062294 0.100910
    11 1.183836 0.259443 -1.427523 -0.321690 0.298626 -0.166894
    12 0.625233 0.000000 0.000000 0.000000 0.000000 -0.006708
    13 1.041848 0.000000 0.000001 0.000000 0.000000 0.013415
    14 3.037806 -0.002122 -0.118180 -0.274798 -0.050893 -0.084818
    15 1.172004 -0.000001 0.000000 0.000000 0.000000 0.275067
    16 1.160930 0.000000 0.000000 0.000000 0.000000 0.572569
    17 0.000001 0.002045 -1.614274 -0.000014 1.335948 2.852972
    18 4.700062 0.000000 -0.000002 -0.567802 -1.125317 0.646492
    19 12.049927 0.000000 0.000001 0.000000 0.000000 -0.915458
    20 10.340311 0.000001 0.000000 0.896946 0.156727 0.273204
    21 1.186625 0.034757 1.438863 0.294892 -0.519720 0.040677
    22 0.607803 0.000000 0.000000 0.000000 0.000000 -0.020116
    23 1.063061 0.000001 0.000000 0.000000 0.000000 -0.026822
    24 2.950419 0.002914 0.177525 0.291967 -0.036241 0.182575
    25 1.294388 0.000000 -0.000001 0.000000 0.000000 0.355588
    26 1.183920 0.000001 0.000000 0.000000 0.000000 0.748274
    27 2.738953 3.890889 0.113747 3.053543 -1.570796 0.000000
    28 0.000000 -1.023687 -1.922726 -0.052351 0.000000 0.000000
    29 0.000000 -0.558375 -1.804806 -0.122168 0.000000 0.000000
    30 0.000000 -0.325718 -1.929488 -0.034892 0.000000 0.000000
    31 0.000000 0.046531 -1.430430 0.008736 0.024005 0.000000
    32 0.000000 0.000000 -1.347565 0.087249 0.000000 0.000000
    33 0.000000 -0.046531 -2.135521 0.095978 0.047519 0.000000
    34 0.000000 -0.279187 -2.151380 0.244342 0.000000 0.000000
    35 -4.028761 -0.136097 3.416453 -0.001178 -3.101382 -0.071747
    36 19.302956 0.000000 0.000000 0.000000 0.000000 -0.112260
    37 15.657714 0.000000 0.000000 0.001610 -0.040262 0.102278
    38 3.741828 7.474068 0.000000 0.000000 0.000000 1.570796
    39 -3.860787 -0.147798 -3.416451 0.003623 3.115320 -0.020105
    40 19.302958 0.000000 0.000000 0.000000 0.000000 -0.002011
    41 15.657715 0.000000 0.000000 -0.002585 0.026470 0.043709
    42 3.741828 7.351521 0.000000 0.000000 0.000000 1.570796
    43 2.562340 0.000000 0.000000 0.000000 0.043605 0.077676
    44 8.541129 0.000000 0.000000 0.000000 0.000000 0.000000
    45 -7.351523 1.350579 0.144448 -3.140728 -0.000193 1.570598
    46 4.991368 -0.677071 0.532282 1.237053 -2.969057 -0.819481
  time 8
    0 -0.276433 -1.966164 38.674635 0.000000 0.000000 -1.570888
    1 -0.956142 0.000000 0.000000 -3.141557 -1.542371 1.570756
    2 3.928664 0.383633 -0.109374 0.001831 0.028367 0.064748
    3 3.442969 -0.003536 0.000000 0.000000 0.000000 0.048640
    4 4.441442 -0.003536 0.000000 0.000000 0.000000 0.089899
    5 4.441389 -0.003537 0.000000 0.000000 0.000000 0.097589
    6 4.441391 -0.002040 0.000000 0.000000 0.000000 0.325634
    7 0.000001 0.002036 1.614274 -0.000014 -1.340427 2.815214
    8 5.073841 0.000000 0.000002 0.303090 1.159400 0.382201
    9 12.011117 0.000000 -0.000001 0.000000 0.000000 -0.569279
    10 10.249307 0.000000 0.000000 -1.032586 -0.088358 0.108641
    11 1.183836 0.259443 -1.427523 -0.360015 0.298562 -0.187086
    12 0.625233 0.000000 0.000000 0.000000 0.000000 -0.007497
    13 1.041848 0.000000 0.000001 0.000000 0.000000 0.014993
    14 3.037806 -0.002122 -0.118180 -0.306567 -0.063453 -0.108426
    15 1.172004 -0.000001 0.000000 0.000000 0.000000 0.307672
    16 1.160930 0.000000 0.000000 0.000000 0.000000 0.577334
    17 0.000001 0.002045 -1.614274 -0.000014 1.359950 2.815198
    18 4.700062 0.000000 -0.000002 -0.616796 -1.139907 0.696629
    19 12.049927 0.000000 0.000001 0.000000 0.000000 -0.944465
    20 10.340311 0.000001 0.000000 0.864757 0.178390 0.274597
    21 1.186625 0.034757 1.438863 0.340375 -0.546751 0.013058
    22 0.607803 0.000000 0.000000 0.000000 0.000000 -0.022508
    23 1.063061 0.000001 0.000000 0.000000 0.000000 -0.029982
    24 2.950419 0.002914 0.177525 0.326317 -0.039716 0.176201
    25 1.294388 0.000000 -0.000001 0.000000 0.000000 0.397719
    26 1.183920 0.000001 0.000000 0.000000 0.000000 0.759564
    27 2.738953 3.890889 0.113747 3.054118 -1.570796 0.000000
    28 0.000000 -1.023687 -1.922726 -0.055197 0.000000 0.000000
    29 0.000000 -0.558375 -1.804806 -0.129709 0.000000 0.000000
    30 0.000000 -0.325718 -1.929488 -0.034506 0.000000 0.000000
    31 0.000000 0.046531 -1.430430 0.001868 0.021141 -0.000056
    32 0.000000 0.000000 -1.347565 0.084204 0.000000 0.000000
    33 0.000000 -0.046531 -2.135521 0.092643 0.030105 -0.000803
    34 0.000000 -0.279187 -2.151380 0.262162 0.000000 0.000000
    35 -4.040480 -0.124378 3.416453 -0.000795 -3.099477 -0.080824
    36 19.302956 0.000000 0.000000 0.000000 0.000000 -0.127355
    37 15.657714 0.000000 0.000000 0.001517 -0.042150 0.111169
    38 3.741828 7.474068 0.000000 0.000000 0.000000 1.570796
    39 -3.849068 -0.136079 -3.416451 0.003623 3.117140 -0.022446
    40 19.302958 0.000000 0.000000 0.000000 0.000000 -0.002011
    41 15.657715 0.000000 0.000000 -0.002645 0.024639 0.044222
    42 3.741828 7.351521 0.000000 0.000000 0.000000 1.570796
    43 2.562340 0.000000 0.000000 0.000363 0.026280 0.070125
    44 8.541129 0.000000 0.000000 0.000000 0.000000 0.000000
    45 -7.351523 1.350579 0.144448 0.000001 -3.141591 -1.570794
    46 4.991368 -0.677071 0.532282 1.237053 -2.969057 -0.819481
  time 9
    0 -0.381905 -2.003980 38.638936 0.000000 0.000000 -1.570888
    1 -1.006924 0.000000 0.000000 -0.000033 -1.601863 -1.570756
    2 3.928664 0.383633 -0.121093 0.002030 0.031003 0.066116
    3 3.442969 -0.003536 0.000000 0.000000 0.000000 0.054182
    4 4.441442 -0.003536 0.000000 0.000000 0.000000 0.096396
    5 4.441389 -0.003537 0.000000 0.000000 0.000000 0.100448
    6 4.441391 -0.002040 0.000000 0.000000 0.000000 0.351333
    7 0.000001 0.002036 1.614274 -0.000014 -1.376189 2.789520
    8 5.073841 0.000000 0.000002 0.311020 1.197171 0.387806
    9 12.011117 0.000000 -0.000001 0.000000 0.000000 -0.556318
    10 10.249307 0.000000 0.000000 -1.019646 -0.104326 0.113097
    11 1.183836 0.259443 -1.427523 -0.392824 0.297856 -0.204348
    12 0.625233 0.000000 0.000000 0.000000 0.000000 -0.008171
    13 1.041848 0.000000 0.000001 0.000000 0.000000 0.016358
    14 3.037806 -0.002122 -0.118180 -0.333678 -0.074179 -0.126333
    15 1.172004 -0.000001 0.000000 0.000000 0.000000 0.335550
    16 1.160930 0.000000 0.000000 0.000000 0.000000 0.581402
    17 0.000001 0.002045 -1.614274 -0.000014 1.404355 2.789504
    18 4.700062 0.000000 -0.000002 -0.680590 -1.177176 0.755481
    19 12.049927 0.000000 0.000001 0.000000 0.000000 -0.943934
    20 10.340311 0.000001 0.000000 0.845076 0.191595 0.275091
    21 1.186625 0.034757 1.438863 0.380580 -0.568978 -0.012098
    22 0.607803 0.000000 0.000000 0.000000 0.000000 -0.024515
    23 1.063061 0.000001 0.000000 0.000000 0.000000 -0.032716
    24 2.950419 0.002914 0.177525 0.355703 -0.042940 0.171881
    25 1.294388 0.000000 -0.000001 0.000000 0.000000 0.433772
    26 1.183920 0.000001 0.000000 0.000000 0.000000 0.774555
    27 2.738953 3.890889 0.113747 3.055460 -1.570796 0.000000
    28 0.000000 -1.023687 -1.922726 -0.055852 0.000000 0.000000
    29 0.000000 -0.558375 -1.804806 -0.132765 0.000000 0.000000
    30 0.000000 -0.325718 -1.929488 -0.033374 0.000000 0.000000
    31 0.000000 0.046531 -1.430430 -0.008053 0.017905 -0.000098
    32 0.000000 0.000000 -1.347565 0.072746 0.000000 0.000000
    33 0.000000 -0.046531 -2.135521 0.083758 0.010163 -0.001558
    34 0.000000 -0.279187 -2.151380 0.272736 0.000000 0.000000
    35 -4.048293 -0.116565 3.416453 -0.000124 -3.096430 -0.094042
    36 19.302956 0.000000 0.000000 0.000000 0.000000 -0.153036
    37 15.657714 0.000000 0.000000 0.001393 -0.045210 0.125027
    38 3.741828 7.474068 0.000000 0.000000 0.000000 1.570796
    39 -3.841255 -0.132172 -3.416451 0.003623 3.120015 -0.024139
    40 19.302958 0.000000 0.000000 0.000000 0.000000 -0.002011
    41 15.657715 0.000000 0.000000 -0.002798 0.021674 0.043895
    42 3.741828 7.351521 0.000000 0.000000 0.000000 1.570796
    43 2.562340 0.000000 0.000000 -0.000045 0.000556 0.056060
    44 8.541129 0.000000 0.000000 0.000000 0.000000 0.000000
    45 -7.351523 1.350579 0.144448 -0.002108 -3.141879 -1.570506
    46 4.991368 -0.677071 0.532282 1.237053 -2.969057 -0.819481
  time 10
    0 -0.499096 -2.003980 38.603238 0.000000 0.000000 -1.570888
    1 -1.038175 0.000000 0.000000 -0.000033 -1.603900 -1.570756
    2 3.928664 0.383633 -0.128906 0.002163 0.033029 0.066048
    3 3.442969 -0.003536 0.000000 0.000000 0.000000 0.058935
    4 4.441442 -0.003536 0.000000 0.000000 0.000000 0.101111
    5 4.441389 -0.003537 0.000000 0.000000 0.000000 0.100314
    6 4.441391 -0.002040 0.000000 0.000000 0.000000 0.364246
    7 0.000001 0.002036 1.614274 -0.000014 -1.408308 2.776576
    8 5.073841 0.000000 0.000002 0.315306 1.231275 0.389291
    9 12.011117 0.000000 -0.000001 0.000000 0.000000 -0.536579
    10 10.249307 0.000000 0.000000 -1.015117 -0.109944 0.114644
    11 1.183836 0.259443 -1.427523 -0.418920 0.296894 -0.218050
    12 0.625233 0.000000 0.000000 0.000000 0.000000 -0.008713
    13 1.041848 0.000000 0.000001 0.000000 0.000000 0.017443
    14 3.037806 -0.002122 -0.118180 -0.355335 -0.082149 -0.137503
    15 1.172004 -0.000001 0.000000 0.000000 0.000000 0.357773
    16 1.160930 0.000000 0.000000 0.000000 0.000000 0.584667
    17 0.000001 0.002045 -1.614274 -0.000014 1.444431 2.776561
    18 4.700062 0.000000 -0.000002 -0.746425 -1.210211 0.816173
    19 12.049927 0.000000 0.000001 0.000000 0.000000 -0.934062
    20 10.340311 0.000001 0.000000 0.838164 0.196258 0.275181
    21 1.186625 0.034757 1.438863 0.413485 -0.586049 -0.033084
    22 0.607803 0.000000 0.000000 0.000000 0.000000 -0.026138
    23 1.063061 0.000001 0.000000 0.000000 0.000000 -0.034894
    24 2.950419 0.002914 0.177525 0.379023 -0.046032 0.170196
    25 1.294388 0.000000 -0.000001 0.000000 0.000000 0.462512
    26 1.183920 0.000001 0.000000 0.000000 0.000000 0.794112
    27 2.738953 3.890889 0.113747 3.057665 -1.570796 0.000000
    28 0.000000 -1.023687 -1.922726 -0.054739 0.000000 0.000000
    29 0.000000 -0.558375 -1.804806 -0.131740 0.000000 0.000000
    30 0.000000 -0.325718 -1.929488 -0.031598 0.000000 0.000000
    31 0.000000 0.046531 -1.430430 -0.018596 0.014489 -0.000112
    32 0.000000 0.000000 -1.347565 0.057221 0.000000 0.000000
    33 0.000000 -0.046531 -2.135521 0.070848 -0.010954 -0.002061
    34 0.000000 -0.279187 -2.151380 0.275502 0.000000 0.000000
    35 -4.056105 -0.116565 3.416453 0.000738 -3.093097 -0.106560
    36 19.302956 0.000000 0.000000 0.000000 0.000000 -0.178967
    37 15.657714 0.000000 0.000000 0.001268 -0.048549 0.138426
    38 3.741828 7.474068 0.000000 0.000000 0.000000 1.570796
    39 -3.833442 -0.132172 -3.416451 0.003623 3.123272 -0.024986
    40 19.302958 0.000000 0.000000 0.000000 0.000000 -0.002011
    41 15.657715 0.000000 0.000000 -0.002919 0.018421 0.042962
    42 3.741828 7.351521 0.000000 0.000000 0.000000 1.570796
    43 2.562340 0.000000 0.000000 -0.000725 -0.026920 0.039663
    44 8.541129 0.000000 0.000000 0.000000 0.000000 0.000000
    45 -7.351523 1.350579 0.144448 -0.005656 -3.142550 -1.569931
    46 4.991368 -0.677071 0.532282 1.237053 -2.969057 -0.819481
  time 11
    0 -0.588943 -1.956710 38.567540 0.000000 0.000000 -1.570888
    1 -1.042082 0.000000 0.000000 -3.141557 -1.536379 1.570756
    2 3.928664 0.383633 -0.132812 0.002207 0.034347 0.064611
    3 3.442969 -0.003536 0.000000 0.000000 0.000000 0.061656
    4 4.441442 -0.003536 0.000000 0.000000 0.000000 0.102821
    5 4.441389 -0.003537 0.000000 0.000000 0.000000 0.097307
    6 4.441391 -0.002040 0.000000 0.000000 0.000000 0.363678
    7 0.000001 0.002036 1.614274 -0.000014 -1.430926 2.777152
    8 5.073841 0.000000 0.000002 0.320735 1.254891 0.392060
    9 12.011117 0.000000 -0.000001 0.000000 0.000000 -0.512668
    10 10.249307 0.000000 0.000000 -1.027554 -0.094610 0.110414
    11 1.183836 0.259443 -1.427523 -0.422557 0.296766 -0.219988
    12 0.625233 0.000000 0.000000 0.000000 0.000000 -0.008795
    13 1.041848 0.000000 0.000001 0.000000 0.000000 0.017591
    14 3.037806 -0.002122 -0.118180 -0.359619 -0.077750 -0.121765
    15 1.172004 -0.000001 0.000000 0.000000 0.000000 0.360865
    16 1.160930 0.000000 0.000000 0.000000 0.000000 0.585096
    17 0.000001 0.002045 -1.614274 -0.000014 1.474098 2.777136
    18 4.700062 0.000000 -0.000002 -0.807230 -1.231831 0.872626
    19 12.049927 0.000000 0.000001 0.000000 0.000000 -0.917964
    20 10.340311 0.000001 0.000000 0.857056 0.183548 0.274822
    21 1.186625 0.034757 1.438863 0.418127 -0.588387 -0.036116
    22 0.607803 0.000000 0.000000 0.000000 0.000000 -0.026395
    23 1.063061 0.000001 0.000000 0.000000 0.000000 -0.035193
    24 2.950419 0.002914 0.177525 0.381848 -0.050227 0.180837
    25 1.294388 0.000000 -0.000001 0.000000 0.000000 0.466477
    26 1.183920 0.000001 0.000000 0.000000 0.000000 0.842850
    27 2.738953 3.890889 0.113747 3.060541 -1.570796 0.000000
    28 0.000000 -1.023687 -1.922726 -0.052187 0.000000 0.000000
    29 0.000000 -0.558375 -1.804806 -0.127078 0.000000 0.000000
    30 0.000000 -0.325718 -1.929488 -0.029308 0.000000 0.000000
    31 0.000000 0.046531 -1.430430 -0.027192 0.011098 -0.000070
    32 0.000000 0.000000 -1.347565 0.042021 0.000000 0.000000
    33 0.000000 -0.046531 -2.135521 0.055436 -0.031927 -0.002193
    34 0.000000 -0.279187 -2.151380 0.270019 0.000000 0.000000
    35 -4.060012 -0.124378 3.416453 0.001409 -3.090336 -0.115837
    36 19.302956 0.000000 0.000000 0.000000 0.000000 -0.200075
    37 15.657714 0.000000 0.000000 0.001175 -0.051272 0.148819
    38 3.741828 7.474068 0.000000 0.000000 0.000000 1.570796
    39 -3.829536 -0.139985 -3.416451 0.003623 3.125859 -0.024837
    40 19.302958 0.000000 0.000000 0.000000 0.000000 -0.002011
    41 15.657715 0.000000 0.000000 -0.003011 0.015794 0.041702
    42 3.741828 7.351521 0.000000 0.000000 0.000000 1.570796
    43 2.562340 0.000000 0.000000 -0.000861 -0.049668 0.025117
    44 8.541129 0.000000 0.000000 0.000000 0.000000 0.000000
    45 -7.351523 1.350579 0.144448 -0.009491 -3.143221 -1.569260
    46 4.991368 -0.677071 0.532282 1.237053 -2.969057 -0.819481
  time 12
    0 -0.628006 -1.881077 38.531842 0.000000 0.000000 -1.570888
    1 -1.010831 0.000000 0.000000 -0.000033 -1.605674 -1.570756
    2 3.928664 0.383633 -0.136719 0.002141 0.034814 0.061898
    3 3.442969 -0.003536 0.000000 0.000000 0.000000 0.061054
    4 4.441442 -0.003536 0.000000 0.000000 0.000000 0.100306
    5 4.441389 -0.003537 0.000000 0.000000 0.000000 0.091575
    6 4.441391 -0.002040 0.000000 0.000000 0.000000 0.348871
    7 0.000001 0.002036 1.614274 -0.000014 -1.440596 2.792012
    8 5.073841 0.000000 0.000002 0.279945 1.269045 0.346145
    9 12.011117 0.000000 -0.000001 0.000000 0.000000 -0.474158
    10 10.249307 0.000000 0.000000 -1.052498 -0.064111 0.101456
    11 1.183836 0.259443 -1.427523 -0.397300 0.297728 -0.206692
    12 0.625233 0.000000 0.000000 0.000000 0.000000 -0.008269
    13 1.041848 0.000000 0.000001 0.000000 0.000000 0.016555
    14 3.037806 -0.002122 -0.118180 -0.340715 -0.058875 -0.074614
    15 1.172004 -0.000001 0.000000 0.000000 0.000000 0.339350
    16 1.160930 0.000000 0.000000 0.000000 0.000000 0.581991
    17 0.000001 0.002045 -1.614274 -0.000014 1.484215 2.791900
    18 4.700062 0.000000 -0.000002 -0.802054 -1.249445 0.862631
    19 12.049927 0.000000 0.000001 0.000000 0.000000 -0.876656
    20 10.340311 0.000001 0.000000 0.894708 0.158254 0.273339
    21 1.186625 0.034757 1.438863 0.386157 -0.571925 -0.015603
    22 0.607803 0.000000 0.000000 0.000000 0.000000 -0.024814
    23 1.063061 0.000001 0.000000 0.000000 0.000000 -0.033100
    24 2.950419 0.002914 0.177525 0.358271 -0.054721 0.205490
    25 1.294388 0.000000 -0.000001 0.000000 0.000000 0.438716
    26 1.183920 0.000001 0.000000 0.000000 0.000000 0.920521
    27 2.738953 3.890889 0.113747 3.063992 -1.570796 0.000000
    28 0.000000 -1.023687 -1.922726 -0.048555 0.000000 0.000000
    29 0.000000 -0.558375 -1.804806 -0.119147 0.000000 0.000000
    30 0.000000 -0.325718 -1.929488 -0.026555 0.000000 0.000000
    31 0.000000 0.046531 -1.430430 -0.031329 0.007922 -0.000028
    32 0.000000 0.000000 -1.347565 0.031492 0.000000 0.000000
    33 0.000000 -0.046531 -2.135521 0.039104 -0.051390 -0.001930
    34 0.000000 -0.279187 -2.151380 0.255773 0.000000 0.000000
    35 -4.063918 -0.136097 3.416453 0.001792 -3.089288 -0.120227
    36 19.302956 0.000000 0.000000 0.000000 0.000000 -0.213040
    37 15.657714 0.000000 0.000000 0.001144 -0.052405 0.154705
    38 3.741828 7.474068 0.000000 0.000000 0.000000 1.570796
    39 -3.829536 -0.147798 -3.416451 0.003527 3.127009 -0.023392
    40 19.302958 0.000000 0.000000 0.000000 0.000000 -0.002011
    41 15.657715 0.000000 0.000000 -0.003041 0.014710 0.040442
    42 3.741828 7.351521 0.000000 0.000000 0.000000 1.570796
    43 2.562340 0.000000 0.000000 0.000000 -0.061070 0.016604
    44 8.541129 0.000000 0.000000 0.000000 0.000000 0.000000
    45 -7.351523 1.350579 0.144448 -0.012559 -3.143796 -1.568685
    46 4.991368 -0.677071 0.532282 1.237053 -2.969057 -0.819481
  time 13
    0 -0.620194 -1.767627 38.531842 0.000000 0.000000 -1.570888
    1 -0.948329 0.000000 0.000000 -0.000033 -1.604655 -1.570756
    2 3.928664 0.383633 -0.132812 0.001942 0.033808 0.058044
    3 3.442969 -0.003536 0.000000 0.000000 0.000000 0.057468
    4 4.441442 -0.003536 0.000000 0.000000 0.000000 0.094024
    5 4.441389 -0.003537 0.000000 0.000000 0.000000 0.083501
    6 4.441391 -0.002040 0.000000 0.000000 0.000000 0.321687
    7 0.000001 0.002036 1.614274 -0.000014 -1.438215 2.819145
    8 5.073841 0.000000 0.000002 0.186718 1.273226 0.245066
    9 12.011117 0.000000 -0.000001 0.000000 0.000000 -0.423358
    10 10.249307 0.000000 0.000000 -1.078233 -0.033189 0.091497
    11 1.183836 0.259443 -1.427523 -0.355938 0.298562 -0.184922
    12 0.625233 0.000000 0.000000 0.000000 0.000000 -0.007414
    13 1.041848 0.000000 0.000001 0.000000 0.000000 0.014829
    14 3.037806 -0.002122 -0.118180 -0.307289 -0.036344 -0.018294
    15 1.172004 -0.000001 0.000000 0.000000 0.000000 0.304182
    16 1.160930 0.000000 0.000000 0.000000 0.000000 0.576798
    17 0.000001 0.002045 -1.614274 -0.000014 1.470524 2.819128
    18 4.700062 0.000000 -0.000002 -0.704722 -1.260860 0.760199
    19 12.049927 0.000000 0.000001 0.000000 0.000000 -0.811048
    20 10.340311 0.000001 0.000000 0.933017 0.132464 0.270822
    21 1.186625 0.034757 1.438863 0.335396 -0.543901 0.016138
    22 0.607803 0.000000 0.000000 0.000000 0.000000 -0.022252
    23 1.063061 0.000001 0.000000 0.000000 0.000000 -0.029641
    24 2.950419 0.002914 0.177525 0.320178 -0.056603 0.232355
    25 1.294388 0.000000 -0.000001 0.000000 0.000000 0.393186
    26 1.183920 0.000001 0.000000 0.000000 0.000000 0.990481
    27 2.738953 3.890889 0.113747 3.067923 -1.570796 0.000000
    28 0.000000 -1.023687 -1.922726 -0.044040 0.000000 0.000000
    29 0.000000 -0.558375 -1.804806 -0.108462 0.000000 0.000000
    30 0.000000 -0.325718 -1.929488 -0.023467 0.000000 0.000000
    31 0.000000 0.046531 -1.430430 -0.024561 0.004746 0.000014
    32 0.000000 0.000000 -1.347565 0.025426 0.000000 0.000000
    33 0.000000 -0.046531 -2.135521 0.023376 -0.068001 -0.001342
    34 0.000000 -0.279187 -2.151380 0.233889 0.000000 0.000000
    35 -4.056105 -0.151723 3.416453 0.001984 -3.089574 -0.120127
    36 19.302956 0.000000 0.000000 0.000000 0.000000 -0.218427
    37 15.657714 0.000000 0.000000 0.001175 -0.052107 0.156333
    38 3.741828 7.474068 0.000000 0.000000 0.000000 1.570796
    39 -3.829536 -0.163423 -3.416451 0.003240 3.126626 -0.038385
    40 19.302958 0.000000 0.000000 0.000000 0.000000 -0.041128
    41 15.657715 0.000000 0.000000 -0.003011 0.014999 0.060740
    42 3.741828 7.351521 0.000000 0.000000 0.000000 1.570796
    43 2.562340 0.000000 0.000000 0.001542 -0.062015 0.013680
    44 8.541129 0.000000 0.000000 0.000000 0.000000 0.000000
    45 -7.351523 1.350579 0.144448 -0.013805 -3.143988 -1.568205
    46 4.991368 -0.677071 0.532282 1.237053 -2.969057 -0.819481
  time 14
    0 -0.585036 -1.635270 38.531842 0.000000 0.000000 -1.570888
    1 -0.866295 0.000000 0.000000 -0.000033 -1.601863 -1.570756
    2 3.928664 0.383633 -0.121093 0.001632 0.031015 0.053323
    3 3.442969 -0.003536 0.000000 0.000000 0.000000 0.052314
    4 4.441442 -0.003536 0.000000 0.000000 0.000000 0.085587
    5 4.441389 -0.003537 0.000000 0.000000 0.000000 0.073636
    6 4.441391 -0.002040 0.000000 0.000000 0.000000 0.285790
    7 0.000001 0.002036 1.614274 -0.000014 -1.433502 2.855003
    8 5.073841 0.000000 0.000002 0.085348 1.272346 0.134534
    9 12.011117 0.000000 -0.000001 0.000000 0.000000 -0.365853
    10 10.249307 0.000000 0.000000 -1.105621 -0.001000 0.080219
    11 1.183836 0.259443 -1.427523 -0.311220 0.298562 -0.161350
    12 0.625233 0.000000 0.000000 0.000000 0.000000 -0.006477
    13 1.041848 0.000000 0.000001 0.000000 0.000000 0.012971
    14 3.037806 -0.002122 -0.118180 -0.269580 -0.019397 0.024421
    15 1.172004 -0.000001 0.000000 0.000000 0.000000 0.266187
    16 1.160930 0.000000 0.000000 0.000000 0.000000 0.571231
    17 0.000001 0.002045 -1.614274 -0.000014 1.450218 2.854985
    18 4.700062 0.000000 -0.000002 -0.582019 -1.265018 0.631459
    19 12.049927 0.000000 0.000001 0.000000 0.000000 -0.735645
    20 10.340311 0.000001 0.000000 0.973236 0.105518 0.267137
    21 1.186625 0.034757 1.438863 0.282726 -0.512129 0.047926
    22 0.607803 0.000000 0.000000 0.000000 0.000000 -0.019476
    23 1.063061 0.000001 0.000000 0.000000 0.000000 -0.025968
    24 2.950419 0.002914 0.177525 0.279689 -0.054062 0.249475
    25 1.294388 0.000000 -0.000001 0.000000 0.000000 0.344102
    26 1.183920 0.000001 0.000000 0.000000 0.000000 1.016083
    27 2.738953 3.890889 0.113747 3.072045 -1.570796 0.000000
    28 0.000000 -1.023687 -1.922726 -0.038707 0.000000 0.000000
    29 0.000000 -0.558375 -1.804806 -0.095551 0.000000 0.000000
    30 0.000000 -0.325718 -1.929488 -0.020096 0.000000 0.000000
    31 0.000000 0.046531 -1.430430 -0.010081 0.001822 0.000014
    32 0.000000 0.000000 -1.347565 0.020499 0.000000 0.000000
    33 0.000000 -0.046531 -2.135521 0.009805 -0.080405 -0.000623
    34 0.000000 -0.279187 -2.151380 0.206645 0.000000 0.000000
    35 -4.048293 -0.171255 3.416453 0.001984 -3.090431 -0.117433
    36 19.302956 0.000000 0.000000 0.000000 0.000000 -0.219617
    37 15.657714 0.000000 0.000000 0.001237 -0.051193 0.155540
    38 3.741828 7.474068 0.000000 0.000000 0.000000 1.570796
    39 -3.841255 -0.182955 -3.416451 0.002952 3.125668 -0.051883
    40 19.302958 0.000000 0.000000 0.000000 0.000000 -0.078497
    41 15.657715 0.000000 0.000000 -0.002980 0.015891 0.079918
    42 3.741828 7.351521 0.000000 0.000000 0.000000 1.570796
    43 2.562340 0.000000 0.000000 0.003310 -0.058428 0.012828
    44 8.541129 0.000000 0.000000 0.000000 0.000000 0.000000
    45 -7.351523 1.350579 0.144448 -0.012079 -3.143700 -1.567918
    46 4.991368 -0.677071 0.532282 1.237053 -2.969057 -0.819481
  time 15
    0 -0.538160 -1.484004 38.531842 0.000000 0.000000 -1.570888
    1 -0.768636 0.000000 0.000000 -0.000033 -1.597704 -1.570756
    2 3.928664 0.383633 -0.105468 0.001278 0.026880 0.047964
    3 3.442969 -0.003536 0.000000 0.000000 0.000000 0.045944
    4 4.441442 -0.003536 0.000000 0.000000 0.000000 0.075482
    5 4.441389 -0.003537 0.000000 0.000000 0.000000 0.062393
    6 4.441391 -0.002040 0.000000 0.000000 0.000000 0.243199
    7 0.000001 0.002036 1.614274 -0.000014 -1.425727 2.897668
    8 5.073841 0.000000 0.000002 -0.005306 1.265232 0.034197
    9 12.011117 0.000000 -0.000001 0.000000 0.000000 -0.308349
    10 10.249307 0.000000 0.000000 -1.134231 0.031780 0.067667
    11 1.183836 0.259443 -1.427523 -0.266101 0.297471 -0.137598
    12 0.625233 0.000000 0.000000 0.000000 0.000000 -0.005540
    13 1.041848 0.000000 0.000001 0.000000 0.000000 0.011097
    14 3.037806 -0.002122 -0.118180 -0.230701 -0.008575 0.050130
    15 1.172004 -0.000001 0.000000 0.000000 0.000000 0.227794
    16 1.160930 0.000000 0.000000 0.000000 0.000000 0.565610
    17 0.000001 0.002045 -1.614274 -0.000014 1.426216 2.897649
    18 4.700062 0.000000 -0.000002 -0.458806 -1.260180 0.501280
    19 12.049927 0.000000 0.000001 0.000000 0.000000 -0.658040
    20 10.340311 0.000001 0.000000 1.014640 0.077954 0.262238
    21 1.186625 0.034757 1.438863 0.231628 -0.478660 0.077535
    22 0.607803 0.000000 0.000000 0.000000 0.000000 -0.016657
    23 1.063061 0.000001 0.000000 0.000000 0.000000 -0.022209
    24 2.950419 0.002914 0.177525 0.239444 -0.047746 0.255164
    25 1.294388 0.000000 -0.000001 0.000000 0.000000 0.294452
    26 1.183920 0.000001 0.000000 0.000000 0.000000 0.994306
    27 2.738953 3.890889 0.113747 3.076455 -1.570796 0.000000
    28 0.000000 -1.023687 -1.922726 -0.032752 0.000000 0.000000
    29 0.000000 -0.558375 -1.804806 -0.080909 0.000000 0.000000
    30 0.000000 -0.325718 -1.929488 -0.016597 0.000000 0.000000
    31 0.000000 0.046531 -1.430430 0.000000 0.000000 0.000000
    32 0.000000 0.000000 -1.347565 0.016432 0.000000 0.000000
    33 0.000000 -0.046531 -2.135521 0.000000 -0.087260 0.000000
    34 0.000000 -0.279187 -2.151380 0.175288 0.000000 0.000000
    35 -4.032667 -0.190786 3.416453 0.001888 -3.091859 -0.112745
    36 19.302956 0.000000 0.000000 0.000000 0.000000 -0.217550
    37 15.657714 0.000000 0.000000 0.001299 -0.049801 0.152785
    38 3.741828 7.474068 0.000000 0.000000 0.000000 1.570796
    39 -3.852974 -0.202487 -3.416451 0.002665 3.124230 -0.060151
    40 19.302958 0.000000 0.000000 0.000000 0.000000 -0.105449
    41 15.657715 0.000000 0.000000 -0.002919 0.017240 0.093217
    42 3.741828 7.351521 0.000000 0.000000 0.000000 1.570796
    43 2.562340 0.000000 0.000000 0.004851 -0.051308 0.013643
    44 8.541129 0.000000 0.000000 0.000000 0.000000 0.000000
    45 -7.351523 1.350579 0.144448 -0.007861 -3.142933 -1.567726
    46 4.991368 -0.677071 0.532282 1.237053 -2.969057 -0.819481
  time 16
    0 -0.479564 -1.313830 38.496143 0.000000 0.000000 -1.570888
    1 -0.659257 0.000000 0.000000 -0.000033 -1.592599 -1.570756
    2 3.928664 0.383633 -0.082029 0.000902 0.021775 0.042149
    3 3.442969 -0.003536 0.000000 0.000000 0.000000 0.038746
    4 4.441442 -0.003536 0.000000 0.000000 0.000000 0.064198
    5 4.441389 -0.003537 0.000000 0.000000 0.000000 0.050187
    6 4.441391 -0.002040 0.000000 0.000000 0.000000 0.195904
    7 0.000001 0.002036 1.614274 -0.000014 -1.414187 2.944935
    8 5.073841 0.000000 0.000002 -0.067743 1.252544 -0.037780
    9 12.011117 0.000000 -0.000001 0.000000 0.000000 -0.257399
    10 10.249307 0.000000 0.000000 -1.163489 0.064434 0.054070
    11 1.183836 0.259443 -1.427523 -0.215948 0.295098 -0.111276
    12 0.625233 0.000000 0.000000 0.000000 0.000000 -0.004505
    13 1.041848 0.000000 0.000001 0.000000 0.000000 0.009026
    14 3.037806 -0.002122 -0.118180 -0.187163 0.000593 0.071971
    15 1.172004 -0.000001 0.000000 0.000000 0.000000 0.185072
    16 1.160930 0.000000 0.000000 0.000000 0.000000 0.559401
    17 0.000001 0.002045 -1.614274 -0.000014 1.401388 2.944914
    18 4.700062 0.000000 -0.000002 -0.359579 -1.247707 0.394930
    19 12.049927 0.000000 0.000001 0.000000 0.000000 -0.585902
    20 10.340311 0.000001 0.000000 1.056438 0.050390 0.256126
    21 1.186625 0.034757 1.438863 0.177085 -0.439971 0.107617
    22 0.607803 0.000000 0.000000 0.000000 0.000000 -0.013539
    23 1.063061 0.000001 0.000000 0.000000 0.000000 -0.018024
    24 2.950419 0.002914 0.177525 0.194993 -0.039357 0.256587
    25 1.294388 0.000000 -0.000001 0.000000 0.000000 0.239239
    26 1.183920 0.000001 0.000000 0.000000 0.000000 0.951059
    27 2.738953 3.890889 0.113747 3.080961 -1.570796 0.000000
    28 0.000000 -1.023687 -1.922726 -0.026306 0.000000 0.000000
    29 0.000000 -0.558375 -1.804806 -0.065067 0.000000 0.000000
    30 0.000000 -0.325718 -1.929488 -0.013020 0.000000 0.000000
    31 0.000000 0.046531 -1.430430 0.002510 -0.000623 0.000000
    32 0.000000 0.000000 -1.347565 0.012969 0.000000 0.000000
    33 0.000000 -0.046531 -2.135521 -0.004744 -0.083317 0.000300
    34 0.000000 -0.279187 -2.151380 0.141043 0.000000 0.000000
    35 -4.013135 -0.218131 3.416453 0.001697 -3.093573 -0.106560
    36 19.302956 0.000000 0.000000 0.000000 0.000000 -0.213103
    37 15.657714 0.000000 0.000000 0.001362 -0.048092 0.148694
    38 3.741828 7.474068 0.000000 0.000000 0.000000 1.570796
    39 -3.868600 -0.222019 -3.416451 0.002378 3.122602 -0.066029
    40 19.302958 0.000000 0.000000 0.000000 0.000000 -0.128032
    41 15.657715 0.000000 0.000000 -0.002828 0.018927 0.104089
    42 3.741828 7.351521 0.000000 0.000000 0.000000 1.570796
    43 2.562340 0.000000 0.000000 0.005668 -0.041631 0.015604
    44 8.541129 0.000000 0.000000 0.000000 0.000000 0.000000
    45 -7.351523 1.350579 0.144448 -0.003259 -3.142166 -1.567726
    46 4.991368 -0.677071 0.532282 1.237053 -2.969057 -0.819481
  time 17
    0 -0.417063 -1.143656 38.496143 0.000000 0.000000 -1.570888
    1 -0.542066 0.000000 0.000000 -0.000033 -1.586942 -1.570756
    2 3.928664 0.383633 -0.062498 0.000571 0.016130 0.036060
    3 3.442969 -0.003536 0.000000 0.000000 0.000000 0.031060
    4 4.441442 -0.003536 0.000000 0.000000 0.000000 0.052267
    5 4.441389 -0.003537 0.000000 0.000000 0.000000 0.037433
    6 4.441391 -0.002040 0.000000 0.000000 0.000000 0.145926
    7 0.000001 0.002036 1.614274 -0.000014 -1.398128 2.994886
    8 5.073841 0.000000 0.000002 -0.089531 1.235602 -0.067760
    9 12.011117 0.000000 -0.000001 0.000000 0.000000 -0.219783
    10 10.249307 0.000000 0.000000 -1.192890 0.096327 0.039655
    11 1.183836 0.259443 -1.427523 -0.162637 0.291184 -0.083377
    12 0.625233 0.000000 0.000000 0.000000 0.000000 -0.003387
    13 1.041848 0.000000 0.000001 0.000000 0.000000 0.006806
    14 3.037806 -0.002122 -0.118180 -0.140525 0.008407 0.091312
    15 1.172004 -0.000001 0.000000 0.000000 0.000000 0.139522
    16 1.160930 0.000000 0.000000 0.000000 0.000000 0.552709
    17 0.000001 0.002045 -1.614274 -0.000014 1.378651 2.994864
    18 4.700062 0.000000 -0.000002 -0.301180 -1.231227 0.330240
    19 12.049927 0.000000 0.000001 0.000000 0.000000 -0.526825
    20 10.340311 0.000001 0.000000 1.097842 0.023445 0.248980
    21 1.186625 0.034757 1.438863 0.121383 -0.397150 0.136563
    22 0.607803 0.000000 0.000000 0.000000 0.000000 -0.010208
    23 1.063061 0.000001 0.000000 0.000000 0.000000 -0.013582
    24 2.950419 0.002914 0.177525 0.147705 -0.029745 0.254901
    25 1.294388 0.000000 -0.000001 0.000000 0.000000 0.180369
    26 1.183920 0.000001 0.000000 0.000000 0.000000 0.893561
    27 2.738953 3.890889 0.113747 3.085371 -1.570796 0.000000
    28 0.000000 -1.023687 -1.922726 -0.019631 0.000000 0.000000
    29 0.000000 -0.558375 -1.804806 -0.048553 0.000000 0.000000
    30 0.000000 -0.325718 -1.929488 -0.009469 0.000000 0.000000
    31 0.000000 0.046531 -1.430430 0.002832 -0.000707 0.000000
    32 0.000000 0.000000 -1.347565 0.009854 0.000000 0.000000
    33 0.000000 -0.046531 -2.135521 -0.005319 -0.067545 0.000300
    34 0.000000 -0.279187 -2.151380 0.105183 0.000000 0.000000
    35 -3.993604 -0.241569 3.416453 0.001409 -3.095478 -0.099478
    36 19.302956 0.000000 0.000000 0.000000 0.000000 -0.207090
    37 15.657714 0.000000 0.000000 0.001424 -0.046184 0.143685
    38 3.741828 7.474068 0.000000 0.000000 0.000000 1.570796
    39 -3.888132 -0.245457 -3.416451 0.001995 3.120685 -0.070412
    40 19.302958 0.000000 0.000000 0.000000 0.000000 -0.147725
    41 15.657715 0.000000 0.000000 -0.002767 0.020783 0.113328
    42 3.741828 7.351521 0.000000 0.000000 0.000000 1.570796
    43 2.562340 0.000000 0.000000 0.005486 -0.030563 0.018232
    44 8.541129 0.000000 0.000000 0.000000 0.000000 0.000000
    45 -7.351523 1.350579 0.144448 0.000001 -3.141591 -1.567918
    46 4.991368 -0.677071 0.532282 1.237053 -2.969057 -0.819481
  time 18
    0 -0.350654 -0.964028 38.496143 0.000000 0.000000 -1.570888
    1 -0.424875 0.000000 0.000000 -3.141557 -1.560444 1.570756
    2 3.928664 0.383633 -0.039059 0.000306 0.010342 0.029926
    3 3.442969 -0.003536 0.000000 0.000000 0.000000 0.023248
    4 4.441442 -0.003536 0.000000 0.000000 0.000000 0.040164
    5 4.441389 -0.003537 0.000000 0.000000 0.000000 0.024545
    6 4.441391 -0.002040 0.000000 0.000000 0.000000 0.095253
    7 0.000001 0.002036 1.614274 -0.000014 -1.370310 3.045605
    8 5.073841 0.000000 0.000002 -0.051169 1.208539 -0.034337
    9 12.011117 0.000000 -0.000001 0.000000 0.000000 -0.211366
    10 10.249307 0.000000 0.000000 -1.222650 0.127502 0.024375
    11 1.183836 0.259443 -1.427523 -0.107847 0.285667 -0.054937
    12 0.625233 0.000000 0.000000 0.000000 0.000000 -0.002252
    13 1.041848 0.000000 0.000001 0.000000 0.000000 0.004505
    14 3.037806 -0.002122 -0.118180 -0.092293 0.015118 0.109552
    15 1.172004 -0.000001 0.000000 0.000000 0.000000 0.092514
    16 1.160930 0.000000 0.000000 0.000000 0.000000 0.545857
    17 0.000001 0.002045 -1.614274 -0.000014 1.358321 3.045581
    18 4.700062 0.000000 -0.000002 -0.297680 -1.211043 0.323124
    19 12.049927 0.000000 0.000001 0.000000 0.000000 -0.495388
    20 10.340311 0.000001 0.000000 1.139048 -0.002964 0.240800
    21 1.186625 0.034757 1.438863 0.066316 -0.351543 0.163235
    22 0.607803 0.000000 0.000000 0.000000 0.000000 -0.006748
    23 1.063061 0.000001 0.000000 0.000000 0.000000 -0.009012
    24 2.950419 0.002914 0.177525 0.098961 -0.019666 0.251372
    25 1.294388 0.000000 -0.000001 0.000000 0.000000 0.119594
    26 1.183920 0.000001 0.000000 0.000000 0.000000 0.828969
    27 2.738953 3.890889 0.113747 3.089589 -1.570796 0.000000
    28 0.000000 -1.023687 -1.922726 -0.012891 0.000000 0.000000
    29 0.000000 -0.558375 -1.804806 -0.031844 0.000000 0.000000
    30 0.000000 -0.325718 -1.929488 -0.006047 0.000000 0.000000
    31 0.000000 0.046531 -1.430430 0.001888 -0.000467 0.000000
    32 0.000000 0.000000 -1.347565 0.006833 0.000000 0.000000
    33 0.000000 -0.046531 -2.135521 -0.003537 -0.045026 0.000156
    34 0.000000 -0.279187 -2.151380 0.068882 0.000000 0.000000
    35 -3.970165 -0.265007 3.416453 0.001217 -3.097382 -0.091997
    36 19.302956 0.000000 0.000000 0.000000 0.000000 -0.200388
    37 15.657714 0.000000 0.000000 0.001486 -0.044256 0.138301
    38 3.741828 7.474068 0.000000 0.000000 0.000000 1.570796
    39 -3.903757 -0.268895 -3.416451 0.001707 3.118865 -0.073650
    40 19.302958 0.000000 0.000000 0.000000 0.000000 -0.165065
    41 15.657715 0.000000 0.000000 -0.002706 0.022687 0.121261
    42 3.741828 7.351521 0.000000 0.000000 0.000000 1.570796
    43 2.562340 0.000000 0.000000 0.004307 -0.019189 0.021082
    44 8.541129 0.000000 0.000000 0.000000 0.000000 0.000000
    45 -7.351523 1.350579 0.144448 0.000864 -3.141495 -1.568685
    46 4.991368 -0.677071 0.532282 1.237053 -2.969057 -0.819481
  time 19
    0 -0.284246 -0.793854 38.496143 0.000000 0.000000 -1.570888
    1 -0.311591 0.000000 0.000000 -0.000033 -1.575628 -1.570756
    2 3.928664 0.383633 -0.015621 0.000107 0.004829 0.023928
    3 3.442969 -0.003536 0.000000 0.000000 0.000000 0.015686
    4 4.441442 -0.003536 0.000000 0.000000 0.000000 0.028392
    5 4.441389 -0.003537 0.000000 0.000000 0.000000 0.011925
    6 4.441391 -0.002040 0.000000 0.000000 0.000000 0.045937
    7 0.000001 0.002036 1.614274 -0.000014 -1.331316 3.094885
    8 5.073841 0.000000 0.000002 0.017483 1.170108 0.032914
    9 12.011117 0.000000 -0.000001 0.000000 0.000000 -0.227530
    10 10.249307 0.000000 0.000000 -1.253130 0.158297 0.008004
    11 1.183836 0.259443 -1.427523 -0.053338 0.278674 -0.026903
    12 0.625233 0.000000 0.000000 0.000000 0.000000 -0.001101
    13 1.041848 0.000000 0.000001 0.000000 0.000000 0.002219
    14 3.037806 -0.002122 -0.118180 -0.043936 0.020955 0.128125
    15 1.172004 -0.000001 0.000000 0.000000 0.000000 0.045550
    16 1.160930 0.000000 0.000000 0.000000 0.000000 0.538952
    17 0.000001 0.002045 -1.614274 -0.000014 1.338380 3.094860
    18 4.700062 0.000000 -0.000002 -0.324947 -1.187457 0.349271
    19 12.049927 0.000000 0.000001 0.000000 0.000000 -0.486124
    20 10.340311 0.000001 0.000000 1.180715 -0.029167 0.231497
    21 1.186625 0.034757 1.438863 0.013421 -0.304654 0.186780
    22 0.607803 0.000000 0.000000 0.000000 0.000000 -0.003331
    23 1.063061 0.000001 0.000000 0.000000 0.000000 -0.004442
    24 2.950419 0.002914 0.177525 0.050205 -0.009779 0.247368
    25 1.294388 0.000000 -0.000001 0.000000 0.000000 0.058870
    26 1.183920 0.000001 0.000000 0.000000 0.000000 0.764314
    27 2.738953 3.890889 0.113747 3.093616 -1.570796 0.000000
    28 0.000000 -1.023687 -1.922726 -0.006282 0.000000 0.000000
    29 0.000000 -0.558375 -1.804806 -0.015490 0.000000 0.000000
    30 0.000000 -0.325718 -1.929488 -0.002856 0.000000 0.000000
    31 0.000000 0.046531 -1.430430 0.000643 -0.000156 0.000000
    32 0.000000 0.000000 -1.347565 0.003626 0.000000 0.000000
    33 0.000000 -0.046531 -2.135521 -0.001179 -0.020829 0.000036
    34 0.000000 -0.279187 -2.151380 0.033413 0.000000 0.000000
    35 -3.950634 -0.292352 3.416453 0.000930 -3.099192 -0.084814
    36 19.302956 0.000000 0.000000 0.000000 0.000000 -0.193999
    37 15.657714 0.000000 0.000000 0.001548 -0.042408 0.133125
    38 3.741828 7.474068 0.000000 0.000000 0.000000 1.570796
    39 -3.923289 -0.292334 -3.416451 0.001324 3.117045 -0.076140
    40 19.302958 0.000000 0.000000 0.000000 0.000000 -0.180322
    41 15.657715 0.000000 0.000000 -0.002645 0.024494 0.128074
    42 3.741828 7.351521 0.000000 0.000000 0.000000 1.570796
    43 2.562340 0.000000 0.000000 0.002312 -0.008649 0.023599
    44 8.541129 0.000000 0.000000 0.000000 0.000000 0.000000
    45 -7.351523 1.350579 0.144448 0.000385 -3.141591 -1.569739
    46 4.991368 -0.677071 0.532282 1.237053 -2.969057 -0.819481
  time 20
    0 -0.229557 -0.633134 38.496143 0.000000 0.000000 -1.570888
    1 -0.202212 0.000000 0.000000 -1.570795 -1.570451 0.000000
    2 3.928664 0.383633 0.000004 -0.000004 -0.000001 0.018250
    3 3.442969 -0.003536 0.000000 0.000000 0.000000 0.008727
    4 4.441442 -0.003536 0.000000 0.000000 0.000000 0.017453
    5 4.441389 -0.003537 0.000000 0.000000 0.000000 0.000000
    6 4.441391 -0.002040 0.000000 0.000000 0.000000 0.000000
    7 0.000001 0.002036 1.614274 -0.000014 -1.292298 3.140810
    8 5.073841 0.000000 0.000002 0.068346 1.130357 0.083218
    9 12.011117 0.000000 -0.000001 0.000000 0.000000 -0.243619
    10 10.249307 0.000000 0.000000 -1.284328 0.188628 -0.009322
    11 1.183836 0.259443 -1.427523 -0.000826 0.270526 -0.000221
    12 0.625233 0.000000 0.000000 0.000000 0.000000 0.000000
    13 1.041848 0.000000 0.000001 0.000000 0.000000 0.000000
    14 3.037806 -0.002122 -0.118180 0.003076 0.026012 0.148365
    15 1.172004 -0.000001 0.000000 0.000000 0.000000 0.000000
    16 1.160930 0.000000 0.000000 0.000000 0.000000 0.532314
    17 0.000001 0.002045 -1.614274 -0.000014 1.318464 3.140783
    18 4.700062 0.000000 -0.000002 -0.343539 -1.164702 0.367023
    19 12.049927 0.000000 0.000001 0.000000 0.000000 -0.476860
    20 10.340311 0.000001 0.000000 1.222645 -0.054915 0.221116
    21 1.186625 0.034757 1.438863 -0.036104 -0.258182 0.206819
    22 0.607803 0.000000 0.000000 0.000000 0.000000 0.000000
    23 1.063061 0.000001 0.000000 0.000000 0.000000 0.000000
    24 2.950419 0.002914 0.177525 0.002868 -0.000575 0.244313
    25 1.294388 0.000000 -0.000001 0.000000 0.000000 0.000000
    26 1.183920 0.000001 0.000000 0.000000 0.000000 0.706817
    27 2.738953 3.890889 0.113747 3.097163 -1.570796 0.000000
    28 0.000000 -1.023687 -1.922726 0.000000 0.000000 0.000000
    29 0.000000 -0.558375 -1.804806 0.000000 0.000000 0.000000
    30 0.000000 -0.325718 -1.929488 0.000000 0.000000 0.000000
    31 0.000000 0.046531 -1.430430 0.000000 0.000000 0.000000
    32 0.000000 0.000000 -1.347565 0.000000 0.000000 0.000000
    33 0.000000 -0.046531 -2.135521 0.000000 0.000000 0.000000
    34 0.000000 -0.279187 -2.151380 0.000000 0.000000 0.000000
    35 -3.935008 -0.311884 3.416453 0.000930 -3.100811 -0.078580
    36 19.302956 0.000000 0.000000 0.000000 0.000000 -0.189239
    37 15.657714 0.000000 0.000000 0.001579 -0.040798 0.128867
    38 3.741828 7.474068 0.000000 0.000000 0.000000 1.570796
    39 -3.935008 -0.311865 -3.416451 0.001037 3.115416 -0.077983
    40 19.302958 0.000000 0.000000 0.000000 0.000000 -0.193630
    41 15.657715 0.000000 0.000000 -0.002585 0.026109 0.133813
    42 3.741828 7.351521 0.000000 0.000000 0.000000 1.570796
    43 2.562340 0.000000 0.000000 0.000000 0.000000 0.025265
    44 8.541129 0.000000 0.000000 0.000000 0.000000 0.000000
    45 -7.351523 1.350579 0.144448 -3.141495 -0.000097 1.570694
    46 4.991368 -0.677071 0.532282 1.237053 -2.969057 -0.819481
end
