version 1
nodes
  0 "Bip01" -1
  1 "Bip01 Pelvis" 0
  2 "Bip01 Spine" 1
  3 "Bip01 Spine1" 2
  4 "Bip01 Spine2" 3
  5 "Bip01 Spine3" 4
  6 "Bip01 Neck" 5
  7 "Bip01 L Clavicle" 6
  8 "Bip01 L UpperArm" 7
  9 "Bip01 L Forearm" 8
  10 "Bip01 L Hand" 9
  11 "Bip01 L Finger0" 10
  12 "Bip01 L Finger01" 11
  13 "Bip01 L Finger02" 12
  14 "Bip01 L Finger2" 10
  15 "Bip01 L Finger21" 14
  16 "Bip01 L Finger22" 15
  17 "Bip01 R Clavicle" 6
  18 "Bip01 R UpperArm" 17
  19 "Bip01 R Forearm" 18
  20 "Bip01 R Hand" 19
  21 "Bip01 R Finger0" 20
  22 "Bip01 R Finger01" 21
  23 "Bip01 R Finger02" 22
  24 "Bip01 R Finger2" 20
  25 "Bip01 R Finger21" 24
  26 "Bip01 R Finger22" 25
  27 "tie1" 5
  28 "tie2" 27
  29 "tie3" 28
  30 "tie4" 29
  31 "tie5" 30
  32 "tie6" 31
  33 "tie7" 32
  34 "tie8" 33
  35 "Bip01 L Thigh" 2
  36 "Bip01 L Calf" 35
  37 "Bip01 L Foot" 36
  38 "Bip01 L Toe0" 37
  39 "Bip01 R Thigh" 2
  40 "Bip01 R Calf" 39
  41 "Bip01 R Foot" 40
  42 "Bip01 R Toe0" 41
  43 "Bip01 Head" 6
  44 "Dummy05" 43
  45 "Mouth" 44
  46 "needle" 20
end
skeleton
  time 0
    0 -0.233463 -0.633134 38.531842 0.000000 0.000000 -1.570888
    1 -0.202212 0.000000 0.000000 -1.570795 -1.570451 0.000000
    2 3.928664 0.383633 0.000004 -0.000004 -0.000001 0.018250
    3 3.442969 -0.003536 0.000000 0.000000 0.000000 0.008727
    4 4.441442 -0.003536 0.000000 0.000000 0.000000 0.017453
    5 4.441389 -0.003537 0.000000 0.000000 0.000000 0.000000
    6 4.441391 -0.002040 0.000000 0.000000 0.000000 0.000000
    7 0.000001 0.002036 1.614274 -0.000014 -1.292298 3.140810
    8 5.073841 0.000000 0.000002 0.049844 1.130870 0.062759
    9 12.011117 0.000000 -0.000001 0.000000 0.000000 -0.226189
    10 10.249307 0.000000 0.000000 -1.222866 0.193528 -0.009095
    11 1.183836 0.259443 -1.427523 -0.015333 0.270141 -0.054532
    12 0.625233 0.000000 0.000000 0.000000 0.000000 0.000000
    13 1.041848 0.000000 0.000001 0.000000 0.000000 0.000000
    14 3.037806 -0.002122 -0.118180 0.003300 0.025988 0.157102
    15 1.172004 -0.000001 0.000000 0.000000 0.000000 0.000000
    16 1.160930 0.000000 0.000000 0.000000 0.000000 0.514863
    17 0.000001 0.002045 -1.614274 -0.000014 1.318464 3.140783
    18 4.700062 0.000000 -0.000002 -0.343539 -1.164702 0.367023
    19 12.049927 0.000000 0.000001 0.000000 0.000000 -0.476860
    20 10.340311 0.000001 0.000000 1.244696 -0.052769 0.228801
    21 1.186625 0.034757 1.438863 -0.047522 -0.256389 0.251872
    22 0.607803 0.000000 0.000000 0.000000 0.000000 0.000000
    23 1.063061 0.000001 0.000000 0.000000 0.000000 0.000000
    24 2.950419 0.002914 0.177525 0.002893 -0.000503 0.218132
    25 1.294388 0.000000 -0.000001 0.000000 0.000000 0.095953
    26 1.183920 0.000001 0.000000 0.000000 0.000000 0.549746
    27 2.738953 3.890889 0.113747 3.097163 -1.570796 0.000000
    28 0.000000 -1.023687 -1.922726 0.000000 0.000000 0.000000
    29 0.000000 -0.558375 -1.804806 0.000000 0.000000 0.000000
    30 0.000000 -0.325718 -1.929488 0.000000 0.000000 0.000000
    31 0.000000 0.046531 -1.430430 0.000000 0.000000 0.000000
    32 0.000000 0.000000 -1.347565 0.000000 0.000000 0.000000
    33 0.000000 -0.046531 -2.135521 0.000000 0.000000 0.000000
    34 0.000000 -0.279187 -2.151380 0.000000 0.000000 0.000000
    35 -3.935008 -0.311884 3.416453 -0.000412 -3.105096 -0.049702
    36 19.302956 0.000000 0.000000 0.000000 0.000000 -0.124474
    37 15.657714 0.000000 0.000000 0.001548 -0.036505 0.093012
    38 3.741828 7.474068 0.000000 0.000000 0.000000 1.570796
    39 -3.935008 -0.311865 -3.416451 0.001612 3.111392 -0.049741
    40 19.302958 0.000000 0.000000 0.000000 0.000000 -0.124402
    41 15.657715 0.000000 0.000000 -0.002615 0.030205 0.092797
    42 3.741828 7.351521 0.000000 0.000000 0.000000 1.570796
    43 2.562340 0.000000 0.000000 0.000000 0.000000 0.025265
    44 8.541129 0.000000 0.000000 0.000000 0.000000 0.000000
    45 -7.351523 1.350579 0.144448 0.000001 -3.141591 -1.570794
    46 4.991368 -0.677071 0.532282 1.237053 -2.969057 -0.819481
  time 1
    0 -0.354561 -0.642588 38.496143 0.000000 0.000000 -1.570888
    1 -0.182680 0.000000 0.000000 -0.000033 -1.567958 -1.570756
    2 3.928664 0.383633 0.007817 -0.000048 -0.002841 0.015605
    3 3.442969 -0.003536 0.000000 0.000000 0.000000 0.008727
    4 4.441442 -0.003536 0.000000 0.000000 0.000000 0.017453
    5 4.441389 -0.003537 0.000000 0.000000 0.000000 0.000000
    6 4.441391 -0.002040 0.000000 0.000000 0.000000 0.000000
    7 0.000001 0.002036 1.614274 -0.000014 -1.290112 3.140810
    8 5.073841 0.000000 0.000002 0.154643 1.122363 0.178760
    9 12.011117 0.000000 -0.000001 0.000000 0.000000 -0.332781
    10 10.249307 0.000000 0.000000 -1.283321 0.160832 -0.024375
    11 1.183836 0.259443 -1.427523 -0.029999 0.288425 -0.065890
    12 0.625233 0.000000 0.000000 0.000000 0.000000 -0.009502
    13 1.041848 0.000000 0.000001 0.000000 0.000000 -0.009502
    14 3.037806 -0.002122 -0.118180 -0.009950 0.043462 0.144697
    15 1.172004 -0.000001 0.000000 0.000000 0.000000 0.051338
    16 1.160930 0.000000 0.000000 0.000000 0.000000 0.544359
    17 0.000001 0.002045 -1.614274 -0.000014 1.323911 3.140783
    18 4.700062 0.000000 -0.000002 -0.423373 -1.156916 0.452743
    19 12.049927 0.000000 0.000001 0.000000 0.000000 -0.547631
    20 10.340311 0.000001 0.000000 1.290905 -0.028176 0.219543
    21 1.186625 0.034757 1.438863 -0.033858 -0.287712 0.241592
    22 0.607803 0.000000 0.000000 0.000000 0.000000 -0.009482
    23 1.063061 0.000001 0.000000 0.000000 0.000000 -0.009482
    24 2.950419 0.002914 0.177525 0.014253 -0.018791 0.204594
    25 1.294388 0.000000 -0.000001 0.000000 0.000000 0.176815
    26 1.183920 0.000001 0.000000 0.000000 0.000000 0.577323
    27 2.738953 3.890889 0.113747 3.097163 -1.570796 0.000000
    28 0.000000 -1.023687 -1.922726 0.000000 0.000000 0.000000
    29 0.000000 -0.558375 -1.804806 0.000000 0.000000 0.000000
    30 0.000000 -0.325718 -1.929488 0.000000 0.000000 0.000000
    31 0.000000 0.046531 -1.430430 0.000000 0.006064 0.000000
    32 0.000000 0.000000 -1.347565 0.000000 0.000000 0.000000
    33 0.000000 -0.046531 -2.135521 0.000000 0.017126 0.000000
    34 0.000000 -0.279187 -2.151380 0.000000 0.000000 0.000000
    35 -3.927195 -0.319697 3.416453 -0.000220 -3.101763 -0.045063
    36 19.302956 0.000000 0.000000 0.000000 0.000000 -0.122219
    37 15.657714 0.000000 0.000000 0.001455 -0.039884 0.092720
    38 3.741828 7.474068 0.000000 0.000000 0.000000 1.570796
    39 -3.942821 -0.319678 -3.416451 0.001612 3.114649 -0.055669
    40 19.302958 0.000000 0.000000 0.000000 0.000000 -0.145708
    41 15.657715 0.000000 0.000000 -0.002706 0.026856 0.105583
    42 3.741828 7.351521 0.000000 0.000000 0.000000 1.570796
    43 2.562340 0.000000 0.000000 0.004217 -0.003504 0.044586
    44 8.541129 0.000000 0.000000 0.000000 0.000000 0.000000
    45 -7.351523 1.350579 0.144448 -3.141399 -0.000097 1.570023
    46 4.991368 -0.677071 0.532282 1.237053 -2.969057 -0.819481
  time 2
    0 -0.483471 -0.670950 38.496143 0.000000 0.000000 -1.570888
    1 -0.159242 0.000000 0.000000 -0.000033 -1.564722 -1.570804
    2 3.928664 0.383633 0.023443 -0.000070 -0.006065 0.012161
    3 3.442969 -0.003536 0.000000 0.000000 0.000000 0.008727
    4 4.441442 -0.003536 0.000000 0.000000 0.000000 0.017453
    5 4.441389 -0.003537 0.000000 0.000000 0.000000 0.000000
    6 4.441391 -0.002040 0.000000 0.000000 0.000000 0.000000
    7 0.000001 0.002036 1.614274 -0.000014 -1.283552 3.140810
    8 5.073841 0.000000 0.000002 0.232581 1.107255 0.265795
    9 12.011117 0.000000 -0.000001 0.000000 0.000000 -0.415760
    10 10.249307 0.000000 0.000000 -1.340973 0.128474 -0.037108
    11 1.183836 0.259443 -1.427523 -0.046903 0.308891 -0.079140
    12 0.625233 0.000000 0.000000 0.000000 0.000000 -0.020238
    13 1.041848 0.000000 0.000001 0.000000 0.000000 -0.020238
    14 3.037806 -0.002122 -0.118180 -0.025193 0.062985 0.130459
    15 1.172004 -0.000001 0.000000 0.000000 0.000000 0.109302
    16 1.160930 0.000000 0.000000 0.000000 0.000000 0.577601
    17 0.000001 0.002045 -1.614274 -0.000014 1.318440 3.140783
    18 4.700062 0.000000 -0.000002 -0.448453 -1.145577 0.480810
    19 12.049927 0.000000 0.000001 0.000000 0.000000 -0.575955
    20 10.340311 0.000001 0.000000 1.335402 -0.004037 0.211633
    21 1.186625 0.034757 1.438863 -0.017799 -0.322910 0.229322
    22 0.607803 0.000000 0.000000 0.000000 0.000000 -0.020244
    23 1.063061 0.000001 0.000000 0.000000 0.000000 -0.020244
    24 2.950419 0.002914 0.177525 0.027399 -0.039237 0.189107
    25 1.294388 0.000000 -0.000001 0.000000 0.000000 0.268082
    26 1.183920 0.000001 0.000000 0.000000 0.000000 0.608478
    27 2.738953 3.890889 0.113747 3.097163 -1.570796 0.000000
    28 0.000000 -1.023687 -1.922726 0.000000 0.000000 0.000000
    29 0.000000 -0.558375 -1.804806 0.000000 0.000000 0.000000
    30 0.000000 -0.325718 -1.929488 0.000000 0.000000 0.000000
    31 0.000000 0.046531 -1.430430 0.000000 0.012979 0.000000
    32 0.000000 0.000000 -1.347565 0.000000 0.000000 0.000000
    33 0.000000 -0.046531 -2.135521 0.000000 0.037416 0.000000
    34 0.000000 -0.279187 -2.151380 0.000000 0.000000 0.000000
    35 -3.915476 -0.335322 3.416453 -0.000124 -3.097954 -0.038330
    36 19.302956 0.000000 0.000000 0.000000 0.000000 -0.118398
    37 15.657714 0.000000 0.000000 0.001299 -0.043660 0.092177
    38 3.741828 7.474068 0.000000 0.000000 0.000000 1.570796
    39 -3.950634 -0.335304 -3.416451 0.001707 3.118386 -0.059554
    40 19.302958 0.000000 0.000000 0.000000 0.000000 -0.165670
    41 15.657715 0.000000 0.000000 -0.002858 0.023096 0.118228
    42 3.741828 7.351521 0.000000 0.000000 0.000000 1.570796
    43 2.562340 0.000000 0.000000 0.011199 -0.009455 0.058281
    44 8.541129 0.000000 0.000000 0.000000 0.000000 0.000000
    45 -7.351523 1.350579 0.144448 -3.141112 -0.000097 1.568201
    46 4.991368 -0.677071 0.532282 1.237053 -2.969057 -0.819481
  time 3
    0 -0.588943 -0.670950 38.496143 0.000000 0.000000 -1.570888
    1 -0.131898 0.000000 0.000000 -0.000033 -1.561295 -1.570756
    2 3.928664 0.383633 0.035162 -0.000070 -0.009493 0.008193
    3 3.442969 -0.003536 0.000000 0.000000 0.000000 0.008727
    4 4.441442 -0.003536 0.000000 0.000000 0.000000 0.017453
    5 4.441389 -0.003537 0.000000 0.000000 0.000000 0.000000
    6 4.441391 -0.002040 0.000000 0.000000 0.000000 0.000000
    7 0.000001 0.002036 1.614274 -0.027625 -1.257751 3.167080
    8 5.073841 0.000000 0.000002 0.240797 1.080045 0.268428
    9 12.011117 0.000000 -0.000001 0.000000 0.000000 -0.427603
    10 10.249307 0.000000 0.000000 -1.386693 0.097045 -0.046567
    11 1.183836 0.259443 -1.427523 -0.065366 0.330511 -0.093743
    12 0.625233 0.000000 0.000000 0.000000 0.000000 -0.031664
    13 1.041848 0.000000 0.000001 0.000000 0.000000 -0.031664
    14 3.037806 -0.002122 -0.118180 -0.041769 0.083538 0.114920
    15 1.172004 -0.000001 0.000000 0.000000 0.000000 0.171022
    16 1.160930 0.000000 0.000000 0.000000 0.000000 0.613039
    17 0.000001 0.002045 -1.614274 0.028940 1.272479 3.168490
    18 4.700062 0.000000 -0.000002 -0.311168 -1.120479 0.324323
    19 12.049927 0.000000 0.000001 0.000000 0.000000 -0.463572
    20 10.340311 0.000001 0.000000 1.369104 0.019195 0.205746
    21 1.186625 0.034757 1.438863 0.000020 -0.360190 0.215488
    22 0.607803 0.000000 0.000000 0.000000 0.000000 -0.031648
    23 1.063061 0.000001 0.000000 0.000000 0.000000 -0.031648
    24 2.950419 0.002914 0.177525 0.041755 -0.060785 0.172250
    25 1.294388 0.000000 -0.000001 0.000000 0.000000 0.365219
    26 1.183920 0.000001 0.000000 0.000000 0.000000 0.641607
    27 2.738953 3.890889 0.113747 3.097163 -1.570796 0.000000
    28 0.000000 -1.023687 -1.922726 0.000000 0.000000 0.000000
    29 0.000000 -0.558375 -1.804806 0.000000 0.000000 0.000000
    30 0.000000 -0.325718 -1.929488 0.000000 0.000000 0.000000
    31 0.000000 0.046531 -1.430430 0.000000 0.019475 0.000000
    32 0.000000 0.000000 -1.347565 0.000000 0.000000 0.000000
    33 0.000000 -0.046531 -2.135521 0.000000 0.056124 0.000000
    34 0.000000 -0.279187 -2.151380 0.000000 0.000000 0.000000
    35 -3.899851 -0.350948 3.416453 -0.000028 -3.095002 -0.031048
    36 19.302956 0.000000 0.000000 0.000000 0.000000 -0.112511
    37 15.657714 0.000000 0.000000 0.001113 -0.046622 0.089673
    38 3.741828 7.474068 0.000000 0.000000 0.000000 1.570796
    39 -3.962353 -0.350929 -3.416451 0.001899 3.121260 -0.062144
    40 19.302958 0.000000 0.000000 0.000000 0.000000 -0.181868
    41 15.657715 0.000000 0.000000 -0.003041 0.020180 0.127980
    42 3.741828 7.351521 0.000000 0.000000 0.000000 1.570796
    43 2.562340 0.000000 0.000000 0.012469 -0.010790 0.085226
    44 8.541129 0.000000 0.000000 0.000000 0.000000 0.000000
    45 -7.351523 1.350579 0.144448 -3.140824 -0.000193 1.565900
    46 4.991368 -0.677071 0.532282 1.237053 -2.969057 -0.819481
  time 4
    0 -0.624100 -0.585863 38.496143 0.000000 0.000000 -1.570888
    1 -0.100647 0.000000 0.000000 -0.000033 -1.557819 -1.570756
    2 3.928664 0.383633 0.050787 -0.000048 -0.012968 0.003974
    3 3.442969 -0.003536 0.000000 0.000000 0.000000 0.008727
    4 4.441442 -0.003536 0.000000 0.000000 0.000000 0.017453
    5 4.441389 -0.003537 0.000000 0.000000 0.000000 0.000000
    6 4.441391 -0.002040 0.000000 0.000000 0.000000 0.000000
    7 0.000001 0.002036 1.614274 -0.000014 -1.239967 3.140810
    8 5.073841 0.000000 0.000002 0.224437 1.063103 0.261068
    9 12.011117 0.000000 -0.000001 0.000000 0.000000 -0.415760
    10 10.249307 0.000000 0.000000 -1.425798 0.065532 -0.053979
    11 1.183836 0.259443 -1.427523 -0.084589 0.352132 -0.109113
    12 0.625233 0.000000 0.000000 0.000000 0.000000 -0.043270
    13 1.041848 0.000000 0.000001 0.000000 0.000000 -0.043270
    14 3.037806 -0.002122 -0.118180 -0.058942 0.104128 0.098748
    15 1.172004 -0.000001 0.000000 0.000000 0.000000 0.233714
    16 1.160930 0.000000 0.000000 0.000000 0.000000 0.649012
    17 0.000001 0.002045 -1.614274 -0.000014 1.231260 3.140783
    18 4.700062 0.000000 -0.000002 -0.164551 -1.094096 0.178311
    19 12.049927 0.000000 0.000001 0.000000 0.000000 -0.335470
    20 10.340311 0.000001 0.000000 1.396684 0.042385 0.201072
    21 1.186625 0.034757 1.438863 0.018924 -0.397791 0.200423
    22 0.607803 0.000000 0.000000 0.000000 0.000000 -0.043265
    23 1.063061 0.000001 0.000000 0.000000 0.000000 -0.043265
    24 2.950419 0.002914 0.177525 0.056736 -0.082417 0.154814
    25 1.294388 0.000000 -0.000001 0.000000 0.000000 0.463902
    26 1.183920 0.000001 0.000000 0.000000 0.000000 0.675291
    27 2.738953 3.890889 0.113747 3.097163 -1.570796 0.000000
    28 0.000000 -1.023687 -1.922726 0.000000 0.000000 0.000000
    29 0.000000 -0.558375 -1.804806 0.000000 0.000000 0.000000
    30 0.000000 -0.325718 -1.929488 0.000000 0.000000 0.000000
    31 0.000000 0.046531 -1.430430 0.000000 0.024293 0.000000
    32 0.000000 0.000000 -1.347565 0.000000 0.000000 0.000000
    33 0.000000 -0.046531 -2.135521 0.000000 0.068504 0.000000
    34 0.000000 -0.279187 -2.151380 0.000000 0.000000 0.000000
    35 -3.888132 -0.366573 3.416453 0.000068 -3.094050 -0.024863
    36 19.302956 0.000000 0.000000 0.000000 0.000000 -0.104493
    37 15.657714 0.000000 0.000000 0.000927 -0.047595 0.083578
    38 3.741828 7.474068 0.000000 0.000000 0.000000 1.570796
    39 -3.974072 -0.366555 -3.416451 0.001995 3.122218 -0.064584
    40 19.302958 0.000000 0.000000 0.000000 0.000000 -0.193294
    41 15.657715 0.000000 0.000000 -0.003254 0.019192 0.132600
    42 3.741828 7.351521 0.000000 0.000000 0.000000 1.570796
    43 2.562340 0.000000 0.000000 0.000000 0.000000 0.144263
    44 8.541129 0.000000 0.000000 0.000000 0.000000 0.000000
    45 -7.351523 1.350579 0.144448 -3.140441 -0.000289 1.563791
    46 4.991368 -0.677071 0.532282 1.237053 -2.969057 -0.819481
  time 5
    0 -0.592849 -0.415689 38.496143 0.000000 0.000000 -1.570888
    1 -0.073302 0.000000 0.000000 -0.000033 -1.554452 -1.570756
    2 3.928664 0.383633 0.062506 -0.000004 -0.016348 -0.000244
    3 3.442969 -0.003536 0.000000 0.000000 0.000000 0.008727
    4 4.441442 -0.003536 0.000000 0.000000 0.000000 0.017453
    5 4.441389 -0.003537 0.000000 0.000000 0.000000 0.000000
    6 4.441391 -0.002040 0.000000 0.000000 0.000000 0.000000
    7 0.000001 0.002036 1.614274 0.230273 -1.251993 2.921733
    8 5.073841 0.000000 0.000002 0.206864 1.081878 0.309279
    9 12.011117 0.000000 -0.000001 0.000000 0.000000 -0.415760
    10 10.249307 0.000000 0.000000 -1.474033 0.034822 -0.060710
    11 1.183836 0.259443 -1.427523 -0.103731 0.372854 -0.124527
    12 0.625233 0.000000 0.000000 0.000000 0.000000 -0.054532
    13 1.041848 0.000000 0.000001 0.000000 0.000000 -0.054532
    14 3.037806 -0.002122 -0.118180 -0.075966 0.123842 0.082709
    15 1.172004 -0.000001 0.000000 0.000000 0.000000 0.294507
    16 1.160930 0.000000 0.000000 0.000000 0.000000 0.683914
    17 0.000001 0.002045 -1.614274 -0.217359 1.232500 2.935423
    18 4.700062 0.000000 -0.000002 -0.077208 -1.107552 0.178231
    19 12.049927 0.000000 0.000001 0.000000 0.000000 -0.305476
    20 10.340311 0.000001 0.000000 1.433875 0.064915 0.196577
    21 1.186625 0.034757 1.438863 0.038203 -0.434014 0.184837
    22 0.607803 0.000000 0.000000 0.000000 0.000000 -0.054540
    23 1.063061 0.000001 0.000000 0.000000 0.000000 -0.054540
    24 2.950419 0.002914 0.177525 0.071642 -0.103139 0.137536
    25 1.294388 0.000000 -0.000001 0.000000 0.000000 0.559546
    26 1.183920 0.000001 0.000000 0.000000 0.000000 0.707927
    27 2.738953 3.890889 0.113747 3.097163 -1.570796 0.000000
    28 0.000000 -1.023687 -1.922726 0.000000 0.000000 0.000000
    29 0.000000 -0.558375 -1.804806 0.000000 0.000000 0.000000
    30 0.000000 -0.325718 -1.929488 0.000000 0.000000 0.000000
    31 0.000000 0.046531 -1.430430 0.000000 0.026174 0.000000
    32 0.000000 0.000000 -1.347565 0.000000 0.000000 0.000000
    33 0.000000 -0.046531 -2.135521 0.000000 0.069810 0.000000
    34 0.000000 -0.279187 -2.151380 0.000000 0.000000 0.000000
    35 -3.876413 -0.382199 3.416453 -0.000028 -3.094907 -0.020674
    36 19.302956 0.000000 0.000000 0.000000 0.000000 -0.095411
    37 15.657714 0.000000 0.000000 0.001020 -0.046721 0.074479
    38 3.741828 7.474068 0.000000 0.000000 0.000000 1.570796
    39 -3.981884 -0.382180 -3.416451 0.001803 3.121356 -0.067971
    40 19.302958 0.000000 0.000000 0.000000 0.000000 -0.201090
    41 15.657715 0.000000 0.000000 -0.003193 0.020060 0.132786
    42 3.741828 7.351521 0.000000 0.000000 0.000000 1.570796
    43 2.562340 0.000000 0.000000 -0.035547 0.033677 0.261150
    44 8.541129 0.000000 0.000000 0.000000 0.000000 0.000000
    45 -7.351523 1.350579 0.144448 -3.140345 -0.000289 1.562640
    46 4.991368 -0.677071 0.532282 1.237053 -2.969057 -0.819481
  time 6
    0 -0.538160 -0.188790 38.496143 0.000000 0.000000 -1.570888
    1 -0.045957 0.000000 0.000000 -0.000033 -1.551336 -1.570756
    2 3.928664 0.383633 0.074225 0.000062 -0.019464 -0.004190
    3 3.442969 -0.003536 0.000000 0.000000 0.000000 0.008727
    4 4.441442 -0.003536 0.000000 0.000000 0.000000 0.017453
    5 4.441389 -0.003537 0.000000 0.000000 0.000000 0.000000
    6 4.441391 -0.002040 0.000000 0.000000 0.000000 0.000000
    7 0.000001 0.002036 1.614274 0.465067 -1.262804 2.694794
    8 5.073841 0.000000 0.000002 0.196362 1.114662 0.369642
    9 12.011117 0.000000 -0.000001 0.000000 0.000000 -0.415760
    10 10.249307 0.000000 0.000000 -1.547069 0.005463 -0.067213
    11 1.183836 0.259443 -1.427523 -0.121834 0.391716 -0.139310
    12 0.625233 0.000000 0.000000 0.000000 0.000000 -0.064922
    13 1.041848 0.000000 0.000001 0.000000 0.000000 -0.064922
    14 3.037806 -0.002122 -0.118180 -0.091981 0.141771 0.067570
    15 1.172004 -0.000001 0.000000 0.000000 0.000000 0.350571
    16 1.160930 0.000000 0.000000 0.000000 0.000000 0.716140
    17 0.000001 0.002045 -1.614274 -0.430485 1.238920 2.731213
    18 4.700062 0.000000 -0.000002 -0.017278 -1.139453 0.220292
    19 12.049927 0.000000 0.000001 0.000000 0.000000 -0.308741
    20 10.340311 0.000001 0.000000 1.496474 0.086413 0.192038
    21 1.186625 0.034757 1.438863 0.056808 -0.467162 0.169535
    22 0.607803 0.000000 0.000000 0.000000 0.000000 -0.064919
    23 1.063061 0.000001 0.000000 0.000000 0.000000 -0.064919
    24 2.950419 0.002914 0.177525 0.085754 -0.122014 0.121364
    25 1.294388 0.000000 -0.000001 0.000000 0.000000 0.647825
    26 1.183920 0.000001 0.000000 0.000000 0.000000 0.738033
    27 2.738953 3.890889 0.113747 3.097163 -1.570796 0.000000
    28 0.000000 -1.023687 -1.922726 0.000000 0.000000 0.000000
    29 0.000000 -0.558375 -1.804806 0.000000 0.000000 0.000000
    30 0.000000 -0.325718 -1.929488 0.000000 0.000000 0.000000
    31 0.000000 0.046531 -1.430430 0.000000 0.025599 0.000000
    32 0.000000 0.000000 -1.347565 0.000000 0.000000 0.000000
    33 0.000000 -0.046531 -2.135521 0.000000 0.061109 0.000000
    34 0.000000 -0.279187 -2.151380 0.000000 0.000000 0.000000
    35 -3.860787 -0.397824 3.416453 -0.000028 -3.096525 -0.018180
    36 19.302956 0.000000 0.000000 0.000000 0.000000 -0.086517
    37 15.657714 0.000000 0.000000 0.001082 -0.045131 0.064085
    38 3.741828 7.474068 0.000000 0.000000 0.000000 1.570796
    39 -3.989697 -0.397805 -3.416451 0.001420 3.119727 -0.072155
    40 19.302958 0.000000 0.000000 0.000000 0.000000 -0.207072
    41 15.657715 0.000000 0.000000 -0.003132 0.021626 0.130687
    42 3.741828 7.351521 0.000000 0.000000 0.000000 1.570796
    43 2.562340 0.000000 0.000000 -0.081341 0.089129 0.416754
    44 8.541129 0.000000 0.000000 0.000000 0.000000 0.000000
    45 -7.351523 1.350579 0.144448 -3.140345 -0.000289 1.562928
    46 4.991368 -0.677071 0.532282 1.237053 -2.969057 -0.819481
  time 7
    0 -0.463939 0.057017 38.496143 0.000000 0.000000 -1.570888
    1 -0.018613 0.000000 0.000000 -0.000033 -1.548639 -1.570756
    2 3.928664 0.383633 0.085944 0.000151 -0.022161 -0.007633
    3 3.442969 -0.003536 0.000000 0.000000 0.000000 0.008727
    4 4.441442 -0.003536 0.000000 0.000000 0.000000 0.017453
    5 4.441389 -0.003537 0.000000 0.000000 0.000000 0.000000
    6 4.441391 -0.002040 0.000000 0.000000 0.000000 0.000000
    7 0.000001 0.002036 1.614274 0.566789 -1.284840 2.592590
    8 5.073841 0.000000 0.000002 0.196220 1.147152 0.416637
    9 12.011117 0.000000 -0.000001 0.000000 0.000000 -0.411961
    10 10.249307 0.000000 0.000000 -1.657556 -0.024867 -0.073215
    11 1.183836 0.259443 -1.427523 -0.137860 0.407883 -0.152426
    12 0.625233 0.000000 0.000000 0.000000 0.000000 -0.073915
    13 1.041848 0.000000 0.000001 0.000000 0.000000 -0.073915
    14 3.037806 -0.002122 -0.118180 -0.106104 0.157100 0.054198
    15 1.172004 -0.000001 0.000000 0.000000 0.000000 0.399126
    16 1.160930 0.000000 0.000000 0.000000 0.000000 0.743976
    17 0.000001 0.002045 -1.614274 -0.512073 1.256526 2.649912
    18 4.700062 0.000000 -0.000002 0.032372 -1.172337 0.249158
    19 12.049927 0.000000 0.000001 0.000000 0.000000 -0.308285
    20 10.340311 0.000001 0.000000 1.596527 0.108489 0.187589
    21 1.186625 0.034757 1.438863 0.073654 -0.495635 0.155513
    22 0.607803 0.000000 0.000000 0.000000 0.000000 -0.073888
    23 1.063061 0.000001 0.000000 0.000000 0.000000 -0.073888
    24 2.950419 0.002914 0.177525 0.098240 -0.138170 0.107088
    25 1.294388 0.000000 -0.000001 0.000000 0.000000 0.724258
    26 1.183920 0.000001 0.000000 0.000000 0.000000 0.764129
    27 2.738953 3.890889 0.113747 3.097163 -1.570796 0.000000
    28 0.000000 -1.023687 -1.922726 0.000000 0.000000 0.000000
    29 0.000000 -0.558375 -1.804806 0.000000 0.000000 0.000000
    30 0.000000 -0.325718 -1.929488 0.000000 0.000000 0.000000
    31 0.000000 0.046531 -1.430430 0.000000 0.024005 0.000000
    32 0.000000 0.000000 -1.347565 0.000000 0.000000 0.000000
    33 0.000000 -0.046531 -2.135521 0.000000 0.047519 0.000000
    34 0.000000 -0.279187 -2.151380 0.000000 0.000000 0.000000
    35 -3.852974 -0.409543 3.416453 -0.000124 -3.098620 -0.016634
    36 19.302956 0.000000 0.000000 0.000000 0.000000 -0.076621
    37 15.657714 0.000000 0.000000 0.001175 -0.043004 0.052315
    38 3.741828 7.474068 0.000000 0.000000 0.000000 1.570796
    39 -3.997510 -0.413431 -3.416451 0.001037 3.117715 -0.076688
    40 19.302958 0.000000 0.000000 0.000000 0.000000 -0.210702
    41 15.657715 0.000000 0.000000 -0.003071 0.023723 0.126300
    42 3.741828 7.351521 0.000000 0.000000 0.000000 1.570796
    43 2.562340 0.000000 0.000000 -0.115981 0.150588 0.564252
    44 8.541129 0.000000 0.000000 0.000000 0.000000 0.000000
    45 -7.351523 1.350579 0.144448 -3.140728 -0.000193 1.565421
    46 4.991368 -0.677071 0.532282 1.237053 -2.969057 -0.819481
  time 8
    0 -0.377999 0.302824 38.496143 0.000000 0.000000 -1.570888
    1 0.000919 0.000000 0.000000 -0.000033 -1.546518 -1.570756
    2 3.928664 0.383633 0.093757 0.000239 -0.024282 -0.010301
    3 3.442969 -0.003536 0.000000 0.000000 0.000000 0.008727
    4 4.441442 -0.003536 0.000000 0.000000 0.000000 0.017453
    5 4.441389 -0.003537 0.000000 0.000000 0.000000 0.000000
    6 4.441391 -0.002040 0.000000 0.000000 0.000000 0.000000
    7 0.000001 0.002036 1.614274 0.656622 -1.312390 2.500453
    8 5.073841 0.000000 0.000002 0.203078 1.181843 0.467751
    9 12.011117 0.000000 -0.000001 0.000000 0.000000 -0.405555
    10 10.249307 0.000000 0.000000 -1.794642 -0.055789 -0.076626
    11 1.183836 0.259443 -1.427523 -0.150728 0.420393 -0.163063
    12 0.625233 0.000000 0.000000 0.000000 0.000000 -0.080968
    13 1.041848 0.000000 0.000001 0.000000 0.000000 -0.080968
    14 3.037806 -0.002122 -0.118180 -0.117386 0.169012 0.043528
    15 1.172004 -0.000001 0.000000 0.000000 0.000000 0.437298
    16 1.160930 0.000000 0.000000 0.000000 0.000000 0.765871
    17 0.000001 0.002045 -1.614274 -0.575637 1.280163 2.584527
    18 4.700062 0.000000 -0.000002 0.077647 -1.208623 0.283142
    19 12.049927 0.000000 0.000001 0.000000 0.000000 -0.309728
    20 10.340311 0.000001 0.000000 1.723239 0.131020 0.184802
    21 1.186625 0.034757 1.438863 0.087430 -0.517862 0.143906
    22 0.607803 0.000000 0.000000 0.000000 0.000000 -0.080978
    23 1.063061 0.000001 0.000000 0.000000 0.000000 -0.080978
    24 2.950419 0.002914 0.177525 0.108231 -0.150753 0.095657
    25 1.294388 0.000000 -0.000001 0.000000 0.000000 0.784312
    26 1.183920 0.000001 0.000000 0.000000 0.000000 0.784611
    27 2.738953 3.890889 0.113747 3.097163 -1.570796 0.000000
    28 0.000000 -1.023687 -1.922726 0.000000 0.000000 0.000000
    29 0.000000 -0.558375 -1.804806 0.000000 0.000000 0.000000
    30 0.000000 -0.325718 -1.929488 0.000000 0.000000 0.000000
    31 0.000000 0.046531 -1.430430 0.000000 0.021620 0.000000
    32 0.000000 0.000000 -1.347565 0.000000 0.000000 0.000000
    33 0.000000 -0.046531 -2.135521 0.000000 0.030261 0.000000
    34 0.000000 -0.279187 -2.151380 0.000000 0.000000 0.000000
    35 -3.845162 -0.421262 3.416453 -0.000124 -3.101096 -0.015387
    36 19.302956 0.000000 0.000000 0.000000 0.000000 -0.064469
    37 15.657714 0.000000 0.000000 0.001237 -0.040540 0.038791
    38 3.741828 7.474068 0.000000 0.000000 0.000000 1.570796
    39 -4.005323 -0.421244 -3.416451 0.000558 3.115320 -0.081270
    40 19.302958 0.000000 0.000000 0.000000 0.000000 -0.211441
    41 15.657715 0.000000 0.000000 -0.003011 0.026157 0.119861
    42 3.741828 7.351521 0.000000 0.000000 0.000000 1.570796
    43 2.562340 0.000000 0.000000 -0.127951 0.194666 0.659302
    44 8.541129 0.000000 0.000000 0.000000 0.000000 0.000000
    45 -7.351523 1.350579 0.144448 0.000001 -3.141591 -1.570794
    46 4.991368 -0.677071 0.532282 1.237053 -2.969057 -0.819481
  time 9
    0 -0.288152 0.548631 38.496143 0.000000 0.000000 -1.570888
    1 0.008732 0.000000 0.000000 -0.000033 -1.545128 -1.570756
    2 3.928664 0.383633 0.097664 0.000283 -0.025660 -0.011920
    3 3.442969 -0.003536 0.000000 0.000000 0.000000 0.008727
    4 4.441442 -0.003536 0.000000 0.000000 0.000000 0.017453
    5 4.441389 -0.003537 0.000000 0.000000 0.000000 0.000000
    6 4.441391 -0.002040 0.000000 0.000000 0.000000 0.000000
    7 0.000001 0.002036 1.614274 0.713283 -1.344217 2.440339
    8 5.073841 0.000000 0.000002 0.214722 1.213013 0.512652
    9 12.011117 0.000000 -0.000001 0.000000 0.000000 -0.404289
    10 10.249307 0.000000 0.000000 -1.938268 -0.082866 -0.076080
    11 1.183836 0.259443 -1.427523 -0.159240 0.428541 -0.170139
    12 0.625233 0.000000 0.000000 0.000000 0.000000 -0.085604
    13 1.041848 0.000000 0.000001 0.000000 0.000000 -0.085604
    14 3.037806 -0.002122 -0.118180 -0.124846 0.176754 0.036425
    15 1.172004 -0.000001 0.000000 0.000000 0.000000 0.462259
    16 1.160930 0.000000 0.000000 0.000000 0.000000 0.780217
    17 0.000001 0.002045 -1.614274 -0.605645 1.309636 2.551163
    18 4.700062 0.000000 -0.000002 0.104186 -1.242490 0.316407
    19 12.049927 0.000000 0.000001 0.000000 0.000000 -0.317398
    20 10.340311 0.000001 0.000000 1.857916 0.150826 0.184802
    21 1.186625 0.034757 1.438863 0.096676 -0.532339 0.136089
    22 0.607803 0.000000 0.000000 0.000000 0.000000 -0.085590
    23 1.063061 0.000001 0.000000 0.000000 0.000000 -0.085590
    24 2.950419 0.002914 0.177525 0.114871 -0.158927 0.088124
    25 1.294388 0.000000 -0.000001 0.000000 0.000000 0.823662
    26 1.183920 0.000001 0.000000 0.000000 0.000000 0.797999
    27 2.738953 3.890889 0.113747 3.097163 -1.570796 0.000000
    28 0.000000 -1.023687 -1.922726 0.000000 0.000000 0.000000
    29 0.000000 -0.558375 -1.804806 0.000000 0.000000 0.000000
    30 0.000000 -0.325718 -1.929488 0.000000 0.000000 0.000000
    31 0.000000 0.046531 -1.430430 0.000000 0.018636 0.000000
    32 0.000000 0.000000 -1.347565 0.000000 0.000000 0.000000
    33 0.000000 -0.046531 -2.135521 0.000000 0.010606 0.000000
    34 0.000000 -0.279187 -2.151380 0.000000 0.000000 0.000000
    35 -3.837349 -0.429075 3.416453 -0.000316 -3.103667 -0.013441
    36 19.302956 0.000000 0.000000 0.000000 0.000000 -0.048372
    37 15.657714 0.000000 0.000000 0.001299 -0.037936 0.023013
    38 3.741828 7.474068 0.000000 0.000000 0.000000 1.570796
    39 -4.009229 -0.429056 -3.416451 0.000175 3.112733 -0.085454
    40 19.302958 0.000000 0.000000 0.000000 0.000000 -0.209021
    41 15.657715 0.000000 0.000000 -0.002980 0.028735 0.111602
    42 3.741828 7.351521 0.000000 0.000000 0.000000 1.570796
    43 2.562340 0.000000 0.000000 -0.120198 0.215162 0.688764
    44 8.541129 0.000000 0.000000 0.000000 0.000000 0.000000
    45 -7.351523 1.350579 0.144448 -0.002108 -3.142070 -1.557084
    46 4.991368 -0.677071 0.532282 1.237053 -2.969057 -0.819481
  time 10
    0 -0.202212 0.784984 38.496143 0.000000 0.000000 -1.570888
    1 0.012638 0.000000 0.000000 -0.000033 -1.544636 -1.570756
    2 3.928664 0.383633 0.101570 0.000306 -0.026163 -0.012239
    3 3.442969 -0.003536 0.000000 0.000000 0.000000 0.008727
    4 4.441442 -0.003536 0.000000 0.000000 0.000000 0.017453
    5 4.441389 -0.003537 0.000000 0.000000 0.000000 0.000000
    6 4.441391 -0.002040 0.000000 0.000000 0.000000 0.000000
    7 0.000001 0.002036 1.614274 0.695546 -1.379445 2.454241
    8 5.073841 0.000000 0.000002 0.222580 1.235895 0.534799
    9 12.011117 0.000000 -0.000001 0.000000 0.000000 -0.415760
    10 10.249307 0.000000 0.000000 -2.068309 -0.101622 -0.072624
    11 1.183836 0.259443 -1.427523 -0.162317 0.431428 -0.172663
    12 0.625233 0.000000 0.000000 0.000000 0.000000 -0.087264
    13 1.041848 0.000000 0.000001 0.000000 0.000000 -0.087264
    14 3.037806 -0.002122 -0.118180 -0.127536 0.179511 0.033891
    15 1.172004 -0.000001 0.000000 0.000000 0.000000 0.471228
    16 1.160930 0.000000 0.000000 0.000000 0.000000 0.785356
    17 0.000001 0.002045 -1.614274 -0.573527 1.344289 2.578966
    18 4.700062 0.000000 -0.000002 0.101780 -1.268042 0.339356
    19 12.049927 0.000000 0.000001 0.000000 0.000000 -0.335470
    20 10.340311 0.000001 0.000000 1.981798 0.164567 0.186960
    21 1.186625 0.034757 1.438863 0.100045 -0.537527 0.133199
    22 0.607803 0.000000 0.000000 0.000000 0.000000 -0.087256
    23 1.063061 0.000001 0.000000 0.000000 0.000000 -0.087256
    24 2.950419 0.002914 0.177525 0.117268 -0.161839 0.085438
    25 1.294388 0.000000 -0.000001 0.000000 0.000000 0.837723
    26 1.183920 0.000001 0.000000 0.000000 0.000000 0.802811
    27 2.738953 3.890889 0.113747 3.097163 -1.570796 0.000000
    28 0.000000 -1.023687 -1.922726 0.000000 0.000000 0.000000
    29 0.000000 -0.558375 -1.804806 0.000000 0.000000 0.000000
    30 0.000000 -0.325718 -1.929488 0.000000 0.000000 0.000000
    31 0.000000 0.046531 -1.430430 0.000000 0.015268 0.000000
    32 0.000000 0.000000 -1.347565 0.000000 0.000000 0.000000
    33 0.000000 -0.046531 -2.135521 0.000000 -0.010175 0.000000
    34 0.000000 -0.279187 -2.151380 0.000000 0.000000 0.000000
    35 -3.837349 -0.429075 3.416453 -0.000603 -3.106143 -0.008005
    36 19.302956 0.000000 0.000000 0.000000 0.000000 -0.022378
    37 15.657714 0.000000 0.000000 0.001331 -0.035412 0.002142
    38 3.741828 7.474068 0.000000 0.000000 0.000000 1.570796
    39 -4.009229 -0.429056 -3.416451 -0.000304 3.110242 -0.089090
    40 19.302958 0.000000 0.000000 0.000000 0.000000 -0.203107
    41 15.657715 0.000000 0.000000 -0.002950 0.031217 0.101803
    42 3.741828 7.351521 0.000000 0.000000 0.000000 1.570796
    43 2.562340 0.000000 0.000000 -0.103014 0.224673 0.681436
    44 8.541129 0.000000 0.000000 0.000000 0.000000 0.000000
    45 -7.351523 1.350579 0.144448 -0.005560 -3.142933 -1.534361
    46 4.991368 -0.677071 0.532282 1.237053 -2.969057 -0.819481
  time 11
    0 -0.124085 0.974066 38.496143 0.000000 0.000000 -1.570888
    1 0.004825 0.000000 0.000000 -0.000033 -1.545128 -1.570756
    2 3.928664 0.383633 0.097664 0.000261 -0.025660 -0.010985
    3 3.442969 -0.003536 0.000000 0.000000 0.000000 0.008727
    4 4.441442 -0.003536 0.000000 0.000000 0.000000 0.017453
    5 4.441389 -0.003537 0.000000 0.000000 0.000000 0.000000
    6 4.441391 -0.002040 0.000000 0.000000 0.000000 0.000000
    7 0.000001 0.002036 1.614274 0.224809 -1.417613 2.918473
    8 5.073841 0.000000 0.000002 0.211079 1.234062 0.472342
    9 12.011117 0.000000 -0.000001 0.000000 0.000000 -0.478628
    10 10.249307 0.000000 0.000000 -2.170027 -0.097609 -0.072124
    11 1.183836 0.259443 -1.427523 -0.159240 0.428541 -0.170139
    12 0.625233 0.000000 0.000000 0.000000 0.000000 -0.085604
    13 1.041848 0.000000 0.000001 0.000000 0.000000 -0.085604
    14 3.037806 -0.002122 -0.118180 -0.124846 0.176754 0.036425
    15 1.172004 -0.000001 0.000000 0.000000 0.000000 0.462259
    16 1.160930 0.000000 0.000000 0.000000 0.000000 0.780217
    17 0.000001 0.002045 -1.614274 -0.190802 1.390421 2.952967
    18 4.700062 0.000000 -0.000002 0.004594 -1.269100 0.318166
    19 12.049927 0.000000 0.000001 0.000000 0.000000 -0.392725
    20 10.340311 0.000001 0.000000 2.084813 0.161637 0.187409
    21 1.186625 0.034757 1.438863 0.096676 -0.532339 0.136089
    22 0.607803 0.000000 0.000000 0.000000 0.000000 -0.085590
    23 1.063061 0.000001 0.000000 0.000000 0.000000 -0.085590
    24 2.950419 0.002914 0.177525 0.114871 -0.158927 0.088124
    25 1.294388 0.000000 -0.000001 0.000000 0.000000 0.823662
    26 1.183920 0.000001 0.000000 0.000000 0.000000 0.797999
    27 2.738953 3.890889 0.113747 3.097163 -1.570796 0.000000
    28 0.000000 -1.023687 -1.922726 0.000000 0.000000 0.000000
    29 0.000000 -0.558375 -1.804806 0.000000 0.000000 0.000000
    30 0.000000 -0.325718 -1.929488 0.000000 0.000000 0.000000
    31 0.000000 0.046531 -1.430430 0.000000 0.011721 0.000000
    32 0.000000 0.000000 -1.347565 0.000000 0.000000 0.000000
    33 0.000000 -0.046531 -2.135521 0.000000 -0.030848 0.000000
    34 0.000000 -0.279187 -2.151380 0.000000 0.000000 0.000000
    35 -3.837349 -0.425169 3.416453 -0.000795 -3.108429 -0.005810
    36 19.302956 0.000000 0.000000 0.000000 0.000000 -0.001959
    37 15.657714 0.000000 0.000000 0.001362 -0.033167 -0.014846
    38 3.741828 7.474068 0.000000 0.000000 0.000000 1.570796
    39 -4.009229 -0.425150 -3.416451 -0.000591 3.108038 -0.091929
    40 19.302958 0.000000 0.000000 0.000000 0.000000 -0.193832
    41 15.657715 0.000000 0.000000 -0.002919 0.033435 0.090884
    42 3.741828 7.351521 0.000000 0.000000 0.000000 1.570796
    43 2.562340 0.000000 0.000000 -0.081205 0.226341 0.655712
    44 8.541129 0.000000 0.000000 0.000000 0.000000 0.000000
    45 -7.351523 1.350579 0.144448 -0.009299 -3.143892 -1.509529
    46 4.991368 -0.677071 0.532282 1.237053 -2.969057 -0.819481
  time 12
    0 -0.061583 1.106424 38.531842 0.000000 0.000000 -1.570888
    1 -0.018613 0.000000 0.000000 -0.000033 -1.546518 -1.570756
    2 3.928664 0.383633 0.093757 0.000173 -0.024282 -0.007907
    3 3.442969 -0.003536 0.000000 0.000000 0.000000 0.008727
    4 4.441442 -0.003536 0.000000 0.000000 0.000000 0.017453
    5 4.441389 -0.003537 0.000000 0.000000 0.000000 0.000000
    6 4.441391 -0.002040 0.000000 0.000000 0.000000 0.000000
    7 0.000001 0.002036 1.614274 -0.402394 -1.391714 3.537450
    8 5.073841 0.000000 0.000002 0.177003 1.222767 0.363093
    9 12.011117 0.000000 -0.000001 0.000000 0.000000 -0.537920
    10 10.249307 0.000000 0.000000 -2.243062 -0.074629 -0.072988
    11 1.183836 0.259443 -1.427523 -0.150728 0.420393 -0.163063
    12 0.625233 0.000000 0.000000 0.000000 0.000000 -0.080968
    13 1.041848 0.000000 0.000001 0.000000 0.000000 -0.080968
    14 3.037806 -0.002122 -0.118180 -0.117386 0.169012 0.043528
    15 1.172004 -0.000001 0.000000 0.000000 0.000000 0.437298
    16 1.160930 0.000000 0.000000 0.000000 0.000000 0.765871
    17 0.000001 0.002045 -1.614274 0.384342 1.383660 3.519003
    18 4.700062 0.000000 -0.000002 -0.097039 -1.259953 0.266110
    19 12.049927 0.000000 0.000001 0.000000 0.000000 -0.457649
    20 10.340311 0.000001 0.000000 2.165579 0.144843 0.187229
    21 1.186625 0.034757 1.438863 0.087430 -0.517862 0.143906
    22 0.607803 0.000000 0.000000 0.000000 0.000000 -0.080978
    23 1.063061 0.000001 0.000000 0.000000 0.000000 -0.080978
    24 2.950419 0.002914 0.177525 0.108231 -0.150753 0.095657
    25 1.294388 0.000000 -0.000001 0.000000 0.000000 0.784312
    26 1.183920 0.000001 0.000000 0.000000 0.000000 0.784611
    27 2.738953 3.890889 0.113747 3.097163 -1.570796 0.000000
    28 0.000000 -1.023687 -1.922726 0.000000 0.000000 0.000000
    29 0.000000 -0.558375 -1.804806 0.000000 0.000000 0.000000
    30 0.000000 -0.325718 -1.929488 0.000000 0.000000 0.000000
    31 0.000000 0.046531 -1.430430 0.000000 0.008221 0.000000
    32 0.000000 0.000000 -1.347565 0.000000 0.000000 0.000000
    33 0.000000 -0.046531 -2.135521 0.000000 -0.050156 0.000000
    34 0.000000 -0.279187 -2.151380 0.000000 0.000000 0.000000
    35 -3.845162 -0.413449 3.416453 -0.000699 -3.110238 -0.013441
    36 19.302956 0.000000 0.000000 0.000000 0.000000 -0.001959
    37 15.657714 0.000000 0.000000 0.001424 -0.031398 -0.019354
    38 3.741828 7.474068 0.000000 0.000000 0.000000 1.570796
    39 -4.005323 -0.413431 -3.416451 -0.000782 3.106314 -0.094021
    40 19.302958 0.000000 0.000000 0.000000 0.000000 -0.181465
    41 15.657715 0.000000 0.000000 -0.002858 0.035194 0.079498
    42 3.741828 7.351521 0.000000 0.000000 0.000000 1.570796
    43 2.562340 0.000000 0.000000 -0.059079 0.222726 0.630024
    44 8.541129 0.000000 0.000000 0.000000 0.000000 0.000000
    45 -7.351523 1.350579 0.144448 -0.012367 -3.144851 -1.489395
    46 4.991368 -0.677071 0.532282 1.237053 -2.969057 -0.819481
  time 13
    0 -0.034238 1.059153 38.531842 0.000000 0.000000 -1.570888
    1 -0.186587 0.000000 0.000000 -0.000033 -1.548639 -1.570756
    2 3.928664 0.383633 0.085944 -0.000336 -0.022161 0.015787
    3 3.442969 -0.003536 0.000000 0.000000 0.000000 0.008727
    4 4.441442 -0.003536 0.000000 0.000000 0.000000 0.017453
    5 4.441389 -0.003537 0.000000 0.000000 0.000000 0.000000
    6 4.441391 -0.002040 0.000000 0.000000 0.000000 0.000000
    7 0.000001 0.002036 1.614274 -0.672565 -1.349586 3.801397
    8 5.073841 0.000000 0.000002 0.065846 1.229735 0.202055
    9 12.011117 0.000000 -0.000001 0.000000 0.000000 -0.537026
    10 10.249307 0.000000 0.000000 -2.319476 -0.045819 -0.067895
    11 1.183836 0.259443 -1.427523 -0.137860 0.407883 -0.152426
    12 0.625233 0.000000 0.000000 0.000000 0.000000 -0.073915
    13 1.041848 0.000000 0.000001 0.000000 0.000000 -0.073915
    14 3.037806 -0.002122 -0.118180 -0.106104 0.157100 0.054198
    15 1.172004 -0.000001 0.000000 0.000000 0.000000 0.399126
    16 1.160930 0.000000 0.000000 0.000000 0.000000 0.743976
    17 0.000001 0.002045 -1.614274 0.666784 1.347961 3.795406
    18 4.700062 0.000000 -0.000002 -0.059127 -1.265320 0.162959
    19 12.049927 0.000000 0.000001 0.000000 0.000000 -0.493566
    20 10.340311 0.000001 0.000000 2.251941 0.123798 0.191364
    21 1.186625 0.034757 1.438863 0.073654 -0.495635 0.155513
    22 0.607803 0.000000 0.000000 0.000000 0.000000 -0.073888
    23 1.063061 0.000001 0.000000 0.000000 0.000000 -0.073888
    24 2.950419 0.002914 0.177525 0.098240 -0.138170 0.107088
    25 1.294388 0.000000 -0.000001 0.000000 0.000000 0.724258
    26 1.183920 0.000001 0.000000 0.000000 0.000000 0.764129
    27 2.738953 3.890889 0.113747 3.097163 -1.570796 0.000000
    28 0.000000 -1.023687 -1.922726 0.000000 0.000000 0.000000
    29 0.000000 -0.558375 -1.804806 0.000000 0.000000 0.000000
    30 0.000000 -0.325718 -1.929488 0.000000 0.000000 0.000000
    31 0.000000 0.046531 -1.430430 0.000000 0.004950 0.000000
    32 0.000000 0.000000 -1.347565 0.000000 0.000000 0.000000
    33 0.000000 -0.046531 -2.135521 0.000000 -0.066826 0.000000
    34 0.000000 -0.279187 -2.151380 0.000000 0.000000 0.000000
    35 -3.860787 -0.319697 3.416453 -0.000603 -3.111000 -0.040375
    36 19.302956 0.000000 0.000000 0.000000 0.000000 -0.001959
    37 15.657714 0.000000 0.000000 0.001424 -0.030583 -0.022652
    38 3.741828 7.474068 0.000000 0.000000 0.000000 1.570796
    39 -4.009229 -0.319678 -3.416451 -0.000591 3.105547 -0.110408
    40 19.302958 0.000000 0.000000 0.000000 0.000000 -0.157941
    41 15.657715 0.000000 0.000000 -0.002828 0.035917 0.063213
    42 3.741828 7.351521 0.000000 0.000000 0.000000 1.570796
    43 2.562340 0.000000 0.000000 -0.041033 0.215551 0.604337
    44 8.541129 0.000000 0.000000 0.000000 0.000000 0.000000
    45 -7.351523 1.350579 0.144448 -0.013613 -3.145234 -1.480958
    46 4.991368 -0.677071 0.532282 1.237053 -2.969057 -0.819481
  time 14
    0 -0.038145 0.813346 38.567540 0.000000 0.000000 -1.570888
    1 -0.471752 0.000000 0.000000 -0.000033 -1.551336 -1.570756
    2 3.928664 0.383633 0.074225 -0.001087 -0.019428 0.056151
    3 3.442969 -0.003536 0.000000 0.000000 0.000000 0.008727
    4 4.441442 -0.003536 0.000000 0.000000 0.000000 0.017453
    5 4.441389 -0.003537 0.000000 0.000000 0.000000 0.000000
    6 4.441391 -0.002040 0.000000 0.000000 0.000000 0.000000
    7 0.000001 0.002036 1.614274 -0.814457 -1.306754 3.937637
    8 5.073841 0.000000 0.000002 -0.107962 1.237509 -0.014688
    9 12.011117 0.000000 -0.000001 0.000000 0.000000 -0.514754
    10 10.249307 0.000000 0.000000 -2.382951 -0.011434 -0.063393
    11 1.183836 0.259443 -1.427523 -0.121834 0.391716 -0.139310
    12 0.625233 0.000000 0.000000 0.000000 0.000000 -0.064922
    13 1.041848 0.000000 0.000001 0.000000 0.000000 -0.064922
    14 3.037806 -0.002122 -0.118180 -0.091981 0.141771 0.067570
    15 1.172004 -0.000001 0.000000 0.000000 0.000000 0.350571
    16 1.160930 0.000000 0.000000 0.000000 0.000000 0.716140
    17 0.000001 0.002045 -1.614274 0.817113 1.307423 3.940366
    18 4.700062 0.000000 -0.000002 0.054973 -1.274619 0.009590
    19 12.049927 0.000000 0.000001 0.000000 0.000000 -0.520143
    20 10.340311 0.000001 0.000000 2.327244 0.098710 0.194870
    21 1.186625 0.034757 1.438863 0.056808 -0.467162 0.169535
    22 0.607803 0.000000 0.000000 0.000000 0.000000 -0.064919
    23 1.063061 0.000001 0.000000 0.000000 0.000000 -0.064919
    24 2.950419 0.002914 0.177525 0.085754 -0.122014 0.121364
    25 1.294388 0.000000 -0.000001 0.000000 0.000000 0.647825
    26 1.183920 0.000001 0.000000 0.000000 0.000000 0.738033
    27 2.738953 3.890889 0.113747 3.097163 -1.570796 0.000000
    28 0.000000 -1.023687 -1.922726 0.000000 0.000000 0.000000
    29 0.000000 -0.558375 -1.804806 0.000000 0.000000 0.000000
    30 0.000000 -0.325718 -1.929488 0.000000 0.000000 0.000000
    31 0.000000 0.046531 -1.430430 0.000000 0.002145 0.000000
    32 0.000000 0.000000 -1.347565 0.000000 0.000000 0.000000
    33 0.000000 -0.046531 -2.135521 0.000000 -0.079614 0.000000
    34 0.000000 -0.279187 -2.151380 0.000000 0.000000 0.000000
    35 -3.880319 -0.167348 3.416453 -0.000603 -3.110904 -0.081722
    36 19.302956 0.000000 0.000000 0.000000 0.000000 -0.001959
    37 15.657714 0.000000 0.000000 0.001455 -0.030742 -0.023695
    38 3.741828 7.474068 0.000000 0.000000 0.000000 1.570796
    39 -4.009229 -0.159517 -3.416451 -0.000112 3.105835 -0.136060
    40 19.302958 0.000000 0.000000 0.000000 0.000000 -0.122789
    41 15.657715 0.000000 0.000000 -0.002798 0.035700 0.042776
    42 3.741828 7.351521 0.000000 0.000000 0.000000 1.570796
    43 2.562340 0.000000 0.000000 -0.025890 0.200979 0.612554
    44 8.541129 0.000000 0.000000 0.000000 0.000000 0.000000
    45 -7.351523 1.350579 0.144448 -0.011792 -3.144659 -1.491984
    46 4.991368 -0.677071 0.532282 1.237053 -2.969057 -0.819481
  time 15
    0 -0.061583 0.539177 38.603238 0.000000 0.000000 -1.570888
    1 -0.635819 0.000000 0.000000 -0.000033 -1.554452 -1.570756
    2 3.928664 0.383633 0.062506 -0.001286 -0.016300 0.079297
    3 3.442969 -0.003536 0.000000 0.000000 0.000000 0.008727
    4 4.441442 -0.003536 0.000000 0.000000 0.000000 0.017453
    5 4.441389 -0.003537 0.000000 0.000000 0.000000 0.000000
    6 4.441391 -0.002040 0.000000 0.000000 0.000000 0.000000
    7 0.000001 0.002036 1.614274 -0.828838 -1.288654 3.949430
    8 5.073841 0.000000 0.000002 -0.238479 1.233402 -0.159116
    9 12.011117 0.000000 -0.000001 0.000000 0.000000 -0.481309
    10 10.249307 0.000000 0.000000 -2.363039 0.024134 -0.064348
    11 1.183836 0.259443 -1.427523 -0.103731 0.372854 -0.124527
    12 0.625233 0.000000 0.000000 0.000000 0.000000 -0.054532
    13 1.041848 0.000000 0.000001 0.000000 0.000000 -0.054532
    14 3.037806 -0.002122 -0.118180 -0.075966 0.123842 0.082709
    15 1.172004 -0.000001 0.000000 0.000000 0.000000 0.294507
    16 1.160930 0.000000 0.000000 0.000000 0.000000 0.683914
    17 0.000001 0.002045 -1.614274 0.838014 1.291082 3.959061
    18 4.700062 0.000000 -0.000002 0.127152 -1.276887 -0.069413
    19 12.049927 0.000000 0.000001 0.000000 0.000000 -0.536621
    20 10.340311 0.000001 0.000000 2.318950 0.072714 0.194016
    21 1.186625 0.034757 1.438863 0.038203 -0.434014 0.184837
    22 0.607803 0.000000 0.000000 0.000000 0.000000 -0.054540
    23 1.063061 0.000001 0.000000 0.000000 0.000000 -0.054540
    24 2.950419 0.002914 0.177525 0.071642 -0.103139 0.137536
    25 1.294388 0.000000 -0.000001 0.000000 0.000000 0.559546
    26 1.183920 0.000001 0.000000 0.000000 0.000000 0.707927
    27 2.738953 3.890889 0.113747 3.097163 -1.570796 0.000000
    28 0.000000 -1.023687 -1.922726 0.000000 0.000000 0.000000
    29 0.000000 -0.558375 -1.804806 0.000000 0.000000 0.000000
    30 0.000000 -0.325718 -1.929488 0.000000 0.000000 0.000000
    31 0.000000 0.046531 -1.430430 0.000000 0.000000 0.000000
    32 0.000000 0.000000 -1.347565 0.000000 0.000000 0.000000
    33 0.000000 -0.046531 -2.135521 0.000000 -0.087260 0.000000
    34 0.000000 -0.279187 -2.151380 0.000000 0.000000 0.000000
    35 -3.892038 -0.077502 3.416453 -0.000795 -3.110238 -0.101922
    36 19.302956 0.000000 0.000000 0.000000 0.000000 -0.001959
    37 15.657714 0.000000 0.000000 0.001486 -0.031338 -0.020690
    38 3.741828 7.474068 0.000000 0.000000 0.000000 1.570796
    39 -4.001416 -0.069670 -3.416451 0.000367 3.106505 -0.145175
    40 19.302958 0.000000 0.000000 0.000000 0.000000 -0.098056
    41 15.657715 0.000000 0.000000 -0.002737 0.035073 0.032137
    42 3.741828 7.351521 0.000000 0.000000 0.000000 1.570796
    43 2.562340 0.000000 0.000000 -0.013149 0.176145 0.668407
    44 8.541129 0.000000 0.000000 0.000000 0.000000 0.000000
    45 -7.351523 1.350579 0.144448 -0.007765 -3.143509 -1.517870
    46 4.991368 -0.677071 0.532282 1.237053 -2.969057 -0.819481
  time 16
    0 -0.088928 0.312278 38.603238 0.000000 0.000000 -1.570888
    1 -0.616287 0.000000 0.000000 -0.000033 -1.557819 -1.570756
    2 3.928664 0.383633 0.050787 -0.000999 -0.012932 0.076994
    3 3.442969 -0.003536 0.000000 0.000000 0.000000 0.008727
    4 4.441442 -0.003536 0.000000 0.000000 0.000000 0.017453
    5 4.441389 -0.003537 0.000000 0.000000 0.000000 0.000000
    6 4.441391 -0.002040 0.000000 0.000000 0.000000 0.000000
    7 0.000001 0.002036 1.614274 -0.665374 -1.314528 3.790084
    8 5.073841 0.000000 0.000002 -0.321989 1.221594 -0.195240
    9 12.011117 0.000000 -0.000001 0.000000 0.000000 -0.436021
    10 10.249307 0.000000 0.000000 -2.212080 0.060252 -0.068213
    11 1.183836 0.259443 -1.427523 -0.084589 0.352132 -0.109113
    12 0.625233 0.000000 0.000000 0.000000 0.000000 -0.043270
    13 1.041848 0.000000 0.000001 0.000000 0.000000 -0.043270
    14 3.037806 -0.002122 -0.118180 -0.058942 0.104128 0.098748
    15 1.172004 -0.000001 0.000000 0.000000 0.000000 0.233714
    16 1.160930 0.000000 0.000000 0.000000 0.000000 0.649012
    17 0.000001 0.002045 -1.614274 0.680494 1.319485 3.805760
    18 4.700062 0.000000 -0.000002 0.151867 -1.274014 -0.039986
    19 12.049927 0.000000 0.000001 0.000000 0.000000 -0.541101
    20 10.340311 0.000001 0.000000 2.179073 0.046470 0.190780
    21 1.186625 0.034757 1.438863 0.018924 -0.397791 0.200423
    22 0.607803 0.000000 0.000000 0.000000 0.000000 -0.043265
    23 1.063061 0.000001 0.000000 0.000000 0.000000 -0.043265
    24 2.950419 0.002914 0.177525 0.056736 -0.082417 0.154814
    25 1.294388 0.000000 -0.000001 0.000000 0.000000 0.463902
    26 1.183920 0.000001 0.000000 0.000000 0.000000 0.675291
    27 2.738953 3.890889 0.113747 3.097163 -1.570796 0.000000
    28 0.000000 -1.023687 -1.922726 0.000000 0.000000 0.000000
    29 0.000000 -0.558375 -1.804806 0.000000 0.000000 0.000000
    30 0.000000 -0.325718 -1.929488 0.000000 0.000000 0.000000
    31 0.000000 0.046531 -1.430430 0.000000 -0.001103 0.000000
    32 0.000000 0.000000 -1.347565 0.000000 0.000000 0.000000
    33 0.000000 -0.046531 -2.135521 0.000000 -0.083952 0.000000
    34 0.000000 -0.279187 -2.151380 0.000000 0.000000 0.000000
    35 -3.903757 -0.085314 3.416453 -0.000987 -3.109476 -0.092745
    36 19.302956 0.000000 0.000000 0.000000 0.000000 -0.001959
    37 15.657714 0.000000 0.000000 0.001548 -0.032113 -0.013845
    38 3.741828 7.474068 0.000000 0.000000 0.000000 1.570796
    39 -3.989697 -0.077483 -3.416451 0.000558 3.107176 -0.135811
    40 19.302958 0.000000 0.000000 0.000000 0.000000 -0.097787
    41 15.657715 0.000000 0.000000 -0.002645 0.034326 0.038903
    42 3.741828 7.351521 0.000000 0.000000 0.000000 1.570796
    43 2.562340 0.000000 0.000000 -0.006529 0.145193 0.724741
    44 8.541129 0.000000 0.000000 0.000000 0.000000 0.000000
    45 -7.351523 1.350579 0.144448 -0.003163 -3.142262 -1.547017
    46 4.991368 -0.677071 0.532282 1.237053 -2.969057 -0.819481
  time 17
    0 -0.120178 0.094833 38.567540 0.000000 0.000000 -1.570888
    1 -0.542066 0.000000 0.000000 -0.000033 -1.561295 -1.570756
    2 3.928664 0.383633 0.035162 -0.000623 -0.009469 0.066025
    3 3.442969 -0.003536 0.000000 0.000000 0.000000 0.008727
    4 4.441442 -0.003536 0.000000 0.000000 0.000000 0.017453
    5 4.441389 -0.003537 0.000000 0.000000 0.000000 0.000000
    6 4.441391 -0.002040 0.000000 0.000000 0.000000 0.000000
    7 0.000001 0.002036 1.614274 -0.316396 -1.346161 3.449723
    8 5.073841 0.000000 0.000002 -0.386926 1.205972 -0.183288
    9 12.011117 0.000000 -0.000001 0.000000 0.000000 -0.379559
    10 10.249307 0.000000 0.000000 -1.977446 0.097975 -0.066576
    11 1.183836 0.259443 -1.427523 -0.065366 0.330511 -0.093743
    12 0.625233 0.000000 0.000000 0.000000 0.000000 -0.031664
    13 1.041848 0.000000 0.000001 0.000000 0.000000 -0.031664
    14 3.037806 -0.002122 -0.118180 -0.041769 0.083538 0.114920
    15 1.172004 -0.000001 0.000000 0.000000 0.000000 0.171022
    16 1.160930 0.000000 0.000000 0.000000 0.000000 0.613039
    17 0.000001 0.002045 -1.614274 0.328543 1.354333 3.462246
    18 4.700062 0.000000 -0.000002 0.165282 -1.268873 0.033499
    19 12.049927 0.000000 0.000001 0.000000 0.000000 -0.535330
    20 10.340311 0.000001 0.000000 1.956192 0.019030 0.191229
    21 1.186625 0.034757 1.438863 0.000020 -0.360190 0.215488
    22 0.607803 0.000000 0.000000 0.000000 0.000000 -0.031648
    23 1.063061 0.000001 0.000000 0.000000 0.000000 -0.031648
    24 2.950419 0.002914 0.177525 0.041755 -0.060785 0.172250
    25 1.294388 0.000000 -0.000001 0.000000 0.000000 0.365219
    26 1.183920 0.000001 0.000000 0.000000 0.000000 0.641607
    27 2.738953 3.890889 0.113747 3.097163 -1.570796 0.000000
    28 0.000000 -1.023687 -1.922726 0.000000 0.000000 0.000000
    29 0.000000 -0.558375 -1.804806 0.000000 0.000000 0.000000
    30 0.000000 -0.325718 -1.929488 0.000000 0.000000 0.000000
    31 0.000000 0.046531 -1.430430 0.000000 -0.001246 0.000000
    32 0.000000 0.000000 -1.347565 0.000000 0.000000 0.000000
    33 0.000000 -0.046531 -2.135521 0.000000 -0.068276 0.000000
    34 0.000000 -0.279187 -2.151380 0.000000 0.000000 0.000000
    35 -3.915476 -0.128285 3.416453 -0.001370 -3.108524 -0.072844
    36 19.302956 0.000000 0.000000 0.000000 0.000000 -0.001959
    37 15.657714 0.000000 0.000000 0.001641 -0.033107 -0.004912
    38 3.741828 7.474068 0.000000 0.000000 0.000000 1.570796
    39 -3.974072 -0.124360 -3.416451 0.000750 3.108134 -0.119374
    40 19.302958 0.000000 0.000000 0.000000 0.000000 -0.105583
    41 15.657715 0.000000 0.000000 -0.002585 0.033362 0.052108
    42 3.741828 7.351521 0.000000 0.000000 0.000000 1.570796
    43 2.562340 0.000000 0.000000 -0.005940 0.113268 0.710195
    44 8.541129 0.000000 0.000000 0.000000 0.000000 0.000000
    45 -7.351523 1.350579 0.144448 0.000001 -3.141591 -1.567918
    46 4.991368 -0.677071 0.532282 1.237053 -2.969057 -0.819481
  time 18
    0 -0.159242 -0.150974 38.567540 0.000000 0.000000 -1.570888
    1 -0.428782 0.000000 0.000000 -0.000033 -1.564722 -1.570804
    2 3.928664 0.383633 0.023443 -0.000291 -0.006053 0.050085
    3 3.442969 -0.003536 0.000000 0.000000 0.000000 0.008727
    4 4.441442 -0.003536 0.000000 0.000000 0.000000 0.017453
    5 4.441389 -0.003537 0.000000 0.000000 0.000000 0.000000
    6 4.441391 -0.002040 0.000000 0.000000 0.000000 0.000000
    7 0.000001 0.002036 1.614274 -0.000014 -1.342759 3.140810
    8 5.073841 0.000000 0.000002 -0.370995 1.188957 -0.134336
    9 12.011117 0.000000 -0.000001 0.000000 0.000000 -0.323991
    10 10.249307 0.000000 0.000000 -1.731023 0.134303 -0.055935
    11 1.183836 0.259443 -1.427523 -0.046903 0.308891 -0.079140
    12 0.625233 0.000000 0.000000 0.000000 0.000000 -0.020238
    13 1.041848 0.000000 0.000001 0.000000 0.000000 -0.020238
    14 3.037806 -0.002122 -0.118180 -0.025193 0.062985 0.130459
    15 1.172004 -0.000001 0.000000 0.000000 0.000000 0.109302
    16 1.160930 0.000000 0.000000 0.000000 0.000000 0.577601
    17 0.000001 0.002045 -1.614274 -0.000014 1.354819 3.140783
    18 4.700062 0.000000 -0.000002 0.102144 -1.256702 0.138650
    19 12.049927 0.000000 0.000001 0.000000 0.000000 -0.524395
    20 10.340311 0.000001 0.000000 1.722713 -0.007668 0.197881
    21 1.186625 0.034757 1.438863 -0.017799 -0.322910 0.229322
    22 0.607803 0.000000 0.000000 0.000000 0.000000 -0.020244
    23 1.063061 0.000001 0.000000 0.000000 0.000000 -0.020244
    24 2.950419 0.002914 0.177525 0.027399 -0.039237 0.189107
    25 1.294388 0.000000 -0.000001 0.000000 0.000000 0.268082
    26 1.183920 0.000001 0.000000 0.000000 0.000000 0.608478
    27 2.738953 3.890889 0.113747 3.097163 -1.570796 0.000000
    28 0.000000 -1.023687 -1.922726 0.000000 0.000000 0.000000
    29 0.000000 -0.558375 -1.804806 0.000000 0.000000 0.000000
    30 0.000000 -0.325718 -1.929488 0.000000 0.000000 0.000000
    31 0.000000 0.046531 -1.430430 0.000000 -0.000827 0.000000
    32 0.000000 0.000000 -1.347565 0.000000 0.000000 0.000000
    33 0.000000 -0.046531 -2.135521 0.000000 -0.045517 0.000000
    34 0.000000 -0.279187 -2.151380 0.000000 0.000000 0.000000
    35 -3.923289 -0.190786 3.416453 -0.000699 -3.107381 -0.077133
    36 19.302956 0.000000 0.000000 0.000000 0.000000 -0.069543
    37 15.657714 0.000000 0.000000 0.001672 -0.034240 0.042464
    38 3.741828 7.474068 0.000000 0.000000 0.000000 1.570796
    39 -3.962353 -0.186862 -3.416451 0.000941 3.109188 -0.097558
    40 19.302958 0.000000 0.000000 0.000000 0.000000 -0.114926
    41 15.657715 0.000000 0.000000 -0.002524 0.032326 0.067413
    42 3.741828 7.351521 0.000000 0.000000 0.000000 1.570796
    43 2.562340 0.000000 0.000000 -0.010156 0.078562 0.553185
    44 8.541129 0.000000 0.000000 0.000000 0.000000 0.000000
    45 -7.351523 1.350579 0.144448 -3.140632 -0.000289 1.567434
    46 4.991368 -0.677071 0.532282 1.237053 -2.969057 -0.819481
  time 19
    0 -0.198306 -0.387327 38.531842 0.000000 0.000000 -1.570888
    1 -0.307684 0.000000 0.000000 -0.000033 -1.567958 -1.570756
    2 3.928664 0.383633 0.007817 -0.000092 -0.002841 0.032936
    3 3.442969 -0.003536 0.000000 0.000000 0.000000 0.008727
    4 4.441442 -0.003536 0.000000 0.000000 0.000000 0.017453
    5 4.441389 -0.003537 0.000000 0.000000 0.000000 0.000000
    6 4.441391 -0.002040 0.000000 0.000000 0.000000 0.000000
    7 0.000001 0.002036 1.614274 0.041499 -1.319387 3.100638
    8 5.073841 0.000000 0.000002 -0.186472 1.165708 -0.037308
    9 12.011117 0.000000 -0.000001 0.000000 0.000000 -0.274606
    10 10.249307 0.000000 0.000000 -1.483953 0.166915 -0.036653
    11 1.183836 0.259443 -1.427523 -0.029999 0.288425 -0.065890
    12 0.625233 0.000000 0.000000 0.000000 0.000000 -0.009502
    13 1.041848 0.000000 0.000001 0.000000 0.000000 -0.009502
    14 3.037806 -0.002122 -0.118180 -0.009950 0.043462 0.144697
    15 1.172004 -0.000001 0.000000 0.000000 0.000000 0.051338
    16 1.160930 0.000000 0.000000 0.000000 0.000000 0.544359
    17 0.000001 0.002045 -1.614274 -0.044787 1.337845 3.097257
    18 4.700062 0.000000 -0.000002 -0.110964 -1.220038 0.268669
    19 12.049927 0.000000 0.000001 0.000000 0.000000 -0.503589
    20 10.340311 0.000001 0.000000 1.489958 -0.032096 0.210464
    21 1.186625 0.034757 1.438863 -0.033858 -0.287712 0.241592
    22 0.607803 0.000000 0.000000 0.000000 0.000000 -0.009482
    23 1.063061 0.000001 0.000000 0.000000 0.000000 -0.009482
    24 2.950419 0.002914 0.177525 0.014253 -0.018791 0.204594
    25 1.294388 0.000000 -0.000001 0.000000 0.000000 0.176815
    26 1.183920 0.000001 0.000000 0.000000 0.000000 0.577323
    27 2.738953 3.890889 0.113747 3.097163 -1.570796 0.000000
    28 0.000000 -1.023687 -1.922726 0.000000 0.000000 0.000000
    29 0.000000 -0.558375 -1.804806 0.000000 0.000000 0.000000
    30 0.000000 -0.325718 -1.929488 0.000000 0.000000 0.000000
    31 0.000000 0.046531 -1.430430 0.000000 -0.000276 0.000000
    32 0.000000 0.000000 -1.347565 0.000000 0.000000 0.000000
    33 0.000000 -0.046531 -2.135521 0.000000 -0.020985 0.000000
    34 0.000000 -0.279187 -2.151380 0.000000 0.000000 0.000000
    35 -3.931102 -0.257195 3.416453 -0.000507 -3.106143 -0.065313
    36 19.302956 0.000000 0.000000 0.000000 0.000000 -0.104744
    37 15.657714 0.000000 0.000000 0.001703 -0.035412 0.072267
    38 3.741828 7.474068 0.000000 0.000000 0.000000 1.570796
    39 -3.946727 -0.257176 -3.416451 0.001229 3.110338 -0.073102
    40 19.302958 0.000000 0.000000 0.000000 0.000000 -0.121916
    41 15.657715 0.000000 0.000000 -0.002493 0.031242 0.081645
    42 3.741828 7.351521 0.000000 0.000000 0.000000 1.570796
    43 2.562340 0.000000 0.000000 -0.010610 0.038544 0.290354
    44 8.541129 0.000000 0.000000 0.000000 0.000000 0.000000
    45 -7.351523 1.350579 0.144448 -3.141112 -0.000193 1.569064
    46 4.991368 -0.677071 0.532282 1.237053 -2.969057 -0.819481
  time 20
    0 -0.233463 -0.633134 38.531842 0.000000 0.000000 -1.570888
    1 -0.202212 0.000000 0.000000 -1.570795 -1.570451 0.000000
    2 3.928664 0.383633 0.000004 -0.000004 -0.000001 0.018250
    3 3.442969 -0.003536 0.000000 0.000000 0.000000 0.008727
    4 4.441442 -0.003536 0.000000 0.000000 0.000000 0.017453
    5 4.441389 -0.003537 0.000000 0.000000 0.000000 0.000000
    6 4.441391 -0.002040 0.000000 0.000000 0.000000 0.000000
    7 0.000001 0.002036 1.614274 -0.000014 -1.292298 3.140810
    8 5.073841 0.000000 0.000002 0.049844 1.130870 0.062759
    9 12.011117 0.000000 -0.000001 0.000000 0.000000 -0.226189
    10 10.249307 0.000000 0.000000 -1.222866 0.193528 -0.009095
    11 1.183836 0.259443 -1.427523 -0.015333 0.270141 -0.054532
    12 0.625233 0.000000 0.000000 0.000000 0.000000 0.000000
    13 1.041848 0.000000 0.000001 0.000000 0.000000 0.000000
    14 3.037806 -0.002122 -0.118180 0.003300 0.025988 0.157102
    15 1.172004 -0.000001 0.000000 0.000000 0.000000 0.000000
    16 1.160930 0.000000 0.000000 0.000000 0.000000 0.514863
    17 0.000001 0.002045 -1.614274 -0.000014 1.318464 3.140783
    18 4.700062 0.000000 -0.000002 -0.343539 -1.164702 0.367023
    19 12.049927 0.000000 0.000001 0.000000 0.000000 -0.476860
    20 10.340311 0.000001 0.000000 1.244696 -0.052769 0.228801
    21 1.186625 0.034757 1.438863 -0.047522 -0.256389 0.251872
    22 0.607803 0.000000 0.000000 0.000000 0.000000 0.000000
    23 1.063061 0.000001 0.000000 0.000000 0.000000 0.000000
    24 2.950419 0.002914 0.177525 0.002893 -0.000503 0.218132
    25 1.294388 0.000000 -0.000001 0.000000 0.000000 0.095953
    26 1.183920 0.000001 0.000000 0.000000 0.000000 0.549746
    27 2.738953 3.890889 0.113747 3.097163 -1.570796 0.000000
    28 0.000000 -1.023687 -1.922726 0.000000 0.000000 0.000000
    29 0.000000 -0.558375 -1.804806 0.000000 0.000000 0.000000
    30 0.000000 -0.325718 -1.929488 0.000000 0.000000 0.000000
    31 0.000000 0.046531 -1.430430 0.000000 0.000000 0.000000
    32 0.000000 0.000000 -1.347565 0.000000 0.000000 0.000000
    33 0.000000 -0.046531 -2.135521 0.000000 0.000000 0.000000
    34 0.000000 -0.279187 -2.151380 0.000000 0.000000 0.000000
    35 -3.935008 -0.311884 3.416453 -0.000412 -3.105096 -0.049702
    36 19.302956 0.000000 0.000000 0.000000 0.000000 -0.124474
    37 15.657714 0.000000 0.000000 0.001548 -0.036505 0.093012
    38 3.741828 7.474068 0.000000 0.000000 0.000000 1.570796
    39 -3.935008 -0.311865 -3.416451 0.001612 3.111392 -0.049741
    40 19.302958 0.000000 0.000000 0.000000 0.000000 -0.124402
    41 15.657715 0.000000 0.000000 -0.002615 0.030205 0.092797
    42 3.741828 7.351521 0.000000 0.000000 0.000000 1.570796
    43 2.562340 0.000000 0.000000 0.000000 0.000000 0.025265
    44 8.541129 0.000000 0.000000 0.000000 0.000000 0.000000
    45 -7.351523 1.350579 0.144448 -3.141495 -0.000097 1.570694
    46 4.991368 -0.677071 0.532282 1.237053 -2.969057 -0.819481
end
