version 1
nodes
  0 "Bip01" -1
  1 "Bip01 Pelvis" 0
  2 "Bip01 Spine" 1
  3 "Bip01 Spine1" 2
  4 "Bip01 Spine2" 3
  5 "Bip01 Spine3" 4
  6 "Bip01 Neck" 5
  7 "Bip01 L Clavicle" 6
  8 "Bip01 L UpperArm" 7
  9 "Bip01 L Forearm" 8
  10 "Bip01 L Hand" 9
  11 "Bip01 L Finger0" 10
  12 "Bip01 L Finger01" 11
  13 "Bip01 L Finger02" 12
  14 "Bip01 L Finger2" 10
  15 "Bip01 L Finger21" 14
  16 "Bip01 L Finger22" 15
  17 "Bip01 R Clavicle" 6
  18 "Bip01 R UpperArm" 17
  19 "Bip01 R Forearm" 18
  20 "Bip01 R Hand" 19
  21 "Bip01 R Finger0" 20
  22 "Bip01 R Finger01" 21
  23 "Bip01 R Finger02" 22
  24 "Bip01 R Finger2" 20
  25 "Bip01 R Finger21" 24
  26 "Bip01 R Finger22" 25
  27 "tie1" 5
  28 "tie2" 27
  29 "tie3" 28
  30 "tie4" 29
  31 "tie5" 30
  32 "tie6" 31
  33 "tie7" 32
  34 "tie8" 33
  35 "Bip01 L Thigh" 2
  36 "Bip01 L Calf" 35
  37 "Bip01 L Foot" 36
  38 "Bip01 L Toe0" 37
  39 "Bip01 R Thigh" 2
  40 "Bip01 R Calf" 39
  41 "Bip01 R Foot" 40
  42 "Bip01 R Toe0" 41
  43 "Bip01 Head" 6
  44 "Dummy05" 43
  45 "Mouth" 44
  46 "needle" 20
end
skeleton
  time 0
    0 0.000919 0.019200 38.567540 0.000000 -0.026135 -1.570888
    1 -0.202212 0.000000 0.000000 -1.570795 -1.570451 0.000000
    2 3.928664 0.383633 0.000004 -0.000004 -0.000001 0.018250
    3 3.442969 -0.003536 0.000000 0.000000 0.000000 0.008727
    4 4.441442 -0.003536 0.000000 0.000000 0.000000 0.017453
    5 4.441389 -0.003537 0.000000 0.000000 0.000000 0.000000
    6 4.441391 -0.002040 0.000000 -0.000013 -0.026163 -0.249545
    7 0.039065 0.002036 1.614274 -0.606412 -1.359523 3.983274
    8 5.073841 0.000000 0.000002 0.519618 1.146639 0.219408
    9 12.011117 0.000000 -0.000001 0.000000 0.000000 -0.722723
    10 10.249307 0.000000 0.000000 -1.470726 0.019488 0.236609
    11 1.183836 0.259443 -1.427523 -0.000826 0.401596 -0.000311
    12 0.625233 0.000000 0.000000 0.000000 0.000000 0.000000
    13 1.041848 0.000000 0.000001 0.000000 0.000000 0.000000
    14 3.037806 -0.002122 -0.118180 0.002628 0.026060 0.130892
    15 1.172004 -0.000001 0.000000 0.000000 0.000000 0.218163
    16 1.160930 0.000000 0.000000 0.000000 0.000000 0.357749
    17 -0.039063 0.002045 -1.614274 -0.565953 1.346016 2.832934
    18 4.700062 0.000000 -0.000002 -0.481771 -1.179368 0.303773
    19 12.049927 0.000000 0.000001 0.000000 0.000000 -0.672012
    20 10.340311 0.000001 0.000000 1.463167 -0.180729 0.346774
    21 1.186625 0.034757 1.438863 -0.038950 -0.310355 0.217904
    22 0.607803 0.000000 0.000000 0.000000 0.000000 0.000000
    23 1.063061 0.000001 0.000000 0.000000 0.000000 0.000000
    24 2.950419 0.002914 0.177525 0.002917 -0.000347 0.165771
    25 1.294388 0.000000 -0.000001 0.000000 0.000000 0.104709
    26 1.183920 0.000001 0.000000 0.000000 0.000000 0.366518
    27 2.738953 3.890889 0.113747 3.097163 -1.570796 0.000000
    28 0.000000 -1.023687 -1.922726 0.000000 0.000000 0.000000
    29 0.000000 -0.558375 -1.804806 0.000000 0.000000 0.000000
    30 0.000000 -0.325718 -1.929488 0.000000 0.000000 0.000000
    31 0.000000 0.046531 -1.430430 0.000000 0.000000 0.000000
    32 0.000000 0.000000 -1.347565 0.000000 0.000000 0.000000
    33 0.000000 -0.046531 -2.135521 0.000000 0.000000 0.000000
    34 0.000000 -0.279187 -2.151380 0.000000 0.000000 0.000000
    35 -3.935008 -0.311884 3.416453 0.003134 -3.144900 -0.088954
    36 19.302956 0.000000 0.000000 0.000000 0.000000 -0.150405
    37 15.657714 0.000000 0.000000 -0.003484 0.003084 0.062207
    38 3.741828 7.474068 0.000000 0.000000 0.000000 1.570796
    39 -3.935008 -0.311865 -3.416451 -0.004900 3.159106 -0.037239
    40 19.302958 0.000000 0.000000 0.000000 0.000000 -0.277106
    41 15.657715 0.000000 0.000000 -0.016309 -0.018329 0.204366
    42 3.741828 7.351521 0.000000 0.000000 0.000000 1.570796
    43 2.562340 0.000000 0.000000 0.011244 0.015851 0.369081
    44 8.541129 0.000000 0.000000 0.000000 0.000000 0.000000
    45 -7.351523 1.350579 0.144448 0.000001 -3.141591 -1.570794
    46 4.991368 -0.677071 0.532282 1.237053 -2.969057 -0.819481
  time 1
    0 1.274395 0.019200 37.603687 -0.002204 -0.026063 -1.483558
    1 -0.014707 -0.722678 0.000000 -1.570795 -1.570451 0.000000
    2 3.928664 0.383633 0.000004 0.236013 -0.072100 0.001443
    3 3.442969 -0.003536 0.000000 0.043600 -0.022171 0.007298
    4 4.441442 -0.003536 0.000000 0.063233 -0.033773 0.014995
    5 4.441389 -0.003537 0.000000 0.058878 -0.032682 -0.002237
    6 4.441391 -0.002040 0.000000 0.160570 0.014785 -0.250461
    7 -0.023437 0.259856 1.594742 -1.641172 -1.319557 5.027366
    8 5.073841 0.000000 0.000002 0.668065 0.730427 -0.008274
    9 12.011117 0.000000 -0.000001 0.000000 0.000000 -1.896499
    10 10.249307 0.000000 0.000000 -1.511342 0.164422 0.019054
    11 1.183836 0.259443 -1.427523 -0.000826 0.401596 -0.000311
    12 0.625233 0.000000 0.000000 0.000000 0.000000 0.000000
    13 1.041848 0.000000 0.000001 0.000000 0.000000 0.000000
    14 3.037806 -0.002122 -0.118180 0.002653 0.020571 0.215523
    15 1.172004 -0.000001 0.000000 0.000000 0.000000 0.613489
    16 1.160930 0.000000 0.000000 0.000000 0.000000 0.912278
    17 0.023439 -0.255776 -1.594742 0.655855 1.495547 4.046114
    18 4.700062 0.000000 -0.000002 -0.953264 -0.776367 1.262444
    19 12.049927 0.000000 0.000001 0.000000 0.000000 -1.875120
    20 10.340311 0.000001 0.000000 1.485613 -0.132491 0.255407
    21 1.186625 0.034757 1.438863 -0.039474 -0.349173 0.219515
    22 0.607803 0.000000 0.000000 0.000000 0.000000 0.000000
    23 1.063061 0.000001 0.000000 0.000000 0.000000 0.000000
    24 2.950419 0.002914 0.177525 0.004360 -0.028750 0.142382
    25 1.294388 0.000000 -0.000001 0.000000 0.000000 0.104709
    26 1.183920 0.000001 0.000000 0.000000 0.000000 0.428643
    27 2.738953 3.890889 0.113747 -0.000062 -1.554464 3.097173
    28 0.000000 -1.023687 -1.922726 -0.015705 0.022227 -0.000564
    29 0.000000 -0.558375 -1.804806 0.001501 0.049489 0.025103
    30 0.000000 -0.325718 -1.929488 0.004786 0.060661 0.065356
    31 0.000000 0.046531 -1.430430 -0.000884 0.085258 0.009938
    32 0.000000 0.000000 -1.347565 0.004974 0.052716 0.087174
    33 0.000000 -0.046531 -2.135521 0.012134 0.126210 0.089105
    34 0.000000 -0.279187 -2.151380 0.002203 0.113589 0.025351
    35 -3.673281 0.492828 3.674273 0.245394 -3.146233 -0.236239
    36 19.302956 0.000000 0.000000 0.000000 0.000000 -0.504420
    37 15.657714 0.000000 0.000000 0.083022 0.021051 0.257721
    38 3.741828 7.474068 0.000000 0.000000 0.000000 1.570796
    39 -4.161577 -1.097046 -2.951593 0.239106 3.195036 -0.138003
    40 19.302958 0.000000 0.000000 0.000000 0.000000 -0.544271
    41 15.657715 0.000000 0.000000 0.070936 -0.008208 0.370809
    42 3.741828 7.351521 0.000000 0.000000 0.000000 1.570796
    43 2.562340 0.000000 0.000000 0.023577 0.346951 0.421233
    44 8.541129 0.000000 0.000000 0.000000 0.000000 0.000000
    45 -7.351523 1.350579 0.144448 0.000001 -3.141591 -1.496202
    46 4.991368 -0.677071 0.532282 1.237053 -2.969057 -0.819481
  time 2
    0 1.836912 0.416273 36.889722 -0.004600 -0.025705 -1.392876
    1 0.106391 -0.785180 0.000000 -1.570795 -1.570451 0.000000
    2 3.928664 0.383633 0.000004 0.313218 -0.080058 -0.005512
    3 3.442969 -0.003536 0.000000 0.073370 -0.024664 0.002282
    4 4.441442 -0.003536 0.000000 0.107673 -0.037835 0.008095
    5 4.441389 -0.003537 0.000000 0.102780 -0.036146 -0.007081
    6 4.441391 -0.002040 0.000000 0.160570 0.014785 -0.250461
    7 -0.023437 0.259856 1.594742 -0.964690 -1.120410 4.295351
    8 5.073841 0.000000 0.000002 0.825942 0.277471 -0.222383
    9 12.011117 0.000000 -0.000001 0.000000 0.000000 -1.987672
    10 10.249307 0.000000 0.000000 -1.583083 0.226224 -0.192588
    11 1.183836 0.259443 -1.427523 -0.000826 0.401596 -0.000311
    12 0.625233 0.000000 0.000000 0.000000 0.000000 0.000000
    13 1.041848 0.000000 0.000001 0.000000 0.000000 0.000000
    14 3.037806 -0.002122 -0.118180 0.002229 0.015106 0.300153
    15 1.172004 -0.000001 0.000000 0.000000 0.000000 1.008815
    16 1.160930 0.000000 0.000000 0.000000 0.000000 1.466754
    17 0.023439 -0.255776 -1.594742 0.776847 1.505371 4.167394
    18 4.700062 0.000000 -0.000002 -0.843903 -0.718536 1.427726
    19 12.049927 0.000000 0.000001 0.000000 0.000000 -1.974215
    20 10.340311 0.000001 0.000000 1.504373 -0.079673 0.160668
    21 1.186625 0.034757 1.438863 -0.040147 -0.392090 0.221363
    22 0.607803 0.000000 0.000000 0.000000 0.000000 0.000000
    23 1.063061 0.000001 0.000000 0.000000 0.000000 0.000000
    24 2.950419 0.002914 0.177525 0.006745 -0.060090 0.116465
    25 1.294388 0.000000 -0.000001 0.000000 0.000000 0.104709
    26 1.183920 0.000001 0.000000 0.000000 0.000000 0.497369
    27 2.738953 3.890889 0.113747 0.000034 -1.544642 3.097173
    28 0.000000 -1.023687 -1.922726 -0.041880 0.034860 -0.001445
    29 0.000000 -0.558375 -1.804806 0.003426 0.078462 0.043765
    30 0.000000 -0.325718 -1.929488 0.010884 0.095360 0.113955
    31 0.000000 0.046531 -1.430430 0.000000 0.130896 0.000000
    32 0.000000 0.000000 -1.347565 0.011621 0.077662 0.148783
    33 0.000000 -0.046531 -2.135521 0.028696 0.189848 0.151078
    34 0.000000 -0.279187 -2.151380 0.006462 0.183135 0.035499
    35 -3.642030 0.758461 3.662554 0.315446 -3.194702 -0.296539
    36 19.302956 0.000000 0.000000 0.000000 0.000000 -0.646351
    37 15.657714 0.000000 0.000000 0.173194 0.040647 0.325049
    38 3.741828 7.474068 0.000000 0.000000 0.000000 1.570796
    39 -4.185016 -1.335334 -2.818777 0.317249 3.172711 -0.186516
    40 19.302958 0.000000 0.000000 0.000000 0.000000 -0.678425
    41 15.657715 0.000000 0.000000 0.161681 0.001649 0.452374
    42 3.741828 7.351521 0.000000 0.000000 0.000000 1.570796
    43 2.562340 0.000000 0.000000 0.102651 0.029283 0.558589
    44 8.541129 0.000000 0.000000 0.000000 0.000000 0.000000
    45 -7.351523 1.350579 0.144448 0.000001 -3.141591 -1.421514
    46 4.991368 -0.677071 0.532282 1.237053 -2.969057 -0.819481
  time 3
    0 1.977542 0.709351 36.568438 -0.005654 -0.025491 -1.352753
    1 0.071234 -0.714866 0.000000 -1.570795 -1.570451 0.000000
    2 3.928664 0.383633 0.000004 0.323455 -0.071956 -0.004851
    3 3.442969 -0.003536 0.000000 0.087224 -0.022459 0.005855
    4 4.441442 -0.003536 0.000000 0.128681 -0.034695 0.012393
    5 4.441389 -0.003537 0.000000 0.124322 -0.032478 -0.004725
    6 4.441391 -0.002040 0.000000 0.160570 0.014785 -0.250461
    7 -0.023437 0.259856 1.594742 -1.504361 -1.214748 4.880963
    8 5.073841 0.000000 0.000002 0.564695 0.607580 -0.388148
    9 12.011117 0.000000 -0.000001 0.000000 0.000000 -2.034078
    10 10.249307 0.000000 0.000000 -1.637141 -0.110873 -0.291725
    11 1.183836 0.259443 -1.427523 -0.000826 0.401596 -0.000311
    12 0.625233 0.000000 0.000000 0.000000 0.000000 0.000000
    13 1.041848 0.000000 0.000001 0.000000 0.000000 0.000000
    14 3.037806 -0.002122 -0.118180 0.006003 0.025497 0.261839
    15 1.172004 -0.000001 0.000000 0.000000 0.000000 1.212973
    16 1.160930 0.000000 0.000000 0.000000 0.000000 1.754056
    17 0.023439 -0.255776 -1.594742 0.655855 1.495547 4.046114
    18 4.700062 0.000000 -0.000002 -0.654854 -0.773796 1.367115
    19 12.049927 0.000000 0.000001 0.000000 0.000000 -1.875120
    20 10.340311 0.000001 0.000000 1.516814 -0.030817 0.076582
    21 1.186625 0.034757 1.438863 -0.040746 -0.426840 0.222879
    22 0.607803 0.000000 0.000000 0.000000 0.000000 0.000000
    23 1.063061 0.000001 0.000000 0.000000 0.000000 0.000000
    24 2.950419 0.002914 0.177525 0.009288 -0.085401 0.095341
    25 1.294388 0.000000 -0.000001 0.000000 0.000000 0.104709
    26 1.183920 0.000001 0.000000 0.000000 0.000000 0.553016
    27 2.738953 3.890889 0.113747 0.000034 -1.545956 3.097173
    28 0.000000 -1.023687 -1.922726 -0.105519 0.024031 -0.002144
    29 0.000000 -0.558375 -1.804806 0.004009 0.057946 0.049195
    30 0.000000 -0.325718 -1.929488 0.012711 0.067780 0.127955
    31 0.000000 0.046531 -1.430430 0.006446 0.077996 -0.069233
    32 0.000000 0.000000 -1.347565 0.013759 0.032776 0.154818
    33 0.000000 -0.046531 -2.135521 0.034993 0.098669 0.146140
    34 0.000000 -0.279187 -2.151380 0.011260 0.148825 0.003901
    35 -3.673281 0.789712 3.627397 0.317267 -3.223841 -0.322824
    36 19.302956 0.000000 0.000000 0.000000 0.000000 -0.696271
    37 15.657714 0.000000 0.000000 0.213885 0.050664 0.342204
    38 3.741828 7.474068 0.000000 0.000000 0.000000 1.570796
    39 -4.161577 -1.374398 -2.834402 0.325006 3.151920 -0.209229
    40 19.302958 0.000000 0.000000 0.000000 0.000000 -0.732127
    41 15.657715 0.000000 0.000000 0.202367 0.006758 0.479765
    42 3.741828 7.351521 0.000000 0.000000 0.000000 1.570796
    43 2.562340 0.000000 0.000000 0.157649 -0.012403 0.394065
    44 8.541129 0.000000 0.000000 0.000000 0.000000 0.000000
    45 -7.351523 1.350579 0.144448 0.000001 -3.141591 -1.387574
    46 4.991368 -0.677071 0.532282 1.237053 -2.969057 -0.819481
  time 4
    0 1.715815 0.662080 36.818326 -0.003737 -0.025849 -1.426199
    1 -0.213931 -0.675802 0.000000 -1.570795 -1.570451 0.000000
    2 3.928664 0.383633 0.000004 0.270768 -0.059097 0.001626
    3 3.442969 -0.003536 0.000000 0.075048 -0.020110 0.033831
    4 4.441442 -0.003536 0.000000 0.110679 -0.031088 0.047739
    5 4.441389 -0.003537 0.000000 0.107290 -0.028044 0.016887
    6 4.441391 -0.002040 0.000000 0.125806 -0.006813 -0.154166
    7 0.007814 0.201261 1.602555 -0.585991 -1.241011 3.849047
    8 5.073841 0.000000 0.000002 0.505830 0.621442 -0.259452
    9 12.011117 0.000000 -0.000001 0.000000 0.000000 -1.822831
    10 10.249307 0.000000 0.000000 -1.526941 0.291869 0.100319
    11 1.183836 0.259443 -1.427523 -0.000826 0.401596 -0.000311
    12 0.625233 0.000000 0.000000 0.000000 0.000000 0.000000
    13 1.041848 0.000000 0.000001 0.000000 0.000000 0.000000
    14 3.037806 -0.002122 -0.118180 0.007734 0.093078 -0.184387
    15 1.172004 -0.000001 0.000000 0.000000 0.000000 0.888777
    16 1.160930 0.000000 0.000000 0.000000 0.000000 1.303323
    17 -0.007812 -0.197180 -1.602555 0.116376 1.485187 3.409132
    18 4.700062 0.000000 -0.000002 -0.579322 -0.857027 1.048624
    19 12.049927 0.000000 0.000001 0.000000 0.000000 -1.888864
    20 10.340311 0.000001 0.000000 1.520434 -0.011836 0.044583
    21 1.186625 0.034757 1.438863 -0.041046 -0.441156 0.223542
    22 0.607803 0.000000 0.000000 0.000000 0.000000 0.000000
    23 1.063061 0.000001 0.000000 0.000000 0.000000 0.000000
    24 2.950419 0.002914 0.177525 0.010487 -0.095816 0.086649
    25 1.294388 0.000000 -0.000001 0.000000 0.000000 0.104709
    26 1.183920 0.000001 0.000000 0.000000 0.000000 0.575904
    27 2.738953 3.890889 0.113747 -0.000062 -1.549485 3.097173
    28 0.000000 -1.023687 -1.922726 -0.178385 0.004654 -0.001377
    29 0.000000 -0.558375 -1.804806 0.003868 0.019224 0.048711
    30 0.000000 -0.325718 -1.929488 0.012248 0.017519 0.126513
    31 0.000000 0.046531 -1.430430 0.021348 -0.009180 -0.156536
    32 0.000000 0.000000 -1.347565 0.014480 -0.036202 0.137592
    33 0.000000 -0.046531 -2.135521 0.039478 -0.046620 0.113914
    34 0.000000 -0.279187 -2.151380 0.018530 0.075703 -0.041761
    35 -3.724064 0.610019 3.607865 0.265231 -3.208320 -0.319233
    36 19.302956 0.000000 0.000000 0.000000 0.000000 -0.654807
    37 15.657714 0.000000 0.000000 0.142132 0.040369 0.313779
    38 3.741828 7.474068 0.000000 0.000000 0.000000 1.570796
    39 -4.122514 -1.210330 -2.963312 0.269654 3.145884 -0.215904
    40 19.302958 0.000000 0.000000 0.000000 0.000000 -0.703091
    41 15.657715 0.000000 0.000000 0.129911 0.004878 0.444722
    42 3.741828 7.351521 0.000000 0.000000 0.000000 1.570796
    43 2.562340 0.000000 0.000000 -0.036091 0.060792 0.350278
    44 8.541129 0.000000 0.000000 0.000000 0.000000 0.000000
    45 -7.351523 1.350579 0.144448 0.000001 -3.141591 -1.400805
    46 4.991368 -0.677071 0.532282 1.237053 -2.969057 -0.819481
  time 5
    0 1.336897 0.529723 37.211006 -0.000767 -0.026135 -1.541395
    1 -0.585036 -0.554704 0.000000 -1.570795 -1.570451 0.000000
    2 3.928664 0.383633 0.000004 0.187505 -0.041600 0.009812
    3 3.442969 -0.003536 0.000000 0.052085 -0.016119 0.069154
    4 4.441442 -0.003536 0.000000 0.076678 -0.024676 0.092429
    5 4.441389 -0.003537 0.000000 0.074463 -0.021333 0.044321
    6 4.441391 -0.002040 0.000000 0.088202 -0.021312 -0.056609
    7 0.031252 0.142665 1.610367 -0.035871 -1.426772 3.230742
    8 5.073841 0.000000 0.000002 0.115066 0.981768 -0.356615
    9 12.011117 0.000000 -0.000001 0.000000 0.000000 -0.905665
    10 10.249307 0.000000 0.000000 -1.426014 0.188585 0.534518
    11 1.183836 0.259443 -1.427523 -0.000826 0.401596 -0.000311
    12 0.625233 0.000000 0.000000 0.000000 0.000000 0.000000
    13 1.041848 0.000000 0.000001 0.000000 0.000000 0.000000
    14 3.037806 -0.002122 -0.118180 -0.015031 0.143701 -0.576060
    15 1.172004 -0.000001 0.000000 0.000000 0.000000 0.442643
    16 1.160930 0.000000 0.000000 0.000000 0.000000 0.680649
    17 -0.031250 -0.138584 -1.610367 -0.221865 1.450218 2.974347
    18 4.700062 0.000000 -0.000002 -0.387575 -0.993629 0.817692
    19 12.049927 0.000000 0.000001 0.000000 0.000000 -1.810044
    20 10.340311 0.000001 0.000000 1.513194 -0.046745 0.103772
    21 1.186625 0.034757 1.438863 -0.040746 -0.426840 0.222879
    22 0.607803 0.000000 0.000000 0.000000 0.000000 0.000000
    23 1.063061 0.000001 0.000000 0.000000 0.000000 0.000000
    24 2.950419 0.002914 0.177525 0.009288 -0.085401 0.095341
    25 1.294388 0.000000 -0.000001 0.000000 0.000000 0.104709
    26 1.183920 0.000001 0.000000 0.000000 0.000000 0.553016
    27 2.738953 3.890889 0.113747 -0.000062 -1.554464 3.097173
    28 0.000000 -1.023687 -1.922726 -0.209402 -0.008818 0.000000
    29 0.000000 -0.558375 -1.804806 0.003409 -0.008792 0.043458
    30 0.000000 -0.325718 -1.929488 0.010833 -0.018058 0.112724
    31 0.000000 0.046531 -1.430430 0.032975 -0.066502 -0.200223
    32 0.000000 0.000000 -1.347565 0.014689 -0.078935 0.111944
    33 0.000000 -0.046531 -2.135521 0.041893 -0.139477 0.080165
    34 0.000000 -0.279187 -2.151380 0.023573 0.018880 -0.068536
    35 -3.790472 0.324854 3.576614 0.184925 -3.184037 -0.300230
    36 19.302956 0.000000 0.000000 0.000000 0.000000 -0.581774
    37 15.657714 0.000000 0.000000 0.027578 0.027550 0.271245
    38 3.741828 7.474068 0.000000 0.000000 0.000000 1.570796
    39 -4.067825 -0.944697 -3.131286 0.183084 3.141381 -0.217298
    40 19.302958 0.000000 0.000000 0.000000 0.000000 -0.646903
    41 15.657715 0.000000 0.000000 0.015309 0.003239 0.389661
    42 3.741828 7.351521 0.000000 0.000000 0.000000 1.570796
    43 2.562340 0.000000 0.000000 -0.206028 0.066743 -0.018337
    44 8.541129 0.000000 0.000000 0.000000 0.000000 0.000000
    45 -7.351523 1.350579 0.144448 0.000001 -3.141591 -1.434458
    46 4.991368 -0.677071 0.532282 1.237053 -2.969057 -0.819481
  time 6
    0 0.891571 0.359548 37.675084 0.001342 -0.026063 -1.625087
    1 -0.795980 -0.355480 0.000000 -1.570795 -1.570451 0.000000
    2 3.928664 0.383633 0.000004 0.108906 -0.024617 0.015673
    3 3.442969 -0.003536 0.000000 0.030321 -0.010954 0.086822
    4 4.441442 -0.003536 0.000000 0.044569 -0.016323 0.114881
    5 4.441389 -0.003537 0.000000 0.043252 -0.013662 0.058260
    6 4.441391 -0.002040 0.000000 0.054071 -0.025396 -0.015439
    7 0.039065 0.087976 1.614274 0.494117 -1.374027 2.671208
    8 5.073841 0.000000 0.000002 -0.238979 1.070217 -0.514750
    9 12.011117 0.000000 -0.000001 0.000000 0.000000 -0.465890
    10 10.249307 0.000000 0.000000 -1.437156 0.126784 0.491635
    11 1.183836 0.259443 -1.427523 -0.000826 0.401596 -0.000311
    12 0.625233 0.000000 0.000000 0.000000 0.000000 0.000000
    13 1.041848 0.000000 0.000001 0.000000 0.000000 0.000000
    14 3.037806 -0.002122 -0.118180 -0.006326 0.123027 -0.456017
    15 1.172004 -0.000001 0.000000 0.000000 0.000000 0.312665
    16 1.160930 0.000000 0.000000 0.000000 0.000000 0.496769
    17 -0.039063 -0.083895 -1.614274 -0.383315 1.410726 2.774451
    18 4.700062 0.000000 -0.000002 -0.206692 -1.097951 0.561572
    19 12.049927 0.000000 0.000001 0.000000 0.000000 -1.621422
    20 10.340311 0.000001 0.000000 1.500358 -0.092341 0.183050
    21 1.186625 0.034757 1.438863 -0.040147 -0.392090 0.221363
    22 0.607803 0.000000 0.000000 0.000000 0.000000 0.000000
    23 1.063061 0.000001 0.000000 0.000000 0.000000 0.000000
    24 2.950419 0.002914 0.177525 0.006745 -0.060090 0.116465
    25 1.294388 0.000000 -0.000001 0.000000 0.000000 0.104709
    26 1.183920 0.000001 0.000000 0.000000 0.000000 0.497369
    27 2.738953 3.890889 0.113747 -0.000062 -1.560154 3.097268
    28 0.000000 -1.023687 -1.922726 -0.167522 -0.009768 0.000113
    29 0.000000 -0.558375 -1.804806 0.002596 -0.012965 0.032181
    30 0.000000 -0.325718 -1.929488 0.008337 -0.021664 0.083430
    31 0.000000 0.046531 -1.430430 0.026649 -0.064405 -0.163059
    32 0.000000 0.000000 -1.347565 0.012318 -0.069916 0.080234
    33 0.000000 -0.046531 -2.135521 0.034101 -0.127360 0.054446
    34 0.000000 -0.279187 -2.151380 0.019436 0.001697 -0.058556
    35 -3.849068 0.059221 3.525831 0.109219 -3.164135 -0.257486
    36 19.302956 0.000000 0.000000 0.000000 0.000000 -0.480368
    37 15.657714 0.000000 0.000000 -0.056786 0.017593 0.220196
    38 3.741828 7.474068 0.000000 0.000000 0.000000 1.570796
    39 -4.017042 -0.679064 -3.264103 0.102930 3.142818 -0.194187
    40 19.302958 0.000000 0.000000 0.000000 0.000000 -0.560872
    41 15.657715 0.000000 0.000000 -0.068741 -0.000231 0.330167
    42 3.741828 7.351521 0.000000 0.000000 0.000000 1.570796
    43 2.562340 0.000000 0.000000 -0.248059 0.136044 0.024599
    44 8.541129 0.000000 0.000000 0.000000 0.000000 0.000000
    45 -7.351523 1.350579 0.144448 0.000001 -3.141591 -1.479903
    46 4.991368 -0.677071 0.532282 1.237053 -2.969057 -0.819481
  time 7
    0 0.426713 0.170466 38.174859 0.001150 -0.026135 -1.615702
    1 -0.592849 -0.156255 0.000000 -1.570795 -1.570451 0.000000
    2 3.928664 0.383633 0.000004 0.051931 -0.011698 0.017748
    3 3.442969 -0.003536 0.000000 0.014717 -0.005333 0.057693
    4 4.441442 -0.003536 0.000000 0.021670 -0.007754 0.078615
    5 4.441389 -0.003537 0.000000 0.020934 -0.006496 0.036648
    6 4.441391 -0.002040 0.000000 0.026416 -0.024558 -0.119279
    7 0.039065 0.041100 1.614274 0.020215 -1.395771 3.239562
    8 5.073841 0.000000 0.000002 -0.002806 1.144439 -0.271471
    9 12.011117 0.000000 -0.000001 0.000000 0.000000 -0.547007
    10 10.249307 0.000000 0.000000 -1.456349 0.073432 0.370625
    11 1.183836 0.259443 -1.427523 -0.000826 0.401596 -0.000311
    12 0.625233 0.000000 0.000000 0.000000 0.000000 0.000000
    13 1.041848 0.000000 0.000001 0.000000 0.000000 0.000000
    14 3.037806 -0.002122 -0.118180 0.005343 0.075197 -0.161879
    15 1.172004 -0.000001 0.000000 0.000000 0.000000 0.265392
    16 1.160930 0.000000 0.000000 0.000000 0.000000 0.427232
    17 -0.039063 -0.037019 -1.614274 -0.483598 1.376267 2.781163
    18 4.700062 0.000000 -0.000002 -0.252696 -1.129701 0.364144
    19 12.049927 0.000000 0.000001 0.000000 0.000000 -1.189355
    20 10.340311 0.000001 0.000000 1.483968 -0.136535 0.262867
    21 1.186625 0.034757 1.438863 -0.039474 -0.349173 0.219515
    22 0.607803 0.000000 0.000000 0.000000 0.000000 0.000000
    23 1.063061 0.000001 0.000000 0.000000 0.000000 0.000000
    24 2.950419 0.002914 0.177525 0.004360 -0.028750 0.142382
    25 1.294388 0.000000 -0.000001 0.000000 0.000000 0.104709
    26 1.183920 0.000001 0.000000 0.000000 0.000000 0.428643
    27 2.738953 3.890889 0.113747 -0.000254 -1.565844 3.097460
    28 0.000000 -1.023687 -1.922726 -0.083761 -0.004876 -0.000135
    29 0.000000 -0.558375 -1.804806 0.001342 -0.006470 0.016091
    30 0.000000 -0.325718 -1.929488 0.004400 -0.010739 0.041725
    31 0.000000 0.046531 -1.430430 0.012009 -0.032742 -0.081271
    32 0.000000 0.000000 -1.347565 0.006856 -0.034832 0.040186
    33 0.000000 -0.046531 -2.135521 0.017884 -0.063446 0.027708
    34 0.000000 -0.279187 -2.151380 0.009718 0.000701 -0.029286
    35 -3.895944 -0.136097 3.471142 0.054787 -3.151280 -0.189704
    36 19.302956 0.000000 0.000000 0.000000 0.000000 -0.349021
    37 15.657714 0.000000 0.000000 -0.048585 0.010140 0.159338
    38 3.741828 7.474068 0.000000 0.000000 0.000000 1.570796
    39 -3.974072 -0.487652 -3.350043 0.047004 3.152112 -0.129834
    40 19.302958 0.000000 0.000000 0.000000 0.000000 -0.440631
    41 15.657715 0.000000 0.000000 -0.060464 -0.008208 0.275619
    42 3.741828 7.351521 0.000000 0.000000 0.000000 1.570796
    43 2.562340 0.000000 0.000000 -0.134934 0.083957 0.176649
    44 8.541129 0.000000 0.000000 0.000000 0.000000 0.000000
    45 -7.351523 1.350579 0.144448 0.000001 -3.141591 -1.528321
    46 4.991368 -0.677071 0.532282 1.237053 -2.969057 -0.819481
  time 8
    0 0.000919 0.019200 38.567540 0.000000 -0.026135 -1.570888
    1 -0.202212 0.000000 0.000000 -1.570795 -1.570451 0.000000
    2 3.928664 0.383633 0.000004 -0.000004 -0.000001 0.018250
    3 3.442969 -0.003536 0.000000 0.000000 0.000000 0.008727
    4 4.441442 -0.003536 0.000000 0.000000 0.000000 0.017453
    5 4.441389 -0.003537 0.000000 0.000000 0.000000 0.000000
    6 4.441391 -0.002040 0.000000 -0.000013 -0.026163 -0.249545
    7 0.039065 0.002036 1.614274 -0.606412 -1.359523 3.983274
    8 5.073841 0.000000 0.000002 0.519618 1.146639 0.219408
    9 12.011117 0.000000 -0.000001 0.000000 0.000000 -0.722723
    10 10.249307 0.000000 0.000000 -1.470726 0.019488 0.236609
    11 1.183836 0.259443 -1.427523 -0.000826 0.401596 -0.000311
    12 0.625233 0.000000 0.000000 0.000000 0.000000 0.000000
    13 1.041848 0.000000 0.000001 0.000000 0.000000 0.000000
    14 3.037806 -0.002122 -0.118180 0.002628 0.026060 0.130892
    15 1.172004 -0.000001 0.000000 0.000000 0.000000 0.218163
    16 1.160930 0.000000 0.000000 0.000000 0.000000 0.357749
    17 -0.039063 0.002045 -1.614274 -0.565953 1.346016 2.832934
    18 4.700062 0.000000 -0.000002 -0.481771 -1.179368 0.303773
    19 12.049927 0.000000 0.000001 0.000000 0.000000 -0.672012
    20 10.340311 0.000001 0.000000 1.463167 -0.180729 0.346774
    21 1.186625 0.034757 1.438863 -0.038950 -0.310355 0.217904
    22 0.607803 0.000000 0.000000 0.000000 0.000000 0.000000
    23 1.063061 0.000001 0.000000 0.000000 0.000000 0.000000
    24 2.950419 0.002914 0.177525 0.002917 -0.000347 0.165771
    25 1.294388 0.000000 -0.000001 0.000000 0.000000 0.104709
    26 1.183920 0.000001 0.000000 0.000000 0.000000 0.366518
    27 2.738953 3.890889 0.113747 3.097163 -1.570796 0.000000
    28 0.000000 -1.023687 -1.922726 0.000000 0.000000 0.000000
    29 0.000000 -0.558375 -1.804806 0.000000 0.000000 0.000000
    30 0.000000 -0.325718 -1.929488 0.000000 0.000000 0.000000
    31 0.000000 0.046531 -1.430430 0.000000 0.000000 0.000000
    32 0.000000 0.000000 -1.347565 0.000000 0.000000 0.000000
    33 0.000000 -0.046531 -2.135521 0.000000 0.000000 0.000000
    34 0.000000 -0.279187 -2.151380 0.000000 0.000000 0.000000
    35 -3.935008 -0.311884 3.416453 0.004572 -3.144995 -0.088954
    36 19.302956 0.000000 0.000000 0.000000 0.000000 -0.150405
    37 15.657714 0.000000 0.000000 -0.004913 0.003065 0.062207
    38 3.741828 7.474068 0.000000 0.000000 0.000000 1.570796
    39 -3.935008 -0.311865 -3.416451 -0.003943 3.159010 -0.037239
    40 19.302958 0.000000 0.000000 0.000000 0.000000 -0.277106
    41 15.657715 0.000000 0.000000 -0.017283 -0.018281 0.204413
    42 3.741828 7.351521 0.000000 0.000000 0.000000 1.570796
    43 2.562340 0.000000 0.000000 0.011244 0.015851 0.369081
    44 8.541129 0.000000 0.000000 0.000000 0.000000 0.000000
    45 -7.351523 1.350579 0.144448 0.000001 -3.141591 -1.570794
    46 4.991368 -0.677071 0.532282 1.237053 -2.969057 -0.819481
end
