version 1
nodes
  0 "Bip01" -1
  1 "Bip01 Pelvis" 0
  2 "Bip01 Spine" 1
  3 "Bip01 Spine1" 2
  4 "Bip01 Spine2" 3
  5 "Bip01 Spine3" 4
  6 "Bip01 Neck" 5
  7 "Bip01 L Clavicle" 6
  8 "Bip01 L UpperArm" 7
  9 "Bip01 L Forearm" 8
  10 "Bip01 L Hand" 9
  11 "Bip01 L Finger0" 10
  12 "Bip01 L Finger01" 11
  13 "Bip01 L Finger02" 12
  14 "Bip01 L Finger2" 10
  15 "Bip01 L Finger21" 14
  16 "Bip01 L Finger22" 15
  17 "Bip01 R Clavicle" 6
  18 "Bip01 R UpperArm" 17
  19 "Bip01 R Forearm" 18
  20 "Bip01 R Hand" 19
  21 "Bip01 R Finger0" 20
  22 "Bip01 R Finger01" 21
  23 "Bip01 R Finger02" 22
  24 "Bip01 R Finger2" 20
  25 "Bip01 R Finger21" 24
  26 "Bip01 R Finger22" 25
  27 "tie1" 5
  28 "tie2" 27
  29 "tie3" 28
  30 "tie4" 29
  31 "tie5" 30
  32 "tie6" 31
  33 "tie7" 32
  34 "tie8" 33
  35 "Bip01 L Thigh" 2
  36 "Bip01 L Calf" 35
  37 "Bip01 L Foot" 36
  38 "Bip01 L Toe0" 37
  39 "Bip01 R Thigh" 2
  40 "Bip01 R Calf" 39
  41 "Bip01 R Foot" 40
  42 "Bip01 R Toe0" 41
  43 "Bip01 Head" 6
  44 "Dummy05" 43
  45 "Mouth" 44
  46 "needle" 20
end
skeleton
  time 0
    0 -0.112366 0.265007 38.496143 0.000000 0.000000 -1.570888
    1 0.270458 0.000000 0.000000 -1.570795 -1.570451 0.000000
    2 3.928664 0.383633 0.000004 -0.000004 -0.000001 0.018250
    3 3.442969 -0.003536 0.000000 0.000000 0.000000 0.008727
    4 4.441442 -0.003536 0.000000 0.000000 0.000000 0.017453
    5 4.441389 -0.003537 0.000000 0.000000 0.000000 0.000000
    6 4.441391 -0.002040 0.000000 0.000000 0.000000 0.000000
    7 0.000001 0.002036 1.614274 -0.000014 -1.370796 3.140810
    8 5.073841 0.000000 0.000002 -0.104033 1.146492 -0.103546
    9 12.011117 0.000000 -0.000001 0.000000 0.000000 -0.199969
    10 10.249307 0.000000 0.000000 -1.299496 0.165774 0.000000
    11 1.183836 0.259443 -1.427523 0.059119 0.264175 0.225901
    12 0.625233 0.000000 0.000000 0.000000 0.000000 0.087264
    13 1.041848 0.000000 0.000001 0.000000 0.000000 0.043632
    14 3.037806 -0.002122 -0.118180 0.001482 0.026156 0.087244
    15 1.172004 -0.000001 0.000000 0.000000 0.000000 0.209415
    16 1.160930 0.000000 0.000000 0.000000 0.000000 0.366474
    17 0.000001 0.002045 -1.614274 -0.000014 1.370796 3.140783
    18 4.700062 0.000000 -0.000002 0.104040 -1.146484 -0.103557
    19 12.049927 0.000000 0.000001 0.000000 0.000000 -0.199927
    20 10.340311 0.000001 0.000000 1.299528 -0.165791 0.000000
    21 1.186625 0.034757 1.438863 -0.081251 -0.247933 0.386746
    22 0.607803 0.000000 0.000000 0.000000 0.000000 0.069788
    23 1.063061 0.000001 0.000000 0.000000 0.000000 0.095969
    24 2.950419 0.002914 0.177525 0.002893 -0.000503 0.218132
    25 1.294388 0.000000 -0.000001 0.000000 0.000000 0.270502
    26 1.183920 0.000001 0.000000 0.000000 0.000000 0.392676
    27 2.738953 3.890889 0.113747 3.097163 -1.570796 0.000000
    28 0.000000 -1.023687 -1.922726 0.000000 0.000000 0.000000
    29 0.000000 -0.558375 -1.804806 0.000000 0.000000 0.000000
    30 0.000000 -0.325718 -1.929488 0.000000 0.000000 0.000000
    31 0.000000 0.046531 -1.430430 0.000000 0.000000 0.000000
    32 0.000000 0.000000 -1.347565 0.000000 0.000000 0.000000
    33 0.000000 -0.046531 -2.135521 0.000000 0.000000 0.000000
    34 0.000000 -0.279187 -2.151380 0.000000 0.000000 0.000000
    35 -3.935008 -0.311884 3.416453 -0.000987 -3.100811 -0.032295
    36 19.302956 0.000000 0.000000 0.000000 0.000000 -0.158548
    37 15.657714 0.000000 0.000000 0.001579 -0.040858 0.144436
    38 3.741828 7.474068 0.000000 0.000000 0.000000 1.570796
    39 -3.935008 -0.311865 -3.416451 0.002091 3.115416 -0.035496
    40 19.302958 0.000000 0.000000 0.000000 0.000000 -0.165536
    41 15.657715 0.000000 0.000000 -0.002585 0.026181 0.148185
    42 3.741828 7.351521 0.000000 0.000000 0.000000 1.570796
    43 2.562340 0.000000 0.000000 0.000000 0.000000 0.130012
    44 8.541129 0.000000 0.000000 0.000000 0.000000 0.000000
    45 -7.351523 1.350579 0.144448 0.000001 -3.141591 -1.570794
    46 4.991368 -0.677071 0.532282 1.237053 -2.969057 -0.819481
  time 1
    0 -0.112366 0.265007 38.496143 0.000000 0.000000 -1.570888
    1 0.270458 0.000000 0.000000 -1.570795 -1.570451 0.000000
    2 3.928664 0.383633 0.000004 -0.000004 -0.000001 0.018250
    3 3.442969 -0.003536 0.000000 0.000000 0.000000 0.008727
    4 4.441442 -0.003536 0.000000 0.000000 0.000000 0.017453
    5 4.441389 -0.003537 0.000000 0.000000 0.000000 0.000000
    6 4.441391 -0.002040 0.000000 0.000000 0.000000 0.000000
    7 0.000001 0.002036 1.614274 -0.000014 -1.370796 3.140810
    8 5.073841 0.000000 0.000002 -0.104033 1.146492 -0.103546
    9 12.011117 0.000000 -0.000001 0.000000 0.000000 -0.199969
    10 10.249307 0.000000 0.000000 -1.340686 0.144230 -0.002956
    11 1.183836 0.259443 -1.427523 0.036300 0.243581 0.240188
    12 0.625233 0.000000 0.000000 0.000000 0.000000 0.075970
    13 1.041848 0.000000 0.000001 0.000000 0.000000 0.037977
    14 3.037806 -0.002122 -0.118180 0.002267 0.026096 0.117388
    15 1.172004 -0.000001 0.000000 0.000000 0.000000 0.240872
    16 1.160930 0.000000 0.000000 0.000000 0.000000 0.440562
    17 0.000001 0.002045 -1.614274 -0.000014 1.370796 3.140783
    18 4.700062 0.000000 -0.000002 0.104040 -1.146484 -0.103557
    19 12.049927 0.000000 0.000001 0.000000 0.000000 -0.199927
    20 10.340311 0.000001 0.000000 1.300317 -0.147222 -0.005168
    21 1.186625 0.034757 1.438863 -0.081475 -0.258503 0.387646
    22 0.607803 0.000000 0.000000 0.000000 0.000000 0.069788
    23 1.063061 0.000001 0.000000 0.000000 0.000000 0.095969
    24 2.950419 0.002914 0.177525 0.002893 -0.000503 0.218132
    25 1.294388 0.000000 -0.000001 0.000000 0.000000 0.270502
    26 1.183920 0.000001 0.000000 0.000000 0.000000 0.392676
    27 2.738953 3.890889 0.113747 3.170023 -1.564832 -0.077465
    28 0.000000 -1.023687 -1.922726 -0.007296 0.000649 -0.000023
    29 0.000000 -0.558375 -1.804806 -0.005316 0.000000 0.000000
    30 0.000000 -0.325718 -1.929488 0.000000 0.004638 0.000000
    31 0.000000 0.046531 -1.430430 -0.005965 -0.006639 0.000280
    32 0.000000 0.000000 -1.347565 -0.012481 -0.008138 0.000494
    33 0.000000 -0.046531 -2.135521 0.017079 0.009012 -0.000384
    34 0.000000 -0.279187 -2.151380 0.013120 0.007392 -0.000251
    35 -3.935008 -0.311884 3.416453 -0.000987 -3.100811 -0.032295
    36 19.302956 0.000000 0.000000 0.000000 0.000000 -0.158548
    37 15.657714 0.000000 0.000000 0.001579 -0.040858 0.144436
    38 3.741828 7.474068 0.000000 0.000000 0.000000 1.570796
    39 -3.935008 -0.311865 -3.416451 0.002091 3.115416 -0.035496
    40 19.302958 0.000000 0.000000 0.000000 0.000000 -0.165536
    41 15.657715 0.000000 0.000000 -0.002585 0.026181 0.148185
    42 3.741828 7.351521 0.000000 0.000000 0.000000 1.570796
    43 2.562340 0.000000 0.000000 0.000000 0.000000 0.130012
    44 8.541129 0.000000 0.000000 0.000000 0.000000 0.000000
    45 -7.351523 1.350579 0.144448 0.000001 -3.141591 -1.570794
    46 4.991368 -0.677071 0.532282 1.237053 -2.969057 -0.819481
  time 2
    0 -0.112366 0.265007 38.496143 0.000000 0.000000 -1.570888
    1 0.270458 0.000000 0.000000 -1.570795 -1.570451 0.000000
    2 3.928664 0.383633 0.000004 -0.000004 -0.000001 0.018250
    3 3.442969 -0.003536 0.000000 -0.006460 0.000407 0.013015
    4 4.441442 -0.003536 0.000000 -0.010391 0.001043 0.026034
    5 4.441389 -0.003537 0.000000 -0.011788 0.001318 0.012873
    6 4.441391 -0.002040 0.000000 0.000000 0.000000 0.000000
    7 0.000001 0.002036 1.614274 -0.000014 -1.370796 3.140810
    8 5.073841 0.000000 0.000002 -0.016950 1.144879 -0.004222
    9 12.011117 0.000000 -0.000001 0.000000 0.000000 -0.387306
    10 10.249307 0.000000 0.000000 -1.391653 0.121250 -0.005593
    11 1.183836 0.259443 -1.427523 0.012282 0.222538 0.255287
    12 0.625233 0.000000 0.000000 0.000000 0.000000 0.064166
    13 1.041848 0.000000 0.000001 0.000000 0.000000 0.032075
    14 3.037806 -0.002122 -0.118180 0.003001 0.026024 0.145398
    15 1.172004 -0.000001 0.000000 0.000000 0.000000 0.270428
    16 1.160930 0.000000 0.000000 0.000000 0.000000 0.516094
    17 0.000001 0.002045 -1.614274 -0.000014 1.370796 3.140783
    18 4.700062 0.000000 -0.000002 0.096530 -1.143687 -0.116910
    19 12.049927 0.000000 0.000001 0.000000 0.000000 -0.246019
    20 10.340311 0.000001 0.000000 1.301107 -0.126673 -0.010921
    21 1.186625 0.034757 1.438863 -0.081737 -0.270225 0.388641
    22 0.607803 0.000000 0.000000 0.000000 0.000000 0.069788
    23 1.063061 0.000001 0.000000 0.000000 0.000000 0.095969
    24 2.950419 0.002914 0.177525 0.002893 -0.000503 0.218132
    25 1.294388 0.000000 -0.000001 0.000000 0.000000 0.270502
    26 1.183920 0.000001 0.000000 0.000000 0.000000 0.392676
    27 2.738953 3.890889 0.113747 3.167339 -1.558212 -0.079958
    28 0.000000 -1.023687 -1.922726 -0.015378 0.001393 -0.000068
    29 0.000000 -0.558375 -1.804806 -0.011180 0.000000 0.000000
    30 0.000000 -0.325718 -1.929488 0.000000 0.009784 0.000000
    31 0.000000 0.046531 -1.430430 -0.012572 -0.013974 0.000630
    32 0.000000 0.000000 -1.347565 -0.025310 -0.016864 0.001125
    33 0.000000 -0.046531 -2.135521 0.037638 0.019834 -0.000743
    34 0.000000 -0.279187 -2.151380 0.029570 0.017590 -0.000603
    35 -3.935008 -0.311884 3.416453 -0.000987 -3.100811 -0.032295
    36 19.302956 0.000000 0.000000 0.000000 0.000000 -0.158548
    37 15.657714 0.000000 0.000000 0.001579 -0.040858 0.144436
    38 3.741828 7.474068 0.000000 0.000000 0.000000 1.570796
    39 -3.935008 -0.311865 -3.416451 0.002091 3.115416 -0.035496
    40 19.302958 0.000000 0.000000 0.000000 0.000000 -0.165536
    41 15.657715 0.000000 0.000000 -0.002585 0.026181 0.148185
    42 3.741828 7.351521 0.000000 0.000000 0.000000 1.570796
    43 2.562340 0.000000 0.000000 0.026298 -0.007397 0.159438
    44 8.541129 0.000000 0.000000 0.000000 0.000000 0.000000
    45 -7.351523 1.350579 0.144448 0.000001 -3.141591 -1.570794
    46 4.991368 -0.677071 0.532282 1.237053 -2.969057 -0.819481
  time 3
    0 -0.112366 0.265007 38.496143 0.000000 0.000000 -1.570888
    1 0.270458 0.000000 0.000000 -1.570795 -1.570451 0.000000
    2 3.928664 0.383633 0.000004 -0.000004 -0.000001 0.018250
    3 3.442969 -0.003536 0.000000 -0.013626 0.000899 0.017793
    4 4.441442 -0.003536 0.000000 -0.021913 0.002313 0.035550
    5 4.441389 -0.003537 0.000000 -0.024877 0.002972 0.027167
    6 4.441391 -0.002040 0.000000 0.000000 0.000000 0.000000
    7 0.000001 0.002036 1.614274 -0.000014 -1.370796 3.140810
    8 5.073841 0.000000 0.000002 0.101993 1.138718 0.132035
    9 12.011117 0.000000 -0.000001 0.000000 0.000000 -0.608459
    10 10.249307 0.000000 0.000000 -1.446429 0.097552 -0.007140
    11 1.183836 0.259443 -1.427523 -0.012295 0.201495 0.270972
    12 0.625233 0.000000 0.000000 0.000000 0.000000 0.052132
    13 1.041848 0.000000 0.000001 0.000000 0.000000 0.026058
    14 3.037806 -0.002122 -0.118180 0.003699 0.025928 0.172507
    15 1.172004 -0.000001 0.000000 0.000000 0.000000 0.299278
    16 1.160930 0.000000 0.000000 0.000000 0.000000 0.592108
    17 0.000001 0.002045 -1.614274 -0.000014 1.370796 3.140783
    18 4.700062 0.000000 -0.000002 0.086688 -1.140058 -0.129864
    19 12.049927 0.000000 0.000001 0.000000 0.000000 -0.298414
    20 10.340311 0.000001 0.000000 1.301831 -0.104721 -0.016988
    21 1.186625 0.034757 1.438863 -0.082037 -0.282747 0.389731
    22 0.607803 0.000000 0.000000 0.000000 0.000000 0.069788
    23 1.063061 0.000001 0.000000 0.000000 0.000000 0.095969
    24 2.950419 0.002914 0.177525 0.002893 -0.000503 0.218132
    25 1.294388 0.000000 -0.000001 0.000000 0.000000 0.270502
    26 1.183920 0.000001 0.000000 0.000000 0.000000 0.392676
    27 2.738953 3.890889 0.113747 3.164559 -1.551153 -0.082642
    28 0.000000 -1.023687 -1.922726 -0.024016 0.002169 -0.000113
    29 0.000000 -0.558375 -1.804806 -0.017468 0.000000 0.000000
    30 0.000000 -0.325718 -1.929488 0.000000 0.015285 0.000000
    31 0.000000 0.046531 -1.430430 -0.019661 -0.021824 0.001064
    32 0.000000 0.000000 -1.347565 -0.038302 -0.025883 0.001865
    33 0.000000 -0.046531 -2.135521 0.059577 0.031388 -0.000911
    34 0.000000 -0.279187 -2.151380 0.047365 0.028909 -0.000854
    35 -3.935008 -0.311884 3.416453 -0.000987 -3.100811 -0.032295
    36 19.302956 0.000000 0.000000 0.000000 0.000000 -0.158548
    37 15.657714 0.000000 0.000000 0.001579 -0.040858 0.144436
    38 3.741828 7.474068 0.000000 0.000000 0.000000 1.570796
    39 -3.935008 -0.311865 -3.416451 0.002091 3.115416 -0.035496
    40 19.302958 0.000000 0.000000 0.000000 0.000000 -0.165536
    41 15.657715 0.000000 0.000000 -0.002585 0.026181 0.148185
    42 3.741828 7.351521 0.000000 0.000000 0.000000 1.570796
    43 2.562340 0.000000 0.000000 0.054681 -0.018354 0.191825
    44 8.541129 0.000000 0.000000 0.000000 0.000000 0.000000
    45 -7.351523 1.350579 0.144448 0.000001 -3.141591 -1.570794
    46 4.991368 -0.677071 0.532282 1.237053 -2.969057 -0.819481
  time 4
    0 -0.112366 0.265007 38.496143 0.000000 0.000000 -1.570888
    1 0.270458 0.000000 0.000000 -1.570795 -1.570451 0.000000
    2 3.928664 0.383633 0.000004 -0.000004 -0.000001 0.018250
    3 3.442969 -0.003536 0.000000 -0.021297 0.001462 0.022897
    4 4.441442 -0.003536 0.000000 -0.034227 0.003799 0.045727
    5 4.441389 -0.003537 0.000000 -0.038847 0.004950 0.042440
    6 4.441391 -0.002040 0.000000 0.000000 0.000000 0.000000
    7 0.000001 0.002036 1.614274 -0.000014 -1.370796 3.140810
    8 5.073841 0.000000 0.000002 0.225438 1.127277 0.274640
    9 12.011117 0.000000 -0.000001 0.000000 0.000000 -0.843095
    10 10.249307 0.000000 0.000000 -1.499121 0.074065 -0.007412
    11 1.183836 0.259443 -1.427523 -0.036953 0.181029 0.287062
    12 0.625233 0.000000 0.000000 0.000000 0.000000 0.040213
    13 1.041848 0.000000 0.000001 0.000000 0.000000 0.020106
    14 3.037806 -0.002122 -0.118180 0.004421 0.025820 0.200051
    15 1.172004 -0.000001 0.000000 0.000000 0.000000 0.328525
    16 1.160930 0.000000 0.000000 0.000000 0.000000 0.667908
    17 0.000001 0.002045 -1.614274 -0.000014 1.370796 3.140783
    18 4.700062 0.000000 -0.000002 0.075096 -1.135447 -0.142498
    19 12.049927 0.000000 0.000001 0.000000 0.000000 -0.355365
    20 10.340311 0.000001 0.000000 1.302358 -0.081902 -0.023280
    21 1.186625 0.034757 1.438863 -0.082336 -0.295783 0.390820
    22 0.607803 0.000000 0.000000 0.000000 0.000000 0.069788
    23 1.063061 0.000001 0.000000 0.000000 0.000000 0.095969
    24 2.950419 0.002914 0.177525 0.002893 -0.000503 0.218132
    25 1.294388 0.000000 -0.000001 0.000000 0.000000 0.270502
    26 1.183920 0.000001 0.000000 0.000000 0.000000 0.392676
    27 2.738953 3.890889 0.113747 3.161682 -1.543794 -0.085519
    28 0.000000 -1.023687 -1.922726 -0.033014 0.002992 -0.000181
    29 0.000000 -0.558375 -1.804806 -0.024003 0.000000 0.000000
    30 0.000000 -0.325718 -1.929488 0.000000 0.021001 0.000000
    31 0.000000 0.046531 -1.430430 -0.027011 -0.029985 0.001582
    32 0.000000 0.000000 -1.347565 -0.051341 -0.034888 0.002770
    33 0.000000 -0.046531 -2.135521 0.080825 0.042581 -0.000815
    34 0.000000 -0.279187 -2.151380 0.064500 0.039668 -0.000871
    35 -3.935008 -0.311884 3.416453 -0.000987 -3.100811 -0.032295
    36 19.302956 0.000000 0.000000 0.000000 0.000000 -0.158548
    37 15.657714 0.000000 0.000000 0.001579 -0.040858 0.144436
    38 3.741828 7.474068 0.000000 0.000000 0.000000 1.570796
    39 -3.935008 -0.311865 -3.416451 0.002091 3.115416 -0.035496
    40 19.302958 0.000000 0.000000 0.000000 0.000000 -0.165536
    41 15.657715 0.000000 0.000000 -0.002585 0.026181 0.148185
    42 3.741828 7.351521 0.000000 0.000000 0.000000 1.570796
    43 2.562340 0.000000 0.000000 0.083835 -0.033149 0.225951
    44 8.541129 0.000000 0.000000 0.000000 0.000000 0.000000
    45 -7.351523 1.350579 0.144448 0.000001 -3.141591 -1.570794
    46 4.991368 -0.677071 0.532282 1.237053 -2.969057 -0.819481
  time 5
    0 -0.112366 0.265007 38.496143 0.000000 0.000000 -1.570888
    1 0.270458 0.000000 0.000000 -1.570795 -1.570451 0.000000
    2 3.928664 0.383633 0.000004 -0.000004 -0.000001 0.018250
    3 3.442969 -0.003536 0.000000 -0.029242 0.002085 0.028188
    4 4.441442 -0.003536 0.000000 -0.046993 0.005477 0.056249
    5 4.441389 -0.003537 0.000000 -0.053299 0.007215 0.058230
    6 4.441391 -0.002040 0.000000 0.000000 0.000000 0.000000
    7 0.000001 0.002036 1.614274 -0.000014 -1.370796 3.140810
    8 5.073841 0.000000 0.000002 0.329094 1.114075 0.396381
    9 12.011117 0.000000 -0.000001 0.000000 0.000000 -1.070804
    10 10.249307 0.000000 0.000000 -1.543690 0.051761 -0.006321
    11 1.183836 0.259443 -1.427523 -0.061050 0.161590 0.303243
    12 0.625233 0.000000 0.000000 0.000000 0.000000 0.028721
    13 1.041848 0.000000 0.000001 0.000000 0.000000 0.014352
    14 3.037806 -0.002122 -0.118180 0.005168 0.025677 0.229328
    15 1.172004 -0.000001 0.000000 0.000000 0.000000 0.359231
    16 1.160930 0.000000 0.000000 0.000000 0.000000 0.742584
    17 0.000001 0.002045 -1.614274 -0.000014 1.370796 3.140783
    18 4.700062 0.000000 -0.000002 0.062337 -1.129853 -0.154413
    19 12.049927 0.000000 0.000001 0.000000 0.000000 -0.415049
    20 10.340311 0.000001 0.000000 1.302819 -0.058670 -0.029662
    21 1.186625 0.034757 1.438863 -0.082673 -0.309010 0.391957
    22 0.607803 0.000000 0.000000 0.000000 0.000000 0.069788
    23 1.063061 0.000001 0.000000 0.000000 0.000000 0.095969
    24 2.950419 0.002914 0.177525 0.002893 -0.000503 0.218132
    25 1.294388 0.000000 -0.000001 0.000000 0.000000 0.270502
    26 1.183920 0.000001 0.000000 0.000000 0.000000 0.392676
    27 2.738953 3.890889 0.113747 3.158711 -1.536326 -0.088395
    28 0.000000 -1.023687 -1.922726 -0.042142 0.003815 -0.000248
    29 0.000000 -0.558375 -1.804806 -0.030643 0.000000 0.000000
    30 0.000000 -0.325718 -1.929488 0.000000 0.026825 0.000000
    31 0.000000 0.046531 -1.430430 -0.034502 -0.038267 0.002156
    32 0.000000 0.000000 -1.347565 -0.064193 -0.043585 0.003731
    33 0.000000 -0.046531 -2.135521 0.099342 0.052325 -0.000479
    34 0.000000 -0.279187 -2.151380 0.078967 0.048182 -0.000670
    35 -3.935008 -0.311884 3.416453 -0.000987 -3.100811 -0.032295
    36 19.302956 0.000000 0.000000 0.000000 0.000000 -0.158548
    37 15.657714 0.000000 0.000000 0.001579 -0.040858 0.144436
    38 3.741828 7.474068 0.000000 0.000000 0.000000 1.570796
    39 -3.935008 -0.311865 -3.416451 0.002091 3.115416 -0.035496
    40 19.302958 0.000000 0.000000 0.000000 0.000000 -0.165536
    41 15.657715 0.000000 0.000000 -0.002585 0.026181 0.148185
    42 3.741828 7.351521 0.000000 0.000000 0.000000 1.570796
    43 2.562340 0.000000 0.000000 0.112581 -0.051726 0.260706
    44 8.541129 0.000000 0.000000 0.000000 0.000000 0.000000
    45 -7.351523 1.350579 0.144448 0.000001 -3.141591 -1.570794
    46 4.991368 -0.677071 0.532282 1.237053 -2.969057 -0.819481
  time 6
    0 -0.112366 0.265007 38.496143 0.000000 0.000000 -1.570888
    1 0.270458 0.000000 0.000000 -1.570795 -1.570451 0.000000
    2 3.928664 0.383633 0.000004 -0.000004 -0.000001 0.018250
    3 3.442969 -0.003536 0.000000 -0.037260 0.002768 0.033517
    4 4.441442 -0.003536 0.000000 -0.059840 0.007287 0.066857
    5 4.441389 -0.003537 0.000000 -0.067856 0.009731 0.074140
    6 4.441391 -0.002040 0.000000 0.000000 0.000000 0.000000
    7 0.000001 0.002036 1.614274 -0.000014 -1.370796 3.140810
    8 5.073841 0.000000 0.000002 0.394745 1.105934 0.476123
    9 12.011117 0.000000 -0.000001 0.000000 0.000000 -1.271250
    10 10.249307 0.000000 0.000000 -1.574241 0.031400 -0.004320
    11 1.183836 0.259443 -1.427523 -0.083989 0.143498 0.319198
    12 0.625233 0.000000 0.000000 0.000000 0.000000 0.017985
    13 1.041848 0.000000 0.000001 0.000000 0.000000 0.008993
    14 3.037806 -0.002122 -0.118180 0.005990 0.025497 0.261639
    15 1.172004 -0.000001 0.000000 0.000000 0.000000 0.392499
    16 1.160930 0.000000 0.000000 0.000000 0.000000 0.815226
    17 0.000001 0.002045 -1.614274 -0.000014 1.370796 3.140783
    18 4.700062 0.000000 -0.000002 0.048995 -1.123427 -0.165847
    19 12.049927 0.000000 0.000001 0.000000 0.000000 -0.475873
    20 10.340311 0.000001 0.000000 1.303148 -0.035645 -0.035999
    21 1.186625 0.034757 1.438863 -0.083047 -0.322141 0.393142
    22 0.607803 0.000000 0.000000 0.000000 0.000000 0.069788
    23 1.063061 0.000001 0.000000 0.000000 0.000000 0.095969
    24 2.950419 0.002914 0.177525 0.002893 -0.000503 0.218132
    25 1.294388 0.000000 -0.000001 0.000000 0.000000 0.270502
    26 1.183920 0.000001 0.000000 0.000000 0.000000 0.392676
    27 2.738953 3.890889 0.113747 3.155835 -1.528912 -0.091271
    28 0.000000 -1.023687 -1.922726 -0.051205 0.004638 -0.000339
    29 0.000000 -0.558375 -1.804806 -0.037231 0.000000 0.000000
    30 0.000000 -0.325718 -1.929488 0.000000 0.032588 0.000000
    31 0.000000 0.046531 -1.430430 -0.041932 -0.046476 0.002800
    32 0.000000 0.000000 -1.347565 -0.076720 -0.051682 0.004773
    33 0.000000 -0.046531 -2.135521 0.113000 0.059539 0.000000
    34 0.000000 -0.279187 -2.151380 0.088782 0.052783 -0.000268
    35 -3.935008 -0.311884 3.416453 -0.000987 -3.100811 -0.032295
    36 19.302956 0.000000 0.000000 0.000000 0.000000 -0.158548
    37 15.657714 0.000000 0.000000 0.001579 -0.040858 0.144436
    38 3.741828 7.474068 0.000000 0.000000 0.000000 1.570796
    39 -3.935008 -0.311865 -3.416451 0.002091 3.115416 -0.035496
    40 19.302958 0.000000 0.000000 0.000000 0.000000 -0.165536
    41 15.657715 0.000000 0.000000 -0.002585 0.026181 0.148185
    42 3.741828 7.351521 0.000000 0.000000 0.000000 1.570796
    43 2.562340 0.000000 0.000000 0.139694 -0.073640 0.295017
    44 8.541129 0.000000 0.000000 0.000000 0.000000 0.000000
    45 -7.351523 1.350579 0.144448 0.000001 -3.141591 -1.570794
    46 4.991368 -0.677071 0.532282 1.237053 -2.969057 -0.819481
  time 7
    0 -0.112366 0.265007 38.496143 0.000000 0.000000 -1.570888
    1 0.270458 0.000000 0.000000 -1.570795 -1.570451 0.000000
    2 3.928664 0.383633 0.000004 -0.000004 -0.000001 0.018250
    3 3.442969 -0.003536 0.000000 -0.045134 0.003476 0.038746
    4 4.441442 -0.003536 0.000000 -0.072428 0.009216 0.077235
    5 4.441389 -0.003537 0.000000 -0.082098 0.012440 0.089723
    6 4.441391 -0.002040 0.000000 0.000000 0.000000 0.000000
    7 0.000001 0.002036 1.614274 -0.000014 -1.370796 3.140810
    8 5.073841 0.000000 0.000002 0.405532 1.109968 0.494557
    9 12.011117 0.000000 -0.000001 0.000000 0.000000 -1.424248
    10 10.249307 0.000000 0.000000 -1.585024 0.013912 -0.001955
    11 1.183836 0.259443 -1.427523 -0.105170 0.127331 0.334567
    12 0.625233 0.000000 0.000000 0.000000 0.000000 0.008286
    13 1.041848 0.000000 0.000001 0.000000 0.000000 0.004143
    14 3.037806 -0.002122 -0.118180 0.006924 0.025269 0.298219
    15 1.172004 -0.000001 0.000000 0.000000 0.000000 0.429478
    16 1.160930 0.000000 0.000000 0.000000 0.000000 0.885031
    17 0.000001 0.002045 -1.614274 -0.000014 1.370796 3.140783
    18 4.700062 0.000000 -0.000002 0.035580 -1.116321 -0.176482
    19 12.049927 0.000000 0.000001 0.000000 0.000000 -0.536089
    20 10.340311 0.000001 0.000000 1.303280 -0.013321 -0.042066
    21 1.186625 0.034757 1.438863 -0.083384 -0.334888 0.394231
    22 0.607803 0.000000 0.000000 0.000000 0.000000 0.069788
    23 1.063061 0.000001 0.000000 0.000000 0.000000 0.095969
    24 2.950419 0.002914 0.177525 0.002893 -0.000503 0.218132
    25 1.294388 0.000000 -0.000001 0.000000 0.000000 0.270502
    26 1.183920 0.000001 0.000000 0.000000 0.000000 0.392676
    27 2.738953 3.890889 0.113747 3.153054 -1.521717 -0.094051
    28 0.000000 -1.023687 -1.922726 -0.059974 0.005430 -0.000406
    29 0.000000 -0.558375 -1.804806 -0.043625 0.000000 0.000000
    30 0.000000 -0.325718 -1.929488 0.000000 0.038166 0.000000
    31 0.000000 0.046531 -1.430430 -0.049162 -0.054434 0.003471
    32 0.000000 0.000000 -1.347565 -0.088760 -0.058869 0.005815
    33 0.000000 -0.046531 -2.135521 0.119757 0.063147 0.000491
    34 0.000000 -0.279187 -2.151380 0.091965 0.051759 0.000251
    35 -3.935008 -0.311884 3.416453 -0.000987 -3.100811 -0.032295
    36 19.302956 0.000000 0.000000 0.000000 0.000000 -0.158548
    37 15.657714 0.000000 0.000000 0.001579 -0.040858 0.144436
    38 3.741828 7.474068 0.000000 0.000000 0.000000 1.570796
    39 -3.935008 -0.311865 -3.416451 0.002091 3.115416 -0.035496
    40 19.302958 0.000000 0.000000 0.000000 0.000000 -0.165536
    41 15.657715 0.000000 0.000000 -0.002585 0.026181 0.148185
    42 3.741828 7.351521 0.000000 0.000000 0.000000 1.570796
    43 2.562340 0.000000 0.000000 0.164360 -0.098056 0.327848
    44 8.541129 0.000000 0.000000 0.000000 0.000000 0.000000
    45 -7.351523 1.350579 0.144448 0.000001 -3.141591 -1.570794
    46 4.991368 -0.677071 0.532282 1.237053 -2.969057 -0.819481
  time 8
    0 -0.112366 0.265007 38.496143 0.000000 0.000000 -1.570888
    1 0.270458 0.000000 0.000000 -1.570795 -1.570451 0.000000
    2 3.928664 0.383633 0.000004 -0.000004 -0.000001 0.018250
    3 3.442969 -0.003536 0.000000 -0.052636 0.004183 0.043724
    4 4.441442 -0.003536 0.000000 -0.084435 0.011170 0.087139
    5 4.441389 -0.003537 0.000000 -0.095669 0.015220 0.104566
    6 4.441391 -0.002040 0.000000 0.000000 0.000000 0.000000
    7 0.000001 0.002036 1.614274 -0.000014 -1.370796 3.140810
    8 5.073841 0.000000 0.000002 0.336523 1.129477 0.424605
    9 12.011117 0.000000 -0.000001 0.000000 0.000000 -1.509238
    10 10.249307 0.000000 0.000000 -1.570000 0.000014 0.000000
    11 1.183836 0.259443 -1.427523 -0.123872 0.113281 0.349035
    12 0.625233 0.000000 0.000000 0.000000 0.000000 0.000000
    13 1.041848 0.000000 0.000001 0.000000 0.000000 0.000000
    14 3.037806 -0.002122 -0.118180 0.007983 0.024946 0.340401
    15 1.172004 -0.000001 0.000000 0.000000 0.000000 0.471228
    16 1.160930 0.000000 0.000000 0.000000 0.000000 0.951195
    17 0.000001 0.002045 -1.614274 -0.000014 1.370796 3.140783
    18 4.700062 0.000000 -0.000002 0.022748 -1.108761 -0.186238
    19 12.049927 0.000000 0.000001 0.000000 0.000000 -0.593875
    20 10.340311 0.000001 0.000000 1.303280 0.007765 -0.047863
    21 1.186625 0.034757 1.438863 -0.083759 -0.346899 0.395321
    22 0.607803 0.000000 0.000000 0.000000 0.000000 0.069788
    23 1.063061 0.000001 0.000000 0.000000 0.000000 0.095969
    24 2.950419 0.002914 0.177525 0.002893 -0.000503 0.218132
    25 1.294388 0.000000 -0.000001 0.000000 0.000000 0.270502
    26 1.183920 0.000001 0.000000 0.000000 0.000000 0.392676
    27 2.738953 3.890889 0.113747 3.150370 -1.514932 -0.096640
    28 0.000000 -1.023687 -1.922726 -0.068285 0.006174 -0.000497
    29 0.000000 -0.558375 -1.804806 -0.049648 0.000000 0.000000
    30 0.000000 -0.325718 -1.929488 0.000000 0.043451 0.000000
    31 0.000000 0.046531 -1.430430 -0.055970 -0.061936 0.004171
    32 0.000000 0.000000 -1.347565 -0.100125 -0.064868 0.006803
    33 0.000000 -0.046531 -2.135521 0.117543 0.062080 0.000935
    34 0.000000 -0.279187 -2.151380 0.086482 0.043455 0.000921
    35 -3.935008 -0.311884 3.416453 -0.000987 -3.100811 -0.032295
    36 19.302956 0.000000 0.000000 0.000000 0.000000 -0.158548
    37 15.657714 0.000000 0.000000 0.001579 -0.040858 0.144436
    38 3.741828 7.474068 0.000000 0.000000 0.000000 1.570796
    39 -3.935008 -0.311865 -3.416451 0.002091 3.115416 -0.035496
    40 19.302958 0.000000 0.000000 0.000000 0.000000 -0.165536
    41 15.657715 0.000000 0.000000 -0.002585 0.026181 0.148185
    42 3.741828 7.351521 0.000000 0.000000 0.000000 1.570796
    43 2.562340 0.000000 0.000000 0.185851 -0.123919 0.358384
    44 8.541129 0.000000 0.000000 0.000000 0.000000 0.000000
    45 -7.351523 1.350579 0.144448 0.000001 -3.141591 -1.570794
    46 4.991368 -0.677071 0.532282 1.237053 -2.969057 -0.819481
  time 9
    0 -0.112366 0.265007 38.496143 0.000000 0.000000 -1.570888
    1 0.270458 0.000000 0.000000 -1.570795 -1.570451 0.000000
    2 3.928664 0.383633 0.000004 -0.000004 -0.000001 0.018250
    3 3.442969 -0.003536 0.000000 -0.059575 0.004866 0.048339
    4 4.441442 -0.003536 0.000000 -0.095521 0.013075 0.096252
    5 4.441389 -0.003537 0.000000 -0.108171 0.017977 0.118253
    6 4.441391 -0.002040 0.000000 0.000000 0.000000 0.000000
    7 0.000001 0.002036 1.614274 -0.000014 -1.370796 3.140810
    8 5.073841 0.000000 0.000002 0.094349 1.157200 0.161745
    9 12.011117 0.000000 -0.000001 0.000000 0.000000 -1.488977
    10 10.249307 0.000000 0.000000 -1.498187 -0.008350 0.000819
    11 1.183836 0.259443 -1.427523 -0.136301 0.103914 0.361655
    12 0.625233 0.000000 0.000000 0.000000 0.000000 -0.004653
    13 1.041848 0.000000 0.000001 0.000000 0.000000 -0.002318
    14 3.037806 -0.002122 -0.118180 0.009552 0.024394 0.403923
    15 1.172004 -0.000001 0.000000 0.000000 0.000000 0.529546
    16 1.160930 0.000000 0.000000 0.000000 0.000000 1.012007
    17 0.000001 0.002045 -1.614274 -0.000014 1.370796 3.140783
    18 4.700062 0.000000 -0.000002 0.010864 -1.101126 -0.195034
    19 12.049927 0.000000 0.000001 0.000000 0.000000 -0.647485
    20 10.340311 0.000001 0.000000 1.303214 0.027076 -0.053122
    21 1.186625 0.034757 1.438863 -0.084096 -0.357884 0.396316
    22 0.607803 0.000000 0.000000 0.000000 0.000000 0.069788
    23 1.063061 0.000001 0.000000 0.000000 0.000000 0.095969
    24 2.950419 0.002914 0.177525 0.002893 -0.000503 0.218132
    25 1.294388 0.000000 -0.000001 0.000000 0.000000 0.270502
    26 1.183920 0.000001 0.000000 0.000000 0.000000 0.392676
    27 2.738953 3.890889 0.113747 3.147973 -1.508722 -0.099133
    28 0.000000 -1.023687 -1.922726 -0.075876 0.006871 -0.000587
    29 0.000000 -0.558375 -1.804806 -0.055176 0.000000 0.000000
    30 0.000000 -0.325718 -1.929488 0.000000 0.048273 0.000000
    31 0.000000 0.046531 -1.430430 -0.062216 -0.068816 0.004843
    32 0.000000 0.000000 -1.347565 -0.110630 -0.069384 0.007681
    33 0.000000 -0.046531 -2.135521 0.098192 0.050803 0.001378
    34 0.000000 -0.279187 -2.151380 0.064084 0.018389 0.002361
    35 -3.935008 -0.311884 3.416453 -0.000987 -3.100811 -0.032295
    36 19.302956 0.000000 0.000000 0.000000 0.000000 -0.158548
    37 15.657714 0.000000 0.000000 0.001579 -0.040858 0.144436
    38 3.741828 7.474068 0.000000 0.000000 0.000000 1.570796
    39 -3.935008 -0.311865 -3.416451 0.002091 3.115416 -0.035496
    40 19.302958 0.000000 0.000000 0.000000 0.000000 -0.165536
    41 15.657715 0.000000 0.000000 -0.002585 0.026181 0.148185
    42 3.741828 7.351521 0.000000 0.000000 0.000000 1.570796
    43 2.562340 0.000000 0.000000 0.203806 -0.149865 0.385922
    44 8.541129 0.000000 0.000000 0.000000 0.000000 0.000000
    45 -7.351523 1.350579 0.144448 0.000001 -3.141591 -1.570794
    46 4.991368 -0.677071 0.532282 1.237053 -2.969057 -0.819481
  time 10
    0 -0.112366 0.265007 38.496143 0.000000 0.000000 -1.570888
    1 0.270458 0.000000 0.000000 -1.570795 -1.570451 0.000000
    2 3.928664 0.383633 0.000004 -0.000004 -0.000001 0.018250
    3 3.442969 -0.003536 0.000000 -0.065723 0.005513 0.052414
    4 4.441442 -0.003536 0.000000 -0.105330 0.014861 0.104331
    5 4.441389 -0.003537 0.000000 -0.119225 0.020566 0.130370
    6 4.441391 -0.002040 0.000000 0.000000 0.000000 0.000000
    7 0.000001 0.002036 1.614274 -0.000014 -1.370796 3.140810
    8 5.073841 0.000000 0.000002 -0.316703 1.132044 -0.291592
    9 12.011117 0.000000 -0.000001 0.000000 0.000000 -1.369052
    10 10.249307 0.000000 0.000000 -1.364624 -0.010927 0.000318
    11 1.183836 0.259443 -1.427523 -0.141137 0.099872 0.371345
    12 0.625233 0.000000 0.000000 0.000000 0.000000 -0.005129
    13 1.041848 0.000000 0.000001 0.000000 0.000000 -0.002565
    14 3.037806 -0.002122 -0.118180 0.011582 0.023495 0.488687
    15 1.172004 -0.000001 0.000000 0.000000 0.000000 0.604962
    16 1.160930 0.000000 0.000000 0.000000 0.000000 1.064682
    17 0.000001 0.002045 -1.614274 -0.000014 1.370796 3.140783
    18 4.700062 0.000000 -0.000002 0.000366 -1.093869 -0.202710
    19 12.049927 0.000000 0.000001 0.000000 0.000000 -0.695248
    20 10.340311 0.000001 0.000000 1.303016 0.044077 -0.057796
    21 1.186625 0.034757 1.438863 -0.084395 -0.367589 0.397169
    22 0.607803 0.000000 0.000000 0.000000 0.000000 0.069788
    23 1.063061 0.000001 0.000000 0.000000 0.000000 0.095969
    24 2.950419 0.002914 0.177525 0.002893 -0.000503 0.218132
    25 1.294388 0.000000 -0.000001 0.000000 0.000000 0.270502
    26 1.183920 0.000001 0.000000 0.000000 0.000000 0.392676
    27 2.738953 3.890889 0.113747 3.145864 -1.503251 -0.101242
    28 0.000000 -1.023687 -1.922726 -0.082550 0.007472 -0.000655
    29 0.000000 -0.558375 -1.804806 -0.060033 0.000000 0.000000
    30 0.000000 -0.325718 -1.929488 0.000000 0.052526 0.000000
    31 0.000000 0.046531 -1.430430 -0.067738 -0.074856 0.005487
    32 0.000000 0.000000 -1.347565 -0.120577 -0.072167 0.008449
    33 0.000000 -0.046531 -2.135521 0.060612 0.028499 0.002457
    34 0.000000 -0.279187 -2.151380 0.023548 -0.024856 0.005877
    35 -3.935008 -0.311884 3.416453 -0.000987 -3.100811 -0.032295
    36 19.302956 0.000000 0.000000 0.000000 0.000000 -0.158548
    37 15.657714 0.000000 0.000000 0.001579 -0.040858 0.144436
    38 3.741828 7.474068 0.000000 0.000000 0.000000 1.570796
    39 -3.935008 -0.311865 -3.416451 0.002091 3.115416 -0.035496
    40 19.302958 0.000000 0.000000 0.000000 0.000000 -0.165536
    41 15.657715 0.000000 0.000000 -0.002585 0.026181 0.148185
    42 3.741828 7.351521 0.000000 0.000000 0.000000 1.570796
    43 2.562340 0.000000 0.000000 0.218179 -0.174393 0.409796
    44 8.541129 0.000000 0.000000 0.000000 0.000000 0.000000
    45 -7.351523 1.350579 0.144448 0.000001 -3.141591 -1.570794
    46 4.991368 -0.677071 0.532282 1.237053 -2.969057 -0.819481
  time 11
    0 -0.112366 0.265007 38.496143 0.000000 0.000000 -1.570888
    1 0.270458 0.000000 0.000000 -1.570795 -1.570451 0.000000
    2 3.928664 0.383633 0.000004 -0.000004 -0.000001 0.018250
    3 3.442969 -0.003536 0.000000 -0.070877 0.006064 0.055825
    4 4.441442 -0.003536 0.000000 -0.113539 0.016419 0.111087
    5 4.441389 -0.003537 0.000000 -0.128475 0.022831 0.140487
    6 4.441391 -0.002040 0.000000 0.000000 0.000000 0.000000
    7 0.000001 0.002036 1.614274 -0.000014 -1.370796 3.140810
    8 5.073841 0.000000 0.000002 -0.663104 1.016605 -0.690710
    9 12.011117 0.000000 -0.000001 0.000000 0.000000 -1.193634
    10 10.249307 0.000000 0.000000 -1.202810 -0.009322 -0.000409
    11 1.183836 0.259443 -1.427523 -0.141656 0.099038 0.377520
    12 0.625233 0.000000 0.000000 0.000000 0.000000 -0.003732
    13 1.041848 0.000000 0.000001 0.000000 0.000000 -0.001858
    14 3.037806 -0.002122 -0.118180 0.013500 0.022453 0.572284
    15 1.172004 -0.000001 0.000000 0.000000 0.000000 0.681615
    16 1.160930 0.000000 0.000000 0.000000 0.000000 1.106489
    17 0.000001 0.002045 -1.614274 -0.000014 1.370796 3.140783
    18 4.700062 0.000000 -0.000002 -0.008310 -1.087368 -0.209107
    19 12.049927 0.000000 0.000001 0.000000 0.000000 -0.735417
    20 10.340311 0.000001 0.000000 1.302819 0.058230 -0.061661
    21 1.186625 0.034757 1.438863 -0.084657 -0.375660 0.397927
    22 0.607803 0.000000 0.000000 0.000000 0.000000 0.069788
    23 1.063061 0.000001 0.000000 0.000000 0.000000 0.095969
    24 2.950419 0.002914 0.177525 0.002893 -0.000503 0.218132
    25 1.294388 0.000000 -0.000001 0.000000 0.000000 0.270502
    26 1.183920 0.000001 0.000000 0.000000 0.000000 0.392676
    27 2.738953 3.890889 0.113747 3.144043 -1.498710 -0.102967
    28 0.000000 -1.023687 -1.922726 -0.088113 0.007963 -0.000722
    29 0.000000 -0.558375 -1.804806 -0.064077 0.000000 0.000000
    30 0.000000 -0.325718 -1.929488 0.000000 0.056070 0.000000
    31 0.000000 0.046531 -1.430430 -0.072317 -0.079877 0.006033
    32 0.000000 0.000000 -1.347565 -0.129595 -0.072642 0.008970
    33 0.000000 -0.046531 -2.135521 0.013198 0.001174 0.004842
    34 0.000000 -0.279187 -2.151380 -0.026779 -0.075787 0.012324
    35 -3.935008 -0.311884 3.416453 -0.000987 -3.100811 -0.032295
    36 19.302956 0.000000 0.000000 0.000000 0.000000 -0.158548
    37 15.657714 0.000000 0.000000 0.001579 -0.040858 0.144436
    38 3.741828 7.474068 0.000000 0.000000 0.000000 1.570796
    39 -3.935008 -0.311865 -3.416451 0.002091 3.115416 -0.035496
    40 19.302958 0.000000 0.000000 0.000000 0.000000 -0.165536
    41 15.657715 0.000000 0.000000 -0.002585 0.026181 0.148185
    42 3.741828 7.351521 0.000000 0.000000 0.000000 1.570796
    43 2.562340 0.000000 0.000000 0.228970 -0.195946 0.429450
    44 8.541129 0.000000 0.000000 0.000000 0.000000 0.000000
    45 -7.351523 1.350579 0.144448 0.000001 -3.141591 -1.570794
    46 4.991368 -0.677071 0.532282 1.237053 -2.969057 -0.819481
  time 12
    0 -0.112366 0.265007 38.496143 0.000000 0.000000 -1.570888
    1 0.270458 0.000000 0.000000 -1.570795 -1.570451 0.000000
    2 3.928664 0.383633 0.000004 -0.000004 -0.000001 0.018250
    3 3.442969 -0.003536 0.000000 -0.074832 0.006496 0.058446
    4 4.441442 -0.003536 0.000000 -0.119825 0.017641 0.116247
    5 4.441389 -0.003537 0.000000 -0.135523 0.024640 0.148235
    6 4.441391 -0.002040 0.000000 0.000000 0.000000 0.000000
    7 0.000001 0.002036 1.614274 -0.000014 -1.370796 3.140810
    8 5.073841 0.000000 0.000002 -0.850914 0.860608 -0.932031
    9 12.011117 0.000000 -0.000001 0.000000 0.000000 -1.006819
    10 10.249307 0.000000 0.000000 -1.046028 -0.005562 -0.000682
    11 1.183836 0.259443 -1.427523 -0.141097 0.099167 0.379683
    12 0.625233 0.000000 0.000000 0.000000 0.000000 -0.002762
    13 1.041848 0.000000 0.000001 0.000000 0.000000 -0.001381
    14 3.037806 -0.002122 -0.118180 0.014820 0.021602 0.632272
    15 1.172004 -0.000001 0.000000 0.000000 0.000000 0.743644
    16 1.160930 0.000000 0.000000 0.000000 0.000000 1.134593
    17 0.000001 0.002045 -1.614274 -0.000014 1.370796 3.140783
    18 4.700062 0.000000 -0.000002 -0.014945 -1.082227 -0.213905
    19 12.049927 0.000000 0.000001 0.000000 0.000000 -0.766323
    20 10.340311 0.000001 0.000000 1.302687 0.069000 -0.064582
    21 1.186625 0.034757 1.438863 -0.084882 -0.381777 0.398448
    22 0.607803 0.000000 0.000000 0.000000 0.000000 0.069788
    23 1.063061 0.000001 0.000000 0.000000 0.000000 0.095969
    24 2.950419 0.002914 0.177525 0.002893 -0.000503 0.218132
    25 1.294388 0.000000 -0.000001 0.000000 0.000000 0.270502
    26 1.183920 0.000001 0.000000 0.000000 0.000000 0.392676
    27 2.738953 3.890889 0.113747 3.142701 -1.495235 -0.104310
    28 0.000000 -1.023687 -1.922726 -0.092333 0.008359 -0.000767
    29 0.000000 -0.558375 -1.804806 -0.067151 0.000000 0.000000
    30 0.000000 -0.325718 -1.929488 0.000000 0.058766 0.000000
    31 0.000000 0.046531 -1.430430 -0.075811 -0.083700 0.006467
    32 0.000000 0.000000 -1.347565 -0.136568 -0.069958 0.009052
    33 0.000000 -0.046531 -2.135521 -0.035740 -0.025180 0.008461
    34 0.000000 -0.279187 -2.151380 -0.078551 -0.123997 0.021182
    35 -3.935008 -0.311884 3.416453 -0.000987 -3.100811 -0.032295
    36 19.302956 0.000000 0.000000 0.000000 0.000000 -0.158548
    37 15.657714 0.000000 0.000000 0.001579 -0.040858 0.144436
    38 3.741828 7.474068 0.000000 0.000000 0.000000 1.570796
    39 -3.935008 -0.311865 -3.416451 0.002091 3.115416 -0.035496
    40 19.302958 0.000000 0.000000 0.000000 0.000000 -0.165536
    41 15.657715 0.000000 0.000000 -0.002585 0.026181 0.148185
    42 3.741828 7.351521 0.000000 0.000000 0.000000 1.570796
    43 2.562340 0.000000 0.000000 0.236451 -0.213048 0.444255
    44 8.541129 0.000000 0.000000 0.000000 0.000000 0.000000
    45 -7.351523 1.350579 0.144448 0.000001 -3.141591 -1.570794
    46 4.991368 -0.677071 0.532282 1.237053 -2.969057 -0.819481
  time 13
    0 -0.112366 0.265007 38.496143 0.000000 0.000000 -1.570888
    1 0.270458 0.000000 0.000000 -1.570795 -1.570451 0.000000
    2 3.928664 0.383633 0.000004 -0.000004 -0.000001 0.018250
    3 3.442969 -0.003536 0.000000 -0.077349 0.006783 0.060113
    4 4.441442 -0.003536 0.000000 -0.123833 0.018444 0.119539
    5 4.441389 -0.003537 0.000000 -0.140033 0.025815 0.153182
    6 4.441391 -0.002040 0.000000 0.000000 0.000000 0.000000
    7 0.000001 0.002036 1.614274 -0.000014 -1.370796 3.140810
    8 5.073841 0.000000 0.000002 -0.934281 0.729767 -1.058363
    9 12.011117 0.000000 -0.000001 0.000000 0.000000 -0.852779
    10 10.249307 0.000000 0.000000 -0.927561 -0.001718 -0.000318
    11 1.183836 0.259443 -1.427523 -0.132984 0.105711 0.365305
    12 0.625233 0.000000 0.000000 0.000000 0.000000 -0.001463
    13 1.041848 0.000000 0.000001 0.000000 0.000000 -0.000723
    14 3.037806 -0.002122 -0.118180 0.014732 0.021662 0.627837
    15 1.172004 -0.000001 0.000000 0.000000 0.000000 0.776647
    16 1.160930 0.000000 0.000000 0.000000 0.000000 1.114787
    17 0.000001 0.002045 -1.614274 -0.000014 1.370796 3.140783
    18 4.700062 0.000000 -0.000002 -0.019174 -1.078750 -0.216943
    19 12.049927 0.000000 0.000001 0.000000 0.000000 -0.786066
    20 10.340311 0.000001 0.000000 1.302490 0.075850 -0.066470
    21 1.186625 0.034757 1.438863 -0.085031 -0.385684 0.398827
    22 0.607803 0.000000 0.000000 0.000000 0.000000 0.069788
    23 1.063061 0.000001 0.000000 0.000000 0.000000 0.095969
    24 2.950419 0.002914 0.177525 0.002893 -0.000503 0.218132
    25 1.294388 0.000000 -0.000001 0.000000 0.000000 0.270502
    26 1.183920 0.000001 0.000000 0.000000 0.000000 0.392676
    27 2.738953 3.890889 0.113747 3.141838 -1.493047 -0.105173
    28 0.000000 -1.023687 -1.922726 -0.095049 0.008596 -0.000813
    29 0.000000 -0.558375 -1.804806 -0.069111 0.000000 0.000000
    30 0.000000 -0.325718 -1.929488 0.000000 0.060476 0.000000
    31 0.000000 0.046531 -1.430430 -0.078041 -0.086133 0.006761
    32 0.000000 0.000000 -1.347565 -0.140356 -0.063302 0.008531
    33 0.000000 -0.046531 -2.135521 -0.077806 -0.044691 0.012284
    34 0.000000 -0.279187 -2.151380 -0.122881 -0.159289 0.030006
    35 -3.935008 -0.311884 3.416453 -0.000987 -3.100811 -0.032295
    36 19.302956 0.000000 0.000000 0.000000 0.000000 -0.158548
    37 15.657714 0.000000 0.000000 0.001579 -0.040858 0.144436
    38 3.741828 7.474068 0.000000 0.000000 0.000000 1.570796
    39 -3.935008 -0.311865 -3.416451 0.002091 3.115416 -0.035496
    40 19.302958 0.000000 0.000000 0.000000 0.000000 -0.165536
    41 15.657715 0.000000 0.000000 -0.002585 0.026181 0.148185
    42 3.741828 7.351521 0.000000 0.000000 0.000000 1.570796
    43 2.562340 0.000000 0.000000 0.240895 -0.224228 0.453656
    44 8.541129 0.000000 0.000000 0.000000 0.000000 0.000000
    45 -7.351523 1.350579 0.144448 0.000001 -3.141591 -1.570794
    46 4.991368 -0.677071 0.532282 1.237053 -2.969057 -0.819481
  time 14
    0 -0.112366 0.265007 38.496143 0.000000 0.000000 -1.570888
    1 0.270458 0.000000 0.000000 -1.570795 -1.570451 0.000000
    2 3.928664 0.383633 0.000004 -0.000004 -0.000001 0.018250
    3 3.442969 -0.003536 0.000000 -0.078235 0.006891 0.060703
    4 4.441442 -0.003536 0.000000 -0.125239 0.018732 0.120703
    5 4.441389 -0.003537 0.000000 -0.141627 0.026234 0.154915
    6 4.441391 -0.002040 0.000000 0.000000 0.000000 0.000000
    7 0.000001 0.002036 1.614274 -0.000014 -1.370796 3.140810
    8 5.073841 0.000000 0.000002 -0.958070 0.676374 -1.100023
    9 12.011117 0.000000 -0.000001 0.000000 0.000000 -0.775610
    10 10.249307 0.000000 0.000000 -0.880620 0.000014 0.000000
    11 1.183836 0.259443 -1.427523 -0.123872 0.113281 0.349035
    12 0.625233 0.000000 0.000000 0.000000 0.000000 0.000000
    13 1.041848 0.000000 0.000001 0.000000 0.000000 0.000000
    14 3.037806 -0.002122 -0.118180 0.013786 0.022273 0.584821
    15 1.172004 -0.000001 0.000000 0.000000 0.000000 0.767944
    16 1.160930 0.000000 0.000000 0.000000 0.000000 1.073354
    17 0.000001 0.002045 -1.614274 -0.000014 1.370796 3.140783
    18 4.700062 0.000000 -0.000002 -0.020632 -1.077540 -0.217983
    19 12.049927 0.000000 0.000001 0.000000 0.000000 -0.793052
    20 10.340311 0.000001 0.000000 1.302490 0.078243 -0.067144
    21 1.186625 0.034757 1.438863 -0.085069 -0.387061 0.398969
    22 0.607803 0.000000 0.000000 0.000000 0.000000 0.069788
    23 1.063061 0.000001 0.000000 0.000000 0.000000 0.095969
    24 2.950419 0.002914 0.177525 0.002893 -0.000503 0.218132
    25 1.294388 0.000000 -0.000001 0.000000 0.000000 0.270502
    26 1.183920 0.000001 0.000000 0.000000 0.000000 0.392676
    27 2.738953 3.890889 0.113747 3.141550 -1.492281 -0.105460
    28 0.000000 -1.023687 -1.922726 -0.095965 0.008675 -0.000835
    29 0.000000 -0.558375 -1.804806 -0.069800 0.000000 0.000000
    30 0.000000 -0.325718 -1.929488 0.000000 0.061077 0.000000
    31 0.000000 0.046531 -1.430430 -0.078824 -0.086996 0.006859
    32 0.000000 0.000000 -1.347565 -0.139798 -0.051849 0.007269
    33 0.000000 -0.046531 -2.135521 -0.104432 -0.051594 0.014561
    34 0.000000 -0.279187 -2.151380 -0.150296 -0.171927 0.035013
    35 -3.935008 -0.311884 3.416453 -0.000987 -3.100811 -0.032295
    36 19.302956 0.000000 0.000000 0.000000 0.000000 -0.158548
    37 15.657714 0.000000 0.000000 0.001579 -0.040858 0.144436
    38 3.741828 7.474068 0.000000 0.000000 0.000000 1.570796
    39 -3.935008 -0.311865 -3.416451 0.002091 3.115416 -0.035496
    40 19.302958 0.000000 0.000000 0.000000 0.000000 -0.165536
    41 15.657715 0.000000 0.000000 -0.002585 0.026181 0.148185
    42 3.741828 7.351521 0.000000 0.000000 0.000000 1.570796
    43 2.562340 0.000000 0.000000 0.242391 -0.228232 0.456950
    44 8.541129 0.000000 0.000000 0.000000 0.000000 0.000000
    45 -7.351523 1.350579 0.144448 0.000001 -3.141591 -1.570794
    46 4.991368 -0.677071 0.532282 1.237053 -2.969057 -0.819481
  time 15
    0 -0.112366 0.265007 38.496143 0.000000 0.000000 -1.570888
    1 0.270458 0.000000 0.000000 -1.570795 -1.570451 0.000000
    2 3.928664 0.383633 0.000004 -0.000004 -0.000001 0.018250
    3 3.442969 -0.003536 0.000000 -0.077193 0.006771 0.060013
    4 4.441442 -0.003536 0.000000 -0.123591 0.018396 0.119352
    5 4.441389 -0.003537 0.000000 -0.139781 0.025743 0.152886
    6 4.441391 -0.002040 0.000000 0.000000 0.000000 0.000000
    7 0.000001 0.002036 1.614274 -0.000014 -1.370796 3.140810
    8 5.073841 0.000000 0.000002 -0.933567 0.729987 -1.058971
    9 12.011117 0.000000 -0.000001 0.000000 0.000000 -0.798626
    10 10.249307 0.000000 0.000000 -0.926842 -0.002014 -0.000364
    11 1.183836 0.259443 -1.427523 -0.124592 0.112960 0.347953
    12 0.625233 0.000000 0.000000 0.000000 0.000000 -0.000756
    13 1.041848 0.000000 0.000001 0.000000 0.000000 -0.000378
    14 3.037806 -0.002122 -0.118180 0.012927 0.022776 0.547141
    15 1.172004 -0.000001 0.000000 0.000000 0.000000 0.728756
    16 1.160930 0.000000 0.000000 0.000000 0.000000 1.056545
    17 0.000001 0.002045 -1.614274 -0.000014 1.370796 3.140783
    18 4.700062 0.000000 -0.000002 -0.019174 -1.078977 -0.216464
    19 12.049927 0.000000 0.000001 0.000000 0.000000 -0.785155
    20 10.340311 0.000001 0.000000 1.302556 0.074983 -0.066245
    21 1.186625 0.034757 1.438863 -0.084994 -0.385204 0.398779
    22 0.607803 0.000000 0.000000 0.000000 0.000000 0.069788
    23 1.063061 0.000001 0.000000 0.000000 0.000000 0.095969
    24 2.950419 0.002914 0.177525 0.002893 -0.000503 0.218132
    25 1.294388 0.000000 -0.000001 0.000000 0.000000 0.270502
    26 1.183920 0.000001 0.000000 0.000000 0.000000 0.392676
    27 2.738953 3.890889 0.113747 3.141934 -1.493320 -0.105077
    28 0.000000 -1.023687 -1.922726 -0.094689 0.008565 -0.000813
    29 0.000000 -0.558375 -1.804806 -0.068882 0.000000 0.000000
    30 0.000000 -0.325718 -1.929488 0.000000 0.060261 0.000000
    31 0.000000 0.046531 -1.430430 -0.077779 -0.085834 0.006719
    32 0.000000 0.000000 -1.347565 -0.134638 -0.032385 0.005020
    33 0.000000 -0.046531 -2.135521 -0.114582 -0.041898 0.014130
    34 0.000000 -0.279187 -2.151380 -0.158962 -0.155305 0.033791
    35 -3.935008 -0.311884 3.416453 -0.000987 -3.100811 -0.032295
    36 19.302956 0.000000 0.000000 0.000000 0.000000 -0.158548
    37 15.657714 0.000000 0.000000 0.001579 -0.040858 0.144436
    38 3.741828 7.474068 0.000000 0.000000 0.000000 1.570796
    39 -3.935008 -0.311865 -3.416451 0.002091 3.115416 -0.035496
    40 19.302958 0.000000 0.000000 0.000000 0.000000 -0.165536
    41 15.657715 0.000000 0.000000 -0.002585 0.026181 0.148185
    42 3.741828 7.351521 0.000000 0.000000 0.000000 1.570796
    43 2.562340 0.000000 0.000000 0.240623 -0.223560 0.453101
    44 8.541129 0.000000 0.000000 0.000000 0.000000 0.000000
    45 -7.351523 1.350579 0.144448 0.000001 -3.141591 -1.570794
    46 4.991368 -0.677071 0.532282 1.237053 -2.969057 -0.819481
  time 16
    0 -0.112366 0.265007 38.496143 0.000000 0.000000 -1.570888
    1 0.270458 0.000000 0.000000 -1.570795 -1.570451 0.000000
    2 3.928664 0.383633 0.000004 -0.000004 -0.000001 0.018250
    3 3.442969 -0.003536 0.000000 -0.074257 0.006436 0.058069
    4 4.441442 -0.003536 0.000000 -0.118920 0.017462 0.115514
    5 4.441389 -0.003537 0.000000 -0.134516 0.024377 0.147124
    6 4.441391 -0.002040 0.000000 0.000000 0.000000 0.000000
    7 0.000001 0.002036 1.614274 -0.000014 -1.370796 3.140810
    8 5.073841 0.000000 0.000002 -0.848056 0.861561 -0.933449
    9 12.011117 0.000000 -0.000001 0.000000 0.000000 -0.891140
    10 10.249307 0.000000 0.000000 -1.043800 -0.006449 -0.000819
    11 1.183836 0.259443 -1.427523 -0.129028 0.109752 0.350657
    12 0.625233 0.000000 0.000000 0.000000 0.000000 -0.002910
    13 1.041848 0.000000 0.000001 0.000000 0.000000 -0.001447
    14 3.037806 -0.002122 -0.118180 0.012018 0.023280 0.507460
    15 1.172004 -0.000001 0.000000 0.000000 0.000000 0.681394
    16 1.160930 0.000000 0.000000 0.000000 0.000000 1.047498
    17 0.000001 0.002045 -1.614274 -0.000014 1.370796 3.140783
    18 4.700062 0.000000 -0.000002 -0.015018 -1.082908 -0.212066
    19 12.049927 0.000000 0.000001 0.000000 0.000000 -0.762906
    20 10.340311 0.000001 0.000000 1.302687 0.065823 -0.063728
    21 1.186625 0.034757 1.438863 -0.084807 -0.379983 0.398306
    22 0.607803 0.000000 0.000000 0.000000 0.000000 0.069788
    23 1.063061 0.000001 0.000000 0.000000 0.000000 0.095969
    24 2.950419 0.002914 0.177525 0.002893 -0.000503 0.218132
    25 1.294388 0.000000 -0.000001 0.000000 0.000000 0.270502
    26 1.183920 0.000001 0.000000 0.000000 0.000000 0.392676
    27 2.738953 3.890889 0.113747 3.143084 -1.496275 -0.103926
    28 0.000000 -1.023687 -1.922726 -0.091090 0.008232 -0.000767
    29 0.000000 -0.558375 -1.804806 -0.066250 0.000000 0.000000
    30 0.000000 -0.325718 -1.929488 0.000000 0.057965 0.000000
    31 0.000000 0.046531 -1.430430 -0.074787 -0.082574 0.006341
    32 0.000000 0.000000 -1.347565 -0.126062 -0.005328 0.002030
    33 0.000000 -0.046531 -2.135521 -0.114840 -0.019439 0.011673
    34 0.000000 -0.279187 -2.151380 -0.155975 -0.116086 0.027997
    35 -3.935008 -0.311884 3.416453 -0.000987 -3.100811 -0.032295
    36 19.302956 0.000000 0.000000 0.000000 0.000000 -0.158548
    37 15.657714 0.000000 0.000000 0.001579 -0.040858 0.144436
    38 3.741828 7.474068 0.000000 0.000000 0.000000 1.570796
    39 -3.935008 -0.311865 -3.416451 0.002091 3.115416 -0.035496
    40 19.302958 0.000000 0.000000 0.000000 0.000000 -0.165536
    41 15.657715 0.000000 0.000000 -0.002585 0.026181 0.148185
    42 3.741828 7.351521 0.000000 0.000000 0.000000 1.570796
    43 2.562340 0.000000 0.000000 0.235409 -0.210573 0.442145
    44 8.541129 0.000000 0.000000 0.000000 0.000000 0.000000
    45 -7.351523 1.350579 0.144448 0.000001 -3.141591 -1.570794
    46 4.991368 -0.677071 0.532282 1.237053 -2.969057 -0.819481
  time 17
    0 -0.112366 0.265007 38.496143 0.000000 0.000000 -1.570888
    1 0.270458 0.000000 0.000000 -1.570795 -1.570451 0.000000
    2 3.928664 0.383633 0.000004 -0.000004 -0.000001 0.018250
    3 3.442969 -0.003536 0.000000 -0.069702 0.005932 0.055047
    4 4.441442 -0.003536 0.000000 -0.111665 0.016047 0.109534
    5 4.441389 -0.003537 0.000000 -0.126357 0.022303 0.138177
    6 4.441391 -0.002040 0.000000 0.000000 0.000000 0.000000
    7 0.000001 0.002036 1.614274 -0.000014 -1.370796 3.140810
    8 5.073841 0.000000 0.000002 -0.655103 1.018218 -0.690778
    9 12.011117 0.000000 -0.000001 0.000000 0.000000 -1.016428
    10 10.249307 0.000000 0.000000 -1.199072 -0.010885 -0.000546
    11 1.183836 0.259443 -1.427523 -0.134183 0.105967 0.354669
    12 0.625233 0.000000 0.000000 0.000000 0.000000 -0.005179
    13 1.041848 0.000000 0.000001 0.000000 0.000000 -0.002581
    14 3.037806 -0.002122 -0.118180 0.011059 0.023747 0.466346
    15 1.172004 -0.000001 0.000000 0.000000 0.000000 0.628952
    16 1.160930 0.000000 0.000000 0.000000 0.000000 1.039254
    17 0.000001 0.002045 -1.614274 -0.000014 1.370796 3.140783
    18 4.700062 0.000000 -0.000002 -0.008310 -1.088880 -0.205269
    19 12.049927 0.000000 0.000001 0.000000 0.000000 -0.728204
    20 10.340311 0.000001 0.000000 1.302950 0.051545 -0.059818
    21 1.186625 0.034757 1.438863 -0.084545 -0.371848 0.397548
    22 0.607803 0.000000 0.000000 0.000000 0.000000 0.069788
    23 1.063061 0.000001 0.000000 0.000000 0.000000 0.095969
    24 2.950419 0.002914 0.177525 0.002893 -0.000503 0.218132
    25 1.294388 0.000000 -0.000001 0.000000 0.000000 0.270502
    26 1.183920 0.000001 0.000000 0.000000 0.000000 0.392676
    27 2.738953 3.890889 0.113747 3.144905 -1.500871 -0.102105
    28 0.000000 -1.023687 -1.922726 -0.085495 0.007726 -0.000700
    29 0.000000 -0.558375 -1.804806 -0.062170 0.000000 0.000000
    30 0.000000 -0.325718 -1.929488 0.000000 0.054390 0.000000
    31 0.000000 0.046531 -1.430430 -0.070148 -0.077504 0.005767
    32 0.000000 0.000000 -1.347565 -0.115116 0.024694 -0.001015
    33 0.000000 -0.046531 -2.135521 -0.108170 0.009648 0.008221
    34 0.000000 -0.279187 -2.151380 -0.145156 -0.064467 0.020010
    35 -3.935008 -0.311884 3.416453 -0.000987 -3.100811 -0.032295
    36 19.302956 0.000000 0.000000 0.000000 0.000000 -0.158548
    37 15.657714 0.000000 0.000000 0.001579 -0.040858 0.144436
    38 3.741828 7.474068 0.000000 0.000000 0.000000 1.570796
    39 -3.935008 -0.311865 -3.416451 0.002091 3.115416 -0.035496
    40 19.302958 0.000000 0.000000 0.000000 0.000000 -0.165536
    41 15.657715 0.000000 0.000000 -0.002585 0.026181 0.148185
    42 3.741828 7.351521 0.000000 0.000000 0.000000 1.570796
    43 2.562340 0.000000 0.000000 0.226567 -0.190912 0.424971
    44 8.541129 0.000000 0.000000 0.000000 0.000000 0.000000
    45 -7.351523 1.350579 0.144448 0.000001 -3.141591 -1.570794
    46 4.991368 -0.677071 0.532282 1.237053 -2.969057 -0.819481
  time 18
    0 -0.112366 0.265007 38.496143 0.000000 0.000000 -1.570888
    1 0.270458 0.000000 0.000000 -1.570795 -1.570451 0.000000
    2 3.928664 0.383633 0.000004 -0.000004 -0.000001 0.018250
    3 3.442969 -0.003536 0.000000 -0.063782 0.005309 0.051123
    4 4.441442 -0.003536 0.000000 -0.102227 0.014286 0.101772
    5 4.441389 -0.003537 0.000000 -0.115722 0.019727 0.126534
    6 4.441391 -0.002040 0.000000 0.000000 0.000000 0.000000
    7 0.000001 0.002036 1.614274 -0.000014 -1.370796 3.140810
    8 5.073841 0.000000 0.000002 -0.298200 1.132631 -0.284975
    9 12.011117 0.000000 -0.000001 0.000000 0.000000 -1.137694
    10 10.249307 0.000000 0.000000 -1.360239 -0.012743 0.000364
    11 1.183836 0.259443 -1.427523 -0.137060 0.103850 0.357418
    12 0.625233 0.000000 0.000000 0.000000 0.000000 -0.006297
    13 1.041848 0.000000 0.000001 0.000000 0.000000 -0.003140
    14 3.037806 -0.002122 -0.118180 0.010050 0.024191 0.424431
    15 1.172004 -0.000001 0.000000 0.000000 0.000000 0.574389
    16 1.160930 0.000000 0.000000 0.000000 0.000000 1.025015
    17 0.000001 0.002045 -1.614274 -0.000014 1.370796 3.140783
    18 4.700062 0.000000 -0.000002 0.000438 -1.096213 -0.196473
    19 12.049927 0.000000 0.000001 0.000000 0.000000 -0.683250
    20 10.340311 0.000001 0.000000 1.303148 0.033018 -0.054740
    21 1.186625 0.034757 1.438863 -0.084208 -0.361279 0.396600
    22 0.607803 0.000000 0.000000 0.000000 0.000000 0.069788
    23 1.063061 0.000001 0.000000 0.000000 0.000000 0.095969
    24 2.950419 0.002914 0.177525 0.002893 -0.000503 0.218132
    25 1.294388 0.000000 -0.000001 0.000000 0.000000 0.270502
    26 1.183920 0.000001 0.000000 0.000000 0.000000 0.392676
    27 2.738953 3.890889 0.113747 3.147206 -1.506807 -0.099804
    28 0.000000 -1.023687 -1.922726 -0.078199 0.007076 -0.000609
    29 0.000000 -0.558375 -1.804806 -0.056871 0.000000 0.000000
    30 0.000000 -0.325718 -1.929488 0.000000 0.049768 0.000000
    31 0.000000 0.046531 -1.430430 -0.064143 -0.070925 0.005067
    32 0.000000 0.000000 -1.347565 -0.102797 0.053122 -0.003566
    33 0.000000 -0.046531 -2.135521 -0.097445 0.039285 0.004770
    34 0.000000 -0.279187 -2.151380 -0.130077 -0.010702 0.012039
    35 -3.935008 -0.311884 3.416453 -0.000987 -3.100811 -0.032295
    36 19.302956 0.000000 0.000000 0.000000 0.000000 -0.158548
    37 15.657714 0.000000 0.000000 0.001579 -0.040858 0.144436
    38 3.741828 7.474068 0.000000 0.000000 0.000000 1.570796
    39 -3.935008 -0.311865 -3.416451 0.002091 3.115416 -0.035496
    40 19.302958 0.000000 0.000000 0.000000 0.000000 -0.165536
    41 15.657715 0.000000 0.000000 -0.002585 0.026181 0.148185
    42 3.741828 7.351521 0.000000 0.000000 0.000000 1.570796
    43 2.562340 0.000000 0.000000 0.213781 -0.166468 0.402282
    44 8.541129 0.000000 0.000000 0.000000 0.000000 0.000000
    45 -7.351523 1.350579 0.144448 0.000001 -3.141591 -1.570794
    46 4.991368 -0.677071 0.532282 1.237053 -2.969057 -0.819481
  time 19
    0 -0.112366 0.265007 38.496143 0.000000 0.000000 -1.570888
    1 0.270458 0.000000 0.000000 -1.570795 -1.570451 0.000000
    2 3.928664 0.383633 0.000004 -0.000004 -0.000001 0.018250
    3 3.442969 -0.003536 0.000000 -0.056771 0.004590 0.046471
    4 4.441442 -0.003536 0.000000 -0.091045 0.012296 0.092573
    5 4.441389 -0.003537 0.000000 -0.103116 0.016838 0.112713
    6 4.441391 -0.002040 0.000000 0.000000 0.000000 0.000000
    7 0.000001 0.002036 1.614274 -0.000014 -1.370796 3.140810
    8 5.073841 0.000000 0.000002 0.123353 1.153460 0.175789
    9 12.011117 0.000000 -0.000001 0.000000 0.000000 -1.218215
    10 10.249307 0.000000 0.000000 -1.494664 -0.009744 0.000955
    11 1.183836 0.259443 -1.427523 -0.134623 0.105518 0.356381
    12 0.625233 0.000000 0.000000 0.000000 0.000000 -0.004998
    13 1.041848 0.000000 0.000001 0.000000 0.000000 -0.002499
    14 3.037806 -0.002122 -0.118180 0.009016 0.024598 0.382249
    15 1.172004 -0.000001 0.000000 0.000000 0.000000 0.520799
    16 1.160930 0.000000 0.000000 0.000000 0.000000 0.997928
    17 0.000001 0.002045 -1.614274 -0.000014 1.370796 3.140783
    18 4.700062 0.000000 -0.000002 0.011156 -1.104301 -0.186158
    19 12.049927 0.000000 0.000001 0.000000 0.000000 -0.630020
    20 10.340311 0.000001 0.000000 1.303280 0.011148 -0.048762
    21 1.186625 0.034757 1.438863 -0.083796 -0.348820 0.395463
    22 0.607803 0.000000 0.000000 0.000000 0.000000 0.069788
    23 1.063061 0.000001 0.000000 0.000000 0.000000 0.095969
    24 2.950419 0.002914 0.177525 0.002893 -0.000503 0.218132
    25 1.294388 0.000000 -0.000001 0.000000 0.000000 0.270502
    26 1.183920 0.000001 0.000000 0.000000 0.000000 0.392676
    27 2.738953 3.890889 0.113747 3.149987 -1.513865 -0.097119
    28 0.000000 -1.023687 -1.922726 -0.069594 0.006301 -0.000519
    29 0.000000 -0.558375 -1.804806 -0.050619 0.000000 0.000000
    30 0.000000 -0.325718 -1.929488 0.000000 0.044283 0.000000
    31 0.000000 0.046531 -1.430430 -0.057054 -0.063135 0.004283
    32 0.000000 0.000000 -1.347565 -0.090038 0.075327 -0.005267
    33 0.000000 -0.046531 -2.135521 -0.085512 0.063315 0.002049
    34 0.000000 -0.279187 -2.151380 -0.113971 0.034927 0.005710
    35 -3.935008 -0.311884 3.416453 -0.000987 -3.100811 -0.032295
    36 19.302956 0.000000 0.000000 0.000000 0.000000 -0.158548
    37 15.657714 0.000000 0.000000 0.001579 -0.040858 0.144436
    38 3.741828 7.474068 0.000000 0.000000 0.000000 1.570796
    39 -3.935008 -0.311865 -3.416451 0.002091 3.115416 -0.035496
    40 19.302958 0.000000 0.000000 0.000000 0.000000 -0.165536
    41 15.657715 0.000000 0.000000 -0.002585 0.026181 0.148185
    42 3.741828 7.351521 0.000000 0.000000 0.000000 1.570796
    43 2.562340 0.000000 0.000000 0.196778 -0.139131 0.374855
    44 8.541129 0.000000 0.000000 0.000000 0.000000 0.000000
    45 -7.351523 1.350579 0.144448 0.000001 -3.141591 -1.570794
    46 4.991368 -0.677071 0.532282 1.237053 -2.969057 -0.819481
  time 20
    0 -0.112366 0.265007 38.496143 0.000000 0.000000 -1.570888
    1 0.270458 0.000000 0.000000 -1.570795 -1.570451 0.000000
    2 3.928664 0.383633 0.000004 -0.000004 -0.000001 0.018250
    3 3.442969 -0.003536 0.000000 -0.048945 0.003823 0.041279
    4 4.441442 -0.003536 0.000000 -0.078537 0.010187 0.082266
    5 4.441389 -0.003537 0.000000 -0.088999 0.013830 0.097263
    6 4.441391 -0.002040 0.000000 0.000000 0.000000 0.000000
    7 0.000001 0.002036 1.614274 -0.000014 -1.370796 3.140810
    8 5.073841 0.000000 0.000002 0.372028 1.120309 0.443511
    9 12.011117 0.000000 -0.000001 0.000000 0.000000 -1.221269
    10 10.249307 0.000000 0.000000 -1.570000 0.000014 0.000000
    11 1.183836 0.259443 -1.427523 -0.123872 0.113281 0.349035
    12 0.625233 0.000000 0.000000 0.000000 0.000000 0.000000
    13 1.041848 0.000000 0.000001 0.000000 0.000000 0.000000
    14 3.037806 -0.002122 -0.118180 0.007983 0.024946 0.340401
    15 1.172004 -0.000001 0.000000 0.000000 0.000000 0.471228
    16 1.160930 0.000000 0.000000 0.000000 0.000000 0.951195
    17 0.000001 0.002045 -1.614274 -0.000014 1.370796 3.140783
    18 4.700062 0.000000 -0.000002 0.023404 -1.112617 -0.174803
    19 12.049927 0.000000 0.000001 0.000000 0.000000 -0.570639
    20 10.340311 0.000001 0.000000 1.303280 -0.013321 -0.042066
    21 1.186625 0.034757 1.438863 -0.083384 -0.334888 0.394231
    22 0.607803 0.000000 0.000000 0.000000 0.000000 0.069788
    23 1.063061 0.000001 0.000000 0.000000 0.000000 0.095969
    24 2.950419 0.002914 0.177525 0.002893 -0.000503 0.218132
    25 1.294388 0.000000 -0.000001 0.000000 0.000000 0.270502
    26 1.183920 0.000001 0.000000 0.000000 0.000000 0.392676
    27 2.738953 3.890889 0.113747 3.153054 -1.521717 -0.094051
    28 0.000000 -1.023687 -1.922726 -0.059974 0.005430 -0.000406
    29 0.000000 -0.558375 -1.804806 -0.043625 0.000000 0.000000
    30 0.000000 -0.325718 -1.929488 0.000000 0.038166 0.000000
    31 0.000000 0.046531 -1.430430 -0.049162 -0.054434 0.003471
    32 0.000000 0.000000 -1.347565 -0.077813 0.086681 -0.005815
    33 0.000000 -0.046531 -2.135521 -0.075161 0.075575 0.000527
    34 0.000000 -0.279187 -2.151380 -0.099798 0.062041 0.002009
    35 -3.935008 -0.311884 3.416453 -0.000987 -3.100811 -0.032295
    36 19.302956 0.000000 0.000000 0.000000 0.000000 -0.158548
    37 15.657714 0.000000 0.000000 0.001579 -0.040858 0.144436
    38 3.741828 7.474068 0.000000 0.000000 0.000000 1.570796
    39 -3.935008 -0.311865 -3.416451 0.002091 3.115416 -0.035496
    40 19.302958 0.000000 0.000000 0.000000 0.000000 -0.165536
    41 15.657715 0.000000 0.000000 -0.002585 0.026181 0.148185
    42 3.741828 7.351521 0.000000 0.000000 0.000000 1.570796
    43 2.562340 0.000000 0.000000 0.175514 -0.110904 0.343431
    44 8.541129 0.000000 0.000000 0.000000 0.000000 0.000000
    45 -7.351523 1.350579 0.144448 0.000001 -3.141591 -1.570794
    46 4.991368 -0.677071 0.532282 1.237053 -2.969057 -0.819481
  time 21
    0 -0.112366 0.265007 38.496143 0.000000 0.000000 -1.570888
    1 0.270458 0.000000 0.000000 -1.570795 -1.570451 0.000000
    2 3.928664 0.383633 0.000004 -0.000004 -0.000001 0.018250
    3 3.442969 -0.003536 0.000000 -0.040568 0.003056 0.035712
    4 4.441442 -0.003536 0.000000 -0.065140 0.008078 0.071227
    5 4.441389 -0.003537 0.000000 -0.073855 0.010846 0.080702
    6 4.441391 -0.002040 0.000000 0.000000 0.000000 0.000000
    7 0.000001 0.002036 1.614274 -0.000014 -1.370796 3.140810
    8 5.073841 0.000000 0.000002 0.437179 1.099334 0.508061
    9 12.011117 0.000000 -0.000001 0.000000 0.000000 -1.135906
    10 10.249307 0.000000 0.000000 -1.580567 0.018009 -0.002501
    11 1.183836 0.259443 -1.427523 -0.103252 0.128614 0.334432
    12 0.625233 0.000000 0.000000 0.000000 0.000000 0.009486
    13 1.041848 0.000000 0.000001 0.000000 0.000000 0.004735
    14 3.037806 -0.002122 -0.118180 0.006937 0.025257 0.298719
    15 1.172004 -0.000001 0.000000 0.000000 0.000000 0.425546
    16 1.160930 0.000000 0.000000 0.000000 0.000000 0.880481
    17 0.000001 0.002045 -1.614274 -0.000014 1.370796 3.140783
    18 4.700062 0.000000 -0.000002 0.036819 -1.120630 -0.162649
    19 12.049927 0.000000 0.000001 0.000000 0.000000 -0.507158
    20 10.340311 0.000001 0.000000 1.303082 -0.039441 -0.034920
    21 1.186625 0.034757 1.438863 -0.082973 -0.319996 0.392952
    22 0.607803 0.000000 0.000000 0.000000 0.000000 0.069788
    23 1.063061 0.000001 0.000000 0.000000 0.000000 0.095969
    24 2.950419 0.002914 0.177525 0.002893 -0.000503 0.218132
    25 1.294388 0.000000 -0.000001 0.000000 0.000000 0.270502
    26 1.183920 0.000001 0.000000 0.000000 0.000000 0.392676
    27 2.738953 3.890889 0.113747 3.156314 -1.530116 -0.090792
    28 0.000000 -1.023687 -1.922726 -0.049700 0.004496 -0.000316
    29 0.000000 -0.558375 -1.804806 -0.036154 0.000000 0.000000
    30 0.000000 -0.325718 -1.929488 0.000000 0.031633 0.000000
    31 0.000000 0.046531 -1.430430 -0.040707 -0.045122 0.002688
    32 0.000000 0.000000 -1.347565 -0.065727 0.085311 -0.005349
    33 0.000000 -0.046531 -2.135521 -0.065299 0.074724 0.000072
    34 0.000000 -0.279187 -2.151380 -0.086212 0.068886 0.000603
    35 -3.935008 -0.311884 3.416453 -0.000987 -3.100811 -0.032295
    36 19.302956 0.000000 0.000000 0.000000 0.000000 -0.158548
    37 15.657714 0.000000 0.000000 0.001579 -0.040858 0.144436
    38 3.741828 7.474068 0.000000 0.000000 0.000000 1.570796
    39 -3.935008 -0.311865 -3.416451 0.002091 3.115416 -0.035496
    40 19.302958 0.000000 0.000000 0.000000 0.000000 -0.165536
    41 15.657715 0.000000 0.000000 -0.002585 0.026181 0.148185
    42 3.741828 7.351521 0.000000 0.000000 0.000000 1.570796
    43 2.562340 0.000000 0.000000 0.150304 -0.083567 0.308897
    44 8.541129 0.000000 0.000000 0.000000 0.000000 0.000000
    45 -7.351523 1.350579 0.144448 0.000001 -3.141591 -1.570794
    46 4.991368 -0.677071 0.532282 1.237053 -2.969057 -0.819481
  time 22
    0 -0.112366 0.265007 38.496143 0.000000 0.000000 -1.570888
    1 0.270458 0.000000 0.000000 -1.570795 -1.570451 0.000000
    2 3.928664 0.383633 0.000004 -0.000004 -0.000001 0.018250
    3 3.442969 -0.003536 0.000000 -0.031915 0.002313 0.029969
    4 4.441442 -0.003536 0.000000 -0.051275 0.006064 0.059785
    5 4.441389 -0.003537 0.000000 -0.058165 0.008030 0.063548
    6 4.441391 -0.002040 0.000000 0.000000 0.000000 0.000000
    7 0.000001 0.002036 1.614274 -0.000014 -1.370796 3.140810
    8 5.073841 0.000000 0.000002 0.407246 1.099847 0.468021
    9 12.011117 0.000000 -0.000001 0.000000 0.000000 -0.989464
    10 10.249307 0.000000 0.000000 -1.551310 0.042932 -0.005412
    11 1.183836 0.259443 -1.427523 -0.075077 0.150234 0.314736
    12 0.625233 0.000000 0.000000 0.000000 0.000000 0.022622
    13 1.041848 0.000000 0.000001 0.000000 0.000000 0.011311
    14 3.037806 -0.002122 -0.118180 0.005866 0.025533 0.256671
    15 1.172004 -0.000001 0.000000 0.000000 0.000000 0.381365
    16 1.160930 0.000000 0.000000 0.000000 0.000000 0.790548
    17 0.000001 0.002045 -1.614274 -0.000014 1.370796 3.140783
    18 4.700062 0.000000 -0.000002 0.050890 -1.127963 -0.150095
    19 12.049927 0.000000 0.000001 0.000000 0.000000 -0.441627
    20 10.340311 0.000001 0.000000 1.302687 -0.066428 -0.027550
    21 1.186625 0.034757 1.438863 -0.082561 -0.304590 0.391578
    22 0.607803 0.000000 0.000000 0.000000 0.000000 0.069788
    23 1.063061 0.000001 0.000000 0.000000 0.000000 0.095969
    24 2.950419 0.002914 0.177525 0.002893 -0.000503 0.218132
    25 1.294388 0.000000 -0.000001 0.000000 0.000000 0.270502
    26 1.183920 0.000001 0.000000 0.000000 0.000000 0.392676
    27 2.738953 3.890889 0.113747 3.159669 -1.538815 -0.087436
    28 0.000000 -1.023687 -1.922726 -0.039099 0.003546 -0.000226
    29 0.000000 -0.558375 -1.804806 -0.028436 0.000000 0.000000
    30 0.000000 -0.325718 -1.929488 0.000000 0.024884 0.000000
    31 0.000000 0.046531 -1.430430 -0.032011 -0.035498 0.001960
    32 0.000000 0.000000 -1.347565 -0.052968 0.074544 -0.004224
    33 0.000000 -0.046531 -2.135521 -0.053510 0.065424 0.000120
    34 0.000000 -0.279187 -2.151380 -0.070424 0.063359 0.000301
    35 -3.935008 -0.311884 3.416453 -0.000987 -3.100811 -0.032295
    36 19.302956 0.000000 0.000000 0.000000 0.000000 -0.158548
    37 15.657714 0.000000 0.000000 0.001579 -0.040858 0.144436
    38 3.741828 7.474068 0.000000 0.000000 0.000000 1.570796
    39 -3.935008 -0.311865 -3.416451 0.002091 3.115416 -0.035496
    40 19.302958 0.000000 0.000000 0.000000 0.000000 -0.165536
    41 15.657715 0.000000 0.000000 -0.002585 0.026181 0.148185
    42 3.741828 7.351521 0.000000 0.000000 0.000000 1.570796
    43 2.562340 0.000000 0.000000 0.121830 -0.058678 0.272254
    44 8.541129 0.000000 0.000000 0.000000 0.000000 0.000000
    45 -7.351523 1.350579 0.144448 0.000001 -3.141591 -1.570794
    46 4.991368 -0.677071 0.532282 1.237053 -2.969057 -0.819481
  time 23
    0 -0.112366 0.265007 38.496143 0.000000 0.000000 -1.570888
    1 0.270458 0.000000 0.000000 -1.570795 -1.570451 0.000000
    2 3.928664 0.383633 0.000004 -0.000004 -0.000001 0.018250
    3 3.442969 -0.003536 0.000000 -0.023262 0.001618 0.024201
    4 4.441442 -0.003536 0.000000 -0.037394 0.004207 0.048329
    5 4.441389 -0.003537 0.000000 -0.042433 0.005489 0.046350
    6 4.441391 -0.002040 0.000000 0.000000 0.000000 0.000000
    7 0.000001 0.002036 1.614274 -0.000014 -1.370796 3.140810
    8 5.073841 0.000000 0.000002 0.312377 1.114589 0.357016
    9 12.011117 0.000000 -0.000001 0.000000 0.000000 -0.802276
    10 10.249307 0.000000 0.000000 -1.495311 0.072587 -0.007094
    11 1.183836 0.259443 -1.427523 -0.042108 0.176538 0.292110
    12 0.625233 0.000000 0.000000 0.000000 0.000000 0.038174
    13 1.041848 0.000000 0.000001 0.000000 0.000000 0.019087
    14 3.037806 -0.002122 -0.118180 0.004782 0.025761 0.214389
    15 1.172004 -0.000001 0.000000 0.000000 0.000000 0.338157
    16 1.160930 0.000000 0.000000 0.000000 0.000000 0.687769
    17 0.000001 0.002045 -1.614274 -0.000014 1.370796 3.140783
    18 4.700062 0.000000 -0.000002 0.065180 -1.134313 -0.137701
    19 12.049927 0.000000 0.000001 0.000000 0.000000 -0.376019
    20 10.340311 0.000001 0.000000 1.302095 -0.093373 -0.020134
    21 1.186625 0.034757 1.438863 -0.082186 -0.289217 0.390252
    22 0.607803 0.000000 0.000000 0.000000 0.000000 0.069788
    23 1.063061 0.000001 0.000000 0.000000 0.000000 0.095969
    24 2.950419 0.002914 0.177525 0.002893 -0.000503 0.218132
    25 1.294388 0.000000 -0.000001 0.000000 0.000000 0.270502
    26 1.183920 0.000001 0.000000 0.000000 0.000000 0.392676
    27 2.738953 3.890889 0.113747 3.163121 -1.547488 -0.084080
    28 0.000000 -1.023687 -1.922726 -0.028466 0.002580 -0.000158
    29 0.000000 -0.558375 -1.804806 -0.020717 0.000000 0.000000
    30 0.000000 -0.325718 -1.929488 0.000000 0.018120 0.000000
    31 0.000000 0.046531 -1.430430 -0.023316 -0.025875 0.001316
    32 0.000000 0.000000 -1.347565 -0.039790 0.057499 -0.002908
    33 0.000000 -0.046531 -2.135521 -0.040456 0.050479 0.000348
    34 0.000000 -0.279187 -2.151380 -0.053167 0.049585 0.000486
    35 -3.935008 -0.311884 3.416453 -0.000987 -3.100811 -0.032295
    36 19.302956 0.000000 0.000000 0.000000 0.000000 -0.158548
    37 15.657714 0.000000 0.000000 0.001579 -0.040858 0.144436
    38 3.741828 7.474068 0.000000 0.000000 0.000000 1.570796
    39 -3.935008 -0.311865 -3.416451 0.002091 3.115416 -0.035496
    40 19.302958 0.000000 0.000000 0.000000 0.000000 -0.165536
    41 15.657715 0.000000 0.000000 -0.002585 0.026181 0.148185
    42 3.741828 7.351521 0.000000 0.000000 0.000000 1.570796
    43 2.562340 0.000000 0.000000 0.091135 -0.037432 0.234649
    44 8.541129 0.000000 0.000000 0.000000 0.000000 0.000000
    45 -7.351523 1.350579 0.144448 0.000001 -3.141591 -1.570794
    46 4.991368 -0.677071 0.532282 1.237053 -2.969057 -0.819481
  time 24
    0 -0.112366 0.265007 38.496143 0.000000 0.000000 -1.570888
    1 0.270458 0.000000 0.000000 -1.570795 -1.570451 0.000000
    2 3.928664 0.383633 0.000004 -0.000004 -0.000001 0.018250
    3 3.442969 -0.003536 0.000000 -0.014873 0.000995 0.018621
    4 4.441442 -0.003536 0.000000 -0.023917 0.002553 0.037218
    5 4.441389 -0.003537 0.000000 -0.027163 0.003284 0.029656
    6 4.441391 -0.002040 0.000000 0.000000 0.000000 0.000000
    7 0.000001 0.002036 1.614274 -0.000014 -1.370796 3.140810
    8 5.073841 0.000000 0.000002 0.174503 1.132044 0.200772
    9 12.011117 0.000000 -0.000001 0.000000 0.000000 -0.594754
    10 10.249307 0.000000 0.000000 -1.425870 0.104565 -0.006594
    11 1.183836 0.259443 -1.427523 -0.007060 0.205729 0.268628
    12 0.625233 0.000000 0.000000 0.000000 0.000000 0.054943
    13 1.041848 0.000000 0.000001 0.000000 0.000000 0.027471
    14 3.037806 -0.002122 -0.118180 0.003686 0.025940 0.171974
    15 1.172004 -0.000001 0.000000 0.000000 0.000000 0.295390
    16 1.160930 0.000000 0.000000 0.000000 0.000000 0.578511
    17 0.000001 0.002045 -1.614274 -0.000014 1.370796 3.140783
    18 4.700062 0.000000 -0.000002 0.079178 -1.139529 -0.125466
    19 12.049927 0.000000 0.000001 0.000000 0.000000 -0.312538
    20 10.340311 0.000001 0.000000 1.301371 -0.119493 -0.012898
    21 1.186625 0.034757 1.438863 -0.081812 -0.274324 0.388973
    22 0.607803 0.000000 0.000000 0.000000 0.000000 0.069788
    23 1.063061 0.000001 0.000000 0.000000 0.000000 0.095969
    24 2.950419 0.002914 0.177525 0.002893 -0.000503 0.218132
    25 1.294388 0.000000 -0.000001 0.000000 0.000000 0.270502
    26 1.183920 0.000001 0.000000 0.000000 0.000000 0.392676
    27 2.738953 3.890889 0.113747 3.166380 -1.555886 -0.080821
    28 0.000000 -1.023687 -1.922726 -0.018192 0.001646 -0.000090
    29 0.000000 -0.558375 -1.804806 -0.013246 0.000000 0.000000
    30 0.000000 -0.325718 -1.929488 0.000000 0.011587 0.000000
    31 0.000000 0.046531 -1.430430 -0.014901 -0.016551 0.000770
    32 0.000000 0.000000 -1.347565 -0.026426 0.037293 -0.001618
    33 0.000000 -0.046531 -2.135521 -0.026740 0.032706 0.000491
    34 0.000000 -0.279187 -2.151380 -0.035175 0.031673 0.000703
    35 -3.935008 -0.311884 3.416453 -0.000987 -3.100811 -0.032295
    36 19.302956 0.000000 0.000000 0.000000 0.000000 -0.158548
    37 15.657714 0.000000 0.000000 0.001579 -0.040858 0.144436
    38 3.741828 7.474068 0.000000 0.000000 0.000000 1.570796
    39 -3.935008 -0.311865 -3.416451 0.002091 3.115416 -0.035496
    40 19.302958 0.000000 0.000000 0.000000 0.000000 -0.165536
    41 15.657715 0.000000 0.000000 -0.002585 0.026181 0.148185
    42 3.741828 7.351521 0.000000 0.000000 0.000000 1.570796
    43 2.562340 0.000000 0.000000 0.059532 -0.020551 0.197414
    44 8.541129 0.000000 0.000000 0.000000 0.000000 0.000000
    45 -7.351523 1.350579 0.144448 0.000001 -3.141591 -1.570794
    46 4.991368 -0.677071 0.532282 1.237053 -2.969057 -0.819481
  time 25
    0 -0.112366 0.265007 38.496143 0.000000 0.000000 -1.570888
    1 0.270458 0.000000 0.000000 -1.570795 -1.570451 0.000000
    2 3.928664 0.383633 0.000004 -0.000004 -0.000001 0.018250
    3 3.442969 -0.003536 0.000000 -0.007023 0.000443 0.013404
    4 4.441442 -0.003536 0.000000 -0.011312 0.001139 0.026796
    5 4.441389 -0.003537 0.000000 -0.012837 0.001450 0.014028
    6 4.441391 -0.002040 0.000000 0.000000 0.000000 0.000000
    7 0.000001 0.002036 1.614274 -0.000014 -1.370796 3.140810
    8 5.073841 0.000000 0.000002 0.022626 1.143265 0.032712
    9 12.011117 0.000000 -0.000001 0.000000 0.000000 -0.387157
    10 10.249307 0.000000 0.000000 -1.356141 0.136416 -0.003865
    11 1.183836 0.259443 -1.427523 0.027468 0.235690 0.246047
    12 0.625233 0.000000 0.000000 0.000000 0.000000 0.071712
    13 1.041848 0.000000 0.000001 0.000000 0.000000 0.035856
    14 3.037806 -0.002122 -0.118180 0.002590 0.026072 0.129559
    15 1.172004 -0.000001 0.000000 0.000000 0.000000 0.252668
    16 1.160930 0.000000 0.000000 0.000000 0.000000 0.469308
    17 0.000001 0.002045 -1.614274 -0.000014 1.370796 3.140783
    18 4.700062 0.000000 -0.000002 0.092302 -1.143535 -0.113952
    19 12.049927 0.000000 0.000001 0.000000 0.000000 -0.253157
    20 10.340311 0.000001 0.000000 1.300449 -0.143921 -0.006112
    21 1.186625 0.034757 1.438863 -0.081513 -0.260392 0.387789
    22 0.607803 0.000000 0.000000 0.000000 0.000000 0.069788
    23 1.063061 0.000001 0.000000 0.000000 0.000000 0.095969
    24 2.950419 0.002914 0.177525 0.002893 -0.000503 0.218132
    25 1.294388 0.000000 -0.000001 0.000000 0.000000 0.270502
    26 1.183920 0.000001 0.000000 0.000000 0.000000 0.392676
    27 2.738953 3.890889 0.113747 3.169544 -1.563765 -0.077849
    28 0.000000 -1.023687 -1.922726 -0.008605 0.000776 -0.000023
    29 0.000000 -0.558375 -1.804806 -0.006252 0.000000 0.000000
    30 0.000000 -0.325718 -1.929488 0.000000 0.005470 0.000000
    31 0.000000 0.046531 -1.430430 -0.007029 -0.007814 0.000322
    32 0.000000 0.000000 -1.347565 -0.013085 0.017087 -0.000603
    33 0.000000 -0.046531 -2.135521 -0.013054 0.014933 0.000395
    34 0.000000 -0.279187 -2.151380 -0.017233 0.013760 0.000586
    35 -3.935008 -0.311884 3.416453 -0.000987 -3.100811 -0.032295
    36 19.302956 0.000000 0.000000 0.000000 0.000000 -0.158548
    37 15.657714 0.000000 0.000000 0.001579 -0.040858 0.144436
    38 3.741828 7.474068 0.000000 0.000000 0.000000 1.570796
    39 -3.935008 -0.311865 -3.416451 0.002091 3.115416 -0.035496
    40 19.302958 0.000000 0.000000 0.000000 0.000000 -0.165536
    41 15.657715 0.000000 0.000000 -0.002585 0.026181 0.148185
    42 3.741828 7.351521 0.000000 0.000000 0.000000 1.570796
    43 2.562340 0.000000 0.000000 0.028610 -0.008176 0.162029
    44 8.541129 0.000000 0.000000 0.000000 0.000000 0.000000
    45 -7.351523 1.350579 0.144448 0.000001 -3.141591 -1.570794
    46 4.991368 -0.677071 0.532282 1.237053 -2.969057 -0.819481
  time 26
    0 -0.112366 0.265007 38.496143 0.000000 0.000000 -1.570888
    1 0.270458 0.000000 0.000000 -1.570795 -1.570451 0.000000
    2 3.928664 0.383633 0.000004 -0.000004 -0.000001 0.018250
    3 3.442969 -0.003536 0.000000 0.000000 0.000000 0.008727
    4 4.441442 -0.003536 0.000000 0.000000 0.000000 0.017453
    5 4.441389 -0.003537 0.000000 0.000000 0.000000 0.000000
    6 4.441391 -0.002040 0.000000 0.000000 0.000000 0.000000
    7 0.000001 0.002036 1.614274 -0.000014 -1.370796 3.140810
    8 5.073841 0.000000 0.000002 -0.104033 1.146492 -0.103546
    9 12.011117 0.000000 -0.000001 0.000000 0.000000 -0.199969
    10 10.249307 0.000000 0.000000 -1.299496 0.165774 0.000000
    11 1.183836 0.259443 -1.427523 0.059119 0.264175 0.225901
    12 0.625233 0.000000 0.000000 0.000000 0.000000 0.087264
    13 1.041848 0.000000 0.000001 0.000000 0.000000 0.043632
    14 3.037806 -0.002122 -0.118180 0.001482 0.026156 0.087244
    15 1.172004 -0.000001 0.000000 0.000000 0.000000 0.209415
    16 1.160930 0.000000 0.000000 0.000000 0.000000 0.366474
    17 0.000001 0.002045 -1.614274 -0.000014 1.370796 3.140783
    18 4.700062 0.000000 -0.000002 0.104040 -1.146484 -0.103557
    19 12.049927 0.000000 0.000001 0.000000 0.000000 -0.199927
    20 10.340311 0.000001 0.000000 1.299528 -0.165791 0.000000
    21 1.186625 0.034757 1.438863 -0.081251 -0.247933 0.386746
    22 0.607803 0.000000 0.000000 0.000000 0.000000 0.069788
    23 1.063061 0.000001 0.000000 0.000000 0.000000 0.095969
    24 2.950419 0.002914 0.177525 0.002893 -0.000503 0.218132
    25 1.294388 0.000000 -0.000001 0.000000 0.000000 0.270502
    26 1.183920 0.000001 0.000000 0.000000 0.000000 0.392676
    27 2.738953 3.890889 0.113747 3.097163 -1.570796 0.000000
    28 0.000000 -1.023687 -1.922726 0.000000 0.000000 0.000000
    29 0.000000 -0.558375 -1.804806 0.000000 0.000000 0.000000
    30 0.000000 -0.325718 -1.929488 0.000000 0.000000 0.000000
    31 0.000000 0.046531 -1.430430 0.000000 0.000000 0.000000
    32 0.000000 0.000000 -1.347565 0.000000 0.000000 0.000000
    33 0.000000 -0.046531 -2.135521 0.000000 0.000000 0.000000
    34 0.000000 -0.279187 -2.151380 0.000000 0.000000 0.000000
    35 -3.935008 -0.311884 3.416453 -0.000987 -3.100811 -0.032295
    36 19.302956 0.000000 0.000000 0.000000 0.000000 -0.158548
    37 15.657714 0.000000 0.000000 0.001579 -0.040858 0.144436
    38 3.741828 7.474068 0.000000 0.000000 0.000000 1.570796
    39 -3.935008 -0.311865 -3.416451 0.002091 3.115416 -0.035496
    40 19.302958 0.000000 0.000000 0.000000 0.000000 -0.165536
    41 15.657715 0.000000 0.000000 -0.002585 0.026181 0.148185
    42 3.741828 7.351521 0.000000 0.000000 0.000000 1.570796
    43 2.562340 0.000000 0.000000 0.000000 0.000000 0.130012
    44 8.541129 0.000000 0.000000 0.000000 0.000000 0.000000
    45 -7.351523 1.350579 0.144448 0.000001 -3.141591 -1.570794
    46 4.991368 -0.677071 0.532282 1.237053 -2.969057 -0.819481
end
