// Created by Crowbar 0.56
version 1
nodes
  0 "Bip01" -1
  1 "Bip01 Pelvis" 0
  2 "Bip01 L Thigh" 1
  3 "Bip01 L Calf" 2
  4 "Bip01 L Foot" 3
  5 "Bip01 L Toe0" 4
  6 "Bip01 R Thigh" 1
  7 "Bip01 R Calf" 6
  8 "Bip01 R Foot" 7
  9 "Bip01 R Toe0" 8
  10 "Bip01 Spine" 1
  11 "Bip01 Spine1" 10
  12 "Bip01 Spine2" 11
  13 "Bip01 Spine3" 12
  14 "Bip01 Neck" 13
  15 "Bip01 L Clavicle" 14
  16 "Bip01 L UpperArm" 15
  17 "Bip01 L Forearm" 16
  18 "Bip01 L Hand" 17
  19 "Bip01 L Finger0" 18
  20 "Bip01 L Finger01" 19
  21 "Bip01 L Finger02" 20
  22 "Bip01 L Finger1" 18
  23 "Bip01 L Finger11" 22
  24 "Bip01 L Finger12" 23
  25 "Bip01 L Finger2" 18
  26 "Bip01 L Finger21" 25
  27 "Bip01 L Finger22" 26
  28 "Bip01 L Finger3" 18
  29 "Bip01 L Finger31" 28
  30 "Bip01 L Finger32" 29
  31 "Bip01 L Finger4" 18
  32 "Bip01 L Finger41" 31
  33 "Bip01 L Finger42" 32
  34 "Bip01 R Clavicle" 14
  35 "Bip01 R UpperArm" 34
  36 "Bip01 R Forearm" 35
  37 "Bip01 R Hand" 36
  38 "Bip01 R Finger0" 37
  39 "Bip01 R Finger01" 38
  40 "Bip01 R Finger02" 39
  41 "Bip01 R Finger1" 37
  42 "Bip01 R Finger11" 41
  43 "Bip01 R Finger12" 42
  44 "Bip01 R Finger2" 37
  45 "Bip01 R Finger21" 44
  46 "Bip01 R Finger22" 45
  47 "Bip01 R Finger3" 37
  48 "Bip01 R Finger31" 47
  49 "Bip01 R Finger32" 48
  50 "Bip01 R Finger4" 37
  51 "Bip01 R Finger41" 50
  52 "Bip01 R Finger42" 51
  53 "Bip01 Head" 14
  54 "Bone05" 53
  55 "Dummy05" 53
  56 "L_eyebrow" 55
  57 "C_eyebrow" 55
  58 "R_eyebrow" 55
  59 "R_Eye" 55
  60 "Eyelids" 55
  61 "L_Eye" 55
  62 "m4" 37
  63 "SHOTGUN" 38
end
skeleton
  time 0
    0 0.071540 -0.277240 31.139324 0.000000 0.000000 -1.570701
    1 -0.526041 0.000001 9.745319 0.000000 -1.570451 -1.570795
    2 -0.000011 0.000010 5.615750 -3.141592 0.000002 3.041593
    3 15.693466 0.000000 0.000000 0.000000 0.000000 -0.200000
    4 22.146629 -0.000001 0.000000 0.000000 0.000000 0.100000
    5 3.310129 5.734395 0.000000 0.000000 0.000000 1.570796
    6 0.000008 -0.000006 -5.615750 -3.141592 0.000002 3.041593
    7 15.693470 0.000000 0.000000 0.000000 0.000000 -0.200000
    8 22.146629 0.000000 0.000000 0.000000 0.000000 0.100000
    9 3.310129 5.734395 0.000000 0.000000 0.000000 1.570796
    10 1.384159 -0.004728 0.000002 -0.000004 -0.000001 0.000796
    11 5.939816 -0.004730 0.000000 0.000000 0.000000 0.000000
    12 5.939808 -0.003975 0.000000 0.000000 0.000000 0.000000
    13 4.991440 -0.003975 0.000000 0.000000 0.000000 0.000000
    14 4.991432 -0.001575 0.000000 0.000000 0.000000 0.000000
    15 0.000008 0.001564 3.638375 -0.000010 -1.284244 3.140806
    16 8.842831 0.000000 -0.000004 0.000000 0.765364 0.000000
    17 9.341934 0.000000 0.000000 0.000000 0.000000 -0.200000
    18 11.168404 -0.000001 0.000004 -1.512848 0.101351 -0.076469
    19 1.364904 0.231174 -1.984411 1.631783 0.615387 0.174303
    20 1.748535 -0.000002 0.000000 0.000000 0.000000 0.287979
    21 1.272493 0.000000 0.000000 0.000000 0.000000 -0.043633
    22 4.525587 -0.000301 -1.850224 0.008048 0.095677 0.105008
    23 1.719875 -0.000004 0.000001 0.000000 0.000000 0.034907
    24 1.383650 0.000004 0.000000 0.000000 0.000000 0.000000
    25 4.525587 -0.000103 -0.616741 0.003468 0.052284 0.104758
    26 1.807671 0.000000 -0.000002 0.000000 0.000000 0.034907
    27 1.614256 0.000000 0.000001 0.000000 0.000000 0.000000
    28 4.525587 0.000103 0.616741 0.001641 0.034926 0.104713
    29 1.719870 0.000000 0.000000 0.000000 0.000000 0.034907
    30 1.383650 -0.000004 0.000000 0.000000 0.000000 0.000000
    31 4.525587 0.000301 1.850224 -0.005659 -0.034504 0.104853
    32 1.433229 0.000000 0.000001 0.000000 0.000000 0.034907
    33 1.153040 0.000000 0.000000 0.000000 0.000000 0.000000
    34 0.000000 0.001585 -3.638375 -0.000010 1.284244 3.140787
    35 8.842832 0.000000 0.000000 0.000000 -0.765364 0.000000
    36 9.341938 0.000000 -0.000004 0.000000 0.000000 -0.200000
    37 11.168402 -0.000001 -0.000004 1.512848 -0.101351 -0.076469
    38 1.364901 0.231174 1.984410 -1.631782 -0.615387 0.174303
    39 1.748535 -0.000002 0.000000 0.000000 0.000000 0.287979
    40 1.272493 0.000000 0.000000 0.000000 0.000000 -0.043633
    41 4.525583 -0.000301 1.850223 -0.008048 -0.095677 0.105008
    42 1.719875 0.000000 0.000000 0.000000 0.000000 0.034907
    43 1.383648 0.000000 0.000000 0.000000 0.000000 0.000000
    44 4.525581 -0.000103 0.616742 -0.003468 -0.052284 0.104758
    45 1.807673 0.000000 0.000000 0.000000 0.000000 0.034907
    46 1.614258 -0.000004 0.000000 0.000000 0.000000 0.000000
    47 4.525578 0.000099 -0.616741 -0.001641 -0.034926 0.104713
    48 1.719872 -0.000004 0.000000 0.000000 0.000000 0.034907
    49 1.383646 0.000004 0.000000 0.000000 0.000000 0.000000
    50 4.525581 0.000301 -1.850223 0.005659 0.034504 0.104853
    51 1.433226 0.000004 0.000000 0.000000 0.000000 0.034907
    52 1.153040 0.000000 0.000000 0.000000 0.000000 0.000000
    53 1.977379 0.000000 0.000000 0.000000 0.000000 -0.000798
    54 3.723976 2.768054 -0.049087 -3.141592 -0.000002 1.570799
    55 11.781860 -0.001184 -0.000003 0.000000 0.000000 0.000000
    56 -3.887192 4.546144 1.934869 0.000000 -1.570796 -3.141591
    57 -4.205009 4.546216 -0.015855 0.000000 -1.570796 -3.141591
    58 -3.887192 4.546178 -1.987145 0.000000 -1.570796 -3.141591
    59 -4.881813 5.593821 -1.566820 1.047319 -1.487704 2.076220
    60 -4.886909 5.683144 -0.007570 0.000000 -1.570796 -3.132865
    61 -4.881798 5.609550 1.546659 1.047319 -1.487704 2.076220
    62 3.710045 1.760548 -0.059361 0.218459 -0.189944 1.973933
    63 12.138049 14.189942 -4.062706 1.079051 -1.215921 -1.794642
end
triangles
saw_world1
  37 -22.199076 -2.386973 39.964306 -0.708654 0.701121 -0.078989 0.015625 -0.992187 1 37 1.000000
  37 -20.489731 -2.151515 41.252563 0.708817 0.703819 -0.047096 0.988281 -0.992187 1 37 1.000000
  37 -21.205599 -2.349417 39.585239 0.039511 0.622531 -0.781597 0.015625 -0.007812 1 37 1.000000
saw_world1
  37 -25.968836 -14.316778 35.365898 0.958822 -0.266185 0.099026 0.195313 -0.359375 1 37 1.000000
  37 -26.435511 -14.843636 35.471901 -0.053756 -0.750367 0.658831 0.156250 -0.359375 1 37 1.000000
  37 -27.629028 -14.468816 31.874777 0.067120 -0.645021 -0.761212 0.156250 -0.789062 1 37 1.000000
saw_world1
  37 -27.163759 -13.959252 31.786062 0.703191 0.339553 -0.624681 0.195313 -0.789062 1 37 1.000000
  37 -25.968836 -14.316778 35.365898 0.958822 -0.266185 0.099026 0.195313 -0.359375 1 37 1.000000
  37 -27.629028 -14.468816 31.874777 0.067120 -0.645021 -0.761212 0.156250 -0.789062 1 37 1.000000
saw_world1
  37 -26.489607 -13.823586 35.510326 0.358537 0.682293 0.637125 0.238281 -0.359375 1 37 1.000000
  37 -25.968836 -14.316778 35.365898 0.958822 -0.266185 0.099026 0.195313 -0.359375 1 37 1.000000
  37 -27.163759 -13.959252 31.786062 0.703191 0.339553 -0.624681 0.195313 -0.789062 1 37 1.000000
saw_world1
  37 -27.163759 -13.959252 31.786062 0.703191 0.339553 -0.624681 0.195313 -0.789062 1 37 1.000000
  37 -27.682653 -13.475648 31.932615 -0.422513 0.742819 -0.519329 0.238281 -0.789062 1 37 1.000000
  37 -26.489607 -13.823586 35.510326 0.358537 0.682293 0.637125 0.238281 -0.359375 1 37 1.000000
saw_world1
  37 -27.049915 -4.990189 37.504154 -0.527033 -0.301667 0.794502 0.980469 -0.742187 1 37 1.000000
  37 -25.967590 -7.465131 34.422684 -0.506432 -0.812657 -0.288298 0.882813 -0.531250 1 37 1.000000
  37 -24.838446 -7.020404 37.024025 0.091821 -0.692969 0.715096 0.980469 -0.531250 1 37 1.000000
saw_world1
  37 -27.049915 -4.990189 37.504154 -0.527033 -0.301667 0.794502 0.980469 -0.742187 1 37 1.000000
  37 -28.158546 -5.447827 34.920490 -0.816141 -0.412127 -0.405049 0.882813 -0.734375 1 37 1.000000
  37 -25.967590 -7.465131 34.422684 -0.506432 -0.812657 -0.288298 0.882813 -0.531250 1 37 1.000000
saw_world1
  37 -27.049915 -4.990189 37.504154 -0.527033 -0.301667 0.794502 0.980469 -0.742187 1 37 1.000000
  37 -28.491606 -2.660429 34.616047 -0.948391 0.300275 -0.101931 0.882813 -0.984375 1 37 1.000000
  37 -28.158546 -5.447827 34.920490 -0.816141 -0.412127 -0.405049 0.882813 -0.734375 1 37 1.000000
saw_world1
  37 -27.049915 -4.990189 37.504154 -0.527033 -0.301667 0.794502 0.980469 -0.742187 1 37 1.000000
  37 -27.370768 -2.216144 37.175785 -0.313942 0.842054 0.438618 0.980469 -0.992187 1 37 1.000000
  37 -28.491606 -2.660429 34.616047 -0.948391 0.300275 -0.101931 0.882813 -0.984375 1 37 1.000000
saw_world1
  37 -27.137941 -12.652220 26.051039 0.007732 -0.993502 -0.113550 0.347656 -0.343750 1 37 1.000000
  37 -25.020729 -10.894050 34.349373 -0.758332 -0.501350 0.416630 0.414063 -0.789062 1 37 1.000000
  37 -28.453962 -12.265810 26.463572 -0.639214 -0.432263 -0.636046 0.414063 -0.343750 1 37 1.000000
saw_world1
  37 -27.137941 -12.652220 26.051039 0.007732 -0.993502 -0.113550 0.347656 -0.343750 1 37 1.000000
  37 -23.706694 -11.292763 33.930153 0.097049 -0.987044 0.127773 0.347656 -0.789062 1 37 1.000000
  37 -25.020729 -10.894050 34.349373 -0.758332 -0.501350 0.416630 0.414063 -0.789062 1 37 1.000000
saw_world1
  37 -27.137941 -12.652220 26.051039 0.007732 -0.993502 -0.113550 0.347656 -0.343750 1 37 1.000000
  37 -22.490736 -10.757000 33.390800 0.861424 -0.405915 -0.305255 0.281250 -0.789062 1 37 1.000000
  37 -23.706694 -11.292763 33.930153 0.097049 -0.987044 0.127773 0.347656 -0.789062 1 37 1.000000
saw_world1
  37 -27.137941 -12.652220 26.051039 0.007732 -0.993502 -0.113550 0.347656 -0.343750 1 37 1.000000
  37 -25.902624 -12.119388 25.481401 0.234937 -0.436171 -0.868654 0.281250 -0.343750 1 37 1.000000
  37 -22.490736 -10.757000 33.390800 0.861424 -0.405915 -0.305255 0.281250 -0.789062 1 37 1.000000
saw_world1
  37 -26.091906 -10.752356 25.370060 0.334678 0.261410 -0.905348 0.015625 -0.132812 1 37 1.000000
  37 -22.490736 -10.757000 33.390800 0.861424 -0.405915 -0.305255 0.277344 -0.031250 1 37 1.000000
  37 -25.902624 -12.119388 25.481401 0.234937 -0.436171 -0.868654 0.015625 -0.023437 1 37 1.000000
saw_world1
  37 -26.091906 -10.752356 25.370060 0.334678 0.261410 -0.905348 0.015625 -0.132812 1 37 1.000000
  37 -24.933685 -10.292824 27.965435 0.573291 0.523257 -0.630507 0.035156 -0.132812 1 37 1.000000
  37 -22.490736 -10.757000 33.390800 0.861424 -0.405915 -0.305255 0.277344 -0.031250 1 37 1.000000
saw_world1
  37 -22.490736 -10.757000 33.390800 0.861424 -0.405915 -0.305255 0.277344 -0.031250 1 37 1.000000
  37 -24.933685 -10.292824 27.965435 0.573291 0.523257 -0.630507 0.035156 -0.132812 1 37 1.000000
  37 -22.993608 -6.834398 32.947151 0.480473 0.546893 -0.685604 0.277344 -0.343750 1 37 1.000000
saw_world1
  37 -24.933685 -10.292824 27.965435 0.573291 0.523257 -0.630507 0.035156 -0.132812 1 37 1.000000
  37 -25.257029 -7.738479 27.683163 0.051501 0.304186 -0.951219 0.039063 -0.343750 1 37 1.000000
  37 -22.993608 -6.834398 32.947151 0.480473 0.546893 -0.685604 0.277344 -0.343750 1 37 1.000000
saw_world1
  37 -28.146040 -13.994801 32.023460 -0.933700 -0.322136 -0.156308 0.191406 -0.351562 1 37 1.000000
  37 -27.629028 -14.468816 31.874777 0.067120 -0.645021 -0.761212 0.164063 -0.351562 1 37 1.000000
  37 -26.435511 -14.843636 35.471901 -0.053756 -0.750367 0.658831 0.164063 -0.750000 1 37 1.000000
saw_world1
  37 -26.435511 -14.843636 35.471901 -0.053756 -0.750367 0.658831 0.164063 -0.750000 1 37 1.000000
  37 -26.942091 -14.351492 35.599079 -0.705985 0.222376 0.672409 0.195313 -0.750000 1 37 1.000000
  37 -28.146040 -13.994801 32.023460 -0.933700 -0.322136 -0.156308 0.191406 -0.351562 1 37 1.000000
saw_world1
  37 -28.146040 -13.994801 32.023460 -0.933700 -0.322136 -0.156308 0.191406 -0.351562 1 37 1.000000
  37 -26.942091 -14.351492 35.599079 -0.705985 0.222376 0.672409 0.195313 -0.750000 1 37 1.000000
  37 -27.682653 -13.475648 31.932615 -0.422513 0.742819 -0.519329 0.230469 -0.359375 1 37 1.000000
saw_world1
  37 -26.942091 -14.351492 35.599079 -0.705985 0.222376 0.672409 0.195313 -0.750000 1 37 1.000000
  37 -26.489607 -13.823586 35.510326 0.358537 0.682293 0.637125 0.226563 -0.750000 1 37 1.000000
  37 -27.682653 -13.475648 31.932615 -0.422513 0.742819 -0.519329 0.230469 -0.359375 1 37 1.000000
saw_world1
  37 -25.645411 -10.046822 28.292439 0.903459 -0.255639 -0.344107 0.414063 -0.914062 1 37 1.000000
  37 -26.135437 -10.676785 28.565247 -0.188695 -0.950528 0.246762 0.414063 -0.789062 1 37 1.000000
  37 -28.488316 -11.638343 23.074556 0.399977 -0.916435 -0.012846 0.015625 -0.789062 1 37 1.000000
saw_world1
  37 -28.020794 -11.007773 22.777390 0.834400 0.356628 -0.420229 0.015625 -0.914062 1 37 1.000000
  37 -25.645411 -10.046822 28.292439 0.903459 -0.255639 -0.344107 0.414063 -0.914062 1 37 1.000000
  37 -28.488316 -11.638343 23.074556 0.399977 -0.916435 -0.012846 0.015625 -0.789062 1 37 1.000000
saw_world1
  37 -26.286871 -9.474236 28.431273 0.187302 0.951060 -0.245771 0.414063 -0.992187 1 37 1.000000
  37 -25.645411 -10.046822 28.292439 0.903459 -0.255639 -0.344107 0.414063 -0.914062 1 37 1.000000
  37 -28.020794 -11.007773 22.777390 0.834400 0.356628 -0.420229 0.015625 -0.914062 1 37 1.000000
saw_world1
  37 -28.020794 -11.007773 22.777390 0.834400 0.356628 -0.420229 0.015625 -0.914062 1 37 1.000000
  37 -28.636467 -10.428090 22.925425 -0.398498 0.917082 0.012646 0.015625 -0.992187 1 37 1.000000
  37 -26.286871 -9.474236 28.431273 0.187302 0.951060 -0.245771 0.414063 -0.992187 1 37 1.000000
saw_world1
  37 -26.749229 -10.106688 28.715410 -0.902943 0.257334 0.344199 0.015625 -0.921875 1 37 1.000000
  37 -26.286871 -9.474236 28.431273 0.187302 0.951060 -0.245771 0.015625 -0.984375 1 37 1.000000
  37 -28.636467 -10.428090 22.925425 -0.398498 0.917082 0.012646 0.402344 -0.992187 1 37 1.000000
saw_world1
  37 -29.133642 -11.068474 23.204576 -0.834504 -0.354728 0.421629 0.402344 -0.921875 1 37 1.000000
  37 -26.749229 -10.106688 28.715410 -0.902943 0.257334 0.344199 0.015625 -0.921875 1 37 1.000000
  37 -28.636467 -10.428090 22.925425 -0.398498 0.917082 0.012646 0.402344 -0.992187 1 37 1.000000
saw_world1
  37 -26.135437 -10.676785 28.565247 -0.188695 -0.950528 0.246762 0.015625 -0.796875 1 37 1.000000
  37 -26.749229 -10.106688 28.715410 -0.902943 0.257334 0.344199 0.015625 -0.921875 1 37 1.000000
  37 -29.133642 -11.068474 23.204576 -0.834504 -0.354728 0.421629 0.402344 -0.921875 1 37 1.000000
saw_world1
  37 -29.133642 -11.068474 23.204576 -0.834504 -0.354728 0.421629 0.402344 -0.921875 1 37 1.000000
  37 -28.488316 -11.638343 23.074556 0.399977 -0.916435 -0.012846 0.402344 -0.796875 1 37 1.000000
  37 -26.135437 -10.676785 28.565247 -0.188695 -0.950528 0.246762 0.015625 -0.796875 1 37 1.000000
saw_world1
  37 -26.619783 -11.980205 26.036570 0.903459 -0.255639 -0.344107 0.015625 -0.890625 1 37 1.000000
  37 -27.020973 -12.504673 26.283310 -0.188695 -0.950528 0.246762 0.015625 -0.992187 1 37 1.000000
  37 -29.369307 -13.446615 20.829960 0.399977 -0.916435 -0.012846 0.421875 -0.992187 1 37 1.000000
saw_world1
  37 -28.973965 -12.937166 20.567724 0.834400 0.356628 -0.420229 0.421875 -0.890625 1 37 1.000000
  37 -26.619783 -11.980205 26.036570 0.903459 -0.255639 -0.344107 0.015625 -0.890625 1 37 1.000000
  37 -29.369307 -13.446615 20.829960 0.399977 -0.916435 -0.012846 0.421875 -0.992187 1 37 1.000000
saw_world1
  37 -27.167028 -11.511016 26.143267 0.187302 0.951060 -0.245771 0.015625 -0.796875 1 37 1.000000
  37 -26.619783 -11.980205 26.036570 0.903459 -0.255639 -0.344107 0.015625 -0.890625 1 37 1.000000
  37 -28.973965 -12.937166 20.567724 0.834400 0.356628 -0.420229 0.421875 -0.890625 1 37 1.000000
saw_world1
  37 -28.973965 -12.937166 20.567724 0.834400 0.356628 -0.420229 0.421875 -0.890625 1 37 1.000000
  37 -29.507015 -12.469024 20.657177 -0.398498 0.917082 0.012646 0.421875 -0.796875 1 37 1.000000
  37 -27.167028 -11.511016 26.143267 0.187302 0.951060 -0.245771 0.015625 -0.796875 1 37 1.000000
saw_world1
  37 -27.548281 -12.043405 26.383701 -0.902943 0.257334 0.344199 0.425781 -0.898437 1 37 1.000000
  37 -27.167028 -11.511016 26.143267 0.187302 0.951060 -0.245771 0.425781 -0.804687 1 37 1.000000
  37 -29.507015 -12.469024 20.657177 -0.398498 0.917082 0.012646 0.015625 -0.804687 1 37 1.000000
saw_world1
  37 -29.916655 -12.999317 20.932104 -0.834504 -0.354728 0.421629 0.015625 -0.898437 1 37 1.000000
  37 -27.548281 -12.043405 26.383701 -0.902943 0.257334 0.344199 0.425781 -0.898437 1 37 1.000000
  37 -29.507015 -12.469024 20.657177 -0.398498 0.917082 0.012646 0.015625 -0.804687 1 37 1.000000
saw_world1
  37 -27.020973 -12.504673 26.283310 -0.188695 -0.950528 0.246762 0.421875 -0.992187 1 37 1.000000
  37 -27.548281 -12.043405 26.383701 -0.902943 0.257334 0.344199 0.425781 -0.898437 1 37 1.000000
  37 -29.916655 -12.999317 20.932104 -0.834504 -0.354728 0.421629 0.015625 -0.898437 1 37 1.000000
saw_world1
  37 -29.916655 -12.999317 20.932104 -0.834504 -0.354728 0.421629 0.015625 -0.898437 1 37 1.000000
  37 -29.369307 -13.446615 20.829960 0.399977 -0.916435 -0.012846 0.015625 -0.992187 1 37 1.000000
  37 -27.020973 -12.504673 26.283310 -0.188695 -0.950528 0.246762 0.421875 -0.992187 1 37 1.000000
saw_world1
  37 -28.771593 -12.921489 20.553585 0.981701 -0.179387 0.063901 0.015625 -0.171875 1 37 1.000000
  37 -29.339437 -13.643806 20.854935 0.092785 -0.604023 0.791547 0.015625 -0.171875 1 37 1.000000
  37 -30.285393 -14.036145 18.656336 0.065589 -0.779928 -0.622423 0.015625 -0.343750 1 37 1.000000
saw_world1
  37 -29.755507 -13.324086 18.295372 0.612542 0.257303 -0.747387 0.015625 -0.343750 1 37 1.000000
  37 -28.771593 -12.921489 20.553585 0.981701 -0.179387 0.063901 0.015625 -0.171875 1 37 1.000000
  37 -30.285393 -14.036145 18.656336 0.065589 -0.779928 -0.622423 0.015625 -0.343750 1 37 1.000000
saw_world1
  37 -29.494480 -12.263850 20.724604 0.375768 0.813783 0.443346 0.039063 -0.171875 1 37 1.000000
  37 -28.771593 -12.921489 20.553585 0.981701 -0.179387 0.063901 0.015625 -0.171875 1 37 1.000000
  37 -29.755507 -13.324086 18.295372 0.612542 0.257303 -0.747387 0.015625 -0.343750 1 37 1.000000
saw_world1
  37 -29.755507 -13.324086 18.295372 0.612542 0.257303 -0.747387 0.015625 -0.343750 1 37 1.000000
  37 -30.470049 -12.682514 18.433647 -0.532338 0.581631 -0.615079 0.039063 -0.343750 1 37 1.000000
  37 -29.494480 -12.263850 20.724604 0.375768 0.813783 0.443346 0.039063 -0.171875 1 37 1.000000
saw_world1
  37 -31.029585 -13.404390 18.776598 -0.915391 -0.402494 0.007623 0.015625 -0.187500 1 37 1.000000
  37 -30.285393 -14.036145 18.656336 0.065589 -0.779928 -0.622423 0.015625 -0.187500 1 37 1.000000
  37 -29.339437 -13.643806 20.854935 0.092785 -0.604023 0.791547 0.015625 -0.351562 1 37 1.000000
saw_world1
  37 -29.339437 -13.643806 20.854935 0.092785 -0.604023 0.791547 0.015625 -0.351562 1 37 1.000000
  37 -30.070158 -13.013491 21.003771 -0.674277 0.287579 0.680183 0.015625 -0.351562 1 37 1.000000
  37 -31.029585 -13.404390 18.776598 -0.915391 -0.402494 0.007623 0.015625 -0.187500 1 37 1.000000
saw_world1
  37 -31.029585 -13.404390 18.776598 -0.915391 -0.402494 0.007623 0.015625 -0.187500 1 37 1.000000
  37 -30.070158 -13.013491 21.003771 -0.674277 0.287579 0.680183 0.015625 -0.351562 1 37 1.000000
  37 -30.470049 -12.682514 18.433647 -0.532338 0.581631 -0.615079 0.039063 -0.187500 1 37 1.000000
saw_world1
  37 -30.070158 -13.013491 21.003771 -0.674277 0.287579 0.680183 0.015625 -0.351562 1 37 1.000000
  37 -29.494480 -12.263850 20.724604 0.375768 0.813783 0.443346 0.039063 -0.351562 1 37 1.000000
  37 -30.470049 -12.682514 18.433647 -0.532338 0.581631 -0.615079 0.039063 -0.187500 1 37 1.000000
saw_world1
  37 -27.768959 -7.873862 28.633307 -0.599985 0.736165 -0.313174 0.042969 -0.265625 1 37 1.000000
  37 -25.257029 -7.738479 27.683163 0.051501 0.304186 -0.951219 0.042969 -0.343750 1 37 1.000000
  37 -27.483618 -10.421953 28.930311 -0.968236 0.139536 -0.207481 0.273438 -0.265625 1 37 1.000000
saw_world1
  37 -21.836939 -4.711017 40.873360 -0.575900 0.396404 0.714984 0.675781 -0.414062 1 37 1.000000
  37 -22.723564 -6.086883 38.702209 -0.912087 0.220292 -0.345786 0.589844 -0.359375 1 37 1.000000
  37 -21.133976 -5.323946 42.376411 -0.577957 0.623845 0.526101 0.683594 -0.359375 1 37 1.000000
saw_world1
  37 -19.796900 -5.281589 41.856567 -0.216342 0.860447 0.461332 0.683594 -0.359375 1 37 1.000000
  37 -21.836939 -4.711017 40.873360 -0.575900 0.396404 0.714984 0.675781 -0.414062 1 37 1.000000
  37 -21.133976 -5.323946 42.376411 -0.577957 0.623845 0.526101 0.683594 -0.359375 1 37 1.000000
saw_world1
  37 -20.484983 -4.652806 40.364796 0.670325 0.347081 0.655895 0.675781 -0.414062 1 37 1.000000
  37 -21.836939 -4.711017 40.873360 -0.575900 0.396404 0.714984 0.675781 -0.414062 1 37 1.000000
  37 -19.796900 -5.281589 41.856567 -0.216342 0.860447 0.461332 0.683594 -0.359375 1 37 1.000000
saw_world1
  37 -19.806404 -5.255541 41.841362 0.315118 0.920062 0.232779 0.683594 -0.359375 1 37 1.000000
  37 -20.484983 -4.652806 40.364796 0.670325 0.347081 0.655895 0.675781 -0.414062 1 37 1.000000
  37 -19.796900 -5.281589 41.856567 -0.216342 0.860447 0.461332 0.683594 -0.359375 1 37 1.000000
saw_world1
  37 -21.366234 -5.986771 38.189724 0.722526 0.206645 -0.659738 0.589844 -0.359375 1 37 1.000000
  37 -20.484983 -4.652806 40.364796 0.670325 0.347081 0.655895 0.675781 -0.414062 1 37 1.000000
  37 -19.806404 -5.255541 41.841362 0.315118 0.920062 0.232779 0.683594 -0.359375 1 37 1.000000
saw_world1
  37 -21.366234 -5.986771 38.189724 0.722526 0.206645 -0.659738 0.589844 -0.359375 1 37 1.000000
  37 -22.723564 -6.086883 38.702209 -0.912087 0.220292 -0.345786 0.589844 -0.359375 1 37 1.000000
  37 -21.205599 -2.349417 39.585239 0.039511 0.622531 -0.781597 0.609375 -0.554687 1 37 1.000000
saw_world1
  37 -21.205599 -2.349417 39.585239 0.039511 0.622531 -0.781597 0.609375 -0.554687 1 37 1.000000
  37 -22.723564 -6.086883 38.702209 -0.912087 0.220292 -0.345786 0.589844 -0.359375 1 37 1.000000
  37 -22.199076 -2.386973 39.964306 -0.708654 0.701121 -0.078989 0.609375 -0.554687 1 37 1.000000
saw_world1
  37 -22.723564 -6.086883 38.702209 -0.912087 0.220292 -0.345786 0.589844 -0.359375 1 37 1.000000
  37 -21.836939 -4.711017 40.873360 -0.575900 0.396404 0.714984 0.675781 -0.414062 1 37 1.000000
  37 -22.199076 -2.386973 39.964306 -0.708654 0.701121 -0.078989 0.609375 -0.554687 1 37 1.000000
saw_world1
  37 -22.199076 -2.386973 39.964306 -0.708654 0.701121 -0.078989 0.609375 -0.554687 1 37 1.000000
  37 -21.836939 -4.711017 40.873360 -0.575900 0.396404 0.714984 0.675781 -0.414062 1 37 1.000000
  37 -21.452362 -2.205747 41.623245 -0.135452 0.194121 0.971581 0.695313 -0.570312 1 37 1.000000
saw_world1
  37 -21.836939 -4.711017 40.873360 -0.575900 0.396404 0.714984 0.675781 -0.414062 1 37 1.000000
  37 -20.484983 -4.652806 40.364796 0.670325 0.347081 0.655895 0.675781 -0.414062 1 37 1.000000
  37 -21.452362 -2.205747 41.623245 -0.135452 0.194121 0.971581 0.695313 -0.570312 1 37 1.000000
saw_world1
  37 -21.452362 -2.205747 41.623245 -0.135452 0.194121 0.971581 0.695313 -0.570312 1 37 1.000000
  37 -20.484983 -4.652806 40.364796 0.670325 0.347081 0.655895 0.675781 -0.414062 1 37 1.000000
  37 -20.489731 -2.151515 41.252563 0.708817 0.703819 -0.047096 0.695313 -0.570312 1 37 1.000000
saw_world1
  37 -20.484983 -4.652806 40.364796 0.670325 0.347081 0.655895 0.675781 -0.414062 1 37 1.000000
  37 -21.366234 -5.986771 38.189724 0.722526 0.206645 -0.659738 0.589844 -0.359375 1 37 1.000000
  37 -20.489731 -2.151515 41.252563 0.708817 0.703819 -0.047096 0.695313 -0.570312 1 37 1.000000
saw_world1
  37 -20.489731 -2.151515 41.252563 0.708817 0.703819 -0.047096 0.695313 -0.570312 1 37 1.000000
  37 -21.366234 -5.986771 38.189724 0.722526 0.206645 -0.659738 0.589844 -0.359375 1 37 1.000000
  37 -21.205599 -2.349417 39.585239 0.039511 0.622531 -0.781597 0.609375 -0.554687 1 37 1.000000
saw_world1
  37 -28.614323 -10.227072 23.012608 0.375768 0.813783 0.443346 0.546875 -0.414062 1 37 1.000000
  37 -28.845730 -10.318974 22.427626 -0.532338 0.581631 -0.615079 0.488281 -0.414062 1 37 1.000000
  37 -29.286602 -11.071127 23.374567 -0.674277 0.287579 0.680183 0.546875 -0.468750 1 37 1.000000
saw_world1
  37 -29.286602 -11.071127 23.374567 -0.674277 0.287579 0.680183 0.546875 -0.468750 1 37 1.000000
  37 -28.845730 -10.318974 22.427626 -0.532338 0.581631 -0.615079 0.488281 -0.414062 1 37 1.000000
  37 -29.501251 -11.156763 22.802996 -0.915391 -0.402494 0.007623 0.488281 -0.468750 1 37 1.000000
saw_world1
  37 -30.070158 -13.013491 21.003771 -0.674277 0.287579 0.680183 0.562500 -0.640625 1 37 1.000000
  37 -29.339437 -13.643806 20.854935 0.092785 -0.604023 0.791547 0.562500 -0.562500 1 37 1.000000
  37 -29.494480 -12.263850 20.724604 0.375768 0.813783 0.443346 0.484375 -0.640625 1 37 1.000000
saw_world1
  37 -29.494480 -12.263850 20.724604 0.375768 0.813783 0.443346 0.484375 -0.640625 1 37 1.000000
  37 -29.339437 -13.643806 20.854935 0.092785 -0.604023 0.791547 0.562500 -0.562500 1 37 1.000000
  37 -28.771593 -12.921489 20.553585 0.981701 -0.179387 0.063901 0.484375 -0.562500 1 37 1.000000
saw_world1
  37 -29.755507 -13.324086 18.295372 0.612542 0.257303 -0.747387 0.660156 -0.726562 1 37 1.000000
  37 -30.285393 -14.036145 18.656336 0.065589 -0.779928 -0.622423 0.625000 -0.671875 1 37 1.000000
  37 -30.470049 -12.682514 18.433647 -0.532338 0.581631 -0.615079 0.628906 -0.789062 1 37 1.000000
saw_world1
  37 -30.470049 -12.682514 18.433647 -0.532338 0.581631 -0.615079 0.628906 -0.789062 1 37 1.000000
  37 -30.285393 -14.036145 18.656336 0.065589 -0.779928 -0.622423 0.625000 -0.671875 1 37 1.000000
  37 -31.029585 -13.404390 18.776598 -0.915391 -0.402494 0.007623 0.593750 -0.734375 1 37 1.000000
saw_world1
  37 -27.137941 -12.652220 26.051039 0.007732 -0.993502 -0.113550 0.125000 -0.406250 1 37 1.000000
  37 -28.453962 -12.265810 26.463572 -0.639214 -0.432263 -0.636046 0.105469 -0.421875 1 37 1.000000
  37 -25.902624 -12.119388 25.481401 0.234937 -0.436171 -0.868654 0.148438 -0.421875 1 37 1.000000
saw_world1
  37 -25.902624 -12.119388 25.481401 0.234937 -0.436171 -0.868654 0.148438 -0.421875 1 37 1.000000
  37 -28.453962 -12.265810 26.463572 -0.639214 -0.432263 -0.636046 0.105469 -0.421875 1 37 1.000000
  37 -26.091906 -10.752356 25.370060 0.334678 0.261410 -0.905348 0.140625 -0.507812 1 37 1.000000
saw_world1
  37 -28.453962 -12.265810 26.463572 -0.639214 -0.432263 -0.636046 0.105469 -0.421875 1 37 1.000000
  37 -28.604418 -10.882748 26.296230 -0.808970 0.573052 -0.131071 0.113281 -0.507812 1 37 1.000000
  37 -26.091906 -10.752356 25.370060 0.334678 0.261410 -0.905348 0.140625 -0.507812 1 37 1.000000
saw_world1
  37 -20.113436 -2.908298 45.870258 -0.897602 0.388459 -0.208352 0.792969 -0.500000 1 37 1.000000
  37 -16.474928 -6.575372 52.677349 -0.320915 -0.037202 0.946377 0.984375 -0.148437 1 37 1.000000
  37 -17.414160 -1.450680 50.659134 -0.305201 0.889490 0.340089 0.937500 -0.523437 1 37 1.000000
saw_world1
  37 -18.998865 -7.909986 48.193470 -0.610038 -0.746085 0.266854 0.839844 -0.132812 1 37 1.000000
  37 -16.474928 -6.575372 52.677349 -0.320915 -0.037202 0.946377 0.984375 -0.148437 1 37 1.000000
  37 -20.113436 -2.908298 45.870258 -0.897602 0.388459 -0.208352 0.792969 -0.500000 1 37 1.000000
saw_world1
  37 -19.986834 -4.691679 45.195702 -0.926980 0.205698 -0.313681 0.746094 -0.343750 1 37 1.000000
  37 -18.998865 -7.909986 48.193470 -0.610038 -0.746085 0.266854 0.839844 -0.132812 1 37 1.000000
  37 -20.113436 -2.908298 45.870258 -0.897602 0.388459 -0.208352 0.792969 -0.500000 1 37 1.000000
saw_world1
  37 -19.411564 -7.597188 46.303940 -0.568823 -0.822236 0.019187 0.765625 -0.179687 1 37 1.000000
  37 -18.998865 -7.909986 48.193470 -0.610038 -0.746085 0.266854 0.839844 -0.132812 1 37 1.000000
  37 -19.986834 -4.691679 45.195702 -0.926980 0.205698 -0.313681 0.746094 -0.343750 1 37 1.000000
saw_world1
  37 -18.558058 -4.623692 44.616413 0.329442 0.723924 -0.606137 0.746094 -0.343750 1 37 1.000000
  37 -18.117966 -2.788958 45.162827 0.452193 0.574020 -0.682658 0.792969 -0.500000 1 37 1.000000
  37 -17.706919 -7.494941 45.729286 0.736538 -0.642207 -0.212325 0.765625 -0.179687 1 37 1.000000
saw_world1
  37 -17.706919 -7.494941 45.729286 0.736538 -0.642207 -0.212325 0.765625 -0.179687 1 37 1.000000
  37 -18.117966 -2.788958 45.162827 0.452193 0.574020 -0.682658 0.792969 -0.500000 1 37 1.000000
  37 -16.508959 -7.800879 47.238392 0.677959 -0.644835 -0.352930 0.839844 -0.132812 1 37 1.000000
saw_world1
  37 -18.117966 -2.788958 45.162827 0.452193 0.574020 -0.682658 0.792969 -0.500000 1 37 1.000000
  37 -16.500647 -1.425226 50.296165 0.726052 0.639354 0.253130 0.937500 -0.523437 1 37 1.000000
  37 -16.508959 -7.800879 47.238392 0.677959 -0.644835 -0.352930 0.839844 -0.132812 1 37 1.000000
saw_world1
  37 -16.508959 -7.800879 47.238392 0.677959 -0.644835 -0.352930 0.839844 -0.132812 1 37 1.000000
  37 -16.500647 -1.425226 50.296165 0.726052 0.639354 0.253130 0.937500 -0.523437 1 37 1.000000
  37 -14.947549 -6.498603 52.097504 0.667495 -0.612776 0.423031 0.984375 -0.148437 1 37 1.000000
saw_world1
  37 -20.262568 -11.454772 40.207596 0.910504 0.068443 -0.407796 0.597656 -0.984375 1 37 1.000000
  37 -21.101246 -10.757166 38.454323 0.910504 0.068443 -0.407796 0.468750 -0.835937 1 37 1.000000
  37 -20.291599 -10.428015 40.301033 -0.912355 -0.065548 0.404118 0.457031 -0.992187 1 37 1.000000
saw_world1
  37 -20.291599 -10.428015 40.301033 -0.912355 -0.065548 0.404118 0.457031 -0.992187 1 37 1.000000
  37 -21.101246 -10.757166 38.454323 0.910504 0.068443 -0.407796 0.468750 -0.835937 1 37 1.000000
  37 -20.899883 -11.586441 38.769058 -0.912355 -0.065548 0.404118 0.574219 -0.875000 1 37 1.000000
saw_world1
  37 -21.101246 -10.757166 38.454323 0.910504 0.068443 -0.407796 0.468750 -0.835937 1 37 1.000000
  37 -20.262568 -11.454772 40.207596 0.910504 0.068443 -0.407796 0.597656 -0.984375 1 37 1.000000
  37 -20.899883 -11.586441 38.769058 -0.912355 -0.065548 0.404118 0.574219 -0.875000 1 37 1.000000
saw_world1
  37 -20.899883 -11.586441 38.769058 -0.912355 -0.065548 0.404118 0.574219 -0.875000 1 37 1.000000
  37 -20.262568 -11.454772 40.207596 0.910504 0.068443 -0.407796 0.597656 -0.984375 1 37 1.000000
  37 -20.291599 -10.428015 40.301033 -0.912355 -0.065548 0.404118 0.457031 -0.992187 1 37 1.000000
saw_world1
  37 -21.875301 -11.622330 39.139694 -0.912355 -0.065548 0.404118 0.574219 -0.875000 1 37 1.000000
  37 -21.259394 -10.480364 40.684746 -0.912355 -0.065548 0.404118 0.457031 -0.992187 1 37 1.000000
  37 -22.061890 -10.799094 38.831688 0.910504 0.068443 -0.407796 0.468750 -0.835937 1 37 1.000000
saw_world1
  37 -22.061890 -10.799094 38.831688 0.910504 0.068443 -0.407796 0.468750 -0.835937 1 37 1.000000
  37 -21.259394 -10.480364 40.684746 -0.912355 -0.065548 0.404118 0.457031 -0.992187 1 37 1.000000
  37 -21.258030 -11.504630 40.579983 0.910504 0.068443 -0.407796 0.597656 -0.984375 1 37 1.000000
saw_world1
  37 -21.259394 -10.480364 40.684746 -0.912355 -0.065548 0.404118 0.457031 -0.992187 1 37 1.000000
  37 -21.875301 -11.622330 39.139694 -0.912355 -0.065548 0.404118 0.574219 -0.875000 1 37 1.000000
  37 -21.258030 -11.504630 40.579983 0.910504 0.068443 -0.407796 0.597656 -0.984375 1 37 1.000000
saw_world1
  37 -21.258030 -11.504630 40.579983 0.910504 0.068443 -0.407796 0.597656 -0.984375 1 37 1.000000
  37 -21.875301 -11.622330 39.139694 -0.912355 -0.065548 0.404118 0.574219 -0.875000 1 37 1.000000
  37 -22.061890 -10.799094 38.831688 0.910504 0.068443 -0.407796 0.468750 -0.835937 1 37 1.000000
saw_world1
  37 -25.203249 -11.871273 34.571674 -0.637961 -0.535353 -0.553537 0.285156 -0.015625 1 37 1.000000
  37 -21.521084 -10.533797 42.177380 -0.423719 -0.740875 0.521120 0.617188 -0.015625 1 37 1.000000
  37 -25.375261 -6.955390 33.847092 -0.836167 0.544240 0.068023 0.281250 -0.343750 1 37 1.000000
saw_world1
  37 -25.375261 -6.955390 33.847092 -0.836167 0.544240 0.068023 0.281250 -0.343750 1 37 1.000000
  37 -21.521084 -10.533797 42.177380 -0.423719 -0.740875 0.521120 0.617188 -0.015625 1 37 1.000000
  37 -19.922905 -4.685452 45.120377 -0.836167 0.544240 0.068023 0.746094 -0.359375 1 37 1.000000
saw_world1
  37 -21.521084 -10.533797 42.177380 -0.423719 -0.740875 0.521120 0.617188 -0.015625 1 37 1.000000
  37 -19.411564 -7.597188 46.303940 -0.568823 -0.822236 0.019187 0.753906 -0.179687 1 37 1.000000
  37 -19.922905 -4.685452 45.120377 -0.836167 0.544240 0.068023 0.746094 -0.359375 1 37 1.000000
saw_world1
  37 -27.483618 -10.421953 28.930311 -0.968236 0.139536 -0.207481 0.042969 -0.343750 1 37 1.000000
  37 -25.257029 -7.738479 27.683163 0.051501 0.304186 -0.951219 0.273438 -0.265625 1 37 1.000000
  37 -24.933685 -10.292824 27.965435 0.573291 0.523257 -0.630507 0.042969 -0.265625 1 37 1.000000
saw_world1
  37 -29.286602 -11.071127 23.374567 -0.674277 0.287579 0.680183 0.546875 -0.414062 1 37 1.000000
  37 -29.501251 -11.156763 22.802996 -0.915391 -0.402494 0.007623 0.488281 -0.414062 1 37 1.000000
  37 -28.432802 -11.833815 23.178520 0.092785 -0.604023 0.791547 0.546875 -0.468750 1 37 1.000000
saw_world1
  37 -28.432802 -11.833815 23.178520 0.092785 -0.604023 0.791547 0.546875 -0.468750 1 37 1.000000
  37 -29.501251 -11.156763 22.802996 -0.915391 -0.402494 0.007623 0.488281 -0.414062 1 37 1.000000
  37 -28.664209 -11.925715 22.593538 0.065589 -0.779928 -0.622423 0.488281 -0.468750 1 37 1.000000
saw_world1
  37 -28.432802 -11.833815 23.178520 0.092785 -0.604023 0.791547 0.546875 -0.414062 1 37 1.000000
  37 -28.664209 -11.925715 22.593538 0.065589 -0.779928 -0.622423 0.488281 -0.414062 1 37 1.000000
  37 -27.764389 -10.992477 22.807749 0.981701 -0.179387 0.063901 0.546875 -0.468750 1 37 1.000000
saw_world1
  37 -27.764389 -10.992477 22.807749 0.981701 -0.179387 0.063901 0.546875 -0.468750 1 37 1.000000
  37 -28.664209 -11.925715 22.593538 0.065589 -0.779928 -0.622423 0.488281 -0.414062 1 37 1.000000
  37 -28.031189 -11.087322 22.193811 0.612542 0.257303 -0.747387 0.488281 -0.468750 1 37 1.000000
saw_world1
  37 -27.764389 -10.992477 22.807749 0.981701 -0.179387 0.063901 0.546875 -0.414062 1 37 1.000000
  37 -28.031189 -11.087322 22.193811 0.612542 0.257303 -0.747387 0.488281 -0.414062 1 37 1.000000
  37 -28.614323 -10.227072 23.012608 0.375768 0.813783 0.443346 0.546875 -0.468750 1 37 1.000000
saw_world1
  37 -28.614323 -10.227072 23.012608 0.375768 0.813783 0.443346 0.546875 -0.468750 1 37 1.000000
  37 -28.031189 -11.087322 22.193811 0.612542 0.257303 -0.747387 0.488281 -0.414062 1 37 1.000000
  37 -28.845730 -10.318974 22.427626 -0.532338 0.581631 -0.615079 0.488281 -0.468750 1 37 1.000000
saw_world1
  37 -28.031189 -11.087322 22.193811 0.612542 0.257303 -0.747387 0.656250 -0.726562 1 37 1.000000
  37 -28.664209 -11.925715 22.593538 0.065589 -0.779928 -0.622423 0.621094 -0.664062 1 37 1.000000
  37 -28.845730 -10.318974 22.427626 -0.532338 0.581631 -0.615079 0.621094 -0.789062 1 37 1.000000
saw_world1
  37 -28.845730 -10.318974 22.427626 -0.532338 0.581631 -0.615079 0.621094 -0.789062 1 37 1.000000
  37 -28.664209 -11.925715 22.593538 0.065589 -0.779928 -0.622423 0.621094 -0.664062 1 37 1.000000
  37 -29.501251 -11.156763 22.802996 -0.915391 -0.402494 0.007623 0.593750 -0.734375 1 37 1.000000
saw_world1
  37 -29.286602 -11.071127 23.374567 -0.674277 0.287579 0.680183 0.562500 -0.640625 1 37 1.000000
  37 -28.432802 -11.833815 23.178520 0.092785 -0.604023 0.791547 0.562500 -0.562500 1 37 1.000000
  37 -28.614323 -10.227072 23.012608 0.375768 0.813783 0.443346 0.484375 -0.640625 1 37 1.000000
saw_world1
  37 -28.614323 -10.227072 23.012608 0.375768 0.813783 0.443346 0.484375 -0.640625 1 37 1.000000
  37 -28.432802 -11.833815 23.178520 0.092785 -0.604023 0.791547 0.562500 -0.562500 1 37 1.000000
  37 -27.764389 -10.992477 22.807749 0.981701 -0.179387 0.063901 0.484375 -0.562500 1 37 1.000000
saw_world1
  37 -26.801468 -11.122014 34.190609 -0.815943 0.509217 0.273742 0.242188 -0.789062 1 37 1.000000
  37 -26.191673 -11.117201 33.955807 0.719887 0.560023 -0.410044 0.265625 -0.789062 1 37 1.000000
  37 -27.629646 -11.425953 32.332909 -0.815943 0.509217 0.273742 0.242188 -0.359375 1 37 1.000000
saw_world1
  37 -27.629646 -11.425953 32.332909 -0.815943 0.509217 0.273742 0.242188 -0.359375 1 37 1.000000
  37 -26.191673 -11.117201 33.955807 0.719887 0.560023 -0.410044 0.265625 -0.789062 1 37 1.000000
  37 -26.988321 -11.420912 32.118256 0.719887 0.560023 -0.410044 0.265625 -0.359375 1 37 1.000000
saw_world1
  37 -27.245403 -12.134057 32.280525 0.613742 -0.776016 -0.145325 0.265625 -0.789062 1 37 1.000000
  37 -26.433401 -11.841374 34.148785 -0.450736 -0.827523 0.334728 0.265625 -0.359375 1 37 1.000000
  37 -27.629646 -11.425953 32.332909 -0.815943 0.509217 0.273742 0.242188 -0.789062 1 37 1.000000
saw_world1
  37 -27.629646 -11.425953 32.332909 -0.815943 0.509217 0.273742 0.242188 -0.789062 1 37 1.000000
  37 -26.433401 -11.841374 34.148785 -0.450736 -0.827523 0.334728 0.265625 -0.359375 1 37 1.000000
  37 -26.801468 -11.122014 34.190609 -0.815943 0.509217 0.273742 0.242188 -0.359375 1 37 1.000000
saw_world1
  37 -26.988321 -11.420912 32.118256 0.719887 0.560023 -0.410044 0.265625 -0.789062 1 37 1.000000
  37 -26.191673 -11.117201 33.955807 0.719887 0.560023 -0.410044 0.265625 -0.359375 1 37 1.000000
  37 -27.245403 -12.134057 32.280525 0.613742 -0.776016 -0.145325 0.242188 -0.789062 1 37 1.000000
saw_world1
  37 -27.245403 -12.134057 32.280525 0.613742 -0.776016 -0.145325 0.242188 -0.789062 1 37 1.000000
  37 -26.191673 -11.117201 33.955807 0.719887 0.560023 -0.410044 0.265625 -0.359375 1 37 1.000000
  37 -26.433401 -11.841374 34.148785 -0.450736 -0.827523 0.334728 0.242188 -0.359375 1 37 1.000000
saw_world1
  37 -26.982618 -11.411272 32.203548 0.991852 -0.070569 0.106065 0.265625 -0.359375 1 37 1.000000
  37 -27.630987 -11.404843 32.429100 -0.646100 0.090405 0.757880 0.242188 -0.359375 1 37 1.000000
  37 -27.187618 -13.794690 32.313084 0.991852 -0.070569 0.106065 0.265625 -0.789062 1 37 1.000000
saw_world1
  37 -27.187618 -13.794690 32.313084 0.991852 -0.070569 0.106065 0.265625 -0.789062 1 37 1.000000
  37 -27.630987 -11.404843 32.429100 -0.646100 0.090405 0.757880 0.242188 -0.359375 1 37 1.000000
  37 -27.832228 -13.807437 32.542900 -0.646100 0.090405 0.757880 0.242188 -0.789062 1 37 1.000000
saw_world1
  37 -27.832228 -13.807437 32.542900 -0.646100 0.090405 0.757880 0.269531 -0.789062 1 37 1.000000
  37 -27.630987 -11.404843 32.429100 -0.646100 0.090405 0.757880 0.269531 -0.359375 1 37 1.000000
  37 -27.716249 -13.858800 31.974646 -0.715666 0.045392 -0.696966 0.238281 -0.789062 1 37 1.000000
saw_world1
  37 -27.716249 -13.858800 31.974646 -0.715666 0.045392 -0.696966 0.238281 -0.789062 1 37 1.000000
  37 -27.630987 -11.404843 32.429100 -0.646100 0.090405 0.757880 0.269531 -0.359375 1 37 1.000000
  37 -27.471407 -11.474713 31.926851 0.052248 -0.033740 -0.998064 0.238281 -0.359375 1 37 1.000000
saw_world1
  37 -27.716249 -13.858800 31.974646 -0.715666 0.045392 -0.696966 0.269531 -0.789062 1 37 1.000000
  37 -27.471407 -11.474713 31.926851 0.052248 -0.033740 -0.998064 0.269531 -0.359375 1 37 1.000000
  37 -27.187618 -13.794690 32.313084 0.991852 -0.070569 0.106065 0.238281 -0.789062 1 37 1.000000
saw_world1
  37 -27.187618 -13.794690 32.313084 0.991852 -0.070569 0.106065 0.238281 -0.789062 1 37 1.000000
  37 -27.471407 -11.474713 31.926851 0.052248 -0.033740 -0.998064 0.269531 -0.359375 1 37 1.000000
  37 -26.982618 -11.411272 32.203548 0.991852 -0.070569 0.106065 0.238281 -0.359375 1 37 1.000000
saw_world1
  37 -27.163759 -13.959252 31.786062 0.703191 0.339553 -0.624681 0.152344 -0.453125 1 37 1.000000
  37 -27.629028 -14.468816 31.874777 0.067120 -0.645021 -0.761212 0.125000 -0.390625 1 37 1.000000
  37 -27.682653 -13.475648 31.932615 -0.422513 0.742819 -0.519329 0.125000 -0.531250 1 37 1.000000
saw_world1
  37 -27.682653 -13.475648 31.932615 -0.422513 0.742819 -0.519329 0.125000 -0.531250 1 37 1.000000
  37 -27.629028 -14.468816 31.874777 0.067120 -0.645021 -0.761212 0.125000 -0.390625 1 37 1.000000
  37 -28.146040 -13.994801 32.023460 -0.933700 -0.322136 -0.156308 0.097656 -0.453125 1 37 1.000000
saw_world1
  37 -26.942091 -14.351492 35.599079 -0.705985 0.222376 0.672409 0.152344 -0.453125 1 37 1.000000
  37 -26.435511 -14.843636 35.471901 -0.053756 -0.750367 0.658831 0.125000 -0.390625 1 37 1.000000
  37 -26.489607 -13.823586 35.510326 0.358537 0.682293 0.637125 0.125000 -0.531250 1 37 1.000000
saw_world1
  37 -26.489607 -13.823586 35.510326 0.358537 0.682293 0.637125 0.125000 -0.531250 1 37 1.000000
  37 -26.435511 -14.843636 35.471901 -0.053756 -0.750367 0.658831 0.125000 -0.390625 1 37 1.000000
  37 -25.968836 -14.316778 35.365898 0.958822 -0.266185 0.099026 0.097656 -0.453125 1 37 1.000000
saw_world1
  37 -16.508959 -7.800879 47.238392 0.677959 -0.644835 -0.352930 0.792969 -0.132812 1 37 1.000000
  37 -14.947549 -6.498603 52.097504 0.667495 -0.612776 0.423031 0.980469 -0.132812 1 37 1.000000
  37 -18.998865 -7.909986 48.193470 -0.610038 -0.746085 0.266854 0.792969 -0.015625 1 37 1.000000
saw_world1
  37 -18.998865 -7.909986 48.193470 -0.610038 -0.746085 0.266854 0.792969 -0.015625 1 37 1.000000
  37 -14.947549 -6.498603 52.097504 0.667495 -0.612776 0.423031 0.980469 -0.132812 1 37 1.000000
  37 -16.474928 -6.575372 52.677349 -0.320915 -0.037202 0.946377 0.980469 -0.015625 1 37 1.000000
saw_world1
  37 -20.113436 -2.908298 45.870258 -0.897602 0.388459 -0.208352 0.980469 -0.007812 1 37 1.000000
  37 -17.414160 -1.450680 50.659134 -0.305201 0.889490 0.340089 0.789063 -0.007812 1 37 1.000000
  37 -18.117966 -2.788958 45.162827 0.452193 0.574020 -0.682658 0.980469 -0.132812 1 37 1.000000
saw_world1
  37 -18.117966 -2.788958 45.162827 0.452193 0.574020 -0.682658 0.980469 -0.132812 1 37 1.000000
  37 -17.414160 -1.450680 50.659134 -0.305201 0.889490 0.340089 0.789063 -0.007812 1 37 1.000000
  37 -16.500647 -1.425226 50.296165 0.726052 0.639354 0.253130 0.789063 -0.132812 1 37 1.000000
saw_world1
  37 -17.706919 -7.494941 45.729286 0.736538 -0.642207 -0.212325 0.789063 -0.132812 1 37 1.000000
  37 -16.508959 -7.800879 47.238392 0.677959 -0.644835 -0.352930 0.984375 -0.132812 1 37 1.000000
  37 -19.411564 -7.597188 46.303940 -0.568823 -0.822236 0.019187 0.789063 -0.015625 1 37 1.000000
saw_world1
  37 -19.411564 -7.597188 46.303940 -0.568823 -0.822236 0.019187 0.789063 -0.015625 1 37 1.000000
  37 -16.508959 -7.800879 47.238392 0.677959 -0.644835 -0.352930 0.984375 -0.132812 1 37 1.000000
  37 -18.998865 -7.909986 48.193470 -0.610038 -0.746085 0.266854 0.984375 -0.015625 1 37 1.000000
saw_world1
  37 -19.986834 -4.691679 45.195702 -0.926980 0.205698 -0.313681 0.980469 -0.007812 1 37 1.000000
  37 -20.113436 -2.908298 45.870258 -0.897602 0.388459 -0.208352 0.785156 -0.007812 1 37 1.000000
  37 -18.558058 -4.623692 44.616413 0.329442 0.723924 -0.606137 0.980469 -0.132812 1 37 1.000000
saw_world1
  37 -18.558058 -4.623692 44.616413 0.329442 0.723924 -0.606137 0.980469 -0.132812 1 37 1.000000
  37 -20.113436 -2.908298 45.870258 -0.897602 0.388459 -0.208352 0.785156 -0.007812 1 37 1.000000
  37 -18.117966 -2.788958 45.162827 0.452193 0.574020 -0.682658 0.785156 -0.132812 1 37 1.000000
saw_world1
  37 -18.558058 -4.623692 44.616413 0.329442 0.723924 -0.606137 0.929688 -0.992187 1 37 1.000000
  37 -19.922905 -4.685452 45.120377 -0.836167 0.544240 0.068023 0.929688 -0.992187 1 37 1.000000
  37 -19.986834 -4.691679 45.195702 -0.926980 0.205698 -0.313681 0.015625 -0.992187 1 37 1.000000
saw_world1
  37 -19.986834 -4.691679 45.195702 -0.926980 0.205698 -0.313681 0.015625 -0.992187 1 37 1.000000
  37 -19.922905 -4.685452 45.120377 -0.836167 0.544240 0.068023 0.929688 -0.992187 1 37 1.000000
  37 -19.411564 -7.597188 46.303940 -0.568823 -0.822236 0.019187 0.980469 -0.414062 1 37 1.000000
saw_world1
  37 -24.819502 -10.805359 33.303509 0.168006 -0.674411 -0.718987 0.152344 -0.789062 1 37 1.000000
  37 -26.523281 -12.165786 34.129322 -0.087830 -0.825895 -0.556941 0.152344 -0.375000 1 37 1.000000
  37 -25.407951 -9.967003 33.371239 -0.657914 0.473316 -0.585765 0.089844 -0.789062 1 37 1.000000
saw_world1
  37 -25.407951 -9.967003 33.371239 -0.657914 0.473316 -0.585765 0.089844 -0.789062 1 37 1.000000
  37 -26.523281 -12.165786 34.129322 -0.087830 -0.825895 -0.556941 0.152344 -0.375000 1 37 1.000000
  37 -27.094971 -11.321163 34.210472 -0.984312 -0.176397 0.003721 0.089844 -0.375000 1 37 1.000000
saw_world1
  37 -25.616270 -10.737863 27.221916 0.500892 -0.484700 -0.717059 0.625000 -0.656250 1 37 1.000000
  37 -26.186996 -9.704604 26.132675 0.350550 -0.270188 -0.896723 0.585938 -0.726562 1 37 1.000000
  37 -25.346943 -9.310333 28.104824 0.790913 0.593341 0.149672 0.660156 -0.726562 1 37 1.000000
saw_world1
  37 -25.346943 -9.310333 28.104824 0.790913 0.593341 0.149672 0.660156 -0.726562 1 37 1.000000
  37 -26.186996 -9.704604 26.132675 0.350550 -0.270188 -0.896723 0.585938 -0.726562 1 37 1.000000
  37 -25.890581 -8.274572 27.002930 0.193919 0.799713 -0.568202 0.625000 -0.789062 1 37 1.000000
saw_world1
  37 -25.890581 -8.274572 27.002930 0.193919 0.799713 -0.568202 0.015625 -0.992187 1 37 1.000000
  37 -27.767406 -8.371160 27.708057 -0.605317 0.666697 0.434864 0.417969 -0.992187 1 37 1.000000
  37 -25.346943 -9.310333 28.104824 0.790913 0.593341 0.149672 0.015625 -0.796875 1 37 1.000000
saw_world1
  37 -25.346943 -9.310333 28.104824 0.790913 0.593341 0.149672 0.015625 -0.796875 1 37 1.000000
  37 -27.767406 -8.371160 27.708057 -0.605317 0.666697 0.434864 0.417969 -0.992187 1 37 1.000000
  37 -27.205711 -9.405252 28.801516 -0.503901 0.489208 0.711870 0.417969 -0.796875 1 37 1.000000
saw_world1
  37 -26.186996 -9.704604 26.132675 0.350550 -0.270188 -0.896723 0.015625 -0.992187 1 37 1.000000
  37 -28.045181 -9.804514 26.853342 -0.700230 0.100985 -0.706739 0.417969 -0.992187 1 37 1.000000
  37 -25.890581 -8.274572 27.002930 0.193919 0.799713 -0.568202 0.015625 -0.796875 1 37 1.000000
saw_world1
  37 -25.890581 -8.274572 27.002930 0.193919 0.799713 -0.568202 0.015625 -0.796875 1 37 1.000000
  37 -28.045181 -9.804514 26.853342 -0.700230 0.100985 -0.706739 0.417969 -0.992187 1 37 1.000000
  37 -27.767406 -8.371160 27.708057 -0.605317 0.666697 0.434864 0.417969 -0.796875 1 37 1.000000
saw_world1
  37 -25.616270 -10.737863 27.221916 0.500892 -0.484700 -0.717059 0.015625 -0.992187 1 37 1.000000
  37 -27.493093 -10.834449 27.927042 -0.793000 -0.589834 -0.152472 0.417969 -0.992187 1 37 1.000000
  37 -26.186996 -9.704604 26.132675 0.350550 -0.270188 -0.896723 0.015625 -0.796875 1 37 1.000000
saw_world1
  37 -26.186996 -9.704604 26.132675 0.350550 -0.270188 -0.896723 0.015625 -0.796875 1 37 1.000000
  37 -27.493093 -10.834449 27.927042 -0.793000 -0.589834 -0.152472 0.417969 -0.992187 1 37 1.000000
  37 -28.045181 -9.804514 26.853342 -0.700230 0.100985 -0.706739 0.417969 -0.796875 1 37 1.000000
saw_world1
  37 -28.045181 -9.804514 26.853342 -0.700230 0.100985 -0.706739 0.582031 -0.726562 1 37 1.000000
  37 -27.493093 -10.834449 27.927042 -0.793000 -0.589834 -0.152472 0.625000 -0.656250 1 37 1.000000
  37 -27.767406 -8.371160 27.708057 -0.605317 0.666697 0.434864 0.625000 -0.789062 1 37 1.000000
saw_world1
  37 -27.767406 -8.371160 27.708057 -0.605317 0.666697 0.434864 0.625000 -0.789062 1 37 1.000000
  37 -27.493093 -10.834449 27.927042 -0.793000 -0.589834 -0.152472 0.625000 -0.656250 1 37 1.000000
  37 -27.205711 -9.405252 28.801516 -0.503901 0.489208 0.711870 0.660156 -0.726562 1 37 1.000000
saw_world1
  37 -25.375261 -6.955390 33.847092 -0.836167 0.544240 0.068023 0.453125 -0.828125 1 37 1.000000
  37 -22.993608 -6.834398 32.947151 0.480473 0.546893 -0.685604 0.578125 -0.828125 1 37 1.000000
  37 -25.203249 -11.871273 34.571674 -0.637961 -0.535353 -0.553537 0.441406 -0.367187 1 37 1.000000
saw_world1
  37 -25.203249 -11.871273 34.571674 -0.637961 -0.535353 -0.553537 0.441406 -0.367187 1 37 1.000000
  37 -22.993608 -6.834398 32.947151 0.480473 0.546893 -0.685604 0.578125 -0.828125 1 37 1.000000
  37 -22.175579 -11.720240 33.424633 0.325527 -0.837813 -0.438294 0.582031 -0.367187 1 37 1.000000
saw_world1
  37 -20.238144 -6.766542 35.280609 0.800946 -0.456812 0.387051 0.089844 -0.781250 1 37 1.000000
  37 -24.838446 -7.020404 37.024025 0.091821 -0.692969 0.715096 0.089844 -0.359375 1 37 1.000000
  37 -21.345470 -7.228779 32.675098 0.561319 -0.665501 -0.491965 0.015625 -0.781250 1 37 1.000000
saw_world1
  37 -21.345470 -7.228779 32.675098 0.561319 -0.665501 -0.491965 0.015625 -0.781250 1 37 1.000000
  37 -24.838446 -7.020404 37.024025 0.091821 -0.692969 0.715096 0.089844 -0.359375 1 37 1.000000
  37 -25.967590 -7.465131 34.422684 -0.506432 -0.812657 -0.288298 0.015625 -0.359375 1 37 1.000000
saw_world1
  37 -21.933422 -2.346258 32.120461 -0.083328 0.418286 -0.904485 0.882813 -0.984375 1 37 1.000000
  37 -20.827972 -1.874435 34.723839 0.751767 0.425834 0.503500 0.980469 -0.992187 1 37 1.000000
  37 -21.345470 -7.228779 32.675098 0.561319 -0.665501 -0.491965 0.882813 -0.531250 1 37 1.000000
saw_world1
  37 -21.345470 -7.228779 32.675098 0.561319 -0.665501 -0.491965 0.882813 -0.531250 1 37 1.000000
  37 -20.827972 -1.874435 34.723839 0.751767 0.425834 0.503500 0.980469 -0.992187 1 37 1.000000
  37 -20.238144 -6.766542 35.280609 0.800946 -0.456812 0.387051 0.980469 -0.531250 1 37 1.000000
saw_world1
  37 -28.491606 -2.660429 34.616047 -0.948391 0.300275 -0.101931 0.980469 -0.992187 1 37 1.000000
  37 -27.370768 -2.216144 37.175785 -0.313942 0.842054 0.438618 0.878906 -0.992187 1 37 1.000000
  37 -21.933422 -2.346258 32.120461 -0.083328 0.418286 -0.904485 0.980469 -0.539062 1 37 1.000000
saw_world1
  37 -21.933422 -2.346258 32.120461 -0.083328 0.418286 -0.904485 0.980469 -0.539062 1 37 1.000000
  37 -27.370768 -2.216144 37.175785 -0.313942 0.842054 0.438618 0.878906 -0.992187 1 37 1.000000
  37 -20.827972 -1.874435 34.723839 0.751767 0.425834 0.503500 0.878906 -0.539062 1 37 1.000000
saw_world1
  37 -17.414160 -1.450680 50.659134 -0.305201 0.889490 0.340089 0.980469 -0.015625 1 37 1.000000
  37 -16.474928 -6.575372 52.677349 -0.320915 -0.037202 0.946377 0.785156 -0.015625 1 37 1.000000
  37 -16.500647 -1.425226 50.296165 0.726052 0.639354 0.253130 0.980469 -0.125000 1 37 1.000000
saw_world1
  37 -16.500647 -1.425226 50.296165 0.726052 0.639354 0.253130 0.980469 -0.125000 1 37 1.000000
  37 -16.474928 -6.575372 52.677349 -0.320915 -0.037202 0.946377 0.785156 -0.015625 1 37 1.000000
  37 -14.947549 -6.498603 52.097504 0.667495 -0.612776 0.423031 0.785156 -0.132812 1 37 1.000000
saw_world1
  37 -19.136038 -10.383205 41.266834 0.892872 -0.423759 -0.152342 0.445313 -0.835937 1 37 1.000000
  37 -21.521084 -10.533797 42.177380 -0.423719 -0.740875 0.521120 0.578125 -0.835937 1 37 1.000000
  37 -22.175579 -11.720240 33.424633 0.325527 -0.837813 -0.438294 0.445313 -0.359375 1 37 1.000000
saw_world1
  37 -22.175579 -11.720240 33.424633 0.325527 -0.837813 -0.438294 0.445313 -0.359375 1 37 1.000000
  37 -21.521084 -10.533797 42.177380 -0.423719 -0.740875 0.521120 0.578125 -0.835937 1 37 1.000000
  37 -25.203249 -11.871273 34.571674 -0.637961 -0.535353 -0.553537 0.574219 -0.359375 1 37 1.000000
saw_world1
  37 -19.922905 -4.685452 45.120377 -0.836167 0.544240 0.068023 0.792969 -0.117187 1 37 1.000000
  37 -18.558058 -4.623692 44.616413 0.329442 0.723924 -0.606137 0.792969 -0.015625 1 37 1.000000
  37 -25.375261 -6.955390 33.847092 -0.836167 0.544240 0.068023 0.976563 -0.117187 1 37 1.000000
saw_world1
  37 -25.375261 -6.955390 33.847092 -0.836167 0.544240 0.068023 0.976563 -0.117187 1 37 1.000000
  37 -18.558058 -4.623692 44.616413 0.329442 0.723924 -0.606137 0.792969 -0.015625 1 37 1.000000
  37 -22.993608 -6.834398 32.947151 0.480473 0.546893 -0.685604 0.980469 -0.023437 1 37 1.000000
saw_world1
  37 -25.160944 -9.858856 33.921688 0.052852 0.488899 0.870738 0.152344 -0.507812 1 37 1.000000
  37 -25.407951 -9.967003 33.371239 -0.657914 0.473316 -0.585765 0.093750 -0.507812 1 37 1.000000
  37 -26.849369 -11.230310 34.778206 -0.611338 0.487740 0.623198 0.152344 -0.789062 1 37 1.000000
saw_world1
  37 -26.849369 -11.230310 34.778206 -0.611338 0.487740 0.623198 0.152344 -0.789062 1 37 1.000000
  37 -25.407951 -9.967003 33.371239 -0.657914 0.473316 -0.585765 0.093750 -0.507812 1 37 1.000000
  37 -27.094971 -11.321163 34.210472 -0.984312 -0.176397 0.003721 0.093750 -0.789062 1 37 1.000000
saw_world1
  37 -26.849369 -11.230310 34.778206 -0.611338 0.487740 0.623198 0.152344 -0.515625 1 37 1.000000
  37 -27.094971 -11.321163 34.210472 -0.984312 -0.176397 0.003721 0.152344 -0.398437 1 37 1.000000
  37 -26.261501 -12.063677 34.686497 -0.062840 -0.530695 0.845230 0.097656 -0.515625 1 37 1.000000
saw_world1
  37 -26.261501 -12.063677 34.686497 -0.062840 -0.530695 0.845230 0.097656 -0.515625 1 37 1.000000
  37 -27.094971 -11.321163 34.210472 -0.984312 -0.176397 0.003721 0.152344 -0.398437 1 37 1.000000
  37 -26.523281 -12.165786 34.129322 -0.087830 -0.825895 -0.556941 0.097656 -0.398437 1 37 1.000000
saw_world1
  37 -26.261501 -12.063677 34.686497 -0.062840 -0.530695 0.845230 0.152344 -0.507812 1 37 1.000000
  37 -26.523281 -12.165786 34.129322 -0.087830 -0.825895 -0.556941 0.093750 -0.507812 1 37 1.000000
  37 -24.585388 -10.700763 33.849350 0.675766 -0.664240 0.319570 0.152344 -0.789062 1 37 1.000000
saw_world1
  37 -24.585388 -10.700763 33.849350 0.675766 -0.664240 0.319570 0.152344 -0.789062 1 37 1.000000
  37 -26.523281 -12.165786 34.129322 -0.087830 -0.825895 -0.556941 0.093750 -0.507812 1 37 1.000000
  37 -24.819502 -10.805359 33.303509 0.168006 -0.674411 -0.718987 0.093750 -0.789062 1 37 1.000000
saw_world1
  37 -26.849369 -11.230310 34.778206 -0.611338 0.487740 0.623198 0.156250 -0.359375 1 37 1.000000
  37 -26.261501 -12.063677 34.686497 -0.062840 -0.530695 0.845230 0.093750 -0.359375 1 37 1.000000
  37 -25.160944 -9.858856 33.921688 0.052852 0.488899 0.870738 0.156250 -0.789062 1 37 1.000000
saw_world1
  37 -25.160944 -9.858856 33.921688 0.052852 0.488899 0.870738 0.156250 -0.789062 1 37 1.000000
  37 -26.261501 -12.063677 34.686497 -0.062840 -0.530695 0.845230 0.093750 -0.359375 1 37 1.000000
  37 -24.585388 -10.700763 33.849350 0.675766 -0.664240 0.319570 0.093750 -0.789062 1 37 1.000000
saw_world1
  37 -27.483618 -10.421953 28.930311 -0.968236 0.139536 -0.207481 0.273438 -0.343750 1 37 1.000000
  37 -24.933685 -10.292824 27.965435 0.573291 0.523257 -0.630507 0.273438 -0.265625 1 37 1.000000
  37 -28.604418 -10.882748 26.296230 -0.808970 0.573052 -0.131071 0.042969 -0.343750 1 37 1.000000
saw_world1
  37 -28.604418 -10.882748 26.296230 -0.808970 0.573052 -0.131071 0.042969 -0.343750 1 37 1.000000
  37 -24.933685 -10.292824 27.965435 0.573291 0.523257 -0.630507 0.273438 -0.265625 1 37 1.000000
  37 -26.091906 -10.752356 25.370060 0.334678 0.261410 -0.905348 0.042969 -0.265625 1 37 1.000000
saw_world1
  37 -25.020729 -10.894050 34.349373 -0.758332 -0.501350 0.416630 0.277344 -0.015625 1 37 1.000000
  37 -25.375261 -6.955390 33.847092 -0.836167 0.544240 0.068023 0.277344 -0.343750 1 37 1.000000
  37 -27.483618 -10.421953 28.930311 -0.968236 0.139536 -0.207481 0.039063 -0.132812 1 37 1.000000
saw_world1
  37 -27.483618 -10.421953 28.930311 -0.968236 0.139536 -0.207481 0.039063 -0.132812 1 37 1.000000
  37 -25.375261 -6.955390 33.847092 -0.836167 0.544240 0.068023 0.277344 -0.343750 1 37 1.000000
  37 -27.768959 -7.873862 28.633307 -0.599985 0.736165 -0.313174 0.039063 -0.343750 1 37 1.000000
saw_world1
  37 -27.483618 -10.421953 28.930311 -0.968236 0.139536 -0.207481 0.039063 -0.132812 1 37 1.000000
  37 -28.604418 -10.882748 26.296230 -0.808970 0.573052 -0.131071 0.015625 -0.132812 1 37 1.000000
  37 -25.020729 -10.894050 34.349373 -0.758332 -0.501350 0.416630 0.277344 -0.031250 1 37 1.000000
saw_world1
  37 -25.020729 -10.894050 34.349373 -0.758332 -0.501350 0.416630 0.277344 -0.031250 1 37 1.000000
  37 -28.604418 -10.882748 26.296230 -0.808970 0.573052 -0.131071 0.015625 -0.132812 1 37 1.000000
  37 -28.453962 -12.265810 26.463572 -0.639214 -0.432263 -0.636046 0.015625 -0.031250 1 37 1.000000
saw_world1
  37 -25.257029 -7.738479 27.683163 0.051501 0.304186 -0.951219 0.046875 -0.359375 1 37 1.000000
  37 -27.768959 -7.873862 28.633307 -0.599985 0.736165 -0.313174 0.046875 -0.265625 1 37 1.000000
  37 -22.993608 -6.834398 32.947151 0.480473 0.546893 -0.685604 0.277344 -0.359375 1 37 1.000000
saw_world1
  37 -22.993608 -6.834398 32.947151 0.480473 0.546893 -0.685604 0.277344 -0.359375 1 37 1.000000
  37 -27.768959 -7.873862 28.633307 -0.599985 0.736165 -0.313174 0.046875 -0.265625 1 37 1.000000
  37 -25.375261 -6.955390 33.847092 -0.836167 0.544240 0.068023 0.277344 -0.265625 1 37 1.000000
saw_world1
  37 -17.706919 -7.494941 45.729286 0.736538 -0.642207 -0.212325 0.753906 -0.179687 1 37 1.000000
  37 -19.136038 -10.383205 41.266834 0.892872 -0.423759 -0.152342 0.617188 -0.015625 1 37 1.000000
  37 -18.558058 -4.623692 44.616413 0.329442 0.723924 -0.606137 0.746094 -0.359375 1 37 1.000000
saw_world1
  37 -18.558058 -4.623692 44.616413 0.329442 0.723924 -0.606137 0.746094 -0.359375 1 37 1.000000
  37 -19.136038 -10.383205 41.266834 0.892872 -0.423759 -0.152342 0.617188 -0.015625 1 37 1.000000
  37 -22.993608 -6.834398 32.947151 0.480473 0.546893 -0.685604 0.281250 -0.343750 1 37 1.000000
saw_world1
  37 -19.136038 -10.383205 41.266834 0.892872 -0.423759 -0.152342 0.617188 -0.015625 1 37 1.000000
  37 -22.175579 -11.720240 33.424633 0.325527 -0.837813 -0.438294 0.285156 -0.015625 1 37 1.000000
  37 -22.993608 -6.834398 32.947151 0.480473 0.546893 -0.685604 0.281250 -0.343750 1 37 1.000000
saw_world1
  37 -28.491606 -2.660429 34.616047 -0.948391 0.300275 -0.101931 0.648438 -0.992187 1 37 1.000000
  37 -21.933422 -2.346258 32.120461 -0.083328 0.418286 -0.904485 0.875000 -0.992187 1 37 1.000000
  37 -28.158546 -5.447827 34.920490 -0.816141 -0.412127 -0.405049 0.648438 -0.773437 1 37 1.000000
saw_world1
  37 -28.158546 -5.447827 34.920490 -0.816141 -0.412127 -0.405049 0.648438 -0.773437 1 37 1.000000
  37 -21.933422 -2.346258 32.120461 -0.083328 0.418286 -0.904485 0.875000 -0.992187 1 37 1.000000
  37 -25.967590 -7.465131 34.422684 -0.506432 -0.812657 -0.288298 0.714844 -0.539062 1 37 1.000000
saw_world1
  37 -21.933422 -2.346258 32.120461 -0.083328 0.418286 -0.904485 0.875000 -0.992187 1 37 1.000000
  37 -21.345470 -7.228779 32.675098 0.561319 -0.665501 -0.491965 0.875000 -0.539062 1 37 1.000000
  37 -25.967590 -7.465131 34.422684 -0.506432 -0.812657 -0.288298 0.714844 -0.539062 1 37 1.000000
saw_world1
  37 -22.199076 -2.386973 39.964306 -0.708654 0.701121 -0.078989 0.929688 -0.992187 1 37 1.000000
  37 -21.452362 -2.205747 41.623245 -0.135452 0.194121 0.971581 0.929688 -0.992187 1 37 1.000000
  37 -20.489731 -2.151515 41.252563 0.708817 0.703819 -0.047096 0.929688 -0.992187 1 37 1.000000
saw_world1
  37 -21.521084 -10.533797 42.177380 -0.423719 -0.740875 0.521120 0.804688 -0.015625 1 37 1.000000
  37 -19.136038 -10.383205 41.266834 0.892872 -0.423759 -0.152342 0.804688 -0.132812 1 37 1.000000
  37 -17.706919 -7.494941 45.729286 0.736538 -0.642207 -0.212325 0.984375 -0.132812 1 37 1.000000
saw_world1
  37 -17.706919 -7.494941 45.729286 0.736538 -0.642207 -0.212325 0.980469 -0.132812 1 37 1.000000
  37 -19.411564 -7.597188 46.303940 -0.568823 -0.822236 0.019187 0.980469 -0.015625 1 37 1.000000
  37 -21.521084 -10.533797 42.177380 -0.423719 -0.740875 0.521120 0.792969 -0.015625 1 37 1.000000
saw_world1
  37 -20.238144 -6.766542 35.280609 0.800946 -0.456812 0.387051 0.875000 -0.539062 1 37 1.000000
  37 -20.827972 -1.874435 34.723839 0.751767 0.425834 0.503500 0.875000 -0.992187 1 37 1.000000
  37 -24.838446 -7.020404 37.024025 0.091821 -0.692969 0.715096 0.714844 -0.539062 1 37 1.000000
saw_world1
  37 -24.838446 -7.020404 37.024025 0.091821 -0.692969 0.715096 0.714844 -0.539062 1 37 1.000000
  37 -20.827972 -1.874435 34.723839 0.751767 0.425834 0.503500 0.875000 -0.992187 1 37 1.000000
  37 -27.049915 -4.990189 37.504154 -0.527033 -0.301667 0.794502 0.652344 -0.773437 1 37 1.000000
saw_world1
  37 -20.827972 -1.874435 34.723839 0.751767 0.425834 0.503500 0.875000 -0.992187 1 37 1.000000
  37 -27.370768 -2.216144 37.175785 -0.313942 0.842054 0.438618 0.648438 -0.992187 1 37 1.000000
  37 -27.049915 -4.990189 37.504154 -0.527033 -0.301667 0.794502 0.652344 -0.773437 1 37 1.000000
saw_world2
  37 -20.698431 -9.813156 35.400101 0.811938 -0.525712 -0.253738 0.937500 -0.918367 1 37 1.000000
  37 -21.492041 -10.136435 33.612621 0.903335 -0.257032 -0.343396 0.937500 0.000000 1 37 1.000000
  37 -20.879913 -6.734698 35.098351 0.917001 0.009548 -0.398771 0.046875 -0.979592 1 37 1.000000
saw_world2
  37 -20.879913 -6.734698 35.098351 0.917001 0.009548 -0.398771 0.046875 -0.979592 1 37 1.000000
  37 -21.492041 -10.136435 33.612621 0.903335 -0.257032 -0.343396 0.937500 0.000000 1 37 1.000000
  37 -21.647840 -7.072769 33.315517 0.917001 0.009548 -0.398771 0.046875 -0.061224 1 37 1.000000
saw_world2
  37 -21.403492 -10.516501 35.767109 0.662988 -0.733953 -0.147511 0.281250 -0.979592 1 37 1.000000
  37 -22.177166 -10.847698 33.973331 0.662988 -0.733953 -0.147511 0.304688 0.000000 1 37 1.000000
  37 -20.698431 -9.813156 35.400101 0.811938 -0.525712 -0.253738 0.000000 -0.979592 1 37 1.000000
saw_world2
  37 -20.698431 -9.813156 35.400101 0.811938 -0.525712 -0.253738 0.000000 -0.979592 1 37 1.000000
  37 -22.177166 -10.847698 33.973331 0.662988 -0.733953 -0.147511 0.304688 0.000000 1 37 1.000000
  37 -21.492041 -10.136435 33.612621 0.903335 -0.257032 -0.343396 0.000000 0.000000 1 37 1.000000
saw_world3
  37 -20.698431 -9.813156 35.400101 0.316376 0.134859 0.938999 0.000000 -0.767442 1 37 1.000000
  37 -20.979931 -9.665801 35.466766 0.316376 0.134859 0.938999 0.750000 -0.744186 1 37 1.000000
  37 -21.403492 -10.516501 35.767109 0.316376 0.134859 0.938999 0.000000 -0.232558 1 37 1.000000
saw_world3
  37 -21.403492 -10.516501 35.767109 0.316376 0.134859 0.938999 0.000000 -0.232558 1 37 1.000000
  37 -20.979931 -9.665801 35.466766 0.316376 0.134859 0.938999 0.750000 -0.744186 1 37 1.000000
  37 -21.464634 -10.139413 35.734447 0.316376 0.134859 0.938999 0.750000 -0.348837 1 37 1.000000
saw_world3
  37 -20.698431 -9.813156 35.400101 0.316376 0.134859 0.938999 0.000000 0.000000 1 37 1.000000
  37 -20.879913 -6.734698 35.098351 0.316376 0.134859 0.938999 0.000000 -0.976744 1 37 1.000000
  37 -20.979931 -9.665801 35.466766 0.316376 0.134859 0.938999 0.750000 -0.058140 1 37 1.000000
saw_world3
  37 -20.979931 -9.665801 35.466766 0.316376 0.134859 0.938999 0.750000 -0.058140 1 37 1.000000
  37 -20.879913 -6.734698 35.098351 0.316376 0.134859 0.938999 0.000000 -0.976744 1 37 1.000000
  37 -21.111660 -6.678003 35.182487 0.350259 0.107551 0.930458 0.750000 -0.994186 1 37 1.000000
end
