// Created by Crowbar 0.58
version 1
nodes
  0 "Bip01" -1
  1 "Bip01 Pelvis" 0
  2 "Bip01 Spine" 1
  3 "Bip01 Spine1" 2
  4 "Bip01 Spine2" 3
  5 "Bip01 Spine3" 4
  6 "Bip01 Neck" 5
  7 "Bip01 Head" 6
  8 "Bone09" 7
  9 "Bone10" 8
  10 "Bone12" 7
  11 "Bone13" 10
  12 "Bip01 L Clavicle" 6
  13 "Bip01 L UpperArm" 12
  14 "Bip01 L Forearm" 13
  15 "Bip01 L Hand" 14
  16 "Bip01 L Finger0" 15
  17 "Bip01 L Finger01" 16
  18 "Bip01 L Finger02" 17
  19 "Bip01 L Finger1" 15
  20 "Bip01 L Finger11" 19
  21 "Bip01 L Finger12" 20
  22 "Bip01 L Finger2" 15
  23 "Bip01 L Finger21" 22
  24 "Bip01 L Finger22" 23
  25 "Bip01 L Finger3" 15
  26 "Bip01 L Finger31" 25
  27 "Bip01 L Finger32" 26
  28 "Bip01 R Clavicle" 6
  29 "Bip01 R UpperArm" 28
  30 "Bip01 R Forearm" 29
  31 "Bip01 R Hand" 30
  32 "Bip01 R Finger0" 31
  33 "Bip01 R Finger01" 32
  34 "Bip01 R Finger02" 33
  35 "Bip01 R Finger1" 31
  36 "Bip01 R Finger11" 35
  37 "Bip01 R Finger12" 36
  38 "Bip01 R Finger2" 31
  39 "Bip01 R Finger21" 38
  40 "Bip01 R Finger22" 39
  41 "Bip01 R Finger3" 31
  42 "Bip01 R Finger31" 41
  43 "Bip01 R Finger32" 42
  44 "Bone01" 4
  45 "Bone03" 4
  46 "Bone05" 3
  47 "Bone07" 3
  48 "Bip01 L Thigh" 1
  49 "Bip01 L Calf" 48
  50 "Bip01 L Foot" 49
  51 "Bip01 R Thigh" 1
  52 "Bip01 R Calf" 51
  53 "Bip01 R Foot" 52
end
skeleton
  time 0
    0 0.147881 3.837554 37.144159 0.000000 0.000000 -1.570986
    1 -0.179693 -0.031251 0.000000 0.000000 -1.570451 -1.570795
    2 1.576611 -0.003992 0.000002 -0.000004 -0.000001 0.000646
    3 5.015457 -0.003840 0.000000 0.087140 0.000000 0.000000
    4 4.822693 -0.003838 0.000000 0.104398 -0.007359 0.069376
    5 4.822556 -0.004685 0.000000 0.000000 0.000000 0.000000
    6 5.883453 -0.001475 0.000000 0.000000 0.000000 -0.052333
    7 1.854832 0.000000 0.000000 -0.181600 0.062109 0.307717
    8 4.577744 2.974503 -4.899295 0.000000 -1.570796 2.810149
    9 -0.576364 -6.294613 1.187798 0.000000 0.000000 0.000000
    10 4.598343 3.014902 4.786890 0.000000 -1.570796 2.810149
    11 0.671572 -6.281569 1.205063 0.000000 0.000000 0.000000
    12 0.988842 0.018080 3.418189 -0.000014 -1.370796 -3.090042
    13 5.304816 0.000000 0.000000 0.585132 1.003899 0.790627
    14 18.707375 0.000000 -0.000002 0.000000 0.000000 -1.197686
    15 13.951651 0.000000 -0.000004 0.063585 -0.128453 -0.643864
    16 -0.620571 0.325967 -1.592585 1.860746 0.900460 0.815947
    17 3.570904 0.000002 -0.000001 0.000000 0.000000 0.261641
    18 2.779234 -0.000001 0.000000 0.000000 0.000000 0.662870
    19 5.246642 0.034821 -2.517332 -0.190682 0.169759 -0.410144
    20 6.439503 -0.000001 0.000000 0.000000 0.000000 0.139652
    21 3.098978 0.000000 0.000000 0.000000 0.000000 0.750085
    22 5.603584 -0.087752 -0.344059 -0.045423 -0.041483 0.690309
    23 4.928793 0.000000 -0.000004 0.000000 0.000000 1.116339
    24 6.254896 0.000002 -0.000002 0.000000 0.000000 0.680326
    25 5.434063 -0.010812 1.636232 0.109195 -0.311105 -0.158269
    26 4.854518 0.000000 0.000002 0.000000 0.000000 1.046559
    27 5.521277 0.000000 0.000000 0.000000 0.000000 1.360649
    28 -0.000004 0.001486 -3.418189 -0.000014 1.370796 -3.090069
    29 5.304816 0.000000 0.000000 0.556630 -1.114969 -0.086310
    30 18.340565 0.000000 -0.000002 0.000000 0.000000 -1.228906
    31 14.370207 0.000000 0.000002 0.107871 0.060977 0.439518
    32 -0.620573 0.325966 1.592587 -2.192420 -1.214130 1.142219
    33 3.927999 -0.000001 0.000000 0.000000 0.000000 -0.017399
    34 2.779240 0.000001 0.000000 0.000000 0.000000 0.662888
    35 5.246641 0.034821 2.517334 -0.311150 -0.180461 1.056475
    36 6.313238 0.000002 0.000002 0.000000 0.000000 0.610687
    37 3.098980 0.000000 0.000001 0.000000 0.000000 0.540799
    38 5.603580 -0.087754 0.344059 0.000333 0.009970 -0.505592
    39 4.532814 0.000000 -0.000002 0.000000 0.000000 0.697778
    40 6.615754 0.000002 0.000000 0.000000 0.000000 1.029133
    41 5.434061 -0.010812 -1.636234 -0.202317 0.240322 -0.678678
    42 4.623351 0.000001 -0.000002 0.000000 0.000000 0.662858
    43 5.521277 0.000000 0.000000 0.000000 0.000000 0.558307
    44 4.170006 3.279094 -1.198655 1.551675 -1.439961 1.554335
    45 3.754124 3.204277 1.399633 -1.589648 -1.492280 4.695613
    46 0.050228 4.476613 -0.976787 1.570646 -1.422511 1.570475
    47 0.921745 4.255628 1.163094 -1.570754 -1.335219 4.711583
    48 -0.000008 0.000008 4.504590 -3.134944 -0.049372 2.757919
    49 18.184616 0.000000 0.000000 0.000000 0.000000 -0.570831
    50 16.862097 0.000000 0.000000 0.012380 -0.048206 0.187151
    51 0.000011 -0.000005 -4.504589 3.311855 0.019091 2.953767
    52 18.184610 0.000000 0.000000 0.000000 0.000000 -0.601695
    53 16.862089 0.000000 0.000000 -0.170701 -0.013386 0.413436
  time 1
    0 0.147881 3.837554 37.144159 0.000000 0.000000 -1.570986
    1 -0.179693 -0.031251 0.000000 0.000000 -1.570451 -1.570795
    2 1.576611 -0.003992 0.000002 -0.000004 -0.000001 0.000646
    3 5.015457 -0.003840 0.000000 0.087140 0.000000 0.000000
    4 4.822693 -0.003838 0.000000 0.104398 -0.007359 0.069376
    5 4.822556 -0.004685 0.000000 0.000000 0.000000 0.000000
    6 5.883453 -0.001475 0.000000 0.000000 0.000000 -0.052333
    7 1.854832 0.000000 0.000000 -0.181600 0.062109 0.307717
    8 4.577744 2.974503 -4.899295 0.000000 -1.570796 2.810149
    9 -0.576364 -6.294613 1.187798 0.000000 0.000000 0.000000
    10 4.598343 3.014902 4.786890 0.000000 -1.570796 2.810149
    11 0.671572 -6.281569 1.205063 0.000000 0.000000 0.000000
    12 0.988842 0.018080 3.418189 -0.000014 -1.370796 -3.090042
    13 5.304816 0.000000 0.000000 0.585132 1.003899 0.790627
    14 18.707375 0.000000 -0.000002 0.000000 0.000000 -1.197686
    15 13.951651 0.000000 -0.000004 0.063585 -0.128453 -0.643864
    16 -0.620571 0.325967 -1.592585 1.860746 0.900460 0.815947
    17 3.570904 0.000002 -0.000001 0.000000 0.000000 0.261641
    18 2.779234 -0.000001 0.000000 0.000000 0.000000 0.662870
    19 5.246642 0.034821 -2.517332 -0.190682 0.169759 -0.410144
    20 6.439503 -0.000001 0.000000 0.000000 0.000000 0.139652
    21 3.098978 0.000000 0.000000 0.000000 0.000000 0.750085
    22 5.603584 -0.087752 -0.344059 -0.045423 -0.041483 0.690309
    23 4.928793 0.000000 -0.000004 0.000000 0.000000 1.116339
    24 6.254896 0.000002 -0.000002 0.000000 0.000000 0.680326
    25 5.434063 -0.010812 1.636232 0.109195 -0.311105 -0.158269
    26 4.854518 0.000000 0.000002 0.000000 0.000000 1.046559
    27 5.521277 0.000000 0.000000 0.000000 0.000000 1.360649
    28 -0.000004 0.001486 -3.418189 -0.000014 1.370796 -3.090069
    29 5.304816 0.000000 0.000000 0.556630 -1.114969 -0.086310
    30 18.340565 0.000000 -0.000002 0.000000 0.000000 -1.228906
    31 14.370207 0.000000 0.000002 0.107871 0.060977 0.439518
    32 -0.620573 0.325966 1.592587 -2.192420 -1.214130 1.142219
    33 3.927999 -0.000001 0.000000 0.000000 0.000000 -0.017399
    34 2.779240 0.000001 0.000000 0.000000 0.000000 0.662888
    35 5.246641 0.034821 2.517334 -0.311150 -0.180461 1.056475
    36 6.313238 0.000002 0.000002 0.000000 0.000000 0.610687
    37 3.098980 0.000000 0.000001 0.000000 0.000000 0.540799
    38 5.603580 -0.087754 0.344059 0.000333 0.009970 -0.505592
    39 4.532814 0.000000 -0.000002 0.000000 0.000000 0.697778
    40 6.615754 0.000002 0.000000 0.000000 0.000000 1.029133
    41 5.434061 -0.010812 -1.636234 -0.202317 0.240322 -0.678678
    42 4.623351 0.000001 -0.000002 0.000000 0.000000 0.662858
    43 5.521277 0.000000 0.000000 0.000000 0.000000 0.558307
    44 4.170006 3.279094 -1.198655 1.551675 -1.439961 1.554335
    45 3.754124 3.204277 1.399633 -1.589648 -1.492280 4.695613
    46 0.050228 4.476613 -0.976787 1.570646 -1.422511 1.570475
    47 0.921745 4.255628 1.163094 -1.570754 -1.335219 4.711583
    48 -0.000008 0.000008 4.504590 -3.134944 -0.049372 2.757919
    49 18.184616 0.000000 0.000000 0.000000 0.000000 -0.570831
    50 16.862097 0.000000 0.000000 0.012380 -0.048206 0.187151
    51 0.000011 -0.000005 -4.504589 3.311855 0.019091 2.953767
    52 18.184610 0.000000 0.000000 0.000000 0.000000 -0.601695
    53 16.862089 0.000000 0.000000 -0.170701 -0.013386 0.413436
  time 2
    0 0.147881 3.837554 36.327951 0.000000 -0.287645 -1.570986
    1 2.882900 0.472671 0.000000 0.000000 -1.570451 -1.570795
    2 1.576611 -0.003992 0.000002 -0.357711 0.000224 -0.226094
    3 5.015457 -0.003840 0.000000 0.178332 0.098998 -0.144327
    4 4.822693 -0.003838 0.000000 0.122231 0.080800 -0.019323
    5 4.822556 -0.004685 0.000000 0.000024 0.043696 0.000000
    6 5.883453 -0.001475 0.000000 0.000000 0.000000 -0.052333
    7 1.854832 0.000000 0.000000 -0.204445 -0.125589 0.456578
    8 4.577744 2.974503 -4.899295 0.000000 -1.570796 1.466483
    9 -0.576364 -6.294613 1.187798 1.509671 0.000000 0.000000
    10 4.598343 3.014902 4.786890 0.000000 -1.570796 1.335713
    11 0.671572 -6.281569 1.205063 0.584465 0.000000 0.000000
    12 0.988842 0.018080 3.418189 -0.000014 -1.370796 -3.090042
    13 5.304816 0.000000 0.000000 0.248683 1.046511 0.349140
    14 18.707375 0.000000 -0.000002 0.000000 0.000000 -1.590639
    15 13.951651 0.000000 -0.000004 0.063585 -0.128453 -0.643745
    16 -0.620571 0.325967 -1.592585 1.860746 0.900460 0.815947
    17 3.570904 0.000002 -0.000001 0.000000 0.000000 0.261641
    18 2.779234 -0.000001 0.000000 0.000000 0.000000 0.662870
    19 5.246642 0.034821 -2.517332 -0.190705 0.169759 -0.410094
    20 6.439503 -0.000001 0.000000 0.000000 0.000000 0.139652
    21 3.098978 0.000000 0.000000 0.000000 0.000000 0.750085
    22 5.603584 -0.087752 -0.344059 0.045911 -0.040860 -0.986043
    23 4.928793 0.000000 -0.000004 0.000000 0.000000 1.116339
    24 6.254896 0.000002 -0.000002 0.000000 0.000000 0.680326
    25 5.434063 -0.010812 1.636232 0.109195 -0.311105 -0.158269
    26 4.854518 0.000000 0.000002 0.000000 0.000000 1.046591
    27 5.521277 0.000000 0.000000 0.000000 0.000000 1.360617
    28 -0.000004 0.001486 -3.418189 -0.000014 1.370796 -3.090069
    29 5.304816 0.000000 0.000000 -0.267320 -0.575388 0.467946
    30 18.340565 0.000000 -0.000002 0.000000 0.000000 -2.057609
    31 14.370207 0.000000 0.000002 0.107781 0.060977 0.439518
    32 -0.620573 0.325966 1.592587 -2.192420 -1.214130 1.142219
    33 3.927999 -0.000001 0.000000 0.000000 0.000000 -0.017399
    34 2.779240 0.000001 0.000000 0.000000 0.000000 0.662888
    35 5.246641 0.034821 2.517334 0.110288 -0.341347 -0.324854
    36 6.313238 0.000002 0.000002 0.000000 0.000000 0.610687
    37 3.098980 0.000000 0.000001 0.000000 0.000000 0.540799
    38 5.603580 -0.087754 0.344059 0.000333 0.009970 -0.505592
    39 4.532814 0.000000 -0.000002 0.000000 0.000000 0.697778
    40 6.615754 0.000002 0.000000 0.000000 0.000000 1.029133
    41 5.434061 -0.010812 -1.636234 -0.202330 0.240322 -0.678638
    42 4.623351 0.000001 -0.000002 0.000000 0.000000 0.662858
    43 5.521277 0.000000 0.000000 0.000000 0.000000 0.558307
    44 4.170006 3.279094 -1.198655 -1.589404 -1.169430 4.695947
    45 3.754124 3.204277 1.399633 1.551969 -1.082210 1.554456
    46 0.050228 4.476613 -0.976787 -1.570740 -1.099622 4.711886
    47 0.921745 4.255628 1.163094 1.570681 -1.152010 1.570164
    48 -0.000008 0.000008 4.504590 -3.138491 -0.034988 3.114174
    49 18.184616 0.000000 0.000000 0.000000 0.000000 -0.612490
    50 16.862097 0.000000 0.000000 0.008025 -0.034144 0.297255
    51 0.000011 -0.000005 -4.504589 3.297675 0.024477 3.367461
    52 18.184610 0.000000 0.000000 0.000000 0.000000 -0.518223
    53 16.862089 0.000000 0.000000 -0.157016 0.014103 0.453352
  time 3
    0 0.147881 4.025522 36.254701 0.000000 -0.276239 -1.569932
    1 2.769616 0.472671 0.000000 0.000000 -1.570451 -1.570795
    2 1.576611 -0.003992 0.000002 -0.342808 0.001822 -0.216684
    3 5.015457 -0.003840 0.000000 0.174812 0.094496 -0.138327
    4 4.822693 -0.003838 0.000000 0.121428 0.078859 -0.020153
    5 4.822556 -0.004685 0.000000 0.000024 0.041790 0.000000
    6 5.883453 -0.001475 0.000000 0.000000 0.000000 -0.052333
    7 1.854832 0.000000 0.000000 -0.207714 -0.117163 0.453885
    8 4.577744 2.974503 -4.899295 0.000000 -1.570796 1.445406
    9 -0.576364 -6.294613 1.187798 1.703913 0.000000 0.000000
    10 4.598343 3.014902 4.786890 1.561761 -1.566585 -0.089125
    11 0.671572 -6.281569 1.205063 0.731908 0.000000 0.000000
    12 0.988842 0.018080 3.418189 -0.000014 -1.370796 -3.090042
    13 5.304816 0.000000 0.000000 0.284209 1.047544 0.390364
    14 18.707375 0.000000 -0.000002 0.000000 0.000000 -1.413894
    15 13.951651 0.000000 -0.000004 0.063585 -0.128485 -0.643864
    16 -0.620571 0.325967 -1.592585 1.860746 0.900460 0.815947
    17 3.570904 0.000002 -0.000001 0.000000 0.000000 0.261641
    18 2.779234 -0.000001 0.000000 0.000000 0.000000 0.662870
    19 5.246642 0.034821 -2.517332 -0.248149 0.057350 -0.906483
    20 6.439503 -0.000001 0.000000 0.000000 0.000000 0.139624
    21 3.098978 0.000000 0.000000 0.000000 0.000000 0.750085
    22 5.603584 -0.087752 -0.344059 0.019473 -0.058274 -0.464690
    23 4.928793 0.000000 -0.000004 0.000000 0.000000 1.116339
    24 6.254896 0.000002 -0.000002 0.000000 0.000000 0.680326
    25 5.434063 -0.010812 1.636232 0.261229 -0.202570 -0.740219
    26 4.854518 0.000000 0.000002 0.000000 0.000000 1.046559
    27 5.521277 0.000000 0.000000 0.000000 0.000000 1.360649
    28 -0.000004 0.001486 -3.418189 -0.000014 1.370796 -3.090069
    29 5.304816 0.000000 0.000000 -0.250943 -0.598067 0.464952
    30 18.340565 0.000000 -0.000002 0.000000 0.000000 -1.853211
    31 14.370207 0.000000 0.000002 0.107871 0.061019 0.439518
    32 -0.620573 0.325966 1.592587 -1.900334 -0.890703 0.810642
    33 3.927999 -0.000001 0.000000 0.000000 0.000000 -0.017399
    34 2.779240 0.000001 0.000000 0.000000 0.000000 0.662888
    35 5.246641 0.034821 2.517334 0.236808 -0.271277 -0.738421
    36 6.313238 0.000002 0.000002 0.000000 0.000000 0.610729
    37 3.098980 0.000000 0.000001 0.000000 0.000000 0.540799
    38 5.603580 -0.087754 0.344059 -0.000350 0.009970 -0.572313
    39 4.532814 0.000000 -0.000002 0.000000 0.000000 0.697778
    40 6.615754 0.000002 0.000000 0.000000 0.000000 1.029133
    41 5.434061 -0.010812 -1.636234 0.043936 0.309900 0.175921
    42 4.623351 0.000001 -0.000002 0.000000 0.000000 0.662858
    43 5.521277 0.000000 0.000000 0.000000 0.000000 0.558278
    44 4.170006 3.279094 -1.198655 -1.589404 -1.118765 4.695947
    45 3.754124 3.204277 1.399633 1.551969 -1.044450 1.554280
    46 0.050228 4.476613 -0.976787 -1.570740 -1.054598 4.711886
    47 0.921745 4.255628 1.163094 1.570681 -1.103035 1.570164
    48 -0.000008 0.000008 4.504590 -3.133794 -0.033452 3.081474
    49 18.184616 0.000000 0.000000 0.000000 0.000000 -0.636469
    50 16.862097 0.000000 0.000000 0.004783 -0.033949 0.300265
    51 0.000011 -0.000005 -4.504589 3.297088 0.027529 3.328636
    52 18.184610 0.000000 0.000000 0.000000 0.000000 -0.558800
    53 16.862089 0.000000 0.000000 -0.156103 0.012976 0.466387
  time 4
    0 0.147881 4.287043 36.270398 -0.000096 -0.245375 -1.567056
    1 2.445387 0.496109 0.000000 0.000000 -1.570451 -1.570795
    2 1.576611 -0.003992 0.000002 -0.303140 0.005443 -0.191613
    3 5.015457 -0.003840 0.000000 0.165288 0.083021 -0.122819
    4 4.822693 -0.003838 0.000000 0.119510 0.072231 -0.015139
    5 4.822556 -0.004685 0.000000 0.000024 0.036937 0.000000
    6 5.883453 -0.001475 0.000000 0.000000 0.000000 -0.052333
    7 1.854832 0.000000 0.000000 -0.214215 -0.094837 0.439556
    8 4.577744 2.974503 -4.899295 0.000000 -1.570796 1.518506
    9 -0.576364 -6.294613 1.187798 1.838916 0.000000 0.000000
    10 4.598343 3.014902 4.786890 1.699705 -1.556904 0.048676
    11 0.671572 -6.281569 1.205063 0.874661 0.000000 0.000000
    12 0.988842 0.018080 3.418189 -0.000014 -1.370796 -3.090042
    13 5.304816 0.000000 0.000000 0.507395 1.026690 0.663469
    14 18.707375 0.000000 -0.000002 0.000000 0.000000 -1.197686
    15 13.951651 0.000000 -0.000004 0.063585 -0.128453 -0.643745
    16 -0.620571 0.325967 -1.592585 1.860746 0.900460 0.815947
    17 3.570904 0.000002 -0.000001 0.000000 0.000000 0.261641
    18 2.779234 -0.000001 0.000000 0.000000 0.000000 0.662870
    19 5.246642 0.034821 -2.517332 -0.254564 -0.003756 -1.143396
    20 6.439503 -0.000001 0.000000 0.000000 0.000000 0.139652
    21 3.098978 0.000000 0.000000 0.000000 0.000000 0.750085
    22 5.603584 -0.087752 -0.344059 -0.017692 -0.058789 0.149774
    23 4.928793 0.000000 -0.000004 0.000000 0.000000 1.116339
    24 6.254896 0.000002 -0.000002 0.000000 0.000000 0.680326
    25 5.434063 -0.010812 1.636232 0.320802 -0.074439 -1.164904
    26 4.854518 0.000000 0.000002 0.000000 0.000000 1.046591
    27 5.521277 0.000000 0.000000 0.000000 0.000000 1.360649
    28 -0.000004 0.001486 -3.418189 -0.000014 1.370796 -3.090069
    29 5.304816 0.000000 0.000000 -0.203056 -0.692466 0.455496
    30 18.340565 0.000000 -0.000002 0.000000 0.000000 -1.525186
    31 14.370207 0.000000 0.000002 0.107781 0.060935 0.439518
    32 -0.620573 0.325966 1.592587 -1.831051 -0.658385 0.712192
    33 3.927999 -0.000001 0.000000 0.000000 0.000000 -0.017399
    34 2.779240 0.000001 0.000000 0.000000 0.000000 0.662865
    35 5.246641 0.034821 2.517334 0.282593 -0.223176 -0.924862
    36 6.313238 0.000002 0.000002 0.000000 0.000000 0.610729
    37 3.098980 0.000000 0.000001 0.000000 0.000000 0.540799
    38 5.603580 -0.087754 0.344059 0.000333 0.009958 -0.505592
    39 4.532814 0.000000 -0.000002 0.000000 0.000000 0.697778
    40 6.615754 0.000002 0.000000 0.000000 0.000000 1.029133
    41 5.434061 -0.010812 -1.636234 0.213574 0.230459 0.792118
    42 4.623351 0.000001 -0.000002 0.000000 0.000000 0.662858
    43 5.521277 0.000000 0.000000 0.000000 0.000000 0.558278
    44 4.170006 3.279094 -1.198655 -1.589498 -1.079060 4.695854
    45 3.754124 3.204277 1.399633 1.551969 -1.021144 1.554280
    46 0.050228 4.476613 -0.976787 -1.570740 -1.024728 4.711886
    47 0.921745 4.255628 1.163094 1.570681 -1.069875 1.570164
    48 -0.000008 0.000008 4.504590 -3.128608 -0.031160 3.023628
    49 18.184616 0.000000 0.000000 0.000000 0.000000 -0.658587
    50 16.862097 0.000000 0.000000 0.003011 -0.033510 0.295340
    51 0.000011 -0.000005 -4.504589 3.297754 0.031191 3.261839
    52 18.184610 0.000000 0.000000 0.000000 0.000000 -0.604143
    53 16.862089 0.000000 0.000000 -0.154520 0.010918 0.475636
  time 5
    0 0.147881 4.499529 36.327951 0.000000 -0.200901 -1.563700
    1 1.964904 0.472671 0.000000 0.000000 -1.570451 -1.570795
    2 1.576611 -0.003992 0.000002 -0.246241 0.008877 -0.155551
    3 5.015457 -0.003840 0.000000 0.151356 0.066635 -0.100203
    4 4.822693 -0.003838 0.000000 0.116970 0.061852 -0.006081
    5 4.822556 -0.004685 0.000000 0.000024 0.029985 0.000000
    6 5.883453 -0.001475 0.000000 0.000000 0.000000 -0.052333
    7 1.854832 0.000000 0.000000 -0.220353 -0.062052 0.417651
    8 4.577744 2.974503 -4.899295 0.000000 -1.570796 1.653878
    9 -0.576364 -6.294613 1.187798 1.919571 0.000000 0.000000
    10 4.598343 3.014902 4.786890 1.878017 -1.547266 0.227187
    11 0.671572 -6.281569 1.205063 1.002675 0.000000 0.000000
    12 0.988842 0.018080 3.418189 -0.000014 -1.370796 -3.090042
    13 5.304816 0.000000 0.000000 0.586278 1.016166 0.762167
    14 18.707375 0.000000 -0.000002 0.000000 0.000000 -1.163023
    15 13.951651 0.000000 -0.000004 0.063585 -0.128485 -0.643804
    16 -0.620571 0.325967 -1.592585 1.860746 0.900460 0.815947
    17 3.570904 0.000002 -0.000001 0.000000 0.000000 0.261641
    18 2.779234 -0.000001 0.000000 0.000000 0.000000 0.662870
    19 5.246642 0.034821 -2.517332 -0.208765 0.146827 -0.524865
    20 6.439503 -0.000001 0.000000 0.000000 0.000000 0.139624
    21 3.098978 0.000000 0.000000 0.000000 0.000000 0.750085
    22 5.603584 -0.087752 -0.344059 0.001098 -0.061426 -0.160349
    23 4.928793 0.000000 -0.000004 0.000000 0.000000 1.116339
    24 6.254896 0.000002 -0.000002 0.000000 0.000000 0.680288
    25 5.434063 -0.010812 1.636232 0.312821 -0.103788 -1.075137
    26 4.854518 0.000000 0.000002 0.000000 0.000000 1.046559
    27 5.521277 0.000000 0.000000 0.000000 0.000000 1.360617
    28 -0.000004 0.001486 -3.418189 -0.000014 1.370796 -3.090069
    29 5.304816 0.000000 0.000000 -0.116858 -0.783570 0.415017
    30 18.340565 0.000000 -0.000002 0.000000 0.000000 -1.418306
    31 14.370207 0.000000 0.000002 0.107781 0.060977 0.439518
    32 -0.620573 0.325966 1.592587 -1.879672 -0.837513 0.783661
    33 3.927999 -0.000001 0.000000 0.000000 0.000000 -0.017399
    34 2.779240 0.000001 0.000000 0.000000 0.000000 0.662888
    35 5.246641 0.034821 2.517334 0.334931 -0.129013 -1.222017
    36 6.313238 0.000002 0.000002 0.000000 0.000000 0.610687
    37 3.098980 0.000000 0.000001 0.000000 0.000000 0.540799
    38 5.603580 -0.087754 0.344059 0.004707 0.008736 -0.041057
    39 4.532814 0.000000 -0.000002 0.000000 0.000000 0.697778
    40 6.615754 0.000002 0.000000 0.000000 0.000000 1.029133
    41 5.434061 -0.010812 -1.636234 0.146052 0.277733 0.524963
    42 4.623351 0.000001 -0.000002 0.000000 0.000000 0.662858
    43 5.521277 0.000000 0.000000 0.000000 0.000000 0.558307
    44 4.170006 3.279094 -1.198655 -1.589498 -1.049821 4.695854
    45 3.754124 3.204277 1.399633 1.551969 -1.010607 1.554280
    46 0.050228 4.476613 -0.976787 -1.570740 -1.008428 4.711886
    47 0.921745 4.255628 1.163094 1.570681 -1.050841 1.570164
    48 -0.000008 0.000008 4.504590 -3.122640 -0.028966 2.949050
    49 18.184616 0.000000 0.000000 0.000000 0.000000 -0.676123
    50 16.862097 0.000000 0.000000 0.001137 -0.033949 0.282862
    51 0.000011 -0.000005 -4.504589 3.299320 0.034530 3.176518
    52 18.184610 0.000000 0.000000 0.000000 0.000000 -0.649357
    53 16.862089 0.000000 0.000000 -0.153474 0.007390 0.479963
  time 6
    0 0.147881 4.777395 36.375040 0.000096 -0.148759 -1.561304
    1 1.402387 0.421888 0.000000 0.000000 -1.570451 -1.570795
    2 1.576611 -0.003992 0.000002 -0.179702 0.010288 -0.113239
    3 5.015457 -0.003840 0.000000 0.134733 0.047947 -0.073479
    4 4.822693 -0.003838 0.000000 0.113842 0.048430 0.005242
    5 4.822556 -0.004685 0.000000 0.000000 0.021956 0.000000
    6 5.883453 -0.001475 0.000000 0.000000 0.000000 -0.052333
    7 1.854832 0.000000 0.000000 -0.222823 -0.023109 0.392507
    8 4.577744 2.974503 -4.899295 0.000000 -1.570796 1.819525
    9 -0.576364 -6.294613 1.187798 1.951488 0.000000 0.000000
    10 4.598343 3.014902 4.786890 2.068669 -1.541666 0.417548
    11 0.671572 -6.281569 1.205063 1.106348 0.000000 0.000000
    12 0.988842 0.018080 3.418189 -0.000014 -1.370796 -3.090042
    13 5.304816 0.000000 0.000000 0.644343 1.003641 0.834863
    14 18.707375 0.000000 -0.000002 0.000000 0.000000 -1.180469
    15 13.951651 0.000000 -0.000004 0.063585 -0.128453 -0.643745
    16 -0.620571 0.325967 -1.592585 1.860746 0.900460 0.815947
    17 3.570904 0.000002 -0.000001 0.000000 0.000000 0.261641
    18 2.779234 -0.000001 0.000000 0.000000 0.000000 0.662870
    19 5.246642 0.034821 -2.517332 -0.007577 0.254508 0.411756
    20 6.439503 -0.000001 0.000000 0.000000 0.000000 0.139652
    21 3.098978 0.000000 0.000000 0.000000 0.000000 0.750085
    22 5.603584 -0.087752 -0.344059 0.033570 -0.051550 -0.720525
    23 4.928793 0.000000 -0.000004 0.000000 0.000000 1.116339
    24 6.254896 0.000002 -0.000002 0.000000 0.000000 0.680288
    25 5.434063 -0.010812 1.636232 0.272233 -0.187232 -0.797078
    26 4.854518 0.000000 0.000002 0.000000 0.000000 1.046559
    27 5.521277 0.000000 0.000000 0.000000 0.000000 1.360586
    28 -0.000004 0.001486 -3.418189 -0.000014 1.370796 -3.090069
    29 5.304816 0.000000 0.000000 0.001519 -0.884624 0.345965
    30 18.340565 0.000000 -0.000002 0.000000 0.000000 -1.363800
    31 14.370207 0.000000 0.000002 0.107781 0.060977 0.439518
    32 -0.620573 0.325966 1.592587 -2.087159 -1.146147 1.028157
    33 3.927999 -0.000001 0.000000 0.000000 0.000000 -0.017399
    34 2.779240 0.000001 0.000000 0.000000 0.000000 0.662888
    35 5.246641 0.034821 2.517334 0.356356 -0.036366 -1.479001
    36 6.313238 0.000002 0.000002 0.000000 0.000000 0.610729
    37 3.098980 0.000000 0.000001 0.000000 0.000000 0.540799
    38 5.603580 -0.087754 0.344059 0.008758 0.004841 0.542023
    39 4.532814 0.000000 -0.000002 0.000000 0.000000 0.697778
    40 6.615754 0.000002 0.000000 0.000000 0.000000 1.029133
    41 5.434061 -0.010812 -1.636234 -0.030918 0.311379 -0.067855
    42 4.623351 0.000001 -0.000002 0.000000 0.000000 0.662858
    43 5.521277 0.000000 0.000000 0.000000 0.000000 0.558278
    44 4.170006 3.279094 -1.198655 -1.589591 -1.030292 4.695760
    45 3.754124 3.204277 1.399633 1.551969 -1.011057 1.554192
    46 0.050228 4.476613 -0.976787 -1.570740 -1.004005 4.711886
    47 0.921745 4.255628 1.163094 1.570681 -1.044304 1.570164
    48 -0.000008 0.000008 4.504590 -3.116206 -0.028088 2.865962
    49 18.184616 0.000000 0.000000 0.000000 0.000000 -0.688363
    50 16.862097 0.000000 0.000000 -0.001472 -0.036191 0.264585
    51 0.000011 -0.000005 -4.504589 3.301592 0.036721 3.081374
    52 18.184610 0.000000 0.000000 0.000000 0.000000 -0.691479
    53 16.862089 0.000000 0.000000 -0.153903 0.002147 0.479422
  time 7
    0 0.147881 5.047089 36.364576 0.000288 -0.093885 -1.560728
    1 0.820338 0.304697 0.000000 0.000000 -1.570451 -1.570795
    2 1.576611 -0.003992 0.000002 -0.111336 0.008777 -0.069760
    3 5.015457 -0.003840 0.000000 0.117044 0.029362 -0.045786
    4 4.822693 -0.003838 0.000000 0.110486 0.032466 0.017014
    5 4.822556 -0.004685 0.000000 0.000000 0.013603 0.000000
    6 5.883453 -0.001475 0.000000 0.000000 0.000000 -0.052333
    7 1.854832 0.000000 0.000000 -0.218755 0.015991 0.368685
    8 4.577744 2.974503 -4.899295 0.000000 -1.570796 1.983926
    9 -0.576364 -6.294613 1.187798 1.939735 0.000000 0.000000
    10 4.598343 3.014902 4.786890 2.242772 -1.543229 0.591663
    11 0.671572 -6.281569 1.205063 1.175519 0.000000 0.000000
    12 0.988842 0.018080 3.418189 -0.000014 -1.370796 -3.090042
    13 5.304816 0.000000 0.000000 0.670415 0.992407 0.869823
    14 18.707375 0.000000 -0.000002 0.000000 0.000000 -1.197610
    15 13.951651 0.000000 -0.000004 0.063585 -0.128453 -0.643864
    16 -0.620571 0.325967 -1.592585 1.860746 0.900460 0.815947
    17 3.570904 0.000002 -0.000001 0.000000 0.000000 0.261641
    18 2.779234 -0.000001 0.000000 0.000000 0.000000 0.662870
    19 5.246642 0.034821 -2.517332 0.129461 0.219867 0.980047
    20 6.439503 -0.000001 0.000000 0.000000 0.000000 0.139624
    21 3.098978 0.000000 0.000000 0.000000 0.000000 0.750085
    22 5.603584 -0.087752 -0.344059 0.044889 -0.042047 -0.961446
    23 4.928793 0.000000 -0.000004 0.000000 0.000000 1.116339
    24 6.254896 0.000002 -0.000002 0.000000 0.000000 0.680288
    25 5.434063 -0.010812 1.636232 0.211653 -0.253850 -0.522334
    26 4.854518 0.000000 0.000002 0.000000 0.000000 1.046591
    27 5.521277 0.000000 0.000000 0.000000 0.000000 1.360617
    28 -0.000004 0.001486 -3.418189 -0.000014 1.370796 -3.090069
    29 5.304816 0.000000 0.000000 0.149970 -0.980897 0.244665
    30 18.340565 0.000000 -0.000002 0.000000 0.000000 -1.316298
    31 14.370207 0.000000 0.000002 0.107871 0.060977 0.439518
    32 -0.620573 0.325966 1.592587 -2.584998 -1.328843 1.551556
    33 3.927999 -0.000001 0.000000 0.000000 0.000000 -0.017399
    34 2.779240 0.000001 0.000000 0.000000 0.000000 0.662888
    35 5.246641 0.034821 2.517334 0.351766 -0.068476 -1.391877
    36 6.313238 0.000002 0.000002 0.000000 0.000000 0.610687
    37 3.098980 0.000000 0.000001 0.000000 0.000000 0.540799
    38 5.603580 -0.087754 0.344059 0.009753 0.002096 0.828647
    39 4.532814 0.000000 -0.000002 0.000000 0.000000 0.697778
    40 6.615754 0.000002 0.000000 0.000000 0.000000 1.029133
    41 5.434061 -0.010812 -1.636234 -0.171361 0.263113 -0.554404
    42 4.623351 0.000001 -0.000002 0.000000 0.000000 0.662858
    43 5.521277 0.000000 0.000000 0.000000 0.000000 0.558307
    44 4.170006 3.279094 -1.198655 -1.589685 -1.019824 4.695666
    45 3.754124 3.204277 1.399633 1.551969 -1.020791 1.554192
    46 0.050228 4.476613 -0.976787 -1.570740 -1.009766 4.711886
    47 0.921745 4.255628 1.163094 1.570681 -1.048598 1.570164
    48 -0.000008 0.000008 4.504590 -3.110188 -0.029526 2.781918
    49 18.184616 0.000000 0.000000 0.000000 0.000000 -0.695951
    50 16.862097 0.000000 0.000000 -0.004992 -0.040578 0.243243
    51 0.000011 -0.000005 -4.504589 3.304687 0.037295 2.984733
    52 18.184610 0.000000 0.000000 0.000000 0.000000 -0.728514
    53 16.862089 0.000000 0.000000 -0.156452 -0.005252 0.475149
  time 8
    0 0.147881 5.300437 36.291326 0.000288 -0.042461 -1.563988
    1 0.292978 0.144536 0.000000 0.000000 -1.570451 -1.570795
    2 1.576611 -0.003992 0.000002 -0.048869 0.004819 -0.030195
    3 5.015457 -0.003840 0.000000 0.100451 0.012703 -0.020216
    4 4.822693 -0.003838 0.000000 0.107190 0.014933 0.027456
    5 4.822556 -0.004685 0.000000 0.000000 0.005908 0.000000
    6 5.883453 -0.001475 0.000000 0.000000 0.000000 -0.052333
    7 1.854832 0.000000 0.000000 -0.205571 0.047544 0.350660
    8 4.577744 2.974503 -4.899295 0.000000 -1.570796 2.115467
    9 -0.576364 -6.294613 1.187798 1.889624 0.000000 0.000000
    10 4.598343 3.014902 4.786890 2.371723 -1.553257 0.720768
    11 0.671572 -6.281569 1.205063 1.199581 0.000000 0.000000
    12 0.988842 0.018080 3.418189 -0.000014 -1.370796 -3.090042
    13 5.304816 0.000000 0.000000 0.665449 0.983497 0.868476
    14 18.707375 0.000000 -0.000002 0.000000 0.000000 -1.197686
    15 13.951651 0.000000 -0.000004 0.063585 -0.128453 -0.643864
    16 -0.620571 0.325967 -1.592585 1.846943 0.860696 0.797868
    17 3.570904 0.000002 -0.000001 0.000000 0.000000 0.261641
    18 2.779234 -0.000001 0.000000 0.000000 0.000000 0.662870
    19 5.246642 0.034821 -2.517332 0.001878 0.254612 0.448960
    20 6.439503 -0.000001 0.000000 0.000000 0.000000 0.139652
    21 3.098978 0.000000 0.000000 0.000000 0.000000 0.750085
    22 5.603584 -0.087752 -0.344059 -0.002574 -0.061390 -0.100142
    23 4.928793 0.000000 -0.000004 0.000000 0.000000 1.116339
    24 6.254896 0.000002 -0.000002 0.000000 0.000000 0.680326
    25 5.434063 -0.010812 1.636232 0.162842 -0.287342 -0.339980
    26 4.854518 0.000000 0.000002 0.000000 0.000000 1.086984
    27 5.521277 0.000000 0.000000 0.000000 0.000000 1.360586
    28 -0.000004 0.001486 -3.418189 -0.038301 1.366184 -3.127640
    29 5.304816 0.000000 0.000000 0.323514 -1.056494 0.121323
    30 18.340565 0.000000 -0.000002 0.000000 0.000000 -1.263162
    31 14.370207 0.000000 0.000002 0.102588 0.058840 0.448962
    32 -0.620573 0.325966 1.592587 -2.370936 -1.283311 1.329873
    33 3.927999 -0.000001 0.000000 0.000000 0.000000 -0.017399
    34 2.779240 0.000001 0.000000 0.000000 0.000000 0.662888
    35 5.246641 0.034821 2.517334 0.037166 -0.356287 -0.111575
    36 6.313238 0.000002 0.000002 0.000000 0.000000 0.610687
    37 3.098980 0.000000 0.000001 0.000000 0.000000 0.540799
    38 5.603580 -0.087754 0.344059 0.006912 0.007178 0.244929
    39 4.532814 0.000000 -0.000002 0.000000 0.000000 0.697778
    40 6.615754 0.000002 0.000000 0.000000 0.000000 1.029133
    41 5.434061 -0.010812 -1.636234 -0.223505 0.220839 -0.771272
    42 4.623351 0.000001 -0.000002 0.000000 0.000000 0.662858
    43 5.521277 0.000000 0.000000 0.000000 0.000000 0.558278
    44 4.170006 3.279094 -1.198655 -1.589685 -1.017793 4.695666
    45 3.754124 3.204277 1.399633 1.551969 -1.038065 1.554105
    46 0.050228 4.476613 -0.976787 -1.570740 -1.024100 4.711886
    47 0.921745 4.255628 1.163094 1.570681 -1.062092 1.570164
    48 -0.000008 0.000008 4.504590 -3.107424 -0.033744 2.704853
    49 18.184616 0.000000 0.000000 0.000000 0.000000 -0.701033
    50 16.862097 0.000000 0.000000 -0.007245 -0.046208 0.222776
    51 0.000011 -0.000005 -4.504589 3.307820 0.036146 2.895296
    52 18.184610 0.000000 0.000000 0.000000 0.000000 -0.759623
    53 16.862089 0.000000 0.000000 -0.161980 -0.013680 0.468983
  time 9
    0 0.147881 5.553786 36.170988 0.000000 0.000000 -1.570986
    1 -0.082034 -0.007813 0.000000 0.000000 -1.570451 -1.570795
    2 1.576611 -0.003992 0.000002 -0.000004 -0.000001 0.000646
    3 5.015457 -0.003840 0.000000 0.087140 0.000000 0.000000
    4 4.822693 -0.003838 0.000000 0.104590 -0.003655 0.034716
    5 4.822556 -0.004685 0.000000 0.000000 0.000000 0.000000
    6 5.883453 -0.001475 0.000000 0.000000 0.000000 -0.052333
    7 1.854832 0.000000 0.000000 -0.181600 0.062109 0.342674
    8 4.577744 2.974503 -4.899295 0.000000 -1.570796 2.182051
    9 -0.576364 -6.294613 1.187798 1.806403 0.000000 0.000000
    10 4.598343 3.014902 4.786890 0.000000 -1.570796 3.202625
    11 0.671572 -6.281569 1.205063 1.169322 0.000000 0.000000
    12 0.988842 0.018080 3.418189 -0.000014 -1.370796 -3.090042
    13 5.304816 0.000000 0.000000 0.628203 0.979107 0.833436
    14 18.707375 0.000000 -0.000002 0.000000 0.000000 -1.197686
    15 13.951651 0.000000 -0.000004 0.063585 -0.128453 -0.643864
    16 -0.620571 0.325967 -1.592585 1.860746 0.900460 0.815947
    17 3.570904 0.000002 -0.000001 0.000000 0.000000 0.261641
    18 2.779234 -0.000001 0.000000 0.000000 0.000000 0.662870
    19 5.246642 0.034821 -2.517332 -0.190682 0.169759 -0.410144
    20 6.439503 -0.000001 0.000000 0.000000 0.000000 0.139652
    21 3.098978 0.000000 0.000000 0.000000 0.000000 0.750085
    22 5.603584 -0.087752 -0.344059 -0.045423 -0.041483 0.690309
    23 4.928793 0.000000 -0.000004 0.000000 0.000000 1.116339
    24 6.254896 0.000002 -0.000002 0.000000 0.000000 0.680326
    25 5.434063 -0.010812 1.636232 0.109195 -0.311105 -0.158269
    26 4.854518 0.000000 0.000002 0.000000 0.000000 1.046591
    27 5.521277 0.000000 0.000000 0.000000 0.000000 1.360586
    28 -0.000004 0.001486 -3.418189 -0.000014 1.370796 -3.090069
    29 5.304816 0.000000 0.000000 0.478956 -1.116584 -0.009638
    30 18.340565 0.000000 -0.000002 0.000000 0.000000 -1.228906
    31 14.370207 0.000000 0.000002 0.107871 0.060977 0.439518
    32 -0.620573 0.325966 1.592587 -2.192420 -1.214130 1.142219
    33 3.927999 -0.000001 0.000000 0.000000 0.000000 -0.017399
    34 2.779240 0.000001 0.000000 0.000000 0.000000 0.662888
    35 5.246641 0.034821 2.517334 -0.311150 -0.180461 1.056475
    36 6.313238 0.000002 0.000002 0.000000 0.000000 0.610687
    37 3.098980 0.000000 0.000001 0.000000 0.000000 0.540799
    38 5.603580 -0.087754 0.344059 0.000333 0.009970 -0.505592
    39 4.532814 0.000000 -0.000002 0.000000 0.000000 0.697778
    40 6.615754 0.000002 0.000000 0.000000 0.000000 1.029133
    41 5.434061 -0.010812 -1.636234 -0.202330 0.240322 -0.678678
    42 4.623351 0.000001 -0.000002 0.000000 0.000000 0.662858
    43 5.521277 0.000000 0.000000 0.000000 0.000000 0.558307
    44 4.170006 3.279094 -1.198655 -1.589685 -1.023619 4.695666
    45 3.754124 3.204277 1.399633 1.551969 -1.061156 1.554105
    46 0.050228 4.476613 -0.976787 -1.570833 -1.045424 4.711886
    47 0.921745 4.255628 1.163094 1.570681 -1.083101 1.570164
    48 -0.000008 0.000008 4.504590 -3.130149 -0.049079 2.640506
    49 18.184616 0.000000 0.000000 0.000000 0.000000 -0.707045
    50 16.862097 0.000000 0.000000 0.013495 -0.048304 0.206140
    51 0.000011 -0.000005 -4.504589 3.310993 0.033956 2.820734
    52 18.184610 0.000000 0.000000 0.000000 0.000000 -0.785128
    53 16.862089 0.000000 0.000000 -0.171130 -0.021667 0.463196
  time 10
    0 0.147881 5.766272 36.029721 -0.001822 0.038484 -1.588051
    1 -0.140629 -0.175787 0.000000 0.000000 -1.570451 -1.570795
    2 1.576611 -0.003992 0.000002 0.009691 -0.001150 0.006691
    3 5.015457 -0.003840 0.000000 0.084448 -0.002626 0.004108
    4 4.822693 -0.003838 0.000000 0.104038 -0.053835 0.031241
    5 4.822556 -0.004685 0.000000 0.000000 -0.001163 0.000000
    6 5.883453 -0.001475 0.000000 0.000000 0.000000 -0.052333
    7 1.854832 0.000000 0.000000 -0.034977 -0.069794 0.372017
    8 4.577744 2.974503 -4.899295 -0.911139 -1.560674 3.060296
    9 -0.576364 -6.294613 1.187798 1.560737 0.000000 0.000000
    10 4.598343 3.014902 4.786890 -0.963498 -1.529815 3.930812
    11 0.671572 -6.281569 1.205063 0.936351 0.000000 0.000000
    12 0.988842 0.018080 3.418189 -0.000014 -1.370796 -3.090042
    13 5.304816 0.000000 0.000000 0.538051 0.951474 0.765496
    14 18.707375 0.000000 -0.000002 0.000000 0.000000 -1.197610
    15 13.951651 0.000000 -0.000004 0.063585 -0.128485 -0.643804
    16 -0.620571 0.325967 -1.592585 2.145152 1.237682 1.135024
    17 3.570904 0.000002 -0.000001 0.000000 0.000000 0.310472
    18 2.779234 -0.000001 0.000000 0.000000 0.000000 0.662870
    19 5.246642 0.034821 -2.517332 -0.243097 0.076437 -0.830370
    20 6.439503 -0.000001 0.000000 0.000000 0.000000 0.139652
    21 3.098978 0.000000 0.000000 0.000000 0.000000 0.750085
    22 5.603584 -0.087752 -0.344059 -0.001265 -0.061438 -0.122031
    23 4.928793 0.000000 -0.000004 0.000000 0.000000 1.116339
    24 6.254896 0.000002 -0.000002 0.000000 0.000000 0.680288
    25 5.434063 -0.010812 1.636232 0.008148 -0.328961 0.160468
    26 4.854518 0.000000 0.000002 0.000000 0.000000 0.689179
    27 5.521277 0.000000 0.000000 0.000000 0.000000 1.360617
    28 -0.000004 0.001486 -3.418189 0.324752 1.394055 -2.770056
    29 5.304816 0.000000 0.000000 0.496292 -1.204974 -0.076650
    30 18.340565 0.000000 -0.000002 0.000000 0.000000 -1.223425
    31 14.370207 0.000000 0.000002 0.145297 0.077154 0.371315
    32 -0.620573 0.325966 1.592587 -3.188891 -1.365726 2.170146
    33 3.927999 -0.000001 0.000000 0.000000 0.000000 -0.017399
    34 2.779240 0.000001 0.000000 0.000000 0.000000 0.662888
    35 5.246641 0.034821 2.517334 -0.048380 -0.354898 0.133329
    36 6.313238 0.000002 0.000002 0.000000 0.000000 0.610687
    37 3.098980 0.000000 0.000001 0.000000 0.000000 0.540799
    38 5.603580 -0.087754 0.344059 -0.001177 0.009886 -0.656559
    39 4.532814 0.000000 -0.000002 0.000000 0.000000 0.697778
    40 6.615754 0.000002 0.000000 0.000000 0.000000 1.029133
    41 5.434061 -0.010812 -1.636234 0.007290 0.312812 0.056419
    42 4.623351 0.000001 -0.000002 0.000000 0.000000 0.662858
    43 5.521277 0.000000 0.000000 0.000000 0.000000 0.558307
    44 4.170006 3.279094 -1.198655 -1.589871 -1.036542 4.695479
    45 3.754124 3.204277 1.399633 1.551881 -1.088320 1.554017
    46 0.050228 4.476613 -0.976787 -1.570740 -1.072045 4.711886
    47 0.921745 4.255628 1.163094 1.570681 -1.110013 1.570164
    48 -0.000008 0.000008 4.504590 -3.174866 -0.075459 2.588396
    49 18.184616 0.000000 0.000000 0.000000 0.000000 -0.722650
    50 16.862097 0.000000 0.000000 0.049176 -0.047256 0.205538
    51 0.000011 -0.000005 -4.504589 3.313304 0.029827 2.762544
    52 18.184610 0.000000 0.000000 0.000000 0.000000 -0.804901
    53 16.862089 0.000000 0.000000 -0.188089 -0.027694 0.464169
  time 11
    0 0.147881 5.929722 35.909382 -0.005561 0.079364 -1.614319
    1 -0.039064 -0.250008 0.000000 0.000000 -1.570451 -1.570795
    2 1.576611 -0.003992 0.000002 -0.000004 -0.000001 0.000646
    3 5.015457 -0.003840 0.000000 0.087140 0.000000 0.000000
    4 4.822693 -0.003838 0.000000 0.104877 -0.090472 0.025623
    5 4.822556 -0.004685 0.000000 0.000000 0.000000 0.000000
    6 5.883453 -0.001475 0.000000 0.000000 0.000000 -0.052333
    7 1.854832 0.000000 0.000000 0.052663 -0.155930 0.392598
    8 4.577744 2.974503 -4.899295 -0.968738 -1.543864 3.002238
    9 -0.576364 -6.294613 1.187798 1.135087 0.000000 0.000000
    10 4.598343 3.014902 4.786890 -1.233740 -1.467170 3.650335
    11 0.671572 -6.281569 1.205063 0.504185 0.000000 0.000000
    12 0.988842 0.018080 3.418189 -0.000014 -1.370796 -3.090042
    13 5.304816 0.000000 0.000000 0.469958 0.929716 0.722053
    14 18.707375 0.000000 -0.000002 0.000000 0.000000 -1.197686
    15 13.951651 0.000000 -0.000004 0.063585 -0.128453 -0.643804
    16 -0.620571 0.325967 -1.592585 3.214682 1.391849 2.231326
    17 3.570904 0.000002 -0.000001 0.000000 0.000000 0.261641
    18 2.779234 -0.000001 0.000000 0.000000 0.000000 0.662870
    19 5.246642 0.034821 -2.517332 -0.253603 0.022588 -1.042213
    20 6.439503 -0.000001 0.000000 0.000000 0.000000 0.139624
    21 3.098978 0.000000 0.000000 0.000000 0.000000 0.750085
    22 5.603584 -0.087752 -0.344059 0.049918 -0.035911 -1.090534
    23 4.928793 0.000000 -0.000004 0.000000 0.000000 1.116339
    24 6.254896 0.000002 -0.000002 0.000000 0.000000 0.680288
    25 5.434063 -0.010812 1.636232 -0.034335 -0.327359 0.292000
    26 4.854518 0.000000 0.000002 0.000000 0.000000 0.401302
    27 5.521277 0.000000 0.000000 0.000000 0.000000 1.360617
    28 -0.000004 0.001486 -3.418189 0.777299 1.392104 -2.320904
    29 5.304816 0.000000 0.000000 0.429441 -1.275984 -0.086038
    30 18.340565 0.000000 -0.000002 0.000000 0.000000 -1.228906
    31 14.370207 0.000000 0.000002 0.189617 0.100581 0.288749
    32 -0.620573 0.325966 1.592587 -3.933084 -1.277271 2.934933
    33 3.927999 -0.000001 0.000000 0.000000 0.000000 -0.017399
    34 2.779240 0.000001 0.000000 0.000000 0.000000 0.662865
    35 5.246641 0.034821 2.517334 0.299892 -0.198788 -1.007826
    36 6.313238 0.000002 0.000002 0.000000 0.000000 0.610687
    37 3.098980 0.000000 0.000001 0.000000 0.000000 0.540799
    38 5.603580 -0.087754 0.344059 0.000333 0.009970 -0.505592
    39 4.532814 0.000000 -0.000002 0.000000 0.000000 0.697778
    40 6.615754 0.000002 0.000000 0.000000 0.000000 1.029133
    41 5.434061 -0.010812 -1.636234 0.217518 0.226724 0.809723
    42 4.623351 0.000001 -0.000002 0.000000 0.000000 0.662858
    43 5.521277 0.000000 0.000000 0.000000 0.000000 0.558278
    44 4.170006 3.279094 -1.198655 -1.589871 -1.055982 4.695385
    45 3.754124 3.204277 1.399633 1.551881 -1.117835 1.554017
    46 0.050228 4.476613 -0.976787 -1.570833 -1.102188 4.711886
    47 0.921745 4.255628 1.163094 1.570681 -1.141142 1.570164
    48 -0.000008 0.000008 4.504590 -3.218360 -0.103447 2.538773
    49 18.184616 0.000000 0.000000 0.000000 0.000000 -0.744768
    50 16.862097 0.000000 0.000000 0.075689 -0.045233 0.215169
    51 0.000011 -0.000005 -4.504589 3.314949 0.026380 2.708002
    52 18.184610 0.000000 0.000000 0.000000 0.000000 -0.821518
    53 16.862089 0.000000 0.000000 -0.214118 -0.030144 0.467307
  time 12
    0 0.147881 6.134036 35.778580 -0.010930 0.118279 -1.644805
    1 -0.066408 -0.082034 0.000000 0.000000 -1.570451 -1.570795
    2 1.576611 -0.003992 0.000002 -0.000004 -0.000001 0.000646
    3 5.015457 -0.003840 0.000000 0.087140 0.000000 0.000000
    4 4.822693 -0.003838 0.000000 0.104602 -0.029842 0.031968
    5 4.822556 -0.004685 0.000000 0.000000 0.000000 0.000000
    6 5.883453 -0.001475 0.000000 0.000000 0.000000 -0.052333
    7 1.854832 0.000000 0.000000 -0.259397 0.181147 0.383927
    8 4.577744 2.974503 -4.899295 -1.046464 -1.540698 2.924349
    9 -0.576364 -6.294613 1.187798 0.701264 0.000000 0.000000
    10 4.598343 3.014902 4.786890 -1.475953 -1.409952 3.314720
    11 0.671572 -6.281569 1.205063 0.090497 0.000000 0.000000
    12 0.988842 0.018080 3.418189 -0.000014 -1.370796 -3.090042
    13 5.304816 0.000000 0.000000 0.507586 0.982464 0.756063
    14 18.707375 0.000000 -0.000002 0.000000 0.000000 -1.197686
    15 13.951651 0.000000 -0.000004 0.063585 -0.128485 -0.643804
    16 -0.620571 0.325967 -1.592585 2.702475 1.373406 1.710685
    17 3.570904 0.000002 -0.000001 0.000000 0.000000 -0.023878
    18 2.779234 -0.000001 0.000000 0.000000 0.000000 0.662870
    19 5.246642 0.034821 -2.517332 -0.253670 0.021445 -1.046525
    20 6.439503 -0.000001 0.000000 0.000000 0.000000 0.139652
    21 3.098978 0.000000 0.000000 0.000000 0.000000 0.750085
    22 5.603584 -0.087752 -0.344059 0.056735 -0.023638 -1.319569
    23 4.928793 0.000000 -0.000004 0.000000 0.000000 1.116339
    24 6.254896 0.000002 -0.000002 0.000000 0.000000 0.680326
    25 5.434063 -0.010812 1.636232 0.072839 -0.321201 -0.041780
    26 4.854518 0.000000 0.000002 0.000000 0.000000 0.496788
    27 5.521277 0.000000 0.000000 0.000000 0.000000 1.360586
    28 -0.000004 0.001486 -3.418189 1.137958 1.359510 -1.960771
    29 5.304816 0.000000 0.000000 0.428291 -1.254080 -0.152165
    30 18.340565 0.000000 -0.000002 0.000000 0.000000 -1.228906
    31 14.370207 0.000000 0.000002 0.230535 0.126606 0.209529
    32 -0.620573 0.325966 1.592587 -2.690041 -1.342736 1.660010
    33 3.927999 -0.000001 0.000000 0.000000 0.000000 -0.017399
    34 2.779240 0.000001 0.000000 0.000000 0.000000 0.662888
    35 5.246641 0.034821 2.517334 0.299605 -0.199167 -1.006972
    36 6.313238 0.000002 0.000002 0.000000 0.000000 0.610729
    37 3.098980 0.000000 0.000001 0.000000 0.000000 0.540799
    38 5.603580 -0.087754 0.344059 0.004599 0.008796 -0.052390
    39 4.532814 0.000000 -0.000002 0.000000 0.000000 0.697778
    40 6.615754 0.000002 0.000000 0.000000 0.000000 1.029133
    41 5.434061 -0.010812 -1.636234 0.275908 0.149492 1.119305
    42 4.623351 0.000001 -0.000002 0.000000 0.000000 0.662858
    43 5.521277 0.000000 0.000000 0.000000 0.000000 0.558307
    44 4.170006 3.279094 -1.198655 -1.589871 -1.081269 4.695385
    45 3.754124 3.204277 1.399633 1.551881 -1.147956 1.553929
    46 0.050228 4.476613 -0.976787 -1.570740 -1.134351 4.711886
    47 0.921745 4.255628 1.163094 1.570681 -1.174839 1.570164
    48 -0.000008 0.000008 4.504590 -3.259505 -0.126364 2.489723
    49 18.184616 0.000000 0.000000 0.000000 0.000000 -0.766456
    50 16.862097 0.000000 0.000000 0.093441 -0.037239 0.223597
    51 0.000011 -0.000005 -4.504589 3.316359 0.028498 2.652244
    52 18.184610 0.000000 0.000000 0.000000 0.000000 -0.837298
    53 16.862089 0.000000 0.000000 -0.244923 -0.026224 0.465359
  time 13
    0 0.147881 6.256624 35.668706 -0.016778 0.150772 -1.673757
    1 -0.101566 0.062502 0.000000 0.000000 -1.570451 -1.570795
    2 1.576611 -0.003992 0.000002 -0.000004 -0.000001 0.000646
    3 5.015457 -0.003840 0.000000 0.087140 0.000000 0.000000
    4 4.822693 -0.003838 0.000000 0.104602 0.028248 0.038018
    5 4.822556 -0.004685 0.000000 0.000000 0.000000 0.000000
    6 5.883453 -0.001475 0.000000 0.000000 0.000000 -0.052333
    7 1.854832 0.000000 0.000000 -0.568950 0.441765 0.256744
    8 4.577744 2.974503 -4.899295 0.000000 -1.570796 1.726019
    9 -0.576364 -6.294613 1.187798 0.431616 0.000000 0.000000
    10 4.598343 3.014902 4.786890 -1.554682 -1.370273 3.077438
    11 0.671572 -6.281569 1.205063 -0.087874 0.000000 0.000000
    12 0.988842 0.018080 3.418189 -0.000014 -1.370796 -3.090042
    13 5.304816 0.000000 0.000000 0.546837 1.032888 0.792054
    14 18.707375 0.000000 -0.000002 0.000000 0.000000 -1.197610
    15 13.951651 0.000000 -0.000004 0.063585 -0.128453 -0.643804
    16 -0.620571 0.325967 -1.592585 2.091513 1.205800 1.078267
    17 3.570904 0.000002 -0.000001 0.000000 0.000000 -0.396198
    18 2.779234 -0.000001 0.000000 0.000000 0.000000 0.662870
    19 5.246642 0.034821 -2.517332 -0.250317 0.046872 -0.947899
    20 6.439503 -0.000001 0.000000 0.000000 0.000000 0.139652
    21 3.098978 0.000000 0.000000 0.000000 0.000000 0.750085
    22 5.603584 -0.087752 -0.344059 0.056400 -0.024381 -1.306537
    23 4.928793 0.000000 -0.000004 0.000000 0.000000 1.116339
    24 6.254896 0.000002 -0.000002 0.000000 0.000000 0.680288
    25 5.434063 -0.010812 1.636232 0.216127 -0.250187 -0.540050
    26 4.854518 0.000000 0.000002 0.000000 0.000000 0.725510
    27 5.521277 0.000000 0.000000 0.000000 0.000000 1.360586
    28 -0.000004 0.001486 -3.418189 1.371123 1.310043 -1.725906
    29 5.304816 0.000000 0.000000 0.442083 -1.232564 -0.229790
    30 18.340565 0.000000 -0.000002 0.000000 0.000000 -1.228906
    31 14.370207 0.000000 0.000002 0.267961 0.154601 0.134308
    32 -0.620573 0.325966 1.592587 -1.933639 -0.960664 0.852553
    33 3.927999 -0.000001 0.000000 0.000000 0.000000 -0.017399
    34 2.779240 0.000001 0.000000 0.000000 0.000000 0.662888
    35 5.246641 0.034821 2.517334 0.224430 -0.281588 -0.693007
    36 6.313238 0.000002 0.000002 0.000000 0.000000 0.610729
    37 3.098980 0.000000 0.000001 0.000000 0.000000 0.540799
    38 5.603580 -0.087754 0.344059 0.008662 0.004948 0.520933
    39 4.532814 0.000000 -0.000002 0.000000 0.000000 0.697778
    40 6.615754 0.000002 0.000000 0.000000 0.000000 1.029133
    41 5.434061 -0.010812 -1.636234 0.295350 0.104870 1.272131
    42 4.623351 0.000001 -0.000002 0.000000 0.000000 0.662858
    43 5.521277 0.000000 0.000000 0.000000 0.000000 0.558307
    44 4.170006 3.279094 -1.198655 -1.589871 -1.117873 4.695385
    45 3.754124 3.204277 1.399633 1.551881 -1.183229 1.553929
    46 0.050228 4.476613 -0.976787 -1.570740 -1.173832 4.711886
    47 0.921745 4.255628 1.163094 1.570681 -1.216779 1.570164
    48 -0.000008 0.000008 4.504590 -3.295758 -0.148794 2.449088
    49 18.184616 0.000000 0.000000 0.000000 0.000000 -0.787214
    50 16.862097 0.000000 0.000000 0.108458 -0.030025 0.232954
    51 0.000011 -0.000005 -4.504589 3.317417 0.029360 2.605748
    52 18.184610 0.000000 0.000000 0.000000 0.000000 -0.850180
    53 16.862089 0.000000 0.000000 -0.273823 -0.022500 0.463358
  time 14
    0 0.147881 6.338349 35.595456 -0.021956 0.173201 -1.695519
    1 -0.042970 -0.218757 0.000000 0.000000 -1.570451 -1.570795
    2 1.576611 -0.003992 0.000002 -0.000004 -0.000001 0.000646
    3 5.015457 -0.003840 0.000000 0.087140 0.000000 0.000000
    4 4.822693 -0.003838 0.000000 0.104805 -0.081519 0.026539
    5 4.822556 -0.004685 0.000000 0.000000 0.000000 0.000000
    6 5.883453 -0.001475 0.000000 0.000000 0.000000 -0.052333
    7 1.854832 0.000000 0.000000 0.005193 -0.190181 0.397298
    8 4.577744 2.974503 -4.899295 1.918117 -1.477604 5.889131
    9 -0.576364 -6.294613 1.187798 0.420699 0.000000 0.000000
    10 4.598343 3.014902 4.786890 -1.373214 -1.329248 2.971745
    11 0.671572 -6.281569 1.205063 0.127177 0.000000 0.000000
    12 0.988842 0.018080 3.418189 -0.000014 -1.370796 -3.090042
    13 5.304816 0.000000 0.000000 0.382957 0.956187 0.655937
    14 18.707375 0.000000 -0.000002 0.000000 0.000000 -1.197686
    15 13.951651 0.000000 -0.000004 0.063585 -0.128485 -0.643804
    16 -0.620571 0.325967 -1.592585 1.911606 1.010785 0.878181
    17 3.570904 0.000002 -0.000001 0.000000 0.000000 -0.715055
    18 2.779234 -0.000001 0.000000 0.000000 0.000000 0.662870
    19 5.246642 0.034821 -2.517332 -0.242382 0.078602 -0.821746
    20 6.439503 -0.000001 0.000000 0.000000 0.000000 0.139652
    21 3.098978 0.000000 0.000000 0.000000 0.000000 0.750085
    22 5.603584 -0.087752 -0.344059 0.047858 -0.038523 -1.035741
    23 4.928793 0.000000 -0.000004 0.000000 0.000000 1.116339
    24 6.254896 0.000002 -0.000002 0.000000 0.000000 0.680288
    25 5.434063 -0.010812 1.636232 0.299923 -0.137463 -0.968001
    26 4.854518 0.000000 0.000002 0.000000 0.000000 0.933665
    27 5.521277 0.000000 0.000000 0.000000 0.000000 1.360617
    28 -0.000004 0.001486 -3.418189 1.443676 1.285609 -1.651897
    29 5.304816 0.000000 0.000000 0.440646 -1.358623 -0.254485
    30 18.340565 0.000000 -0.000002 0.000000 0.000000 -1.228906
    31 14.370207 0.000000 0.000002 0.283272 0.167509 0.102305
    32 -0.620573 0.325966 1.592587 -1.833074 -0.668067 0.715754
    33 3.927999 -0.000001 0.000000 0.000000 0.000000 -0.017399
    34 2.779240 0.000001 0.000000 0.000000 0.000000 0.662888
    35 5.246641 0.034821 2.517334 0.158809 -0.322325 -0.473460
    36 6.313238 0.000002 0.000002 0.000000 0.000000 0.610687
    37 3.098980 0.000000 0.000001 0.000000 0.000000 0.540799
    38 5.603580 -0.087754 0.344059 0.009753 0.001928 0.846059
    39 4.532814 0.000000 -0.000002 0.000000 0.000000 0.697778
    40 6.615754 0.000002 0.000000 0.000000 0.000000 1.029133
    41 5.434061 -0.010812 -1.636234 0.288468 0.122951 1.211578
    42 4.623351 0.000001 -0.000002 0.000000 0.000000 0.662858
    43 5.521277 0.000000 0.000000 0.000000 0.000000 0.558307
    44 4.170006 3.279094 -1.198655 -1.589871 -1.169653 4.695385
    45 3.754124 3.204277 1.399633 1.551881 -1.228078 1.553929
    46 0.050228 4.476613 -0.976787 -1.570740 -1.225162 4.711886
    47 0.921745 4.255628 1.163094 1.570681 -1.271945 1.570164
    48 -0.000008 0.000008 4.504590 -3.320979 -0.179196 2.424802
    49 18.184616 0.000000 0.000000 0.000000 0.000000 -0.800026
    50 16.862097 0.000000 0.000000 0.125222 -0.036849 0.238591
    51 0.000011 -0.000005 -4.504589 3.322117 0.016613 2.577401
    52 18.184610 0.000000 0.000000 0.000000 0.000000 -0.856814
    53 16.862089 0.000000 0.000000 -0.293626 -0.032055 0.465359
  time 15
    0 0.147881 6.371039 35.715795 -0.023682 0.181444 -1.704243
    1 -0.097659 0.082034 0.000000 0.000000 -1.570451 -1.570795
    2 1.576611 -0.003992 0.000002 -0.000004 -0.000001 0.000646
    3 5.015457 -0.003840 0.000000 0.087140 0.000000 0.000000
    4 4.822693 -0.003838 0.000000 0.104625 0.037236 0.038986
    5 4.822556 -0.004685 0.000000 0.000000 0.000000 0.000000
    6 5.883453 -0.001475 0.000000 0.000000 0.000000 -0.052333
    7 1.854832 0.000000 0.000000 -0.264409 0.369724 0.535891
    8 4.577744 2.974503 -4.899295 1.791131 -1.340536 5.762094
    9 -0.576364 -6.294613 1.187798 0.560176 0.000000 0.000000
    10 4.598343 3.014902 4.786890 -1.070160 -1.283274 2.966298
    11 0.671572 -6.281569 1.205063 0.586754 0.000000 0.000000
    12 0.988842 0.018080 3.418189 -0.000014 -1.370796 -3.090042
    13 5.304816 0.000000 0.000000 0.542444 1.043347 0.787456
    14 18.707375 0.000000 -0.000002 0.000000 0.000000 -1.197686
    15 13.951651 0.000000 -0.000004 0.063585 -0.128485 -0.643745
    16 -0.620571 0.325967 -1.592585 1.885296 0.959553 0.846716
    17 3.570904 0.000002 -0.000001 0.000000 0.000000 -0.719447
    18 2.779234 -0.000001 0.000000 0.000000 0.000000 0.662870
    19 5.246642 0.034821 -2.517332 -0.216767 0.134616 -0.581925
    20 6.439503 -0.000001 0.000000 0.000000 0.000000 0.139652
    21 3.098978 0.000000 0.000000 0.000000 0.000000 0.750085
    22 5.603584 -0.087752 -0.344059 -0.038255 -0.048075 0.531117
    23 4.928793 0.000000 -0.000004 0.000000 0.000000 1.116339
    24 6.254896 0.000002 -0.000002 0.000000 0.000000 0.680288
    25 5.434063 -0.010812 1.636232 0.313708 -0.100995 -1.083797
    26 4.854518 0.000000 0.000002 0.000000 0.000000 0.986340
    27 5.521277 0.000000 0.000000 0.000000 0.000000 1.360649
    28 -0.000004 0.001486 -3.418189 1.389405 1.304389 -1.707215
    29 5.304816 0.000000 0.000000 0.444190 -1.227266 -0.238498
    30 18.340565 0.000000 -0.000002 0.000000 0.000000 -1.228906
    31 14.370207 0.000000 0.000002 0.271632 0.157660 0.126767
    32 -0.620573 0.325966 1.592587 -1.827945 -0.642633 0.707038
    33 3.927999 -0.000001 0.000000 0.000000 0.000000 -0.017399
    34 2.779240 0.000001 0.000000 0.000000 0.000000 0.662888
    35 5.246641 0.034821 2.517334 0.185706 -0.308164 -0.559900
    36 6.313238 0.000002 0.000002 0.000000 0.000000 0.610687
    37 3.098980 0.000000 0.000001 0.000000 0.000000 0.540799
    38 5.603580 -0.087754 0.344059 0.009693 0.002444 0.800765
    39 4.532814 0.000000 -0.000002 0.000000 0.000000 0.697778
    40 6.615754 0.000002 0.000000 0.000000 0.000000 1.029133
    41 5.434061 -0.010812 -1.636234 0.232963 0.210808 0.880742
    42 4.623351 0.000001 -0.000002 0.000000 0.000000 0.662858
    43 5.521277 0.000000 0.000000 0.000000 0.000000 0.558307
    44 4.170006 3.279094 -1.198655 -1.589871 -1.233553 4.695385
    45 3.754124 3.204277 1.399633 1.551793 -1.280586 1.553929
    46 0.050228 4.476613 -0.976787 -1.570740 -1.286158 4.711886
    47 0.921745 4.255628 1.163094 1.570681 -1.337711 1.570164
    48 -0.000008 0.000008 4.504590 -3.314545 -0.167688 2.422603
    49 18.184616 0.000000 0.000000 0.000000 0.000000 -0.785353
    50 16.862097 0.000000 0.000000 0.105293 -0.030245 0.232845
    51 0.000011 -0.000005 -4.504589 3.321725 0.023615 2.573472
    52 18.184610 0.000000 0.000000 0.000000 0.000000 -0.839746
    53 16.862089 0.000000 0.000000 -0.303930 -0.022745 0.451026
  time 16
    0 0.147881 6.248451 36.014025 -0.022148 0.172242 -1.697149
    1 -0.039064 -0.230476 0.000000 0.000000 -1.570451 -1.570795
    2 1.576611 -0.003992 0.000002 -0.000004 -0.000001 0.000646
    3 5.015457 -0.003840 0.000000 0.087140 0.000000 0.000000
    4 4.822693 -0.003838 0.000000 0.104829 -0.084659 0.026194
    5 4.822556 -0.004685 0.000000 0.000000 0.000000 0.000000
    6 5.883453 -0.001475 0.000000 0.000000 0.000000 -0.052333
    7 1.854832 0.000000 0.000000 0.017033 0.093936 0.607765
    8 4.577744 2.974503 -4.899295 1.697400 -1.214571 5.668396
    9 -0.576364 -6.294613 1.187798 0.718803 0.000000 0.000000
    10 4.598343 3.014902 4.786890 -0.773610 -1.257617 3.032428
    11 0.671572 -6.281569 1.205063 1.046276 0.000000 0.000000
    12 0.988842 0.018080 3.418189 -0.000014 -1.370796 -3.090042
    13 5.304816 0.000000 0.000000 0.417719 0.946438 0.678214
    14 18.707375 0.000000 -0.000002 0.000000 0.000000 -1.197686
    15 13.951651 0.000000 -0.000004 0.063585 -0.128485 -0.643745
    16 -0.620571 0.325967 -1.592585 1.877607 0.942647 0.837242
    17 3.570904 0.000002 -0.000001 0.000000 0.000000 -0.637118
    18 2.779234 -0.000001 0.000000 0.000000 0.000000 0.662870
    19 5.246642 0.034821 -2.517332 -0.168934 0.191444 -0.289005
    20 6.439503 -0.000001 0.000000 0.000000 0.000000 0.139624
    21 3.098978 0.000000 0.000000 0.000000 0.000000 0.750085
    22 5.603584 -0.087752 -0.344059 -0.028453 -0.054535 0.340216
    23 4.928793 0.000000 -0.000004 0.000000 0.000000 1.116339
    24 6.254896 0.000002 -0.000002 0.000000 0.000000 0.680288
    25 5.434063 -0.010812 1.636232 0.317617 -0.087534 -1.125167
    26 4.854518 0.000000 0.000002 0.000000 0.000000 1.003619
    27 5.521277 0.000000 0.000000 0.000000 0.000000 1.360617
    28 -0.000004 0.001486 -3.418189 1.235110 1.342925 -1.863162
    29 5.304816 0.000000 0.000000 0.420534 -1.322699 -0.167268
    30 18.340565 0.000000 -0.000002 0.000000 0.000000 -1.228906
    31 14.370207 0.000000 0.000002 0.244503 0.136539 0.181854
    32 -0.620573 0.325966 1.592587 -1.848029 -0.732767 0.739097
    33 3.927999 -0.000001 0.000000 0.000000 0.000000 -0.017399
    34 2.779240 0.000001 0.000000 0.000000 0.000000 0.662888
    35 5.246641 0.034821 2.517334 0.241596 -0.267006 -0.756427
    36 6.313238 0.000002 0.000002 0.000000 0.000000 0.610729
    37 3.098980 0.000000 0.000001 0.000000 0.000000 0.540799
    38 5.603580 -0.087754 0.344059 0.008938 0.004457 0.580037
    39 4.532814 0.000000 -0.000002 0.000000 0.000000 0.697778
    40 6.615754 0.000002 0.000000 0.000000 0.000000 1.029133
    41 5.434061 -0.010812 -1.636234 0.097747 0.297735 0.355134
    42 4.623351 0.000001 -0.000002 0.000000 0.000000 0.662858
    43 5.521277 0.000000 0.000000 0.000000 0.000000 0.558278
    44 4.170006 3.279094 -1.198655 -1.589778 -1.306559 4.695479
    45 3.754124 3.204277 1.399633 1.551793 -1.338851 1.554017
    46 0.050228 4.476613 -0.976787 -1.570740 -1.354362 4.711886
    47 0.921745 4.255628 1.163094 1.570681 -1.411413 1.570164
    48 -0.000008 0.000008 4.504590 -3.274476 -0.154840 2.456737
    49 18.184616 0.000000 0.000000 0.000000 0.000000 -0.740043
    50 16.862097 0.000000 0.000000 0.069207 -0.046720 0.215060
    51 0.000011 -0.000005 -4.504589 3.323645 0.012304 2.609303
    52 18.184610 0.000000 0.000000 0.000000 0.000000 -0.796786
    53 16.862089 0.000000 0.000000 -0.296819 -0.030977 0.436639
  time 17
    0 0.147881 5.905205 36.307022 -0.017545 0.148088 -1.679029
    1 -0.019532 -0.355480 0.000000 0.000000 -1.570451 -1.570795
    2 1.576611 -0.003992 0.000002 -0.000004 -0.000001 0.000646
    3 5.015457 -0.003840 0.000000 0.087140 0.000000 0.000000
    4 4.822693 -0.003838 0.000000 0.105369 -0.130273 0.021336
    5 4.822556 -0.004685 0.000000 0.000000 0.000000 0.000000
    6 5.883453 -0.001475 0.000000 0.000000 0.000000 -0.052333
    7 1.854832 0.000000 0.000000 -0.049832 -0.216847 0.595489
    8 4.577744 2.974503 -4.899295 1.698742 -1.151923 5.669642
    9 -0.576364 -6.294613 1.187798 0.765037 0.000000 0.000000
    10 4.598343 3.014902 4.786890 -0.572053 -1.266430 3.096168
    11 0.671572 -6.281569 1.205063 1.261048 0.000000 0.000000
    12 0.988842 0.018080 3.418189 -0.000014 -1.370796 -3.090042
    13 5.304816 0.000000 0.000000 0.396709 0.905505 0.658316
    14 18.707375 0.000000 -0.000002 0.000000 0.000000 -1.197686
    15 13.951651 0.000000 -0.000004 0.063585 -0.128453 -0.643804
    16 -0.620571 0.325967 -1.592585 1.872326 0.930332 0.830636
    17 3.570904 0.000002 -0.000001 0.000000 0.000000 -0.548280
    18 2.779234 -0.000001 0.000000 0.000000 0.000000 0.662870
    19 5.246642 0.034821 -2.517332 -0.098862 0.235057 0.039063
    20 6.439503 -0.000001 0.000000 0.000000 0.000000 0.139652
    21 3.098978 0.000000 0.000000 0.000000 0.000000 0.750085
    22 5.603584 -0.087752 -0.344059 -0.000514 -0.061438 -0.134284
    23 4.928793 0.000000 -0.000004 0.000000 0.000000 1.116339
    24 6.254896 0.000002 -0.000002 0.000000 0.000000 0.680326
    25 5.434063 -0.010812 1.636232 0.321205 -0.072539 -1.170644
    26 4.854518 0.000000 0.000002 0.000000 0.000000 1.016127
    27 5.521277 0.000000 0.000000 0.000000 0.000000 1.360617
    28 -0.000004 0.001486 -3.418189 0.973900 1.378845 -2.124837
    29 5.304816 0.000000 0.000000 0.414021 -1.335686 -0.103930
    30 18.340565 0.000000 -0.000002 0.000000 0.000000 -1.228906
    31 14.370207 0.000000 0.000002 0.210390 0.113195 0.248877
    32 -0.620573 0.325966 1.592587 -1.891376 -0.868537 0.798971
    33 3.927999 -0.000001 0.000000 0.000000 0.000000 -0.017399
    34 2.779240 0.000001 0.000000 0.000000 0.000000 0.662888
    35 5.246641 0.034821 2.517334 0.277342 -0.229488 -0.902013
    36 6.313238 0.000002 0.000002 0.000000 0.000000 0.610729
    37 3.098980 0.000000 0.000001 0.000000 0.000000 0.540799
    38 5.603580 -0.087754 0.344059 0.007308 0.006866 0.291424
    39 4.532814 0.000000 -0.000002 0.000000 0.000000 0.697778
    40 6.615754 0.000002 0.000000 0.000000 0.000000 1.029133
    41 5.434061 -0.010812 -1.636234 -0.071945 0.304748 -0.202956
    42 4.623351 0.000001 -0.000002 0.000000 0.000000 0.662858
    43 5.521277 0.000000 0.000000 0.000000 0.000000 0.558307
    44 4.170006 3.279094 -1.198655 -1.589685 -1.385569 4.695479
    45 3.754124 3.204277 1.399633 1.551881 -1.400955 1.554017
    46 0.050228 4.476613 -0.976787 -1.570833 -1.427289 4.711886
    47 0.921745 4.255628 1.163094 1.570681 -1.490405 1.570164
    48 -0.000008 0.000008 4.504590 -3.237147 -0.132874 2.509420
    49 18.184616 0.000000 0.000000 0.000000 0.000000 -0.696309
    50 16.862097 0.000000 0.000000 0.041072 -0.054933 0.203404
    51 0.000011 -0.000005 -4.504589 3.322509 0.009755 2.666277
    52 18.184610 0.000000 0.000000 0.000000 0.000000 -0.753697
    53 16.862089 0.000000 0.000000 -0.279323 -0.031369 0.427336
  time 18
    0 0.147881 5.431198 36.579092 -0.011985 0.113822 -1.653433
    1 -0.050783 -0.292978 0.000000 0.000000 -1.570451 -1.570795
    2 1.576611 -0.003992 0.000002 -0.000004 -0.000001 0.000646
    3 5.015457 -0.003840 0.000000 0.087140 0.000000 0.000000
    4 4.822693 -0.003838 0.000000 0.104613 -0.108185 0.031535
    5 4.822556 -0.004685 0.000000 0.000000 0.000000 0.000000
    6 5.883453 -0.001475 0.000000 0.000000 0.000000 -0.052333
    7 1.854832 0.000000 0.000000 -0.106999 -0.131532 0.472824
    8 4.577744 2.974503 -4.899295 1.834642 -1.180594 5.805685
    9 -0.576364 -6.294613 1.187798 0.651033 0.000000 0.000000
    10 4.598343 3.014902 4.786890 -0.483758 -1.314662 3.131144
    11 0.671572 -6.281569 1.205063 1.129460 0.000000 0.000000
    12 0.988842 0.018080 3.418189 -0.000014 -1.370796 -3.090042
    13 5.304816 0.000000 0.000000 0.436629 0.922808 0.684952
    14 18.707375 0.000000 -0.000002 0.000000 0.000000 -1.197686
    15 13.951651 0.000000 -0.000004 0.063585 -0.128485 -0.643804
    16 -0.620571 0.325967 -1.592585 1.868435 0.920519 0.825682
    17 3.570904 0.000002 -0.000001 0.000000 0.000000 -0.439439
    18 2.779234 -0.000001 0.000000 0.000000 0.000000 0.662870
    19 5.246642 0.034821 -2.517332 -0.031985 0.252689 0.314534
    20 6.439503 -0.000001 0.000000 0.000000 0.000000 0.139624
    21 3.098978 0.000000 0.000000 0.000000 0.000000 0.750085
    22 5.603584 -0.087752 -0.344059 0.027887 -0.054774 -0.613281
    23 4.928793 0.000000 -0.000004 0.000000 0.000000 1.116339
    24 6.254896 0.000002 -0.000002 0.000000 0.000000 0.680288
    25 5.434063 -0.010812 1.636232 0.321447 -0.071669 -1.173514
    26 4.854518 0.000000 0.000002 0.000000 0.000000 1.026185
    27 5.521277 0.000000 0.000000 0.000000 0.000000 1.360586
    28 -0.000004 0.001486 -3.418189 0.674499 1.395718 -2.423233
    29 5.304816 0.000000 0.000000 0.459322 -1.283802 -0.098760
    30 18.340565 0.000000 -0.000002 0.000000 0.000000 -1.228906
    31 14.370207 0.000000 0.000002 0.179500 0.094839 0.307833
    32 -0.620573 0.325966 1.592587 -1.945054 -0.980807 0.866271
    33 3.927999 -0.000001 0.000000 0.000000 0.000000 -0.017399
    34 2.779240 0.000001 0.000000 0.000000 0.000000 0.662888
    35 5.246641 0.034821 2.517334 0.264103 -0.244891 -0.845260
    36 6.313238 0.000002 0.000002 0.000000 0.000000 0.610729
    37 3.098980 0.000000 0.000001 0.000000 0.000000 0.540799
    38 5.603580 -0.087754 0.344059 0.005414 0.008376 0.042664
    39 4.532814 0.000000 -0.000002 0.000000 0.000000 0.697778
    40 6.615754 0.000002 0.000000 0.000000 0.000000 1.029133
    41 5.434061 -0.010812 -1.636234 -0.184278 0.254332 -0.604892
    42 4.623351 0.000001 -0.000002 0.000000 0.000000 0.662858
    43 5.521277 0.000000 0.000000 0.000000 0.000000 0.558278
    44 4.170006 3.279094 -1.198655 -1.589591 -1.467659 4.695479
    45 3.754124 3.204277 1.399633 1.551881 -1.464959 1.554017
    46 0.050228 4.476613 -0.976787 -1.570740 -1.502701 4.711886
    47 0.921745 4.255628 1.163094 -1.570607 -1.569588 4.711657
    48 -0.000008 0.000008 4.504590 -3.204563 -0.106519 2.572525
    49 18.184616 0.000000 0.000000 0.000000 0.000000 -0.656439
    50 16.862097 0.000000 0.000000 0.022231 -0.055542 0.195688
    51 0.000011 -0.000005 -4.504589 3.318748 0.013346 2.736255
    52 18.184610 0.000000 0.000000 0.000000 0.000000 -0.712219
    53 16.862089 0.000000 0.000000 -0.254449 -0.026273 0.421062
  time 19
    0 0.147881 4.850948 36.809304 -0.006424 0.074284 -1.624481
    1 -0.093753 -0.210944 0.000000 0.000000 -1.570451 -1.570795
    2 1.576611 -0.003992 0.000002 -0.000004 -0.000001 0.000646
    3 5.015457 -0.003840 0.000000 0.087140 0.000000 0.000000
    4 4.822693 -0.003838 0.000000 0.104098 -0.076474 0.043705
    5 4.822556 -0.004685 0.000000 0.000000 0.000000 0.000000
    6 5.883453 -0.001475 0.000000 0.000000 0.000000 -0.052333
    7 1.854832 0.000000 0.000000 -0.160135 0.001524 0.348880
    8 4.577744 2.974503 -4.899295 2.062259 -1.282748 -0.249864
    9 -0.576364 -6.294613 1.187798 0.450944 0.000000 0.000000
    10 4.598343 3.014902 4.786890 -0.443389 -1.393846 3.156659
    11 0.671572 -6.281569 1.205063 0.793710 0.000000 0.000000
    12 0.988842 0.018080 3.418189 -0.000014 -1.370796 -3.090042
    13 5.304816 0.000000 0.000000 0.485430 0.948375 0.718724
    14 18.707375 0.000000 -0.000002 0.000000 0.000000 -1.197686
    15 13.951651 0.000000 -0.000004 0.063585 -0.128453 -0.643804
    16 -0.620571 0.325967 -1.592585 1.864730 0.911159 0.820988
    17 3.570904 0.000002 -0.000001 0.000000 0.000000 -0.297139
    18 2.779234 -0.000001 0.000000 0.000000 0.000000 0.662870
    19 5.246642 0.034821 -2.517332 0.001118 0.254612 0.446052
    20 6.439503 -0.000001 0.000000 0.000000 0.000000 0.139652
    21 3.098978 0.000000 0.000000 0.000000 0.000000 0.750085
    22 5.603584 -0.087752 -0.344059 0.038359 -0.048003 -0.816985
    23 4.928793 0.000000 -0.000004 0.000000 0.000000 1.116339
    24 6.254896 0.000002 -0.000002 0.000000 0.000000 0.680288
    25 5.434063 -0.010812 1.636232 0.313990 -0.100079 -1.086568
    26 4.854518 0.000000 0.000002 0.000000 0.000000 1.035695
    27 5.521277 0.000000 0.000000 0.000000 0.000000 1.360617
    28 -0.000004 0.001486 -3.418189 0.420659 1.396605 -2.675090
    29 5.304816 0.000000 0.000000 0.497632 -1.228493 -0.098760
    30 18.340565 0.000000 -0.000002 0.000000 0.000000 -1.228906
    31 14.370207 0.000000 0.000002 0.154967 0.081890 0.353674
    32 -0.620573 0.325966 1.592587 -1.999887 -1.060195 0.930843
    33 3.927999 -0.000001 0.000000 0.000000 0.000000 -0.017399
    34 2.779240 0.000001 0.000000 0.000000 0.000000 0.662888
    35 5.246641 0.034821 2.517334 0.135464 -0.332572 -0.400923
    36 6.313238 0.000002 0.000002 0.000000 0.000000 0.610729
    37 3.098980 0.000000 0.000001 0.000000 0.000000 0.540799
    38 5.603580 -0.087754 0.344059 0.003760 0.009239 -0.144741
    39 4.532814 0.000000 -0.000002 0.000000 0.000000 0.697778
    40 6.615754 0.000002 0.000000 0.000000 0.000000 1.029133
    41 5.434061 -0.010812 -1.636234 -0.215856 0.228294 -0.736905
    42 4.623351 0.000001 -0.000002 0.000000 0.000000 0.662858
    43 5.521277 0.000000 0.000000 0.000000 0.000000 0.558307
    44 4.170006 3.279094 -1.198655 -1.589404 -1.549771 4.695197
    45 3.754124 3.204277 1.399633 1.551969 -1.528982 1.554105
    46 0.050228 4.476613 -0.976787 1.570646 -1.563615 1.570475
    47 0.921745 4.255628 1.163094 -1.570754 -1.487913 4.711583
    48 -0.000008 0.000008 4.504590 -3.175820 -0.082456 2.639932
    49 18.184616 0.000000 0.000000 0.000000 0.000000 -0.620865
    50 16.862097 0.000000 0.000000 0.012355 -0.053958 0.190653
    51 0.000011 -0.000005 -4.504589 3.315615 0.016793 2.813343
    52 18.184610 0.000000 0.000000 0.000000 0.000000 -0.671513
    53 16.862089 0.000000 0.000000 -0.225442 -0.020981 0.417384
  time 20
    0 0.147881 4.327906 37.002892 -0.002589 0.034650 -1.596104
    1 -0.132817 -0.113285 0.000000 0.000000 -1.570451 -1.570795
    2 1.576611 -0.003992 0.000002 -0.000004 -0.000001 0.000646
    3 5.015457 -0.003840 0.000000 0.087140 0.000000 0.000000
    4 4.822693 -0.003838 0.000000 0.104002 -0.040891 0.056774
    5 4.822556 -0.004685 0.000000 0.000000 0.000000 0.000000
    6 5.883453 -0.001475 0.000000 0.000000 0.000000 -0.052333
    7 1.854832 0.000000 0.000000 -0.178331 0.038688 0.314289
    8 4.577744 2.974503 -4.899295 2.322078 -1.429804 0.009768
    9 -0.576364 -6.294613 1.187798 0.216911 0.000000 0.000000
    10 4.598343 3.014902 4.786890 -0.429614 -1.485490 3.185806
    11 0.671572 -6.281569 1.205063 0.376450 0.000000 0.000000
    12 0.988842 0.018080 3.418189 -0.000014 -1.370796 -3.090042
    13 5.304816 0.000000 0.000000 0.535854 0.977041 0.754636
    14 18.707375 0.000000 -0.000002 0.000000 0.000000 -1.197686
    15 13.951651 0.000000 -0.000004 0.063585 -0.128453 -0.643804
    16 -0.620571 0.325967 -1.592585 1.862136 0.904558 0.817685
    17 3.570904 0.000002 -0.000001 0.000000 0.000000 -0.046716
    18 2.779234 -0.000001 0.000000 0.000000 0.000000 0.662870
    19 5.246642 0.034821 -2.517332 -0.077650 0.242747 0.128714
    20 6.439503 -0.000001 0.000000 0.000000 0.000000 0.139624
    21 3.098978 0.000000 0.000000 0.000000 0.000000 0.750085
    22 5.603584 -0.087752 -0.344059 0.006318 -0.061054 -0.245107
    23 4.928793 0.000000 -0.000004 0.000000 0.000000 1.116339
    24 6.254896 0.000002 -0.000002 0.000000 0.000000 0.680288
    25 5.434063 -0.010812 1.636232 0.255063 -0.210262 -0.710577
    26 4.854518 0.000000 0.000002 0.000000 0.000000 1.042336
    27 5.521277 0.000000 0.000000 0.000000 0.000000 1.360586
    28 -0.000004 0.001486 -3.418189 0.195535 1.387758 -2.897589
    29 5.304816 0.000000 0.000000 0.529525 -1.170600 -0.095290
    30 18.340565 0.000000 -0.000002 0.000000 0.000000 -1.228906
    31 14.370207 0.000000 0.000002 0.131688 0.070910 0.396498
    32 -0.620573 0.325966 1.592587 -2.078562 -1.139313 1.018835
    33 3.927999 -0.000001 0.000000 0.000000 0.000000 -0.017399
    34 2.779240 0.000001 0.000000 0.000000 0.000000 0.662888
    35 5.246641 0.034821 2.517334 -0.120973 -0.337833 0.345810
    36 6.313238 0.000002 0.000002 0.000000 0.000000 0.610687
    37 3.098980 0.000000 0.000001 0.000000 0.000000 0.540799
    38 5.603580 -0.087754 0.344059 0.002046 0.009694 -0.325167
    39 4.532814 0.000000 -0.000002 0.000000 0.000000 0.697778
    40 6.615754 0.000002 0.000000 0.000000 0.000000 1.029133
    41 5.434061 -0.010812 -1.636234 -0.209199 0.234407 -0.707912
    42 4.623351 0.000001 -0.000002 0.000000 0.000000 0.662858
    43 5.521277 0.000000 0.000000 0.000000 0.000000 0.558307
    44 4.170006 3.279094 -1.198655 1.551488 -1.512900 1.554335
    45 3.754124 3.204277 1.399633 -1.589736 -1.550565 4.695613
    46 0.050228 4.476613 -0.976787 1.570552 -1.490715 1.570475
    47 0.921745 4.255628 1.163094 -1.570754 -1.408921 4.711583
    48 -0.000008 0.000008 4.504590 -3.151847 -0.063000 2.704280
    49 18.184616 0.000000 0.000000 0.000000 0.000000 -0.591088
    50 16.862097 0.000000 0.000000 0.009291 -0.051253 0.187589
    51 0.000011 -0.000005 -4.504589 3.313304 0.018696 2.889028
    52 18.184610 0.000000 0.000000 0.000000 0.000000 -0.632933
    53 16.862089 0.000000 0.000000 -0.196300 -0.016522 0.414680
  time 21
    0 0.147881 3.837554 37.144159 0.000000 0.000000 -1.570986
    1 -0.179693 -0.031251 0.000000 0.000000 -1.570451 -1.570795
    2 1.576611 -0.003992 0.000002 -0.000004 -0.000001 0.000646
    3 5.015457 -0.003840 0.000000 0.087140 0.000000 0.000000
    4 4.822693 -0.003838 0.000000 0.104398 -0.007359 0.069376
    5 4.822556 -0.004685 0.000000 0.000000 0.000000 0.000000
    6 5.883453 -0.001475 0.000000 0.000000 0.000000 -0.052333
    7 1.854832 0.000000 0.000000 -0.181600 0.062109 0.307717
    8 4.577744 2.974503 -4.899295 0.000000 -1.570796 2.810149
    9 -0.576364 -6.294613 1.187798 0.000000 0.000000 0.000000
    10 4.598343 3.014902 4.786890 0.000000 -1.570796 2.810149
    11 0.671572 -6.281569 1.205063 0.000000 0.000000 0.000000
    12 0.988842 0.018080 3.418189 -0.000014 -1.370796 -3.090042
    13 5.304816 0.000000 0.000000 0.585132 1.003899 0.790627
    14 18.707375 0.000000 -0.000002 0.000000 0.000000 -1.197686
    15 13.951651 0.000000 -0.000004 0.063585 -0.128453 -0.643864
    16 -0.620571 0.325967 -1.592585 1.860746 0.900460 0.815947
    17 3.570904 0.000002 -0.000001 0.000000 0.000000 0.261641
    18 2.779234 -0.000001 0.000000 0.000000 0.000000 0.662870
    19 5.246642 0.034821 -2.517332 -0.190682 0.169759 -0.410144
    20 6.439503 -0.000001 0.000000 0.000000 0.000000 0.139652
    21 3.098978 0.000000 0.000000 0.000000 0.000000 0.750085
    22 5.603584 -0.087752 -0.344059 -0.045423 -0.041483 0.690309
    23 4.928793 0.000000 -0.000004 0.000000 0.000000 1.116339
    24 6.254896 0.000002 -0.000002 0.000000 0.000000 0.680326
    25 5.434063 -0.010812 1.636232 0.109195 -0.311105 -0.158269
    26 4.854518 0.000000 0.000002 0.000000 0.000000 1.046559
    27 5.521277 0.000000 0.000000 0.000000 0.000000 1.360649
    28 -0.000004 0.001486 -3.418189 -0.000014 1.370796 -3.090069
    29 5.304816 0.000000 0.000000 0.556630 -1.114969 -0.086310
    30 18.340565 0.000000 -0.000002 0.000000 0.000000 -1.228906
    31 14.370207 0.000000 0.000002 0.107871 0.060977 0.439518
    32 -0.620573 0.325966 1.592587 -2.192420 -1.214130 1.142219
    33 3.927999 -0.000001 0.000000 0.000000 0.000000 -0.017399
    34 2.779240 0.000001 0.000000 0.000000 0.000000 0.662888
    35 5.246641 0.034821 2.517334 -0.311150 -0.180461 1.056475
    36 6.313238 0.000002 0.000002 0.000000 0.000000 0.610687
    37 3.098980 0.000000 0.000001 0.000000 0.000000 0.540799
    38 5.603580 -0.087754 0.344059 0.000333 0.009970 -0.505592
    39 4.532814 0.000000 -0.000002 0.000000 0.000000 0.697778
    40 6.615754 0.000002 0.000000 0.000000 0.000000 1.029133
    41 5.434061 -0.010812 -1.636234 -0.202317 0.240322 -0.678678
    42 4.623351 0.000001 -0.000002 0.000000 0.000000 0.662858
    43 5.521277 0.000000 0.000000 0.000000 0.000000 0.558307
    44 4.170006 3.279094 -1.198655 1.551675 -1.439961 1.554335
    45 3.754124 3.204277 1.399633 -1.589648 -1.492280 4.695613
    46 0.050228 4.476613 -0.976787 1.570646 -1.422511 1.570475
    47 0.921745 4.255628 1.163094 -1.570754 -1.335219 4.711583
    48 -0.000008 0.000008 4.504590 -3.134944 -0.049372 2.757919
    49 18.184616 0.000000 0.000000 0.000000 0.000000 -0.570903
    50 16.862097 0.000000 0.000000 0.012380 -0.048206 0.187315
    51 0.000011 -0.000005 -4.504589 3.311855 0.019091 2.953767
    52 18.184610 0.000000 0.000000 0.000000 0.000000 -0.601631
    53 16.862089 0.000000 0.000000 -0.170701 -0.013386 0.413490
end
