// Created by Crowbar 0.58
version 1
nodes
  0 "Bip01" -1
  1 "Bip01 Pelvis" 0
  2 "Bip01 Spine" 1
  3 "Bip01 Spine1" 2
  4 "Bip01 Spine2" 3
  5 "Bip01 Spine3" 4
  6 "Bip01 Neck" 5
  7 "Bip01 Head" 6
  8 "Bone09" 7
  9 "Bone10" 8
  10 "Bone12" 7
  11 "Bone13" 10
  12 "Bip01 L Clavicle" 6
  13 "Bip01 L UpperArm" 12
  14 "Bip01 L Forearm" 13
  15 "Bip01 L Hand" 14
  16 "Bip01 L Finger0" 15
  17 "Bip01 L Finger01" 16
  18 "Bip01 L Finger02" 17
  19 "Bip01 L Finger1" 15
  20 "Bip01 L Finger11" 19
  21 "Bip01 L Finger12" 20
  22 "Bip01 L Finger2" 15
  23 "Bip01 L Finger21" 22
  24 "Bip01 L Finger22" 23
  25 "Bip01 L Finger3" 15
  26 "Bip01 L Finger31" 25
  27 "Bip01 L Finger32" 26
  28 "Bip01 R Clavicle" 6
  29 "Bip01 R UpperArm" 28
  30 "Bip01 R Forearm" 29
  31 "Bip01 R Hand" 30
  32 "Bip01 R Finger0" 31
  33 "Bip01 R Finger01" 32
  34 "Bip01 R Finger02" 33
  35 "Bip01 R Finger1" 31
  36 "Bip01 R Finger11" 35
  37 "Bip01 R Finger12" 36
  38 "Bip01 R Finger2" 31
  39 "Bip01 R Finger21" 38
  40 "Bip01 R Finger22" 39
  41 "Bip01 R Finger3" 31
  42 "Bip01 R Finger31" 41
  43 "Bip01 R Finger32" 42
  44 "Bone01" 4
  45 "Bone03" 4
  46 "Bone05" 3
  47 "Bone07" 3
  48 "Bip01 L Thigh" 1
  49 "Bip01 L Calf" 48
  50 "Bip01 L Foot" 49
  51 "Bip01 R Thigh" 1
  52 "Bip01 R Calf" 51
  53 "Bip01 R Foot" 52
end
skeleton
  time 0
    0 -1.827979 0.045498 37.881886 0.000000 0.000000 -1.570986
    1 -0.082034 -0.007813 0.000000 0.000000 -1.570451 -1.570795
    2 1.576611 -0.003992 0.000002 -0.000004 -0.000001 0.000646
    3 5.015457 -0.003840 0.000000 0.087140 0.000000 0.000000
    4 4.822693 -0.003838 0.000000 0.104590 -0.003655 0.034716
    5 4.822556 -0.004685 0.000000 0.000000 0.000000 0.000000
    6 5.883453 -0.001475 0.000000 0.000000 0.000000 -0.052333
    7 1.854832 0.000000 0.000000 -0.181600 0.062109 0.342674
    8 4.577744 2.974503 -4.899295 0.000000 -1.570796 2.810149
    9 -0.576364 -6.294613 1.187798 0.000000 0.000000 0.000000
    10 4.598343 3.014902 4.786890 0.000000 -1.570796 2.810149
    11 0.671572 -6.281569 1.205063 0.000000 0.000000 0.000000
    12 0.988842 0.018080 3.418189 -0.000014 -1.370796 -3.090042
    13 5.304816 0.000000 0.000000 0.628203 0.979107 0.833436
    14 18.707375 0.000000 -0.000002 0.000000 0.000000 -1.197686
    15 13.951651 0.000000 -0.000004 0.063585 -0.128453 -0.643864
    16 -0.620571 0.325967 -1.592585 1.860746 0.900460 0.815947
    17 3.570904 0.000002 -0.000001 0.000000 0.000000 0.261641
    18 2.779234 -0.000001 0.000000 0.000000 0.000000 0.662870
    19 5.246642 0.034821 -2.517332 -0.190682 0.169759 -0.410144
    20 6.439503 -0.000001 0.000000 0.000000 0.000000 0.139652
    21 3.098978 0.000000 0.000000 0.000000 0.000000 0.750082
    22 5.603584 -0.087752 -0.344059 -0.045423 -0.041483 0.690309
    23 4.928793 0.000000 -0.000004 0.000000 0.000000 1.116326
    24 6.254896 0.000002 -0.000002 0.000000 0.000000 0.680326
    25 5.434063 -0.010812 1.636232 0.109195 -0.311105 -0.158269
    26 4.854518 0.000000 0.000002 0.000000 0.000000 1.046591
    27 5.521277 0.000000 0.000000 0.000000 0.000000 1.360586
    28 -0.000004 0.001486 -3.418189 -0.000014 1.370796 -3.090069
    29 5.304816 0.000000 0.000000 0.478956 -1.116584 -0.009638
    30 18.340565 0.000000 -0.000002 0.000000 0.000000 -1.228906
    31 14.370207 0.000000 0.000002 0.107871 0.060977 0.439518
    32 -0.620573 0.325966 1.592587 -2.192420 -1.214130 1.142219
    33 3.927999 -0.000001 0.000000 0.000000 0.000000 -0.017393
    34 2.779240 0.000001 0.000000 0.000000 0.000000 0.662888
    35 5.246641 0.034821 2.517334 -0.311150 -0.180461 1.056475
    36 6.313238 0.000002 0.000002 0.000000 0.000000 0.610687
    37 3.098980 0.000000 0.000001 0.000000 0.000000 0.540803
    38 5.603580 -0.087754 0.344059 0.000333 0.009970 -0.505592
    39 4.532814 0.000000 -0.000002 0.000000 0.000000 0.697778
    40 6.615754 0.000002 0.000000 0.000000 0.000000 1.029123
    41 5.434061 -0.010812 -1.636234 -0.202330 0.240322 -0.678678
    42 4.623351 0.000001 -0.000002 0.000000 0.000000 0.662859
    43 5.521277 0.000000 0.000000 0.000000 0.000000 0.558307
    44 4.170006 3.279094 -1.198655 1.551675 -1.309081 1.554429
    45 3.754124 3.204277 1.399633 -1.589560 -1.544630 4.695525
    46 0.050228 4.476613 -0.976787 1.570646 -1.335222 1.570475
    47 0.921745 4.255628 1.163094 -1.570754 -1.387568 4.711583
    48 -0.000008 0.000008 4.504590 -3.141598 -0.000124 2.840911
    49 18.184616 0.000000 0.000000 0.000000 0.000000 -0.370482
    50 16.862097 0.000000 0.000000 -0.000028 0.000170 0.069987
    51 0.000011 -0.000005 -4.504589 3.315615 0.020814 3.007654
    52 18.184610 0.000000 0.000000 0.000000 0.000000 -0.430113
    53 16.862089 0.000000 0.000000 -0.175236 -0.002900 0.294714
  time 1
    0 -1.827979 0.045498 37.881886 0.000000 0.000000 -1.570986
    1 -0.082034 -0.007813 0.000000 0.000000 -1.570451 -1.570795
    2 1.576611 -0.003992 0.000002 -0.000004 -0.000001 0.000646
    3 5.015457 -0.003840 0.000000 0.087140 0.000000 0.000000
    4 4.822693 -0.003838 0.000000 0.104590 -0.003655 0.034716
    5 4.822556 -0.004685 0.000000 0.000000 0.000000 0.000000
    6 5.883453 -0.001475 0.000000 0.000000 0.000000 -0.052333
    7 1.854832 0.000000 0.000000 -0.181600 0.062109 0.342674
    8 4.577744 2.974503 -4.899295 0.000000 -1.570796 2.810149
    9 -0.576364 -6.294613 1.187798 0.000000 0.000000 0.000000
    10 4.598343 3.014902 4.786890 0.000000 -1.570796 2.810149
    11 0.671572 -6.281569 1.205063 0.000000 0.000000 0.000000
    12 0.988842 0.018080 3.418189 -0.000014 -1.370796 -3.090042
    13 5.304816 0.000000 0.000000 0.628203 0.979107 0.833436
    14 18.707375 0.000000 -0.000002 0.000000 0.000000 -1.197686
    15 13.951651 0.000000 -0.000004 0.063585 -0.128453 -0.643864
    16 -0.620571 0.325967 -1.592585 1.860746 0.900460 0.815947
    17 3.570904 0.000002 -0.000001 0.000000 0.000000 0.261641
    18 2.779234 -0.000001 0.000000 0.000000 0.000000 0.662870
    19 5.246642 0.034821 -2.517332 -0.190682 0.169759 -0.410144
    20 6.439503 -0.000001 0.000000 0.000000 0.000000 0.139652
    21 3.098978 0.000000 0.000000 0.000000 0.000000 0.750082
    22 5.603584 -0.087752 -0.344059 -0.045423 -0.041483 0.690309
    23 4.928793 0.000000 -0.000004 0.000000 0.000000 1.116326
    24 6.254896 0.000002 -0.000002 0.000000 0.000000 0.680326
    25 5.434063 -0.010812 1.636232 0.109195 -0.311105 -0.158269
    26 4.854518 0.000000 0.000002 0.000000 0.000000 1.046591
    27 5.521277 0.000000 0.000000 0.000000 0.000000 1.360586
    28 -0.000004 0.001486 -3.418189 -0.000014 1.370796 -3.090069
    29 5.304816 0.000000 0.000000 0.478956 -1.116584 -0.009638
    30 18.340565 0.000000 -0.000002 0.000000 0.000000 -1.228906
    31 14.370207 0.000000 0.000002 0.107871 0.060977 0.439518
    32 -0.620573 0.325966 1.592587 -2.192420 -1.214130 1.142219
    33 3.927999 -0.000001 0.000000 0.000000 0.000000 -0.017393
    34 2.779240 0.000001 0.000000 0.000000 0.000000 0.662888
    35 5.246641 0.034821 2.517334 -0.311150 -0.180461 1.056475
    36 6.313238 0.000002 0.000002 0.000000 0.000000 0.610687
    37 3.098980 0.000000 0.000001 0.000000 0.000000 0.540803
    38 5.603580 -0.087754 0.344059 0.000333 0.009970 -0.505592
    39 4.532814 0.000000 -0.000002 0.000000 0.000000 0.697778
    40 6.615754 0.000002 0.000000 0.000000 0.000000 1.029123
    41 5.434061 -0.010812 -1.636234 -0.202330 0.240322 -0.678678
    42 4.623351 0.000001 -0.000002 0.000000 0.000000 0.662859
    43 5.521277 0.000000 0.000000 0.000000 0.000000 0.558307
    44 4.170006 3.279094 -1.198655 1.551675 -1.309081 1.554429
    45 3.754124 3.204277 1.399633 -1.589560 -1.544630 4.695525
    46 0.050228 4.476613 -0.976787 1.570646 -1.335222 1.570475
    47 0.921745 4.255628 1.163094 -1.570754 -1.387568 4.711583
    48 -0.000008 0.000008 4.504590 -3.141598 -0.000124 2.840911
    49 18.184616 0.000000 0.000000 0.000000 0.000000 -0.370482
    50 16.862097 0.000000 0.000000 -0.000028 0.000170 0.069987
    51 0.000011 -0.000005 -4.504589 3.315615 0.020814 3.007654
    52 18.184610 0.000000 0.000000 0.000000 0.000000 -0.430113
    53 16.862089 0.000000 0.000000 -0.175236 -0.002900 0.294714
  time 2
    0 -2.140173 0.045498 36.375040 0.000000 -0.000671 -1.571082
    1 -0.632832 -0.101566 0.000000 -0.000192 -1.544504 -1.570699
    2 1.576611 -0.003992 0.039066 -0.000586 -0.026285 0.023519
    3 5.015457 -0.003840 0.000000 0.087110 -0.003683 0.042417
    4 4.822693 -0.003838 0.000000 0.104757 -0.019044 0.070673
    5 4.822556 -0.004685 0.000000 0.000372 -0.011433 0.033141
    6 5.883453 -0.001475 0.000000 0.000000 0.000000 -0.052333
    7 1.854832 0.000000 0.000000 0.026331 0.059098 0.359422
    8 4.577744 2.974503 -4.899295 2.110178 -1.345441 0.210384
    9 -0.576364 -6.294613 1.187798 0.575448 0.000000 0.000000
    10 4.598343 3.014902 4.786890 -1.146975 -1.445420 3.348931
    11 0.671572 -6.281569 1.205063 0.191882 0.000000 0.000000
    12 0.988842 0.018080 3.418189 0.276101 -1.363175 -3.360213
    13 5.304816 0.000000 0.000000 0.287074 1.098226 0.532347
    14 18.707375 0.000000 -0.000002 0.000000 0.000000 -1.052481
    15 13.951651 0.000000 -0.000004 0.063585 -0.135201 -0.651924
    16 -0.620571 0.325967 -1.592585 1.860190 0.898824 0.815339
    17 3.570904 0.000002 -0.000001 0.000000 0.000000 0.263398
    18 2.779234 -0.000001 0.000000 0.000000 0.000000 0.664656
    19 5.246642 0.034821 -2.517332 -0.149712 0.206738 -0.192134
    20 6.439503 -0.000001 0.000000 0.000000 0.000000 0.141408
    21 3.098978 0.000000 0.000000 0.000000 0.000000 0.751836
    22 5.603584 -0.087752 -0.344059 -0.044577 -0.042310 0.670209
    23 4.928793 0.000000 -0.000004 0.000000 0.000000 1.118111
    24 6.254896 0.000002 -0.000002 0.000000 0.000000 0.682092
    25 5.434063 -0.010812 1.636232 0.061956 -0.323398 -0.007189
    26 4.854518 0.000000 0.000002 0.000000 0.000000 1.048332
    27 5.521277 0.000000 0.000000 0.000000 0.000000 1.362324
    28 -0.000004 0.001486 -3.418189 -0.276156 1.363146 -3.360428
    29 5.304816 0.000000 0.000000 0.840985 -1.093711 -0.311836
    30 18.340565 0.000000 -0.000002 0.000000 0.000000 -1.059526
    31 14.370207 0.000000 0.000002 0.112885 0.020661 0.436829
    32 -0.620573 0.325966 1.592587 -2.070543 -1.132524 1.010043
    33 3.927999 -0.000001 0.000000 0.000000 0.000000 0.078758
    34 2.779240 0.000001 0.000000 0.000000 0.000000 0.759027
    35 5.246641 0.034821 2.517334 -0.299478 -0.199335 0.995335
    36 6.313238 0.000002 0.000002 0.000000 0.000000 0.613005
    37 3.098980 0.000000 0.000001 0.000000 0.000000 0.543216
    38 5.603580 -0.087754 0.344059 0.002358 0.009622 -0.292256
    39 4.532814 0.000000 -0.000002 0.000000 0.000000 0.700075
    40 6.615754 0.000002 0.000000 0.000000 0.000000 1.031624
    41 5.434061 -0.010812 -1.636234 -0.132201 0.284456 -0.409839
    42 4.623351 0.000001 -0.000002 0.000000 0.000000 0.665300
    43 5.521277 0.000000 0.000000 0.000000 0.000000 0.560684
    44 4.170006 3.279094 -1.198655 1.550741 -1.554369 1.555836
    45 3.754124 3.204277 1.399633 1.551881 -1.433466 1.554192
    46 0.050228 4.476613 -0.976787 1.570552 -1.552093 1.570475
    47 0.921745 4.255628 1.163094 1.570681 -1.483888 1.570164
    48 -0.000008 0.000008 4.504590 -3.144582 0.013943 2.700455
    49 18.184616 0.000000 0.000000 0.000000 0.000000 -0.684212
    50 16.862097 0.000000 0.000000 -0.003371 -0.012381 0.242422
    51 0.000011 -0.000005 -4.504589 3.310327 0.060203 2.879392
    52 18.184610 0.000000 0.000000 0.000000 0.000000 -0.741202
    53 16.862089 0.000000 0.000000 -0.178483 -0.012406 0.476826
  time 3
    0 -2.456475 0.045498 34.883890 0.000000 -0.002252 -1.570986
    1 -1.171911 -0.187506 0.000000 -0.000192 -1.518210 -1.570603
    2 1.576611 -0.003992 0.082036 -0.002359 -0.052531 0.046461
    3 5.015457 -0.003840 0.000000 0.086844 -0.007366 0.084787
    4 4.822693 -0.003838 0.000000 0.104518 -0.034432 0.106682
    5 4.822556 -0.004685 0.000000 0.000360 -0.022950 0.066282
    6 5.883453 -0.001475 0.000000 0.000000 0.000000 -0.052333
    7 1.854832 0.000000 0.000000 -0.262920 0.070046 0.373614
    8 4.577744 2.974503 -4.899295 1.858889 -1.133641 -0.040051
    9 -0.576364 -6.294613 1.187798 1.150896 0.000000 0.000000
    10 4.598343 3.014902 4.786890 -1.451082 -1.331332 3.039308
    11 0.671572 -6.281569 1.205063 0.382312 0.000000 0.000000
    12 0.988842 0.018080 3.418189 0.534863 -1.339406 -3.612935
    13 5.304816 0.000000 0.000000 -0.212490 1.133865 0.071992
    14 18.707375 0.000000 -0.000002 0.000000 0.000000 -0.897829
    15 13.951651 0.000000 -0.000004 0.063394 -0.150015 -0.669954
    16 -0.620571 0.325967 -1.592585 1.858893 0.895081 0.813687
    17 3.570904 0.000002 -0.000001 0.000000 0.000000 0.267310
    18 2.779234 -0.000001 0.000000 0.000000 0.000000 0.668548
    19 5.246642 0.034821 -2.517332 -0.096425 0.236044 0.049492
    20 6.439503 -0.000001 0.000000 0.000000 0.000000 0.145317
    21 3.098978 0.000000 0.000000 0.000000 0.000000 0.755729
    22 5.603584 -0.087752 -0.344059 -0.043699 -0.043185 0.650430
    23 4.928793 0.000000 -0.000004 0.000000 0.000000 1.121998
    24 6.254896 0.000002 -0.000002 0.000000 0.000000 0.685931
    25 5.434063 -0.010812 1.636232 0.008430 -0.328961 0.159428
    26 4.854518 0.000000 0.000002 0.000000 0.000000 1.052297
    27 5.521277 0.000000 0.000000 0.000000 0.000000 1.366274
    28 -0.000004 0.001486 -3.418189 -0.534590 1.339466 -3.613135
    29 5.304816 0.000000 0.000000 1.157137 -1.008229 -0.561785
    30 18.340565 0.000000 -0.000002 0.000000 0.000000 -0.873856
    31 14.370207 0.000000 0.000002 0.124883 -0.022588 0.435583
    32 -0.620573 0.325966 1.592587 -1.981609 -1.036290 0.909244
    33 3.927999 -0.000001 0.000000 0.000000 0.000000 0.185582
    34 2.779240 0.000001 0.000000 0.000000 0.000000 0.865853
    35 5.246641 0.034821 2.517334 -0.286217 -0.218336 0.930833
    36 6.313238 0.000002 0.000002 0.000000 0.000000 0.618400
    37 3.098980 0.000000 0.000001 0.000000 0.000000 0.548556
    38 5.603580 -0.087754 0.344059 0.004551 0.008808 -0.058431
    39 4.532814 0.000000 -0.000002 0.000000 0.000000 0.705521
    40 6.615754 0.000002 0.000000 0.000000 0.000000 1.036935
    41 5.434061 -0.010812 -1.636234 -0.043650 0.309916 -0.109560
    42 4.623351 0.000001 -0.000002 0.000000 0.000000 0.670635
    43 5.521277 0.000000 0.000000 0.000000 0.000000 0.566024
    44 4.170006 3.279094 -1.198655 -1.589031 -1.342024 4.696041
    45 3.754124 3.204277 1.399633 1.551881 -1.269951 1.554105
    46 0.050228 4.476613 -0.976787 -1.570833 -1.372765 4.711886
    47 0.921745 4.255628 1.163094 1.570681 -1.213732 1.570164
    48 -0.000008 0.000008 4.504590 -3.150502 0.025524 2.609144
    49 18.184616 0.000000 0.000000 0.000000 0.000000 -0.892506
    50 16.862097 0.000000 0.000000 -0.005017 -0.026370 0.358053
    51 0.000011 -0.000005 -4.504589 3.301710 0.089359 2.795381
    52 18.184610 0.000000 0.000000 0.000000 0.000000 -0.956839
    53 16.862089 0.000000 0.000000 -0.180790 -0.023627 0.608312
  time 4
    0 -2.793316 0.045498 33.392740 0.000000 -0.003978 -1.570986
    1 -1.679739 -0.230476 0.000000 -0.000192 -1.497609 -1.570699
    2 1.576611 -0.003992 0.113287 -0.005156 -0.073083 0.071258
    3 5.015457 -0.003840 0.000000 0.086489 -0.010708 0.122265
    4 4.822693 -0.003838 0.000000 0.103667 -0.038135 0.137763
    5 4.822556 -0.004685 0.000000 0.000000 -0.023490 0.093254
    6 5.883453 -0.001475 0.000000 0.000000 0.000000 -0.052333
    7 1.854832 0.000000 0.000000 -0.039517 0.067485 0.385342
    8 4.577744 2.974503 -4.899295 1.613733 -0.994924 -0.173411
    9 -0.576364 -6.294613 1.187798 1.404914 0.000000 0.000000
    10 4.598343 3.014902 4.786890 -1.480545 -1.265475 2.754149
    11 0.671572 -6.281569 1.205063 0.572742 0.000000 0.000000
    12 0.988842 0.018080 3.418189 0.735909 -1.303777 -3.808228
    13 5.304816 0.000000 0.000000 -0.660103 1.082860 -0.338101
    14 18.707375 0.000000 -0.000002 0.000000 0.000000 -0.743558
    15 13.951651 0.000000 -0.000004 0.063585 -0.164829 -0.687924
    16 -0.620571 0.325967 -1.592585 1.857596 0.891376 0.811949
    17 3.570904 0.000002 -0.000001 0.000000 0.000000 0.271183
    18 2.779234 -0.000001 0.000000 0.000000 0.000000 0.672440
    19 5.246642 0.034821 -2.517332 -0.037126 0.251979 0.293776
    20 6.439503 -0.000001 0.000000 0.000000 0.000000 0.149225
    21 3.098978 0.000000 0.000000 0.000000 0.000000 0.759623
    22 5.603584 -0.087752 -0.344059 -0.042837 -0.044048 0.630606
    23 4.928793 0.000000 -0.000004 0.000000 0.000000 1.125885
    24 6.254896 0.000002 -0.000002 0.000000 0.000000 0.689847
    25 5.434063 -0.010812 1.636232 -0.045378 -0.325962 0.326244
    26 4.854518 0.000000 0.000002 0.000000 0.000000 1.056101
    27 5.521277 0.000000 0.000000 0.000000 0.000000 1.370161
    28 -0.000004 0.001486 -3.418189 -0.736073 1.303791 -3.808164
    29 5.304816 0.000000 0.000000 1.337864 -0.882622 -0.677167
    30 18.340565 0.000000 -0.000002 0.000000 0.000000 -0.688186
    31 14.370207 0.000000 0.000002 0.136702 -0.065964 0.433747
    32 -0.620573 0.325966 1.592587 -1.921285 -0.937089 0.837396
    33 3.927999 -0.000001 0.000000 0.000000 0.000000 0.292503
    34 2.779240 0.000001 0.000000 0.000000 0.000000 0.972841
    35 5.246641 0.034821 2.517334 -0.271544 -0.236432 0.865704
    36 6.313238 0.000002 0.000002 0.000000 0.000000 0.623795
    37 3.098980 0.000000 0.000001 0.000000 0.000000 0.553896
    38 5.603580 -0.087754 0.344059 0.006469 0.007669 0.175356
    39 4.532814 0.000000 -0.000002 0.000000 0.000000 0.710738
    40 6.615754 0.000002 0.000000 0.000000 0.000000 1.042277
    41 5.434061 -0.010812 -1.636234 0.049124 0.309138 0.192924
    42 4.623351 0.000001 -0.000002 0.000000 0.000000 0.675935
    43 5.521277 0.000000 0.000000 0.000000 0.000000 0.571334
    44 4.170006 3.279094 -1.198655 -1.589031 -1.230495 4.696135
    45 3.754124 3.204277 1.399633 1.551881 -1.195626 1.554105
    46 0.050228 4.476613 -0.976787 -1.570740 -1.274172 4.711886
    47 0.921745 4.255628 1.163094 1.570681 -1.090921 1.570164
    48 -0.000008 0.000008 4.504590 -3.155761 0.030985 2.536478
    49 18.184616 0.000000 0.000000 0.000000 0.000000 -1.065369
    50 16.862097 0.000000 0.000000 -0.005878 -0.039896 0.457103
    51 0.000011 -0.000005 -4.504589 3.293837 0.109108 2.734571
    52 18.184610 0.000000 0.000000 0.000000 0.000000 -1.130160
    53 16.862089 0.000000 0.000000 -0.182749 -0.034113 0.720759
  time 5
    0 -3.105510 0.045498 31.901590 0.000000 -0.004697 -1.570986
    1 -2.175848 -0.187506 0.000000 -0.000192 -1.486223 -1.570603
    2 1.576611 -0.003992 0.132819 -0.008037 -0.084171 0.096604
    3 5.015457 -0.003840 0.000000 0.086075 -0.013726 0.157297
    4 4.822693 -0.003838 0.000000 0.102528 -0.020458 0.168292
    5 4.822556 -0.004685 0.000000 -0.000384 -0.002721 0.117703
    6 5.883453 -0.001475 0.000000 0.000000 0.000000 -0.052333
    7 1.854832 0.000000 0.000000 -0.242363 0.089146 0.383790
    8 4.577744 2.974503 -4.899295 1.314908 -0.929199 -0.111904
    9 -0.576364 -6.294613 1.187798 1.045482 0.000000 0.000000
    10 4.598343 3.014902 4.786890 -0.965411 -1.206130 2.518301
    11 0.671572 -6.281569 1.205063 0.765014 0.000000 0.000000
    12 0.988842 0.018080 3.418189 0.876651 -1.263909 -3.943122
    13 5.304816 0.000000 0.000000 -1.001423 0.998153 -0.638318
    14 18.707375 0.000000 -0.000002 0.000000 0.000000 -0.597896
    15 13.951651 0.000000 -0.000004 0.063585 -0.171545 -0.696163
    16 -0.620571 0.325967 -1.592585 1.856855 0.889681 0.810993
    17 3.570904 0.000002 -0.000001 0.000000 0.000000 0.272980
    18 2.779234 -0.000001 0.000000 0.000000 0.000000 0.674203
    19 5.246642 0.034821 -2.517332 0.019223 0.253936 0.518104
    20 6.439503 -0.000001 0.000000 0.000000 0.000000 0.150981
    21 3.098978 0.000000 0.000000 0.000000 0.000000 0.761407
    22 5.603584 -0.087752 -0.344059 -0.041959 -0.044899 0.610369
    23 4.928793 0.000000 -0.000004 0.000000 0.000000 1.127670
    24 6.254896 0.000002 -0.000002 0.000000 0.000000 0.691613
    25 5.434063 -0.010812 1.636232 -0.093060 -0.316164 0.477472
    26 4.854518 0.000000 0.000002 0.000000 0.000000 1.057971
    27 5.521277 0.000000 0.000000 0.000000 0.000000 1.371962
    28 -0.000004 0.001486 -3.418189 -0.876680 1.263902 -3.942966
    29 5.304816 0.000000 0.000000 1.405768 -0.737501 -0.691046
    30 18.340565 0.000000 -0.000002 0.000000 0.000000 -0.518806
    31 14.370207 0.000000 0.000002 0.142253 -0.106112 0.430140
    32 -0.620573 0.325966 1.592587 -1.882779 -0.846221 0.787754
    33 3.927999 -0.000001 0.000000 0.000000 0.000000 0.388653
    34 2.779240 0.000001 0.000000 0.000000 0.000000 1.069003
    35 5.246641 0.034821 2.517334 -0.256341 -0.252929 0.802911
    36 6.313238 0.000002 0.000002 0.000000 0.000000 0.626155
    37 3.098980 0.000000 0.000001 0.000000 0.000000 0.556309
    38 5.603580 -0.087754 0.344059 0.007931 0.006123 0.388654
    39 4.532814 0.000000 -0.000002 0.000000 0.000000 0.713264
    40 6.615754 0.000002 0.000000 0.000000 0.000000 1.044531
    41 5.434061 -0.010812 -1.636234 0.129920 0.285478 0.467137
    42 4.623351 0.000001 -0.000002 0.000000 0.000000 0.678376
    43 5.521277 0.000000 0.000000 0.000000 0.000000 0.573740
    44 4.170006 3.279094 -1.198655 -1.589031 -1.380614 4.695947
    45 3.754124 3.204277 1.399633 1.551881 -1.300974 1.554105
    46 0.050228 4.476613 -0.976787 -1.570740 -1.410962 4.711886
    47 0.921745 4.255628 1.163094 1.570681 -1.263396 1.570164
    48 -0.000008 0.000008 4.504590 -3.156642 0.030229 2.477007
    49 18.184616 0.000000 0.000000 0.000000 0.000000 -1.221912
    50 16.862097 0.000000 0.000000 -0.006435 -0.051496 0.553198
    51 0.000011 -0.000005 -4.504589 3.289998 0.120023 2.692659
    52 18.184610 0.000000 0.000000 0.000000 0.000000 -1.276365
    53 16.862089 0.000000 0.000000 -0.185406 -0.041561 0.825472
  time 6
    0 -3.401273 0.045498 30.368584 0.000000 -0.003546 -1.571082
    1 -2.625080 -0.093753 0.000000 -0.000192 -1.480615 -1.570603
    2 1.576611 -0.003992 0.136725 -0.011112 -0.089565 0.123736
    3 5.015457 -0.003840 0.000000 0.085631 -0.016352 0.187159
    4 4.822693 -0.003838 0.000000 0.102265 0.008797 0.193842
    5 4.822556 -0.004685 0.000000 -0.000324 0.028943 0.135959
    6 5.883453 -0.001475 0.000000 0.000000 0.000000 -0.052333
    7 1.854832 0.000000 0.000000 -0.060619 0.116555 0.376352
    8 4.577744 2.974503 -4.899295 1.056335 -0.879526 0.054988
    9 -0.576364 -6.294613 1.187798 0.364562 0.000000 0.000000
    10 4.598343 3.014902 4.786890 -0.296166 -1.138710 2.440895
    11 0.671572 -6.281569 1.205063 0.960357 0.000000 0.000000
    12 0.988842 0.018080 3.418189 0.968018 -1.227251 -4.029983
    13 5.304816 0.000000 0.000000 -1.234158 0.910799 -0.826360
    14 18.707375 0.000000 -0.000002 0.000000 0.000000 -0.470594
    15 13.951651 0.000000 -0.000004 0.063585 -0.162162 -0.684700
    16 -0.620571 0.325967 -1.592585 1.857874 0.892164 0.812209
    17 3.570904 0.000002 -0.000001 0.000000 0.000000 0.270465
    18 2.779234 -0.000001 0.000000 0.000000 0.000000 0.671616
    19 5.246642 0.034821 -2.517332 0.064574 0.246471 0.700765
    20 6.439503 -0.000001 0.000000 0.000000 0.000000 0.148432
    21 3.098978 0.000000 0.000000 0.000000 0.000000 0.758910
    22 5.603584 -0.087752 -0.344059 -0.041033 -0.045762 0.589718
    23 4.928793 0.000000 -0.000004 0.000000 0.000000 1.125171
    24 6.254896 0.000002 -0.000002 0.000000 0.000000 0.689156
    25 5.434063 -0.010812 1.636232 -0.129940 -0.303207 0.598415
    26 4.854518 0.000000 0.000002 0.000000 0.000000 1.055424
    27 5.521277 0.000000 0.000000 0.000000 0.000000 1.369434
    28 -0.000004 0.001486 -3.418189 -0.968281 1.227273 -4.029813
    29 5.304816 0.000000 0.000000 1.411323 -0.617192 -0.656282
    30 18.340565 0.000000 -0.000002 0.000000 0.000000 -0.382389
    31 14.370207 0.000000 0.000002 0.135269 -0.139891 0.423976
    32 -0.620573 0.325966 1.592587 -1.859588 -0.774866 0.755695
    33 3.927999 -0.000001 0.000000 0.000000 0.000000 0.463337
    34 2.779240 0.000001 0.000000 0.000000 0.000000 1.143652
    35 5.246641 0.034821 2.517334 -0.241249 -0.267237 0.744961
    36 6.313238 0.000002 0.000002 0.000000 0.000000 0.622741
    37 3.098980 0.000000 0.000001 0.000000 0.000000 0.552907
    38 5.603580 -0.087754 0.344059 0.008854 0.004673 0.560936
    39 4.532814 0.000000 -0.000002 0.000000 0.000000 0.709885
    40 6.615754 0.000002 0.000000 0.000000 0.000000 1.041258
    41 5.434061 -0.010812 -1.636234 0.188270 0.251420 0.686090
    42 4.623351 0.000001 -0.000002 0.000000 0.000000 0.674924
    43 5.521277 0.000000 0.000000 0.000000 0.000000 0.570395
    44 4.170006 3.279094 -1.198655 1.551675 -1.477100 1.554523
    45 3.754124 3.204277 1.399633 1.551881 -1.495511 1.554105
    46 0.050228 4.476613 -0.976787 1.570646 -1.475671 1.570475
    47 0.921745 4.255628 1.163094 -1.570754 -1.558394 4.711583
    48 -0.000008 0.000008 4.504590 -3.155003 0.026401 2.432068
    49 18.184616 0.000000 0.000000 0.000000 0.000000 -1.367718
    50 16.862097 0.000000 0.000000 -0.006638 -0.061781 0.655367
    51 0.000011 -0.000005 -4.504589 3.288549 0.125481 2.671048
    52 18.184610 0.000000 0.000000 0.000000 0.000000 -1.402862
    53 16.862089 0.000000 0.000000 -0.187633 -0.045579 0.932294
  time 7
    0 -3.668281 0.045498 28.798952 0.000000 0.000000 -1.570986
    1 -2.972747 -0.019532 0.000000 -0.000192 -1.474934 -1.570699
    2 1.576611 -0.003992 0.144538 -0.015101 -0.094747 0.158286
    3 5.015457 -0.003840 0.000000 0.085424 -0.017409 0.199852
    4 4.822693 -0.003838 0.000000 0.102816 0.032047 0.196193
    5 4.822556 -0.004685 0.000000 0.000036 0.052325 0.130799
    6 5.883453 -0.001475 0.000000 0.000000 0.000000 -0.052333
    7 1.854832 0.000000 0.000000 -0.312133 0.129712 0.369598
    8 4.577744 2.974503 -4.899295 1.093041 -0.861423 0.203198
    9 -0.576364 -6.294613 1.187798 -0.082207 0.000000 0.000000
    10 4.598343 3.014902 4.786890 0.074042 -1.143920 2.400663
    11 0.671572 -6.281569 1.205063 1.160613 0.000000 0.000000
    12 0.988842 0.018080 3.418189 1.021707 -1.200321 -4.079933
    13 5.304816 0.000000 0.000000 -1.334434 0.880519 -0.888433
    14 18.707375 0.000000 -0.000002 0.000000 0.000000 -0.370032
    15 13.951651 0.000000 -0.000004 0.063585 -0.128485 -0.643745
    16 -0.620571 0.325967 -1.592585 1.860746 0.900460 0.815947
    17 3.570904 0.000002 -0.000001 0.000000 0.000000 0.261641
    18 2.779234 -0.000001 0.000000 0.000000 0.000000 0.662870
    19 5.246642 0.034821 -2.517332 0.093296 0.237274 0.820751
    20 6.439503 -0.000001 0.000000 0.000000 0.000000 0.139652
    21 3.098978 0.000000 0.000000 0.000000 0.000000 0.750082
    22 5.603584 -0.087752 -0.344059 -0.040043 -0.046697 0.568196
    23 4.928793 0.000000 -0.000004 0.000000 0.000000 1.116326
    24 6.254896 0.000002 -0.000002 0.000000 0.000000 0.680288
    25 5.434063 -0.010812 1.636232 -0.152512 -0.292905 0.675068
    26 4.854518 0.000000 0.000002 0.000000 0.000000 1.046591
    27 5.521277 0.000000 0.000000 0.000000 0.000000 1.360617
    28 -0.000004 0.001486 -3.418189 -1.021595 1.200311 -4.079750
    29 5.304816 0.000000 0.000000 1.377323 -0.591477 -0.588522
    30 18.340565 0.000000 -0.000002 0.000000 0.000000 -0.294997
    31 14.370207 0.000000 0.000002 0.109125 -0.164449 0.414729
    32 -0.620573 0.325966 1.592587 -1.848390 -0.734086 0.739552
    33 3.927999 -0.000001 0.000000 0.000000 0.000000 0.505808
    34 2.779240 0.000001 0.000000 0.000000 0.000000 1.186170
    35 5.246641 0.034821 2.517334 -0.227635 -0.279042 0.693735
    36 6.313238 0.000002 0.000002 0.000000 0.000000 0.610687
    37 3.098980 0.000000 0.000001 0.000000 0.000000 0.540803
    38 5.603580 -0.087754 0.344059 0.009237 0.003606 0.671675
    39 4.532814 0.000000 -0.000002 0.000000 0.000000 0.697778
    40 6.615754 0.000002 0.000000 0.000000 0.000000 1.029123
    41 5.434061 -0.010812 -1.636234 0.221409 0.222928 0.827207
    42 4.623351 0.000001 -0.000002 0.000000 0.000000 0.662859
    43 5.521277 0.000000 0.000000 0.000000 0.000000 0.558307
    44 4.170006 3.279094 -1.198655 1.551675 -1.309081 1.554429
    45 3.754124 3.204277 1.399633 -1.589560 -1.544650 4.695525
    46 0.050228 4.476613 -0.976787 1.570646 -1.335222 1.570475
    47 0.921745 4.255628 1.163094 -1.570754 -1.387568 4.711583
    48 -0.000008 0.000008 4.504590 -3.152043 0.022549 2.410938
    49 18.184616 0.000000 0.000000 0.000000 0.000000 -1.503216
    50 16.862097 0.000000 0.000000 -0.007093 -0.072309 0.773351
    51 0.000011 -0.000005 -4.504589 3.288549 0.129538 2.677971
    52 18.184610 0.000000 0.000000 0.000000 0.000000 -1.510294
    53 16.862089 0.000000 0.000000 -0.189270 -0.045628 1.050691
  time 8
    0 -3.766868 0.045498 27.517087 0.000000 -0.033068 -1.571082
    1 -3.199316 0.027345 0.000000 -0.000192 -1.474934 -1.570699
    2 1.576611 -0.003992 0.144538 -0.022082 -0.093361 0.232675
    3 5.015457 -0.003840 0.000000 0.085986 -0.014323 0.163666
    4 4.822693 -0.003838 0.000000 0.103775 0.037692 0.131575
    5 4.822556 -0.004685 0.000000 -0.000216 0.051210 0.054746
    6 5.883453 -0.001475 0.000000 0.000000 0.000000 -0.052333
    7 1.854832 0.000000 0.000000 -0.199905 0.091707 0.383654
    8 4.577744 2.974503 -4.899295 1.726056 -0.933747 0.263747
    9 -0.576364 -6.294613 1.187798 0.010440 0.000000 0.000000
    10 4.598343 3.014902 4.786890 -0.039030 -1.283491 2.195204
    11 0.671572 -6.281569 1.205063 1.467109 0.000000 0.000000
    12 0.988842 0.018080 3.418189 1.047497 -1.185349 -4.104093
    13 5.304816 0.000000 0.000000 -1.229097 1.013778 -0.761037
    14 18.707375 0.000000 -0.000002 0.000000 0.000000 -0.299943
    15 13.951651 0.000000 -0.000004 0.069595 -0.058689 -0.566491
    16 -0.620571 0.325967 -1.592585 1.869454 0.913425 0.826725
    17 3.570904 0.000002 -0.000001 0.000000 0.000000 0.247267
    18 2.779234 -0.000001 0.000000 0.000000 0.000000 0.648378
    19 5.246642 0.034821 -2.517332 0.107333 0.231351 0.880819
    20 6.439503 -0.000001 0.000000 0.000000 0.000000 0.120025
    21 3.098978 0.000000 0.000000 0.000000 0.000000 0.735695
    22 5.603584 -0.087752 -0.344059 -0.039133 -0.047464 0.548831
    23 4.928793 0.000000 -0.000004 0.000000 0.000000 1.106766
    24 6.254896 0.000002 -0.000002 0.000000 0.000000 0.665930
    25 5.434063 -0.010812 1.636232 -0.162346 -0.287548 0.709609
    26 4.854518 0.000000 0.000002 0.000000 0.000000 1.037887
    27 5.521277 0.000000 0.000000 0.000000 0.000000 1.346175
    28 -0.000004 0.001486 -3.418189 -1.047534 1.185411 -4.103822
    29 5.304816 0.000000 0.000000 1.241132 -0.756045 -0.411435
    30 18.340565 0.000000 -0.000002 0.000000 0.000000 -0.266983
    31 14.370207 0.000000 0.000002 0.055313 -0.181799 0.407187
    32 -0.620573 0.325966 1.592587 -1.851208 -0.724869 0.742280
    33 3.927999 -0.000001 0.000000 0.000000 0.000000 0.514069
    34 2.779240 0.000001 0.000000 0.000000 0.000000 1.194457
    35 5.246641 0.034821 2.517334 -0.216691 -0.287480 0.654988
    36 6.313238 0.000002 0.000002 0.000000 0.000000 0.589361
    37 3.098980 0.000000 0.000001 0.000000 0.000000 0.519481
    38 5.603580 -0.087754 0.344059 0.009477 0.003199 0.721585
    39 4.532814 0.000000 -0.000002 0.000000 0.000000 0.676583
    40 6.615754 0.000002 0.000000 0.000000 0.000000 1.007880
    41 5.434061 -0.010812 -1.636234 0.235715 0.207743 0.893815
    42 4.623351 0.000001 -0.000002 0.000000 0.000000 0.641484
    43 5.521277 0.000000 0.000000 0.000000 0.000000 0.536917
    44 4.170006 3.279094 -1.198655 1.551862 -1.411303 1.554710
    45 3.754124 3.204277 1.399633 1.551969 -1.481332 1.554192
    46 0.050228 4.476613 -0.976787 1.570646 -1.462647 1.570475
    47 0.921745 4.255628 1.163094 -1.570828 -1.564528 4.711583
    48 -0.000008 0.000008 4.504590 -3.144582 0.019770 2.531506
    49 18.184616 0.000000 0.000000 0.000000 0.000000 -1.601852
    50 16.862097 0.000000 0.000000 -0.006182 -0.078183 0.959302
    51 0.000011 -0.000005 -4.504589 3.294620 0.125589 2.841035
    52 18.184610 0.000000 0.000000 0.000000 0.000000 -1.533802
    53 16.862089 0.000000 0.000000 -0.182347 -0.027400 1.201811
  time 9
    0 -3.783300 0.045498 25.162640 0.000000 0.042941 -1.571082
    1 -3.074313 0.058596 0.000000 -0.000192 -1.474934 -1.570699
    2 1.576611 -0.003992 0.144538 -0.025711 -0.092437 0.271896
    3 5.015457 -0.003840 0.000000 0.086489 -0.010572 0.120465
    4 4.822693 -0.003838 0.000000 0.104578 0.033832 0.061200
    5 4.822556 -0.004685 0.000000 0.000024 0.040053 -0.019908
    6 5.883453 -0.001475 0.000000 0.000000 0.000000 -0.052333
    7 1.854832 0.000000 0.000000 -0.324155 0.052803 0.370785
    8 4.577744 2.974503 -4.899295 2.806830 -1.047985 0.112279
    9 -0.576364 -6.294613 1.187798 0.336941 0.000000 0.000000
    10 4.598343 3.014902 4.786890 -0.541633 -1.519613 2.126207
    11 0.671572 -6.281569 1.205063 1.786893 0.000000 0.000000
    12 0.988842 0.018080 3.418189 1.057180 -1.179517 -4.112626
    13 5.304816 0.000000 0.000000 -0.848048 1.185322 -0.364262
    14 18.707375 0.000000 -0.000002 0.000000 0.000000 -0.252633
    15 13.951651 0.000000 -0.000004 0.088771 0.042534 -0.458073
    16 -0.620571 0.325967 -1.592585 1.885481 0.928342 0.845065
    17 3.570904 0.000002 -0.000001 0.000000 0.000000 0.229659
    18 2.779234 -0.000001 0.000000 0.000000 0.000000 0.630795
    19 5.246642 0.034821 -2.517332 0.112206 0.229064 0.902279
    20 6.439503 -0.000001 0.000000 0.000000 0.000000 0.090202
    21 3.098978 0.000000 0.000000 0.000000 0.000000 0.718099
    22 5.603584 -0.087752 -0.344059 -0.038367 -0.048003 0.532815
    23 4.928793 0.000000 -0.000004 0.000000 0.000000 1.100380
    24 6.254896 0.000002 -0.000002 0.000000 0.000000 0.648347
    25 5.434063 -0.010812 1.636232 -0.164321 -0.286495 0.716537
    26 4.854518 0.000000 0.000002 0.000000 0.000000 1.033535
    27 5.521277 0.000000 0.000000 0.000000 0.000000 1.328605
    28 -0.000004 0.001486 -3.418189 -1.057010 1.179469 -4.112790
    29 5.304816 0.000000 0.000000 0.937430 -0.978830 -0.059846
    30 18.340565 0.000000 -0.000002 0.000000 0.000000 -0.285938
    31 14.370207 0.000000 0.000002 -0.023836 -0.195210 0.404236
    32 -0.620573 0.325966 1.592587 -1.866018 -0.737698 0.761758
    33 3.927999 -0.000001 0.000000 0.000000 0.000000 0.497670
    34 2.779240 0.000001 0.000000 0.000000 0.000000 1.178068
    35 5.246641 0.034821 2.517334 -0.208902 -0.293161 0.627467
    36 6.313238 0.000002 0.000002 0.000000 0.000000 0.561459
    37 3.098980 0.000000 0.000001 0.000000 0.000000 0.491592
    38 5.603580 -0.087754 0.344059 0.009501 0.003115 0.730516
    39 4.532814 0.000000 -0.000002 0.000000 0.000000 0.648597
    40 6.615754 0.000002 0.000000 0.000000 0.000000 0.979967
    41 5.434061 -0.010812 -1.636234 0.239368 0.203490 0.911700
    42 4.623351 0.000001 -0.000002 0.000000 0.000000 0.613762
    43 5.521277 0.000000 0.000000 0.000000 0.000000 0.509014
    44 4.170006 3.279094 -1.198655 -1.588471 -1.512297 4.695760
    45 3.754124 3.204277 1.399633 1.551969 -1.272615 1.554280
    46 0.050228 4.476613 -0.976787 -1.570740 -1.436928 4.711886
    47 0.921745 4.255628 1.163094 1.570607 -1.251167 1.570164
    48 -0.000008 0.000008 4.504590 -3.136436 0.017673 2.774077
    49 18.184616 0.000000 0.000000 0.000000 0.000000 -1.641077
    50 16.862097 0.000000 0.000000 -0.006334 -0.081790 1.215299
    51 0.000011 -0.000005 -4.504589 3.309387 0.102501 3.078193
    52 18.184610 0.000000 0.000000 0.000000 0.000000 -1.484144
    53 16.862089 0.000000 0.000000 -0.170996 -0.030487 1.271638
  time 10
    0 -3.766868 0.045498 21.249025 0.000000 0.305186 -1.570986
    1 -2.621174 0.042970 0.000000 -0.000192 -1.474934 -1.570699
    2 1.576611 -0.003992 0.144538 -0.022082 -0.093361 0.232675
    3 5.015457 -0.003840 0.000000 0.086637 -0.009583 0.109111
    4 4.822693 -0.003838 0.000000 0.104602 0.028439 0.036704
    5 4.822556 -0.004685 0.000000 0.000144 0.032275 -0.034701
    6 5.883453 -0.001475 0.000000 0.000000 0.000000 -0.052333
    7 1.854832 0.000000 0.000000 -0.166709 -0.003364 0.144893
    8 4.577744 2.974503 -4.899295 -2.620807 -1.093689 -0.152622
    9 -0.576364 -6.294613 1.187798 0.535478 0.000000 0.000000
    10 4.598343 3.014902 4.786890 2.848976 -1.447287 4.747490
    11 0.671572 -6.281569 1.205063 1.829323 0.000000 0.000000
    12 0.988842 0.018080 3.418189 1.055838 -1.180326 -4.111667
    13 5.304816 0.000000 0.000000 -0.264538 1.232324 0.233873
    14 18.707375 0.000000 -0.000002 0.000000 0.000000 -0.220941
    15 13.951651 0.000000 -0.000004 0.125023 0.157093 -0.327625
    16 -0.620571 0.325967 -1.592585 1.904565 0.945800 0.867663
    17 3.570904 0.000002 -0.000001 0.000000 0.000000 0.208937
    18 2.779234 -0.000001 0.000000 0.000000 0.000000 0.610167
    19 5.246642 0.034821 -2.517332 0.109792 0.230207 0.891549
    20 6.439503 -0.000001 0.000000 0.000000 0.000000 0.055479
    21 3.098978 0.000000 0.000000 0.000000 0.000000 0.697351
    22 5.603584 -0.087752 -0.344059 -0.037632 -0.048590 0.517626
    23 4.928793 0.000000 -0.000004 0.000000 0.000000 1.092487
    24 6.254896 0.000002 -0.000002 0.000000 0.000000 0.627616
    25 5.434063 -0.010812 1.636232 -0.159847 -0.288899 0.700850
    26 4.854518 0.000000 0.000002 0.000000 0.000000 1.027829
    27 5.521277 0.000000 0.000000 0.000000 0.000000 1.307906
    28 -0.000004 0.001486 -3.418189 -1.055574 1.180378 -4.111469
    29 5.304816 0.000000 0.000000 0.462675 -1.103726 0.462095
    30 18.340565 0.000000 -0.000002 0.000000 0.000000 -0.334582
    31 14.370207 0.000000 0.000002 -0.116416 -0.204556 0.401613
    32 -0.620573 0.325966 1.592587 -1.888558 -0.766938 0.791467
    33 3.927999 -0.000001 0.000000 0.000000 0.000000 0.463264
    34 2.779240 0.000001 0.000000 0.000000 0.000000 1.143652
    35 5.246641 0.034821 2.517334 -0.202481 -0.297538 0.605928
    36 6.313238 0.000002 0.000002 0.000000 0.000000 0.528796
    37 3.098980 0.000000 0.000001 0.000000 0.000000 0.458838
    38 5.603580 -0.087754 0.344059 0.009429 0.003295 0.706612
    39 4.532814 0.000000 -0.000002 0.000000 0.000000 0.615788
    40 6.615754 0.000002 0.000000 0.000000 0.000000 0.947145
    41 5.434061 -0.010812 -1.636234 0.235027 0.208521 0.890607
    42 4.623351 0.000001 -0.000002 0.000000 0.000000 0.580985
    43 5.521277 0.000000 0.000000 0.000000 0.000000 0.476329
    44 4.170006 3.279094 -1.198655 -1.588564 -1.392109 4.696416
    45 3.754124 3.204277 1.399633 1.551969 -1.160824 1.554280
    46 0.050228 4.476613 -0.976787 -1.570740 -1.305926 4.711886
    47 0.921745 4.255628 1.163094 1.570681 -1.075913 1.570164
    48 -0.000008 0.000008 4.504590 -3.130027 0.015089 2.956890
    49 18.184616 0.000000 0.000000 0.000000 0.000000 -1.587894
    50 16.862097 0.000000 0.000000 -0.002611 -0.084641 1.266740
    51 0.000011 -0.000005 -4.504589 3.311659 0.087456 3.239199
    52 18.184610 0.000000 0.000000 0.000000 0.000000 -1.335942
    53 16.862089 0.000000 0.000000 -0.155674 -0.039895 1.138962
  time 11
    0 -3.738114 0.045498 17.178448 0.000000 0.621202 -1.571082
    1 -2.070376 0.039064 0.000000 -0.000096 -1.474934 -1.570699
    2 1.576611 -0.003992 0.144538 -0.016902 -0.094447 0.177381
    3 5.015457 -0.003840 0.000000 0.086696 -0.009037 0.103157
    4 4.822693 -0.003838 0.000000 0.104554 0.022112 0.017844
    5 4.822556 -0.004685 0.000000 0.000180 0.023861 -0.039953
    6 5.883453 -0.001475 0.000000 0.000000 0.000000 -0.052333
    7 1.854832 0.000000 0.000000 -0.249518 -0.025631 -0.110615
    8 4.577744 2.974503 -4.899295 -2.252403 -1.170160 5.717257
    9 -0.576364 -6.294613 1.187798 0.405188 0.000000 0.000000
    10 4.598343 3.014902 4.786890 2.357757 -1.455405 5.575157
    11 0.671572 -6.281569 1.205063 1.361148 0.000000 0.000000
    12 0.988842 0.018080 3.418189 1.047497 -1.185349 -4.104093
    13 5.304816 0.000000 0.000000 0.263772 1.149231 0.773503
    14 18.707375 0.000000 -0.000002 0.000000 0.000000 -0.197629
    15 13.951651 0.000000 -0.000004 0.177780 0.266671 -0.182848
    16 -0.620571 0.325967 -1.592585 1.924112 0.966411 0.890088
    17 3.570904 0.000002 -0.000001 0.000000 0.000000 0.185101
    18 2.779234 -0.000001 0.000000 0.000000 0.000000 0.586265
    19 5.246642 0.034821 -2.517332 0.101298 0.234035 0.854696
    20 6.439503 -0.000001 0.000000 0.000000 0.000000 0.021181
    21 3.098978 0.000000 0.000000 0.000000 0.000000 0.673542
    22 5.603584 -0.087752 -0.344059 -0.036770 -0.049297 0.499958
    23 4.928793 0.000000 -0.000004 0.000000 0.000000 1.078287
    24 6.254896 0.000002 -0.000002 0.000000 0.000000 0.603891
    25 5.434063 -0.010812 1.636232 -0.150134 -0.293958 0.667002
    26 4.854518 0.000000 0.000002 0.000000 0.000000 1.015418
    27 5.521277 0.000000 0.000000 0.000000 0.000000 1.284047
    28 -0.000004 0.001486 -3.418189 -1.047534 1.185411 -4.103822
    29 5.304816 0.000000 0.000000 -0.118487 -1.072195 1.082274
    30 18.340565 0.000000 -0.000002 0.000000 0.000000 -0.396016
    31 14.370207 0.000000 0.000002 -0.210518 -0.210004 0.395120
    32 -0.620573 0.325966 1.592587 -1.913266 -0.807299 0.824057
    33 3.927999 -0.000001 0.000000 0.000000 0.000000 0.417552
    34 2.779240 0.000001 0.000000 0.000000 0.000000 1.097856
    35 5.246641 0.034821 2.517334 -0.196082 -0.301704 0.583762
    36 6.313238 0.000002 0.000002 0.000000 0.000000 0.492718
    37 3.098980 0.000000 0.000001 0.000000 0.000000 0.422959
    38 5.603580 -0.087754 0.344059 0.009177 0.003798 0.657941
    39 4.532814 0.000000 -0.000002 0.000000 0.000000 0.580026
    40 6.615754 0.000002 0.000000 0.000000 0.000000 0.911204
    41 5.434061 -0.010812 -1.636234 0.224109 0.220199 0.839478
    42 4.623351 0.000001 -0.000002 0.000000 0.000000 0.545069
    43 5.521277 0.000000 0.000000 0.000000 0.000000 0.440445
    44 4.170006 3.279094 -1.198655 -1.588657 -1.399028 4.696229
    45 3.754124 3.204277 1.399633 1.551969 -1.167718 1.554280
    46 0.050228 4.476613 -0.976787 -1.570740 -1.313871 4.711886
    47 0.921745 4.255628 1.163094 1.570681 -1.086628 1.570164
    48 -0.000008 0.000008 4.504590 -3.126113 0.013553 2.960810
    49 18.184616 0.000000 0.000000 0.000000 0.000000 -1.469431
    50 16.862097 0.000000 0.000000 0.012203 -0.086566 0.946442
    51 0.000011 -0.000005 -4.504589 3.295482 0.101819 3.217401
    52 18.184610 0.000000 0.000000 0.000000 0.000000 -1.131061
    53 16.862089 0.000000 0.000000 -0.137991 -0.050185 0.743638
  time 12
    0 -3.717574 0.045498 13.442725 0.000000 0.959025 -1.570986
    1 -1.445357 0.000000 0.000000 -0.000096 -1.474934 -1.570699
    2 1.576611 -0.003992 0.144538 -0.010392 -0.095371 0.109242
    3 5.015457 -0.003840 0.000000 0.086696 -0.008730 0.100249
    4 4.822693 -0.003838 0.000000 0.104518 0.014897 0.005933
    5 4.822556 -0.004685 0.000000 0.000156 0.015436 -0.036673
    6 5.883453 -0.001475 0.000000 0.000000 0.000000 -0.052333
    7 1.854832 0.000000 0.000000 -0.074021 -0.029189 -0.242773
    8 4.577744 2.974503 -4.899295 -2.021431 -1.297285 5.126140
    9 -0.576364 -6.294613 1.187798 0.146875 0.000000 0.000000
    10 4.598343 3.014902 4.786890 1.596678 -1.450456 0.685410
    11 0.671572 -6.281569 1.205063 0.615618 0.000000 0.000000
    12 0.988842 0.018080 3.418189 1.036088 -1.192064 -4.093547
    13 5.304816 0.000000 0.000000 0.525826 1.005126 1.040662
    14 18.707375 0.000000 -0.000002 0.000000 0.000000 -0.175384
    15 13.951651 0.000000 -0.000004 0.240363 0.355490 -0.035684
    16 -0.620571 0.325967 -1.592585 1.939676 0.991199 0.908602
    17 3.570904 0.000002 -0.000001 0.000000 0.000000 0.158389
    18 2.779234 -0.000001 0.000000 0.000000 0.000000 0.559524
    19 5.246642 0.034821 -2.517332 0.088044 0.239231 0.798238
    20 6.439503 -0.000001 0.000000 0.000000 0.000000 -0.007367
    21 3.098978 0.000000 0.000000 0.000000 0.000000 0.646731
    22 5.603584 -0.087752 -0.344059 -0.035605 -0.050076 0.477013
    23 4.928793 0.000000 -0.000004 0.000000 0.000000 1.053059
    24 6.254896 0.000002 -0.000002 0.000000 0.000000 0.576979
    25 5.434063 -0.010812 1.636232 -0.136228 -0.300574 0.619743
    26 4.854518 0.000000 0.000002 0.000000 0.000000 0.990434
    27 5.521277 0.000000 0.000000 0.000000 0.000000 1.257186
    28 -0.000004 0.001486 -3.418189 -1.036144 1.192085 -4.093344
    29 5.304816 0.000000 0.000000 -0.482335 -0.923586 1.471757
    30 18.340565 0.000000 -0.000002 0.000000 0.000000 -0.452577
    31 14.370207 0.000000 0.000002 -0.294324 -0.212686 0.379709
    32 -0.620573 0.325966 1.592587 -1.934795 -0.854119 0.851796
    33 3.927999 -0.000001 0.000000 0.000000 0.000000 0.367162
    34 2.779240 0.000001 0.000000 0.000000 0.000000 1.047513
    35 5.246641 0.034821 2.517334 -0.187896 -0.306733 0.556298
    36 6.313238 0.000002 0.000002 0.000000 0.000000 0.455460
    37 3.098980 0.000000 0.000001 0.000000 0.000000 0.385735
    38 5.603580 -0.087754 0.344059 0.008986 0.004337 0.592720
    39 4.532814 0.000000 -0.000002 0.000000 0.000000 0.542722
    40 6.615754 0.000002 0.000000 0.000000 0.000000 0.874028
    41 5.434061 -0.010812 -1.636234 0.207831 0.235611 0.767456
    42 4.623351 0.000001 -0.000002 0.000000 0.000000 0.507793
    43 5.521277 0.000000 0.000000 0.000000 0.000000 0.403152
    44 4.170006 3.279094 -1.198655 -1.588657 -1.418579 4.696229
    45 3.754124 3.204277 1.399633 1.551881 -1.187048 1.554280
    46 0.050228 4.476613 -0.976787 -1.570833 -1.336042 4.711886
    47 0.921745 4.255628 1.163094 1.570681 -1.116683 1.570164
    48 -0.000008 0.000008 4.504590 -3.122468 0.012115 2.936811
    49 18.184616 0.000000 0.000000 0.000000 0.000000 -1.341592
    50 16.862097 0.000000 0.000000 0.030208 -0.085323 0.560695
    51 0.000011 -0.000005 -4.504589 3.276093 0.119844 3.169221
    52 18.184610 0.000000 0.000000 0.000000 0.000000 -0.901513
    53 16.862089 0.000000 0.000000 -0.121676 -0.056163 0.292983
  time 13
    0 -3.672388 0.045498 10.214517 0.000000 1.286208 -1.571082
    1 -0.757836 -0.007813 0.000000 -0.000192 -1.474934 -1.570699
    2 1.576611 -0.003992 0.144538 -0.003023 -0.095883 0.031556
    3 5.015457 -0.003840 0.000000 0.086696 -0.008679 0.098449
    4 4.822693 -0.003838 0.000000 0.104554 0.007107 0.002407
    5 4.822556 -0.004685 0.000000 0.000072 0.007383 -0.025917
    6 5.883453 -0.001475 0.000000 0.000000 0.000000 -0.052333
    7 1.854832 0.000000 0.000000 -0.069917 0.037222 -0.045768
    8 4.577744 2.974503 -4.899295 0.000000 -1.570796 2.810149
    9 -0.576364 -6.294613 1.187798 0.000000 0.000000 0.000000
    10 4.598343 3.014902 4.786890 0.000000 -1.570796 2.810149
    11 0.671572 -6.281569 1.205063 0.000000 0.000000 0.000000
    12 0.988842 0.018080 3.418189 1.026213 -1.197846 -4.083864
    13 5.304816 0.000000 0.000000 0.632310 0.870447 1.140708
    14 18.707375 0.000000 -0.000002 0.000000 0.000000 -0.146891
    15 13.951651 0.000000 -0.000004 0.296745 0.411950 0.095540
    16 -0.620571 0.325967 -1.592585 1.947272 1.021209 0.917902
    17 3.570904 0.000002 -0.000001 0.000000 0.000000 0.128604
    18 2.779234 -0.000001 0.000000 0.000000 0.000000 0.529761
    19 5.246642 0.034821 -2.517332 0.071168 0.244687 0.727891
    20 6.439503 -0.000001 0.000000 0.000000 0.000000 -0.024870
    21 3.098978 0.000000 0.000000 0.000000 0.000000 0.616977
    22 5.603584 -0.087752 -0.344059 -0.034024 -0.051191 0.445441
    23 4.928793 0.000000 -0.000004 0.000000 0.000000 1.012085
    24 6.254896 0.000002 -0.000002 0.000000 0.000000 0.547265
    25 5.434063 -0.010812 1.636232 -0.119461 -0.307419 0.563379
    26 4.854518 0.000000 0.000002 0.000000 0.000000 0.947430
    27 5.521277 0.000000 0.000000 0.000000 0.000000 1.227512
    28 -0.000004 0.001486 -3.418189 -1.025998 1.197850 -4.083904
    29 5.304816 0.000000 0.000000 -0.655974 -0.763669 1.651089
    30 18.340565 0.000000 -0.000002 0.000000 0.000000 -0.487519
    31 14.370207 0.000000 0.000002 -0.355925 -0.213734 0.351313
    32 -0.620573 0.325966 1.592587 -1.943753 -0.902963 0.863543
    33 3.927999 -0.000001 0.000000 0.000000 0.000000 0.318770
    34 2.779240 0.000001 0.000000 0.000000 0.000000 0.999132
    35 5.246641 0.034821 2.517334 -0.175915 -0.313698 0.517437
    36 6.313238 0.000002 0.000002 0.000000 0.000000 0.418708
    37 3.098980 0.000000 0.000001 0.000000 0.000000 0.348827
    38 5.603580 -0.087754 0.344059 0.008650 0.004972 0.518982
    39 4.532814 0.000000 -0.000002 0.000000 0.000000 0.505779
    40 6.615754 0.000002 0.000000 0.000000 0.000000 0.837099
    41 5.434061 -0.010812 -1.636234 0.187648 0.251893 0.683644
    42 4.623351 0.000001 -0.000002 0.000000 0.000000 0.470936
    43 5.521277 0.000000 0.000000 0.000000 0.000000 0.366330
    44 4.170006 3.279094 -1.198655 -1.588564 -1.448710 4.696229
    45 3.754124 3.204277 1.399633 1.551969 -1.216856 1.554280
    46 0.050228 4.476613 -0.976787 -1.570740 -1.370280 4.711886
    47 0.921745 4.255628 1.163094 1.570681 -1.163032 1.570164
    48 -0.000008 0.000008 4.504590 -3.119386 0.011335 2.909562
    49 18.184616 0.000000 0.000000 0.000000 0.000000 -1.210388
    50 16.862097 0.000000 0.000000 0.047048 -0.080669 0.188683
    51 0.000011 -0.000005 -4.504589 3.255216 0.137653 3.110189
    52 18.184610 0.000000 0.000000 0.000000 0.000000 -0.712798
    53 16.862089 0.000000 0.000000 -0.108849 -0.059103 -0.124949
  time 14
    0 -3.651849 0.045498 7.514751 0.000000 1.570355 -1.571082
    1 -0.050783 -0.039064 0.000000 -0.000192 -1.474934 -1.570699
    2 1.576611 -0.003992 0.144538 0.004871 -0.095808 -0.052175
    3 5.015457 -0.003840 0.000000 0.086785 -0.008372 0.095495
    4 4.822693 -0.003838 0.000000 0.104602 -0.000983 0.008682
    5 4.822556 -0.004685 0.000000 0.000000 0.000000 -0.008692
    6 5.883453 -0.001475 0.000000 0.000000 0.000000 -0.052333
    7 1.854832 0.000000 0.000000 -0.084372 0.114169 0.308858
    8 4.577744 2.974503 -4.899295 1.695484 -0.199315 1.285699
    9 -0.576364 -6.294613 1.187798 0.003162 0.000000 0.000000
    10 4.598343 3.014902 4.786890 -1.879643 -0.436121 4.507628
    11 0.671572 -6.281569 1.205063 0.169271 0.000000 0.000000
    12 0.988842 0.018080 3.418189 1.021707 -1.200321 -4.079933
    13 5.304816 0.000000 0.000000 0.657713 0.783416 1.141342
    14 18.707375 0.000000 -0.000002 0.000000 0.000000 -0.104457
    15 13.951651 0.000000 -0.000004 0.326319 0.430010 0.187063
    16 -0.620571 0.325967 -1.592585 1.940787 1.057347 0.912079
    17 3.570904 0.000002 -0.000001 0.000000 0.000000 0.095983
    18 2.779234 -0.000001 0.000000 0.000000 0.000000 0.497297
    19 5.246642 0.034821 -2.517332 0.052214 0.249329 0.650374
    20 6.439503 -0.000001 0.000000 0.000000 0.000000 -0.026060
    21 3.098978 0.000000 0.000000 0.000000 0.000000 0.584429
    22 5.603584 -0.087752 -0.344059 -0.031773 -0.052593 0.402167
    23 4.928793 0.000000 -0.000004 0.000000 0.000000 0.950644
    24 6.254896 0.000002 -0.000002 0.000000 0.000000 0.514672
    25 5.434063 -0.010812 1.636232 -0.100960 -0.313829 0.502809
    26 4.854518 0.000000 0.000002 0.000000 0.000000 0.880925
    27 5.521277 0.000000 0.000000 0.000000 0.000000 1.194899
    28 -0.000004 0.001486 -3.418189 -1.021595 1.200311 -4.079750
    29 5.304816 0.000000 0.000000 -0.736042 -0.656929 1.708508
    30 18.340565 0.000000 -0.000002 0.000000 0.000000 -0.483408
    31 14.370207 0.000000 0.000002 -0.383591 -0.213734 0.305669
    32 -0.620573 0.325966 1.592587 -1.927715 -0.949604 0.845353
    33 3.927999 -0.000001 0.000000 0.000000 0.000000 0.279077
    34 2.779240 0.000001 0.000000 0.000000 0.000000 0.959407
    35 5.246641 0.034821 2.517334 -0.158307 -0.322746 0.460912
    36 6.313238 0.000002 0.000002 0.000000 0.000000 0.384021
    37 3.098980 0.000000 0.000001 0.000000 0.000000 0.314056
    38 5.603580 -0.087754 0.344059 0.008207 0.005620 0.444943
    39 4.532814 0.000000 -0.000002 0.000000 0.000000 0.471067
    40 6.615754 0.000002 0.000000 0.000000 0.000000 0.802424
    41 5.434061 -0.010812 -1.636234 0.165600 0.266727 0.597747
    42 4.623351 0.000001 -0.000002 0.000000 0.000000 0.436206
    43 5.521277 0.000000 0.000000 0.000000 0.000000 0.331473
    44 4.170006 3.279094 -1.198655 -1.588657 -1.487456 4.695947
    45 3.754124 3.204277 1.399633 1.551969 -1.255204 1.554280
    46 0.050228 4.476613 -0.976787 -1.570740 -1.414293 4.711886
    47 0.921745 4.255628 1.163094 1.570681 -1.222645 1.570164
    48 -0.000008 0.000008 4.504590 -3.117282 0.010579 2.902773
    49 18.184616 0.000000 0.000000 0.000000 0.000000 -1.081832
    50 16.862097 0.000000 0.000000 0.058115 -0.075502 -0.090463
    51 0.000011 -0.000005 -4.504589 3.235749 0.152231 3.054992
    52 18.184610 0.000000 0.000000 0.000000 0.000000 -0.630357
    53 16.862089 0.000000 0.000000 -0.099592 -0.061112 -0.422482
  time 15
    0 -3.651849 0.045498 7.509519 0.000000 1.554540 -1.571082
    1 1.156285 -0.132817 0.000000 -0.000192 -1.474934 -1.570699
    2 1.572704 -0.003992 0.144538 0.023016 -0.093136 -0.242786
    3 5.015457 -0.003840 0.000000 0.086785 -0.008270 0.093926
    4 4.822693 -0.003838 0.000000 0.103631 -0.015149 0.131039
    5 4.822556 -0.004685 0.000000 -0.000120 -0.001258 0.100570
    6 5.883453 -0.001475 0.000000 0.000000 0.000000 -0.052333
    7 1.854832 0.000000 0.000000 -0.074239 0.174911 1.060415
    8 4.577744 2.974503 -4.899295 1.612966 -0.109780 1.276789
    9 -0.576364 -6.294613 1.187798 0.032036 0.000000 0.000000
    10 4.598343 3.014902 4.786890 -1.777286 -0.148295 4.418563
    11 0.671572 -6.281569 1.205063 0.375780 0.000000 0.000000
    12 0.988842 0.018080 3.418189 1.021707 -1.200321 -4.079933
    13 5.304816 0.000000 0.000000 0.382193 0.878001 0.763039
    14 18.707375 0.000000 -0.000002 0.000000 0.000000 -0.028350
    15 13.951651 0.000000 -0.000004 0.241603 0.333221 0.146466
    16 -0.620571 0.325967 -1.592585 1.866027 1.125347 0.833591
    17 3.570904 0.000002 -0.000001 0.000000 0.000000 0.043399
    18 2.779234 -0.000001 0.000000 0.000000 0.000000 0.444639
    19 5.246642 0.034821 -2.517332 0.010126 0.254404 0.481802
    20 6.439503 -0.000001 0.000000 0.000000 0.000000 0.032170
    21 3.098978 0.000000 0.000000 0.000000 0.000000 0.531817
    22 5.603584 -0.087752 -0.344059 -0.026744 -0.055410 0.308965
    23 4.928793 0.000000 -0.000004 0.000000 0.000000 0.796266
    24 6.254896 0.000002 -0.000002 0.000000 0.000000 0.462116
    25 5.434063 -0.010812 1.636232 -0.062831 -0.323192 0.381322
    26 4.854518 0.000000 0.000002 0.000000 0.000000 0.708360
    27 5.521277 0.000000 0.000000 0.000000 0.000000 1.142283
    28 -0.000004 0.001486 -3.418189 -1.021595 1.200311 -4.079750
    29 5.304816 0.000000 0.000000 -0.630498 -0.849346 1.463185
    30 18.340565 0.000000 -0.000002 0.000000 0.000000 -0.367164
    31 14.370207 0.000000 0.000002 -0.297100 -0.190432 0.183428
    32 -0.620573 0.325966 1.592587 -1.803237 -1.012760 0.701354
    33 3.927999 -0.000001 0.000000 0.000000 0.000000 0.241869
    34 2.779240 0.000001 0.000000 0.000000 0.000000 0.922221
    35 5.246641 0.034821 2.517334 -0.118017 -0.338885 0.336807
    36 6.313238 0.000002 0.000002 0.000000 0.000000 0.346721
    37 3.098980 0.000000 0.000001 0.000000 0.000000 0.276871
    38 5.603580 -0.087754 0.344059 0.007416 0.006686 0.308235
    39 4.532814 0.000000 -0.000002 0.000000 0.000000 0.433829
    40 6.615754 0.000002 0.000000 0.000000 0.000000 0.765217
    41 5.434061 -0.010812 -1.636234 0.119107 0.290067 0.429041
    42 4.623351 0.000001 -0.000002 0.000000 0.000000 0.398965
    43 5.521277 0.000000 0.000000 0.000000 0.000000 0.294298
    44 4.170006 3.279094 -1.198655 -1.588284 -1.532786 4.695385
    45 3.754124 3.204277 1.399633 1.551969 -1.300092 1.554192
    46 0.050228 4.476613 -0.976787 -1.570740 -1.465787 4.711886
    47 0.921745 4.255628 1.163094 1.570681 -1.292455 1.570164
    48 -0.000008 0.000008 4.504590 -3.122566 0.010774 3.015310
    49 18.184616 0.000000 0.000000 0.000000 0.000000 -0.961365
    50 16.862097 0.000000 0.000000 0.032969 -0.083642 0.233556
    51 0.000011 -0.000005 -4.504589 3.228855 0.155678 3.004286
    52 18.184610 0.000000 0.000000 0.000000 0.000000 -1.298135
    53 16.862089 0.000000 0.000000 -0.092669 -0.071647 0.099405
  time 16
    0 -3.651849 0.045498 8.493155 0.000000 1.553917 -1.570986
    1 1.109409 -0.113285 0.000000 -0.000192 -1.474934 -1.570699
    2 1.572704 -0.003992 0.144538 0.021132 -0.093573 -0.222522
    3 5.015457 -0.003840 0.000000 0.086903 -0.006906 0.078233
    4 4.822693 -0.003838 0.000000 0.103775 -0.014034 0.120891
    5 4.822556 -0.004685 0.000000 -0.000120 -0.001198 0.093713
    6 5.883453 -0.001475 0.000000 0.000000 0.000000 -0.052333
    7 1.854832 0.000000 0.000000 -0.163658 0.108246 0.612922
    8 4.577744 2.974503 -4.899295 1.504956 -0.208768 1.255617
    9 -0.576364 -6.294613 1.187798 0.080298 0.000000 0.000000
    10 4.598343 3.014902 4.786890 -1.794409 -0.249967 4.360174
    11 0.671572 -6.281569 1.205063 0.584465 0.000000 0.000000
    12 0.988842 0.018080 3.418189 1.021707 -1.200321 -4.079933
    13 5.304816 0.000000 0.000000 -0.075447 0.931524 0.101642
    14 18.707375 0.000000 -0.000002 0.000000 0.000000 0.069241
    15 13.951651 0.000000 -0.000004 0.088389 0.123705 0.024734
    16 -0.620571 0.325967 -1.592585 1.683340 1.211021 0.643327
    17 3.570904 0.000002 -0.000001 0.000000 0.000000 -0.025275
    18 2.779234 -0.000001 0.000000 0.000000 0.000000 0.375910
    19 5.246642 0.034821 -2.517332 -0.053488 0.249069 0.227741
    20 6.439503 -0.000001 0.000000 0.000000 0.000000 0.140870
    21 3.098978 0.000000 0.000000 0.000000 0.000000 0.463154
    22 5.603584 -0.087752 -0.344059 -0.019177 -0.058394 0.175105
    23 4.928793 0.000000 -0.000004 0.000000 0.000000 0.564779
    24 6.254896 0.000002 -0.000002 0.000000 0.000000 0.393397
    25 5.434063 -0.010812 1.636232 -0.005193 -0.328961 0.201887
    26 4.854518 0.000000 0.000002 0.000000 0.000000 0.447949
    27 5.521277 0.000000 0.000000 0.000000 0.000000 1.073645
    28 -0.000004 0.001486 -3.418189 -1.021595 1.200311 -4.079750
    29 5.304816 0.000000 0.000000 -0.093681 -1.025997 0.750278
    30 18.340565 0.000000 -0.000002 0.000000 0.000000 -0.163224
    31 14.370207 0.000000 0.000002 -0.122773 -0.119900 0.007083
    32 -0.620573 0.325966 1.592587 -1.544240 -1.066535 0.410021
    33 3.927999 -0.000001 0.000000 0.000000 0.000000 0.203442
    34 2.779240 0.000001 0.000000 0.000000 0.000000 0.883719
    35 5.246641 0.034821 2.517334 -0.057095 -0.353762 0.158116
    36 6.313238 0.000002 0.000002 0.000000 0.000000 0.308325
    37 3.098980 0.000000 0.000001 0.000000 0.000000 0.238500
    38 5.603580 -0.087754 0.344059 0.005893 0.008005 0.110698
    39 4.532814 0.000000 -0.000002 0.000000 0.000000 0.395442
    40 6.615754 0.000002 0.000000 0.000000 0.000000 0.726807
    41 5.434061 -0.010812 -1.636234 0.044492 0.309809 0.177806
    42 4.623351 0.000001 -0.000002 0.000000 0.000000 0.360678
    43 5.521277 0.000000 0.000000 0.000000 0.000000 0.255949
    44 4.170006 3.279094 -1.198655 1.549807 -1.558922 1.557055
    45 3.754124 3.204277 1.399633 1.551881 -1.349584 1.554192
    46 0.050228 4.476613 -0.976787 -1.570740 -1.522578 4.711886
    47 0.921745 4.255628 1.163094 1.570681 -1.369377 1.570164
    48 -0.000008 0.000008 4.504590 -3.128706 0.014992 3.015501
    49 18.184616 0.000000 0.000000 0.000000 0.000000 -0.790148
    50 16.862097 0.000000 0.000000 0.033348 -0.077305 0.083230
    51 0.000011 -0.000005 -4.504589 3.233242 0.152518 2.995211
    52 18.184610 0.000000 0.000000 0.000000 0.000000 -1.515446
    53 16.862089 0.000000 0.000000 -0.047910 -0.070765 0.343339
  time 17
    0 -3.651849 0.045498 7.875766 0.000000 1.554684 -1.571082
    1 0.945341 -0.093753 0.000000 -0.000192 -1.474934 -1.570699
    2 1.572704 -0.003992 0.144538 0.017669 -0.094285 -0.185568
    3 5.015457 -0.003840 0.000000 0.086992 -0.005354 0.061571
    4 4.822693 -0.003838 0.000000 0.103966 -0.011697 0.100251
    5 4.822556 -0.004685 0.000000 -0.000084 -0.001091 0.077612
    6 5.883453 -0.001475 0.000000 0.000000 0.000000 -0.052333
    7 1.854832 0.000000 0.000000 -0.195002 0.019197 0.150506
    8 4.577744 2.974503 -4.899295 1.376245 -0.365901 1.256287
    9 -0.576364 -6.294613 1.187798 0.142341 0.000000 0.000000
    10 4.598343 3.014902 4.786890 -1.824733 -0.423922 4.307519
    11 0.671572 -6.281569 1.205063 0.794715 0.000000 0.000000
    12 0.988842 0.018080 3.418189 1.021707 -1.200321 -4.079933
    13 5.304816 0.000000 0.000000 -0.396998 0.856889 -0.378056
    14 18.707375 0.000000 -0.000002 0.000000 0.000000 0.144281
    15 13.951651 0.000000 -0.000004 -0.013499 -0.054158 -0.050908
    16 -0.620571 0.325967 -1.592585 1.472954 1.264716 0.426900
    17 3.570904 0.000002 -0.000001 0.000000 0.000000 -0.078418
    18 2.779234 -0.000001 0.000000 0.000000 0.000000 0.322726
    19 5.246642 0.034821 -2.517332 -0.100940 0.234156 0.030138
    20 6.439503 -0.000001 0.000000 0.000000 0.000000 0.227054
    21 3.098978 0.000000 0.000000 0.000000 0.000000 0.410007
    22 5.603584 -0.087752 -0.344059 -0.012999 -0.060072 0.070568
    23 4.928793 0.000000 -0.000004 0.000000 0.000000 0.383667
    24 6.254896 0.000002 -0.000002 0.000000 0.000000 0.340188
    25 5.434063 -0.010812 1.636232 0.040030 -0.326718 0.061546
    26 4.854518 0.000000 0.000002 0.000000 0.000000 0.244082
    27 5.521277 0.000000 0.000000 0.000000 0.000000 1.020365
    28 -0.000004 0.001486 -3.418189 -1.021595 1.200311 -4.079750
    29 5.304816 0.000000 0.000000 0.405018 -0.973919 0.115949
    30 18.340565 0.000000 -0.000002 0.000000 0.000000 -0.002066
    31 14.370207 0.000000 0.000002 0.005352 -0.044004 -0.119421
    32 -0.620573 0.325966 1.592587 -1.313490 -1.078255 0.153778
    33 3.927999 -0.000001 0.000000 0.000000 0.000000 0.174495
    34 2.779240 0.000001 0.000000 0.000000 0.000000 0.854681
    35 5.246641 0.034821 2.517334 -0.008222 -0.357928 0.018057
    36 6.313238 0.000002 0.000002 0.000000 0.000000 0.279328
    37 3.098980 0.000000 0.000001 0.000000 0.000000 0.209425
    38 5.603580 -0.087754 0.344059 0.004683 0.008748 -0.043421
    39 4.532814 0.000000 -0.000002 0.000000 0.000000 0.366406
    40 6.615754 0.000002 0.000000 0.000000 0.000000 0.697689
    41 5.434061 -0.010812 -1.636234 -0.016268 0.312477 -0.020054
    42 4.623351 0.000001 -0.000002 0.000000 0.000000 0.331527
    43 5.521277 0.000000 0.000000 0.000000 0.000000 0.226814
    44 4.170006 3.279094 -1.198655 1.551675 -1.506316 1.554992
    45 3.754124 3.204277 1.399633 1.551969 -1.401680 1.554192
    46 0.050228 4.476613 -0.976787 1.570646 -1.559383 1.570475
    47 0.921745 4.255628 1.163094 1.570681 -1.450382 1.570164
    48 -0.000008 0.000008 4.504590 -3.135311 0.019209 2.999821
    49 18.184616 0.000000 0.000000 0.000000 0.000000 -0.607479
    50 16.862097 0.000000 0.000000 0.036894 -0.069092 -0.139604
    51 0.000011 -0.000005 -4.504589 3.242642 0.145912 2.987914
    52 18.184610 0.000000 0.000000 0.000000 0.000000 -1.117665
    53 16.862089 0.000000 0.000000 0.037072 -0.072823 0.030011
  time 18
    0 -3.651849 0.045498 7.111879 0.000000 1.556073 -1.570986
    1 0.714866 -0.070315 0.000000 -0.000192 -1.474934 -1.570699
    2 1.576611 -0.003992 0.144538 0.013099 -0.095034 -0.137486
    3 5.015457 -0.003840 0.000000 0.087110 -0.003939 0.044263
    4 4.822693 -0.003838 0.000000 0.104326 -0.008473 0.072592
    5 4.822556 -0.004685 0.000000 -0.000060 -0.000839 0.055388
    6 5.883453 -0.001475 0.000000 0.000000 0.000000 -0.052333
    7 1.854832 0.000000 0.000000 -0.196818 0.008562 0.145076
    8 4.577744 2.974503 -4.899295 1.227120 -0.445493 1.285220
    9 -0.576364 -6.294613 1.187798 0.212199 0.000000 0.000000
    10 4.598343 3.014902 4.786890 -1.876964 -0.550122 4.270728
    11 0.671572 -6.281569 1.205063 1.006303 0.000000 0.000000
    12 0.988842 0.018080 3.418189 1.021707 -1.200321 -4.079933
    13 5.304816 0.000000 0.000000 -0.378662 0.871287 -0.372110
    14 18.707375 0.000000 -0.000002 0.000000 0.000000 0.156699
    15 13.951651 0.000000 -0.000004 -0.027523 -0.080123 -0.058490
    16 -0.620571 0.325967 -1.592585 1.434138 1.272125 0.387179
    17 3.570904 0.000002 -0.000001 0.000000 0.000000 -0.087162
    18 2.779234 -0.000001 0.000000 0.000000 0.000000 0.314026
    19 5.246642 0.034821 -2.517332 -0.108048 0.231021 -0.000648
    20 6.439503 -0.000001 0.000000 0.000000 0.000000 0.239714
    21 3.098978 0.000000 0.000000 0.000000 0.000000 0.401268
    22 5.603584 -0.087752 -0.344059 -0.012025 -0.060203 0.053864
    23 4.928793 0.000000 -0.000004 0.000000 0.000000 0.355306
    24 6.254896 0.000002 -0.000002 0.000000 0.000000 0.331551
    25 5.434063 -0.010812 1.636232 0.047124 -0.325734 0.039475
    26 4.854518 0.000000 0.000002 0.000000 0.000000 0.212200
    27 5.521277 0.000000 0.000000 0.000000 0.000000 1.011769
    28 -0.000004 0.001486 -3.418189 -1.021595 1.200311 -4.079750
    29 5.304816 0.000000 0.000000 0.383852 -0.965455 0.125677
    30 18.340565 0.000000 -0.000002 0.000000 0.000000 0.022066
    31 14.370207 0.000000 0.000002 0.022454 -0.031473 -0.138571
    32 -0.620573 0.325966 1.592587 -1.277151 -1.078255 0.113383
    33 3.927999 -0.000001 0.000000 0.000000 0.000000 0.169280
    34 2.779240 0.000001 0.000000 0.000000 0.000000 0.849395
    35 5.246641 0.034821 2.517334 -0.000455 -0.358012 -0.004451
    36 6.313238 0.000002 0.000002 0.000000 0.000000 0.273891
    37 3.098980 0.000000 0.000001 0.000000 0.000000 0.204203
    38 5.603580 -0.087754 0.344059 0.004467 0.008855 -0.067851
    39 4.532814 0.000000 -0.000002 0.000000 0.000000 0.361190
    40 6.615754 0.000002 0.000000 0.000000 0.000000 0.692533
    41 5.434061 -0.010812 -1.636234 -0.025849 0.311852 -0.051333
    42 4.623351 0.000001 -0.000002 0.000000 0.000000 0.326401
    43 5.521277 0.000000 0.000000 0.000000 0.000000 0.221591
    44 4.170006 3.279094 -1.198655 1.551768 -1.453062 1.554804
    45 3.754124 3.204277 1.399633 1.551969 -1.454442 1.554192
    46 0.050228 4.476613 -0.976787 1.570646 -1.498824 1.570475
    47 0.921745 4.255628 1.163094 1.570607 -1.532402 1.570164
    48 -0.000008 0.000008 4.504590 -3.141598 0.023330 2.978881
    49 18.184616 0.000000 0.000000 0.000000 0.000000 -0.433328
    50 16.862097 0.000000 0.000000 0.040718 -0.060660 -0.374588
    51 0.000011 -0.000005 -4.504589 3.253375 0.138910 2.981178
    52 18.184610 0.000000 0.000000 0.000000 0.000000 -0.611227
    53 16.862089 0.000000 0.000000 0.126428 -0.083701 -0.381809
  time 19
    0 -3.651849 0.045498 6.839809 0.000000 1.558038 -1.570890
    1 0.453139 -0.039064 0.000000 -0.000192 -1.474934 -1.570699
    2 1.576611 -0.003992 0.144538 0.007946 -0.095596 -0.083772
    3 5.015457 -0.003840 0.000000 0.087140 -0.002336 0.026447
    4 4.822693 -0.003838 0.000000 0.104542 -0.004986 0.041423
    5 4.822556 -0.004685 0.000000 -0.000012 -0.000467 0.030091
    6 5.883453 -0.001475 0.000000 0.000000 0.000000 -0.052333
    7 1.854832 0.000000 0.000000 -0.195365 0.021152 0.253184
    8 4.577744 2.974503 -4.899295 1.055377 -0.390648 1.325650
    9 -0.576364 -6.294613 1.187798 0.284085 0.000000 0.000000
    10 4.598343 3.014902 4.786890 -1.970330 -0.571785 4.257922
    11 0.671572 -6.281569 1.205063 1.218171 0.000000 0.000000
    12 0.988842 0.018080 3.418189 1.021707 -1.200321 -4.079933
    13 5.304816 0.000000 0.000000 -0.266066 0.920419 -0.225054
    14 18.707375 0.000000 -0.000002 0.000000 0.000000 0.144281
    15 13.951651 0.000000 -0.000004 -0.013499 -0.054158 -0.050908
    16 -0.620571 0.325967 -1.592585 1.472954 1.264716 0.426900
    17 3.570904 0.000002 -0.000001 0.000000 0.000000 -0.078418
    18 2.779234 -0.000001 0.000000 0.000000 0.000000 0.322726
    19 5.246642 0.034821 -2.517332 -0.100940 0.234156 0.030088
    20 6.439503 -0.000001 0.000000 0.000000 0.000000 0.227054
    21 3.098978 0.000000 0.000000 0.000000 0.000000 0.410007
    22 5.603584 -0.087752 -0.344059 -0.012999 -0.060072 0.070568
    23 4.928793 0.000000 -0.000004 0.000000 0.000000 0.383667
    24 6.254896 0.000002 -0.000002 0.000000 0.000000 0.340188
    25 5.434063 -0.010812 1.636232 0.040030 -0.326718 0.061546
    26 4.854518 0.000000 0.000002 0.000000 0.000000 0.244082
    27 5.521277 0.000000 0.000000 0.000000 0.000000 1.020365
    28 -0.000004 0.001486 -3.418189 -1.021595 1.200311 -4.079750
    29 5.304816 0.000000 0.000000 0.230134 -0.983805 0.309568
    30 18.340565 0.000000 -0.000002 0.000000 0.000000 -0.002066
    31 14.370207 0.000000 0.000002 0.005352 -0.044004 -0.119421
    32 -0.620573 0.325966 1.592587 -1.313490 -1.078255 0.153778
    33 3.927999 -0.000001 0.000000 0.000000 0.000000 0.174495
    34 2.779240 0.000001 0.000000 0.000000 0.000000 0.854681
    35 5.246641 0.034821 2.517334 -0.008244 -0.357928 0.018057
    36 6.313238 0.000002 0.000002 0.000000 0.000000 0.279328
    37 3.098980 0.000000 0.000001 0.000000 0.000000 0.209425
    38 5.603580 -0.087754 0.344059 0.004695 0.008748 -0.043421
    39 4.532814 0.000000 -0.000002 0.000000 0.000000 0.366406
    40 6.615754 0.000002 0.000000 0.000000 0.000000 0.697689
    41 5.434061 -0.010812 -1.636234 -0.016268 0.312477 -0.020054
    42 4.623351 0.000001 -0.000002 0.000000 0.000000 0.331527
    43 5.521277 0.000000 0.000000 0.000000 0.000000 0.226814
    44 4.170006 3.279094 -1.198655 1.551862 -1.401081 1.554617
    45 3.754124 3.204277 1.399633 1.551881 -1.505891 1.554105
    46 0.050228 4.476613 -0.976787 1.570552 -1.439822 1.570475
    47 0.921745 4.255628 1.163094 -1.570754 -1.529220 4.711583
    48 -0.000008 0.000008 4.504590 -3.146270 0.026499 2.964157
    49 18.184616 0.000000 0.000000 0.000000 0.000000 -0.287880
    50 16.862097 0.000000 0.000000 0.042971 -0.054031 -0.561524
    51 0.000011 -0.000005 -4.504589 3.261248 0.133452 2.976033
    52 18.184610 0.000000 0.000000 0.000000 0.000000 -0.212544
    53 16.862089 0.000000 0.000000 0.192546 -0.097911 -0.708279
  time 20
    0 -3.651849 0.045498 6.745632 0.000000 1.560003 -1.570890
    1 0.187506 -0.007813 0.000000 -0.000192 -1.474934 -1.570699
    2 1.576611 -0.003992 0.144538 0.002822 -0.095883 -0.030058
    3 5.015457 -0.003840 0.000000 0.087140 -0.000716 0.008585
    4 4.822693 -0.003838 0.000000 0.104602 -0.001342 0.010307
    5 4.822556 -0.004685 0.000000 0.000000 -0.000252 0.004702
    6 5.883453 -0.001475 0.000000 0.000000 0.000000 -0.052333
    7 1.854832 0.000000 0.000000 -0.190825 0.043263 0.406106
    8 4.577744 2.974503 -4.899295 0.871079 -0.270881 1.356308
    9 -0.576364 -6.294613 1.187798 0.351855 0.000000 0.000000
    10 4.598343 3.014902 4.786890 -2.091149 -0.544435 4.256585
    11 0.671572 -6.281569 1.205063 1.429705 0.000000 0.000000
    12 0.988842 0.018080 3.418189 1.021707 -1.200321 -4.079933
    13 5.304816 0.000000 0.000000 -0.265684 0.934623 -0.232268
    14 18.707375 0.000000 -0.000002 0.000000 0.000000 0.144281
    15 13.951651 0.000000 -0.000004 -0.013499 -0.054158 -0.050908
    16 -0.620571 0.325967 -1.592585 1.472954 1.264716 0.426900
    17 3.570904 0.000002 -0.000001 0.000000 0.000000 -0.078418
    18 2.779234 -0.000001 0.000000 0.000000 0.000000 0.322726
    19 5.246642 0.034821 -2.517332 -0.100940 0.234156 0.030088
    20 6.439503 -0.000001 0.000000 0.000000 0.000000 0.227054
    21 3.098978 0.000000 0.000000 0.000000 0.000000 0.410007
    22 5.603584 -0.087752 -0.344059 -0.012999 -0.060072 0.070568
    23 4.928793 0.000000 -0.000004 0.000000 0.000000 0.383667
    24 6.254896 0.000002 -0.000002 0.000000 0.000000 0.340188
    25 5.434063 -0.010812 1.636232 0.040030 -0.326695 0.061546
    26 4.854518 0.000000 0.000002 0.000000 0.000000 0.244114
    27 5.521277 0.000000 0.000000 0.000000 0.000000 1.020365
    28 -0.000004 0.001486 -3.418189 -1.021595 1.200311 -4.079750
    29 5.304816 0.000000 0.000000 0.213181 -0.971916 0.320725
    30 18.340565 0.000000 -0.000002 0.000000 0.000000 -0.002066
    31 14.370207 0.000000 0.000002 0.005352 -0.044004 -0.119421
    32 -0.620573 0.325966 1.592587 -1.313490 -1.078255 0.153778
    33 3.927999 -0.000001 0.000000 0.000000 0.000000 0.174495
    34 2.779240 0.000001 0.000000 0.000000 0.000000 0.854658
    35 5.246641 0.034821 2.517334 -0.008222 -0.357970 0.018057
    36 6.313238 0.000002 0.000002 0.000000 0.000000 0.279328
    37 3.098980 0.000000 0.000001 0.000000 0.000000 0.209425
    38 5.603580 -0.087754 0.344059 0.004683 0.008748 -0.043421
    39 4.532814 0.000000 -0.000002 0.000000 0.000000 0.366406
    40 6.615754 0.000002 0.000000 0.000000 0.000000 0.697689
    41 5.434061 -0.010812 -1.636234 -0.016268 0.312477 -0.020054
    42 4.623351 0.000001 -0.000002 0.000000 0.000000 0.331527
    43 5.521277 0.000000 0.000000 0.000000 0.000000 0.226814
    44 4.170006 3.279094 -1.198655 1.551675 -1.352380 1.554429
    45 3.754124 3.204277 1.399633 1.551969 -1.554051 1.554192
    46 0.050228 4.476613 -0.976787 1.570646 -1.384532 1.570475
    47 0.921745 4.255628 1.163094 -1.570754 -1.454311 4.711583
    48 -0.000008 0.000008 4.504590 -3.142356 0.024085 2.974866
    49 18.184616 0.000000 0.000000 0.000000 0.000000 -0.338844
    50 16.862097 0.000000 0.000000 0.041351 -0.059295 -0.481026
    51 0.000011 -0.000005 -4.504589 3.255764 0.137294 2.979682
    52 18.184610 0.000000 0.000000 0.000000 0.000000 -0.424767
    53 16.862089 0.000000 0.000000 0.145748 -0.087327 -0.547099
  time 21
    0 -3.655957 0.045498 6.677614 0.000000 1.561393 -1.571082
    1 -0.039064 0.000000 0.000000 -0.000192 -1.474934 -1.570699
    2 1.576611 -0.003992 0.144538 -0.001721 -0.095908 0.017955
    3 5.015457 -0.003840 0.000000 0.087140 0.000648 -0.008585
    4 4.822693 -0.003838 0.000000 0.104602 0.001738 -0.017335
    5 4.822556 -0.004685 0.000000 0.000000 0.000000 -0.017431
    6 5.883453 -0.001475 0.000000 0.000000 0.000000 -0.052333
    7 1.854832 0.000000 0.000000 -0.185341 0.061268 0.535297
    8 4.577744 2.974503 -4.899295 0.695502 -0.147725 1.363780
    9 -0.576364 -6.294613 1.187798 0.410080 0.000000 0.000000
    10 4.598343 3.014902 4.786890 -2.210247 -0.517346 4.251233
    11 0.671572 -6.281569 1.205063 1.640568 0.000000 0.000000
    12 0.988842 0.018080 3.418189 1.021707 -1.200321 -4.079933
    13 5.304816 0.000000 0.000000 -0.289560 0.942564 -0.267387
    14 18.707375 0.000000 -0.000002 0.000000 0.000000 0.144281
    15 13.951651 0.000000 -0.000004 -0.013499 -0.054158 -0.050908
    16 -0.620571 0.325967 -1.592585 1.472954 1.264716 0.426900
    17 3.570904 0.000002 -0.000001 0.000000 0.000000 -0.078418
    18 2.779234 -0.000001 0.000000 0.000000 0.000000 0.322726
    19 5.246642 0.034821 -2.517332 -0.100940 0.234156 0.030138
    20 6.439503 -0.000001 0.000000 0.000000 0.000000 0.227054
    21 3.098978 0.000000 0.000000 0.000000 0.000000 0.410007
    22 5.603584 -0.087752 -0.344059 -0.012999 -0.060072 0.070568
    23 4.928793 0.000000 -0.000004 0.000000 0.000000 0.383667
    24 6.254896 0.000002 -0.000002 0.000000 0.000000 0.340188
    25 5.434063 -0.010812 1.636232 0.040030 -0.326741 0.061546
    26 4.854518 0.000000 0.000002 0.000000 0.000000 0.244082
    27 5.521277 0.000000 0.000000 0.000000 0.000000 1.020365
    28 -0.000004 0.001486 -3.418189 -1.021595 1.200311 -4.079750
    29 5.304816 0.000000 0.000000 0.218641 -0.958089 0.304397
    30 18.340565 0.000000 -0.000002 0.000000 0.000000 -0.002066
    31 14.370207 0.000000 0.000002 0.005352 -0.044004 -0.119421
    32 -0.620573 0.325966 1.592587 -1.313490 -1.078270 0.153778
    33 3.927999 -0.000001 0.000000 0.000000 0.000000 0.174495
    34 2.779240 0.000001 0.000000 0.000000 0.000000 0.854704
    35 5.246641 0.034821 2.517334 -0.008222 -0.357928 0.018057
    36 6.313238 0.000002 0.000002 0.000000 0.000000 0.279328
    37 3.098980 0.000000 0.000001 0.000000 0.000000 0.209425
    38 5.603580 -0.087754 0.344059 0.004683 0.008748 -0.043421
    39 4.532814 0.000000 -0.000002 0.000000 0.000000 0.366406
    40 6.615754 0.000002 0.000000 0.000000 0.000000 0.697689
    41 5.434061 -0.010812 -1.636234 -0.016268 0.312477 -0.020094
    42 4.623351 0.000001 -0.000002 0.000000 0.000000 0.331527
    43 5.521277 0.000000 0.000000 0.000000 0.000000 0.226814
    44 4.170006 3.279094 -1.198655 1.551675 -1.309081 1.554429
    45 3.754124 3.204277 1.399633 -1.589560 -1.544650 4.695525
    46 0.050228 4.476613 -0.976787 1.570646 -1.335222 1.570475
    47 0.921745 4.255628 1.163094 -1.570754 -1.387568 4.711583
    48 -0.000008 0.000008 4.504590 -3.146270 0.026499 2.964157
    49 18.184616 0.000000 0.000000 0.000000 0.000000 -0.287880
    50 16.862097 0.000000 0.000000 0.042971 -0.054031 -0.561469
    51 0.000011 -0.000005 -4.504589 3.261248 0.133452 2.976033
    52 18.184610 0.000000 0.000000 0.000000 0.000000 -0.212544
    53 16.862089 0.000000 0.000000 0.192546 -0.097911 -0.708279
end
