// Created by Crowbar 0.58
version 1
nodes
  0 "Bip01" -1
  1 "Bip01 Pelvis" 0
  2 "Bip01 Spine" 1
  3 "Bip01 Spine1" 2
  4 "Bip01 Spine2" 3
  5 "Bip01 Spine3" 4
  6 "Bip01 Neck" 5
  7 "Bip01 Head" 6
  8 "Bone09" 7
  9 "Bone10" 8
  10 "Bone12" 7
  11 "Bone13" 10
  12 "Bip01 L Clavicle" 6
  13 "Bip01 L UpperArm" 12
  14 "Bip01 L Forearm" 13
  15 "Bip01 L Hand" 14
  16 "Bip01 L Finger0" 15
  17 "Bip01 L Finger01" 16
  18 "Bip01 L Finger02" 17
  19 "Bip01 L Finger1" 15
  20 "Bip01 L Finger11" 19
  21 "Bip01 L Finger12" 20
  22 "Bip01 L Finger2" 15
  23 "Bip01 L Finger21" 22
  24 "Bip01 L Finger22" 23
  25 "Bip01 L Finger3" 15
  26 "Bip01 L Finger31" 25
  27 "Bip01 L Finger32" 26
  28 "Bip01 R Clavicle" 6
  29 "Bip01 R UpperArm" 28
  30 "Bip01 R Forearm" 29
  31 "Bip01 R Hand" 30
  32 "Bip01 R Finger0" 31
  33 "Bip01 R Finger01" 32
  34 "Bip01 R Finger02" 33
  35 "Bip01 R Finger1" 31
  36 "Bip01 R Finger11" 35
  37 "Bip01 R Finger12" 36
  38 "Bip01 R Finger2" 31
  39 "Bip01 R Finger21" 38
  40 "Bip01 R Finger22" 39
  41 "Bip01 R Finger3" 31
  42 "Bip01 R Finger31" 41
  43 "Bip01 R Finger32" 42
  44 "Bone01" 4
  45 "Bone03" 4
  46 "Bone05" 3
  47 "Bone07" 3
  48 "Bip01 L Thigh" 1
  49 "Bip01 L Calf" 48
  50 "Bip01 L Foot" 49
  51 "Bip01 R Thigh" 1
  52 "Bip01 R Calf" 51
  53 "Bip01 R Foot" 52
end
skeleton
  time 0
    0 -1.827979 0.045498 37.782476 0.000000 0.000000 -1.570986
    1 -0.082034 -0.007813 0.000000 0.000000 -1.570451 -1.570795
    2 1.576611 -0.003992 0.000002 -0.000004 -0.000001 0.000646
    3 5.015457 -0.003840 0.000000 0.087140 0.000000 0.000000
    4 4.822693 -0.003838 0.000000 0.104590 -0.003655 0.034716
    5 4.822556 -0.004685 0.000000 0.000000 0.000000 0.000000
    6 5.883453 -0.001475 0.000000 0.000000 0.000000 -0.052333
    7 1.854832 0.000000 0.000000 -0.181600 0.062109 0.342674
    8 4.577744 2.974503 -4.899295 0.000000 -1.570796 2.810149
    9 -0.576364 -6.294613 1.187798 0.000000 0.000000 0.000000
    10 4.598343 3.014902 4.786890 0.000000 -1.570796 2.810149
    11 0.671572 -6.281569 1.205063 0.000000 0.000000 0.000000
    12 0.988842 0.018080 3.418189 -0.000014 -1.370796 -3.090042
    13 5.304816 0.000000 0.000000 0.628203 0.979107 0.833436
    14 18.707375 0.000000 -0.000002 0.000000 0.000000 -1.197686
    15 13.951651 0.000000 -0.000004 0.063585 -0.128453 -0.643864
    16 -0.620571 0.325967 -1.592585 1.860746 0.900460 0.815947
    17 3.570904 0.000002 -0.000001 0.000000 0.000000 0.261641
    18 2.779234 -0.000001 0.000000 0.000000 0.000000 0.662870
    19 5.246642 0.034821 -2.517332 -0.190682 0.169759 -0.410144
    20 6.439503 -0.000001 0.000000 0.000000 0.000000 0.139652
    21 3.098978 0.000000 0.000000 0.000000 0.000000 0.750082
    22 5.603584 -0.087752 -0.344059 -0.045423 -0.041483 0.690309
    23 4.928793 0.000000 -0.000004 0.000000 0.000000 1.116326
    24 6.254896 0.000002 -0.000002 0.000000 0.000000 0.680326
    25 5.434063 -0.010812 1.636232 0.109195 -0.311105 -0.158269
    26 4.854518 0.000000 0.000002 0.000000 0.000000 1.046591
    27 5.521277 0.000000 0.000000 0.000000 0.000000 1.360586
    28 -0.000004 0.001486 -3.418189 -0.000014 1.370796 -3.090069
    29 5.304816 0.000000 0.000000 0.478956 -1.116584 -0.009638
    30 18.340565 0.000000 -0.000002 0.000000 0.000000 -1.228906
    31 14.370207 0.000000 0.000002 0.107871 0.060977 0.439518
    32 -0.620573 0.325966 1.592587 -2.192420 -1.214130 1.142219
    33 3.927999 -0.000001 0.000000 0.000000 0.000000 -0.017393
    34 2.779240 0.000001 0.000000 0.000000 0.000000 0.662888
    35 5.246641 0.034821 2.517334 -0.311150 -0.180461 1.056475
    36 6.313238 0.000002 0.000002 0.000000 0.000000 0.610687
    37 3.098980 0.000000 0.000001 0.000000 0.000000 0.540803
    38 5.603580 -0.087754 0.344059 0.000333 0.009970 -0.505592
    39 4.532814 0.000000 -0.000002 0.000000 0.000000 0.697778
    40 6.615754 0.000002 0.000000 0.000000 0.000000 1.029123
    41 5.434061 -0.010812 -1.636234 -0.202330 0.240322 -0.678678
    42 4.623351 0.000001 -0.000002 0.000000 0.000000 0.662859
    43 5.521277 0.000000 0.000000 0.000000 0.000000 0.558307
    44 4.170006 3.279094 -1.198655 1.551768 -1.326512 1.554429
    45 3.754124 3.204277 1.399633 -1.589648 -1.457379 4.695613
    46 0.050228 4.476613 -0.976787 1.570646 -1.291564 1.570475
    47 0.921745 4.255628 1.163094 -1.570754 -1.247985 4.711583
    48 -0.000008 0.000008 4.504590 -3.141598 -0.000222 2.839190
    49 18.184616 0.000000 0.000000 0.000000 0.000000 -0.374634
    50 16.862097 0.000000 0.000000 -0.000028 -0.000073 0.072505
    51 0.000011 -0.000005 -4.504589 3.315693 0.020635 3.005502
    52 18.184610 0.000000 0.000000 0.000000 0.000000 -0.434622
    53 16.862089 0.000000 0.000000 -0.175236 -0.003537 0.297364
  time 1
    0 -1.827979 0.045498 37.782476 0.000000 0.000000 -1.570986
    1 -0.082034 -0.007813 0.000000 0.000000 -1.570451 -1.570795
    2 1.576611 -0.003992 0.000002 -0.000004 -0.000001 0.000646
    3 5.015457 -0.003840 0.000000 0.087140 0.000000 0.000000
    4 4.822693 -0.003838 0.000000 0.104590 -0.003655 0.034716
    5 4.822556 -0.004685 0.000000 0.000000 0.000000 0.000000
    6 5.883453 -0.001475 0.000000 0.000000 0.000000 -0.052333
    7 1.854832 0.000000 0.000000 -0.181600 0.062109 0.342674
    8 4.577744 2.974503 -4.899295 0.000000 -1.570796 2.810149
    9 -0.576364 -6.294613 1.187798 0.000000 0.000000 0.000000
    10 4.598343 3.014902 4.786890 0.000000 -1.570796 2.810149
    11 0.671572 -6.281569 1.205063 0.000000 0.000000 0.000000
    12 0.988842 0.018080 3.418189 -0.000014 -1.370796 -3.090042
    13 5.304816 0.000000 0.000000 0.628203 0.979107 0.833436
    14 18.707375 0.000000 -0.000002 0.000000 0.000000 -1.197686
    15 13.951651 0.000000 -0.000004 0.063585 -0.128453 -0.643864
    16 -0.620571 0.325967 -1.592585 1.860746 0.900460 0.815947
    17 3.570904 0.000002 -0.000001 0.000000 0.000000 0.261641
    18 2.779234 -0.000001 0.000000 0.000000 0.000000 0.662870
    19 5.246642 0.034821 -2.517332 -0.190682 0.169759 -0.410144
    20 6.439503 -0.000001 0.000000 0.000000 0.000000 0.139652
    21 3.098978 0.000000 0.000000 0.000000 0.000000 0.750082
    22 5.603584 -0.087752 -0.344059 -0.045423 -0.041483 0.690309
    23 4.928793 0.000000 -0.000004 0.000000 0.000000 1.116326
    24 6.254896 0.000002 -0.000002 0.000000 0.000000 0.680326
    25 5.434063 -0.010812 1.636232 0.109195 -0.311105 -0.158269
    26 4.854518 0.000000 0.000002 0.000000 0.000000 1.046591
    27 5.521277 0.000000 0.000000 0.000000 0.000000 1.360586
    28 -0.000004 0.001486 -3.418189 -0.000014 1.370796 -3.090069
    29 5.304816 0.000000 0.000000 0.478956 -1.116584 -0.009638
    30 18.340565 0.000000 -0.000002 0.000000 0.000000 -1.228906
    31 14.370207 0.000000 0.000002 0.107871 0.060977 0.439518
    32 -0.620573 0.325966 1.592587 -2.192420 -1.214130 1.142219
    33 3.927999 -0.000001 0.000000 0.000000 0.000000 -0.017393
    34 2.779240 0.000001 0.000000 0.000000 0.000000 0.662888
    35 5.246641 0.034821 2.517334 -0.311150 -0.180461 1.056475
    36 6.313238 0.000002 0.000002 0.000000 0.000000 0.610687
    37 3.098980 0.000000 0.000001 0.000000 0.000000 0.540803
    38 5.603580 -0.087754 0.344059 0.000333 0.009970 -0.505592
    39 4.532814 0.000000 -0.000002 0.000000 0.000000 0.697778
    40 6.615754 0.000002 0.000000 0.000000 0.000000 1.029123
    41 5.434061 -0.010812 -1.636234 -0.202330 0.240322 -0.678678
    42 4.623351 0.000001 -0.000002 0.000000 0.000000 0.662859
    43 5.521277 0.000000 0.000000 0.000000 0.000000 0.558307
    44 4.170006 3.279094 -1.198655 1.551768 -1.326512 1.554429
    45 3.754124 3.204277 1.399633 -1.589648 -1.457379 4.695613
    46 0.050228 4.476613 -0.976787 1.570646 -1.291564 1.570475
    47 0.921745 4.255628 1.163094 -1.570754 -1.247985 4.711583
    48 -0.000008 0.000008 4.504590 -3.141598 -0.000222 2.839190
    49 18.184616 0.000000 0.000000 0.000000 0.000000 -0.374634
    50 16.862097 0.000000 0.000000 -0.000028 -0.000073 0.072505
    51 0.000011 -0.000005 -4.504589 3.315693 0.020635 3.005502
    52 18.184610 0.000000 0.000000 0.000000 0.000000 -0.434622
    53 16.862089 0.000000 0.000000 -0.175236 -0.003537 0.297364
  time 2
    0 -1.445952 0.045498 37.327283 -0.053979 0.000000 -1.570986
    1 -0.144536 0.546892 0.000000 0.000000 -1.570451 -1.570795
    2 1.576611 -0.003992 0.000002 -0.000004 0.031864 0.002501
    3 5.015457 -0.003840 0.000000 0.087140 0.046498 0.006231
    4 4.822693 -0.003838 0.000000 0.104530 0.011110 0.037759
    5 4.822556 -0.004685 0.000000 -0.000096 0.006028 0.001514
    6 5.883453 -0.001475 0.000000 0.000000 0.000000 -0.052333
    7 1.854832 0.000000 0.000000 -0.145244 0.170004 0.312874
    8 4.577744 2.974503 -4.899295 0.000000 -1.570796 2.139610
    9 -0.576364 -6.294613 1.187798 0.910420 0.000000 0.000000
    10 4.598343 3.014902 4.786890 0.000000 -1.570796 1.929444
    11 0.671572 -6.281569 1.205063 0.140855 0.000000 0.000000
    12 0.988842 0.018080 3.418189 -0.094066 -1.467856 -2.996086
    13 5.304816 0.000000 0.000000 0.647494 0.941854 0.907796
    14 18.707375 0.000000 -0.000002 0.000000 0.000000 -1.452062
    15 13.951651 0.000000 -0.000004 -0.204874 -0.319074 -0.570252
    16 -0.620571 0.325967 -1.592585 1.827674 1.030174 0.859493
    17 3.570904 0.000002 -0.000001 0.000000 0.000000 0.129722
    18 2.779234 -0.000001 0.000000 0.000000 0.000000 0.530906
    19 5.246642 0.034821 -2.517332 -0.278659 0.128243 -0.536999
    20 6.439503 -0.000001 0.000000 0.000000 0.000000 0.007672
    21 3.098978 0.000000 0.000000 0.000000 0.000000 0.618106
    22 5.603584 -0.087752 -0.344059 -0.066353 -0.115069 0.185384
    23 4.928793 0.000000 -0.000004 0.000000 0.000000 0.984399
    24 6.254896 0.000002 -0.000002 0.000000 0.000000 0.548456
    25 5.434063 -0.010812 1.636232 0.082513 -0.309571 -0.296977
    26 4.854518 0.000000 0.000002 0.000000 0.000000 0.914677
    27 5.521277 0.000000 0.000000 0.000000 0.000000 1.228618
    28 -0.000004 0.001486 -3.418189 -0.000014 1.415097 -3.090069
    29 5.304816 0.000000 0.000000 0.268827 -1.092548 0.226433
    30 18.340565 0.000000 -0.000002 0.000000 0.000000 -1.036308
    31 14.370207 0.000000 0.000002 0.109304 0.059888 0.446929
    32 -0.620573 0.325966 1.592587 -2.176165 -1.205317 1.124636
    33 3.927999 -0.000001 0.000000 0.000000 0.000000 -0.176385
    34 2.779240 0.000001 0.000000 0.000000 0.000000 0.635812
    35 5.246641 0.034821 2.517334 -0.274589 -0.232834 0.879493
    36 6.313238 0.000002 0.000002 0.000000 0.000000 0.433459
    37 3.098980 0.000000 0.000001 0.000000 0.000000 0.363662
    38 5.603580 -0.087754 0.344059 0.040373 -0.067630 -0.509082
    39 4.532814 0.000000 -0.000002 0.000000 0.000000 0.526252
    40 6.615754 0.000002 0.000000 0.000000 0.000000 0.857571
    41 5.434061 -0.010812 -1.636234 -0.172725 0.262229 -0.559577
    42 4.623351 0.000001 -0.000002 0.000000 0.000000 0.635800
    43 5.521277 0.000000 0.000000 0.000000 0.000000 0.531079
    44 4.170006 3.279094 -1.198655 -1.589031 -1.460896 4.696041
    45 3.754124 3.204277 1.399633 1.551969 -1.335424 1.554280
    46 0.050228 4.476613 -0.976787 -1.570740 -1.491616 4.711886
    47 0.921745 4.255628 1.163094 1.570681 -1.406180 1.570164
    48 -0.000008 0.000008 4.504590 -3.134626 -0.025211 2.750461
    49 18.184616 0.000000 0.000000 0.000000 0.000000 -0.549644
    50 16.862097 0.000000 0.000000 0.003264 0.028295 0.159023
    51 0.000011 -0.000005 -4.504589 3.321255 -0.000047 2.975846
    52 18.184610 0.000000 0.000000 0.000000 0.000000 -0.495423
    53 16.862089 0.000000 0.000000 -0.177168 0.023609 0.322677
  time 3
    0 -1.084464 0.045498 36.835465 -0.008629 0.000000 -1.570986
    1 -0.218757 1.109409 0.000000 0.000000 -1.570451 -1.570795
    2 1.576611 -0.003992 0.000002 0.000024 0.063729 0.004493
    3 5.015457 -0.003840 0.000000 0.087465 0.093081 0.012462
    4 4.822693 -0.003838 0.000000 0.104518 0.025947 0.040836
    5 4.822556 -0.004685 0.000000 -0.000192 0.012128 0.003027
    6 5.883453 -0.001475 0.000000 0.000000 0.000000 -0.052333
    7 1.854832 0.000000 0.000000 -0.071079 -0.071436 0.325059
    8 4.577744 2.974503 -4.899295 0.000000 -1.570796 1.658572
    9 -0.576364 -6.294613 1.187798 1.457233 0.000000 0.000000
    10 4.598343 3.014902 4.786890 0.000000 -1.570796 1.414075
    11 0.671572 -6.281569 1.205063 0.287962 0.000000 0.000000
    12 0.988842 0.018080 3.418189 -1.320380 -1.550754 -1.769772
    13 5.304816 0.000000 0.000000 0.669937 0.894723 0.974943
    14 18.707375 0.000000 -0.000002 0.000000 0.000000 -1.706209
    15 13.951651 0.000000 -0.000004 -0.509489 -0.481738 -0.436938
    16 -0.620571 0.325967 -1.592585 1.798955 1.160696 0.904778
    17 3.570904 0.000002 -0.000001 0.000000 0.000000 -0.002237
    18 2.779234 -0.000001 0.000000 0.000000 0.000000 0.398942
    19 5.246642 0.034821 -2.517332 -0.360243 0.076264 -0.659141
    20 6.439503 -0.000001 0.000000 0.000000 0.000000 -0.124252
    21 3.098978 0.000000 0.000000 0.000000 0.000000 0.486190
    22 5.603584 -0.087752 -0.344059 -0.048648 -0.189565 -0.323854
    23 4.928793 0.000000 -0.000004 0.000000 0.000000 0.852432
    24 6.254896 0.000002 -0.000002 0.000000 0.000000 0.416431
    25 5.434063 -0.010812 1.636232 0.055790 -0.311677 -0.435685
    26 4.854518 0.000000 0.000002 0.000000 0.000000 0.782602
    27 5.521277 0.000000 0.000000 0.000000 0.000000 1.096587
    28 -0.000004 0.001486 -3.418189 -0.000014 1.459420 -3.090069
    29 5.304816 0.000000 0.000000 0.093655 -1.049516 0.434678
    30 18.340565 0.000000 -0.000002 0.000000 0.000000 -0.843558
    31 14.370207 0.000000 0.000002 0.110736 0.059008 0.454274
    32 -0.620573 0.325966 1.592587 -2.160632 -1.196475 1.108038
    33 3.927999 -0.000001 0.000000 0.000000 0.000000 -0.335354
    34 2.779240 0.000001 0.000000 0.000000 0.000000 0.608690
    35 5.246641 0.034821 2.517334 -0.228760 -0.278053 0.698123
    36 6.313238 0.000002 0.000002 0.000000 0.000000 0.256274
    37 3.098980 0.000000 0.000001 0.000000 0.000000 0.186560
    38 5.603580 -0.087754 0.344059 0.081265 -0.145218 -0.515761
    39 4.532814 0.000000 -0.000002 0.000000 0.000000 0.354562
    40 6.615754 0.000002 0.000000 0.000000 0.000000 0.685956
    41 5.434061 -0.010812 -1.636234 -0.140419 0.280569 -0.439233
    42 4.623351 0.000001 -0.000002 0.000000 0.000000 0.608636
    43 5.521277 0.000000 0.000000 0.000000 0.000000 0.503938
    44 4.170006 3.279094 -1.198655 -1.588751 -1.221769 4.696416
    45 3.754124 3.204277 1.399633 1.551969 -1.090925 1.554456
    46 0.050228 4.476613 -0.976787 -1.570833 -1.247988 4.711886
    47 0.921745 4.255628 1.163094 1.570681 -1.073478 1.570164
    48 -0.000008 0.000008 4.504590 -3.155003 0.045564 2.725219
    49 18.184616 0.000000 0.000000 0.000000 0.000000 -0.595812
    50 16.862097 0.000000 0.000000 -0.006156 0.055712 0.179818
    51 0.000011 -0.000005 -4.504589 3.299595 0.082358 2.909516
    52 18.184610 0.000000 0.000000 0.000000 0.000000 -0.632418
    53 16.862089 0.000000 0.000000 -0.172874 0.051098 0.388664
  time 4
    0 -1.100895 0.045498 36.170988 0.051678 0.000000 -1.570986
    1 -0.187506 1.628956 0.000000 0.000000 -1.570451 -1.570795
    2 1.576611 -0.003992 0.000002 0.000024 0.087203 0.000646
    3 5.015457 -0.003840 0.000000 0.088175 0.138948 0.012185
    4 4.822693 -0.003838 0.000000 0.104685 0.048310 0.040127
    5 4.822556 -0.004685 0.000000 0.000000 0.034815 0.000000
    6 5.883453 -0.001475 0.000000 0.000000 0.000000 -0.052333
    7 1.854832 0.000000 0.000000 -0.034505 0.141774 0.305344
    8 4.577744 2.974503 -4.899295 0.000000 -1.570796 1.477693
    9 -0.576364 -6.294613 1.187798 1.366733 0.000000 0.000000
    10 4.598343 3.014902 4.786890 0.000000 -1.570796 1.545378
    11 0.671572 -6.281569 1.205063 0.470688 0.000000 0.000000
    12 0.988842 0.018080 3.418189 -3.141108 -1.526544 0.051339
    13 5.304816 0.000000 0.000000 0.799341 0.872707 1.115499
    14 18.707375 0.000000 -0.000002 0.000000 0.000000 -1.852633
    15 13.951651 0.000000 -0.000004 -0.687984 -0.539162 -0.328043
    16 -0.620571 0.325967 -1.592585 1.775702 1.210706 0.917033
    17 3.570904 0.000002 -0.000001 0.000000 0.000000 -0.052266
    18 2.779234 -0.000001 0.000000 0.000000 0.000000 0.348986
    19 5.246642 0.034821 -2.517332 -0.397861 0.051998 -0.703114
    20 6.439503 -0.000001 0.000000 0.000000 0.000000 -0.174354
    21 3.098978 0.000000 0.000000 0.000000 0.000000 0.436164
    22 5.603584 -0.087752 -0.344059 -0.028788 -0.221828 -0.566978
    23 4.928793 0.000000 -0.000004 0.000000 0.000000 0.802414
    24 6.254896 0.000002 -0.000002 0.000000 0.000000 0.366447
    25 5.434063 -0.010812 1.636232 0.037289 -0.315523 -0.488387
    26 4.854518 0.000000 0.000002 0.000000 0.000000 0.732570
    27 5.521277 0.000000 0.000000 0.000000 0.000000 1.046594
    28 -0.000004 0.001486 -3.418189 -0.000014 1.492856 -3.090069
    29 5.304816 0.000000 0.000000 0.003626 -0.970366 0.553734
    30 18.340565 0.000000 -0.000002 0.000000 0.000000 -0.752360
    31 14.370207 0.000000 0.000002 0.107871 0.060977 0.439518
    32 -0.620573 0.325966 1.592587 -2.061873 -1.124955 1.000418
    33 3.927999 -0.000001 0.000000 0.000000 0.000000 -0.383673
    34 2.779240 0.000001 0.000000 0.000000 0.000000 0.662888
    35 5.246641 0.034821 2.517334 -0.212609 -0.290489 0.640572
    36 6.313238 0.000002 0.000002 0.000000 0.000000 0.192000
    37 3.098980 0.000000 0.000001 0.000000 0.000000 0.122199
    38 5.603580 -0.087754 0.344059 0.097791 -0.214489 -0.446939
    39 4.532814 0.000000 -0.000002 0.000000 0.000000 0.296654
    40 6.615754 0.000002 0.000000 0.000000 0.000000 0.628000
    41 5.434061 -0.010812 -1.636234 -0.090896 0.299793 -0.266637
    42 4.623351 0.000001 -0.000002 0.000000 0.000000 0.662859
    43 5.521277 0.000000 0.000000 0.000000 0.000000 0.558307
    44 4.170006 3.279094 -1.198655 -1.588751 -1.174184 4.696416
    45 3.754124 3.204277 1.399633 1.551969 -1.015249 1.554368
    46 0.050228 4.476613 -0.976787 -1.570740 -1.194310 4.711886
    47 0.921745 4.255628 1.163094 1.570607 -0.996058 1.570164
    48 -0.000008 0.000008 4.504590 -3.179441 0.117656 2.699595
    49 18.184616 0.000000 0.000000 0.000000 0.000000 -0.643412
    50 16.862097 0.000000 0.000000 -0.016058 0.070018 0.203732
    51 0.000011 -0.000005 -4.504589 3.266692 0.164978 2.845058
    52 18.184610 0.000000 0.000000 0.000000 0.000000 -0.766579
    53 16.862089 0.000000 0.000000 -0.168018 0.067807 0.458707
  time 5
    0 -2.292162 0.168086 35.056549 0.110833 0.000048 -1.577889
    1 0.335948 1.925840 0.000000 0.000000 -1.570451 -1.570795
    2 1.576611 -0.003992 0.000002 0.000024 0.066039 -0.034591
    3 5.015457 -0.003840 0.000000 0.088737 0.181064 -0.023170
    4 4.822693 -0.003838 0.000000 0.105369 0.110822 0.019192
    5 4.822556 -0.004685 0.000000 0.000108 0.145912 -0.027430
    6 5.883453 -0.001475 0.000000 0.000000 0.000000 -0.052333
    7 1.854832 0.000000 0.000000 -0.107762 -0.235126 0.346096
    8 4.577744 2.974503 -4.899295 0.000000 -1.570796 1.333602
    9 -0.576364 -6.294613 1.187798 1.133357 0.000000 0.000000
    10 4.598343 3.014902 4.786890 0.000000 -1.570796 1.826619
    11 0.671572 -6.281569 1.205063 0.685850 0.000000 0.000000
    12 0.988842 0.018080 3.418189 2.221272 -1.496894 -5.312383
    13 5.304816 0.000000 0.000000 1.144099 0.801171 1.396372
    14 18.707375 0.000000 -0.000002 0.000000 0.000000 -1.903295
    15 13.951651 0.000000 -0.000004 -0.704298 -0.522613 -0.288938
    16 -0.620571 0.325967 -1.592585 1.751245 1.173484 0.890958
    17 3.570904 0.000002 -0.000001 0.000000 0.000000 -0.013856
    18 2.779234 -0.000001 0.000000 0.000000 0.000000 0.387426
    19 5.246642 0.034821 -2.517332 -0.396073 0.063776 -0.669570
    20 6.439503 -0.000001 0.000000 0.000000 0.000000 -0.138980
    21 3.098978 0.000000 0.000000 0.000000 0.000000 0.471566
    22 5.603584 -0.087752 -0.344059 -0.036626 -0.223122 -0.525218
    23 4.928793 0.000000 -0.000004 0.000000 0.000000 0.845292
    24 6.254896 0.000002 -0.000002 0.000000 0.000000 0.409291
    25 5.434063 -0.010812 1.636232 0.023343 -0.319346 -0.444048
    26 4.854518 0.000000 0.000002 0.000000 0.000000 0.774865
    27 5.521277 0.000000 0.000000 0.000000 0.000000 1.088813
    28 -0.000004 0.001486 -3.418189 -0.000014 1.498998 -3.090069
    29 5.304816 0.000000 0.000000 -0.003269 -0.774847 0.579178
    30 18.340565 0.000000 -0.000002 0.000000 0.000000 -0.913289
    31 14.370207 0.000000 0.000002 0.093366 0.065713 0.407318
    32 -0.620573 0.325966 1.592587 -1.879022 -0.835625 0.782827
    33 3.927999 -0.000001 0.000000 0.000000 0.000000 -0.110279
    34 2.779240 0.000001 0.000000 0.000000 0.000000 0.966747
    35 5.246641 0.034821 2.517334 -0.290409 -0.212676 0.950890
    36 6.313238 0.000002 0.000002 0.000000 0.000000 0.452299
    37 3.098980 0.000000 0.000001 0.000000 0.000000 0.382570
    38 5.603580 -0.087754 0.344059 0.031780 -0.260139 -0.130144
    39 4.532814 0.000000 -0.000002 0.000000 0.000000 0.567821
    40 6.615754 0.000002 0.000000 0.000000 0.000000 0.899069
    41 5.434061 -0.010812 -1.636234 0.017268 0.312431 0.088821
    42 4.623351 0.000001 -0.000002 0.000000 0.000000 0.968596
    43 5.521277 0.000000 0.000000 0.000000 0.000000 0.863892
    44 4.170006 3.279094 -1.198655 -1.588751 -1.159119 4.696510
    45 3.754124 3.204277 1.399633 1.551881 -0.963642 1.554280
    46 0.050228 4.476613 -0.976787 -1.570740 -1.172139 4.711886
    47 0.921745 4.255628 1.163094 1.570607 -0.960156 1.570164
    48 -0.000008 0.000008 4.504590 -3.197494 0.144304 2.642992
    49 18.184616 0.000000 0.000000 0.000000 0.000000 -0.777694
    50 16.862097 0.000000 0.000000 -0.026314 0.042089 0.284012
    51 0.000011 -0.000005 -4.504589 3.239391 0.205552 2.774425
    52 18.184610 0.000000 0.000000 0.000000 0.000000 -0.939384
    53 16.862089 0.000000 0.000000 -0.171372 0.045120 0.567855
  time 6
    0 -3.491645 0.045498 34.575196 0.138925 0.000000 -1.570986
    1 1.562548 0.671896 0.000000 0.000000 -1.570451 -1.570795
    2 1.576611 -0.003992 0.000002 -0.000004 0.027032 -0.089061
    3 5.015457 -0.003840 0.000000 0.087495 0.133270 -0.101403
    4 4.822693 -0.003838 0.000000 0.104673 -0.069523 -0.054795
    5 4.822556 -0.004685 0.000000 -0.000072 -0.092749 -0.082108
    6 5.883453 -0.001475 0.000000 0.000000 0.000000 -0.052333
    7 1.854832 0.000000 0.000000 0.026985 0.030966 0.465431
    8 4.577744 2.974503 -4.899295 0.000000 -1.570796 1.231474
    9 -0.576364 -6.294613 1.187798 0.819264 0.000000 0.000000
    10 4.598343 3.014902 4.786890 0.000000 -1.570796 2.189279
    11 0.671572 -6.281569 1.205063 0.902240 0.000000 0.000000
    12 0.988842 0.018080 3.418189 1.789939 -1.427817 -4.882200
    13 5.304816 0.000000 0.000000 0.698014 0.387709 1.167741
    14 18.707375 0.000000 -0.000002 0.000000 0.000000 -1.939558
    15 13.951651 0.000000 -0.000004 -0.672624 -0.486526 -0.267804
    16 -0.620571 0.325967 -1.592585 1.731328 1.104558 0.858363
    17 3.570904 0.000002 -0.000001 0.000000 0.000000 0.056495
    18 2.779234 -0.000001 0.000000 0.000000 0.000000 0.457781
    19 5.246642 0.034821 -2.517332 -0.381790 0.086656 -0.610555
    20 6.439503 -0.000001 0.000000 0.000000 0.000000 -0.075567
    21 3.098978 0.000000 0.000000 0.000000 0.000000 0.534938
    22 5.603584 -0.087752 -0.344059 -0.054954 -0.214805 -0.389660
    23 4.928793 0.000000 -0.000004 0.000000 0.000000 0.926091
    24 6.254896 0.000002 -0.000002 0.000000 0.000000 0.490102
    25 5.434063 -0.010812 1.636232 0.006858 -0.323147 -0.360566
    26 4.854518 0.000000 0.000002 0.000000 0.000000 0.854168
    27 5.521277 0.000000 0.000000 0.000000 0.000000 1.168228
    28 -0.000004 0.001486 -3.418189 -0.000014 1.492856 -3.090069
    29 5.304816 0.000000 0.000000 -0.825687 -0.982448 1.253851
    30 18.340565 0.000000 -0.000002 0.000000 0.000000 -1.194573
    31 14.370207 0.000000 0.000002 0.072862 0.078747 0.272289
    32 -0.620573 0.325966 1.592587 -1.811112 -0.544826 0.677253
    33 3.927999 -0.000001 0.000000 0.000000 0.000000 0.202151
    34 2.779240 0.000001 0.000000 0.000000 0.000000 1.270883
    35 5.246641 0.034821 2.517334 -0.343541 -0.103279 1.284570
    36 6.313238 0.000002 0.000002 0.000000 0.000000 0.758833
    37 3.098980 0.000000 0.000001 0.000000 0.000000 0.689066
    38 5.603580 -0.087754 0.344059 -0.047006 -0.256435 0.183236
    39 4.532814 0.000000 -0.000002 0.000000 0.000000 0.881509
    40 6.615754 0.000002 0.000000 0.000000 0.000000 1.212811
    41 5.434061 -0.010812 -1.636234 0.110412 0.293421 0.398644
    42 4.623351 0.000001 -0.000002 0.000000 0.000000 1.274159
    43 5.521277 0.000000 0.000000 0.000000 0.000000 1.169507
    44 4.170006 3.279094 -1.198655 -1.588937 -1.169653 4.696323
    45 3.754124 3.204277 1.399633 1.551969 -0.935126 1.554105
    46 0.050228 4.476613 -0.976787 -1.570740 -1.175525 4.711886
    47 0.921745 4.255628 1.163094 1.570681 -0.958623 1.570164
    48 -0.000008 0.000008 4.504590 -3.178291 0.101175 2.642992
    49 18.184616 0.000000 0.000000 0.000000 0.000000 -0.866881
    50 16.862097 0.000000 0.000000 -0.016007 -0.033267 0.371570
    51 0.000011 -0.000005 -4.504589 3.263441 0.165552 2.793042
    52 18.184610 0.000000 0.000000 0.000000 0.000000 -1.007334
    53 16.862089 0.000000 0.000000 -0.170540 -0.025146 0.662994
  time 7
    0 -3.286254 -1.065967 35.595456 0.118216 -0.000958 -1.537241
    1 2.316477 0.371105 0.000000 0.000000 -1.570451 -1.570795
    2 1.576611 -0.003992 0.000002 -0.000309 -0.007568 -0.132953
    3 5.015457 -0.003840 0.000000 0.085779 0.085289 -0.159189
    4 4.822693 -0.003838 0.000000 0.105956 -0.003188 -0.086638
    5 4.822556 -0.004685 0.000000 0.001846 -0.033976 -0.120776
    6 5.883453 -0.001475 0.000000 0.000000 0.000000 -0.052333
    7 1.854832 0.000000 0.000000 -0.015437 -0.040704 0.546432
    8 4.577744 2.974503 -4.899295 0.000000 -1.570796 1.177056
    9 -0.576364 -6.294613 1.187798 0.486202 0.000000 0.000000
    10 4.598343 3.014902 4.786890 0.000000 -1.570796 2.564362
    11 0.671572 -6.281569 1.205063 1.089152 0.000000 0.000000
    12 0.988842 0.018080 3.418189 1.604040 -1.340950 -4.694960
    13 5.304816 0.000000 0.000000 0.848142 0.274788 1.322487
    14 18.707375 0.000000 -0.000002 0.000000 0.000000 -1.957461
    15 13.951651 0.000000 -0.000004 -0.607084 -0.438099 -0.258968
    16 -0.620571 0.325967 -1.592585 1.721415 1.016361 0.827246
    17 3.570904 0.000002 -0.000001 0.000000 0.000000 0.146092
    18 2.779234 -0.000001 0.000000 0.000000 0.000000 0.547207
    19 5.246642 0.034821 -2.517332 -0.356868 0.115477 -0.533790
    20 6.439503 -0.000001 0.000000 0.000000 0.000000 0.006086
    21 3.098978 0.000000 0.000000 0.000000 0.000000 0.616531
    22 5.603584 -0.087752 -0.344059 -0.076682 -0.195713 -0.194124
    23 4.928793 0.000000 -0.000004 0.000000 0.000000 1.027674
    24 6.254896 0.000002 -0.000002 0.000000 0.000000 0.591683
    25 5.434063 -0.010812 1.636232 -0.009425 -0.325115 -0.255409
    26 4.854518 0.000000 0.000002 0.000000 0.000000 0.954103
    27 5.521277 0.000000 0.000000 0.000000 0.000000 1.268120
    28 -0.000004 0.001486 -3.418189 -0.000014 1.492856 -3.090069
    29 5.304816 0.000000 0.000000 -0.839096 -0.881717 1.261062
    30 18.340565 0.000000 -0.000002 0.000000 0.000000 -1.467635
    31 14.370207 0.000000 0.000002 0.028990 0.103473 -0.150375
    32 -0.620573 0.325966 1.592587 -1.812990 -0.557805 0.680815
    33 3.927999 -0.000001 0.000000 0.000000 0.000000 0.201810
    34 2.779240 0.000001 0.000000 0.000000 0.000000 1.260427
    35 5.246641 0.034821 2.517334 -0.344954 -0.098229 1.298986
    36 6.313238 0.000002 0.000002 0.000000 0.000000 0.757021
    37 3.098980 0.000000 0.000001 0.000000 0.000000 0.687247
    38 5.603580 -0.087754 0.344059 -0.042752 -0.251809 0.170402
    39 4.532814 0.000000 -0.000002 0.000000 0.000000 0.882231
    40 6.615754 0.000002 0.000000 0.000000 0.000000 1.213768
    41 5.434061 -0.010812 -1.636234 0.104113 0.295646 0.376909
    42 4.623351 0.000001 -0.000002 0.000000 0.000000 1.264256
    43 5.521277 0.000000 0.000000 0.000000 0.000000 1.159736
    44 4.170006 3.279094 -1.198655 -1.589031 -1.198869 4.696229
    45 3.754124 3.204277 1.399633 1.551881 -0.929075 1.554017
    46 0.050228 4.476613 -0.976787 -1.570740 -1.198432 4.711886
    47 0.921745 4.255628 1.163094 1.570681 -0.984385 1.570164
    48 -0.000008 0.000008 4.504590 -3.160458 0.087474 2.753138
    49 18.184616 0.000000 0.000000 0.000000 0.000000 -0.752856
    50 16.862097 0.000000 0.000000 0.018154 -0.030513 0.365222
    51 0.000011 -0.000005 -4.504589 3.291643 0.131836 2.936740
    52 18.184610 0.000000 0.000000 0.000000 0.000000 -0.829891
    53 16.862089 0.000000 0.000000 -0.139896 -0.020001 0.626269
  time 8
    0 -2.563278 -2.087534 36.762216 0.084276 -0.001102 -1.493621
    1 2.511795 0.253914 0.000000 0.000000 -1.570451 -1.570795
    2 1.576611 -0.003992 0.000002 -0.000032 -0.034888 -0.156307
    3 5.015457 -0.003840 0.000000 0.085986 0.049806 -0.170774
    4 4.822693 -0.003838 0.000000 0.104602 0.078343 -0.079447
    5 4.822556 -0.004685 0.000000 0.000024 0.052325 -0.122084
    6 5.883453 -0.001475 0.000000 0.000000 0.000000 -0.052333
    7 1.854832 0.000000 0.000000 -0.096430 -0.107036 0.568839
    8 4.577744 2.974503 -4.899295 0.000000 -1.570796 1.175715
    9 -0.576364 -6.294613 1.187798 0.196211 0.000000 0.000000
    10 4.598343 3.014902 4.786890 0.000000 -1.570796 2.882490
    11 0.671572 -6.281569 1.205063 1.215213 0.000000 0.000000
    12 0.988842 0.018080 3.418189 1.502607 -1.253103 -4.589307
    13 5.304816 0.000000 0.000000 1.003426 0.316302 1.487857
    14 18.707375 0.000000 -0.000002 0.000000 0.000000 -1.952814
    15 13.951651 0.000000 -0.000004 -0.521128 -0.383182 -0.257535
    16 -0.620571 0.325967 -1.592585 1.721137 0.921603 0.800562
    17 3.570904 0.000002 -0.000001 0.000000 0.000000 0.242276
    18 2.779234 -0.000001 0.000000 0.000000 0.000000 0.643387
    19 5.246642 0.034821 -2.517332 -0.324011 0.145320 -0.448251
    20 6.439503 -0.000001 0.000000 0.000000 0.000000 0.096291
    21 3.098978 0.000000 0.000000 0.000000 0.000000 0.706774
    22 5.603584 -0.087752 -0.344059 -0.094434 -0.167489 0.027982
    23 4.928793 0.000000 -0.000004 0.000000 0.000000 1.132866
    24 6.254896 0.000002 -0.000002 0.000000 0.000000 0.696834
    25 5.434063 -0.010812 1.636232 -0.022404 -0.325115 -0.146046
    26 4.854518 0.000000 0.000002 0.000000 0.000000 1.058003
    27 5.521277 0.000000 0.000000 0.000000 0.000000 1.371962
    28 -0.000004 0.001486 -3.418189 -0.000014 1.492856 -3.090069
    29 5.304816 0.000000 0.000000 -0.649079 -0.862850 1.100711
    30 18.340565 0.000000 -0.000002 0.000000 0.000000 -1.687867
    31 14.370207 0.000000 0.000002 0.011799 0.123840 -0.522346
    32 -0.620573 0.325966 1.592587 -1.832785 -0.666808 0.715148
    33 3.927999 -0.000001 0.000000 0.000000 0.000000 0.104684
    34 2.779240 0.000001 0.000000 0.000000 0.000000 1.151223
    35 5.246641 0.034821 2.517334 -0.322403 -0.158577 1.123941
    36 6.313238 0.000002 0.000002 0.000000 0.000000 0.680314
    37 3.098980 0.000000 0.000001 0.000000 0.000000 0.610543
    38 5.603580 -0.087754 0.344059 -0.015954 -0.234875 0.053734
    39 4.532814 0.000000 -0.000002 0.000000 0.000000 0.784985
    40 6.615754 0.000002 0.000000 0.000000 0.000000 1.116413
    41 5.434061 -0.010812 -1.636234 0.065071 0.306242 0.245537
    42 4.623351 0.000001 -0.000002 0.000000 0.000000 1.151278
    43 5.521277 0.000000 0.000000 0.000000 0.000000 1.046569
    44 4.170006 3.279094 -1.198655 -1.589031 -1.239713 4.696135
    45 3.754124 3.204277 1.399633 1.551617 -0.944194 1.553841
    46 0.050228 4.476613 -0.976787 -1.570833 -1.235101 4.711886
    47 0.921745 4.255628 1.163094 1.570681 -1.030292 1.570164
    48 -0.000008 0.000008 4.504590 -3.147028 0.077112 2.865388
    49 18.184616 0.000000 0.000000 0.000000 0.000000 -0.584932
    50 16.862097 0.000000 0.000000 0.061989 -0.008920 0.308637
    51 0.000011 -0.000005 -4.504589 3.314087 0.092914 3.091572
    52 18.184610 0.000000 0.000000 0.000000 0.000000 -0.576383
    53 16.862089 0.000000 0.000000 -0.099163 -0.001038 0.524585
  time 9
    0 -1.782793 -2.332710 37.123231 0.044103 0.000383 -1.446550
    1 1.851619 0.027345 0.000000 0.000000 -1.570451 -1.570795
    2 1.576611 -0.003992 0.000002 0.000578 -0.054591 -0.148889
    3 5.015457 -0.003840 0.000000 0.086696 0.035858 -0.098680
    4 4.822693 -0.003838 0.000000 0.105249 0.086529 -0.010645
    5 4.822556 -0.004685 0.000000 0.000204 0.067222 -0.054540
    6 5.883453 -0.001475 0.000000 0.000000 0.000000 -0.052333
    7 1.854832 0.000000 0.000000 -0.112302 -0.025631 0.510107
    8 4.577744 2.974503 -4.899295 0.000000 -1.570796 1.233198
    9 -0.576364 -6.294613 1.187798 0.010977 0.000000 0.000000
    10 4.598343 3.014902 4.786890 0.000000 -1.570796 3.075526
    11 0.671572 -6.281569 1.205063 1.249379 0.000000 0.000000
    12 0.988842 0.018080 3.418189 1.438276 -1.178390 -4.517019
    13 5.304816 0.000000 0.000000 0.982989 0.546405 1.598129
    14 18.707375 0.000000 -0.000002 0.000000 0.000000 -1.921198
    15 13.951651 0.000000 -0.000004 -0.427349 -0.327204 -0.259565
    16 -0.620571 0.325967 -1.592585 1.727807 0.832814 0.778572
    17 3.570904 0.000002 -0.000001 0.000000 0.000000 0.332432
    18 2.779234 -0.000001 0.000000 0.000000 0.000000 0.733683
    19 5.246642 0.034821 -2.517332 -0.286840 0.172080 -0.362260
    20 6.439503 -0.000001 0.000000 0.000000 0.000000 0.185506
    21 3.098978 0.000000 0.000000 0.000000 0.000000 0.795946
    22 5.603584 -0.087752 -0.344059 -0.103263 -0.134903 0.244123
    23 4.928793 0.000000 -0.000004 0.000000 0.000000 1.224493
    24 6.254896 0.000002 -0.000002 0.000000 0.000000 0.788510
    25 5.434063 -0.010812 1.636232 -0.029337 -0.323605 -0.049747
    26 4.854518 0.000000 0.000002 0.000000 0.000000 1.149395
    27 5.521277 0.000000 0.000000 0.000000 0.000000 1.463480
    28 -0.000004 0.001486 -3.418189 -0.000014 1.494785 -3.090069
    29 5.304816 0.000000 0.000000 -0.315591 -1.027871 0.786539
    30 18.340565 0.000000 -0.000002 0.000000 0.000000 -1.812408
    31 14.370207 0.000000 0.000002 0.062029 0.170652 -0.642357
    32 -0.620573 0.325966 1.592587 -1.854314 -0.756522 0.748343
    33 3.927999 -0.000001 0.000000 0.000000 0.000000 0.006803
    34 2.779240 0.000001 0.000000 0.000000 0.000000 1.057046
    35 5.246641 0.034821 2.517334 -0.244625 -0.264165 0.757782
    36 6.313238 0.000002 0.000002 0.000000 0.000000 0.640148
    37 3.098980 0.000000 0.000001 0.000000 0.000000 0.570392
    38 5.603580 -0.087754 0.344059 -0.001369 -0.201222 -0.046348
    39 4.532814 0.000000 -0.000002 0.000000 0.000000 0.682620
    40 6.615754 0.000002 0.000000 0.000000 0.000000 1.013932
    41 5.434061 -0.010812 -1.636234 0.032316 0.311257 0.137945
    42 4.623351 0.000001 -0.000002 0.000000 0.000000 1.044577
    43 5.521277 0.000000 0.000000 0.000000 0.000000 0.939856
    44 4.170006 3.279094 -1.198655 -1.589218 -1.285378 4.696041
    45 3.754124 3.204277 1.399633 1.551530 -0.979996 1.553753
    46 0.050228 4.476613 -0.976787 -1.570740 -1.279496 4.711886
    47 0.921745 4.255628 1.163094 1.570681 -1.089234 1.570164
    48 -0.000008 0.000008 4.504590 -3.141598 0.056584 2.864432
    49 18.184616 0.000000 0.000000 0.000000 0.000000 -0.550861
    50 16.862097 0.000000 0.000000 0.109066 0.009700 0.274490
    51 0.000011 -0.000005 -4.504589 3.325015 0.054566 3.129741
    52 18.184610 0.000000 0.000000 0.000000 0.000000 -0.474619
    53 16.862089 0.000000 0.000000 -0.059341 0.007243 0.461736
  time 10
    0 -0.862642 -2.406263 37.301122 0.004410 0.003882 -1.404464
    1 0.824244 -0.230476 0.000000 0.000000 -1.570451 -1.570795
    2 1.576611 -0.003992 0.000002 0.000855 -0.072746 -0.131098
    3 5.015457 -0.003840 0.000000 0.086785 0.029123 0.005354
    4 4.822693 -0.003838 0.000000 0.105500 0.077876 0.083465
    5 4.822556 -0.004685 0.000000 0.000863 0.067773 0.039976
    6 5.883453 -0.001475 0.000000 0.000000 0.000000 -0.052333
    7 1.854832 0.000000 0.000000 -0.083682 0.041992 0.425729
    8 4.577744 2.974503 -4.899295 0.000000 -1.570796 1.357936
    9 -0.576364 -6.294613 1.187798 -0.071648 0.000000 0.000000
    10 4.598343 3.014902 4.786890 0.000000 -1.570796 3.144523
    11 0.671572 -6.281569 1.205063 1.185679 0.000000 0.000000
    12 0.988842 0.018080 3.418189 1.387751 -1.130313 -4.458920
    13 5.304816 0.000000 0.000000 0.903723 0.860440 1.617789
    14 18.707375 0.000000 -0.000002 0.000000 0.000000 -1.858499
    15 13.951651 0.000000 -0.000004 -0.337290 -0.276174 -0.264221
    16 -0.620571 0.325967 -1.592585 1.738739 0.762489 0.762405
    17 3.570904 0.000002 -0.000001 0.000000 0.000000 0.403861
    18 2.779234 -0.000001 0.000000 0.000000 0.000000 0.805137
    19 5.246642 0.034821 -2.517332 -0.250451 0.193003 -0.285595
    20 6.439503 -0.000001 0.000000 0.000000 0.000000 0.263901
    21 3.098978 0.000000 0.000000 0.000000 0.000000 0.874359
    22 5.603584 -0.087752 -0.344059 -0.102497 -0.104894 0.422817
    23 4.928793 0.000000 -0.000004 0.000000 0.000000 1.285498
    24 6.254896 0.000002 -0.000002 0.000000 0.000000 0.849512
    25 5.434063 -0.010812 1.636232 -0.027523 -0.321682 0.015821
    26 4.854518 0.000000 0.000002 0.000000 0.000000 1.211967
    27 5.521277 0.000000 0.000000 0.000000 0.000000 1.525893
    28 -0.000004 0.001486 -3.418189 -0.000014 1.497978 -3.090069
    29 5.304816 0.000000 0.000000 0.386438 -1.127374 0.119350
    30 18.340565 0.000000 -0.000002 0.000000 0.000000 -1.915102
    31 14.370207 0.000000 0.000002 0.132135 0.234060 -0.704068
    32 -0.620573 0.325966 1.592587 -1.887475 -0.858556 0.793817
    33 3.927999 -0.000001 0.000000 0.000000 0.000000 -0.112447
    34 2.779240 0.000001 0.000000 0.000000 0.000000 0.947450
    35 5.246641 0.034821 2.517334 -0.096150 -0.345408 0.272077
    36 6.313238 0.000002 0.000002 0.000000 0.000000 0.593617
    37 3.098980 0.000000 0.000001 0.000000 0.000000 0.523832
    38 5.603580 -0.087754 0.344059 0.009621 -0.160271 -0.160727
    39 4.532814 0.000000 -0.000002 0.000000 0.000000 0.557158
    40 6.615754 0.000002 0.000000 0.000000 0.000000 0.888448
    41 5.434061 -0.010812 -1.636234 -0.004754 0.312828 0.017280
    42 4.623351 0.000001 -0.000002 0.000000 0.000000 0.919186
    43 5.521277 0.000000 0.000000 0.000000 0.000000 0.814512
    44 4.170006 3.279094 -1.198655 -1.589218 -1.338967 4.695947
    45 3.754124 3.204277 1.399633 1.551530 -1.040219 1.553753
    46 0.050228 4.476613 -0.976787 -1.570740 -1.335141 4.711886
    47 0.921745 4.255628 1.163094 1.570681 -1.166080 1.570164
    48 -0.000008 0.000008 4.504590 -3.138393 0.038470 2.834314
    49 18.184616 0.000000 0.000000 0.000000 0.000000 -0.545277
    50 16.862097 0.000000 0.000000 0.152344 0.031122 0.241820
    51 0.000011 -0.000005 -4.504589 3.331243 0.023507 3.128057
    52 18.184610 0.000000 0.000000 0.000000 0.000000 -0.425605
    53 16.862089 0.000000 0.000000 -0.023036 0.016455 0.412841
  time 11
    0 -0.078049 -2.300020 37.363908 -0.029051 0.007956 -1.373882
    1 -0.187506 -0.429701 0.000000 0.000000 -1.570451 -1.570795
    2 1.576611 -0.003992 0.000002 0.000578 -0.085045 -0.108431
    3 5.015457 -0.003840 0.000000 0.086637 0.025440 0.103849
    4 4.822693 -0.003838 0.000000 0.104314 0.061793 0.169761
    5 4.822556 -0.004685 0.000000 0.000695 0.060498 0.127542
    6 5.883453 -0.001475 0.000000 0.000000 0.000000 -0.052333
    7 1.854832 0.000000 0.000000 -0.055389 -0.152333 0.351801
    8 4.577744 2.974503 -4.899295 0.000000 -1.570796 1.544181
    9 -0.576364 -6.294613 1.187798 -0.104817 0.000000 0.000000
    10 4.598343 3.014902 4.786890 0.000000 -1.570796 3.147963
    11 0.671572 -6.281569 1.205063 1.052027 0.000000 0.000000
    12 0.988842 0.018080 3.418189 1.337034 -1.121663 -4.402163
    13 5.304816 0.000000 0.000000 0.726760 1.137610 1.469623
    14 18.707375 0.000000 -0.000002 0.000000 0.000000 -1.760680
    15 13.951651 0.000000 -0.000004 -0.262019 -0.235814 -0.272580
    16 -0.620571 0.325967 -1.592585 1.751338 0.723100 0.753453
    17 3.570904 0.000002 -0.000001 0.000000 0.000000 0.443948
    18 2.779234 -0.000001 0.000000 0.000000 0.000000 0.845248
    19 5.246642 0.034821 -2.517332 -0.220500 0.206582 -0.228235
    20 6.439503 -0.000001 0.000000 0.000000 0.000000 0.321961
    21 3.098978 0.000000 0.000000 0.000000 0.000000 0.932410
    22 5.603584 -0.087752 -0.344059 -0.095408 -0.083573 0.533549
    23 4.928793 0.000000 -0.000004 0.000000 0.000000 1.298667
    24 6.254896 0.000002 -0.000002 0.000000 0.000000 0.862680
    25 5.434063 -0.010812 1.636232 -0.014544 -0.320193 0.033537
    26 4.854518 0.000000 0.000002 0.000000 0.000000 1.228988
    27 5.521277 0.000000 0.000000 0.000000 0.000000 1.542989
    28 -0.000004 0.001486 -3.418189 -0.000014 1.498621 -3.090069
    29 5.304816 0.000000 0.000000 1.036557 -1.027677 -0.480283
    30 18.340565 0.000000 -0.000002 0.000000 0.000000 -1.972729
    31 14.370207 0.000000 0.000002 0.216747 0.288122 -0.672655
    32 -0.620573 0.325966 1.592587 -1.924319 -0.943129 0.840958
    33 3.927999 -0.000001 0.000000 0.000000 0.000000 -0.205991
    34 2.779240 0.000001 0.000000 0.000000 0.000000 0.856943
    35 5.246641 0.034821 2.517334 0.059032 -0.353383 -0.174539
    36 6.313238 0.000002 0.000002 0.000000 0.000000 0.568624
    37 3.098980 0.000000 0.000001 0.000000 0.000000 0.498792
    38 5.603580 -0.087754 0.344059 0.013839 -0.117438 -0.255743
    39 4.532814 0.000000 -0.000002 0.000000 0.000000 0.458370
    40 6.615754 0.000002 0.000000 0.000000 0.000000 0.789734
    41 5.434061 -0.010812 -1.636234 -0.037628 0.310678 -0.089710
    42 4.623351 0.000001 -0.000002 0.000000 0.000000 0.813809
    43 5.521277 0.000000 0.000000 0.000000 0.000000 0.709324
    44 4.170006 3.279094 -1.198655 -1.589218 -1.406125 4.695947
    45 3.754124 3.204277 1.399633 1.551617 -1.125120 1.553753
    46 0.050228 4.476613 -0.976787 -1.570740 -1.406648 4.711886
    47 0.921745 4.255628 1.163094 1.570681 -1.266176 1.570164
    48 -0.000008 0.000008 4.504590 -3.135971 0.024085 2.800467
    49 18.184616 0.000000 0.000000 0.000000 0.000000 -0.542200
    50 16.862097 0.000000 0.000000 0.184404 0.050034 0.208548
    51 0.000011 -0.000005 -4.504589 3.335944 0.000671 3.108505
    52 18.184610 0.000000 0.000000 0.000000 0.000000 -0.405059
    53 16.862089 0.000000 0.000000 0.003208 0.024148 0.374926
  time 12
    0 0.258792 -2.087534 37.437157 -0.050911 0.010687 -1.362282
    1 -0.824244 -0.527360 0.000000 0.000000 -1.570451 -1.570795
    2 1.576611 -0.003992 0.000002 -0.000032 -0.087205 -0.086520
    3 5.015457 -0.003840 0.000000 0.086134 0.021058 0.159374
    4 4.822693 -0.003838 0.000000 0.102444 0.047615 0.215312
    5 4.822556 -0.004685 0.000000 0.000024 0.052325 0.174399
    6 5.883453 -0.001475 0.000000 0.000000 0.000000 -0.052333
    7 1.854832 0.000000 0.000000 -0.059493 -0.002484 0.258295
    8 4.577744 2.974503 -4.899295 0.000000 -1.570796 1.775167
    9 -0.576364 -6.294613 1.187798 -0.101894 0.000000 0.000000
    10 4.598343 3.014902 4.786890 0.000000 -1.570796 3.104195
    11 0.671572 -6.281569 1.205063 0.867124 0.000000 0.000000
    12 0.988842 0.018080 3.418189 1.137426 -1.262684 -4.208595
    13 5.304816 0.000000 0.000000 0.553522 1.225545 1.148239
    14 18.707375 0.000000 -0.000002 0.000000 0.000000 -1.455033
    15 13.951651 0.000000 -0.000004 -0.189705 -0.210524 -0.318550
    16 -0.620571 0.325967 -1.592585 1.779130 0.780992 0.771445
    17 3.570904 0.000002 -0.000001 0.000000 0.000000 0.384696
    18 2.779234 -0.000001 0.000000 0.000000 0.000000 0.785974
    19 5.246642 0.034821 -2.517332 -0.201791 0.209596 -0.213293
    20 6.439503 -0.000001 0.000000 0.000000 0.000000 0.336887
    21 3.098978 0.000000 0.000000 0.000000 0.000000 0.947302
    22 5.603584 -0.087752 -0.344059 -0.075740 -0.080074 0.445166
    23 4.928793 0.000000 -0.000004 0.000000 0.000000 1.128186
    24 6.254896 0.000002 -0.000002 0.000000 0.000000 0.692112
    25 5.434063 -0.010812 1.636232 0.051719 -0.313829 -0.129122
    26 4.854518 0.000000 0.000002 0.000000 0.000000 1.074315
    27 5.521277 0.000000 0.000000 0.000000 0.000000 1.388363
    28 -0.000004 0.001486 -3.418189 -0.000014 1.492856 -3.090069
    29 5.304816 0.000000 0.000000 1.290168 -0.912408 -0.696080
    30 18.340565 0.000000 -0.000002 0.000000 0.000000 -1.962147
    31 14.370207 0.000000 0.000002 0.308700 0.298222 -0.520116
    32 -0.620573 0.325966 1.592587 -1.945921 -0.982216 0.867105
    33 3.927999 -0.000001 0.000000 0.000000 0.000000 -0.226703
    34 2.779240 0.000001 0.000000 0.000000 0.000000 0.819734
    35 5.246641 0.034821 2.517334 0.137583 -0.331815 -0.407362
    36 6.313238 0.000002 0.000002 0.000000 0.000000 0.593154
    37 3.098980 0.000000 0.000001 0.000000 0.000000 0.523358
    38 5.603580 -0.087754 0.344059 0.012018 -0.078536 -0.298598
    39 4.532814 0.000000 -0.000002 0.000000 0.000000 0.436191
    40 6.615754 0.000002 0.000000 0.000000 0.000000 0.767533
    41 5.434061 -0.010812 -1.636234 -0.058181 0.307598 -0.157321
    42 4.623351 0.000001 -0.000002 0.000000 0.000000 0.767468
    43 5.521277 0.000000 0.000000 0.000000 0.000000 0.662937
    44 4.170006 3.279094 -1.198655 -1.589124 -1.482970 4.695760
    45 3.754124 3.204277 1.399633 1.551617 -1.227961 1.553841
    46 0.050228 4.476613 -0.976787 -1.570740 -1.489541 4.711886
    47 0.921745 4.255628 1.163094 1.570681 -1.383216 1.570164
    48 -0.000008 0.000008 4.504590 -3.133305 0.012773 2.782205
    49 18.184616 0.000000 0.000000 0.000000 0.000000 -0.525593
    50 16.862097 0.000000 0.000000 0.197521 0.060148 0.176589
    51 0.000011 -0.000005 -4.504589 3.339665 -0.015774 3.094846
    52 18.184610 0.000000 0.000000 0.000000 0.000000 -0.383224
    53 16.862089 0.000000 0.000000 0.012385 0.027725 0.341229
  time 13
    0 0.098588 -1.703425 37.531335 -0.053212 0.009825 -1.384906
    1 -0.929716 -0.492203 0.000000 0.000000 -1.570451 -1.570795
    2 1.576611 -0.003992 0.000002 -0.000697 -0.075231 -0.065913
    3 5.015457 -0.003840 0.000000 0.085720 0.015244 0.153835
    4 4.822693 -0.003838 0.000000 0.101593 0.036193 0.203557
    5 4.822556 -0.004685 0.000000 -0.000659 0.042941 0.163871
    6 5.883453 -0.001475 0.000000 0.000000 0.000000 -0.052333
    7 1.854832 0.000000 0.000000 -0.089166 -0.099099 0.178754
    8 4.577744 2.974503 -4.899295 0.000000 -1.570796 2.033937
    9 -0.576364 -6.294613 1.187798 -0.076301 0.000000 0.000000
    10 4.598343 3.014902 4.786890 0.000000 -1.570796 3.030421
    11 0.671572 -6.281569 1.205063 0.650343 0.000000 0.000000
    12 0.988842 0.018080 3.418189 -0.051019 -1.416864 -3.039229
    13 5.304816 0.000000 0.000000 0.662011 1.120694 0.969948
    14 18.707375 0.000000 -0.000002 0.000000 0.000000 -0.987649
    15 13.951651 0.000000 -0.000004 -0.111190 -0.191083 -0.406252
    16 -0.620571 0.325967 -1.592585 1.832491 0.914943 0.821944
    17 3.570904 0.000002 -0.000001 0.000000 0.000000 0.246588
    18 2.779234 -0.000001 0.000000 0.000000 0.000000 0.647737
    19 5.246642 0.034821 -2.517332 -0.192158 0.203984 -0.239316
    20 6.439503 -0.000001 0.000000 0.000000 0.000000 0.310887
    21 3.098978 0.000000 0.000000 0.000000 0.000000 0.921293
    22 5.603584 -0.087752 -0.344059 -0.045950 -0.082411 0.218012
    23 4.928793 0.000000 -0.000004 0.000000 0.000000 0.821811
    24 6.254896 0.000002 -0.000002 0.000000 0.000000 0.385834
    25 5.434063 -0.010812 1.636232 0.152967 -0.280291 -0.422522
    26 4.854518 0.000000 0.000002 0.000000 0.000000 0.792015
    27 5.521277 0.000000 0.000000 0.000000 0.000000 1.105910
    28 -0.000004 0.001486 -3.418189 -0.000014 1.467424 -3.090069
    29 5.304816 0.000000 0.000000 1.266608 -0.952726 -0.710571
    30 18.340565 0.000000 -0.000002 0.000000 0.000000 -1.701417
    31 14.370207 0.000000 0.000002 0.394744 0.119817 0.096337
    32 -0.620573 0.325966 1.592587 -1.878588 -0.834561 0.782221
    33 3.927999 -0.000001 0.000000 0.000000 0.000000 0.028075
    34 2.779240 0.000001 0.000000 0.000000 0.000000 0.998347
    35 5.246641 0.034821 2.517334 -0.014753 -0.357844 0.036689
    36 6.313238 0.000002 0.000002 0.000000 0.000000 0.826226
    37 3.098980 0.000000 0.000001 0.000000 0.000000 0.756552
    38 5.603580 -0.087754 0.344059 0.001795 -0.049078 -0.131457
    39 4.532814 0.000000 -0.000002 0.000000 0.000000 0.700436
    40 6.615754 0.000002 0.000000 0.000000 0.000000 1.031902
    41 5.434061 -0.010812 -1.636234 -0.025571 0.311852 -0.050491
    42 4.623351 0.000001 -0.000002 0.000000 0.000000 0.952870
    43 5.521277 0.000000 0.000000 0.000000 0.000000 0.848254
    44 4.170006 3.279094 -1.198655 -1.586229 -1.566064 4.692665
    45 3.754124 3.204277 1.399633 1.551881 -1.342024 1.553841
    46 0.050228 4.476613 -0.976787 1.570646 -1.562004 1.570475
    47 0.921745 4.255628 1.163094 1.570681 -1.510819 1.570164
    48 -0.000008 0.000008 4.504590 -3.131739 0.006288 2.784404
    49 18.184616 0.000000 0.000000 0.000000 0.000000 -0.495029
    50 16.862097 0.000000 0.000000 0.175287 0.056175 0.147038
    51 0.000011 -0.000005 -4.504589 3.340527 -0.017103 3.081374
    52 18.184610 0.000000 0.000000 0.000000 0.000000 -0.374401
    53 16.862089 0.000000 0.000000 -0.010987 0.025863 0.317918
  time 14
    0 -0.455968 -1.155865 37.625513 -0.038926 0.005847 -1.440318
    1 -0.718772 -0.355480 0.000000 0.000000 -1.570451 -1.570795
    2 1.576611 -0.003992 0.000002 -0.001057 -0.052331 -0.043933
    3 5.015457 -0.003840 0.000000 0.085779 0.009992 0.110265
    4 4.822693 -0.003838 0.000000 0.101653 0.023178 0.154687
    5 4.822556 -0.004685 0.000000 -0.001234 0.029362 0.116579
    6 5.883453 -0.001475 0.000000 0.000000 0.000000 -0.052333
    7 1.854832 0.000000 0.000000 -0.123343 0.075246 0.177522
    8 4.577744 2.974503 -4.899295 0.000000 -1.570796 2.303819
    9 -0.576364 -6.294613 1.187798 -0.041939 0.000000 0.000000
    10 4.598343 3.014902 4.786890 0.000000 -1.570796 2.945179
    11 0.671572 -6.281569 1.205063 0.420666 0.000000 0.000000
    12 0.988842 0.018080 3.418189 -0.890197 -1.300224 -2.218075
    13 5.304816 0.000000 0.000000 0.774033 0.965355 0.866097
    14 18.707375 0.000000 -0.000002 0.000000 0.000000 -0.684516
    15 13.951651 0.000000 -0.000004 -0.040116 -0.168846 -0.493655
    16 -0.620571 0.325967 -1.592585 1.887056 1.007691 0.872183
    17 3.570904 0.000002 -0.000001 0.000000 0.000000 0.149566
    18 2.779234 -0.000001 0.000000 0.000000 0.000000 0.550687
    19 5.246642 0.034821 -2.517332 -0.186257 0.196034 -0.278526
    20 6.439503 -0.000001 0.000000 0.000000 0.000000 0.271746
    21 3.098978 0.000000 0.000000 0.000000 0.000000 0.882147
    22 5.603584 -0.087752 -0.344059 -0.026265 -0.076610 0.106867
    23 4.928793 0.000000 -0.000004 0.000000 0.000000 0.638081
    24 6.254896 0.000002 -0.000002 0.000000 0.000000 0.201984
    25 5.434063 -0.010812 1.636232 0.211895 -0.245929 -0.596513
    26 4.854518 0.000000 0.000002 0.000000 0.000000 0.620611
    27 5.521277 0.000000 0.000000 0.000000 0.000000 0.934472
    28 -0.000004 0.001486 -3.418189 -0.000014 1.431815 -3.090069
    29 5.304816 0.000000 0.000000 1.067588 -1.070709 -0.568929
    30 18.340565 0.000000 -0.000002 0.000000 0.000000 -1.374915
    31 14.370207 0.000000 0.000002 0.297418 -0.065251 0.713840
    32 -0.620573 0.325966 1.592587 -1.842972 -0.712085 0.731139
    33 3.927999 -0.000001 0.000000 0.000000 0.000000 0.293258
    34 2.779240 0.000001 0.000000 0.000000 0.000000 1.156763
    35 5.246641 0.034821 2.517334 -0.228473 -0.278200 0.697040
    36 6.313238 0.000002 0.000002 0.000000 0.000000 1.032451
    37 3.098980 0.000000 0.000001 0.000000 0.000000 0.962610
    38 5.603580 -0.087754 0.344059 -0.003478 -0.024869 0.012455
    39 4.532814 0.000000 -0.000002 0.000000 0.000000 0.981216
    40 6.615754 0.000002 0.000000 0.000000 0.000000 1.312667
    41 5.434061 -0.010812 -1.636234 -0.007070 0.312812 0.009741
    42 4.623351 0.000001 -0.000002 0.000000 0.000000 1.127288
    43 5.521277 0.000000 0.000000 0.000000 0.000000 1.022626
    44 4.170006 3.279094 -1.198655 1.551675 -1.490134 1.554617
    45 3.754124 3.204277 1.399633 1.551969 -1.460591 1.553929
    46 0.050228 4.476613 -0.976787 1.570646 -1.469009 1.570475
    47 0.921745 4.255628 1.163094 -1.570828 -1.498954 4.711583
    48 -0.000008 0.000008 4.504590 -3.131666 0.005118 2.797025
    49 18.184616 0.000000 0.000000 0.000000 0.000000 -0.459025
    50 16.862097 0.000000 0.000000 0.119626 0.040870 0.120497
    51 0.000011 -0.000005 -4.504589 3.339077 -0.003171 3.054992
    52 18.184610 0.000000 0.000000 0.000000 0.000000 -0.394818
    53 16.862089 0.000000 0.000000 -0.065701 0.019444 0.309101
  time 15
    0 -1.178944 -0.526580 37.709226 -0.017545 0.002061 -1.508960
    1 -0.378918 -0.179693 0.000000 0.000000 -1.570451 -1.570795
    2 1.576611 -0.003992 0.000002 -0.000780 -0.025061 -0.021472
    3 5.015457 -0.003840 0.000000 0.086430 0.004996 0.051140
    4 4.822693 -0.003838 0.000000 0.102864 0.009576 0.090985
    5 4.822556 -0.004685 0.000000 -0.001019 0.014286 0.054609
    6 5.883453 -0.001475 0.000000 0.000000 0.000000 -0.052333
    7 1.854832 0.000000 0.000000 -0.160462 -0.044203 0.275499
    8 4.577744 2.974503 -4.899295 0.000000 -1.570796 2.568241
    9 -0.576364 -6.294613 1.187798 -0.011872 0.000000 0.000000
    10 4.598343 3.014902 4.786890 0.000000 -1.570796 2.865766
    11 0.671572 -6.281569 1.205063 0.197632 0.000000 0.000000
    12 0.988842 0.018080 3.418189 -0.689822 -1.329727 -2.414615
    13 5.304816 0.000000 0.000000 0.744714 0.929458 0.851431
    14 18.707375 0.000000 -0.000002 0.000000 0.000000 -0.848767
    15 13.951651 0.000000 -0.000004 0.015026 -0.148408 -0.568282
    16 -0.620571 0.325967 -1.592585 1.882980 0.976164 0.854713
    17 3.570904 0.000002 -0.000001 0.000000 0.000000 0.182505
    18 2.779234 -0.000001 0.000000 0.000000 0.000000 0.583678
    19 5.246642 0.034821 -2.517332 -0.186816 0.184516 -0.336939
    20 6.439503 -0.000001 0.000000 0.000000 0.000000 0.213120
    21 3.098978 0.000000 0.000000 0.000000 0.000000 0.823501
    22 5.603584 -0.087752 -0.344059 -0.033577 -0.062468 0.333745
    23 4.928793 0.000000 -0.000004 0.000000 0.000000 0.808245
    24 6.254896 0.000002 -0.000002 0.000000 0.000000 0.372283
    25 5.434063 -0.010812 1.636232 0.182915 -0.273240 -0.443108
    26 4.854518 0.000000 0.000002 0.000000 0.000000 0.771190
    27 5.521277 0.000000 0.000000 0.000000 0.000000 1.085211
    28 -0.000004 0.001486 -3.418189 -0.000014 1.401239 -3.090069
    29 5.304816 0.000000 0.000000 0.755266 -1.123369 -0.273466
    30 18.340565 0.000000 -0.000002 0.000000 0.000000 -1.274353
    31 14.370207 0.000000 0.000002 0.206360 -0.020032 0.674492
    32 -0.620573 0.325966 1.592587 -1.914350 -0.922896 0.828831
    33 3.927999 -0.000001 0.000000 0.000000 0.000000 0.189773
    34 2.779240 0.000001 0.000000 0.000000 0.000000 0.961738
    35 5.246641 0.034821 2.517334 -0.284033 -0.221156 0.921488
    36 6.313238 0.000002 0.000002 0.000000 0.000000 0.875159
    37 3.098980 0.000000 0.000001 0.000000 0.000000 0.805525
    38 5.603580 -0.087754 0.344059 -0.000315 -0.006461 -0.194839
    39 4.532814 0.000000 -0.000002 0.000000 0.000000 0.891286
    40 6.615754 0.000002 0.000000 0.000000 0.000000 1.222660
    41 5.434061 -0.010812 -1.636234 -0.096190 0.298208 -0.284562
    42 4.623351 0.000001 -0.000002 0.000000 0.000000 0.946454
    43 5.521277 0.000000 0.000000 0.000000 0.000000 0.841916
    44 4.170006 3.279094 -1.198655 1.551768 -1.405880 1.554429
    45 3.754124 3.204277 1.399633 -1.590702 -1.564744 4.696843
    46 0.050228 4.476613 -0.976787 1.570646 -1.377488 1.570475
    47 0.921745 4.255628 1.163094 -1.570828 -1.369224 4.711583
    48 -0.000008 0.000008 4.504590 -3.131470 0.004776 2.817104
    49 18.184616 0.000000 0.000000 0.000000 0.000000 -0.418941
    50 16.862097 0.000000 0.000000 0.050948 0.019424 0.096747
    51 0.000011 -0.000005 -4.504589 3.336805 0.013741 3.027768
    52 18.184610 0.000000 0.000000 0.000000 0.000000 -0.420710
    53 16.862089 0.000000 0.000000 -0.133322 0.009252 0.305153
  time 16
    0 -1.827979 0.045498 37.782476 0.000000 0.000000 -1.570986
    1 -0.082034 -0.007813 0.000000 0.000000 -1.570451 -1.570795
    2 1.576611 -0.003992 0.000002 -0.000004 -0.000001 0.000646
    3 5.015457 -0.003840 0.000000 0.087140 0.000000 0.000000
    4 4.822693 -0.003838 0.000000 0.104590 -0.003655 0.034716
    5 4.822556 -0.004685 0.000000 0.000000 0.000000 0.000000
    6 5.883453 -0.001475 0.000000 0.000000 0.000000 -0.052333
    7 1.854832 0.000000 0.000000 -0.181600 0.062109 0.342674
    8 4.577744 2.974503 -4.899295 0.000000 -1.570796 2.810149
    9 -0.576364 -6.294613 1.187798 0.000000 0.000000 0.000000
    10 4.598343 3.014902 4.786890 0.000000 -1.570796 2.810149
    11 0.671572 -6.281569 1.205063 0.000000 0.000000 0.000000
    12 0.988842 0.018080 3.418189 -0.000014 -1.370796 -3.090042
    13 5.304816 0.000000 0.000000 0.628203 0.979107 0.833436
    14 18.707375 0.000000 -0.000002 0.000000 0.000000 -1.197686
    15 13.951651 0.000000 -0.000004 0.063585 -0.128453 -0.643864
    16 -0.620571 0.325967 -1.592585 1.860746 0.900460 0.815947
    17 3.570904 0.000002 -0.000001 0.000000 0.000000 0.261641
    18 2.779234 -0.000001 0.000000 0.000000 0.000000 0.662870
    19 5.246642 0.034821 -2.517332 -0.190682 0.169759 -0.410144
    20 6.439503 -0.000001 0.000000 0.000000 0.000000 0.139652
    21 3.098978 0.000000 0.000000 0.000000 0.000000 0.750082
    22 5.603584 -0.087752 -0.344059 -0.045423 -0.041483 0.690309
    23 4.928793 0.000000 -0.000004 0.000000 0.000000 1.116326
    24 6.254896 0.000002 -0.000002 0.000000 0.000000 0.680326
    25 5.434063 -0.010812 1.636232 0.109195 -0.311105 -0.158269
    26 4.854518 0.000000 0.000002 0.000000 0.000000 1.046591
    27 5.521277 0.000000 0.000000 0.000000 0.000000 1.360586
    28 -0.000004 0.001486 -3.418189 -0.000014 1.370796 -3.090069
    29 5.304816 0.000000 0.000000 0.478956 -1.116584 -0.009638
    30 18.340565 0.000000 -0.000002 0.000000 0.000000 -1.228906
    31 14.370207 0.000000 0.000002 0.107871 0.060977 0.439518
    32 -0.620573 0.325966 1.592587 -2.192420 -1.214130 1.142219
    33 3.927999 -0.000001 0.000000 0.000000 0.000000 -0.017393
    34 2.779240 0.000001 0.000000 0.000000 0.000000 0.662888
    35 5.246641 0.034821 2.517334 -0.311150 -0.180461 1.056475
    36 6.313238 0.000002 0.000002 0.000000 0.000000 0.610687
    37 3.098980 0.000000 0.000001 0.000000 0.000000 0.540803
    38 5.603580 -0.087754 0.344059 0.000333 0.009970 -0.505592
    39 4.532814 0.000000 -0.000002 0.000000 0.000000 0.697778
    40 6.615754 0.000002 0.000000 0.000000 0.000000 1.029123
    41 5.434061 -0.010812 -1.636234 -0.202330 0.240322 -0.678678
    42 4.623351 0.000001 -0.000002 0.000000 0.000000 0.662859
    43 5.521277 0.000000 0.000000 0.000000 0.000000 0.558307
    44 4.170006 3.279094 -1.198655 1.551768 -1.326512 1.554429
    45 3.754124 3.204277 1.399633 -1.589648 -1.457379 4.695613
    46 0.050228 4.476613 -0.976787 1.570646 -1.291646 1.570475
    47 0.921745 4.255628 1.163094 -1.570754 -1.247966 4.711583
    48 -0.000008 0.000008 4.504590 -3.130785 0.001899 2.839190
    49 18.184616 0.000000 0.000000 0.000000 0.000000 -0.374634
    50 16.862097 0.000000 0.000000 -0.010765 -0.001389 0.072505
    51 0.000011 -0.000005 -4.504589 3.335082 0.024656 3.006531
    52 18.184610 0.000000 0.000000 0.000000 0.000000 -0.434622
    53 16.862089 0.000000 0.000000 -0.194985 -0.002067 0.297419
end
