// Created by Crowbar 0.58
version 1
nodes
  0 "Bip01" -1
  1 "Bip01 Pelvis" 0
  2 "Bip01 Spine" 1
  3 "Bip01 Spine1" 2
  4 "Bip01 Spine2" 3
  5 "Bip01 Spine3" 4
  6 "Bip01 Neck" 5
  7 "Bip01 Head" 6
  8 "Bone09" 7
  9 "Bone10" 8
  10 "Bone12" 7
  11 "Bone13" 10
  12 "Bip01 L Clavicle" 6
  13 "Bip01 L UpperArm" 12
  14 "Bip01 L Forearm" 13
  15 "Bip01 L Hand" 14
  16 "Bip01 L Finger0" 15
  17 "Bip01 L Finger01" 16
  18 "Bip01 L Finger02" 17
  19 "Bip01 L Finger1" 15
  20 "Bip01 L Finger11" 19
  21 "Bip01 L Finger12" 20
  22 "Bip01 L Finger2" 15
  23 "Bip01 L Finger21" 22
  24 "Bip01 L Finger22" 23
  25 "Bip01 L Finger3" 15
  26 "Bip01 L Finger31" 25
  27 "Bip01 L Finger32" 26
  28 "Bip01 R Clavicle" 6
  29 "Bip01 R UpperArm" 28
  30 "Bip01 R Forearm" 29
  31 "Bip01 R Hand" 30
  32 "Bip01 R Finger0" 31
  33 "Bip01 R Finger01" 32
  34 "Bip01 R Finger02" 33
  35 "Bip01 R Finger1" 31
  36 "Bip01 R Finger11" 35
  37 "Bip01 R Finger12" 36
  38 "Bip01 R Finger2" 31
  39 "Bip01 R Finger21" 38
  40 "Bip01 R Finger22" 39
  41 "Bip01 R Finger3" 31
  42 "Bip01 R Finger31" 41
  43 "Bip01 R Finger32" 42
  44 "Bone01" 4
  45 "Bone03" 4
  46 "Bone05" 3
  47 "Bone07" 3
  48 "Bip01 L Thigh" 1
  49 "Bip01 L Calf" 48
  50 "Bip01 L Foot" 49
  51 "Bip01 R Thigh" 1
  52 "Bip01 R Calf" 51
  53 "Bip01 R Foot" 52
end
skeleton
  time 0
    0 -88.827436 -0.583788 4.563844 0.000000 1.396004 -0.000381
    1 3.531250 0.000000 0.000000 0.000000 -1.570451 -1.570795
    2 1.576611 -0.003992 0.000002 -0.000004 0.000000 -0.261063
    3 5.015457 -0.003840 0.000000 0.000000 0.000000 -0.174374
    4 4.822693 -0.003838 0.000000 0.000000 0.000000 -0.139605
    5 4.822556 -0.004685 0.000000 0.000000 0.000000 -0.087245
    6 5.883453 -0.001475 0.000000 0.000000 0.000000 -0.052333
    7 1.854832 0.000000 0.000000 -0.000001 -0.000001 -0.175234
    8 4.577744 2.974503 -4.899295 0.000000 -1.570796 2.810149
    9 -0.576364 -6.294613 1.187798 0.000000 0.000000 0.000000
    10 4.598343 3.014902 4.786890 0.000000 -1.570796 2.810149
    11 0.671572 -6.281569 1.205063 0.000000 0.000000 0.000000
    12 0.988842 0.018080 3.418189 -0.000014 -1.370796 -3.090042
    13 5.304816 0.000000 0.000000 -1.156039 0.141207 -1.363294
    14 18.707375 0.000000 -0.000002 0.000000 0.000000 -0.988868
    15 13.951651 0.000000 -0.000004 0.191422 -0.123054 -1.051208
    16 -0.620571 0.325967 -1.592585 1.860746 0.900460 0.815947
    17 3.570904 0.000002 -0.000001 0.000000 0.000000 0.069827
    18 2.779234 -0.000001 0.000000 0.000000 0.000000 0.662870
    19 5.246642 0.034821 -2.517332 0.014037 0.254248 0.497446
    20 6.439503 -0.000001 0.000000 0.000000 0.000000 0.139652
    21 3.098978 0.000000 0.000000 0.000000 0.000000 0.750087
    22 5.603584 -0.087752 -0.344059 -0.019672 -0.058226 0.184099
    23 4.928793 0.000000 -0.000004 0.000000 0.000000 0.645617
    24 6.254896 0.000002 -0.000002 0.000000 0.000000 0.680324
    25 5.434063 -0.010812 1.636232 -0.083911 -0.318614 0.448028
    26 4.854518 0.000000 0.000002 0.000000 0.000000 0.471095
    27 5.521277 0.000000 0.000000 0.000000 0.000000 0.941867
    28 -0.000004 0.001486 -3.418189 -0.000014 1.370796 -3.090069
    29 5.304816 0.000000 0.000000 1.095937 -0.095380 -1.293469
    30 18.340565 0.000000 -0.000002 0.000000 0.000000 -1.030979
    31 14.370207 0.000000 0.000002 -0.020882 0.122876 -0.786634
    32 -0.620573 0.325966 1.592587 -1.904380 -0.900460 0.815947
    33 3.927999 -0.000001 0.000000 0.000000 0.000000 0.226762
    34 2.779240 0.000001 0.000000 0.000000 0.000000 0.662886
    35 5.246641 0.034821 2.517334 -0.134830 -0.332825 0.388147
    36 6.313238 0.000002 0.000002 0.000000 0.000000 0.610687
    37 3.098980 0.000000 0.000001 0.000000 0.000000 0.540799
    38 5.603580 -0.087754 0.344059 0.005498 0.008328 0.052533
    39 4.532814 0.000000 -0.000002 0.000000 0.000000 0.697778
    40 6.615754 0.000002 0.000000 0.000000 0.000000 0.628000
    41 5.434061 -0.010812 -1.636234 0.092228 0.299427 0.336527
    42 4.623351 0.000001 -0.000002 0.000000 0.000000 0.941921
    43 5.521277 0.000000 0.000000 0.000000 0.000000 0.558299
    44 4.170006 3.279094 -1.198655 -1.589685 -1.117025 4.695760
    45 3.754124 3.204277 1.399633 1.551881 -1.108375 1.554105
    46 0.050228 4.476613 -0.976787 -1.570740 -1.326485 4.711886
    47 0.921745 4.255628 1.163094 1.570681 -1.003687 1.570164
    48 -0.000008 0.000008 4.504590 -3.141598 -0.000222 3.100980
    49 18.184616 0.000000 0.000000 0.000000 0.000000 -0.374634
    50 16.862097 0.000000 0.000000 -0.000028 -0.000073 -0.363917
    51 0.000011 -0.000005 -4.504589 3.141468 0.000168 3.100927
    52 18.184610 0.000000 0.000000 0.000000 0.000000 -0.374658
    53 16.862089 0.000000 0.000000 0.000068 0.000138 -0.538391
  time 1
    0 -88.827436 -0.583788 4.563844 0.000000 1.396004 -0.000381
    1 3.531250 0.000000 0.000000 0.000000 -1.570451 -1.570795
    2 1.576611 -0.003992 0.000002 -0.000004 0.000000 -0.261063
    3 5.015457 -0.003840 0.000000 0.000000 0.000000 -0.174374
    4 4.822693 -0.003838 0.000000 0.000000 0.000000 -0.139605
    5 4.822556 -0.004685 0.000000 0.000000 0.000000 -0.087245
    6 5.883453 -0.001475 0.000000 0.000000 0.000000 -0.052333
    7 1.854832 0.000000 0.000000 -0.000001 -0.000001 -0.175234
    8 4.577744 2.974503 -4.899295 0.000000 -1.570796 2.810149
    9 -0.576364 -6.294613 1.187798 0.000000 0.000000 0.000000
    10 4.598343 3.014902 4.786890 0.000000 -1.570796 2.810149
    11 0.671572 -6.281569 1.205063 0.000000 0.000000 0.000000
    12 0.988842 0.018080 3.418189 -0.000014 -1.370796 -3.090042
    13 5.304816 0.000000 0.000000 -1.156039 0.141207 -1.363294
    14 18.707375 0.000000 -0.000002 0.000000 0.000000 -0.988868
    15 13.951651 0.000000 -0.000004 0.191422 -0.123054 -1.051208
    16 -0.620571 0.325967 -1.592585 1.860746 0.900460 0.815947
    17 3.570904 0.000002 -0.000001 0.000000 0.000000 0.069827
    18 2.779234 -0.000001 0.000000 0.000000 0.000000 0.662870
    19 5.246642 0.034821 -2.517332 0.014037 0.254248 0.497446
    20 6.439503 -0.000001 0.000000 0.000000 0.000000 0.139652
    21 3.098978 0.000000 0.000000 0.000000 0.000000 0.750087
    22 5.603584 -0.087752 -0.344059 -0.019672 -0.058226 0.184099
    23 4.928793 0.000000 -0.000004 0.000000 0.000000 0.645617
    24 6.254896 0.000002 -0.000002 0.000000 0.000000 0.680324
    25 5.434063 -0.010812 1.636232 -0.083911 -0.318614 0.448028
    26 4.854518 0.000000 0.000002 0.000000 0.000000 0.471095
    27 5.521277 0.000000 0.000000 0.000000 0.000000 0.941867
    28 -0.000004 0.001486 -3.418189 -0.000014 1.370796 -3.090069
    29 5.304816 0.000000 0.000000 1.095937 -0.095380 -1.293469
    30 18.340565 0.000000 -0.000002 0.000000 0.000000 -1.030979
    31 14.370207 0.000000 0.000002 -0.020882 0.122876 -0.786634
    32 -0.620573 0.325966 1.592587 -1.904380 -0.900460 0.815947
    33 3.927999 -0.000001 0.000000 0.000000 0.000000 0.226762
    34 2.779240 0.000001 0.000000 0.000000 0.000000 0.662886
    35 5.246641 0.034821 2.517334 -0.134830 -0.332825 0.388147
    36 6.313238 0.000002 0.000002 0.000000 0.000000 0.610687
    37 3.098980 0.000000 0.000001 0.000000 0.000000 0.540799
    38 5.603580 -0.087754 0.344059 0.005498 0.008328 0.052533
    39 4.532814 0.000000 -0.000002 0.000000 0.000000 0.697778
    40 6.615754 0.000002 0.000000 0.000000 0.000000 0.628000
    41 5.434061 -0.010812 -1.636234 0.092228 0.299427 0.336527
    42 4.623351 0.000001 -0.000002 0.000000 0.000000 0.941921
    43 5.521277 0.000000 0.000000 0.000000 0.000000 0.558299
    44 4.170006 3.279094 -1.198655 -1.589685 -1.117025 4.695760
    45 3.754124 3.204277 1.399633 1.551881 -1.108375 1.554105
    46 0.050228 4.476613 -0.976787 -1.570740 -1.326485 4.711886
    47 0.921745 4.255628 1.163094 1.570681 -1.003687 1.570164
    48 -0.000008 0.000008 4.504590 -3.141598 -0.000222 3.100980
    49 18.184616 0.000000 0.000000 0.000000 0.000000 -0.374634
    50 16.862097 0.000000 0.000000 -0.000028 -0.000073 -0.363917
    51 0.000011 -0.000005 -4.504589 3.141468 0.000168 3.100927
    52 18.184610 0.000000 0.000000 0.000000 0.000000 -0.374658
    53 16.862089 0.000000 0.000000 0.000068 0.000138 -0.538391
  time 2
    0 -87.332191 -0.583788 4.537683 0.000000 1.396004 -0.000381
    1 3.531250 0.000000 0.000000 0.000000 -1.570451 -1.570795
    2 1.576611 -0.003992 0.000002 -0.000004 0.000000 -0.261063
    3 5.015457 -0.003840 0.000000 -0.000148 0.000000 -0.174374
    4 4.822693 -0.003838 0.000000 -0.000228 -0.000024 -0.139605
    5 4.822556 -0.004685 0.000000 -0.000192 -0.000012 -0.087245
    6 5.883453 -0.001475 0.000000 0.000000 0.000000 -0.052333
    7 1.854832 0.000000 0.000000 -0.000328 0.000312 -0.175234
    8 4.577744 2.974503 -4.899295 1.800331 -1.540475 0.845667
    9 -0.576364 -6.294613 1.187798 0.012349 0.000000 0.000000
    10 4.598343 3.014902 4.786890 1.067577 -1.566715 1.538784
    11 0.671572 -6.281569 1.205063 0.156654 0.000000 0.000000
    12 0.988842 0.018080 3.418189 -0.000014 -1.370796 -3.090042
    13 5.304816 0.000000 0.000000 -1.156612 0.133072 -1.365118
    14 18.707375 0.000000 -0.000002 0.000000 0.000000 -0.973098
    15 13.951651 0.000000 -0.000004 0.178734 -0.141853 -0.960820
    16 -0.620571 0.325967 -1.592585 1.860746 0.900460 0.815947
    17 3.570904 0.000002 -0.000001 0.000000 0.000000 0.069827
    18 2.779234 -0.000001 0.000000 0.000000 0.000000 0.662870
    19 5.246642 0.034821 -2.517332 0.014037 0.254248 0.497446
    20 6.439503 -0.000001 0.000000 0.000000 0.000000 0.139624
    21 3.098978 0.000000 0.000000 0.000000 0.000000 0.750087
    22 5.603584 -0.087752 -0.344059 -0.019672 -0.058226 0.184099
    23 4.928793 0.000000 -0.000004 0.000000 0.000000 0.645617
    24 6.254896 0.000002 -0.000002 0.000000 0.000000 0.680324
    25 5.434063 -0.010812 1.636232 -0.083911 -0.318614 0.448028
    26 4.854518 0.000000 0.000002 0.000000 0.000000 0.440954
    27 5.521277 0.000000 0.000000 0.000000 0.000000 0.941898
    28 -0.000004 0.001486 -3.418189 -0.000014 1.370796 -3.090069
    29 5.304816 0.000000 0.000000 1.093351 -0.089823 -1.306395
    30 18.340565 0.000000 -0.000002 0.000000 0.000000 -1.027706
    31 14.370207 0.000000 0.000002 -0.083467 0.139095 -0.693575
    32 -0.620573 0.325966 1.592587 -1.904380 -0.900460 0.815947
    33 3.927999 -0.000001 0.000000 0.000000 0.000000 0.226762
    34 2.779240 0.000001 0.000000 0.000000 0.000000 0.662886
    35 5.246641 0.034821 2.517334 -0.134830 -0.332825 0.388147
    36 6.313238 0.000002 0.000002 0.000000 0.000000 0.610729
    37 3.098980 0.000000 0.000001 0.000000 0.000000 0.540799
    38 5.603580 -0.087754 0.344059 0.005498 0.008328 0.052533
    39 4.532814 0.000000 -0.000002 0.000000 0.000000 0.697778
    40 6.615754 0.000002 0.000000 0.000000 0.000000 0.628000
    41 5.434061 -0.010812 -1.636234 0.092228 0.299427 0.336527
    42 4.623351 0.000001 -0.000002 0.000000 0.000000 0.909004
    43 5.521277 0.000000 0.000000 0.000000 0.000000 0.558299
    44 4.170006 3.279094 -1.198655 -1.589591 -1.167756 4.695854
    45 3.754124 3.204277 1.399633 1.551969 -1.157808 1.554192
    46 0.050228 4.476613 -0.976787 -1.570740 -1.375959 4.711886
    47 0.921745 4.255628 1.163094 1.570681 -1.059907 1.570164
    48 -0.000008 0.000008 4.504590 -3.141598 -0.000222 3.101649
    49 18.184616 0.000000 0.000000 0.000000 0.000000 -0.374204
    50 16.862097 0.000000 0.000000 -0.000028 -0.000073 -0.363972
    51 0.000011 -0.000005 -4.504589 3.141468 0.000168 3.101582
    52 18.184610 0.000000 0.000000 0.000000 0.000000 -0.374143
    53 16.862089 0.000000 0.000000 0.000068 0.000138 -0.538445
end
