// Created by Crowbar 0.62
version 1
nodes
  0 "ValveBiped.Bip01_Pelvis" -1
  1 "ValveBiped.Bip01_L_Thigh" 0
  2 "ValveBiped.Bip01_L_Calf" 1
  3 "ValveBiped.Bip01_L_Foot" 2
  4 "ValveBiped.Bip01_L_Toe0" 3
  5 "ValveBiped.Bip01_R_Thigh" 0
  6 "ValveBiped.Bip01_R_Calf" 5
  7 "ValveBiped.Bip01_R_Foot" 6
  8 "ValveBiped.Bip01_R_Toe0" 7
  9 "ValveBiped.Bip01_Spine" 0
  10 "ValveBiped.Bip01_Spine1" 9
  11 "ValveBiped.Bip01_Spine2" 10
  12 "ValveBiped.Bip01_Spine4" 11
  13 "ValveBiped.Bip01_Neck1" 12
  14 "ValveBiped.Bip01_Head1" 13
  15 "ValveBiped.Bip01_L_Clavicle" 12
  16 "ValveBiped.Bip01_L_UpperArm" 15
  17 "ValveBiped.Bip01_L_Forearm" 16
  18 "ValveBiped.Bip01_L_Hand" 17
  19 "ValveBiped.Bip01_L_Finger2" 18
  20 "ValveBiped.Bip01_L_Finger21" 19
  21 "ValveBiped.Bip01_L_Finger22" 20
  22 "ValveBiped.Bip01_L_Finger1" 18
  23 "ValveBiped.Bip01_L_Finger11" 22
  24 "ValveBiped.Bip01_L_Finger12" 23
  25 "ValveBiped.Bip01_L_Finger0" 18
  26 "ValveBiped.Bip01_L_Finger01" 25
  27 "ValveBiped.Bip01_L_Finger02" 26
  28 "ValveBiped.Bip01_R_Clavicle" 12
  29 "ValveBiped.Bip01_R_UpperArm" 28
  30 "ValveBiped.Bip01_R_Forearm" 29
  31 "ValveBiped.Bip01_R_Hand" 30
  32 "ValveBiped.Bip01_R_Finger2" 31
  33 "ValveBiped.Bip01_R_Finger21" 32
  34 "ValveBiped.Bip01_R_Finger22" 33
  35 "ValveBiped.Bip01_R_Finger1" 31
  36 "ValveBiped.Bip01_R_Finger11" 35
  37 "ValveBiped.Bip01_R_Finger12" 36
  38 "ValveBiped.Bip01_R_Finger0" 31
  39 "ValveBiped.Bip01_R_Finger01" 38
  40 "ValveBiped.Bip01_R_Finger02" 39
  41 "ValveBiped.Cod" 0
  42 "ValveBiped.Anim_Attachment_LH" 18
  43 "ValveBiped.Anim_Attachment_RH" 31
end
skeleton
  time 0
    0 -0.006255 -0.378913 35.398852 1.635728 0.166389 -0.118007
    1 3.890452 -0.000004 -0.000003 -1.905942 -0.874950 -1.122844
    2 17.848173 0.000000 0.000000 0.000000 0.000000 1.877546
    3 16.525244 0.000000 0.000000 0.098312 0.058537 -0.734318
    4 6.879447 -0.000001 0.000001 -0.004638 -0.001944 -0.729073
    5 -3.890452 0.000004 0.000007 -1.532692 -0.002387 -1.391122
    6 17.848169 0.000000 0.000000 0.000000 0.000000 0.589728
    7 16.525253 0.000000 0.000000 -0.006723 0.021901 -1.491301
    8 6.879452 0.000000 0.000000 -0.079859 -0.003023 -0.733587
    9 -0.906273 3.306064 -2.888148 1.615834 0.005966 1.738384
    10 4.018331 0.000000 0.000000 0.008759 -0.004063 0.207232
    11 3.518565 0.000000 0.000000 -0.117789 0.020374 0.333269
    12 8.942642 0.000000 0.000000 -0.019583 0.032874 0.185922
    13 3.307271 0.000000 0.000000 3.022140 0.061097 0.576376
    14 3.593713 -0.000002 0.000000 0.376269 -0.003824 0.804998
    15 2.033346 1.000767 1.937660 2.861552 -1.270516 1.561338
    16 6.028142 -0.000001 0.000000 -1.576423 -0.418452 -1.075216
    17 11.692558 0.000000 0.000003 0.000000 0.000000 -0.812798
    18 11.481671 0.000000 -0.000028 0.973016 -0.580718 -0.092941
    19 3.883692 -0.046774 0.431443 0.066379 -0.047107 -1.014693
    20 1.719576 0.000002 0.000000 0.000000 0.005013 -1.363380
    21 1.209181 0.000001 0.000000 0.000000 0.002808 -1.213274
    22 3.859859 -0.137948 1.332467 0.321084 -0.077961 -1.060016
    23 1.719430 0.000003 0.000000 0.000000 0.005105 -1.559276
    24 1.099666 0.000002 0.000000 0.000000 0.003243 -1.241199
    25 0.806049 -0.348924 1.321259 -1.194960 -0.447528 -0.858141
    26 1.789785 0.000000 0.000001 0.000000 0.058129 0.663312
    27 1.206999 0.000000 0.000001 0.000000 -0.003283 1.086661
    28 2.033353 1.000771 -1.937610 -2.838804 1.313087 1.655783
    29 6.028141 0.000004 0.000000 1.103065 0.240653 -1.100647
    30 11.692545 0.000000 0.000000 0.000000 0.000000 -1.633820
    31 11.481696 0.000000 0.000004 -1.244924 -0.172057 0.363438
    32 3.883655 -0.050328 -0.431043 -0.085446 -0.274161 -0.673790
    33 1.719577 0.000003 0.000000 0.000000 0.175678 -1.316311
    34 1.209180 -0.000002 0.000000 0.000000 -0.004245 -1.170288
    35 3.859828 -0.148937 -1.331281 -0.315437 0.154350 -0.106082
    36 1.719427 0.000000 0.000000 0.000000 -0.007728 -0.850748
    37 1.099664 0.000000 0.000000 0.000000 -0.004906 -0.732062
    38 0.806015 -0.359833 -1.318333 1.175422 0.303554 -0.981075
    39 1.789782 0.000000 0.000002 0.000000 0.200206 0.487548
    40 1.206999 0.000000 0.000000 0.000000 0.201934 0.621924
    41 -0.044717 2.313936 4.661499 -0.039270 0.000000 0.000000
    42 2.676089 -1.712443 0.000000 1.570797 0.000000 1.570796
    43 2.676086 -1.712442 0.000000 -1.570796 0.000000 -1.570796
  time 1
    0 -0.006255 -0.378913 35.398852 1.635728 0.166389 -0.118007
    1 3.890452 -0.000004 -0.000003 -1.905942 -0.874950 -1.122844
    2 17.848173 0.000000 0.000000 0.000000 0.000000 1.877546
    3 16.525244 0.000000 0.000000 0.098312 0.058537 -0.734318
    4 6.879447 -0.000001 0.000001 -0.004638 -0.001944 -0.729073
    5 -3.890452 0.000004 0.000007 -1.532692 -0.002387 -1.391122
    6 17.848169 0.000000 0.000000 0.000000 0.000000 0.589728
    7 16.525253 0.000000 0.000000 -0.006723 0.021901 -1.491301
    8 6.879452 0.000000 0.000000 -0.079859 -0.003023 -0.733587
    9 -0.906273 3.306064 -2.888148 1.615834 0.005966 1.738384
    10 4.018331 0.000000 0.000000 0.008759 -0.004063 0.207232
    11 3.518565 0.000000 0.000000 -0.117789 0.020374 0.333269
    12 8.942642 0.000000 0.000000 -0.019583 0.032874 0.185922
    13 3.307271 0.000000 0.000000 3.022140 0.061097 0.576376
    14 3.593713 -0.000002 0.000000 0.376269 -0.003824 0.804998
    15 2.033346 1.000767 1.937660 2.861552 -1.270516 1.561338
    16 6.028142 -0.000001 0.000000 -1.576423 -0.418452 -1.075216
    17 11.692558 0.000000 0.000003 0.000000 0.000000 -0.812798
    18 11.481671 0.000000 -0.000028 0.973016 -0.580718 -0.092941
    19 3.883692 -0.046774 0.431443 0.066379 -0.047107 -1.014693
    20 1.719576 0.000002 0.000000 0.000000 0.005013 -1.363380
    21 1.209181 0.000001 0.000000 0.000000 0.002808 -1.213274
    22 3.859859 -0.137948 1.332467 0.321084 -0.077961 -1.060016
    23 1.719430 0.000003 0.000000 0.000000 0.005105 -1.559276
    24 1.099666 0.000002 0.000000 0.000000 0.003243 -1.241199
    25 0.806049 -0.348924 1.321259 -1.194960 -0.447528 -0.858141
    26 1.789785 0.000000 0.000001 0.000000 0.058129 0.663312
    27 1.206999 0.000000 0.000001 0.000000 -0.003283 1.086661
    28 2.033353 1.000771 -1.937610 -2.838804 1.313087 1.655783
    29 6.028141 0.000004 0.000000 1.103065 0.240653 -1.100647
    30 11.692545 0.000000 0.000000 0.000000 0.000000 -1.633820
    31 11.481696 0.000000 0.000004 -1.244924 -0.172057 0.363438
    32 3.883655 -0.050328 -0.431043 -0.085446 -0.274161 -0.673790
    33 1.719577 0.000003 0.000000 0.000000 0.175678 -1.316311
    34 1.209180 -0.000002 0.000000 0.000000 -0.004245 -1.170288
    35 3.859828 -0.148937 -1.331281 -0.315437 0.154350 -0.106082
    36 1.719427 0.000000 0.000000 0.000000 -0.007728 -0.850748
    37 1.099664 0.000000 0.000000 0.000000 -0.004906 -0.732062
    38 0.806015 -0.359833 -1.318333 1.175422 0.303554 -0.981075
    39 1.789782 0.000000 0.000002 0.000000 0.200206 0.487548
    40 1.206999 0.000000 0.000000 0.000000 0.201934 0.621924
    41 -0.044717 2.313936 4.661499 -0.039270 0.000000 0.000000
    42 2.676089 -1.712443 0.000000 1.570797 0.000000 1.570796
    43 2.676086 -1.712442 0.000000 -1.570796 0.000000 -1.570796
  time 2
    0 -0.049225 -0.464853 36.371538 1.634101 0.145006 -0.151395
    1 3.890452 -0.000004 -0.000003 -2.070845 -0.886784 -1.058624
    2 17.848173 0.000000 0.000000 0.000000 0.000000 1.519441
    3 16.525244 0.000000 0.000000 0.133999 0.037481 -0.999848
    4 6.879447 -0.000001 0.000001 -0.004015 -0.002532 -0.922406
    5 -3.890452 0.000004 0.000007 -1.581560 0.261535 -1.446236
    6 17.848169 0.000000 0.000000 0.000000 0.000000 0.371110
    7 16.525253 0.000000 0.000000 0.035587 -0.000626 -1.210519
    8 6.879452 0.000000 0.000000 -0.077750 -0.003143 -1.055727
    9 -0.917992 3.321690 -2.876429 1.647162 0.003439 1.721975
    10 4.018331 0.000000 0.000000 0.025566 -0.014861 0.207352
    11 3.518565 0.000000 0.000000 -0.101508 0.006208 0.340016
    12 8.942642 0.000000 0.000000 -0.010175 0.019199 0.203372
    13 3.307271 0.000000 0.000000 3.028563 0.056148 0.588001
    14 3.593713 -0.000002 0.000000 0.322266 -0.042031 0.836313
    15 2.033346 1.000767 1.937660 2.722486 -1.326484 1.699381
    16 6.028142 -0.000001 0.000000 -1.553999 -0.507004 -1.042935
    17 11.692558 0.000000 0.000003 0.000000 0.000000 -0.803290
    18 11.481671 0.000000 -0.000028 0.989180 -0.565212 -0.071647
    19 3.883692 -0.046774 0.431443 0.066379 -0.047107 -1.014693
    20 1.719576 0.000002 0.000000 0.000000 0.005013 -1.363380
    21 1.209181 0.000001 0.000000 0.000000 0.002808 -1.213274
    22 3.859859 -0.137948 1.332467 0.321084 -0.077961 -1.060016
    23 1.719430 0.000003 0.000000 0.000000 0.005105 -1.559276
    24 1.099666 0.000002 0.000000 0.000000 0.003243 -1.241199
    25 0.806049 -0.348924 1.321259 -1.194960 -0.447528 -0.858141
    26 1.789785 0.000000 0.000001 0.000000 0.058129 0.663312
    27 1.206999 0.000000 0.000001 0.000000 -0.003283 1.086661
    28 2.033353 1.000771 -1.937610 -2.803929 1.245473 1.685900
    29 6.028141 0.000004 0.000000 1.172391 0.240510 -1.055607
    30 11.692545 0.000000 0.000000 0.000000 0.000000 -1.664744
    31 11.481696 0.000000 0.000004 -1.236224 -0.181825 0.375711
    32 3.883655 -0.050328 -0.431043 -0.085446 -0.274161 -0.673790
    33 1.719577 0.000003 0.000000 0.000000 0.175678 -1.316311
    34 1.209180 -0.000002 0.000000 0.000000 -0.004245 -1.170288
    35 3.859828 -0.148937 -1.331281 -0.315437 0.154350 -0.106082
    36 1.719427 0.000000 0.000000 0.000000 -0.007728 -0.850748
    37 1.099664 0.000000 0.000000 0.000000 -0.004906 -0.732062
    38 0.806015 -0.359833 -1.318333 1.175422 0.303554 -0.981075
    39 1.789782 0.000000 0.000002 0.000000 0.200206 0.487548
    40 1.206999 0.000000 0.000000 0.000000 0.201934 0.621924
    41 -0.044717 2.313936 4.661499 -0.039270 0.000000 0.000000
    42 2.676089 -1.712443 0.000000 1.570797 0.000000 1.570796
    43 2.676086 -1.712442 0.000000 -1.570796 0.000000 -1.570796
  time 3
    0 -0.017974 -0.714861 37.492666 1.641282 0.092682 -0.167900
    1 3.890452 -0.000004 -0.000003 -2.016267 -0.756056 -1.230665
    2 17.848173 0.000000 0.000000 0.000000 0.000000 0.931367
    3 16.525244 0.000000 0.000000 0.035302 0.097230 -1.157431
    4 6.879447 -0.000001 0.000001 -0.007083 -0.002807 -0.584338
    5 -3.890452 0.000004 0.000007 -1.592992 0.344424 -1.550331
    6 17.848169 0.000000 0.000000 0.000000 0.000000 0.500013
    7 16.525253 0.000000 0.000000 0.035835 -0.059264 -1.002030
    8 6.879452 0.000000 0.000000 -0.077234 -0.002699 -1.107954
    9 -0.773456 3.337315 -2.895961 1.660369 0.010066 1.673670
    10 4.018331 0.000000 0.000000 0.037704 -0.022471 0.207471
    11 3.518565 0.000000 0.000000 -0.086330 -0.006867 0.338386
    12 8.942642 0.000000 0.000000 0.001127 0.002864 0.213751
    13 3.307271 0.000000 0.000000 3.038714 0.048274 0.606481
    14 3.593713 -0.000002 0.000000 0.266322 -0.075624 0.866496
    15 2.033346 1.000767 1.937660 2.590134 -1.363780 1.832203
    16 6.028142 -0.000001 0.000000 -1.549810 -0.546250 -1.021334
    17 11.692558 0.000000 0.000003 0.000000 0.000000 -0.861515
    18 11.481671 0.000000 -0.000028 1.012019 -0.547888 -0.021279
    19 3.883692 -0.046774 0.431443 0.066391 -0.047107 -1.014693
    20 1.719576 0.000002 0.000000 0.000000 0.005013 -1.363380
    21 1.209181 0.000001 0.000000 0.000000 0.002808 -1.213274
    22 3.859859 -0.137948 1.332467 0.321084 -0.077961 -1.060016
    23 1.719430 0.000003 0.000000 0.000000 0.005105 -1.559276
    24 1.099666 0.000002 0.000000 0.000000 0.003243 -1.241199
    25 0.806049 -0.348924 1.321259 -1.194960 -0.447528 -0.858141
    26 1.789785 0.000000 0.000001 0.000000 0.058129 0.663312
    27 1.206999 0.000000 0.000001 0.000000 -0.003283 1.086661
    28 2.033353 1.000771 -1.937610 -2.793042 1.197234 1.692862
    29 6.028141 0.000004 0.000000 1.234248 0.225918 -1.039255
    30 11.692545 0.000000 0.000000 0.000000 0.000000 -1.718383
    31 11.481696 0.000000 0.000004 -1.245545 -0.201494 0.407707
    32 3.883655 -0.050328 -0.431043 -0.085446 -0.274161 -0.673790
    33 1.719577 0.000003 0.000000 0.000000 0.175678 -1.316311
    34 1.209180 -0.000002 0.000000 0.000000 -0.004245 -1.170288
    35 3.859828 -0.148937 -1.331281 -0.315437 0.154350 -0.106082
    36 1.719427 0.000000 0.000000 0.000000 -0.007728 -0.850748
    37 1.099664 0.000000 0.000000 0.000000 -0.004918 -0.732062
    38 0.806015 -0.359833 -1.318333 1.175422 0.303554 -0.981075
    39 1.789782 0.000000 0.000002 0.000000 0.200206 0.487548
    40 1.206999 0.000000 0.000000 0.000000 0.201934 0.621924
    41 -0.044717 2.313936 4.661499 -0.039270 0.000000 0.000000
    42 2.676089 -1.712443 0.000000 1.570797 0.000000 1.570796
    43 2.676086 -1.712442 0.000000 -1.570796 0.000000 -1.570796
  time 4
    0 0.067966 -0.984400 37.910647 1.651771 0.032882 -0.160632
    1 3.890452 -0.000004 -0.000003 -1.962690 -0.671744 -1.391534
    2 17.848173 0.000000 0.000000 0.000000 0.000000 0.498016
    3 16.525244 0.000000 0.000000 -0.082534 0.078577 -1.107794
    4 6.879447 -0.000001 0.000001 -0.007994 -0.003406 -0.584373
    5 -3.890452 0.000004 0.000007 -1.586895 0.444330 -1.661359
    6 17.848169 0.000000 0.000000 0.000000 0.000000 0.533451
    7 16.525253 0.000000 0.000000 -0.005013 -0.118915 -0.670266
    8 6.879452 0.000000 0.000000 -0.077474 -0.003131 -1.107954
    9 -0.546887 3.345128 -2.935024 1.649367 0.020525 1.616954
    10 4.018331 0.000000 0.000000 0.044417 -0.026486 0.207365
    11 3.518565 0.000000 0.000000 -0.074718 -0.016742 0.328091
    12 8.942642 0.000000 0.000000 0.012308 -0.013123 0.214422
    13 3.307271 0.000000 0.000000 3.051766 0.038243 0.620587
    14 3.593713 -0.000002 0.000000 0.215968 -0.099126 0.878614
    15 2.033346 1.000767 1.937660 2.527992 -1.385927 1.895485
    16 6.028142 -0.000001 0.000000 -1.556665 -0.551576 -1.018928
    17 11.692558 0.000000 0.000003 0.000000 0.000000 -0.922614
    18 11.481671 0.000000 -0.000028 1.039844 -0.535454 0.018620
    19 3.883692 -0.046774 0.431443 0.066379 -0.047107 -1.014693
    20 1.719576 0.000002 0.000000 0.000000 0.005013 -1.363380
    21 1.209181 0.000001 0.000000 0.000000 0.002808 -1.213274
    22 3.859859 -0.137948 1.332467 0.321084 -0.077961 -1.060016
    23 1.719430 0.000003 0.000000 0.000000 0.005105 -1.559276
    24 1.099666 0.000002 0.000000 0.000000 0.003243 -1.241199
    25 0.806049 -0.348924 1.321259 -1.194960 -0.447528 -0.858141
    26 1.789785 0.000000 0.000001 0.000000 0.058129 0.663312
    27 1.206999 0.000000 0.000001 0.000000 -0.003283 1.086661
    28 2.033353 1.000771 -1.937610 -2.805497 1.171989 1.679014
    29 6.028141 0.000004 0.000000 1.282699 0.205939 -1.063926
    30 11.692545 0.000000 0.000000 0.000000 0.000000 -1.755533
    31 11.481696 0.000000 0.000004 -1.276131 -0.229699 0.431632
    32 3.883655 -0.050328 -0.431043 -0.085446 -0.274161 -0.673790
    33 1.719577 0.000003 0.000000 0.000000 0.175678 -1.316311
    34 1.209180 -0.000002 0.000000 0.000000 -0.004245 -1.170288
    35 3.859828 -0.148937 -1.331281 -0.315437 0.154350 -0.106082
    36 1.719427 0.000000 0.000000 0.000000 -0.007728 -0.850748
    37 1.099664 0.000000 0.000000 0.000000 -0.004918 -0.732062
    38 0.806015 -0.359833 -1.318333 1.175422 0.303554 -0.981075
    39 1.789782 0.000000 0.000002 0.000000 0.200206 0.487548
    40 1.206999 0.000000 0.000000 0.000000 0.201934 0.621924
    41 -0.044717 2.313936 4.661499 -0.039270 0.000000 0.000000
    42 2.676089 -1.712443 0.000000 1.570797 0.000000 1.570796
    43 2.676086 -1.712442 0.000000 -1.570796 0.000000 -1.570796
  time 5
    0 0.228127 -1.128936 37.785644 1.656546 0.001653 -0.131786
    1 3.890452 -0.000004 -0.000003 -1.875566 -0.480142 -1.552312
    2 17.848173 0.000000 0.000000 0.000000 0.000000 0.000068
    3 16.525244 0.000000 0.000000 -0.130970 0.022226 -0.935791
    4 6.879447 -0.000001 0.000001 -0.012309 -0.004066 -0.586944
    5 -3.890452 0.000004 0.000007 -1.572606 0.494894 -1.716651
    6 17.848169 0.000000 0.000000 0.000000 0.000000 0.614950
    7 16.525253 0.000000 0.000000 -0.050174 -0.145007 -0.438724
    8 6.879452 0.000000 0.000000 -0.078373 -0.004893 -1.105904
    9 -0.355475 3.345128 -2.966275 1.618243 0.025713 1.587962
    10 4.018331 0.000000 0.000000 0.046085 -0.027193 0.207285
    11 3.518565 0.000000 0.000000 -0.067641 -0.022531 0.312499
    12 8.942642 0.000000 0.000000 0.021404 -0.025983 0.205517
    13 3.307271 0.000000 0.000000 3.065176 0.027756 0.624806
    14 3.593713 -0.000002 0.000000 0.178918 -0.111170 0.866825
    15 2.033346 1.000767 1.937660 2.550320 -1.395203 1.873977
    16 6.028142 -0.000001 0.000000 -1.551524 -0.530087 -1.025183
    17 11.692558 0.000000 0.000003 0.000000 0.000000 -0.962561
    18 11.481671 0.000000 -0.000028 1.048368 -0.542454 0.044355
    19 3.883692 -0.046774 0.431443 0.066379 -0.047107 -1.014693
    20 1.719576 0.000002 0.000000 0.000000 0.005013 -1.363380
    21 1.209181 0.000001 0.000000 0.000000 0.002808 -1.213274
    22 3.859859 -0.137948 1.332467 0.321084 -0.077961 -1.060016
    23 1.719430 0.000003 0.000000 0.000000 0.005105 -1.559276
    24 1.099666 0.000002 0.000000 0.000000 0.003231 -1.241199
    25 0.806049 -0.348924 1.321259 -1.194960 -0.447528 -0.858141
    26 1.789785 0.000000 0.000001 0.000000 0.058129 0.663312
    27 1.206999 0.000000 0.000001 0.000000 -0.003283 1.086661
    28 2.033353 1.000771 -1.937610 -2.828563 1.167266 1.657069
    29 6.028141 0.000004 0.000000 1.309032 0.182479 -1.106480
    30 11.692545 0.000000 0.000000 0.000000 0.000000 -1.763743
    31 11.481696 0.000000 0.000004 -1.308719 -0.258080 0.430057
    32 3.883655 -0.050328 -0.431043 -0.085446 -0.274161 -0.673790
    33 1.719577 0.000003 0.000000 0.000000 0.175678 -1.316311
    34 1.209180 -0.000002 0.000000 0.000000 -0.004245 -1.170288
    35 3.859828 -0.148937 -1.331281 -0.315437 0.154350 -0.106082
    36 1.719427 0.000000 0.000000 0.000000 -0.007728 -0.850748
    37 1.099664 0.000000 0.000000 0.000000 -0.004906 -0.732062
    38 0.806015 -0.359833 -1.318333 1.175422 0.303554 -0.981075
    39 1.789782 0.000000 0.000002 0.000000 0.200206 0.487548
    40 1.206999 0.000000 0.000000 0.000000 0.201934 0.621924
    41 -0.044717 2.313936 4.661499 -0.039270 0.000000 0.000000
    42 2.676089 -1.712443 0.000000 1.570797 0.000000 1.570796
    43 2.676086 -1.712442 0.000000 -1.570796 0.000000 -1.570796
  time 6
    0 0.462509 -1.128936 37.144999 1.657059 -0.008158 -0.087421
    1 3.890452 -0.000004 -0.000003 -1.825494 -0.495384 -1.586648
    2 17.848173 0.000000 0.000000 0.000000 0.000000 0.127781
    3 16.525244 0.000000 0.000000 -0.104794 -0.023747 -1.071011
    4 6.879447 -0.000001 0.000001 -0.008581 -0.003790 -0.584373
    5 -3.890452 0.000004 0.000007 -1.548315 0.359632 -1.708740
    6 17.848169 0.000000 0.000000 0.000000 0.000000 1.019406
    7 16.525253 0.000000 0.000000 -0.116849 -0.136717 -0.481061
    8 6.879452 0.000000 0.000000 -0.080938 -0.007625 -1.000017
    9 -0.199220 3.345128 -2.977995 1.573133 0.027102 1.579537
    10 4.018331 0.000000 0.000000 0.043061 -0.025287 0.207206
    11 3.518565 0.000000 0.000000 -0.064990 -0.024377 0.301473
    12 8.942642 0.000000 0.000000 0.027433 -0.034228 0.188535
    13 3.307271 0.000000 0.000000 3.076777 0.018780 0.619424
    14 3.593713 -0.000002 0.000000 0.158684 -0.113831 0.838466
    15 2.033346 1.000767 1.937660 2.648529 -1.390721 1.776313
    16 6.028142 -0.000001 0.000000 -1.531861 -0.488747 -1.031870
    17 11.692558 0.000000 0.000003 0.000000 0.000000 -0.991157
    18 11.481671 0.000000 -0.000028 1.030274 -0.567782 0.068210
    19 3.883692 -0.046774 0.431443 0.066379 -0.047107 -1.014693
    20 1.719576 0.000002 0.000000 0.000000 0.005013 -1.363380
    21 1.209181 0.000001 0.000000 0.000000 0.002808 -1.213274
    22 3.859859 -0.137948 1.332467 0.321084 -0.077961 -1.060016
    23 1.719430 0.000003 0.000000 0.000000 0.005105 -1.559276
    24 1.099666 0.000002 0.000000 0.000000 0.003243 -1.241199
    25 0.806049 -0.348924 1.321259 -1.194960 -0.447528 -0.858141
    26 1.789785 0.000000 0.000001 0.000000 0.058129 0.663312
    27 1.206999 0.000000 0.000001 0.000000 -0.003283 1.086661
    28 2.033353 1.000771 -1.937610 -2.858916 1.181036 1.629525
    29 6.028141 0.000004 0.000000 1.317458 0.157254 -1.152094
    30 11.692545 0.000000 0.000000 0.000000 0.000000 -1.755738
    31 11.481696 0.000000 0.000004 -1.335784 -0.283777 0.413056
    32 3.883655 -0.050328 -0.431043 -0.085446 -0.274161 -0.673790
    33 1.719577 0.000003 0.000000 0.000000 0.175678 -1.316311
    34 1.209180 -0.000002 0.000000 0.000000 -0.004245 -1.170288
    35 3.859828 -0.148937 -1.331281 -0.315437 0.154350 -0.106082
    36 1.719427 0.000000 0.000000 0.000000 -0.007728 -0.850748
    37 1.099664 0.000000 0.000000 0.000000 -0.004906 -0.732062
    38 0.806015 -0.359833 -1.318333 1.175422 0.303554 -0.981075
    39 1.789782 0.000000 0.000002 0.000000 0.200206 0.487548
    40 1.206999 0.000000 0.000000 0.000000 0.201934 0.621924
    41 -0.044717 2.313936 4.661499 -0.039270 0.000000 0.000000
    42 2.676089 -1.712443 0.000000 1.570797 0.000000 1.570796
    43 2.676086 -1.712442 0.000000 -1.570796 0.000000 -1.570796
  time 7
    0 0.767206 -0.953149 36.043403 1.656812 -0.022461 -0.034727
    1 3.890452 -0.000004 -0.000003 -1.780429 -0.609258 -1.587011
    2 17.848173 0.000000 0.000000 0.000000 0.000000 0.615151
    3 16.525244 0.000000 0.000000 -0.056535 -0.036853 -1.267885
    4 6.879447 -0.000001 0.000001 -0.007862 -0.003311 -0.584373
    5 -3.890452 0.000004 0.000007 -1.507924 0.107153 -1.698695
    6 17.848169 0.000000 0.000000 0.000000 0.000000 1.503142
    7 16.525253 0.000000 0.000000 -0.169743 -0.113115 -0.628625
    8 6.879452 0.000000 0.000000 -0.084389 -0.008476 -0.810023
    9 -0.007808 3.345128 -2.981901 1.519538 0.027955 1.565014
    10 4.018331 0.000000 0.000000 0.034858 -0.020014 0.207113
    11 3.518565 0.000000 0.000000 -0.066389 -0.023142 0.299088
    12 8.942642 0.000000 0.000000 0.030249 -0.037727 0.173590
    13 3.307271 0.000000 0.000000 3.084831 0.012476 0.604420
    14 3.593713 -0.000002 0.000000 0.156144 -0.108378 0.806822
    15 2.033346 1.000767 1.937660 2.772606 -1.366117 1.652591
    16 6.028142 -0.000001 0.000000 -1.518292 -0.442218 -1.038220
    17 11.692558 0.000000 0.000003 0.000000 0.000000 -1.003097
    18 11.481671 0.000000 -0.000028 1.005264 -0.594698 0.079489
    19 3.883692 -0.046774 0.431443 0.066379 -0.047107 -1.014693
    20 1.719576 0.000002 0.000000 0.000000 0.005013 -1.363380
    21 1.209181 0.000001 0.000000 0.000000 0.002808 -1.213274
    22 3.859859 -0.137948 1.332467 0.321084 -0.077961 -1.060016
    23 1.719430 0.000003 0.000000 0.000000 0.005105 -1.559276
    24 1.099666 0.000002 0.000000 0.000000 0.003243 -1.241199
    25 0.806049 -0.348924 1.321259 -1.194960 -0.447528 -0.858141
    26 1.789785 0.000000 0.000001 0.000000 0.058129 0.663312
    27 1.206999 0.000000 0.000001 0.000000 -0.003283 1.086661
    28 2.033353 1.000771 -1.937610 -2.886410 1.214225 1.605386
    29 6.028141 0.000004 0.000000 1.306829 0.143330 -1.191874
    30 11.692545 0.000000 0.000000 0.000000 0.000000 -1.733503
    31 11.481696 0.000000 0.000004 -1.354564 -0.300938 0.389990
    32 3.883655 -0.050328 -0.431043 -0.085446 -0.274161 -0.673790
    33 1.719577 0.000003 0.000000 0.000000 0.175678 -1.316311
    34 1.209180 -0.000002 0.000000 0.000000 -0.004245 -1.170288
    35 3.859828 -0.148937 -1.331281 -0.315437 0.154350 -0.106082
    36 1.719427 0.000000 0.000000 0.000000 -0.007728 -0.850748
    37 1.099664 0.000000 0.000000 0.000000 -0.004906 -0.732062
    38 0.806015 -0.359833 -1.318333 1.175422 0.303554 -0.981075
    39 1.789782 0.000000 0.000002 0.000000 0.200206 0.487548
    40 1.206999 0.000000 0.000000 0.000000 0.201934 0.621924
    41 -0.044717 2.313936 4.661499 -0.039270 0.000000 0.000000
    42 2.676089 -1.712443 0.000000 1.570797 0.000000 1.570796
    43 2.676086 -1.712442 0.000000 -1.570796 0.000000 -1.570796
  time 8
    0 1.091435 -0.667984 35.355882 1.654442 -0.076618 0.017891
    1 3.890452 -0.000004 -0.000003 -1.764657 -0.529044 -1.643965
    2 17.848173 0.000000 0.000000 0.000000 0.000000 0.823752
    3 16.525244 0.000000 0.000000 0.020020 -0.011150 -1.359042
    4 6.879447 -0.000001 0.000001 -0.007299 -0.002951 -0.584373
    5 -3.890452 0.000004 0.000007 -1.488396 -0.265771 -1.729985
    6 17.848169 0.000000 0.000000 0.000000 0.000000 1.857483
    7 16.525253 0.000000 0.000000 -0.163348 -0.122501 -0.706048
    8 6.879452 0.000000 0.000000 -0.083131 -0.004797 -0.642776
    9 0.316421 3.337315 -2.977995 1.462467 0.026248 1.508340
    10 4.018331 0.000000 0.000000 0.021297 -0.011301 0.207021
    11 3.518565 0.000000 0.000000 -0.072081 -0.018265 0.304973
    12 8.942642 0.000000 0.000000 0.030117 -0.037296 0.168149
    13 3.307271 0.000000 0.000000 3.089158 0.009144 0.587869
    14 3.593713 -0.000002 0.000000 0.170511 -0.095219 0.790873
    15 2.033346 1.000767 1.937660 2.862957 -1.318454 1.562113
    16 6.028142 -0.000001 0.000000 -1.514817 -0.387903 -1.030763
    17 11.692558 0.000000 0.000003 0.000000 0.000000 -1.022112
    18 11.481671 0.000000 -0.000028 0.966261 -0.622409 0.096149
    19 3.883692 -0.046774 0.431443 0.066379 -0.047107 -1.014693
    20 1.719576 0.000002 0.000000 0.000000 0.005013 -1.363380
    21 1.209181 0.000001 0.000000 0.000000 0.002808 -1.213274
    22 3.859859 -0.137948 1.332467 0.321084 -0.077961 -1.060016
    23 1.719430 0.000003 0.000000 0.000000 0.005105 -1.559276
    24 1.099666 0.000002 0.000000 0.000000 0.003231 -1.241199
    25 0.806049 -0.348924 1.321259 -1.194960 -0.447528 -0.858141
    26 1.789785 0.000000 0.000001 0.000000 0.058129 0.663312
    27 1.206999 0.000000 0.000001 0.000000 -0.003283 1.086661
    28 2.033353 1.000771 -1.937610 -2.895821 1.266856 1.598651
    29 6.028141 0.000004 0.000000 1.275518 0.146096 -1.217789
    30 11.692545 0.000000 0.000000 0.000000 0.000000 -1.710720
    31 11.481696 0.000000 0.000004 -1.365818 -0.308990 0.374135
    32 3.883655 -0.050328 -0.431043 -0.085446 -0.274161 -0.673790
    33 1.719577 0.000003 0.000000 0.000000 0.175678 -1.316311
    34 1.209180 -0.000002 0.000000 0.000000 -0.004245 -1.170288
    35 3.859828 -0.148937 -1.331281 -0.315437 0.154350 -0.106082
    36 1.719427 0.000000 0.000000 0.000000 -0.007728 -0.850748
    37 1.099664 0.000000 0.000000 0.000000 -0.004906 -0.732062
    38 0.806015 -0.359833 -1.318333 1.175422 0.303554 -0.981075
    39 1.789782 0.000000 0.000002 0.000000 0.200206 0.487548
    40 1.206999 0.000000 0.000000 0.000000 0.201934 0.621924
    41 -0.044717 2.313936 4.661499 -0.039270 0.000000 0.000000
    42 2.676089 -1.712443 0.000000 1.570797 0.000000 1.570796
    43 2.676086 -1.712442 0.000000 -1.570796 0.000000 -1.570796
  time 9
    0 1.357068 -0.453134 35.203534 1.645898 -0.140263 0.068389
    1 3.890452 -0.000004 -0.000003 -1.613524 -0.285271 -1.759961
    2 17.848173 0.000000 0.000000 0.000000 0.000000 0.762117
    3 16.525244 0.000000 0.000000 0.013866 -0.089274 -1.542158
    4 6.879447 -0.000001 0.000001 -0.007299 -0.002951 -0.584373
    5 -3.890452 0.000004 0.000007 -1.435717 -0.639918 -1.847503
    6 17.848169 0.000000 0.000000 0.000000 0.000000 1.955742
    7 16.525253 0.000000 0.000000 -0.150757 -0.166037 -0.664724
    8 6.879452 0.000000 0.000000 -0.080422 -0.002496 -0.604397
    9 0.675807 3.317783 -2.942837 1.407794 0.017496 1.440363
    10 4.018331 0.000000 0.000000 0.003535 0.000096 0.206954
    11 3.518565 0.000000 0.000000 -0.082374 -0.009408 0.318899
    12 8.942642 0.000000 0.000000 0.026989 -0.032898 0.172044
    13 3.307271 0.000000 0.000000 3.089925 0.008581 0.579588
    14 3.593713 -0.000002 0.000000 0.200677 -0.074545 0.799851
    15 2.033346 1.000767 1.937660 2.903657 -1.252898 1.520235
    16 6.028142 -0.000001 0.000000 -1.524101 -0.316196 -1.004447
    17 11.692558 0.000000 0.000003 0.000000 0.000000 -1.078199
    18 11.481671 0.000000 -0.000028 0.913908 -0.648782 0.136145
    19 3.883692 -0.046774 0.431443 0.066391 -0.047107 -1.014693
    20 1.719576 0.000002 0.000000 0.000000 0.005013 -1.363380
    21 1.209181 0.000001 0.000000 0.000000 0.002808 -1.213274
    22 3.859859 -0.137948 1.332467 0.321084 -0.077961 -1.060016
    23 1.719430 0.000003 0.000000 0.000000 0.005105 -1.559276
    24 1.099666 0.000002 0.000000 0.000000 0.003243 -1.241199
    25 0.806049 -0.348924 1.321259 -1.194960 -0.447528 -0.858141
    26 1.789785 0.000000 0.000001 0.000000 0.058129 0.663312
    27 1.206999 0.000000 0.000001 0.000000 -0.003283 1.086661
    28 2.033353 1.000771 -1.937610 -2.865744 1.334183 1.630282
    29 6.028141 0.000004 0.000000 1.226587 0.163358 -1.227352
    30 11.692545 0.000000 0.000000 0.000000 0.000000 -1.706683
    31 11.481696 0.000000 0.000004 -1.372584 -0.309826 0.378815
    32 3.883655 -0.050328 -0.431043 -0.085446 -0.274161 -0.673790
    33 1.719577 0.000003 0.000000 0.000000 0.175678 -1.316311
    34 1.209180 -0.000002 0.000000 0.000000 -0.004245 -1.170288
    35 3.859828 -0.148937 -1.331281 -0.315437 0.154350 -0.106082
    36 1.719427 0.000000 0.000000 0.000000 -0.007728 -0.850748
    37 1.099664 0.000000 0.000000 0.000000 -0.004906 -0.732062
    38 0.806015 -0.359833 -1.318333 1.175422 0.303554 -0.981075
    39 1.789782 0.000000 0.000002 0.000000 0.200206 0.487548
    40 1.206999 0.000000 0.000000 0.000000 0.201934 0.621924
    41 -0.044717 2.313936 4.661499 -0.039270 0.000000 0.000000
    42 2.676089 -1.712443 0.000000 1.570797 0.000000 1.570796
    43 2.676086 -1.712442 0.000000 -1.570796 0.000000 -1.570796
  time 10
    0 1.513322 -0.378913 35.621515 1.636453 -0.166137 0.114951
    1 3.890452 -0.000004 -0.000003 -1.614609 0.015554 -1.757963
    2 17.848173 0.000000 0.000000 0.000000 0.000000 0.544207
    3 16.525244 0.000000 0.000000 0.008566 -0.034957 -1.466850
    4 6.879447 -0.000001 0.000001 -0.005849 -0.003023 -0.731362
    5 -3.890452 0.000004 0.000007 -1.215475 -0.906774 -2.049026
    6 17.848169 0.000000 0.000000 0.000000 0.000000 1.863316
    7 16.525253 0.000000 0.000000 -0.125351 -0.085588 -0.676884
    8 6.879452 0.000000 0.000000 -0.078672 -0.001944 -0.728727
    9 0.894564 3.309970 -2.895961 1.360862 0.007438 1.409307
    10 4.018331 0.000000 0.000000 -0.015517 0.012368 0.206902
    11 3.518565 0.000000 0.000000 -0.096677 0.002888 0.333292
    12 8.942642 0.000000 0.000000 0.020625 -0.023825 0.185683
    13 3.307271 0.000000 0.000000 3.087240 0.010618 0.580702
    14 3.593713 -0.000002 0.000000 0.244794 -0.045435 0.818976
    15 2.033346 1.000767 1.937660 2.901054 -1.180679 1.519563
    16 6.028142 -0.000001 0.000000 -1.545001 -0.231513 -0.968461
    17 11.692558 0.000000 0.000003 0.000000 0.000000 -1.160967
    18 11.481671 0.000000 -0.000028 0.865013 -0.668279 0.184309
    19 3.883692 -0.046774 0.431443 0.066379 -0.047107 -1.014693
    20 1.719576 0.000002 0.000000 0.000000 0.005013 -1.363380
    21 1.209181 0.000001 0.000000 0.000000 0.002808 -1.213274
    22 3.859859 -0.137948 1.332467 0.321072 -0.077961 -1.060016
    23 1.719430 0.000003 0.000000 0.000000 0.005105 -1.559276
    24 1.099666 0.000002 0.000000 0.000000 0.003243 -1.241199
    25 0.806049 -0.348924 1.321259 -1.194960 -0.447528 -0.858141
    26 1.789785 0.000000 0.000001 0.000000 0.058129 0.663312
    27 1.206999 0.000000 0.000001 0.000000 -0.003283 1.086661
    28 2.033353 1.000771 -1.937610 -2.736209 1.403100 1.760588
    29 6.028141 0.000004 0.000000 1.168369 0.189107 -1.219893
    30 11.692545 0.000000 0.000000 0.000000 0.000000 -1.722214
    31 11.481696 0.000000 0.000004 -1.377486 -0.304898 0.401738
    32 3.883655 -0.050328 -0.431043 -0.085446 -0.274161 -0.673790
    33 1.719577 0.000003 0.000000 0.000000 0.175678 -1.316311
    34 1.209180 -0.000002 0.000000 0.000000 -0.004245 -1.170288
    35 3.859828 -0.148937 -1.331281 -0.315437 0.154350 -0.106082
    36 1.719427 0.000000 0.000000 0.000000 -0.007728 -0.850748
    37 1.099664 0.000000 0.000000 0.000000 -0.004906 -0.732062
    38 0.806015 -0.359833 -1.318333 1.175422 0.303554 -0.981075
    39 1.789782 0.000000 0.000002 0.000000 0.200206 0.487548
    40 1.206999 0.000000 0.000000 0.000000 0.201934 0.621924
    41 -0.044717 2.313936 4.661499 -0.039270 0.000000 0.000000
    42 2.676089 -1.712443 0.000000 1.570797 0.000000 1.570796
    43 2.676086 -1.712442 0.000000 -1.570796 0.000000 -1.570796
  time 11
    0 1.552386 -0.464853 36.570763 1.634720 -0.141880 0.151064
    1 3.890452 -0.000004 -0.000003 -1.559947 0.286495 -1.698920
    2 17.848173 0.000000 0.000000 0.000000 0.000000 0.310995
    3 16.525244 0.000000 0.000000 -0.041518 -0.012190 -1.179097
    4 6.879447 -0.000001 0.000001 -0.003740 -0.003143 -1.051964
    5 -3.890452 0.000004 0.000007 -1.060105 -0.902960 -2.096051
    6 17.848169 0.000000 0.000000 0.000000 0.000000 1.494352
    7 16.525253 0.000000 0.000000 -0.144560 -0.042285 -0.949370
    8 6.879452 0.000000 0.000000 -0.078049 -0.002520 -0.922029
    9 0.906283 3.317783 -2.880335 1.326466 0.005096 1.428703
    10 4.018331 0.000000 0.000000 -0.032368 0.023214 0.206875
    11 3.518565 0.000000 0.000000 -0.112958 0.016910 0.339908
    12 8.942642 0.000000 0.000000 0.011194 -0.010415 0.203168
    13 3.307271 0.000000 0.000000 3.080900 0.015592 0.591381
    14 3.593713 -0.000002 0.000000 0.297366 -0.012968 0.845912
    15 2.033346 1.000767 1.937660 2.864310 -1.114848 1.549291
    16 6.028142 -0.000001 0.000000 -1.571900 -0.140867 -0.937383
    17 11.692558 0.000000 0.000003 0.000000 0.000000 -1.252063
    18 11.481671 0.000000 -0.000028 0.839198 -0.674987 0.221907
    19 3.883692 -0.046774 0.431443 0.066379 -0.047107 -1.014693
    20 1.719576 0.000002 0.000000 0.000000 0.005013 -1.363380
    21 1.209181 0.000001 0.000000 0.000000 0.002808 -1.213274
    22 3.859859 -0.137948 1.332467 0.321084 -0.077961 -1.060016
    23 1.719430 0.000003 0.000000 0.000000 0.005105 -1.559276
    24 1.099666 0.000002 0.000000 0.000000 0.003243 -1.241199
    25 0.806049 -0.348924 1.321259 -1.194960 -0.447528 -0.858141
    26 1.789785 0.000000 0.000001 0.000000 0.058129 0.663312
    27 1.206999 0.000000 0.000001 0.000000 -0.003283 1.086661
    28 2.033353 1.000771 -1.937610 -2.383219 1.450302 2.114805
    29 6.028141 0.000004 0.000000 1.111587 0.210517 -1.194839
    30 11.692545 0.000000 0.000000 0.000000 0.000000 -1.756696
    31 11.481696 0.000000 0.000004 -1.381214 -0.295394 0.439512
    32 3.883655 -0.050328 -0.431043 -0.085446 -0.274161 -0.673790
    33 1.719577 0.000003 0.000000 0.000000 0.175678 -1.316311
    34 1.209180 -0.000002 0.000000 0.000000 -0.004245 -1.170288
    35 3.859828 -0.148937 -1.331281 -0.315437 0.154350 -0.106082
    36 1.719427 0.000000 0.000000 0.000000 -0.007728 -0.850748
    37 1.099664 0.000000 0.000000 0.000000 -0.004918 -0.732062
    38 0.806015 -0.359833 -1.318333 1.175422 0.303554 -0.981075
    39 1.789782 0.000000 0.000002 0.000000 0.200206 0.487548
    40 1.206999 0.000000 0.000000 0.000000 0.201934 0.621924
    41 -0.044717 2.313936 4.661499 -0.039270 0.000000 0.000000
    42 2.676089 -1.712443 0.000000 1.570797 0.000000 1.570796
    43 2.676086 -1.712442 0.000000 -1.570796 0.000000 -1.570796
  time 12
    0 1.517229 -0.707048 37.766112 1.641600 -0.090669 0.167947
    1 3.890452 -0.000004 -0.000003 -1.548013 0.367676 -1.594278
    2 17.848173 0.000000 0.000000 0.000000 0.000000 0.439836
    3 16.525244 0.000000 0.000000 -0.047437 0.055163 -0.970658
    4 6.879447 -0.000001 0.000001 -0.003212 -0.002699 -1.107921
    5 -3.890452 0.000004 0.000007 -1.114594 -0.744079 -1.914351
    6 17.848169 0.000000 0.000000 0.000000 0.000000 0.876290
    7 16.525253 0.000000 0.000000 -0.066037 -0.104234 -1.109695
    8 6.879452 0.000000 0.000000 -0.081093 -0.002807 -0.587037
    9 0.769560 3.337315 -2.895961 1.312109 0.011455 1.475865
    10 4.018331 0.000000 0.000000 -0.044551 0.031040 0.206862
    11 3.518565 0.000000 0.000000 -0.128163 0.030009 0.338158
    12 8.942642 0.000000 0.000000 -0.000144 0.005729 0.213691
    13 3.307271 0.000000 0.000000 3.070737 0.023466 0.608459
    14 3.593713 -0.000002 0.000000 0.351739 0.014033 0.878833
    15 2.033346 1.000767 1.937660 2.848072 -1.067497 1.560097
    16 6.028142 -0.000001 0.000000 -1.602132 -0.063332 -0.936950
    17 11.692558 0.000000 0.000003 0.000000 0.000000 -1.330335
    18 11.481671 0.000000 -0.000028 0.840405 -0.668948 0.239603
    19 3.883692 -0.046774 0.431443 0.066379 -0.047107 -1.014693
    20 1.719576 0.000002 0.000000 0.000000 0.005013 -1.363380
    21 1.209181 0.000001 0.000000 0.000000 0.002808 -1.213274
    22 3.859859 -0.137948 1.332467 0.321084 -0.077961 -1.060016
    23 1.719430 0.000003 0.000000 0.000000 0.005105 -1.559276
    24 1.099666 0.000002 0.000000 0.000000 0.003243 -1.241199
    25 0.806049 -0.348924 1.321259 -1.194960 -0.447528 -0.858141
    26 1.789785 0.000000 0.000001 0.000000 0.058129 0.663312
    27 1.206999 0.000000 0.000001 0.000000 -0.003283 1.086661
    28 2.033353 1.000771 -1.937610 -1.975518 1.470184 2.524188
    29 6.028141 0.000004 0.000000 1.065720 0.218384 -1.173132
    30 11.692545 0.000000 0.000000 0.000000 0.000000 -1.802056
    31 11.481696 0.000000 0.000004 -1.380593 -0.281137 0.483829
    32 3.883655 -0.050328 -0.431043 -0.085446 -0.274161 -0.673790
    33 1.719577 0.000003 0.000000 0.000000 0.175678 -1.316311
    34 1.209180 -0.000002 0.000000 0.000000 -0.004245 -1.170288
    35 3.859828 -0.148937 -1.331281 -0.315437 0.154350 -0.106082
    36 1.719427 0.000000 0.000000 0.000000 -0.007728 -0.850748
    37 1.099664 0.000000 0.000000 0.000000 -0.004906 -0.732062
    38 0.806015 -0.359833 -1.318333 1.175422 0.303554 -0.981075
    39 1.789782 0.000000 0.000002 0.000000 0.200206 0.487548
    40 1.206999 0.000000 0.000000 0.000000 0.201934 0.621924
    41 -0.044717 2.313936 4.661499 -0.039270 0.000000 0.000000
    42 2.676089 -1.712443 0.000000 1.570797 0.000000 1.570796
    43 2.676086 -1.712442 0.000000 -1.570796 0.000000 -1.570796
  time 13
    0 1.423476 -0.980494 38.367693 1.651134 -0.036943 0.159544
    1 3.890452 -0.000004 -0.000003 -1.554022 0.476807 -1.488274
    2 17.848173 0.000000 0.000000 0.000000 0.000000 0.446888
    3 16.525244 0.000000 0.000000 -0.005773 0.125475 -0.621391
    4 6.879447 -0.000001 0.000001 -0.003428 -0.003107 -1.107921
    5 -3.890452 0.000004 0.000007 -1.183277 -0.605931 -1.732297
    6 17.848169 0.000000 0.000000 0.000000 0.000000 0.343670
    7 16.525253 0.000000 0.000000 0.031026 -0.088541 -1.023785
    8 6.879452 0.000000 0.000000 -0.082028 -0.003406 -0.584373
    9 0.558616 3.345128 -2.931118 1.323734 0.020810 1.526222
    10 4.018331 0.000000 0.000000 -0.051331 0.035379 0.206862
    11 3.518565 0.000000 0.000000 -0.139829 0.040029 0.327792
    12 8.942642 0.000000 0.000000 -0.011349 0.021704 0.214494
    13 3.307271 0.000000 0.000000 3.057902 0.033497 0.620899
    14 3.593713 -0.000002 0.000000 0.401169 0.033232 0.897301
    15 2.033346 1.000767 1.937660 2.854213 -1.042245 1.552548
    16 6.028142 -0.000001 0.000000 -1.627508 -0.016302 -0.965815
    17 11.692558 0.000000 0.000003 0.000000 0.000000 -1.365048
    18 11.481671 0.000000 -0.000028 0.859625 -0.655929 0.228324
    19 3.883692 -0.046774 0.431443 0.066379 -0.047107 -1.014693
    20 1.719576 0.000002 0.000000 0.000000 0.005013 -1.363380
    21 1.209181 0.000001 0.000000 0.000000 0.002808 -1.213274
    22 3.859859 -0.137948 1.332467 0.321084 -0.077961 -1.060016
    23 1.719430 0.000003 0.000000 0.000000 0.005105 -1.559276
    24 1.099666 0.000002 0.000000 0.000000 0.003231 -1.241199
    25 0.806049 -0.348924 1.321259 -1.194960 -0.447528 -0.858141
    26 1.789785 0.000000 0.000001 0.000000 0.058129 0.663312
    27 1.206999 0.000000 0.000001 0.000000 -0.003283 1.086661
    28 2.033353 1.000771 -1.937610 -1.721339 1.479099 2.779579
    29 6.028141 0.000004 0.000000 1.027610 0.214474 -1.155250
    30 11.692545 0.000000 0.000000 0.000000 0.000000 -1.834144
    31 11.481696 0.000000 0.000004 -1.366508 -0.259180 0.513342
    32 3.883655 -0.050328 -0.431043 -0.085446 -0.274161 -0.673790
    33 1.719577 0.000003 0.000000 0.000000 0.175678 -1.316311
    34 1.209180 -0.000002 0.000000 0.000000 -0.004245 -1.170288
    35 3.859828 -0.148937 -1.331281 -0.315437 0.154350 -0.106082
    36 1.719427 0.000000 0.000000 0.000000 -0.007728 -0.850748
    37 1.099664 0.000000 0.000000 0.000000 -0.004906 -0.732062
    38 0.806015 -0.359833 -1.318333 1.175446 0.303554 -0.981075
    39 1.789782 0.000000 0.000002 0.000000 0.200206 0.487548
    40 1.206999 0.000000 0.000000 0.000000 0.201934 0.621924
    41 -0.044717 2.313936 4.661499 -0.039270 0.000000 0.000000
    42 2.676089 -1.712443 0.000000 1.570797 0.000000 1.570796
    43 2.676086 -1.712442 0.000000 -1.570796 0.000000 -1.570796
  time 14
    0 1.263315 -1.128936 38.277846 1.656228 -0.003989 0.129411
    1 3.890452 -0.000004 -0.000003 -1.571631 0.521150 -1.430502
    2 17.848173 0.000000 0.000000 0.000000 0.000000 0.538213
    3 16.525244 0.000000 0.000000 0.049700 0.159660 -0.390659
    4 6.879447 -0.000001 0.000001 -0.004315 -0.004857 -1.105984
    5 -3.890452 0.000004 0.000007 -1.258247 -0.478689 -1.599845
    6 17.848169 0.000000 0.000000 0.000000 0.000000 0.000092
    7 16.525253 0.000000 0.000000 0.092992 -0.039416 -0.882048
    8 6.879452 0.000000 0.000000 -0.048831 -0.001932 -0.593858
    9 0.359391 3.345128 -2.962369 1.356583 0.026131 1.556645
    10 4.018331 0.000000 0.000000 -0.053065 0.036457 0.206875
    11 3.518565 0.000000 0.000000 -0.146947 0.046129 0.312104
    12 8.942642 0.000000 0.000000 -0.020470 0.034671 0.205721
    13 3.307271 0.000000 0.000000 3.044371 0.043959 0.623403
    14 3.593713 -0.000002 0.000000 0.439235 0.046559 0.890184
    15 2.033346 1.000767 1.937660 2.871336 -1.036936 1.537089
    16 6.028142 -0.000001 0.000000 -1.640743 -0.000959 -1.008825
    17 11.692558 0.000000 0.000003 0.000000 0.000000 -1.349276
    18 11.481671 0.000000 -0.000028 0.884474 -0.640673 0.192185
    19 3.883692 -0.046774 0.431443 0.066379 -0.047107 -1.014693
    20 1.719576 0.000002 0.000000 0.000000 0.005013 -1.363380
    21 1.209181 0.000001 0.000000 0.000000 0.002808 -1.213274
    22 3.859859 -0.137948 1.332467 0.321084 -0.077961 -1.060016
    23 1.719430 0.000003 0.000000 0.000000 0.005105 -1.559276
    24 1.099666 0.000002 0.000000 0.000000 0.003243 -1.241199
    25 0.806049 -0.348924 1.321259 -1.194960 -0.447528 -0.858141
    26 1.789785 0.000000 0.000001 0.000000 0.058129 0.663312
    27 1.206999 0.000000 0.000001 0.000000 -0.003283 1.086661
    28 2.033353 1.000771 -1.937610 -1.667644 1.488213 2.833457
    29 6.028141 0.000004 0.000000 0.994767 0.202983 -1.139280
    30 11.692545 0.000000 0.000000 0.000000 0.000000 -1.842080
    31 11.481696 0.000000 0.000004 -1.339236 -0.231063 0.520887
    32 3.883655 -0.050328 -0.431043 -0.085446 -0.274161 -0.673790
    33 1.719577 0.000003 0.000000 0.000000 0.175678 -1.316311
    34 1.209180 -0.000002 0.000000 0.000000 -0.004245 -1.170288
    35 3.859828 -0.148937 -1.331281 -0.315437 0.154350 -0.106082
    36 1.719427 0.000000 0.000000 0.000000 -0.007728 -0.850748
    37 1.099664 0.000000 0.000000 0.000000 -0.004906 -0.732062
    38 0.806015 -0.359833 -1.318333 1.175422 0.303554 -0.981075
    39 1.789782 0.000000 0.000002 0.000000 0.200206 0.487548
    40 1.206999 0.000000 0.000000 0.000000 0.201934 0.621924
    41 -0.044717 2.313936 4.661499 -0.039270 0.000000 0.000000
    42 2.676089 -1.712443 0.000000 1.570797 0.000000 1.570796
    43 2.676086 -1.712442 0.000000 -1.570796 0.000000 -1.570796
  time 15
    0 1.036745 -1.128936 37.531730 1.657166 0.010170 0.083531
    1 3.890452 -0.000004 -0.000003 -1.607515 0.367814 -1.428322
    2 17.848173 0.000000 0.000000 0.000000 0.000000 0.985739
    3 16.525244 0.000000 0.000000 0.128346 0.144682 -0.456005
    4 6.879447 -0.000001 0.000001 -0.006880 -0.007577 -1.000338
    5 -3.890452 0.000004 0.000007 -1.323881 -0.433797 -1.543575
    6 17.848169 0.000000 0.000000 0.000000 0.000000 0.000092
    7 16.525253 0.000000 0.000000 0.141127 -0.004697 -0.966406
    8 6.879452 0.000000 0.000000 -0.063344 -0.002699 -0.593565
    9 0.179698 3.345128 -2.977995 1.403767 0.027721 1.569337
    10 4.018331 0.000000 0.000000 -0.050109 0.034480 0.206928
    11 3.518565 0.000000 0.000000 -0.149611 0.048394 0.300958
    12 8.942642 0.000000 0.000000 -0.026462 0.043180 0.188823
    13 3.307271 0.000000 0.000000 3.032674 0.052960 0.616548
    14 3.593713 -0.000002 0.000000 0.461548 0.054840 0.863066
    15 2.033346 1.000767 1.937660 2.896006 -1.049711 1.516512
    16 6.028142 -0.000001 0.000000 -1.650027 -0.018760 -1.055684
    17 11.692558 0.000000 0.000003 0.000000 0.000000 -1.282576
    18 11.481671 0.000000 -0.000028 0.915436 -0.620570 0.129792
    19 3.883692 -0.046774 0.431443 0.066391 -0.047107 -1.014693
    20 1.719576 0.000002 0.000000 0.000000 0.005013 -1.363380
    21 1.209181 0.000001 0.000000 0.000000 0.002808 -1.213274
    22 3.859859 -0.137948 1.332467 0.321084 -0.077961 -1.060016
    23 1.719430 0.000003 0.000000 0.000000 0.005105 -1.559276
    24 1.099666 0.000002 0.000000 0.000000 0.003243 -1.241199
    25 0.806049 -0.348924 1.321259 -1.194960 -0.447528 -0.858141
    26 1.789785 0.000000 0.000001 0.000000 0.058129 0.663312
    27 1.206999 0.000000 0.000001 0.000000 -0.003283 1.086661
    28 2.033353 1.000771 -1.937610 -1.859915 1.498276 2.640419
    29 6.028141 0.000004 0.000000 0.971307 0.190013 -1.138706
    30 11.692545 0.000000 0.000000 0.000000 0.000000 -1.817450
    31 11.481696 0.000000 0.000004 -1.314450 -0.202550 0.506179
    32 3.883655 -0.050328 -0.431043 -0.085446 -0.274161 -0.673790
    33 1.719577 0.000003 0.000000 0.000000 0.175666 -1.316311
    34 1.209180 -0.000002 0.000000 0.000000 -0.004245 -1.170288
    35 3.859828 -0.148937 -1.331281 -0.315437 0.154350 -0.106082
    36 1.719427 0.000000 0.000000 0.000000 -0.007728 -0.850748
    37 1.099664 0.000000 0.000000 0.000000 -0.004918 -0.732062
    38 0.806015 -0.359833 -1.318333 1.175422 0.303554 -0.981075
    39 1.789782 0.000000 0.000002 0.000000 0.200206 0.487548
    40 1.206999 0.000000 0.000000 0.000000 0.201934 0.621924
    41 -0.044717 2.313936 4.661499 -0.039270 0.000000 0.000000
    42 2.676089 -1.712443 0.000000 1.570797 0.000000 1.570796
    43 2.676086 -1.712442 0.000000 -1.570796 0.000000 -1.570796
  time 16
    0 0.747674 -0.960962 36.141062 1.656759 0.025264 0.029778
    1 3.890452 -0.000004 -0.000003 -1.655250 0.114002 -1.428777
    2 17.848173 0.000000 0.000000 0.000000 0.000000 1.494054
    3 16.525244 0.000000 0.000000 0.180845 0.110173 -0.625397
    4 6.879447 -0.000001 0.000001 -0.010355 -0.008476 -0.810386
    5 -3.890452 0.000004 0.000007 -1.367320 -0.601041 -1.556020
    6 17.848169 0.000000 0.000000 0.000000 0.000000 0.596383
    7 16.525253 0.000000 0.000000 0.115226 -0.001639 -1.251748
    8 6.879452 0.000000 0.000000 -0.081896 -0.003311 -0.584373
    9 -0.007808 3.345128 -2.981901 1.459052 0.028123 1.584727
    10 4.018331 0.000000 0.000000 -0.041950 0.029075 0.206968
    11 3.518565 0.000000 0.000000 -0.148266 0.047159 0.298489
    12 8.942642 0.000000 0.000000 -0.029218 0.047075 0.173794
    13 3.307271 0.000000 0.000000 3.024537 0.059264 0.600549
    14 3.593713 -0.000002 0.000000 0.466306 0.055452 0.830546
    15 2.033346 1.000767 1.937660 2.919947 -1.081698 1.497331
    16 6.028142 -0.000001 0.000000 -1.649170 -0.078539 -1.090467
    17 11.692558 0.000000 0.000003 0.000000 0.000000 -1.160230
    18 11.481671 0.000000 -0.000028 0.939320 -0.606359 0.046559
    19 3.883692 -0.046774 0.431443 0.066379 -0.047107 -1.014693
    20 1.719576 0.000002 0.000000 0.000000 0.005013 -1.363380
    21 1.209181 0.000001 0.000000 0.000000 0.002808 -1.213274
    22 3.859859 -0.137948 1.332467 0.321084 -0.077961 -1.060016
    23 1.719430 0.000003 0.000000 0.000000 0.005105 -1.559276
    24 1.099666 0.000002 0.000000 0.000000 0.003243 -1.241199
    25 0.806049 -0.348924 1.321259 -1.194960 -0.447528 -0.858141
    26 1.789785 0.000000 0.000001 0.000000 0.058129 0.663312
    27 1.206999 0.000000 0.000001 0.000000 -0.003283 1.086661
    28 2.033353 1.000771 -1.937610 -2.313562 1.492075 2.185785
    29 6.028141 0.000004 0.000000 0.965562 0.189631 -1.147313
    30 11.692545 0.000000 0.000000 0.000000 0.000000 -1.754644
    31 11.481696 0.000000 0.000004 -1.296015 -0.181913 0.463151
    32 3.883655 -0.050328 -0.431043 -0.085446 -0.274161 -0.673790
    33 1.719577 0.000003 0.000000 0.000000 0.175678 -1.316311
    34 1.209180 -0.000002 0.000000 0.000000 -0.004245 -1.170288
    35 3.859828 -0.148937 -1.331281 -0.315437 0.154350 -0.106082
    36 1.719427 0.000000 0.000000 0.000000 -0.007728 -0.850748
    37 1.099664 0.000000 0.000000 0.000000 -0.004906 -0.732062
    38 0.806015 -0.359833 -1.318333 1.175422 0.303554 -0.981075
    39 1.789782 0.000000 0.000002 0.000000 0.200206 0.487548
    40 1.206999 0.000000 0.000000 0.000000 0.201934 0.621924
    41 -0.044717 2.313936 4.661499 -0.039270 0.000000 0.000000
    42 2.676089 -1.712443 0.000000 1.570797 0.000000 1.570796
    43 2.676086 -1.712442 0.000000 -1.570796 0.000000 -1.570796
  time 17
    0 0.435165 -0.675797 35.215253 1.654123 0.070185 -0.023749
    1 3.890452 -0.000004 -0.000003 -1.702485 -0.241757 -1.384722
    2 17.848173 0.000000 0.000000 0.000000 0.000000 1.852441
    3 16.525244 0.000000 0.000000 0.179343 0.093508 -0.718992
    4 6.879447 -0.000001 0.000001 -0.009121 -0.004833 -0.643007
    5 -3.890452 0.000004 0.000007 -1.379227 -0.543484 -1.513351
    6 17.848169 0.000000 0.000000 0.000000 0.000000 0.849507
    7 16.525253 0.000000 0.000000 0.006810 -0.021951 -1.363561
    8 6.879452 0.000000 0.000000 -0.081333 -0.002951 -0.584373
    9 -0.312505 3.341221 -2.974088 1.516602 0.025880 1.632220
    10 4.018331 0.000000 0.000000 -0.028433 0.020182 0.207034
    11 3.518565 0.000000 0.000000 -0.142628 0.042174 0.304350
    12 8.942642 0.000000 0.000000 -0.029099 0.046836 0.168257
    13 3.307271 0.000000 0.000000 3.020210 0.062584 0.583363
    14 3.593713 -0.000002 0.000000 0.453047 0.044150 0.810436
    15 2.033346 1.000767 1.937660 2.932074 -1.133064 1.488800
    16 6.028142 -0.000001 0.000000 -1.633745 -0.175332 -1.104178
    17 11.692558 0.000000 0.000003 0.000000 0.000000 -1.014742
    18 11.481671 0.000000 -0.000028 0.952268 -0.600215 -0.031651
    19 3.883692 -0.046774 0.431443 0.066379 -0.047107 -1.014693
    20 1.719576 0.000002 0.000000 0.000000 0.005013 -1.363380
    21 1.209181 0.000001 0.000000 0.000000 0.002808 -1.213274
    22 3.859859 -0.137948 1.332467 0.321084 -0.077961 -1.060016
    23 1.719430 0.000003 0.000000 0.000000 0.005105 -1.559276
    24 1.099666 0.000002 0.000000 0.000000 0.003243 -1.241199
    25 0.806049 -0.348924 1.321259 -1.194960 -0.447528 -0.858141
    26 1.789785 0.000000 0.000001 0.000000 0.058129 0.663312
    27 1.206999 0.000000 0.000001 0.000000 -0.003283 1.086661
    28 2.033353 1.000771 -1.937610 -2.673749 1.452486 1.824530
    29 6.028141 0.000004 0.000000 0.985862 0.203984 -1.150659
    30 11.692545 0.000000 0.000000 0.000000 0.000000 -1.682532
    31 11.481696 0.000000 0.000004 -1.280895 -0.172629 0.411098
    32 3.883655 -0.050328 -0.431043 -0.085446 -0.274161 -0.673790
    33 1.719577 0.000003 0.000000 0.000000 0.175678 -1.316311
    34 1.209180 -0.000002 0.000000 0.000000 -0.004245 -1.170288
    35 3.859828 -0.148937 -1.331281 -0.315437 0.154350 -0.106082
    36 1.719427 0.000000 0.000000 0.000000 -0.007728 -0.850748
    37 1.099664 0.000000 0.000000 0.000000 -0.004906 -0.732062
    38 0.806015 -0.359833 -1.318333 1.175422 0.303554 -0.981075
    39 1.789782 0.000000 0.000002 0.000000 0.200206 0.487548
    40 1.206999 0.000000 0.000000 0.000000 0.201934 0.621924
    41 -0.044717 2.313936 4.661499 -0.039270 0.000000 0.000000
    42 2.676089 -1.712443 0.000000 1.570797 0.000000 1.570796
    43 2.676086 -1.712442 0.000000 -1.570796 0.000000 -1.570796
  time 18
    0 0.165625 -0.453134 34.992590 1.645739 0.132500 -0.073112
    1 3.890452 -0.000004 -0.000003 -1.724933 -0.599726 -1.304242
    2 17.848173 0.000000 0.000000 0.000000 0.000000 1.954344
    3 16.525244 0.000000 0.000000 0.120425 0.122909 -0.704293
    4 6.879447 -0.000001 0.000001 -0.006412 -0.002508 -0.604270
    5 -3.890452 0.000004 0.000007 -1.527643 -0.305969 -1.398855
    6 17.848169 0.000000 0.000000 0.000000 0.000000 0.803170
    7 16.525253 0.000000 0.000000 -0.008062 0.066934 -1.561346
    8 6.879452 0.000000 0.000000 -0.081333 -0.002951 -0.584373
    9 -0.664078 3.325596 -2.938931 1.570209 0.016994 1.699013
    10 4.018331 0.000000 0.000000 -0.010715 0.008593 0.207113
    11 3.518565 0.000000 0.000000 -0.132388 0.033161 0.318372
    12 8.942642 0.000000 0.000000 -0.026031 0.042318 0.172020
    13 3.307271 0.000000 0.000000 3.019443 0.063195 0.574878
    14 3.593713 -0.000002 0.000000 0.422373 0.019929 0.812005
    15 2.033346 1.000767 1.937660 2.920884 -1.199327 1.501829
    16 6.028142 -0.000001 0.000000 -1.606845 -0.293432 -1.097347
    17 11.692558 0.000000 0.000003 0.000000 0.000000 -0.894755
    18 11.481671 0.000000 -0.000028 0.961355 -0.593027 -0.077416
    19 3.883692 -0.046774 0.431443 0.066379 -0.047107 -1.014693
    20 1.719576 0.000002 0.000000 0.000000 0.005013 -1.363380
    21 1.209181 0.000001 0.000000 0.000000 0.002808 -1.213274
    22 3.859859 -0.137948 1.332467 0.321072 -0.077961 -1.060016
    23 1.719430 0.000003 0.000000 0.000000 0.005105 -1.559276
    24 1.099666 0.000002 0.000000 0.000000 0.003243 -1.241199
    25 0.806049 -0.348924 1.321259 -1.194960 -0.447528 -0.858141
    26 1.789785 0.000000 0.000001 0.000000 0.058129 0.663312
    27 1.206999 0.000000 0.000001 0.000000 -0.003283 1.086661
    28 2.033353 1.000771 -1.937610 -2.814724 1.388006 1.682344
    29 6.028141 0.000004 0.000000 1.034122 0.224154 -1.136124
    30 11.692545 0.000000 0.000000 0.000000 0.000000 -1.640182
    31 11.481696 0.000000 0.000004 -1.262944 -0.170033 0.376332
    32 3.883655 -0.050328 -0.431043 -0.085446 -0.274161 -0.673790
    33 1.719577 0.000003 0.000000 0.000000 0.175678 -1.316311
    34 1.209180 -0.000002 0.000000 0.000000 -0.004245 -1.170288
    35 3.859828 -0.148937 -1.331281 -0.315437 0.154350 -0.106082
    36 1.719427 0.000000 0.000000 0.000000 -0.007728 -0.850748
    37 1.099664 0.000000 0.000000 0.000000 -0.004906 -0.732062
    38 0.806015 -0.359833 -1.318333 1.175422 0.303554 -0.981075
    39 1.789782 0.000000 0.000002 0.000000 0.200206 0.487548
    40 1.206999 0.000000 0.000000 0.000000 0.201934 0.621924
    41 -0.044717 2.313936 4.661499 -0.039270 0.000000 0.000000
    42 2.676089 -1.712443 0.000000 1.570797 0.000000 1.570796
    43 2.676086 -1.712442 0.000000 -1.570796 0.000000 -1.570796
  time 19
    0 -0.006255 -0.378913 35.398852 1.635728 0.166389 -0.118007
    1 3.890452 -0.000004 -0.000003 -1.905942 -0.874950 -1.122844
    2 17.848173 0.000000 0.000000 0.000000 0.000000 1.877546
    3 16.525244 0.000000 0.000000 0.098312 0.058537 -0.734318
    4 6.879447 -0.000001 0.000001 -0.004638 -0.001944 -0.729073
    5 -3.890452 0.000004 0.000007 -1.532692 -0.002387 -1.391122
    6 17.848169 0.000000 0.000000 0.000000 0.000000 0.589728
    7 16.525253 0.000000 0.000000 -0.006723 0.021901 -1.491301
    8 6.879452 0.000000 0.000000 -0.079859 -0.003023 -0.733587
    9 -0.906273 3.306064 -2.888148 1.615834 0.005966 1.738384
    10 4.018331 0.000000 0.000000 0.008759 -0.004063 0.207232
    11 3.518565 0.000000 0.000000 -0.117789 0.020374 0.333269
    12 8.942642 0.000000 0.000000 -0.019583 0.032874 0.185922
    13 3.307271 0.000000 0.000000 3.022140 0.061097 0.576376
    14 3.593713 -0.000002 0.000000 0.376269 -0.003824 0.804998
    15 2.033346 1.000767 1.937660 2.861552 -1.270516 1.561338
    16 6.028142 -0.000001 0.000000 -1.576423 -0.418452 -1.075216
    17 11.692558 0.000000 0.000003 0.000000 0.000000 -0.812798
    18 11.481671 0.000000 -0.000028 0.973016 -0.580718 -0.092941
    19 3.883692 -0.046774 0.431443 0.066379 -0.047107 -1.014693
    20 1.719576 0.000002 0.000000 0.000000 0.005013 -1.363380
    21 1.209181 0.000001 0.000000 0.000000 0.002808 -1.213274
    22 3.859859 -0.137948 1.332467 0.321084 -0.077961 -1.060016
    23 1.719430 0.000003 0.000000 0.000000 0.005105 -1.559276
    24 1.099666 0.000002 0.000000 0.000000 0.003243 -1.241199
    25 0.806049 -0.348924 1.321259 -1.194960 -0.447528 -0.858141
    26 1.789785 0.000000 0.000001 0.000000 0.058129 0.663312
    27 1.206999 0.000000 0.000001 0.000000 -0.003283 1.086661
    28 2.033353 1.000771 -1.937610 -2.838804 1.313087 1.655783
    29 6.028141 0.000004 0.000000 1.103065 0.240653 -1.100647
    30 11.692545 0.000000 0.000000 0.000000 0.000000 -1.633820
    31 11.481696 0.000000 0.000004 -1.244924 -0.172057 0.363438
    32 3.883655 -0.050328 -0.431043 -0.085446 -0.274161 -0.673790
    33 1.719577 0.000003 0.000000 0.000000 0.175678 -1.316311
    34 1.209180 -0.000002 0.000000 0.000000 -0.004245 -1.170288
    35 3.859828 -0.148937 -1.331281 -0.315437 0.154350 -0.106082
    36 1.719427 0.000000 0.000000 0.000000 -0.007728 -0.850748
    37 1.099664 0.000000 0.000000 0.000000 -0.004906 -0.732062
    38 0.806015 -0.359833 -1.318333 1.175422 0.303554 -0.981075
    39 1.789782 0.000000 0.000002 0.000000 0.200206 0.487548
    40 1.206999 0.000000 0.000000 0.000000 0.201934 0.621924
    41 -0.044717 2.313936 4.661499 -0.039270 0.000000 0.000000
    42 2.676089 -1.712443 0.000000 1.570797 0.000000 1.570796
    43 2.676086 -1.712442 0.000000 -1.570796 0.000000 -1.570796
end
