// Created by Crowbar 0.62
version 1
nodes
  0 "ValveBiped.Bip01_Pelvis" -1
  1 "ValveBiped.Bip01_L_Thigh" 0
  2 "ValveBiped.Bip01_L_Calf" 1
  3 "ValveBiped.Bip01_L_Foot" 2
  4 "ValveBiped.Bip01_L_Toe0" 3
  5 "ValveBiped.Bip01_R_Thigh" 0
  6 "ValveBiped.Bip01_R_Calf" 5
  7 "ValveBiped.Bip01_R_Foot" 6
  8 "ValveBiped.Bip01_R_Toe0" 7
  9 "ValveBiped.Bip01_Spine" 0
  10 "ValveBiped.Bip01_Spine1" 9
  11 "ValveBiped.Bip01_Spine2" 10
  12 "ValveBiped.Bip01_Spine4" 11
  13 "ValveBiped.Bip01_Neck1" 12
  14 "ValveBiped.Bip01_Head1" 13
  15 "ValveBiped.Bip01_L_Clavicle" 12
  16 "ValveBiped.Bip01_L_UpperArm" 15
  17 "ValveBiped.Bip01_L_Forearm" 16
  18 "ValveBiped.Bip01_L_Hand" 17
  19 "ValveBiped.Bip01_L_Finger2" 18
  20 "ValveBiped.Bip01_L_Finger21" 19
  21 "ValveBiped.Bip01_L_Finger22" 20
  22 "ValveBiped.Bip01_L_Finger1" 18
  23 "ValveBiped.Bip01_L_Finger11" 22
  24 "ValveBiped.Bip01_L_Finger12" 23
  25 "ValveBiped.Bip01_L_Finger0" 18
  26 "ValveBiped.Bip01_L_Finger01" 25
  27 "ValveBiped.Bip01_L_Finger02" 26
  28 "ValveBiped.Bip01_R_Clavicle" 12
  29 "ValveBiped.Bip01_R_UpperArm" 28
  30 "ValveBiped.Bip01_R_Forearm" 29
  31 "ValveBiped.Bip01_R_Hand" 30
  32 "ValveBiped.Bip01_R_Finger2" 31
  33 "ValveBiped.Bip01_R_Finger21" 32
  34 "ValveBiped.Bip01_R_Finger22" 33
  35 "ValveBiped.Bip01_R_Finger1" 31
  36 "ValveBiped.Bip01_R_Finger11" 35
  37 "ValveBiped.Bip01_R_Finger12" 36
  38 "ValveBiped.Bip01_R_Finger0" 31
  39 "ValveBiped.Bip01_R_Finger01" 38
  40 "ValveBiped.Bip01_R_Finger02" 39
  41 "ValveBiped.Cod" 0
  42 "ValveBiped.Anim_Attachment_LH" 18
  43 "ValveBiped.Anim_Attachment_RH" 31
end
skeleton
  time 0
    0 -1.135196 -0.652359 27.882998 1.663498 -0.211023 0.007140
    1 3.890452 -0.000004 -0.000003 -2.200447 -0.991080 -1.279898
    2 17.848173 0.000000 0.000000 0.000000 0.000000 1.824092
    3 15.642404 0.000000 0.000000 0.280984 -0.013161 -1.139353
    4 7.109923 -0.000001 0.000001 -0.007119 -0.003131 -0.631738
    5 -3.890452 0.000004 0.000007 -1.129264 -1.016314 -2.015779
    6 17.848169 0.000000 0.000000 0.000000 0.000000 1.573633
    7 15.642414 0.000000 0.000000 0.103056 0.324499 -1.580979
    8 7.109928 0.000000 0.000000 -0.081177 -0.003119 -0.629954
    9 0.000005 3.345128 -2.981901 1.564456 -0.113086 1.553382
    10 4.018331 0.000000 0.000000 -0.099506 0.002613 0.320843
    11 3.518565 0.000000 0.000000 -0.087124 0.006675 0.187788
    12 8.942642 0.000000 0.000000 0.043720 0.002721 0.171541
    13 3.307271 0.000000 0.000000 3.141590 0.000000 0.400478
    14 3.593713 -0.000002 0.000000 0.097751 0.163804 1.134354
    15 2.033346 1.000767 1.101697 1.848121 -1.411838 2.688434
    16 6.805510 -0.000001 0.000000 -1.539050 -0.805578 -0.517002
    17 12.387892 0.000000 0.000003 0.000000 0.000000 -1.325028
    18 9.337075 0.000000 -0.000028 -0.865846 0.452065 0.050124
    19 4.450115 -0.070212 0.568166 0.096281 -0.007823 -0.804076
    20 1.426598 0.000002 0.000000 0.023861 -0.079611 -1.125914
    21 1.322465 0.000001 0.000000 0.009300 -0.033625 -0.575064
    22 4.473159 -0.032476 1.578568 0.476656 -0.055406 -1.136065
    23 1.344418 0.000003 0.000000 0.023454 -0.208305 -0.755705
    24 1.224670 0.000002 0.000000 0.026030 -0.124608 -0.538675
    25 2.626417 -0.348924 1.903308 -0.354081 -0.915135 -1.788176
    26 1.059294 0.000000 0.000001 0.000551 0.000015 0.000038
    27 0.781205 0.000000 0.000001 -0.000455 0.006951 -0.135927
    28 2.033353 1.000771 -1.101647 -2.051172 1.251188 2.576098
    29 6.805509 0.000004 0.000000 1.273124 0.678769 -0.655601
    30 12.391785 0.000000 0.000000 0.000000 0.000000 -1.616100
    31 9.341006 0.000000 0.000004 -1.016806 -0.285361 0.068930
    32 4.450079 -0.073766 -0.567766 -0.386561 0.126208 -1.146667
    33 1.426600 0.000003 0.000000 -0.051390 0.078806 -1.521708
    34 1.322464 -0.000002 0.000000 -0.034695 0.051519 -1.200245
    35 4.477035 -0.043465 -1.577382 -0.083026 0.164909 0.067453
    36 1.344415 0.000000 0.000000 0.024520 0.136363 -0.478014
    37 1.224668 0.000000 0.000000 -0.166382 0.224946 -1.318138
    38 2.630290 -0.359833 -1.900382 1.070449 0.381371 -0.978459
    39 1.063198 0.000000 0.000002 0.002198 0.017473 0.317165
    40 0.781205 0.000000 0.000000 0.006460 0.026000 0.488017
    41 -0.044717 2.528787 4.661499 0.152564 -0.037970 -0.054662
    42 1.554961 -2.005421 -0.062502 -0.583859 0.091275 -1.371645
    43 2.676086 -1.712442 0.000000 -1.570796 0.000000 -1.570796
  time 1
    0 -1.135196 -0.652359 27.882998 1.663498 -0.211023 0.007140
    1 3.890452 -0.000004 -0.000003 -2.200447 -0.991080 -1.279898
    2 17.848173 0.000000 0.000000 0.000000 0.000000 1.824092
    3 15.642404 0.000000 0.000000 0.280984 -0.013161 -1.139353
    4 7.109923 -0.000001 0.000001 -0.007119 -0.003131 -0.631738
    5 -3.890452 0.000004 0.000007 -1.129264 -1.016314 -2.015779
    6 17.848169 0.000000 0.000000 0.000000 0.000000 1.573633
    7 15.642414 0.000000 0.000000 0.103056 0.324499 -1.580979
    8 7.109928 0.000000 0.000000 -0.081177 -0.003119 -0.629954
    9 0.000005 3.345128 -2.981901 1.564456 -0.113086 1.553382
    10 4.018331 0.000000 0.000000 -0.099506 0.002613 0.320843
    11 3.518565 0.000000 0.000000 -0.087124 0.006675 0.187788
    12 8.942642 0.000000 0.000000 0.043720 0.002721 0.171541
    13 3.307271 0.000000 0.000000 3.141590 0.000000 0.400478
    14 3.593713 -0.000002 0.000000 0.097751 0.163804 1.134354
    15 2.033346 1.000767 1.101697 1.848121 -1.411838 2.688434
    16 6.805510 -0.000001 0.000000 -1.539050 -0.805578 -0.517002
    17 12.387892 0.000000 0.000003 0.000000 0.000000 -1.325028
    18 9.337075 0.000000 -0.000028 -0.865846 0.452065 0.050124
    19 4.450115 -0.070212 0.568166 0.096281 -0.007823 -0.804076
    20 1.426598 0.000002 0.000000 0.023861 -0.079611 -1.125914
    21 1.322465 0.000001 0.000000 0.009300 -0.033625 -0.575064
    22 4.473159 -0.032476 1.578568 0.476656 -0.055406 -1.136065
    23 1.344418 0.000003 0.000000 0.023454 -0.208305 -0.755705
    24 1.224670 0.000002 0.000000 0.026030 -0.124608 -0.538675
    25 2.626417 -0.348924 1.903308 -0.354081 -0.915135 -1.788176
    26 1.059294 0.000000 0.000001 0.000551 0.000015 0.000038
    27 0.781205 0.000000 0.000001 -0.000455 0.006951 -0.135927
    28 2.033353 1.000771 -1.101647 -2.051172 1.251188 2.576098
    29 6.805509 0.000004 0.000000 1.273124 0.678769 -0.655601
    30 12.391785 0.000000 0.000000 0.000000 0.000000 -1.616100
    31 9.341006 0.000000 0.000004 -1.016806 -0.285361 0.068930
    32 4.450079 -0.073766 -0.567766 -0.386561 0.126208 -1.146667
    33 1.426600 0.000003 0.000000 -0.051390 0.078806 -1.521708
    34 1.322464 -0.000002 0.000000 -0.034695 0.051519 -1.200245
    35 4.477035 -0.043465 -1.577382 -0.083026 0.164909 0.067453
    36 1.344415 0.000000 0.000000 0.024520 0.136363 -0.478014
    37 1.224668 0.000000 0.000000 -0.166382 0.224946 -1.318138
    38 2.630290 -0.359833 -1.900382 1.070449 0.381371 -0.978459
    39 1.063198 0.000000 0.000002 0.002198 0.017473 0.317165
    40 0.781205 0.000000 0.000000 0.006460 0.026000 0.488017
    41 -0.044717 2.528787 4.661499 0.152564 -0.037970 -0.054662
    42 1.554961 -2.005421 -0.062502 -0.583859 0.091275 -1.371645
    43 2.676086 -1.712442 0.000000 -1.570796 0.000000 -1.570796
  time 2
    0 -1.244574 -0.484385 27.715024 1.663922 -0.226476 -0.004746
    1 3.890452 -0.000004 -0.000003 -2.266292 -1.068623 -1.136742
    2 17.848173 0.000000 0.000000 0.000000 0.000000 1.729664
    3 15.642404 0.000000 0.000000 0.279218 -0.053610 -1.238347
    4 7.109923 -0.000001 0.000001 -0.007119 -0.003131 -0.631738
    5 -3.890452 0.000004 0.000007 -1.130598 -0.967755 -2.099606
    6 17.848169 0.000000 0.000000 0.000000 0.000000 1.626130
    7 15.642414 0.000000 0.000000 0.158552 0.262233 -1.644596
    8 7.109928 0.000000 0.000000 -0.081177 -0.003119 -0.629368
    9 0.000005 3.345128 -2.981901 1.564324 -0.113086 1.552528
    10 4.018331 0.000000 0.000000 -0.097194 -0.008797 0.319095
    11 3.518565 0.000000 0.000000 -0.081432 -0.004290 0.185331
    12 8.942642 0.000000 0.000000 0.045026 0.002073 0.169108
    13 3.307271 0.000000 0.000000 3.141590 0.000000 0.400478
    14 3.593713 -0.000002 0.000000 0.089713 0.164967 1.131726
    15 2.033346 1.000767 1.101697 1.848121 -1.411838 2.688434
    16 6.805510 -0.000001 0.000000 -1.566187 -0.771751 -0.468940
    17 12.387892 0.000000 0.000003 0.000000 0.000000 -1.385685
    18 9.337075 0.000000 -0.000028 -0.893671 0.421199 0.071322
    19 4.450115 -0.070212 0.568166 0.096281 -0.007823 -0.804076
    20 1.426598 0.000002 0.000000 0.023849 -0.079611 -1.125914
    21 1.322465 0.000001 0.000000 0.009300 -0.033625 -0.575064
    22 4.473159 -0.032476 1.578568 0.476656 -0.055406 -1.136065
    23 1.344418 0.000003 0.000000 0.023454 -0.208305 -0.755705
    24 1.224670 0.000002 0.000000 0.026030 -0.124608 -0.538675
    25 2.626417 -0.345018 1.903308 -0.354081 -0.915135 -1.788206
    26 1.059294 0.000000 0.000001 0.000551 0.000015 0.000038
    27 0.781205 0.000000 0.000001 -0.000455 0.006951 -0.135927
    28 2.033353 1.000771 -1.101647 -2.073592 1.263899 2.552035
    29 6.809415 0.000004 0.000000 1.264219 0.706807 -0.660861
    30 12.391785 0.000000 0.000000 0.000000 0.000000 -1.618631
    31 9.341006 0.000000 0.000004 -1.016737 -0.285449 0.068883
    32 4.453985 -0.073766 -0.571672 -0.386561 0.126208 -1.146667
    33 1.426600 0.000003 0.000000 -0.051378 0.078806 -1.521708
    34 1.322464 -0.000002 0.000000 -0.034695 0.051507 -1.200245
    35 4.477035 -0.043465 -1.581289 -0.083026 0.164909 0.067453
    36 1.344415 0.000000 0.000000 0.024520 0.136363 -0.478014
    37 1.224668 0.000000 0.000000 -0.166394 0.224946 -1.318138
    38 2.630290 -0.359833 -1.900382 1.070449 0.381371 -0.978459
    39 1.063198 0.000000 0.000002 0.002198 0.017473 0.317165
    40 0.781205 0.000000 0.000000 0.006460 0.026000 0.488017
    41 -0.044717 2.528787 4.661499 0.152564 -0.038126 -0.055537
    42 1.554961 -2.005421 -0.062502 -0.583859 0.091275 -1.371645
    43 2.676086 -1.712442 0.000000 -1.570796 0.000000 -1.570796
  time 3
    0 -1.299263 -0.296879 27.625177 1.667990 -0.237257 -0.016784
    1 3.890452 -0.000004 -0.000003 -2.348409 -1.083727 -1.012934
    2 17.848173 0.000000 0.000000 0.000000 0.000000 1.544053
    3 15.642404 0.000000 0.000000 0.288375 -0.060822 -1.285685
    4 7.109923 -0.000001 0.000001 -0.007119 -0.003131 -0.631738
    5 -3.890452 0.000004 0.000007 -1.146411 -0.910784 -2.170810
    6 17.848169 0.000000 0.000000 0.000000 0.000000 1.651188
    7 15.642414 0.000000 0.000000 0.221063 0.199418 -1.695579
    8 7.109928 0.000000 0.000000 -0.081177 -0.003119 -0.628959
    9 0.000005 3.345128 -2.981901 1.564276 -0.113086 1.552308
    10 4.018331 0.000000 0.000000 -0.094437 -0.018756 0.316699
    11 3.518565 0.000000 0.000000 -0.075781 -0.013818 0.182323
    12 8.942642 0.000000 0.000000 0.046069 0.001414 0.167047
    13 3.307271 0.000000 0.000000 3.141590 0.000000 0.400478
    14 3.593713 -0.000002 0.000000 0.083615 0.162702 1.129646
    15 2.033346 1.000767 1.101697 1.848121 -1.411838 2.688434
    16 6.805510 -0.000001 0.000000 -1.588040 -0.734964 -0.428865
    17 12.387892 0.000000 0.000003 0.000000 0.000000 -1.444352
    18 9.337075 0.000000 -0.000028 -0.920209 0.385652 0.090088
    19 4.450115 -0.070212 0.568166 0.096281 -0.007823 -0.804076
    20 1.426598 0.000002 0.000000 0.023861 -0.079611 -1.125914
    21 1.322465 0.000001 0.000000 0.009300 -0.033625 -0.575064
    22 4.473159 -0.032476 1.578568 0.476656 -0.055406 -1.136065
    23 1.344418 0.000003 0.000000 0.023454 -0.208305 -0.755705
    24 1.224670 0.000002 0.000000 0.026030 -0.124608 -0.538675
    25 2.626417 -0.345018 1.903308 -0.354081 -0.915135 -1.788176
    26 1.059294 0.000000 0.000001 0.000551 0.000015 0.000038
    27 0.781205 0.000000 0.000001 -0.000455 0.006951 -0.135927
    28 2.033353 1.000771 -1.101647 -2.099517 1.277117 2.524642
    29 6.805509 0.000004 0.000000 1.256271 0.735608 -0.661243
    30 12.391785 0.000000 0.000000 0.000000 0.000000 -1.621231
    31 9.337099 0.000000 0.000004 -1.016737 -0.285493 0.068883
    32 4.450079 -0.073766 -0.571672 -0.386561 0.126208 -1.146667
    33 1.426600 0.000003 0.000000 -0.051378 0.078806 -1.521708
    34 1.322464 -0.000002 0.000000 -0.034695 0.051519 -1.200245
    35 4.477035 -0.043465 -1.581289 -0.083026 0.164909 0.067453
    36 1.344415 0.000000 0.000000 0.024520 0.136363 -0.478014
    37 1.224668 0.000000 0.000000 -0.166382 0.224946 -1.318138
    38 2.630290 -0.359833 -1.904289 1.070449 0.381371 -0.978459
    39 1.063198 0.000000 0.000002 0.002184 0.017473 0.317165
    40 0.781205 0.000000 0.000000 0.006460 0.026000 0.488017
    41 -0.044717 2.528787 4.661499 0.152564 -0.038173 -0.055752
    42 1.554961 -2.005421 -0.062502 -0.583859 0.091275 -1.371645
    43 2.676086 -1.712442 0.000000 -1.570796 0.000000 -1.570796
  time 4
    0 -1.252387 -0.109373 27.683773 1.673332 -0.242540 -0.027989
    1 3.890452 -0.000004 -0.000003 -2.413586 -1.066781 -0.922462
    2 17.848173 0.000000 0.000000 0.000000 0.000000 1.320784
    3 15.642404 0.000000 0.000000 0.289023 -0.057678 -1.319716
    4 7.109923 -0.000001 0.000001 -0.007119 -0.003131 -0.631738
    5 -3.890452 0.000004 0.000007 -1.176323 -0.841931 -2.227880
    6 17.848169 0.000000 0.000000 0.000000 0.000000 1.641494
    7 15.642414 0.000000 0.000000 0.290688 0.138523 -1.730063
    8 7.109928 0.000000 0.000000 -0.081177 -0.003119 -0.628666
    9 0.000005 3.345128 -2.981901 1.564408 -0.113086 1.552997
    10 4.018331 0.000000 0.000000 -0.091436 -0.026390 0.313734
    11 3.518565 0.000000 0.000000 -0.070587 -0.020913 0.178883
    12 8.942642 0.000000 0.000000 0.047028 0.000995 0.165417
    13 3.307271 0.000000 0.000000 3.141590 0.000000 0.400478
    14 3.593713 -0.000002 0.000000 0.078719 0.157668 1.127164
    15 2.033346 1.000767 1.101697 1.848121 -1.411838 2.688434
    16 6.805510 -0.000001 0.000000 -1.601846 -0.696219 -0.401202
    17 12.387892 0.000000 0.000003 0.000000 0.000000 -1.498449
    18 9.337075 0.000000 -0.000028 -0.943370 0.345403 0.104997
    19 4.450115 -0.070212 0.568166 0.096281 -0.007823 -0.804076
    20 1.426598 0.000002 0.000000 0.023849 -0.079611 -1.125914
    21 1.322465 0.000001 0.000000 0.009300 -0.033625 -0.575064
    22 4.473159 -0.032476 1.578568 0.476656 -0.055406 -1.136065
    23 1.344418 0.000003 0.000000 0.023454 -0.208305 -0.755705
    24 1.224670 0.000002 0.000000 0.026030 -0.124608 -0.538675
    25 2.626417 -0.345018 1.903308 -0.354081 -0.915135 -1.788176
    26 1.059294 0.000000 0.000001 0.000551 0.000015 0.000038
    27 0.781205 0.000000 0.000001 -0.000455 0.006951 -0.135927
    28 2.033353 1.000771 -1.101647 -2.128302 1.290225 2.494449
    29 6.805509 0.000004 0.000000 1.249568 0.763789 -0.655123
    30 12.391785 0.000000 0.000000 0.000000 0.000000 -1.623899
    31 9.341006 0.000000 0.000004 -1.016668 -0.285537 0.068883
    32 4.450079 -0.069860 -0.571672 -0.386561 0.126208 -1.146667
    33 1.426600 0.000003 0.000000 -0.051390 0.078806 -1.521708
    34 1.322464 -0.000002 0.000000 -0.034695 0.051507 -1.200245
    35 4.477035 -0.043465 -1.581289 -0.083026 0.164909 0.067453
    36 1.344415 0.000000 0.000000 0.024520 0.136363 -0.478014
    37 1.220761 0.000000 0.000000 -0.166382 0.224946 -1.318138
    38 2.630290 -0.359833 -1.900382 1.070449 0.381371 -0.978459
    39 1.063198 0.000000 0.000002 0.002184 0.017473 0.317165
    40 0.781205 0.000000 0.000000 0.006460 0.026000 0.488017
    41 -0.044717 2.528787 4.661499 0.152564 -0.038032 -0.055045
    42 1.554961 -2.005421 -0.062502 -0.583859 0.091275 -1.371645
    43 2.676086 -1.712442 0.000000 -1.570796 0.000000 -1.570796
  time 5
    0 -1.025818 0.039069 27.761900 1.677312 -0.241174 -0.036998
    1 3.890452 -0.000004 -0.000003 -2.423850 -1.045278 -0.892032
    2 17.848173 0.000000 0.000000 0.000000 0.000000 1.159996
    3 15.642404 0.000000 0.000000 0.294028 -0.082548 -1.340929
    4 7.109923 -0.000001 0.000001 -0.007119 -0.003131 -0.631738
    5 -3.890452 0.000004 0.000007 -1.213188 -0.761341 -2.277128
    6 17.848169 0.000000 0.000000 0.000000 0.000000 1.603537
    7 15.642414 0.000000 0.000000 0.367179 0.078809 -1.751121
    8 7.109928 0.000000 0.000000 -0.081177 -0.003119 -0.628432
    9 0.000005 3.345128 -2.981901 1.564876 -0.113069 1.555089
    10 4.018331 0.000000 0.000000 -0.088435 -0.031232 0.310345
    11 3.518565 0.000000 0.000000 -0.066241 -0.025012 0.175132
    12 8.942642 0.000000 0.000000 0.048190 0.001174 0.164326
    13 3.307271 0.000000 0.000000 3.141590 0.000000 0.400478
    14 3.593713 -0.000002 0.000000 0.074145 0.150561 1.124062
    15 2.033346 1.000767 1.101697 1.848121 -1.411838 2.688434
    16 6.805510 -0.000001 0.000000 -1.605560 -0.656746 -0.389078
    17 12.387892 0.000000 0.000003 0.000000 0.000000 -1.545840
    18 9.337075 0.000000 -0.000028 -0.961303 0.300786 0.114689
    19 4.450115 -0.070212 0.568166 0.096281 -0.007823 -0.804076
    20 1.430505 0.000002 0.000000 0.023849 -0.079611 -1.125914
    21 1.322465 0.000001 0.000000 0.009300 -0.033625 -0.575064
    22 4.473159 -0.032476 1.578568 0.476656 -0.055406 -1.136065
    23 1.344418 0.000003 0.000000 0.023454 -0.208305 -0.755705
    24 1.224670 0.000002 0.000000 0.026030 -0.124608 -0.538675
    25 2.626417 -0.348924 1.903308 -0.354081 -0.915135 -1.788176
    26 1.059294 0.000000 0.000001 0.000551 0.000015 0.000038
    27 0.781205 0.000000 0.000001 -0.000455 0.006951 -0.135927
    28 2.033353 1.000771 -1.101647 -2.159025 1.302782 2.462137
    29 6.805509 0.000004 0.000000 1.244589 0.789777 -0.641162
    30 12.391785 0.000000 0.000000 0.000000 0.000000 -1.626499
    31 9.337099 0.000000 0.000004 -1.016668 -0.285625 0.068883
    32 4.450079 -0.073766 -0.567766 -0.386561 0.126208 -1.146667
    33 1.426600 0.000003 0.000000 -0.051390 0.078806 -1.521708
    34 1.322464 -0.000002 0.000000 -0.034695 0.051507 -1.200245
    35 4.477035 -0.043465 -1.577382 -0.083026 0.164909 0.067453
    36 1.344415 0.000000 0.000000 0.024520 0.136363 -0.478014
    37 1.224668 0.000000 0.000000 -0.166382 0.224946 -1.318138
    38 2.630290 -0.359833 -1.900382 1.070449 0.381371 -0.978459
    39 1.063198 0.000000 0.000002 0.002184 0.017473 0.317165
    40 0.781205 0.000000 0.000000 0.006460 0.026000 0.488017
    41 -0.044717 2.528787 4.661499 0.152524 -0.037580 -0.052924
    42 1.554961 -2.005421 -0.062502 -0.583859 0.091275 -1.371645
    43 2.676086 -1.712442 0.000000 -1.570796 0.000000 -1.570796
  time 6
    0 -0.596117 0.070320 27.851747 1.705984 -0.210987 -0.080455
    1 3.890452 -0.000004 -0.000003 -2.380038 -1.039245 -0.920010
    2 17.848173 0.000000 0.000000 0.000000 0.000000 1.136442
    3 15.642404 0.000000 0.000000 0.221154 -0.087818 -1.264646
    4 7.109923 -0.000001 0.000001 -0.007119 -0.003131 -0.631738
    5 -3.890452 0.000004 0.000007 -1.169464 -0.701925 -2.377222
    6 17.848169 0.000000 0.000000 0.000000 0.000000 1.551450
    7 15.642414 0.000000 0.000000 0.403566 -0.100290 -1.645895
    8 7.109928 0.000000 0.000000 -0.080710 -0.003670 -0.766199
    9 0.000005 3.345128 -2.981901 1.566086 -0.113036 1.560045
    10 4.018331 0.000000 0.000000 -0.081143 -0.023658 0.317547
    11 3.518565 0.000000 0.000000 -0.062985 -0.017605 0.181496
    12 8.942642 0.000000 0.000000 0.041299 0.003895 0.162517
    13 3.307271 0.000000 0.000000 3.141590 0.000000 0.400478
    14 3.593713 -0.000002 0.000000 0.125238 0.138457 1.139719
    15 2.033346 1.000767 1.101697 1.848121 -1.411838 2.688434
    16 6.805510 -0.000001 0.000000 -1.604798 -0.619550 -0.409573
    17 12.387892 0.000000 0.000003 0.000000 0.000000 -1.582838
    18 9.337075 0.000000 -0.000028 -0.961786 0.242984 0.109762
    19 4.450115 -0.070212 0.568166 0.096281 -0.007823 -0.804076
    20 1.426598 0.000002 0.000000 0.023861 -0.079611 -1.125914
    21 1.322465 0.000001 0.000000 0.009312 -0.033625 -0.575064
    22 4.473159 -0.032476 1.578568 0.476656 -0.055406 -1.136065
    23 1.344418 0.000003 0.000000 0.023454 -0.208305 -0.755705
    24 1.224670 0.000002 0.000000 0.026030 -0.124608 -0.538675
    25 2.626417 -0.345018 1.903308 -0.354081 -0.915135 -1.788176
    26 1.059294 0.000000 0.000001 0.000551 0.000015 0.000038
    27 0.781205 0.000000 0.000001 -0.000455 0.006951 -0.135927
    28 2.033353 1.000771 -1.101647 -2.190578 1.314279 2.429220
    29 6.805509 0.000004 0.000000 1.259335 0.825492 -0.587133
    30 12.391785 0.000000 0.000000 0.000000 0.000000 -1.628894
    31 9.337099 0.000000 0.000004 -1.016668 -0.285669 0.068883
    32 4.450079 -0.069860 -0.571672 -0.386561 0.126208 -1.146667
    33 1.426600 0.000003 0.000000 -0.051378 0.078806 -1.521708
    34 1.322464 -0.000002 0.000000 -0.034695 0.051519 -1.200245
    35 4.473128 -0.043465 -1.581289 -0.083026 0.164909 0.067453
    36 1.344415 0.000000 0.000000 0.024520 0.136363 -0.478014
    37 1.220761 0.000000 0.000000 -0.166394 0.224946 -1.318138
    38 2.630290 -0.359833 -1.900382 1.070449 0.381371 -0.978459
    39 1.063198 0.000000 0.000002 0.002198 0.017473 0.317165
    40 0.781205 0.000000 0.000000 0.006460 0.026000 0.488017
    41 -0.044717 2.528787 4.661499 0.152443 -0.036364 -0.047831
    42 1.554961 -2.005421 -0.062502 -0.583859 0.091275 -1.371645
    43 2.676086 -1.712442 0.000000 -1.570796 0.000000 -1.570796
  time 7
    0 0.021089 -0.023433 28.062691 1.737309 -0.174151 -0.128682
    1 3.890452 -0.000004 -0.000003 -2.327713 -1.035055 -0.957615
    2 17.848173 0.000000 0.000000 0.000000 0.000000 1.137782
    3 15.642404 0.000000 0.000000 0.133763 -0.078619 -1.171991
    4 7.109923 -0.000001 0.000001 -0.007119 -0.003131 -0.631738
    5 -3.890452 0.000004 0.000007 -1.121072 -0.642168 -2.477939
    6 17.848169 0.000000 0.000000 0.000000 0.000000 1.497063
    7 15.642414 0.000000 0.000000 0.408746 -0.304448 -1.520909
    8 7.109928 0.000000 0.000000 -0.080171 -0.004149 -0.904025
    9 0.000005 3.345128 -2.981901 1.567476 -0.113002 1.565469
    10 4.018331 0.000000 0.000000 -0.072940 -0.013902 0.326760
    11 3.518565 0.000000 0.000000 -0.059863 -0.008162 0.189717
    12 8.942642 0.000000 0.000000 0.032922 0.007047 0.160551
    13 3.307271 0.000000 0.000000 3.141590 0.000000 0.400478
    14 3.593713 -0.000002 0.000000 0.186448 0.125070 1.157056
    15 2.033346 1.000767 1.101697 1.848121 -1.411838 2.688434
    16 6.805510 -0.000001 0.000000 -1.600704 -0.587908 -0.438487
    17 12.387892 0.000000 0.000003 0.000000 0.000000 -1.609961
    18 9.337075 0.000000 -0.000028 -0.956800 0.186748 0.097770
    19 4.450115 -0.070212 0.568166 0.096281 -0.007823 -0.804076
    20 1.426598 0.000002 0.000000 0.023861 -0.079611 -1.125914
    21 1.322465 0.000001 0.000000 0.009312 -0.033625 -0.575064
    22 4.473159 -0.032476 1.578568 0.476656 -0.055406 -1.136065
    23 1.344418 0.000003 0.000000 0.023454 -0.208305 -0.755705
    24 1.224670 0.000002 0.000000 0.026030 -0.124608 -0.538675
    25 2.626417 -0.345018 1.903308 -0.354081 -0.915135 -1.788176
    26 1.059294 0.000000 0.000001 0.000551 0.000015 0.000038
    27 0.781205 0.000000 0.000001 -0.000455 0.006951 -0.135927
    28 2.033353 1.000771 -1.101647 -2.221209 1.324319 2.397438
    29 6.805509 0.000004 0.000000 1.281646 0.858298 -0.524593
    30 12.391785 0.000000 0.000000 0.000000 0.000000 -1.631083
    31 9.337099 0.000000 0.000004 -1.016599 -0.285713 0.068835
    32 4.450079 -0.069860 -0.567766 -0.386561 0.126208 -1.146667
    33 1.426600 0.000003 0.000000 -0.051390 0.078806 -1.521708
    34 1.322464 -0.000002 0.000000 -0.034695 0.051519 -1.200245
    35 4.477035 -0.043465 -1.577382 -0.083026 0.164909 0.067453
    36 1.344415 0.000000 0.000000 0.024520 0.136363 -0.478014
    37 1.220761 0.000000 0.000000 -0.166382 0.224946 -1.318138
    38 2.630290 -0.359833 -1.900382 1.070449 0.381371 -0.978459
    39 1.063198 0.000000 0.000002 0.002198 0.017473 0.317165
    40 0.781205 0.000000 0.000000 0.006460 0.026000 0.488017
    41 -0.044717 2.528787 4.661499 0.152362 -0.034992 -0.042210
    42 1.554961 -2.005421 -0.062502 -0.583859 0.091275 -1.371645
    43 2.676086 -1.712442 0.000000 -1.570796 0.000000 -1.570796
  time 8
    0 0.462509 -0.144531 27.707211 1.733188 -0.163442 -0.127168
    1 3.890452 -0.000004 -0.000003 -2.299422 -1.044357 -1.004486
    2 17.848173 0.000000 0.000000 0.000000 0.000000 1.255552
    3 15.642404 0.000000 0.000000 -0.000650 -0.039326 -1.210133
    4 7.109923 -0.000001 0.000001 -0.007119 -0.003131 -0.631738
    5 -3.890452 0.000004 0.000007 -1.120024 -0.672780 -2.537676
    6 17.848169 0.000000 0.000000 0.000000 0.000000 1.561473
    7 15.638507 0.000000 0.000000 0.329479 -0.197064 -1.328190
    8 7.109928 0.000000 0.000000 -0.080710 -0.003670 -0.767868
    9 0.058601 3.345128 -2.981901 1.567380 -0.113002 1.546196
    10 4.018331 0.000000 0.000000 -0.069116 -0.013686 0.325728
    11 3.518565 0.000000 0.000000 -0.056123 -0.004207 0.189477
    12 8.942642 0.000000 0.000000 0.039909 0.012021 0.163523
    13 3.307271 0.000000 0.000000 3.141590 0.000000 0.400478
    14 3.593713 -0.000002 0.000000 0.172405 0.117268 1.155267
    15 2.033346 1.000767 1.101697 1.848121 -1.411838 2.688434
    16 6.805510 -0.000001 0.000000 -1.578423 -0.657111 -0.464707
    17 12.387892 0.000000 0.000003 0.000000 0.000000 -1.531026
    18 9.337075 0.000000 -0.000028 -0.940314 0.225158 0.071419
    19 4.450115 -0.070212 0.568166 0.096281 -0.007823 -0.804076
    20 1.426598 0.000002 0.000000 0.023849 -0.079611 -1.125914
    21 1.322465 0.000001 0.000000 0.009312 -0.033625 -0.575064
    22 4.473159 -0.032476 1.578568 0.476656 -0.055406 -1.136065
    23 1.344418 0.000003 0.000000 0.023454 -0.208305 -0.755705
    24 1.224670 0.000002 0.000000 0.026030 -0.124608 -0.538675
    25 2.626417 -0.345018 1.903308 -0.354081 -0.915135 -1.788176
    26 1.059294 0.000000 0.000001 0.000551 0.000015 0.000038
    27 0.781205 0.000000 0.000001 -0.000455 0.006951 -0.135927
    28 2.033353 1.000771 -1.101647 -2.190578 1.314279 2.429220
    29 6.805509 0.000004 0.000000 1.301563 0.815335 -0.521820
    30 12.391785 0.000000 0.000000 0.000000 0.000000 -1.629578
    31 9.337099 0.000000 0.000004 -1.013976 -0.285801 0.065014
    32 4.450079 -0.073766 -0.567766 -0.386561 0.126208 -1.146667
    33 1.426600 0.000003 0.000000 -0.051390 0.078806 -1.521708
    34 1.322464 -0.000002 0.000000 -0.034695 0.051507 -1.200245
    35 4.477035 -0.043465 -1.577382 -0.083026 0.164909 0.067453
    36 1.344415 0.000000 0.000000 0.024520 0.136363 -0.478014
    37 1.220761 0.000000 0.000000 -0.166382 0.224946 -1.318138
    38 2.630290 -0.359833 -1.900382 1.070449 0.381371 -0.978459
    39 1.063198 0.000000 0.000002 0.002198 0.017473 0.317165
    40 0.781205 0.000000 0.000000 0.006460 0.026000 0.488017
    41 -0.044717 2.528787 4.661499 0.152403 -0.035101 -0.061529
    42 1.554961 -2.005421 -0.062502 -0.583859 0.091275 -1.371645
    43 2.676086 -1.712442 0.000000 -1.570796 0.000000 -1.570796
  time 9
    0 0.817989 -0.207033 27.429859 1.728890 -0.149606 -0.123686
    1 3.890452 -0.000004 -0.000003 -2.269212 -1.052231 -1.055445
    2 17.848173 0.000000 0.000000 0.000000 0.000000 1.371982
    3 15.642404 0.000000 0.000000 -0.104411 -0.003523 -1.269662
    4 7.109923 -0.000001 0.000001 -0.007119 -0.003131 -0.631738
    5 -3.890452 0.000004 0.000007 -1.112689 -0.709652 -2.585945
    6 17.848169 0.000000 0.000000 0.000000 0.000000 1.627527
    7 15.642414 0.000000 0.000000 0.259755 -0.095270 -1.164002
    8 7.109928 0.000000 0.000000 -0.081165 -0.003131 -0.631740
    9 0.105477 3.345128 -2.981901 1.567201 -0.113019 1.531067
    10 4.018331 0.000000 0.000000 -0.065737 -0.012895 0.324881
    11 3.518565 0.000000 0.000000 -0.052974 0.000144 0.189477
    12 8.942642 0.000000 0.000000 0.046632 0.016814 0.166651
    13 3.307271 0.000000 0.000000 3.141590 0.000000 0.400478
    14 3.593713 -0.000002 0.000000 0.159377 0.109862 1.154063
    15 2.033346 1.000767 1.101697 1.848121 -1.411838 2.688434
    16 6.805510 -0.000001 0.000000 -1.552666 -0.728635 -0.495016
    17 12.387892 0.000000 0.000003 0.000000 0.000000 -1.443173
    18 9.337075 0.000000 -0.000028 -0.922943 0.267476 0.040271
    19 4.450115 -0.066306 0.568166 0.096281 -0.007823 -0.804076
    20 1.426598 0.000002 0.000000 0.023849 -0.079611 -1.125914
    21 1.322465 0.000001 0.000000 0.009300 -0.033625 -0.575064
    22 4.473159 -0.028570 1.578568 0.476656 -0.055406 -1.136065
    23 1.344418 0.000003 0.000000 0.023454 -0.208305 -0.755705
    24 1.224670 0.000002 0.000000 0.026030 -0.124608 -0.538675
    25 2.626417 -0.345018 1.903308 -0.354081 -0.915135 -1.788176
    26 1.059294 0.000000 0.000001 0.000551 0.000015 0.000038
    27 0.781205 0.000000 0.000001 -0.000455 0.006951 -0.135927
    28 2.033353 1.000771 -1.101647 -2.159025 1.302782 2.462137
    29 6.805509 0.000004 0.000000 1.321001 0.771466 -0.522585
    30 12.391785 0.000000 0.000000 0.000000 0.000000 -1.627320
    31 9.341006 0.000000 0.000004 -1.011766 -0.285845 0.061862
    32 4.450079 -0.073766 -0.571672 -0.386561 0.126208 -1.146667
    33 1.426600 0.000003 0.000000 -0.051390 0.078806 -1.521708
    34 1.322464 -0.000002 0.000000 -0.034695 0.051507 -1.200245
    35 4.477035 -0.043465 -1.577382 -0.083026 0.164909 0.067453
    36 1.344415 0.000000 0.000000 0.024520 0.136363 -0.478014
    37 1.224668 0.000000 0.000000 -0.166394 0.224946 -1.318138
    38 2.630290 -0.359833 -1.900382 1.070449 0.381371 -0.978459
    39 1.063198 0.000000 0.000002 0.002198 0.017473 0.317165
    40 0.781205 0.000000 0.000000 0.006460 0.026000 0.488017
    41 -0.044717 2.528787 4.661499 0.152403 -0.035257 -0.076653
    42 1.554961 -2.005421 -0.062502 -0.583859 0.091275 -1.371645
    43 2.676086 -1.712442 0.000000 -1.570796 0.000000 -1.570796
  time 10
    0 1.028933 -0.179688 27.230634 1.723353 -0.118772 -0.110058
    1 3.890452 -0.000004 -0.000003 -2.234329 -1.051218 -1.122663
    2 17.848173 0.000000 0.000000 0.000000 0.000000 1.477834
    3 15.642404 0.000000 0.000000 -0.050940 -0.039603 -1.403733
    4 7.109923 -0.000001 0.000001 -0.007119 -0.003131 -0.631738
    5 -3.890452 0.000004 0.000007 -1.081920 -0.784276 -2.564522
    6 17.848169 0.000000 0.000000 0.000000 0.000000 1.706890
    7 15.642414 0.000000 0.000000 0.146109 -0.064221 -1.102665
    8 7.109928 0.000000 0.000000 -0.081165 -0.003131 -0.631740
    9 0.070320 3.345128 -2.981901 1.566829 -0.113036 1.538969
    10 4.018331 0.000000 0.000000 -0.065003 -0.008976 0.325092
    11 3.518565 0.000000 0.000000 -0.053243 0.006663 0.190736
    12 8.942642 0.000000 0.000000 0.052001 0.020590 0.170355
    13 3.307271 0.000000 0.000000 3.141590 0.000000 0.400478
    14 3.593713 -0.000002 0.000000 0.151339 0.104732 1.154063
    15 2.033346 1.000767 1.101697 1.848121 -1.411838 2.688434
    16 6.805510 -0.000001 0.000000 -1.530147 -0.786866 -0.527008
    17 12.387892 0.000000 0.000003 0.000000 0.000000 -1.360626
    18 9.337075 0.000000 -0.000028 -0.905412 0.310546 0.006693
    19 4.450115 -0.070212 0.568166 0.096281 -0.007823 -0.804076
    20 1.426598 0.000002 0.000000 0.023861 -0.079611 -1.125914
    21 1.322465 0.000001 0.000000 0.009300 -0.033625 -0.575064
    22 4.473159 -0.032476 1.578568 0.476656 -0.055406 -1.136065
    23 1.348325 0.000003 0.000000 0.023454 -0.208305 -0.755705
    24 1.224670 0.000002 0.000000 0.026030 -0.124608 -0.538675
    25 2.626417 -0.345018 1.903308 -0.354081 -0.915135 -1.788176
    26 1.059294 0.000000 0.000001 0.000551 0.000015 0.000038
    27 0.781205 0.000000 0.000001 -0.000455 0.006951 -0.135927
    28 2.033353 1.000771 -1.101647 -2.128302 1.290225 2.494449
    29 6.805509 0.000004 0.000000 1.333066 0.736419 -0.529375
    30 12.391785 0.000000 0.000000 0.000000 0.000000 -1.624310
    31 9.341006 0.000000 0.000004 -1.012940 -0.285713 0.063916
    32 4.450079 -0.073766 -0.571672 -0.386561 0.126208 -1.146667
    33 1.426600 0.000003 0.000000 -0.051390 0.078806 -1.521708
    34 1.322464 -0.000002 0.000000 -0.034695 0.051507 -1.200245
    35 4.477035 -0.043465 -1.577382 -0.083026 0.164909 0.067453
    36 1.344415 0.000000 0.000000 0.024520 0.136363 -0.478014
    37 1.224668 0.000000 0.000000 -0.166382 0.224946 -1.318138
    38 2.630290 -0.359833 -1.900382 1.070449 0.381371 -0.978459
    39 1.063198 0.000000 0.000002 0.002198 0.017473 0.317165
    40 0.781205 0.000000 0.000000 0.006460 0.026000 0.488017
    41 -0.044717 2.528787 4.661499 0.152443 -0.035662 -0.068792
    42 1.554961 -2.005421 -0.062502 -0.583859 0.091275 -1.371645
    43 2.676086 -1.712442 0.000000 -1.570796 0.000000 -1.570796
  time 11
    0 1.083622 -0.085935 27.090005 1.717534 -0.093185 -0.092645
    1 3.890452 -0.000004 -0.000003 -2.185760 -1.028562 -1.211772
    2 17.848173 0.000000 0.000000 0.000000 0.000000 1.548214
    3 15.642404 0.000000 0.000000 0.007212 -0.065976 -1.524532
    4 7.109923 -0.000001 0.000001 -0.007119 -0.003131 -0.631738
    5 -3.890452 0.000004 0.000007 -1.009617 -0.873179 -2.526386
    6 17.848169 0.000000 0.000000 0.000000 0.000000 1.794880
    7 15.642414 0.000000 0.000000 0.113615 -0.076561 -1.183318
    8 7.109928 0.000000 0.000000 -0.081165 -0.003131 -0.631740
    9 0.042975 3.345128 -2.981901 1.566266 -0.113036 1.545811
    10 4.018331 0.000000 0.000000 -0.066270 -0.002792 0.325913
    11 3.518565 0.000000 0.000000 -0.055988 0.014322 0.192593
    12 8.942642 0.000000 0.000000 0.055692 0.022927 0.173950
    13 3.307271 0.000000 0.000000 3.141590 0.000000 0.400478
    14 3.593713 -0.000002 0.000000 0.146951 0.101041 1.154355
    15 2.033346 1.000767 1.101697 1.848121 -1.411838 2.688434
    16 6.805510 -0.000001 0.000000 -1.507533 -0.836218 -0.562080
    17 12.387892 0.000000 0.000003 0.000000 0.000000 -1.285303
    18 9.337075 0.000000 -0.000028 -0.885548 0.352884 -0.022251
    19 4.450115 -0.070212 0.568166 0.096281 -0.007823 -0.804076
    20 1.426598 0.000002 0.000000 0.023849 -0.079611 -1.125914
    21 1.322465 0.000001 0.000000 0.009300 -0.033625 -0.575064
    22 4.473159 -0.028570 1.578568 0.476656 -0.055406 -1.136065
    23 1.344418 0.000003 0.000000 0.023454 -0.208305 -0.755705
    24 1.224670 0.000002 0.000000 0.026030 -0.124608 -0.538675
    25 2.626417 -0.345018 1.903308 -0.354081 -0.915135 -1.788176
    26 1.059294 0.000000 0.000001 0.000551 0.000015 0.000038
    27 0.781205 0.000000 0.000001 -0.000455 0.006951 -0.135927
    28 2.033353 1.000771 -1.101647 -2.099517 1.277117 2.524642
    29 6.805509 0.000004 0.000000 1.342163 0.705425 -0.537216
    30 12.391785 0.000000 0.000000 0.000000 0.000000 -1.621436
    31 9.341006 0.000000 0.000004 -1.014252 -0.285625 0.065874
    32 4.450079 -0.073766 -0.571672 -0.386561 0.126208 -1.146667
    33 1.426600 0.000003 0.000000 -0.051378 0.078806 -1.521708
    34 1.322464 -0.000002 0.000000 -0.034695 0.051519 -1.200245
    35 4.477035 -0.043465 -1.577382 -0.083026 0.164909 0.067453
    36 1.344415 0.000000 0.000000 0.024520 0.136363 -0.478014
    37 1.220761 0.000000 0.000000 -0.166382 0.224946 -1.318138
    38 2.630290 -0.359833 -1.900382 1.070449 0.381371 -0.978459
    39 1.063198 0.000000 0.000002 0.002184 0.017473 0.317165
    40 0.781205 0.000000 0.000000 0.006460 0.026000 0.488017
    41 -0.044717 2.528787 4.661499 0.152443 -0.036192 -0.062044
    42 1.554961 -2.005421 -0.062502 -0.583859 0.091275 -1.371645
    43 2.676086 -1.712442 0.000000 -1.570796 0.000000 -1.570796
  time 12
    0 0.993775 0.031256 27.007971 1.711750 -0.070401 -0.071976
    1 3.890452 -0.000004 -0.000003 -2.133935 -0.985831 -1.305423
    2 17.848173 0.000000 0.000000 0.000000 0.000000 1.590949
    3 15.642404 0.000000 0.000000 0.065806 -0.081554 -1.635091
    4 7.109923 -0.000001 0.000001 -0.007119 -0.003131 -0.631738
    5 -3.890452 0.000004 0.000007 -0.909498 -0.971471 -2.466027
    6 17.848169 0.000000 0.000000 0.000000 0.000000 1.847049
    7 15.642414 0.000000 0.000000 0.138079 -0.118620 -1.303110
    8 7.109928 0.000000 0.000000 -0.081165 -0.003131 -0.631740
    9 0.007818 3.345128 -2.981901 1.565667 -0.113052 1.553203
    10 4.018331 0.000000 0.000000 -0.069360 0.005093 0.326933
    11 3.518565 0.000000 0.000000 -0.060913 0.022543 0.194571
    12 8.942642 0.000000 0.000000 0.057598 0.023646 0.177150
    13 3.307271 0.000000 0.000000 3.141590 0.000000 0.400478
    14 3.593713 -0.000002 0.000000 0.145426 0.098788 1.155450
    15 2.033346 1.000767 1.101697 1.848121 -1.411838 2.688434
    16 6.805510 -0.000001 0.000000 -1.485633 -0.875191 -0.598162
    17 12.387892 0.000000 0.000003 0.000000 0.000000 -1.219634
    18 9.337075 0.000000 -0.000028 -0.864559 0.393238 -0.045490
    19 4.450115 -0.070212 0.568166 0.096281 -0.007823 -0.804076
    20 1.426598 0.000002 0.000000 0.023849 -0.079611 -1.125914
    21 1.322465 0.000001 0.000000 0.009300 -0.033625 -0.575064
    22 4.473159 -0.032476 1.578568 0.476656 -0.055406 -1.136065
    23 1.344418 0.000003 0.000000 0.023454 -0.208305 -0.755705
    24 1.224670 0.000002 0.000000 0.026030 -0.124608 -0.538675
    25 2.626417 -0.345018 1.903308 -0.354081 -0.915135 -1.788176
    26 1.059294 0.000000 0.000001 0.000551 0.000015 0.000038
    27 0.781205 0.000000 0.000001 -0.000455 0.006951 -0.135927
    28 2.033353 1.000771 -1.101647 -2.073592 1.263899 2.552035
    29 6.805509 0.000004 0.000000 1.347142 0.678483 -0.546683
    30 12.391785 0.000000 0.000000 0.000000 0.000000 -1.618700
    31 9.341006 0.000000 0.000004 -1.015978 -0.285493 0.067975
    32 4.450079 -0.073766 -0.567766 -0.386561 0.126208 -1.146667
    33 1.426600 0.000003 0.000000 -0.051378 0.078806 -1.521708
    34 1.322464 -0.000002 0.000000 -0.034695 0.051519 -1.200245
    35 4.477035 -0.043465 -1.581289 -0.083026 0.164909 0.067453
    36 1.344415 0.000000 0.000000 0.024520 0.136363 -0.478014
    37 1.220761 0.000000 0.000000 -0.166382 0.224946 -1.318138
    38 2.630290 -0.359833 -1.900382 1.070449 0.381371 -0.978459
    39 1.063198 0.000000 0.000002 0.002198 0.017473 0.317165
    40 0.781205 0.000000 0.000000 0.006460 0.026000 0.488017
    41 -0.044717 2.528787 4.661499 0.152483 -0.036769 -0.054722
    42 1.554961 -2.005421 -0.062502 -0.583859 0.091275 -1.371645
    43 2.676086 -1.712442 0.000000 -1.570796 0.000000 -1.570796
  time 13
    0 0.794551 0.132822 27.000158 1.707646 -0.056134 -0.050474
    1 3.890452 -0.000004 -0.000003 -2.078106 -0.924404 -1.406340
    2 17.848173 0.000000 0.000000 0.000000 0.000000 1.604701
    3 15.642404 0.000000 0.000000 0.118629 -0.090014 -1.733946
    4 7.109923 -0.000001 0.000001 -0.007119 -0.003131 -0.631738
    5 -3.890452 0.000004 0.000007 -0.814428 -1.077295 -2.388512
    6 17.848169 0.000000 0.000000 0.000000 0.000000 1.829878
    7 15.642414 0.000000 0.000000 0.178629 -0.175613 -1.404252
    8 7.109928 0.000000 0.000000 -0.081165 -0.003131 -0.631740
    9 0.000005 3.345128 -2.981901 1.565151 -0.113069 1.555474
    10 4.018331 0.000000 0.000000 -0.074007 0.013866 0.327621
    11 3.518565 0.000000 0.000000 -0.067560 0.030585 0.196069
    12 8.942642 0.000000 0.000000 0.057802 0.022867 0.179822
    13 3.307271 0.000000 0.000000 3.141590 0.000000 0.400478
    14 3.593713 -0.000002 0.000000 0.145703 0.098285 1.157932
    15 2.033346 1.000767 1.101697 1.848121 -1.411838 2.688434
    16 6.805510 -0.000001 0.000000 -1.464447 -0.903964 -0.633908
    17 12.387892 0.000000 0.000003 0.000000 0.000000 -1.165684
    18 9.337075 0.000000 -0.000028 -0.842685 0.430080 -0.060756
    19 4.450115 -0.070212 0.568166 0.096281 -0.007823 -0.804076
    20 1.426598 0.000002 0.000000 0.023861 -0.079611 -1.125914
    21 1.322465 0.000001 0.000000 0.009300 -0.033625 -0.575064
    22 4.473159 -0.032476 1.578568 0.476656 -0.055406 -1.136065
    23 1.344418 0.000003 0.000000 0.023454 -0.208293 -0.755705
    24 1.224670 0.000002 0.000000 0.026030 -0.124608 -0.538675
    25 2.626417 -0.348924 1.903308 -0.354081 -0.915135 -1.788176
    26 1.059294 0.000000 0.000001 0.000551 0.000015 0.000038
    27 0.781205 0.000000 0.000001 -0.000455 0.006951 -0.135927
    28 2.033353 1.000771 -1.101647 -2.051172 1.251188 2.576098
    29 6.805509 0.000004 0.000000 1.348770 0.654689 -0.556724
    30 12.391785 0.000000 0.000000 0.000000 0.000000 -1.616100
    31 9.337099 0.000000 0.000004 -1.016806 -0.285361 0.068930
    32 4.450079 -0.073766 -0.571672 -0.386561 0.126208 -1.146667
    33 1.426600 0.000003 0.000000 -0.051390 0.078806 -1.521708
    34 1.322464 -0.000002 0.000000 -0.034695 0.051507 -1.200245
    35 4.477035 -0.043465 -1.581289 -0.083026 0.164909 0.067453
    36 1.344415 0.000000 0.000000 0.024520 0.136363 -0.478014
    37 1.224668 0.000000 0.000000 -0.166382 0.224946 -1.318138
    38 2.630290 -0.359833 -1.904289 1.070449 0.381371 -0.978459
    39 1.063198 0.000000 0.000002 0.002184 0.017473 0.317165
    40 0.781205 0.000000 0.000000 0.006460 0.026000 0.488017
    41 -0.044717 2.528787 4.661499 0.152524 -0.037268 -0.052481
    42 1.554961 -2.005421 -0.062502 -0.583859 0.091275 -1.371645
    43 2.676086 -1.712442 0.000000 -1.570796 0.000000 -1.570796
  time 14
    0 0.517198 0.199230 27.101724 1.706691 -0.051534 -0.029579
    1 3.890452 -0.000004 -0.000003 -2.027533 -0.845848 -1.506622
    2 17.848173 0.000000 0.000000 0.000000 0.000000 1.587988
    3 15.642404 0.000000 0.000000 0.165121 -0.091100 -1.817475
    4 7.109923 -0.000001 0.000001 -0.007119 -0.003131 -0.631738
    5 -3.890452 0.000004 0.000007 -0.759939 -1.178570 -2.288862
    6 17.848169 0.000000 0.000000 0.000000 0.000000 1.727676
    7 15.642414 0.000000 0.000000 0.233952 -0.254859 -1.466697
    8 7.109928 0.000000 0.000000 -0.081165 -0.003131 -0.631740
    9 0.000005 3.345128 -2.981901 1.564780 -0.113086 1.554015
    10 4.018331 0.000000 0.000000 -0.079831 0.022531 0.327621
    11 3.518565 0.000000 0.000000 -0.075297 0.037644 0.196692
    12 8.942642 0.000000 0.000000 0.056423 0.020961 0.181872
    13 3.307271 0.000000 0.000000 3.141590 0.000000 0.400478
    14 3.593713 -0.000002 0.000000 0.147135 0.099747 1.161946
    15 2.033346 1.000767 1.101697 1.848121 -1.411838 2.688434
    16 6.805510 -0.000001 0.000000 -1.445498 -0.922221 -0.666430
    17 12.387892 0.000000 0.000003 0.000000 0.000000 -1.125000
    18 9.337075 0.000000 -0.000028 -0.821454 0.462472 -0.067984
    19 4.450115 -0.070212 0.568166 0.096281 -0.007823 -0.804076
    20 1.426598 0.000002 0.000000 0.023849 -0.079611 -1.125914
    21 1.322465 0.000001 0.000000 0.009300 -0.033625 -0.575064
    22 4.473159 -0.032476 1.578568 0.476656 -0.055406 -1.136065
    23 1.344418 0.000003 0.000000 0.023454 -0.208305 -0.755705
    24 1.224670 0.000002 0.000000 0.026030 -0.124608 -0.538675
    25 2.626417 -0.345018 1.903308 -0.354081 -0.915135 -1.788176
    26 1.059294 0.000000 0.000001 0.000551 0.000015 0.000038
    27 0.781205 0.000000 0.000001 -0.000455 0.006951 -0.135927
    28 2.033353 1.000771 -1.101647 -2.032166 1.239537 2.596302
    29 6.805509 0.000004 0.000000 1.346663 0.633851 -0.567530
    30 12.391785 0.000000 0.000000 0.000000 0.000000 -1.613842
    31 9.341006 0.000000 0.000004 -1.016806 -0.285317 0.068930
    32 4.450079 -0.073766 -0.567766 -0.386561 0.126208 -1.146667
    33 1.426600 0.000003 0.000000 -0.051390 0.078806 -1.521708
    34 1.322464 -0.000002 0.000000 -0.034695 0.051507 -1.200245
    35 4.477035 -0.043465 -1.577382 -0.083026 0.164909 0.067453
    36 1.344415 0.000000 0.000000 0.024520 0.136363 -0.478014
    37 1.224668 0.000000 0.000000 -0.166394 0.224946 -1.318138
    38 2.630290 -0.359833 -1.900382 1.070449 0.381371 -0.978459
    39 1.063198 0.000000 0.000002 0.002198 0.017473 0.317165
    40 0.781205 0.000000 0.000000 0.006460 0.026000 0.488017
    41 -0.044717 2.528787 4.661499 0.152524 -0.037643 -0.054015
    42 1.554961 -2.005421 -0.062502 -0.583859 0.091275 -1.371645
    43 2.676086 -1.712442 0.000000 -1.570796 0.000000 -1.570796
  time 15
    0 0.232033 0.218762 27.336106 1.709238 -0.055379 -0.010273
    1 3.890452 -0.000004 -0.000003 -2.047228 -0.778757 -1.564393
    2 17.848173 0.000000 0.000000 0.000000 0.000000 1.584955
    3 15.642404 0.000000 0.000000 0.186262 -0.088743 -1.816326
    4 7.109923 -0.000001 0.000001 -0.007119 -0.003131 -0.631738
    5 -3.890452 0.000004 0.000007 -0.776419 -1.246983 -2.148409
    6 17.848169 0.000000 0.000000 0.000000 0.000000 1.549396
    7 15.642414 0.000000 0.000000 0.318375 -0.366545 -1.479522
    8 7.109928 0.000000 0.000000 -0.081165 -0.003131 -0.631740
    9 0.000005 3.345128 -2.981901 1.564600 -0.113086 1.553244
    10 4.018331 0.000000 0.000000 -0.086189 0.030105 0.326840
    11 3.518565 0.000000 0.000000 -0.083370 0.043037 0.196381
    12 8.942642 0.000000 0.000000 0.053799 0.018408 0.183238
    13 3.307271 0.000000 0.000000 3.141590 0.000000 0.400478
    14 3.593713 -0.000002 0.000000 0.149168 0.103498 1.166764
    15 2.033346 1.000767 1.101697 1.848121 -1.411838 2.688434
    16 6.805510 -0.000001 0.000000 -1.430930 -0.930371 -0.692120
    17 12.387892 0.000000 0.000003 0.000000 0.000000 -1.098468
    18 9.337075 0.000000 -0.000028 -0.802878 0.489639 -0.068276
    19 4.450115 -0.070212 0.568166 0.096281 -0.007823 -0.804076
    20 1.426598 0.000002 0.000000 0.023849 -0.079611 -1.125914
    21 1.318559 0.000001 0.000000 0.009312 -0.033625 -0.575064
    22 4.473159 -0.032476 1.578568 0.476656 -0.055406 -1.136065
    23 1.344418 0.000003 0.000000 0.023454 -0.208305 -0.755705
    24 1.220763 0.000002 0.000000 0.026030 -0.124608 -0.538675
    25 2.626417 -0.345018 1.903308 -0.354081 -0.915135 -1.788176
    26 1.059294 0.000000 0.000001 0.000551 0.000015 0.000038
    27 0.781205 0.000000 0.000001 -0.000455 0.006951 -0.135927
    28 2.033353 1.000771 -1.101647 -2.017128 1.229452 2.612496
    29 6.805509 0.000004 0.000000 1.340726 0.616828 -0.579674
    30 12.391785 0.000000 0.000000 0.000000 0.000000 -1.611926
    31 9.337099 0.000000 0.000004 -1.016875 -0.285273 0.068930
    32 4.450079 -0.073766 -0.571672 -0.386561 0.126208 -1.146667
    33 1.426600 0.000003 0.000000 -0.051390 0.078806 -1.521708
    34 1.322464 -0.000002 0.000000 -0.034695 0.051507 -1.200245
    35 4.473128 -0.043465 -1.577382 -0.083026 0.164909 0.067453
    36 1.344415 0.000000 0.000000 0.024520 0.136363 -0.478014
    37 1.224668 0.000000 0.000000 -0.166394 0.224946 -1.318138
    38 2.630290 -0.359833 -1.900382 1.070449 0.381371 -0.978459
    39 1.063198 0.000000 0.000002 0.002198 0.017473 0.317165
    40 0.781205 0.000000 0.000000 0.006460 0.026000 0.488017
    41 -0.044717 2.528787 4.661499 0.152564 -0.037861 -0.054806
    42 1.554961 -2.005421 -0.062502 -0.583859 0.091275 -1.371645
    43 2.676086 -1.712442 0.000000 -1.570796 0.000000 -1.570796
  time 16
    0 0.013277 0.167979 27.707211 1.713501 -0.068927 0.006156
    1 3.890452 -0.000004 -0.000003 -2.081026 -0.715443 -1.614716
    2 17.848173 0.000000 0.000000 0.000000 0.000000 1.585731
    3 15.642404 0.000000 0.000000 0.202221 -0.087102 -1.798108
    4 7.109923 -0.000001 0.000001 -0.007119 -0.003131 -0.631738
    5 -3.890452 0.000004 0.000007 -0.847007 -1.256470 -1.979688
    6 17.848169 0.000000 0.000000 0.000000 0.000000 1.329875
    7 15.642414 0.000000 0.000000 0.412984 -0.495908 -1.455392
    8 7.109928 0.000000 0.000000 -0.081165 -0.003131 -0.631740
    9 0.000005 3.345128 -2.981901 1.564552 -0.113086 1.553244
    10 4.018331 0.000000 0.000000 -0.092347 0.035882 0.325569
    11 3.518565 0.000000 0.000000 -0.090824 0.046356 0.195374
    12 8.942642 0.000000 0.000000 0.050383 0.015580 0.183837
    13 3.307271 0.000000 0.000000 3.141590 0.000000 0.400478
    14 3.593713 -0.000002 0.000000 0.150923 0.109490 1.170779
    15 2.033346 1.000767 1.101697 1.848121 -1.411838 2.688434
    16 6.805510 -0.000001 0.000000 -1.422027 -0.930416 -0.708670
    17 12.387892 0.000000 0.000003 0.000000 0.000000 -1.085422
    18 9.337075 0.000000 -0.000028 -0.788241 0.510578 -0.063090
    19 4.450115 -0.070212 0.568166 0.096281 -0.007823 -0.804076
    20 1.426598 0.000002 0.000000 0.023861 -0.079611 -1.125914
    21 1.322465 0.000001 0.000000 0.009300 -0.033625 -0.575064
    22 4.473159 -0.032476 1.578568 0.476656 -0.055406 -1.136065
    23 1.348325 0.000003 0.000000 0.023454 -0.208293 -0.755705
    24 1.224670 0.000002 0.000000 0.026030 -0.124608 -0.538675
    25 2.626417 -0.345018 1.903308 -0.354081 -0.915135 -1.788176
    26 1.059294 0.000000 0.000001 0.000551 0.000015 0.000038
    27 0.781205 0.000000 0.000001 -0.000455 0.006951 -0.135927
    28 2.033353 1.000771 -1.101647 -2.006057 1.221596 2.624452
    29 6.805509 0.000004 0.000000 1.332491 0.603906 -0.592297
    30 12.391785 0.000000 0.000000 0.000000 0.000000 -1.610421
    31 9.341006 0.000000 0.000004 -1.016875 -0.285273 0.068930
    32 4.450079 -0.073766 -0.571672 -0.386561 0.126208 -1.146667
    33 1.426600 0.000003 0.000000 -0.051390 0.078806 -1.521708
    34 1.322464 -0.000002 0.000000 -0.034695 0.051519 -1.200245
    35 4.477035 -0.043465 -1.577382 -0.083026 0.164909 0.067453
    36 1.344415 0.000000 0.000000 0.024520 0.136363 -0.478014
    37 1.224668 0.000000 0.000000 -0.166382 0.224946 -1.318138
    38 2.630290 -0.359833 -1.900382 1.070449 0.381371 -0.978459
    39 1.063198 0.000000 0.000002 0.002184 0.017473 0.317165
    40 0.781205 0.000000 0.000000 0.006460 0.026000 0.488017
    41 -0.044717 2.528787 4.661499 0.152564 -0.037892 -0.054794
    42 1.554961 -2.005421 -0.062502 -0.583859 0.091275 -1.371645
    43 2.676086 -1.712442 0.000000 -1.570796 0.000000 -1.570796
  time 17
    0 -0.139072 0.011724 28.156443 1.715871 -0.090166 0.018800
    1 3.890452 -0.000004 -0.000003 -2.118664 -0.654661 -1.657953
    2 17.848173 0.000000 0.000000 0.000000 0.000000 1.593841
    3 15.642404 0.000000 0.000000 0.213528 -0.068518 -1.752129
    4 7.109923 -0.000001 0.000001 -0.007119 -0.003131 -0.631738
    5 -3.890452 0.000004 0.000007 -0.950555 -1.218620 -1.822168
    6 17.848169 0.000000 0.000000 0.000000 0.000000 1.134918
    7 15.642414 0.000000 0.000000 0.463573 -0.578297 -1.394657
    8 7.109928 0.000000 0.000000 -0.081165 -0.003131 -0.631740
    9 0.000005 3.345128 -2.981901 1.564648 -0.113086 1.553891
    10 4.018331 0.000000 0.000000 -0.097505 0.039357 0.324258
    11 3.518565 0.000000 0.000000 -0.096745 0.047447 0.194139
    12 8.942642 0.000000 0.000000 0.046800 0.012716 0.183669
    13 3.307271 0.000000 0.000000 3.141590 0.000000 0.400478
    14 3.593713 -0.000002 0.000000 0.151016 0.117328 1.172640
    15 2.033346 1.000767 1.101697 1.848121 -1.411838 2.688434
    16 6.805510 -0.000001 0.000000 -1.419551 -0.924725 -0.714684
    17 12.387892 0.000000 0.000003 0.000000 0.000000 -1.085201
    18 9.337075 0.000000 -0.000028 -0.779154 0.524412 -0.054112
    19 4.450115 -0.070212 0.568166 0.096281 -0.007823 -0.804076
    20 1.426598 0.000002 0.000000 0.023861 -0.079611 -1.125914
    21 1.322465 0.000001 0.000000 0.009300 -0.033625 -0.575064
    22 4.473159 -0.032476 1.578568 0.476656 -0.055406 -1.136065
    23 1.344418 0.000003 0.000000 0.023454 -0.208293 -0.755705
    24 1.224670 0.000002 0.000000 0.026030 -0.124608 -0.538675
    25 2.626417 -0.345018 1.903308 -0.354081 -0.915135 -1.788176
    26 1.059294 0.000000 0.000001 0.000551 0.000015 0.000038
    27 0.781205 0.000000 0.000001 -0.000455 0.006951 -0.135927
    28 2.033353 1.000771 -1.101647 -1.999137 1.216476 2.632019
    29 6.805509 0.000004 0.000000 1.323586 0.596038 -0.604154
    30 12.391785 0.000000 0.000000 0.000000 0.000000 -1.609463
    31 9.337099 0.000000 0.000004 -1.016875 -0.285229 0.068930
    32 4.450079 -0.073766 -0.567766 -0.386561 0.126208 -1.146667
    33 1.426600 0.000003 0.000000 -0.051390 0.078806 -1.521708
    34 1.322464 -0.000002 0.000000 -0.034695 0.051519 -1.200245
    35 4.477035 -0.043465 -1.577382 -0.083026 0.164909 0.067453
    36 1.344415 0.000000 0.000000 0.024520 0.136363 -0.478014
    37 1.220761 0.000000 0.000000 -0.166382 0.224946 -1.318138
    38 2.630290 -0.359833 -1.900382 1.070449 0.381371 -0.978459
    39 1.063198 0.000000 0.000002 0.002184 0.017473 0.317165
    40 0.781205 0.000000 0.000000 0.006460 0.026000 0.488017
    41 -0.044717 2.528787 4.661499 0.152564 -0.037799 -0.054122
    42 1.554961 -2.005421 -0.062502 -0.583859 0.091275 -1.371645
    43 2.676086 -1.712442 0.000000 -1.570796 0.000000 -1.570796
  time 18
    0 -0.260169 -0.226564 28.547080 1.713024 -0.113741 0.027355
    1 3.890452 -0.000004 -0.000003 -2.162059 -0.599496 -1.667854
    2 17.848173 0.000000 0.000000 0.000000 0.000000 1.636435
    3 15.642404 0.000000 0.000000 0.225070 0.047212 -1.557972
    4 7.109923 -0.000001 0.000001 -0.007119 -0.003131 -0.631738
    5 -3.890452 0.000004 0.000007 -1.019524 -1.178863 -1.776388
    6 17.848169 0.000000 0.000000 0.000000 0.000000 1.145516
    7 15.642414 0.000000 0.000000 0.245032 -0.279622 -1.301369
    8 7.109928 0.000000 0.000000 -0.081165 -0.003131 -0.631740
    9 0.000005 3.345128 -2.981901 1.564828 -0.113086 1.554869
    10 4.018331 0.000000 0.000000 -0.101106 0.040172 0.323292
    11 3.518565 0.000000 0.000000 -0.100405 0.046237 0.193061
    12 8.942642 0.000000 0.000000 0.043696 0.009983 0.182783
    13 3.307271 0.000000 0.000000 3.141590 0.000000 0.400478
    14 3.593713 -0.000002 0.000000 0.147782 0.126221 1.170925
    15 2.033346 1.000767 1.101697 1.848121 -1.411838 2.688434
    16 6.805510 -0.000001 0.000000 -1.424407 -0.914846 -0.708574
    17 12.387892 0.000000 0.000003 0.000000 0.000000 -1.097804
    18 9.337075 0.000000 -0.000028 -0.776902 0.530180 -0.042476
    19 4.450115 -0.070212 0.568166 0.096281 -0.007823 -0.804076
    20 1.426598 0.000002 0.000000 0.023849 -0.079611 -1.125914
    21 1.318559 0.000001 0.000000 0.009312 -0.033625 -0.575064
    22 4.473159 -0.032476 1.578568 0.476656 -0.055406 -1.136065
    23 1.344418 0.000003 0.000000 0.023454 -0.208305 -0.755705
    24 1.224670 0.000002 0.000000 0.026030 -0.124608 -0.538675
    25 2.626417 -0.345018 1.903308 -0.354081 -0.915135 -1.788176
    26 1.059294 0.000000 0.000001 0.000551 0.000015 0.000038
    27 0.781205 0.000000 0.000001 -0.000455 0.006951 -0.135927
    28 2.033353 1.000771 -1.101647 -1.996738 1.214645 2.634668
    29 6.805509 0.000004 0.000000 1.315064 0.594465 -0.614386
    30 12.391785 0.000000 0.000000 0.000000 0.000000 -1.609121
    31 9.341006 0.000000 0.000004 -1.016875 -0.285229 0.068930
    32 4.450079 -0.073766 -0.571672 -0.386561 0.126208 -1.146667
    33 1.426600 0.000003 0.000000 -0.051390 0.078806 -1.521708
    34 1.322464 -0.000002 0.000000 -0.034695 0.051507 -1.200245
    35 4.477035 -0.043465 -1.581289 -0.083026 0.164909 0.067453
    36 1.344415 0.000000 0.000000 0.024520 0.136363 -0.478014
    37 1.224668 0.000000 0.000000 -0.166394 0.224946 -1.318138
    38 2.630290 -0.359833 -1.900382 1.070449 0.381371 -0.978459
    39 1.063198 0.000000 0.000002 0.002198 0.017473 0.317165
    40 0.781205 0.000000 0.000000 0.006460 0.026000 0.488017
    41 -0.044717 2.528787 4.661499 0.152524 -0.037627 -0.053140
    42 1.554961 -2.005421 -0.062502 -0.583859 0.091275 -1.371645
    43 2.676086 -1.712442 0.000000 -1.570796 0.000000 -1.570796
  time 19
    0 -0.389079 -0.488291 28.746305 1.703950 -0.135878 0.031519
    1 3.890452 -0.000004 -0.000003 -2.161475 -0.647800 -1.624435
    2 17.848173 0.000000 0.000000 0.000000 0.000000 1.731568
    3 15.642404 0.000000 0.000000 0.248242 0.058792 -1.341626
    4 7.109923 -0.000001 0.000001 -0.007119 -0.003131 -0.631738
    5 -3.890452 0.000004 0.000007 -1.076775 -1.139351 -1.757987
    6 17.848169 0.000000 0.000000 0.000000 0.000000 1.195960
    7 15.642414 0.000000 0.000000 0.051847 0.113423 -1.287911
    8 7.109928 0.000000 0.000000 -0.081165 -0.003131 -0.631740
    9 0.000005 3.345128 -2.981901 1.564972 -0.113069 1.555681
    10 4.018331 0.000000 0.000000 -0.103018 0.038063 0.322789
    11 3.518565 0.000000 0.000000 -0.101508 0.042629 0.192258
    12 8.942642 0.000000 0.000000 0.041610 0.007562 0.181260
    13 3.307271 0.000000 0.000000 3.141590 0.000000 0.400478
    14 3.593713 -0.000002 0.000000 0.140806 0.135521 1.165122
    15 2.033346 1.000767 1.101697 1.848121 -1.411838 2.688434
    16 6.805510 -0.000001 0.000000 -1.436976 -0.900777 -0.689474
    17 12.387892 0.000000 0.000003 0.000000 0.000000 -1.124042
    18 9.337075 0.000000 -0.000028 -0.782532 0.527275 -0.028345
    19 4.450115 -0.070212 0.568166 0.096281 -0.007823 -0.804076
    20 1.426598 0.000002 0.000000 0.023849 -0.079611 -1.125914
    21 1.322465 0.000001 0.000000 0.009312 -0.033625 -0.575064
    22 4.473159 -0.032476 1.578568 0.476656 -0.055406 -1.136065
    23 1.344418 0.000003 0.000000 0.023454 -0.208305 -0.755705
    24 1.224670 0.000002 0.000000 0.026030 -0.124608 -0.538675
    25 2.626417 -0.345018 1.903308 -0.354081 -0.915135 -1.788176
    26 1.059294 0.000000 0.000001 0.000551 0.000015 0.000038
    27 0.781205 0.000000 0.000001 -0.000455 0.006951 -0.135927
    28 2.033353 1.000771 -1.101647 -1.999137 1.216476 2.632019
    29 6.805509 0.000004 0.000000 1.306925 0.600282 -0.622897
    30 12.391785 0.000000 0.000000 0.000000 0.000000 -1.609463
    31 9.341006 0.000000 0.000004 -1.016875 -0.285229 0.068930
    32 4.450079 -0.073766 -0.571672 -0.386561 0.126208 -1.146667
    33 1.426600 0.000003 0.000000 -0.051390 0.078806 -1.521708
    34 1.322464 -0.000002 0.000000 -0.034695 0.051507 -1.200245
    35 4.477035 -0.043465 -1.577382 -0.083026 0.164909 0.067453
    36 1.344415 0.000000 0.000000 0.024520 0.136363 -0.478014
    37 1.224668 0.000000 0.000000 -0.166382 0.224946 -1.318138
    38 2.630290 -0.359833 -1.900382 1.070449 0.381371 -0.978459
    39 1.063198 0.000000 0.000002 0.002198 0.017473 0.317165
    40 0.781205 0.000000 0.000000 0.006460 0.026000 0.488017
    41 -0.044717 2.528787 4.661499 0.152524 -0.037471 -0.052325
    42 1.554961 -2.005421 -0.062502 -0.583859 0.091275 -1.371645
    43 2.676086 -1.712442 0.000000 -1.570796 0.000000 -1.570796
  time 20
    0 -0.553147 -0.683610 28.679897 1.691126 -0.175265 0.028566
    1 3.890452 -0.000004 -0.000003 -2.153213 -0.714061 -1.593279
    2 17.848173 0.000000 0.000000 0.000000 0.000000 1.825784
    3 15.642404 0.000000 0.000000 0.271150 0.056272 -1.123887
    4 7.109923 -0.000001 0.000001 -0.007119 -0.003131 -0.631738
    5 -3.890452 0.000004 0.000007 -1.114689 -1.107711 -1.790167
    6 17.848169 0.000000 0.000000 0.000000 0.000000 1.269243
    7 15.642414 0.000000 0.000000 -0.080958 0.451478 -1.336550
    8 7.109928 0.000000 0.000000 -0.081165 -0.003131 -0.631740
    9 0.062507 3.345128 -2.981901 1.565019 -0.113069 1.535940
    10 4.018331 0.000000 0.000000 -0.103396 0.032850 0.322590
    11 3.518565 0.000000 0.000000 -0.100189 0.036577 0.191599
    12 8.942642 0.000000 0.000000 0.040796 0.005633 0.179223
    13 3.307271 0.000000 0.000000 3.141590 0.000000 0.400478
    14 3.593713 -0.000002 0.000000 0.130874 0.144569 1.156216
    15 2.033346 1.000767 1.101697 1.848121 -1.411838 2.688434
    16 6.805510 -0.000001 0.000000 -1.453163 -0.886117 -0.662196
    17 12.387892 0.000000 0.000003 0.000000 0.000000 -1.161041
    18 9.337075 0.000000 -0.000028 -0.793147 0.515886 -0.008314
    19 4.450115 -0.070212 0.568166 0.096281 -0.007823 -0.804076
    20 1.426598 0.000002 0.000000 0.023849 -0.079611 -1.125914
    21 1.322465 0.000001 0.000000 0.009312 -0.033625 -0.575064
    22 4.473159 -0.032476 1.578568 0.476656 -0.055406 -1.136065
    23 1.344418 0.000003 0.000000 0.023454 -0.208305 -0.755705
    24 1.224670 0.000002 0.000000 0.026030 -0.124608 -0.538675
    25 2.626417 -0.345018 1.903308 -0.354081 -0.915135 -1.788176
    26 1.059294 0.000000 0.000001 0.000551 0.000015 0.000038
    27 0.781205 0.000000 0.000001 -0.000455 0.006951 -0.135927
    28 2.033353 1.000771 -1.101647 -2.006057 1.221596 2.624452
    29 6.805509 0.000004 0.000000 1.302520 0.611106 -0.625097
    30 12.391785 0.000000 0.000000 0.000000 0.000000 -1.610079
    31 9.341006 0.000000 0.000004 -1.012595 -0.285537 0.064680
    32 4.450079 -0.073766 -0.567766 -0.386561 0.126208 -1.146667
    33 1.426600 0.000003 0.000000 -0.051390 0.078806 -1.521708
    34 1.322464 -0.000002 0.000000 -0.034695 0.051507 -1.200245
    35 4.477035 -0.043465 -1.577382 -0.083026 0.164909 0.067453
    36 1.344415 0.000000 0.000000 0.024520 0.136363 -0.478014
    37 1.220761 0.000000 0.000000 -0.166382 0.224946 -1.318138
    38 2.630290 -0.359833 -1.900382 1.070449 0.381371 -0.978459
    39 1.063198 0.000000 0.000002 0.002184 0.017473 0.317165
    40 0.781205 0.000000 0.000000 0.006460 0.026000 0.488017
    41 -0.044717 2.528787 4.661499 0.152524 -0.037455 -0.072051
    42 1.554961 -2.005421 -0.062502 -0.583859 0.091275 -1.371645
    43 2.676086 -1.712442 0.000000 -1.570796 0.000000 -1.570796
  time 21
    0 -0.756278 -0.785175 28.433796 1.678126 -0.201356 0.023191
    1 3.890452 -0.000004 -0.000003 -2.150709 -0.791190 -1.534872
    2 17.848173 0.000000 0.000000 0.000000 0.000000 1.878463
    3 15.642404 0.000000 0.000000 0.288905 0.048298 -0.998071
    4 7.109923 -0.000001 0.000001 -0.007119 -0.003131 -0.631738
    5 -3.890452 0.000004 0.000007 -1.137266 -1.095290 -1.875505
    6 17.848169 0.000000 0.000000 0.000000 0.000000 1.404062
    7 15.642414 0.000000 0.000000 0.000291 0.425956 -1.422649
    8 7.109928 0.000000 0.000000 -0.081165 -0.003131 -0.631740
    9 0.089851 3.345128 -2.981901 1.564876 -0.113086 1.527860
    10 4.018331 0.000000 0.000000 -0.102729 0.024676 0.322405
    11 3.518565 0.000000 0.000000 -0.096973 0.028164 0.190808
    12 8.942642 0.000000 0.000000 0.041167 0.004267 0.176790
    13 3.307271 0.000000 0.000000 3.141590 0.000000 0.400478
    14 3.593713 -0.000002 0.000000 0.119325 0.152731 1.146727
    15 2.033346 1.000767 1.101697 1.848121 -1.411838 2.688434
    16 6.805510 -0.000001 0.000000 -1.476920 -0.865812 -0.622121
    17 12.387892 0.000000 0.000003 0.000000 0.000000 -1.208579
    18 9.337075 0.000000 -0.000028 -0.811402 0.498980 0.012170
    19 4.450115 -0.070212 0.568166 0.096281 -0.007823 -0.804076
    20 1.426598 0.000002 0.000000 0.023849 -0.079611 -1.125914
    21 1.322465 0.000001 0.000000 0.009300 -0.033625 -0.575064
    22 4.473159 -0.032476 1.578568 0.476656 -0.055406 -1.136065
    23 1.344418 0.000003 0.000000 0.023454 -0.208305 -0.755705
    24 1.224670 0.000002 0.000000 0.026030 -0.124608 -0.538675
    25 2.626417 -0.345018 1.903308 -0.354081 -0.915135 -1.788176
    26 1.059294 0.000000 0.000001 0.000551 0.000015 0.000038
    27 0.781205 0.000000 0.000001 -0.000455 0.006951 -0.135927
    28 2.033353 1.000771 -1.101647 -2.017128 1.229452 2.612496
    29 6.805509 0.000004 0.000000 1.295818 0.628272 -0.631121
    30 12.391785 0.000000 0.000000 0.000000 0.000000 -1.611516
    31 9.337099 0.000000 0.000004 -1.011145 -0.285625 0.062961
    32 4.450079 -0.073766 -0.571672 -0.386561 0.126208 -1.146667
    33 1.426600 0.000003 0.000000 -0.051390 0.078806 -1.521708
    34 1.322464 -0.000002 0.000000 -0.034695 0.051507 -1.200245
    35 4.477035 -0.043465 -1.577382 -0.083026 0.164909 0.067453
    36 1.344415 0.000000 0.000000 0.024520 0.136363 -0.478014
    37 1.224668 0.000000 0.000000 -0.166382 0.224946 -1.318138
    38 2.630290 -0.359833 -1.904289 1.070449 0.381371 -0.978459
    39 1.063198 0.000000 0.000002 0.002184 0.017473 0.317165
    40 0.781205 0.000000 0.000000 0.006460 0.026000 0.488017
    41 -0.044717 2.528787 4.661499 0.152524 -0.037549 -0.080153
    42 1.554961 -2.005421 -0.062502 -0.583859 0.091275 -1.371645
    43 2.676086 -1.712442 0.000000 -1.570796 0.000000 -1.570796
  time 22
    0 -0.963316 -0.769550 28.140818 1.667902 -0.193773 0.017891
    1 3.890452 -0.000004 -0.000003 -2.167317 -0.887935 -1.404978
    2 17.848173 0.000000 0.000000 0.000000 0.000000 1.878534
    3 15.642404 0.000000 0.000000 0.292114 0.028050 -1.027923
    4 7.109923 -0.000001 0.000001 -0.007119 -0.003131 -0.631738
    5 -3.890452 0.000004 0.000007 -1.139266 -1.055680 -1.925196
    6 17.848169 0.000000 0.000000 0.000000 0.000000 1.493448
    7 15.642414 0.000000 0.000000 0.052541 0.381640 -1.504791
    8 7.109928 0.000000 0.000000 -0.081177 -0.003119 -0.630861
    9 0.000005 3.345128 -2.981901 1.564696 -0.113086 1.554401
    10 4.018331 0.000000 0.000000 -0.101373 0.014226 0.321902
    11 3.518565 0.000000 0.000000 -0.092452 0.017893 0.189597
    12 8.942642 0.000000 0.000000 0.042318 0.003380 0.174166
    13 3.307271 0.000000 0.000000 3.141590 0.000000 0.400478
    14 3.593713 -0.000002 0.000000 0.107822 0.159382 1.139062
    15 2.033346 1.000767 1.101697 1.848121 -1.411838 2.688434
    16 6.805510 -0.000001 0.000000 -1.509770 -0.835535 -0.567805
    17 12.387892 0.000000 0.000003 0.000000 0.000000 -1.265550
    18 9.337075 0.000000 -0.000028 -0.838905 0.478479 0.028344
    19 4.450115 -0.070212 0.568166 0.096281 -0.007823 -0.804076
    20 1.426598 0.000002 0.000000 0.023849 -0.079611 -1.125914
    21 1.322465 0.000001 0.000000 0.009300 -0.033625 -0.575064
    22 4.473159 -0.032476 1.578568 0.476656 -0.055406 -1.136065
    23 1.344418 0.000003 0.000000 0.023454 -0.208305 -0.755705
    24 1.220763 0.000002 0.000000 0.026030 -0.124608 -0.538675
    25 2.626417 -0.345018 1.903308 -0.354081 -0.915135 -1.788176
    26 1.059294 0.000000 0.000001 0.000551 0.000015 0.000038
    27 0.781205 0.000000 0.000001 -0.000455 0.006951 -0.135927
    28 2.033353 1.000771 -1.101647 -2.032166 1.239537 2.596302
    29 6.805509 0.000004 0.000000 1.282125 0.653020 -0.647856
    30 12.391785 0.000000 0.000000 0.000000 0.000000 -1.613842
    31 9.341006 0.000000 0.000004 -1.016806 -0.285317 0.068930
    32 4.453985 -0.073766 -0.571672 -0.386561 0.126208 -1.146667
    33 1.426600 0.000003 0.000000 -0.051390 0.078806 -1.521708
    34 1.322464 -0.000002 0.000000 -0.034695 0.051507 -1.200245
    35 4.477035 -0.043465 -1.577382 -0.083026 0.164909 0.067453
    36 1.344415 0.000000 0.000000 0.024520 0.136363 -0.478014
    37 1.224668 0.000000 0.000000 -0.166382 0.224946 -1.318138
    38 2.630290 -0.359833 -1.904289 1.070449 0.381371 -0.978459
    39 1.063198 0.000000 0.000002 0.002184 0.017473 0.317165
    40 0.781205 0.000000 0.000000 0.006460 0.026000 0.488017
    41 -0.044717 2.528787 4.661499 0.152524 -0.037752 -0.053619
    42 1.554961 -2.005421 -0.062502 -0.583859 0.091275 -1.371645
    43 2.676086 -1.712442 0.000000 -1.570796 0.000000 -1.570796
  time 23
    0 -1.135196 -0.652359 27.882998 1.663498 -0.211023 0.007140
    1 3.890452 -0.000004 -0.000003 -2.200447 -0.991080 -1.279898
    2 17.848173 0.000000 0.000000 0.000000 0.000000 1.824092
    3 15.642404 0.000000 0.000000 0.280984 -0.013161 -1.139353
    4 7.109923 -0.000001 0.000001 -0.007119 -0.003131 -0.631738
    5 -3.890452 0.000004 0.000007 -1.129264 -1.016314 -2.015779
    6 17.848169 0.000000 0.000000 0.000000 0.000000 1.573633
    7 15.642414 0.000000 0.000000 0.103056 0.324499 -1.580979
    8 7.109928 0.000000 0.000000 -0.081177 -0.003119 -0.629954
    9 0.000005 3.345128 -2.981901 1.564456 -0.113086 1.553382
    10 4.018331 0.000000 0.000000 -0.099506 0.002613 0.320843
    11 3.518565 0.000000 0.000000 -0.087124 0.006675 0.187788
    12 8.942642 0.000000 0.000000 0.043720 0.002721 0.171541
    13 3.307271 0.000000 0.000000 3.141590 0.000000 0.400478
    14 3.593713 -0.000002 0.000000 0.097751 0.163804 1.134354
    15 2.033346 1.000767 1.101697 1.848121 -1.411838 2.688434
    16 6.805510 -0.000001 0.000000 -1.539050 -0.805578 -0.517002
    17 12.387892 0.000000 0.000003 0.000000 0.000000 -1.325028
    18 9.337075 0.000000 -0.000028 -0.865846 0.452065 0.050124
    19 4.450115 -0.070212 0.568166 0.096281 -0.007823 -0.804076
    20 1.426598 0.000002 0.000000 0.023861 -0.079611 -1.125914
    21 1.322465 0.000001 0.000000 0.009300 -0.033625 -0.575064
    22 4.473159 -0.032476 1.578568 0.476656 -0.055406 -1.136065
    23 1.344418 0.000003 0.000000 0.023454 -0.208305 -0.755705
    24 1.224670 0.000002 0.000000 0.026030 -0.124608 -0.538675
    25 2.626417 -0.348924 1.903308 -0.354081 -0.915135 -1.788176
    26 1.059294 0.000000 0.000001 0.000551 0.000015 0.000038
    27 0.781205 0.000000 0.000001 -0.000455 0.006951 -0.135927
    28 2.033353 1.000771 -1.101647 -2.051172 1.251188 2.576098
    29 6.805509 0.000004 0.000000 1.273124 0.678769 -0.655601
    30 12.391785 0.000000 0.000000 0.000000 0.000000 -1.616100
    31 9.341006 0.000000 0.000004 -1.016806 -0.285361 0.068930
    32 4.450079 -0.073766 -0.567766 -0.386561 0.126208 -1.146667
    33 1.426600 0.000003 0.000000 -0.051390 0.078806 -1.521708
    34 1.322464 -0.000002 0.000000 -0.034695 0.051519 -1.200245
    35 4.477035 -0.043465 -1.577382 -0.083026 0.164909 0.067453
    36 1.344415 0.000000 0.000000 0.024520 0.136363 -0.478014
    37 1.224668 0.000000 0.000000 -0.166382 0.224946 -1.318138
    38 2.630290 -0.359833 -1.900382 1.070449 0.381371 -0.978459
    39 1.063198 0.000000 0.000002 0.002198 0.017473 0.317165
    40 0.781205 0.000000 0.000000 0.006460 0.026000 0.488017
    41 -0.044717 2.528787 4.661499 0.152564 -0.037970 -0.054662
    42 1.554961 -2.005421 -0.062502 -0.583859 0.091275 -1.371645
    43 2.676086 -1.712442 0.000000 -1.570796 0.000000 -1.570796
end
