// Created by Crowbar 0.62
version 1
nodes
  0 "ValveBiped.Bip01_Pelvis" -1
  1 "ValveBiped.Bip01_L_Thigh" 0
  2 "ValveBiped.Bip01_L_Calf" 1
  3 "ValveBiped.Bip01_L_Foot" 2
  4 "ValveBiped.Bip01_L_Toe0" 3
  5 "ValveBiped.Bip01_R_Thigh" 0
  6 "ValveBiped.Bip01_R_Calf" 5
  7 "ValveBiped.Bip01_R_Foot" 6
  8 "ValveBiped.Bip01_R_Toe0" 7
  9 "ValveBiped.Bip01_Spine" 0
  10 "ValveBiped.Bip01_Spine1" 9
  11 "ValveBiped.Bip01_Spine2" 10
  12 "ValveBiped.Bip01_Spine4" 11
  13 "ValveBiped.Bip01_Neck1" 12
  14 "ValveBiped.Bip01_Head1" 13
  15 "ValveBiped.Bip01_L_Clavicle" 12
  16 "ValveBiped.Bip01_L_UpperArm" 15
  17 "ValveBiped.Bip01_L_Forearm" 16
  18 "ValveBiped.Bip01_L_Hand" 17
  19 "ValveBiped.Bip01_L_Finger2" 18
  20 "ValveBiped.Bip01_L_Finger21" 19
  21 "ValveBiped.Bip01_L_Finger22" 20
  22 "ValveBiped.Bip01_L_Finger1" 18
  23 "ValveBiped.Bip01_L_Finger11" 22
  24 "ValveBiped.Bip01_L_Finger12" 23
  25 "ValveBiped.Bip01_L_Finger0" 18
  26 "ValveBiped.Bip01_L_Finger01" 25
  27 "ValveBiped.Bip01_L_Finger02" 26
  28 "ValveBiped.Bip01_R_Clavicle" 12
  29 "ValveBiped.Bip01_R_UpperArm" 28
  30 "ValveBiped.Bip01_R_Forearm" 29
  31 "ValveBiped.Bip01_R_Hand" 30
  32 "ValveBiped.Bip01_R_Finger2" 31
  33 "ValveBiped.Bip01_R_Finger21" 32
  34 "ValveBiped.Bip01_R_Finger22" 33
  35 "ValveBiped.Bip01_R_Finger1" 31
  36 "ValveBiped.Bip01_R_Finger11" 35
  37 "ValveBiped.Bip01_R_Finger12" 36
  38 "ValveBiped.Bip01_R_Finger0" 31
  39 "ValveBiped.Bip01_R_Finger01" 38
  40 "ValveBiped.Bip01_R_Finger02" 39
  41 "ValveBiped.Cod" 0
  42 "ValveBiped.Anim_Attachment_LH" 18
  43 "ValveBiped.Anim_Attachment_RH" 31
end
skeleton
  time 0
    0 -0.650806 0.269544 25.691525 1.809351 -0.066951 0.056200
    1 3.890452 -0.000004 -0.000003 -1.964109 -1.343248 -1.257098
    2 17.848173 0.000000 0.000000 0.000000 0.000000 1.735940
    3 15.642404 0.000000 0.000000 0.173130 0.229232 -1.328076
    4 7.109923 -0.000001 0.000001 -0.006664 -0.003670 -0.770029
    5 -3.890452 0.000004 0.000007 -1.104592 -1.003111 -1.706162
    6 17.848169 0.000000 0.000000 0.000000 0.000000 1.742300
    7 15.642414 0.000000 0.000000 -0.219043 0.125361 -1.968983
    8 7.109928 0.000000 0.000000 -0.081165 -0.003131 -0.631740
    9 0.000005 3.345128 -2.981901 1.567153 -0.113002 1.564918
    10 4.018331 0.000000 0.000000 -0.051287 -0.044343 0.347915
    11 3.518565 0.000000 0.000000 -0.028270 -0.040508 0.212092
    12 8.942642 0.000000 0.000000 0.032646 -0.010175 0.164961
    13 3.307271 0.000000 0.000000 3.141590 0.000000 0.400478
    14 3.593713 -0.000002 0.000000 0.022174 -0.066503 1.313084
    15 2.033346 1.000767 1.101697 1.848121 -1.411838 2.688434
    16 6.805510 -0.000001 0.000000 -1.705015 -0.734600 -0.265485
    17 12.387892 0.000000 0.000003 0.000000 0.000000 -1.523066
    18 9.337075 0.000000 -0.000028 -1.007624 0.233601 0.086393
    19 4.450115 -0.070212 0.568166 0.096281 -0.007823 -0.804076
    20 1.426598 0.000002 0.000000 0.023861 -0.079611 -1.125914
    21 1.322465 0.000001 0.000000 0.009312 -0.033625 -0.575064
    22 4.473159 -0.028570 1.578568 0.476656 -0.055406 -1.136065
    23 1.348325 0.000003 0.000000 0.023454 -0.208305 -0.755705
    24 1.224670 0.000002 0.000000 0.026030 -0.124608 -0.538675
    25 2.626417 -0.345018 1.903308 -0.354081 -0.915135 -1.788176
    26 1.059294 0.000000 0.000001 0.000551 0.000015 0.000038
    27 0.781205 0.000000 0.000001 -0.000455 0.006951 -0.135927
    28 2.033353 1.000771 -1.101647 -2.221209 1.324319 2.397438
    29 6.805509 0.000004 0.000000 1.394349 0.862637 -0.519525
    30 12.391785 0.000000 0.000000 0.000000 0.000000 -1.631083
    31 9.337099 0.000000 0.000004 -1.016599 -0.285713 0.068835
    32 4.450079 -0.073766 -0.571672 -0.386561 0.126208 -1.146667
    33 1.426600 0.000003 0.000000 -0.051390 0.078806 -1.521708
    34 1.322464 -0.000002 0.000000 -0.034695 0.051507 -1.200245
    35 4.477035 -0.043465 -1.577382 -0.083026 0.164909 0.067453
    36 1.344415 0.000000 0.000000 0.024520 0.136363 -0.478014
    37 1.224668 0.000000 0.000000 -0.166394 0.224946 -1.318138
    38 2.630290 -0.359833 -1.900382 1.070449 0.381371 -0.978459
    39 1.063198 0.000000 0.000002 0.002198 0.017473 0.317165
    40 0.781205 0.000000 0.000000 0.006460 0.026000 0.488017
    41 -0.044717 2.528787 4.661499 0.152403 -0.035319 -0.042809
    42 1.554961 -2.005421 -0.062502 -0.583859 0.091275 -1.371645
    43 2.676086 -1.712442 0.000000 -1.570796 0.000000 -1.570796
  time 1
    0 -0.650806 0.269544 25.691525 1.809351 -0.066951 0.056200
    1 3.890452 -0.000004 -0.000003 -1.964109 -1.343248 -1.257098
    2 17.848173 0.000000 0.000000 0.000000 0.000000 1.735940
    3 15.642404 0.000000 0.000000 0.173130 0.229232 -1.328076
    4 7.109923 -0.000001 0.000001 -0.006664 -0.003670 -0.770029
    5 -3.890452 0.000004 0.000007 -1.104592 -1.003111 -1.706162
    6 17.848169 0.000000 0.000000 0.000000 0.000000 1.742300
    7 15.642414 0.000000 0.000000 -0.219043 0.125361 -1.968983
    8 7.109928 0.000000 0.000000 -0.081165 -0.003131 -0.631740
    9 0.000005 3.345128 -2.981901 1.567153 -0.113002 1.564918
    10 4.018331 0.000000 0.000000 -0.051287 -0.044343 0.347915
    11 3.518565 0.000000 0.000000 -0.028270 -0.040508 0.212092
    12 8.942642 0.000000 0.000000 0.032646 -0.010175 0.164961
    13 3.307271 0.000000 0.000000 3.141590 0.000000 0.400478
    14 3.593713 -0.000002 0.000000 0.022174 -0.066503 1.313084
    15 2.033346 1.000767 1.101697 1.848121 -1.411838 2.688434
    16 6.805510 -0.000001 0.000000 -1.705015 -0.734600 -0.265485
    17 12.387892 0.000000 0.000003 0.000000 0.000000 -1.523066
    18 9.337075 0.000000 -0.000028 -1.007624 0.233601 0.086393
    19 4.450115 -0.070212 0.568166 0.096281 -0.007823 -0.804076
    20 1.426598 0.000002 0.000000 0.023861 -0.079611 -1.125914
    21 1.322465 0.000001 0.000000 0.009312 -0.033625 -0.575064
    22 4.473159 -0.028570 1.578568 0.476656 -0.055406 -1.136065
    23 1.348325 0.000003 0.000000 0.023454 -0.208305 -0.755705
    24 1.224670 0.000002 0.000000 0.026030 -0.124608 -0.538675
    25 2.626417 -0.345018 1.903308 -0.354081 -0.915135 -1.788176
    26 1.059294 0.000000 0.000001 0.000551 0.000015 0.000038
    27 0.781205 0.000000 0.000001 -0.000455 0.006951 -0.135927
    28 2.033353 1.000771 -1.101647 -2.221209 1.324319 2.397438
    29 6.805509 0.000004 0.000000 1.394349 0.862637 -0.519525
    30 12.391785 0.000000 0.000000 0.000000 0.000000 -1.631083
    31 9.337099 0.000000 0.000004 -1.016599 -0.285713 0.068835
    32 4.450079 -0.073766 -0.571672 -0.386561 0.126208 -1.146667
    33 1.426600 0.000003 0.000000 -0.051390 0.078806 -1.521708
    34 1.322464 -0.000002 0.000000 -0.034695 0.051507 -1.200245
    35 4.477035 -0.043465 -1.577382 -0.083026 0.164909 0.067453
    36 1.344415 0.000000 0.000000 0.024520 0.136363 -0.478014
    37 1.224668 0.000000 0.000000 -0.166394 0.224946 -1.318138
    38 2.630290 -0.359833 -1.900382 1.070449 0.381371 -0.978459
    39 1.063198 0.000000 0.000002 0.002198 0.017473 0.317165
    40 0.781205 0.000000 0.000000 0.006460 0.026000 0.488017
    41 -0.044717 2.528787 4.661499 0.152403 -0.035319 -0.042809
    42 1.554961 -2.005421 -0.062502 -0.583859 0.091275 -1.371645
    43 2.676086 -1.712442 0.000000 -1.570796 0.000000 -1.570796
  time 2
    0 -0.408611 0.542990 25.734495 1.816020 -0.072665 0.050976
    1 3.890452 -0.000004 -0.000003 -2.233578 -1.436493 -1.150640
    2 17.848173 0.000000 0.000000 0.000000 0.000000 1.646026
    3 15.642404 0.000000 0.000000 0.195478 0.206742 -1.191532
    4 7.109923 -0.000001 0.000001 -0.007119 -0.003131 -0.631738
    5 -3.890452 0.000004 0.000007 -1.163748 -0.881981 -1.582866
    6 17.848169 0.000000 0.000000 0.000000 0.000000 1.691363
    7 15.642414 0.000000 0.000000 -0.269261 0.123336 -2.071169
    8 7.109928 0.000000 0.000000 -0.081165 -0.003131 -0.631740
    9 0.000005 3.345128 -2.981901 1.566637 -0.113002 1.563555
    10 4.018331 0.000000 0.000000 -0.046240 -0.050108 0.349040
    11 3.518565 0.000000 0.000000 -0.022255 -0.045877 0.213387
    12 8.942642 0.000000 0.000000 0.031412 -0.010391 0.165525
    13 3.307271 0.000000 0.000000 3.141590 0.000000 0.400478
    14 3.593713 -0.000002 0.000000 0.015383 -0.065796 1.319763
    15 2.033346 1.000767 1.101697 1.848121 -1.411838 2.688434
    16 6.805510 -0.000001 0.000000 -1.719441 -0.754313 -0.239410
    17 12.387892 0.000000 0.000003 0.000000 0.000000 -1.507367
    18 9.337075 0.000000 -0.000028 -1.015184 0.241186 0.082147
    19 4.450115 -0.070212 0.568166 0.096281 -0.007823 -0.804076
    20 1.426598 0.000002 0.000000 0.023861 -0.079611 -1.125914
    21 1.322465 0.000001 0.000000 0.009300 -0.033625 -0.575064
    22 4.473159 -0.032476 1.578568 0.476656 -0.055406 -1.136065
    23 1.344418 0.000003 0.000000 0.023454 -0.208305 -0.755705
    24 1.224670 0.000002 0.000000 0.026030 -0.124608 -0.538675
    25 2.626417 -0.345018 1.903308 -0.354081 -0.915135 -1.788176
    26 1.059294 0.000000 0.000001 0.000551 0.000015 0.000038
    27 0.781205 0.000000 0.000001 -0.000455 0.006951 -0.135927
    28 2.033353 1.000771 -1.101647 -2.221209 1.324319 2.397438
    29 6.805509 0.000004 0.000000 1.406414 0.860778 -0.523637
    30 12.391785 0.000000 0.000000 0.000000 0.000000 -1.631083
    31 9.341006 0.000000 0.000004 -1.016599 -0.285713 0.068835
    32 4.450079 -0.073766 -0.571672 -0.386561 0.126208 -1.146667
    33 1.426600 0.000003 0.000000 -0.051378 0.078806 -1.521708
    34 1.322464 -0.000002 0.000000 -0.034695 0.051519 -1.200245
    35 4.477035 -0.043465 -1.577382 -0.083026 0.164909 0.067453
    36 1.344415 0.000000 0.000000 0.024520 0.136363 -0.478014
    37 1.224668 0.000000 0.000000 -0.166382 0.224946 -1.318138
    38 2.630290 -0.359833 -1.900382 1.070449 0.381371 -0.978459
    39 1.063198 0.000000 0.000002 0.002184 0.017473 0.317165
    40 0.781205 0.000000 0.000000 0.006460 0.026000 0.488017
    41 -0.044717 2.528787 4.661499 0.152403 -0.035803 -0.044259
    42 1.554961 -2.005421 -0.062502 -0.583859 0.091275 -1.371645
    43 2.676086 -1.712442 0.000000 -1.570796 0.000000 -1.570796
  time 3
    0 -0.197667 0.683620 26.015753 1.822989 -0.071623 0.049311
    1 3.890452 -0.000004 -0.000003 -2.243092 -1.457030 -1.266000
    2 17.848173 0.000000 0.000000 0.000000 0.000000 1.475436
    3 15.642404 0.000000 0.000000 0.188235 0.255905 -1.145866
    4 7.109923 -0.000001 0.000001 -0.007119 -0.003131 -0.631738
    5 -3.890452 0.000004 0.000007 -1.116594 -0.786672 -1.544730
    6 17.848169 0.000000 0.000000 0.000000 0.000000 1.683065
    7 15.642414 0.000000 0.000000 -0.153979 0.069824 -1.943618
    8 7.109928 0.000000 0.000000 -0.080806 -0.003562 -0.739969
    9 0.000005 3.345128 -2.981901 1.566410 -0.113019 1.562867
    10 4.018331 0.000000 0.000000 -0.041483 -0.054566 0.350205
    11 3.518565 0.000000 0.000000 -0.017035 -0.049964 0.214501
    12 8.942642 0.000000 0.000000 0.029782 -0.010247 0.165465
    13 3.307271 0.000000 0.000000 3.141590 0.000000 0.400478
    14 3.593713 -0.000002 0.000000 0.008408 -0.067043 1.323522
    15 2.033346 1.000767 1.101697 1.848121 -1.411838 2.688434
    16 6.805510 -0.000001 0.000000 -1.730010 -0.771250 -0.219733
    17 12.387892 0.000000 0.000003 0.000000 0.000000 -1.492480
    18 9.337075 0.000000 -0.000028 -1.020652 0.246850 0.076896
    19 4.450115 -0.066306 0.568166 0.096281 -0.007823 -0.804076
    20 1.426598 0.000002 0.000000 0.023861 -0.079611 -1.125914
    21 1.322465 0.000001 0.000000 0.009312 -0.033625 -0.575064
    22 4.473159 -0.028570 1.578568 0.476656 -0.055406 -1.136065
    23 1.344418 0.000003 0.000000 0.023454 -0.208305 -0.755705
    24 1.224670 0.000002 0.000000 0.026030 -0.124608 -0.538675
    25 2.626417 -0.345018 1.903308 -0.354081 -0.915135 -1.788176
    26 1.059294 0.000000 0.000001 0.000551 0.000015 0.000038
    27 0.781205 0.000000 0.000001 -0.000455 0.006951 -0.135927
    28 2.033353 1.000771 -1.101647 -2.221209 1.324319 2.397438
    29 6.805509 0.000004 0.000000 1.416659 0.858393 -0.525741
    30 12.391785 0.000000 0.000000 0.000000 0.000000 -1.631083
    31 9.341006 0.000000 0.000004 -1.016599 -0.285713 0.068835
    32 4.450079 -0.073766 -0.571672 -0.386561 0.126208 -1.146667
    33 1.426600 0.000003 0.000000 -0.051390 0.078806 -1.521708
    34 1.322464 -0.000002 0.000000 -0.034695 0.051519 -1.200245
    35 4.477035 -0.043465 -1.577382 -0.083026 0.164909 0.067453
    36 1.344415 0.000000 0.000000 0.024520 0.136363 -0.478014
    37 1.224668 0.000000 0.000000 -0.166382 0.224946 -1.318138
    38 2.630290 -0.359833 -1.900382 1.070449 0.381371 -0.978459
    39 1.063198 0.000000 0.000002 0.002198 0.017473 0.317165
    40 0.781205 0.000000 0.000000 0.006460 0.026000 0.488017
    41 -0.044717 2.528787 4.661499 0.152443 -0.036036 -0.044942
    42 1.554961 -2.005421 -0.062502 -0.583859 0.091275 -1.371645
    43 2.676086 -1.712442 0.000000 -1.570796 0.000000 -1.570796
  time 4
    0 -0.060944 0.636743 26.351701 1.826526 -0.063896 0.052036
    1 3.890452 -0.000004 -0.000003 -2.044307 -1.429954 -1.560487
    2 17.848173 0.000000 0.000000 0.000000 0.000000 1.266624
    3 15.642404 0.000000 0.000000 0.166270 0.338282 -1.127196
    4 7.109923 -0.000001 0.000001 -0.007119 -0.003131 -0.631738
    5 -3.890452 0.000004 0.000007 -1.056580 -0.700458 -1.515573
    6 17.848169 0.000000 0.000000 0.000000 0.000000 1.684626
    7 15.642414 0.000000 0.000000 -0.032253 -0.011616 -1.774079
    8 7.109928 0.000000 0.000000 -0.079943 -0.004317 -0.956368
    9 0.000005 3.345128 -2.981901 1.566458 -0.113019 1.563170
    10 4.018331 0.000000 0.000000 -0.037592 -0.057574 0.351979
    11 3.518565 0.000000 0.000000 -0.013092 -0.052648 0.216035
    12 8.942642 0.000000 0.000000 0.027972 -0.009731 0.164794
    13 3.307271 0.000000 0.000000 3.141590 0.000000 0.400478
    14 3.593713 -0.000002 0.000000 0.001386 -0.069799 1.323121
    15 2.033346 1.000767 1.101697 1.848121 -1.411838 2.688434
    16 6.805510 -0.000001 0.000000 -1.737390 -0.784817 -0.206888
    17 12.387892 0.000000 0.000003 0.000000 0.000000 -1.479803
    18 9.337075 0.000000 -0.000028 -1.023869 0.250131 0.071581
    19 4.450115 -0.066306 0.568166 0.096281 -0.007823 -0.804076
    20 1.426598 0.000002 0.000000 0.023849 -0.079611 -1.125914
    21 1.322465 0.000001 0.000000 0.009300 -0.033625 -0.575064
    22 4.473159 -0.032476 1.578568 0.476656 -0.055406 -1.136065
    23 1.344418 0.000003 0.000000 0.023454 -0.208305 -0.755705
    24 1.224670 0.000002 0.000000 0.026030 -0.124608 -0.538675
    25 2.626417 -0.345018 1.903308 -0.354081 -0.915135 -1.788176
    26 1.059294 0.000000 0.000001 0.000551 0.000015 0.000038
    27 0.781205 0.000000 0.000001 -0.000455 0.006951 -0.135927
    28 2.033353 1.000771 -1.101647 -2.221209 1.324319 2.397438
    29 6.805509 0.000004 0.000000 1.425852 0.856534 -0.524785
    30 12.391785 0.000000 0.000000 0.000000 0.000000 -1.631083
    31 9.337099 0.000000 0.000004 -1.016599 -0.285713 0.068835
    32 4.450079 -0.073766 -0.567766 -0.386561 0.126208 -1.146667
    33 1.426600 0.000003 0.000000 -0.051390 0.078806 -1.521708
    34 1.322464 -0.000002 0.000000 -0.034695 0.051507 -1.200245
    35 4.477035 -0.043465 -1.577382 -0.083026 0.164909 0.067453
    36 1.344415 0.000000 0.000000 0.024520 0.136363 -0.478014
    37 1.220761 0.000000 0.000000 -0.166394 0.224946 -1.318138
    38 2.630290 -0.359833 -1.900382 1.070449 0.381371 -0.978459
    39 1.063198 0.000000 0.000002 0.002198 0.017473 0.317165
    40 0.781205 0.000000 0.000000 0.006460 0.026000 0.488017
    41 -0.044717 2.528787 4.661499 0.152443 -0.035990 -0.044667
    42 1.554961 -2.005421 -0.062502 -0.583859 0.091275 -1.371645
    43 2.676086 -1.712442 0.000000 -1.570796 0.000000 -1.570796
  time 5
    0 0.021089 0.410174 26.644679 1.824298 -0.052217 0.058926
    1 3.890452 -0.000004 -0.000003 -1.865468 -1.398090 -1.790118
    2 17.848173 0.000000 0.000000 0.000000 0.000000 1.122197
    3 15.642404 0.000000 0.000000 0.165651 0.346395 -1.107934
    4 7.109923 -0.000001 0.000001 -0.007119 -0.003131 -0.631738
    5 -3.890452 0.000004 0.000007 -1.016285 -0.654148 -1.506595
    6 17.848169 0.000000 0.000000 0.000000 0.000000 1.711080
    7 15.642414 0.000000 0.000000 0.057449 -0.082931 -1.615907
    8 7.109928 0.000000 0.000000 -0.079463 -0.004629 -1.064597
    9 0.000005 3.345128 -2.981901 1.566781 -0.113019 1.564271
    10 4.018331 0.000000 0.000000 -0.034991 -0.058976 0.354812
    11 3.518565 0.000000 0.000000 -0.010859 -0.053823 0.218492
    12 8.942642 0.000000 0.000000 0.026114 -0.008881 0.163607
    13 3.307271 0.000000 0.000000 3.141590 0.000000 0.400478
    14 3.593713 -0.000002 0.000000 -0.004943 -0.073407 1.318522
    15 2.033346 1.000767 1.101697 1.848121 -1.411838 2.688434
    16 6.805510 -0.000001 0.000000 -1.742817 -0.793923 -0.200393
    17 12.387892 0.000000 0.000003 0.000000 0.000000 -1.471401
    18 9.337075 0.000000 -0.000028 -1.024754 0.250987 0.067205
    19 4.450115 -0.070212 0.568166 0.096281 -0.007823 -0.804076
    20 1.426598 0.000002 0.000000 0.023849 -0.079611 -1.125914
    21 1.322465 0.000001 0.000000 0.009300 -0.033625 -0.575064
    22 4.473159 -0.032476 1.578568 0.476656 -0.055406 -1.136065
    23 1.344418 0.000003 0.000000 0.023454 -0.208305 -0.755705
    24 1.224670 0.000002 0.000000 0.026030 -0.124608 -0.538675
    25 2.626417 -0.345018 1.903308 -0.354081 -0.915135 -1.788176
    26 1.059294 0.000000 0.000001 0.000551 0.000015 0.000038
    27 0.781205 0.000000 0.000001 -0.000455 0.006951 -0.135927
    28 2.033353 1.000771 -1.101647 -2.221209 1.324319 2.397438
    29 6.805509 0.000004 0.000000 1.434470 0.856438 -0.519908
    30 12.391785 0.000000 0.000000 0.000000 0.000000 -1.631083
    31 9.337099 0.000000 0.000004 -1.016599 -0.285713 0.068835
    32 4.450079 -0.073766 -0.571672 -0.386561 0.126208 -1.146667
    33 1.426600 0.000003 0.000000 -0.051390 0.078806 -1.521708
    34 1.322464 -0.000002 0.000000 -0.034695 0.051507 -1.200245
    35 4.477035 -0.043465 -1.577382 -0.083026 0.164909 0.067453
    36 1.344415 0.000000 0.000000 0.024520 0.136363 -0.478014
    37 1.224668 0.000000 0.000000 -0.166382 0.224946 -1.318138
    38 2.630290 -0.359833 -1.900382 1.070449 0.381371 -0.978459
    39 1.063198 0.000000 0.000002 0.002198 0.017473 0.317165
    40 0.781205 0.000000 0.000000 0.006460 0.026000 0.488017
    41 -0.044717 2.528787 4.661499 0.152403 -0.035678 -0.043480
    42 1.554961 -2.005421 -0.062502 -0.583859 0.091275 -1.371645
    43 2.676086 -1.712442 0.000000 -1.570796 0.000000 -1.570796
  time 6
    0 0.095310 0.089851 26.804840 1.815595 -0.041400 0.069449
    1 3.890452 -0.000004 -0.000003 -1.638643 -1.373639 -2.006760
    2 17.848173 0.000000 0.000000 0.000000 0.000000 1.083481
    3 15.642404 0.000000 0.000000 0.220859 0.192851 -1.067772
    4 7.109923 -0.000001 0.000001 -0.007119 -0.003131 -0.631738
    5 -3.890452 0.000004 0.000007 -1.005330 -0.651214 -1.522773
    6 17.848169 0.000000 0.000000 0.000000 0.000000 1.773683
    7 15.642414 0.000000 0.000000 0.123108 -0.135916 -1.464417
    8 7.109928 0.000000 0.000000 -0.079392 -0.004665 -1.078386
    9 0.000005 3.345128 -2.981901 1.567237 -0.113002 1.564615
    10 4.018331 0.000000 0.000000 -0.033924 -0.058425 0.358995
    11 3.518565 0.000000 0.000000 -0.010643 -0.053224 0.222171
    12 8.942642 0.000000 0.000000 0.024113 -0.007802 0.162025
    13 3.307271 0.000000 0.000000 3.141590 0.000000 0.400478
    14 3.593713 -0.000002 0.000000 -0.009794 -0.077350 1.310785
    15 2.033346 1.000767 1.101697 1.848121 -1.411838 2.688434
    16 6.805510 -0.000001 0.000000 -1.746769 -0.797383 -0.200201
    17 12.387892 0.000000 0.000003 0.000000 0.000000 -1.469190
    18 9.337075 0.000000 -0.000028 -1.022824 0.249169 0.065325
    19 4.450115 -0.070212 0.568166 0.096281 -0.007823 -0.804076
    20 1.426598 0.000002 0.000000 0.023861 -0.079611 -1.125914
    21 1.322465 0.000001 0.000000 0.009300 -0.033625 -0.575064
    22 4.473159 -0.032476 1.578568 0.476656 -0.055406 -1.136065
    23 1.344418 0.000003 0.000000 0.023454 -0.208305 -0.755705
    24 1.224670 0.000002 0.000000 0.026030 -0.124608 -0.538675
    25 2.626417 -0.345018 1.903308 -0.354081 -0.915135 -1.788176
    26 1.059294 0.000000 0.000001 0.000551 0.000015 0.000038
    27 0.781205 0.000000 0.000001 -0.000455 0.006951 -0.135927
    28 2.033353 1.000771 -1.101647 -2.221209 1.324319 2.397438
    29 6.805509 0.000004 0.000000 1.442513 0.858727 -0.510345
    30 12.391785 0.000000 0.000000 0.000000 0.000000 -1.631083
    31 9.341006 0.000000 0.000004 -1.016461 -0.285713 0.068644
    32 4.450079 -0.073766 -0.571672 -0.386561 0.126196 -1.146667
    33 1.426600 0.000003 0.000000 -0.051378 0.078806 -1.521708
    34 1.322464 -0.000002 0.000000 -0.034695 0.051519 -1.200245
    35 4.477035 -0.043465 -1.577382 -0.083026 0.164909 0.067453
    36 1.344415 0.000000 0.000000 0.024520 0.136363 -0.478014
    37 1.224668 0.000000 0.000000 -0.166382 0.224946 -1.318138
    38 2.630290 -0.359833 -1.900382 1.070449 0.381371 -0.978459
    39 1.063198 0.000000 0.000002 0.002198 0.017473 0.317165
    40 0.781205 0.000000 0.000000 0.006460 0.026000 0.488017
    41 -0.044717 2.528787 4.661499 0.152403 -0.035241 -0.043133
    42 1.554961 -2.005421 -0.062502 -0.583859 0.091275 -1.371645
    43 2.676086 -1.712442 0.000000 -1.570796 0.000000 -1.570796
  time 7
    0 0.212502 -0.195313 26.554832 1.801887 -0.040645 0.081109
    1 3.890452 -0.000004 -0.000003 -1.410734 -1.335650 -2.188157
    2 17.848173 0.000000 0.000000 0.000000 0.000000 1.102451
    3 15.642404 0.000000 0.000000 0.277510 -0.052246 -1.030710
    4 7.109923 -0.000001 0.000001 -0.007119 -0.003131 -0.631738
    5 -3.890452 0.000004 0.000007 -1.005425 -0.671949 -1.564820
    6 17.848169 0.000000 0.000000 0.000000 0.000000 1.860933
    7 15.642414 0.000000 0.000000 0.173746 -0.193394 -1.307860
    8 7.109928 0.000000 0.000000 -0.079236 -0.004737 -1.111701
    9 0.031256 3.345128 -2.981901 1.567608 -0.113002 1.556328
    10 4.018331 0.000000 0.000000 -0.034191 -0.055441 0.364556
    11 3.518565 0.000000 0.000000 -0.012433 -0.050455 0.227097
    12 8.942642 0.000000 0.000000 0.021776 -0.006687 0.159964
    13 3.307271 0.000000 0.000000 3.141590 0.000000 0.400478
    14 3.593713 -0.000002 0.000000 -0.012242 -0.081292 1.302062
    15 2.033346 1.000767 1.101697 1.848121 -1.411838 2.688434
    16 6.805510 -0.000001 0.000000 -1.748387 -0.795744 -0.207994
    17 12.387892 0.000000 0.000003 0.000000 0.000000 -1.474570
    18 9.337075 0.000000 -0.000028 -1.017194 0.244426 0.067983
    19 4.450115 -0.070212 0.568166 0.096281 -0.007823 -0.804076
    20 1.426598 0.000002 0.000000 0.023849 -0.079611 -1.125914
    21 1.322465 0.000001 0.000000 0.009300 -0.033625 -0.575064
    22 4.473159 -0.028570 1.578568 0.476656 -0.055406 -1.136065
    23 1.344418 0.000003 0.000000 0.023454 -0.208305 -0.755705
    24 1.224670 0.000002 0.000000 0.026030 -0.124608 -0.538675
    25 2.626417 -0.345018 1.903308 -0.354081 -0.915135 -1.788176
    26 1.059294 0.000000 0.000001 0.000551 0.000015 0.000038
    27 0.781205 0.000000 0.000001 -0.000455 0.006951 -0.135927
    28 2.033353 1.000771 -1.101647 -2.221209 1.324319 2.397438
    29 6.805509 0.000004 0.000000 1.451514 0.862351 -0.494088
    30 12.391785 0.000000 0.000000 0.000000 0.000000 -1.631562
    31 9.337099 0.000000 0.000004 -1.015149 -0.285757 0.066590
    32 4.450079 -0.073766 -0.571672 -0.386561 0.126208 -1.146667
    33 1.426600 0.000003 0.000000 -0.051390 0.078806 -1.521708
    34 1.322464 -0.000002 0.000000 -0.034695 0.051507 -1.200245
    35 4.477035 -0.043465 -1.577382 -0.083026 0.164909 0.067453
    36 1.344415 0.000000 0.000000 0.024520 0.136363 -0.478014
    37 1.224668 0.000000 0.000000 -0.166382 0.224946 -1.318138
    38 2.630290 -0.359833 -1.900382 1.070449 0.381371 -0.978459
    39 1.063198 0.000000 0.000002 0.002198 0.017473 0.317165
    40 0.781205 0.000000 0.000000 0.006460 0.026000 0.488017
    41 -0.044717 2.528787 4.661499 0.152362 -0.034820 -0.051378
    42 1.554961 -2.005421 -0.062502 -0.583859 0.091275 -1.371645
    43 2.676086 -1.712442 0.000000 -1.570796 0.000000 -1.570796
  time 8
    0 0.380475 -0.371100 26.113412 1.785897 -0.040214 0.096326
    1 3.890452 -0.000004 -0.000003 -1.252507 -1.301299 -2.287258
    2 17.848173 0.000000 0.000000 0.000000 0.000000 1.154777
    3 15.642404 0.000000 0.000000 0.291643 -0.258143 -1.017578
    4 7.109923 -0.000001 0.000001 -0.007119 -0.003131 -0.631738
    5 -3.890452 0.000004 0.000007 -1.006759 -0.710043 -1.618068
    6 17.848169 0.000000 0.000000 0.000000 0.000000 1.945719
    7 15.642414 0.000000 0.000000 0.207134 -0.245472 -1.185250
    8 7.109928 0.000000 0.000000 -0.079080 -0.004809 -1.145045
    9 0.058601 3.345128 -2.981901 1.567848 -0.113002 1.550381
    10 4.018331 0.000000 0.000000 -0.035325 -0.049496 0.371175
    11 3.518565 0.000000 0.000000 -0.015877 -0.045098 0.232898
    12 8.942642 0.000000 0.000000 0.018804 -0.005860 0.157279
    13 3.307271 0.000000 0.000000 3.141590 0.000000 0.400478
    14 3.593713 -0.000002 0.000000 -0.011872 -0.084732 1.294762
    15 2.033346 1.000767 1.101697 1.848121 -1.411838 2.688434
    16 6.805510 -0.000001 0.000000 -1.748006 -0.786957 -0.222860
    17 12.387892 0.000000 0.000003 0.000000 0.000000 -1.486510
    18 9.337075 0.000000 -0.000028 -1.009233 0.237153 0.072132
    19 4.450115 -0.070212 0.568166 0.096281 -0.007823 -0.804076
    20 1.426598 0.000002 0.000000 0.023861 -0.079611 -1.125914
    21 1.322465 0.000001 0.000000 0.009312 -0.033625 -0.575064
    22 4.473159 -0.028570 1.578568 0.476656 -0.055406 -1.136065
    23 1.344418 0.000003 0.000000 0.023454 -0.208305 -0.755705
    24 1.220763 0.000002 0.000000 0.026030 -0.124608 -0.538675
    25 2.626417 -0.345018 1.903308 -0.354081 -0.915135 -1.788176
    26 1.059294 0.000000 0.000001 0.000551 0.000015 0.000038
    27 0.781205 0.000000 0.000001 -0.000455 0.006951 -0.135927
    28 2.033353 1.000771 -1.101647 -2.221209 1.324319 2.397438
    29 6.805509 0.000004 0.000000 1.458312 0.869027 -0.474676
    30 12.391785 0.000000 0.000000 0.000000 0.000000 -1.631836
    31 9.341006 0.000000 0.000004 -1.014183 -0.285845 0.065158
    32 4.450079 -0.073766 -0.571672 -0.386561 0.126208 -1.146667
    33 1.426600 0.000003 0.000000 -0.051390 0.078806 -1.521708
    34 1.322464 -0.000002 0.000000 -0.034695 0.051507 -1.200245
    35 4.477035 -0.043465 -1.581289 -0.083026 0.164909 0.067453
    36 1.344415 0.000000 0.000000 0.024520 0.136363 -0.478014
    37 1.224668 0.000000 0.000000 -0.166394 0.224946 -1.318138
    38 2.630290 -0.359833 -1.900382 1.070449 0.381371 -0.978459
    39 1.063198 0.000000 0.000002 0.002198 0.017473 0.317165
    40 0.781205 0.000000 0.000000 0.006460 0.026000 0.488017
    41 -0.044717 2.528787 4.661499 0.152362 -0.034602 -0.057238
    42 1.554961 -2.005421 -0.062502 -0.583859 0.091275 -1.371645
    43 2.676086 -1.712442 0.000000 -1.570796 0.000000 -1.570796
  time 9
    0 0.564075 -0.394538 25.859498 1.771641 -0.040932 0.113437
    1 3.890452 -0.000004 -0.000003 -1.188833 -1.316955 -2.259372
    2 17.848173 0.000000 0.000000 0.000000 0.000000 1.363237
    3 15.642404 0.000000 0.000000 0.207227 -0.221600 -1.174778
    4 7.109923 -0.000001 0.000001 -0.007119 -0.003131 -0.631738
    5 -3.890452 0.000004 0.000007 -0.996947 -0.760021 -1.685005
    6 17.848169 0.000000 0.000000 0.000000 0.000000 2.006597
    7 15.642414 0.000000 0.000000 0.234324 -0.274180 -1.139777
    8 7.109928 0.000000 0.000000 -0.078996 -0.004845 -1.158804
    9 0.074226 3.345128 -2.981901 1.567800 -0.113002 1.544448
    10 4.018331 0.000000 0.000000 -0.036637 -0.040352 0.378297
    11 3.518565 0.000000 0.000000 -0.020412 -0.036948 0.238938
    12 8.942642 0.000000 0.000000 0.015005 -0.005717 0.153768
    13 3.307271 0.000000 0.000000 3.141590 0.000000 0.400478
    14 3.593713 -0.000002 0.000000 -0.008546 -0.087093 1.291331
    15 2.033346 1.000767 1.101697 1.848121 -1.411838 2.688434
    16 6.805510 -0.000001 0.000000 -1.743960 -0.772433 -0.245905
    17 12.387892 0.000000 0.000003 0.000000 0.000000 -1.503166
    18 9.337075 0.000000 -0.000028 -0.998778 0.227519 0.076896
    19 4.450115 -0.066306 0.568166 0.096281 -0.007823 -0.804076
    20 1.426598 0.000002 0.000000 0.023849 -0.079611 -1.125914
    21 1.322465 0.000001 0.000000 0.009300 -0.033625 -0.575064
    22 4.473159 -0.028570 1.578568 0.476656 -0.055406 -1.136065
    23 1.344418 0.000003 0.000000 0.023454 -0.208293 -0.755705
    24 1.224670 0.000002 0.000000 0.026030 -0.124608 -0.538675
    25 2.626417 -0.345018 1.903308 -0.354081 -0.915135 -1.788176
    26 1.059294 0.000000 0.000001 0.000551 0.000015 0.000038
    27 0.781205 0.000000 0.000001 -0.000455 0.006951 -0.135927
    28 2.033353 1.000771 -1.101647 -2.221209 1.324319 2.397438
    29 6.805509 0.000004 0.000000 1.462813 0.876942 -0.452587
    30 12.391785 0.000000 0.000000 0.000000 0.000000 -1.632041
    31 9.341006 0.000000 0.000004 -1.013492 -0.285845 0.063916
    32 4.450079 -0.073766 -0.571672 -0.386561 0.126208 -1.146667
    33 1.426600 0.000003 0.000000 -0.051390 0.078806 -1.521708
    34 1.322464 -0.000002 0.000000 -0.034695 0.051519 -1.200245
    35 4.477035 -0.043465 -1.577382 -0.083026 0.164909 0.067453
    36 1.344415 0.000000 0.000000 0.024520 0.136363 -0.478014
    37 1.224668 0.000000 0.000000 -0.166382 0.224946 -1.318138
    38 2.630290 -0.359833 -1.900382 1.070449 0.381371 -0.978459
    39 1.063198 0.000000 0.000002 0.002198 0.017473 0.317165
    40 0.781205 0.000000 0.000000 0.006460 0.026000 0.488017
    41 -0.044717 2.528787 4.661499 0.152362 -0.034649 -0.063231
    42 1.554961 -2.005421 -0.062502 -0.583859 0.091275 -1.371645
    43 2.676086 -1.712442 0.000000 -1.570796 0.000000 -1.570796
  time 10
    0 0.704704 -0.281254 25.711056 1.763275 -0.035757 0.131304
    1 3.890452 -0.000004 -0.000003 -1.201768 -1.310370 -2.153731
    2 17.848173 0.000000 0.000000 0.000000 0.000000 1.517396
    3 15.642404 0.000000 0.000000 0.135235 -0.172322 -1.317766
    4 7.109923 -0.000001 0.000001 -0.007119 -0.003131 -0.631738
    5 -3.890452 0.000004 0.000007 -0.952746 -0.856797 -1.798523
    6 17.848169 0.000000 0.000000 0.000000 0.000000 2.014976
    7 15.642414 0.000000 0.000000 0.282980 -0.186518 -1.377905
    8 7.109928 0.000000 0.000000 -0.079451 -0.004641 -1.067788
    9 0.070320 3.345128 -2.981901 1.567476 -0.113002 1.544489
    10 4.018331 0.000000 0.000000 -0.037481 -0.028188 0.385154
    11 3.518565 0.000000 0.000000 -0.025310 -0.026246 0.244427
    12 8.942642 0.000000 0.000000 0.010427 -0.006651 0.149417
    13 3.307271 0.000000 0.000000 3.141590 0.000000 0.400478
    14 3.593713 -0.000002 0.000000 -0.002264 -0.087800 1.293302
    15 2.033346 1.000767 1.101697 1.848121 -1.411838 2.688434
    16 6.805510 -0.000001 0.000000 -1.736104 -0.753038 -0.275444
    17 12.387892 0.000000 0.000003 0.000000 0.000000 -1.521150
    18 9.337075 0.000000 -0.000028 -0.987278 0.216360 0.079198
    19 4.450115 -0.070212 0.568166 0.096281 -0.007823 -0.804076
    20 1.426598 0.000002 0.000000 0.023849 -0.079611 -1.125914
    21 1.322465 0.000001 0.000000 0.009300 -0.033625 -0.575064
    22 4.473159 -0.028570 1.578568 0.476656 -0.055406 -1.136065
    23 1.344418 0.000003 0.000000 0.023454 -0.208305 -0.755705
    24 1.224670 0.000002 0.000000 0.026030 -0.124608 -0.538675
    25 2.626417 -0.345018 1.903308 -0.354081 -0.915135 -1.788176
    26 1.059294 0.000000 0.000001 0.000551 0.000015 0.000038
    27 0.781205 0.000000 0.000001 -0.000455 0.006951 -0.135927
    28 2.033353 1.000771 -1.101647 -2.221209 1.324319 2.397438
    29 6.805509 0.000004 0.000000 1.463292 0.885764 -0.430879
    30 12.391785 0.000000 0.000000 0.000000 0.000000 -1.632041
    31 9.341006 0.000000 0.000004 -1.013561 -0.285845 0.064107
    32 4.450079 -0.073766 -0.567766 -0.386561 0.126208 -1.146667
    33 1.426600 0.000003 0.000000 -0.051390 0.078806 -1.521708
    34 1.322464 -0.000002 0.000000 -0.034695 0.051507 -1.200245
    35 4.477035 -0.043465 -1.577382 -0.083026 0.164909 0.067453
    36 1.344415 0.000000 0.000000 0.024520 0.136363 -0.478014
    37 1.220761 0.000000 0.000000 -0.166382 0.224946 -1.318138
    38 2.630290 -0.359833 -1.900382 1.070449 0.381371 -0.978459
    39 1.063198 0.000000 0.000002 0.002184 0.017473 0.317165
    40 0.781205 0.000000 0.000000 0.006460 0.026000 0.488017
    41 -0.044717 2.528787 4.661499 0.152403 -0.034961 -0.063231
    42 1.554961 -2.005421 -0.062502 -0.583859 0.091275 -1.371645
    43 2.676086 -1.712442 0.000000 -1.570796 0.000000 -1.570796
  time 11
    0 0.782831 -0.074216 25.773558 1.763929 -0.021419 0.148111
    1 3.890452 -0.000004 -0.000003 -1.319853 -1.288406 -1.939451
    2 17.848173 0.000000 0.000000 0.000000 0.000000 1.622895
    3 15.642404 0.000000 0.000000 0.078084 -0.103674 -1.450652
    4 7.109923 -0.000001 0.000001 -0.007119 -0.003131 -0.631738
    5 -3.890452 0.000004 0.000007 -0.866536 -0.973916 -1.960398
    6 17.848169 0.000000 0.000000 0.000000 0.000000 1.954099
    7 15.642414 0.000000 0.000000 0.268455 -0.038003 -1.637598
    8 7.109928 0.000000 0.000000 -0.079859 -0.004377 -0.976744
    9 0.039069 3.345128 -2.981901 1.567009 -0.113002 1.552818
    10 4.018331 0.000000 0.000000 -0.037459 -0.013758 0.391111
    11 3.518565 0.000000 0.000000 -0.029911 -0.013710 0.248801
    12 8.942642 0.000000 0.000000 0.005237 -0.008964 0.144480
    13 3.307271 0.000000 0.000000 3.141590 0.000000 0.400478
    14 3.593713 -0.000002 0.000000 0.006929 -0.086254 1.300346
    15 2.033346 1.000767 1.101697 1.848121 -1.411838 2.688434
    16 6.805510 -0.000001 0.000000 -1.724821 -0.730957 -0.309024
    17 12.387892 0.000000 0.000003 0.000000 0.000000 -1.537069
    18 9.337075 0.000000 -0.000028 -0.975859 0.204511 0.076961
    19 4.450115 -0.066306 0.568166 0.096281 -0.007823 -0.804076
    20 1.430505 0.000002 0.000000 0.023861 -0.079611 -1.125914
    21 1.322465 0.000001 0.000000 0.009300 -0.033625 -0.575064
    22 4.473159 -0.028570 1.578568 0.476656 -0.055406 -1.136065
    23 1.344418 0.000003 0.000000 0.023454 -0.208305 -0.755705
    24 1.224670 0.000002 0.000000 0.026030 -0.124608 -0.538675
    25 2.626417 -0.345018 1.903308 -0.354081 -0.915135 -1.788176
    26 1.059294 0.000000 0.000001 0.000551 0.000015 0.000038
    27 0.781205 0.000000 0.000001 -0.000455 0.006951 -0.135927
    28 2.033353 1.000771 -1.101647 -2.221209 1.324319 2.397438
    29 6.805509 0.000004 0.000000 1.459557 0.894442 -0.411563
    30 12.391785 0.000000 0.000000 0.000000 0.000000 -1.631630
    31 9.337099 0.000000 0.000004 -1.014873 -0.285801 0.066208
    32 4.450079 -0.073766 -0.567766 -0.386561 0.126208 -1.146667
    33 1.426600 0.000003 0.000000 -0.051390 0.078806 -1.521708
    34 1.322464 -0.000002 0.000000 -0.034695 0.051519 -1.200245
    35 4.477035 -0.043465 -1.577382 -0.083026 0.164909 0.067453
    36 1.344415 0.000000 0.000000 0.024520 0.136363 -0.478014
    37 1.224668 0.000000 0.000000 -0.166394 0.224946 -1.318138
    38 2.630290 -0.359833 -1.900382 1.070449 0.381371 -0.978459
    39 1.063198 0.000000 0.000002 0.002184 0.017473 0.317165
    40 0.781205 0.000000 0.000000 0.006460 0.026000 0.488017
    41 -0.044717 2.528787 4.661499 0.152403 -0.035460 -0.054925
    42 1.554961 -2.005421 -0.062502 -0.583859 0.091275 -1.371645
    43 2.676086 -1.712442 0.000000 -1.570796 0.000000 -1.570796
  time 12
    0 0.802363 0.164073 26.062630 1.773976 -0.006325 0.159771
    1 3.890452 -0.000004 -0.000003 -1.497107 -1.241116 -1.667854
    2 17.848173 0.000000 0.000000 0.000000 0.000000 1.676844
    3 15.642404 0.000000 0.000000 0.026969 -0.018940 -1.569467
    4 7.109923 -0.000001 0.000001 -0.007119 -0.003131 -0.631738
    5 -3.890452 0.000004 0.000007 -0.745460 -1.067612 -2.160143
    6 17.848169 0.000000 0.000000 0.000000 0.000000 1.835547
    7 15.642414 0.000000 0.000000 0.210083 0.043859 -1.646021
    8 7.109928 0.000000 0.000000 -0.080230 -0.004102 -0.890471
    9 0.007818 3.345128 -2.981901 1.566458 -0.113019 1.561063
    10 4.018331 0.000000 0.000000 -0.036459 0.001762 0.395983
    11 3.518565 0.000000 0.000000 -0.033719 -0.000395 0.251917
    12 8.942642 0.000000 0.000000 -0.000144 -0.012728 0.139302
    13 3.307271 0.000000 0.000000 3.141590 0.000000 0.400478
    14 3.593713 -0.000002 0.000000 0.018802 -0.082227 1.309982
    15 2.033346 1.000767 1.101697 1.848121 -1.411838 2.688434
    16 6.805510 -0.000001 0.000000 -1.710919 -0.710379 -0.344481
    17 12.387892 0.000000 0.000003 0.000000 0.000000 -1.548567
    18 9.337075 0.000000 -0.000028 -0.964279 0.192934 0.071451
    19 4.450115 -0.066306 0.568166 0.096281 -0.007823 -0.804076
    20 1.426598 0.000002 0.000000 0.023849 -0.079611 -1.125914
    21 1.322465 0.000001 0.000000 0.009300 -0.033625 -0.575064
    22 4.473159 -0.028570 1.578568 0.476656 -0.055406 -1.136065
    23 1.344418 0.000003 0.000000 0.023454 -0.208305 -0.755705
    24 1.224670 0.000002 0.000000 0.026030 -0.124608 -0.538675
    25 2.626417 -0.345018 1.903308 -0.354081 -0.915135 -1.788176
    26 1.059294 0.000000 0.000001 0.000551 0.000015 0.000038
    27 0.781205 0.000000 0.000001 -0.000455 0.006951 -0.135927
    28 2.033353 1.000771 -1.101647 -2.221209 1.324319 2.397438
    29 6.805509 0.000004 0.000000 1.454291 0.900784 -0.393968
    30 12.391785 0.000000 0.000000 0.000000 0.000000 -1.631151
    31 9.341006 0.000000 0.000004 -1.016254 -0.285713 0.068309
    32 4.450079 -0.073766 -0.567766 -0.386561 0.126208 -1.146667
    33 1.426600 0.000003 0.000000 -0.051390 0.078806 -1.521708
    34 1.322464 -0.000002 0.000000 -0.034695 0.051507 -1.200245
    35 4.477035 -0.043465 -1.581289 -0.083026 0.164909 0.067453
    36 1.344415 0.000000 0.000000 0.024520 0.136363 -0.478014
    37 1.224668 0.000000 0.000000 -0.166382 0.224946 -1.318138
    38 2.630290 -0.359833 -1.900382 1.070449 0.381371 -0.978459
    39 1.063198 0.000000 0.000002 0.002184 0.017473 0.317165
    40 0.781205 0.000000 0.000000 0.006460 0.026000 0.488017
    41 -0.044717 2.528787 4.661499 0.152443 -0.036005 -0.046740
    42 1.554961 -2.005421 -0.062502 -0.583859 0.091275 -1.371645
    43 2.676086 -1.712442 0.000000 -1.570796 0.000000 -1.570796
  time 13
    0 0.747674 0.367204 26.214978 1.789152 0.001581 0.164086
    1 3.890452 -0.000004 -0.000003 -1.649575 -1.170664 -1.426142
    2 17.848173 0.000000 0.000000 0.000000 0.000000 1.703148
    3 15.642404 0.000000 0.000000 -0.032126 0.070533 -1.682150
    4 7.109923 -0.000001 0.000001 -0.007119 -0.003131 -0.631738
    5 -3.890452 0.000004 0.000007 -0.554939 -1.140622 -2.439448
    6 17.848169 0.000000 0.000000 0.000000 0.000000 1.690295
    7 15.642414 0.000000 0.000000 0.133766 0.092541 -1.583386
    8 7.109928 0.000000 0.000000 -0.080890 -0.003466 -0.717954
    9 0.000005 3.345128 -2.981901 1.565942 -0.113019 1.562096
    10 4.018331 0.000000 0.000000 -0.034569 0.017078 0.400166
    11 3.518565 0.000000 0.000000 -0.036451 0.012488 0.254326
    12 8.942642 0.000000 0.000000 -0.005321 -0.017689 0.134233
    13 3.307271 0.000000 0.000000 3.141590 0.000000 0.400478
    14 3.593713 -0.000002 0.000000 0.032522 -0.075887 1.318705
    15 2.033346 1.000767 1.101697 1.848121 -1.411838 2.688434
    16 6.805510 -0.000001 0.000000 -1.696303 -0.695127 -0.378639
    17 12.387892 0.000000 0.000003 0.000000 0.000000 -1.555053
    18 9.337075 0.000000 -0.000028 -0.952537 0.182422 0.064839
    19 4.450115 -0.070212 0.568166 0.096281 -0.007823 -0.804076
    20 1.426598 0.000002 0.000000 0.023861 -0.079611 -1.125914
    21 1.322465 0.000001 0.000000 0.009300 -0.033625 -0.575064
    22 4.473159 -0.032476 1.578568 0.476656 -0.055406 -1.136065
    23 1.344418 0.000003 0.000000 0.023454 -0.208305 -0.755705
    24 1.224670 0.000002 0.000000 0.026030 -0.124608 -0.538675
    25 2.626417 -0.345018 1.903308 -0.354081 -0.915135 -1.788176
    26 1.059294 0.000000 0.000001 0.000551 0.000015 0.000038
    27 0.781205 0.000000 0.000001 -0.000455 0.006951 -0.135927
    28 2.033353 1.000771 -1.101647 -2.221209 1.324319 2.397438
    29 6.805509 0.000004 0.000000 1.451227 0.903550 -0.376277
    30 12.391785 0.000000 0.000000 0.000000 0.000000 -1.631083
    31 9.337099 0.000000 0.000004 -1.016599 -0.285713 0.068835
    32 4.450079 -0.073766 -0.567766 -0.386561 0.126208 -1.146667
    33 1.426600 0.000003 0.000000 -0.051378 0.078806 -1.521708
    34 1.322464 -0.000002 0.000000 -0.034695 0.051519 -1.200245
    35 4.473128 -0.043465 -1.577382 -0.083026 0.164909 0.067453
    36 1.344415 0.000000 0.000000 0.024520 0.136363 -0.478014
    37 1.224668 0.000000 0.000000 -0.166382 0.224946 -1.318138
    38 2.630290 -0.359833 -1.900382 1.070449 0.381371 -0.978459
    39 1.063198 0.000000 0.000002 0.002198 0.017473 0.317165
    40 0.781205 0.000000 0.000000 0.006460 0.026000 0.488017
    41 -0.044717 2.528787 4.661499 0.152443 -0.036535 -0.045781
    42 1.554961 -2.005421 -0.062502 -0.583859 0.091275 -1.371645
    43 2.676086 -1.712442 0.000000 -1.570796 0.000000 -1.570796
  time 14
    0 0.595326 0.433612 26.347795 1.801639 0.005355 0.162496
    1 3.890452 -0.000004 -0.000003 -1.743961 -1.064111 -1.240839
    2 17.848173 0.000000 0.000000 0.000000 0.000000 1.690525
    3 15.642404 0.000000 0.000000 -0.107503 0.156955 -1.785499
    4 7.109923 -0.000001 0.000001 -0.007119 -0.003131 -0.631738
    5 -3.890452 0.000004 0.000007 -0.328981 -1.176320 -2.740265
    6 17.848169 0.000000 0.000000 0.000000 0.000000 1.537977
    7 15.642414 0.000000 0.000000 0.065058 0.094249 -1.520561
    8 7.109928 0.000000 0.000000 -0.081165 -0.003131 -0.631740
    9 0.000005 3.345128 -2.981901 1.565475 -0.113036 1.560513
    10 4.018331 0.000000 0.000000 -0.031990 0.030800 0.404522
    11 3.518565 0.000000 0.000000 -0.037837 0.023861 0.256939
    12 8.942642 0.000000 0.000000 -0.009803 -0.023346 0.129487
    13 3.307271 0.000000 0.000000 3.141590 0.000000 0.400478
    14 3.593713 -0.000002 0.000000 0.047028 -0.068145 1.323559
    15 2.033346 1.000767 1.101697 1.848121 -1.411838 2.688434
    16 6.805510 -0.000001 0.000000 -1.684686 -0.686795 -0.406494
    17 12.387892 0.000000 0.000003 0.000000 0.000000 -1.556011
    18 9.337075 0.000000 -0.000028 -0.942405 0.173959 0.057028
    19 4.450115 -0.070212 0.568166 0.096281 -0.007823 -0.804076
    20 1.430505 0.000002 0.000000 0.023861 -0.079611 -1.125914
    21 1.322465 0.000001 0.000000 0.009312 -0.033625 -0.575064
    22 4.473159 -0.032476 1.578568 0.476656 -0.055406 -1.136065
    23 1.344418 0.000003 0.000000 0.023454 -0.208305 -0.755705
    24 1.224670 0.000002 0.000000 0.026030 -0.124608 -0.538675
    25 2.626417 -0.345018 1.903308 -0.354081 -0.915135 -1.788176
    26 1.059294 0.000000 0.000001 0.000551 0.000015 0.000038
    27 0.781205 0.000000 0.000001 -0.000455 0.006951 -0.135927
    28 2.033353 1.000771 -1.101647 -2.221209 1.324319 2.397438
    29 6.805509 0.000004 0.000000 1.452376 0.904456 -0.358490
    30 12.391785 0.000000 0.000000 0.000000 0.000000 -1.631083
    31 9.337099 0.000000 0.000004 -1.016599 -0.285713 0.068835
    32 4.450079 -0.073766 -0.567766 -0.386561 0.126208 -1.146667
    33 1.426600 0.000003 0.000000 -0.051390 0.078806 -1.521708
    34 1.322464 -0.000002 0.000000 -0.034695 0.051519 -1.200245
    35 4.477035 -0.043465 -1.577382 -0.083026 0.164909 0.067453
    36 1.344415 0.000000 0.000000 0.024520 0.136363 -0.478014
    37 1.224668 0.000000 0.000000 -0.166382 0.224946 -1.318138
    38 2.630290 -0.359833 -1.900382 1.070449 0.381371 -0.978459
    39 1.063198 0.000000 0.000002 0.002184 0.017473 0.317165
    40 0.781205 0.000000 0.000000 0.006460 0.026000 0.488017
    41 -0.044717 2.528787 4.661499 0.152483 -0.036972 -0.047411
    42 1.554961 -2.005421 -0.062502 -0.583859 0.091275 -1.371645
    43 2.676086 -1.712442 0.000000 -1.570796 0.000000 -1.570796
  time 15
    0 0.341412 0.296889 26.472798 1.842286 -0.009559 0.133802
    1 3.890452 -0.000004 -0.000003 -1.743126 -0.946599 -1.153092
    2 17.848173 0.000000 0.000000 0.000000 0.000000 1.628890
    3 15.642404 0.000000 0.000000 -0.229696 0.188482 -1.884807
    4 7.109923 -0.000001 0.000001 -0.007119 -0.003131 -0.631738
    5 -3.890452 0.000004 0.000007 -0.183614 -1.178423 -2.917253
    6 17.848169 0.000000 0.000000 0.000000 0.000000 1.372432
    7 15.642414 0.000000 0.000000 0.042230 0.017239 -1.473062
    8 7.109928 0.000000 0.000000 -0.081165 -0.003131 -0.631740
    9 0.000005 3.345128 -2.981901 1.566362 -0.113019 1.562647
    10 4.018331 0.000000 0.000000 -0.051042 0.011841 0.369004
    11 3.518565 0.000000 0.000000 -0.048318 0.010343 0.226246
    12 8.942642 0.000000 0.000000 0.009324 -0.009684 0.143161
    13 3.307271 0.000000 0.000000 3.141590 0.000000 0.400478
    14 3.593713 -0.000002 0.000000 0.041623 -0.075348 1.308887
    15 2.033346 1.000767 1.101697 1.848121 -1.411838 2.688434
    16 6.805510 -0.000001 0.000000 -1.643790 -0.640356 -0.426123
    17 12.387892 0.000000 0.000003 0.000000 0.000000 -1.581070
    18 9.337075 0.000000 -0.000028 -0.947873 0.178849 0.075114
    19 4.450115 -0.070212 0.568166 0.096281 -0.007823 -0.804076
    20 1.426598 0.000002 0.000000 0.023849 -0.079611 -1.125914
    21 1.322465 0.000001 0.000000 0.009300 -0.033625 -0.575064
    22 4.473159 -0.032476 1.578568 0.476656 -0.055406 -1.136065
    23 1.344418 0.000003 0.000000 0.023454 -0.208305 -0.755705
    24 1.224670 0.000002 0.000000 0.026030 -0.124608 -0.538675
    25 2.626417 -0.345018 1.903308 -0.354081 -0.915135 -1.788176
    26 1.059294 0.000000 0.000001 0.000551 0.000015 0.000038
    27 0.781205 0.000000 0.000001 -0.000455 0.006951 -0.135927
    28 2.033353 1.000771 -1.101647 -2.221209 1.324319 2.397438
    29 6.805509 0.000004 0.000000 1.370985 0.885812 -0.435565
    30 12.391785 0.000000 0.000000 0.000000 0.000000 -1.631083
    31 9.341006 0.000000 0.000004 -1.016599 -0.285713 0.068835
    32 4.453985 -0.073766 -0.571672 -0.386561 0.126208 -1.146667
    33 1.426600 0.000003 0.000000 -0.051390 0.078806 -1.521708
    34 1.322464 -0.000002 0.000000 -0.034695 0.051507 -1.200245
    35 4.477035 -0.043465 -1.577382 -0.083026 0.164909 0.067453
    36 1.344415 0.000000 0.000000 0.024520 0.136363 -0.478014
    37 1.224668 0.000000 0.000000 -0.166382 0.224946 -1.318138
    38 2.630290 -0.359833 -1.900382 1.070449 0.381371 -0.978459
    39 1.063198 0.000000 0.000002 0.002184 0.017473 0.317165
    40 0.781205 0.000000 0.000000 0.006460 0.026000 0.488017
    41 -0.044717 2.528787 4.661499 0.152443 -0.036099 -0.045170
    42 1.554961 -2.005421 -0.062502 -0.583859 0.091275 -1.371645
    43 2.676086 -1.712442 0.000000 -1.570796 0.000000 -1.570796
  time 16
    0 0.021089 -0.023433 26.660304 1.888593 -0.026558 0.099355
    1 3.890452 -0.000004 -0.000003 -1.710579 -0.804498 -1.109401
    2 17.848173 0.000000 0.000000 0.000000 0.000000 1.510908
    3 15.642404 0.000000 0.000000 -0.352449 0.183744 -1.957781
    4 7.109923 -0.000001 0.000001 -0.007119 -0.003131 -0.631738
    5 -3.890452 0.000004 0.000007 -0.087210 -1.169768 -3.026326
    6 17.848169 0.000000 0.000000 0.000000 0.000000 1.198342
    7 15.642414 0.000000 0.000000 0.056333 -0.093962 -1.422934
    8 7.109928 0.000000 0.000000 -0.081165 -0.003131 -0.631740
    9 0.000005 3.345128 -2.981901 1.567476 -0.113002 1.565469
    10 4.018331 0.000000 0.000000 -0.072940 -0.013902 0.326760
    11 3.518565 0.000000 0.000000 -0.059863 -0.008162 0.189717
    12 8.942642 0.000000 0.000000 0.032922 0.007047 0.160551
    13 3.307271 0.000000 0.000000 3.141590 0.000000 0.400478
    14 3.593713 -0.000002 0.000000 0.030952 -0.085295 1.290784
    15 2.033346 1.000767 1.101697 1.848121 -1.411838 2.688434
    16 6.805510 -0.000001 0.000000 -1.600704 -0.587908 -0.438487
    17 12.387892 0.000000 0.000003 0.000000 0.000000 -1.609961
    18 9.337075 0.000000 -0.000028 -0.956800 0.186748 0.097770
    19 4.450115 -0.070212 0.568166 0.096281 -0.007823 -0.804076
    20 1.426598 0.000002 0.000000 0.023861 -0.079611 -1.125914
    21 1.322465 0.000001 0.000000 0.009312 -0.033625 -0.575064
    22 4.473159 -0.032476 1.578568 0.476656 -0.055406 -1.136065
    23 1.344418 0.000003 0.000000 0.023454 -0.208305 -0.755705
    24 1.224670 0.000002 0.000000 0.026030 -0.124608 -0.538675
    25 2.626417 -0.345018 1.903308 -0.354081 -0.915135 -1.788176
    26 1.059294 0.000000 0.000001 0.000551 0.000015 0.000038
    27 0.781205 0.000000 0.000001 -0.000455 0.006951 -0.135927
    28 2.033353 1.000771 -1.101647 -2.221209 1.324319 2.397438
    29 6.805509 0.000004 0.000000 1.281646 0.858298 -0.524593
    30 12.391785 0.000000 0.000000 0.000000 0.000000 -1.631083
    31 9.337099 0.000000 0.000004 -1.016599 -0.285713 0.068835
    32 4.450079 -0.069860 -0.567766 -0.386561 0.126208 -1.146667
    33 1.426600 0.000003 0.000000 -0.051390 0.078806 -1.521708
    34 1.322464 -0.000002 0.000000 -0.034695 0.051507 -1.200245
    35 4.477035 -0.043465 -1.577382 -0.083026 0.164909 0.067453
    36 1.344415 0.000000 0.000000 0.024520 0.136363 -0.478014
    37 1.220761 0.000000 0.000000 -0.166382 0.224946 -1.318138
    38 2.630290 -0.359833 -1.900382 1.070449 0.381371 -0.978459
    39 1.063198 0.000000 0.000002 0.002184 0.017473 0.317165
    40 0.781205 0.000000 0.000000 0.006460 0.026000 0.488017
    41 -0.044717 2.528787 4.661499 0.152362 -0.034992 -0.042210
    42 1.554961 -2.005421 -0.062502 -0.583859 0.091275 -1.371645
    43 2.676086 -1.712442 0.000000 -1.570796 0.000000 -1.570796
  time 17
    0 -0.307046 -0.175782 26.836091 1.876353 -0.031804 0.093449
    1 3.890452 -0.000004 -0.000003 -1.644652 -0.784467 -1.098319
    2 17.848173 0.000000 0.000000 0.000000 0.000000 1.577974
    3 15.642404 0.000000 0.000000 -0.158647 0.183975 -1.466466
    4 7.109923 -0.000001 0.000001 -0.005393 -0.004653 -1.071579
    5 -3.890452 0.000004 0.000007 -0.144938 -1.186541 -2.955744
    6 17.848169 0.000000 0.000000 0.000000 0.000000 1.279184
    7 15.642414 0.000000 0.000000 0.026143 -0.078796 -1.250798
    8 7.109928 0.000000 0.000000 -0.081165 -0.003131 -0.631740
    9 0.019537 3.345128 -2.981901 1.568028 -0.112985 1.560595
    10 4.018331 0.000000 0.000000 -0.071917 -0.014262 0.329302
    11 3.518565 0.000000 0.000000 -0.058168 -0.009672 0.192006
    12 8.942642 0.000000 0.000000 0.032442 0.003020 0.159796
    13 3.307271 0.000000 0.000000 3.141590 0.000000 0.400478
    14 3.593713 -0.000002 0.000000 0.037881 -0.084229 1.290017
    15 2.033346 1.000767 1.101697 1.848121 -1.411838 2.688434
    16 6.805510 -0.000001 0.000000 -1.606131 -0.601430 -0.429154
    17 12.387892 0.000000 0.000003 0.000000 0.000000 -1.603401
    18 9.337075 0.000000 -0.000028 -0.959051 0.189486 0.098288
    19 4.450115 -0.066306 0.568166 0.096281 -0.007823 -0.804076
    20 1.426598 0.000002 0.000000 0.023849 -0.079611 -1.125914
    21 1.322465 0.000001 0.000000 0.009300 -0.033625 -0.575064
    22 4.473159 -0.028570 1.578568 0.476656 -0.055406 -1.136065
    23 1.344418 0.000003 0.000000 0.023454 -0.208305 -0.755705
    24 1.224670 0.000002 0.000000 0.026030 -0.124608 -0.538675
    25 2.626417 -0.345018 1.903308 -0.354081 -0.915135 -1.788176
    26 1.059294 0.000000 0.000001 0.000551 0.000015 0.000038
    27 0.781205 0.000000 0.000001 -0.000455 0.006951 -0.135927
    28 2.033353 1.000771 -1.101647 -2.221209 1.324319 2.397438
    29 6.805509 0.000004 0.000000 1.292945 0.857440 -0.520194
    30 12.391785 0.000000 0.000000 0.000000 0.000000 -1.631357
    31 9.337099 0.000000 0.000004 -1.015771 -0.285757 0.067498
    32 4.450079 -0.073766 -0.567766 -0.386561 0.126208 -1.146667
    33 1.426600 0.000003 0.000000 -0.051390 0.078806 -1.521708
    34 1.322464 -0.000002 0.000000 -0.034695 0.051507 -1.200245
    35 4.473128 -0.043465 -1.577382 -0.083026 0.164909 0.067453
    36 1.344415 0.000000 0.000000 0.024520 0.136363 -0.478014
    37 1.220761 0.000000 0.000000 -0.166382 0.224946 -1.318138
    38 2.630290 -0.359833 -1.900382 1.070449 0.381371 -0.978459
    39 1.063198 0.000000 0.000002 0.002184 0.017473 0.317165
    40 0.781205 0.000000 0.000000 0.006460 0.026000 0.488017
    41 -0.044717 2.528787 4.661499 0.152362 -0.034384 -0.047052
    42 1.554961 -2.005421 -0.062502 -0.583859 0.091275 -1.371645
    43 2.676086 -1.712442 0.000000 -1.570796 0.000000 -1.570796
  time 18
    0 -0.635181 -0.343755 26.808746 1.862768 -0.038021 0.087317
    1 3.890452 -0.000004 -0.000003 -1.587904 -0.785941 -1.101952
    2 17.848173 0.000000 0.000000 0.000000 0.000000 1.643911
    3 15.642404 0.000000 0.000000 0.013484 0.144289 -1.067249
    4 7.109923 -0.000001 0.000001 -0.003176 -0.005276 -1.511349
    5 -3.890452 0.000004 0.000007 -0.219241 -1.203950 -2.865872
    6 17.848169 0.000000 0.000000 0.000000 0.000000 1.372842
    7 15.642414 0.000000 0.000000 0.004654 -0.050321 -1.136642
    8 7.109928 0.000000 0.000000 -0.081165 -0.003131 -0.631740
    9 0.039069 3.345128 -2.981901 1.568591 -0.112985 1.555130
    10 4.018331 0.000000 0.000000 -0.070605 -0.015101 0.332095
    11 3.518565 0.000000 0.000000 -0.056082 -0.011577 0.194595
    12 8.942642 0.000000 0.000000 0.032059 -0.000899 0.159245
    13 3.307271 0.000000 0.000000 3.141590 0.000000 0.400478
    14 3.593713 -0.000002 0.000000 0.043794 -0.082958 1.289397
    15 2.033346 1.000767 1.101697 1.848121 -1.411838 2.688434
    16 6.805510 -0.000001 0.000000 -1.612749 -0.616636 -0.418040
    17 12.387892 0.000000 0.000003 0.000000 0.000000 -1.595736
    18 9.337075 0.000000 -0.000028 -0.961866 0.192641 0.098742
    19 4.450115 -0.070212 0.568166 0.096281 -0.007823 -0.804076
    20 1.426598 0.000002 0.000000 0.023861 -0.079611 -1.125914
    21 1.322465 0.000001 0.000000 0.009300 -0.033625 -0.575064
    22 4.473159 -0.028570 1.578568 0.476656 -0.055406 -1.136065
    23 1.344418 0.000003 0.000000 0.023454 -0.208305 -0.755705
    24 1.224670 0.000002 0.000000 0.026030 -0.124608 -0.538675
    25 2.626417 -0.345018 1.903308 -0.354081 -0.915135 -1.788176
    26 1.059294 0.000000 0.000001 0.000551 0.000015 0.000038
    27 0.781205 0.000000 0.000001 -0.000455 0.006951 -0.135927
    28 2.033353 1.000771 -1.101647 -2.221209 1.324319 2.397438
    29 6.805509 0.000004 0.000000 1.305776 0.856629 -0.515413
    30 12.391785 0.000000 0.000000 0.000000 0.000000 -1.631699
    31 9.337099 0.000000 0.000004 -1.014804 -0.285801 0.066113
    32 4.450079 -0.073766 -0.567766 -0.386561 0.126208 -1.146667
    33 1.426600 0.000003 0.000000 -0.051378 0.078806 -1.521708
    34 1.322464 -0.000002 0.000000 -0.034695 0.051519 -1.200245
    35 4.477035 -0.043465 -1.581289 -0.083026 0.164909 0.067453
    36 1.344415 0.000000 0.000000 0.024520 0.136363 -0.478014
    37 1.224668 0.000000 0.000000 -0.166382 0.224946 -1.318138
    38 2.630290 -0.359833 -1.900382 1.070449 0.381371 -0.978459
    39 1.063198 0.000000 0.000002 0.002198 0.017473 0.317165
    40 0.781205 0.000000 0.000000 0.006460 0.026000 0.488017
    41 -0.044717 2.528787 4.661499 0.152322 -0.033838 -0.052457
    42 1.554961 -2.005421 -0.062502 -0.583859 0.091275 -1.371645
    43 2.676086 -1.712442 0.000000 -1.570796 0.000000 -1.570796
  time 19
    0 -0.896907 -0.460947 26.621240 1.842003 -0.049054 0.080276
    1 3.890452 -0.000004 -0.000003 -1.545760 -0.843960 -1.155908
    2 17.848173 0.000000 0.000000 0.000000 0.000000 1.704488
    3 15.642404 0.000000 0.000000 0.159321 0.153211 -0.851635
    4 7.109923 -0.000001 0.000001 -0.002553 -0.005288 -1.624849
    5 -3.890452 0.000004 0.000007 -0.373373 -1.228205 -2.680884
    6 17.848169 0.000000 0.000000 0.000000 0.000000 1.534198
    7 15.642414 0.000000 0.000000 -0.023999 -0.001491 -1.334935
    8 7.109928 0.000000 0.000000 -0.081165 -0.003131 -0.631740
    9 0.074226 3.345128 -2.981901 1.568866 -0.112985 1.546623
    10 4.018331 0.000000 0.000000 -0.067960 -0.018600 0.336305
    11 3.518565 0.000000 0.000000 -0.051965 -0.015604 0.198957
    12 8.942642 0.000000 0.000000 0.032263 -0.004207 0.159808
    13 3.307271 0.000000 0.000000 3.141590 0.000000 0.400478
    14 3.593713 -0.000002 0.000000 0.044302 -0.080933 1.289908
    15 2.033346 1.000767 1.101697 1.848121 -1.411838 2.688434
    16 6.805510 -0.000001 0.000000 -1.626079 -0.641221 -0.396968
    17 12.387892 0.000000 0.000003 0.000000 0.000000 -1.583575
    18 9.337075 0.000000 -0.000028 -0.967013 0.198284 0.099293
    19 4.450115 -0.066306 0.568166 0.096281 -0.007823 -0.804076
    20 1.426598 0.000002 0.000000 0.023861 -0.079611 -1.125914
    21 1.322465 0.000001 0.000000 0.009312 -0.033625 -0.575064
    22 4.473159 -0.028570 1.578568 0.476656 -0.055406 -1.136065
    23 1.344418 0.000003 0.000000 0.023454 -0.208305 -0.755705
    24 1.224670 0.000002 0.000000 0.026030 -0.124608 -0.538675
    25 2.626417 -0.345018 1.903308 -0.354081 -0.915135 -1.788176
    26 1.059294 0.000000 0.000001 0.000551 0.000015 0.000038
    27 0.781205 0.000000 0.000001 -0.000455 0.006951 -0.135927
    28 2.033353 1.000771 -1.101647 -2.221209 1.324319 2.397438
    29 6.805509 0.000004 0.000000 1.326842 0.856391 -0.508432
    30 12.391785 0.000000 0.000000 0.000000 0.000000 -1.632041
    31 9.337099 0.000000 0.000004 -1.013561 -0.285845 0.064107
    32 4.450079 -0.073766 -0.567766 -0.386561 0.126208 -1.146667
    33 1.426600 0.000003 0.000000 -0.051390 0.078806 -1.521708
    34 1.322464 -0.000002 0.000000 -0.034695 0.051507 -1.200245
    35 4.473128 -0.043465 -1.577382 -0.083026 0.164909 0.067453
    36 1.344415 0.000000 0.000000 0.024520 0.136363 -0.478014
    37 1.220761 0.000000 0.000000 -0.166382 0.224946 -1.318138
    38 2.630290 -0.359833 -1.900382 1.070449 0.381371 -0.978459
    39 1.063198 0.000000 0.000002 0.002184 0.017473 0.317165
    40 0.781205 0.000000 0.000000 0.006460 0.026000 0.488017
    41 -0.044717 2.528787 4.661499 0.152322 -0.033557 -0.060918
    42 1.554961 -2.005421 -0.062502 -0.583859 0.091275 -1.371645
    43 2.676086 -1.712442 0.000000 -1.570796 0.000000 -1.570796
  time 20
    0 -1.033630 -0.457040 26.339982 1.823307 -0.056134 0.073992
    1 3.890452 -0.000004 -0.000003 -1.520307 -0.930620 -1.224398
    2 17.848173 0.000000 0.000000 0.000000 0.000000 1.763020
    3 15.642404 0.000000 0.000000 0.248537 0.195948 -0.843449
    4 7.109923 -0.000001 0.000001 -0.001978 -0.005216 -1.738313
    5 -3.890452 0.000004 0.000007 -0.599045 -1.222386 -2.405668
    6 17.848169 0.000000 0.000000 0.000000 0.000000 1.650531
    7 15.642414 0.000000 0.000000 -0.064451 0.043964 -1.520466
    8 7.109928 0.000000 0.000000 -0.081165 -0.003131 -0.631740
    9 0.082039 3.345128 -2.981901 1.568819 -0.112985 1.545081
    10 4.018331 0.000000 0.000000 -0.064581 -0.023921 0.340409
    11 3.518565 0.000000 0.000000 -0.046771 -0.021033 0.203415
    12 8.942642 0.000000 0.000000 0.032754 -0.006723 0.160959
    13 3.307271 0.000000 0.000000 3.141590 0.000000 0.400478
    14 3.593713 -0.000002 0.000000 0.041161 -0.077553 1.292718
    15 2.033346 1.000767 1.101697 1.848121 -1.411838 2.688434
    16 6.805510 -0.000001 0.000000 -1.643980 -0.667036 -0.368199
    17 12.387892 0.000000 0.000003 0.000000 0.000000 -1.569498
    18 9.337075 0.000000 -0.000028 -0.975296 0.205807 0.098126
    19 4.450115 -0.070212 0.568166 0.096281 -0.007823 -0.804076
    20 1.426598 0.000002 0.000000 0.023849 -0.079611 -1.125914
    21 1.322465 0.000001 0.000000 0.009300 -0.033625 -0.575064
    22 4.473159 -0.028570 1.578568 0.476656 -0.055406 -1.136065
    23 1.344418 0.000003 0.000000 0.023454 -0.208293 -0.755705
    24 1.224670 0.000002 0.000000 0.026030 -0.124608 -0.538675
    25 2.626417 -0.345018 1.903308 -0.354081 -0.915135 -1.788176
    26 1.059294 0.000000 0.000001 0.000551 0.000015 0.000038
    27 0.781205 0.000000 0.000001 -0.000455 0.006951 -0.135927
    28 2.033353 1.000771 -1.101647 -2.221209 1.324319 2.397438
    29 6.805509 0.000004 0.000000 1.347812 0.857583 -0.505468
    30 12.391785 0.000000 0.000000 0.000000 0.000000 -1.632109
    31 9.337099 0.000000 0.000004 -1.013423 -0.285845 0.063820
    32 4.450079 -0.073766 -0.567766 -0.386561 0.126208 -1.146667
    33 1.426600 0.000003 0.000000 -0.051390 0.078806 -1.521708
    34 1.322464 -0.000002 0.000000 -0.034695 0.051507 -1.200245
    35 4.477035 -0.043465 -1.577382 -0.083026 0.164909 0.067453
    36 1.344415 0.000000 0.000000 0.024520 0.136363 -0.478014
    37 1.220761 0.000000 0.000000 -0.166382 0.224946 -1.318138
    38 2.630290 -0.359833 -1.900382 1.070449 0.381371 -0.978459
    39 1.063198 0.000000 0.000002 0.002198 0.017473 0.317165
    40 0.781205 0.000000 0.000000 0.006460 0.026000 0.488017
    41 -0.044717 2.528787 4.661499 0.152322 -0.033635 -0.062452
    42 1.554961 -2.005421 -0.062502 -0.583859 0.091275 -1.371645
    43 2.676086 -1.712442 0.000000 -1.570796 0.000000 -1.570796
  time 21
    0 -1.021911 -0.308598 26.039191 1.811191 -0.065657 0.066724
    1 3.890452 -0.000004 -0.000003 -1.573967 -1.057710 -1.291071
    2 17.848173 0.000000 0.000000 0.000000 0.000000 1.816687
    3 15.642404 0.000000 0.000000 0.101610 0.246498 -1.535052
    4 7.109923 -0.000001 0.000001 -0.004842 -0.004904 -1.185008
    5 -3.890452 0.000004 0.000007 -0.815381 -1.180086 -2.132942
    6 17.848169 0.000000 0.000000 0.000000 0.000000 1.726115
    7 15.642414 0.000000 0.000000 -0.114445 0.080602 -1.691145
    8 7.109928 0.000000 0.000000 -0.081165 -0.003131 -0.631740
    9 0.074226 3.345128 -2.981901 1.568351 -0.112985 1.544833
    10 4.018331 0.000000 0.000000 -0.060624 -0.030513 0.343824
    11 3.518565 0.000000 0.000000 -0.040878 -0.027445 0.207275
    12 8.942642 0.000000 0.000000 0.033209 -0.008473 0.162409
    13 3.307271 0.000000 0.000000 3.141590 0.000000 0.400478
    14 3.593713 -0.000002 0.000000 0.035571 -0.073263 1.298010
    15 2.033346 1.000767 1.101697 1.848121 -1.411838 2.688434
    16 6.805510 -0.000001 0.000000 -1.664214 -0.692486 -0.334907
    17 12.387892 0.000000 0.000003 0.000000 0.000000 -1.554758
    18 9.337075 0.000000 -0.000028 -0.985027 0.214688 0.096603
    19 4.450115 -0.066306 0.568166 0.096281 -0.007823 -0.804076
    20 1.426598 0.000002 0.000000 0.023861 -0.079611 -1.125914
    21 1.322465 0.000001 0.000000 0.009300 -0.033625 -0.575064
    22 4.473159 -0.028570 1.578568 0.476656 -0.055406 -1.136065
    23 1.344418 0.000003 0.000000 0.023454 -0.208305 -0.755705
    24 1.224670 0.000002 0.000000 0.026030 -0.124608 -0.538675
    25 2.626417 -0.345018 1.903308 -0.354081 -0.915135 -1.788176
    26 1.059294 0.000000 0.000001 0.000551 0.000015 0.000038
    27 0.781205 0.000000 0.000001 -0.000455 0.006951 -0.135927
    28 2.033353 1.000771 -1.101647 -2.221209 1.324319 2.397438
    29 6.805509 0.000004 0.000000 1.367346 0.858823 -0.506137
    30 12.391785 0.000000 0.000000 0.000000 0.000000 -1.632041
    31 9.341006 0.000000 0.000004 -1.013492 -0.285845 0.063964
    32 4.450079 -0.073766 -0.571672 -0.386561 0.126208 -1.146667
    33 1.426600 0.000003 0.000000 -0.051390 0.078806 -1.521708
    34 1.322464 -0.000002 0.000000 -0.034695 0.051507 -1.200245
    35 4.477035 -0.043465 -1.577382 -0.083026 0.164909 0.067453
    36 1.344415 0.000000 0.000000 0.024520 0.136363 -0.478014
    37 1.224668 0.000000 0.000000 -0.166382 0.224946 -1.318138
    38 2.630290 -0.359833 -1.900382 1.070449 0.381371 -0.978459
    39 1.063198 0.000000 0.000002 0.002184 0.017473 0.317165
    40 0.781205 0.000000 0.000000 0.006460 0.026000 0.488017
    41 -0.044717 2.528787 4.661499 0.152322 -0.034056 -0.062763
    42 1.554961 -2.005421 -0.062502 -0.583859 0.091275 -1.371645
    43 2.676086 -1.712442 0.000000 -1.570796 0.000000 -1.570796
  time 22
    0 -0.877375 -0.039059 25.800903 1.806981 -0.072557 0.059683
    1 3.890452 -0.000004 -0.000003 -1.722012 -1.199259 -1.323499
    2 17.848173 0.000000 0.000000 0.000000 0.000000 1.782978
    3 15.642404 0.000000 0.000000 0.126049 0.248116 -1.498129
    4 7.109923 -0.000001 0.000001 -0.005513 -0.004593 -1.046646
    5 -3.890452 0.000004 0.000007 -0.983420 -1.105609 -1.902262
    6 17.848169 0.000000 0.000000 0.000000 0.000000 1.758977
    7 15.642414 0.000000 0.000000 -0.167760 0.107285 -1.842889
    8 7.109928 0.000000 0.000000 -0.081165 -0.003131 -0.631740
    9 0.058601 3.345128 -2.981901 1.567752 -0.112985 1.548798
    10 4.018331 0.000000 0.000000 -0.056155 -0.037608 0.346300
    11 3.518565 0.000000 0.000000 -0.034607 -0.034180 0.210163
    12 8.942642 0.000000 0.000000 0.033245 -0.009564 0.163847
    13 3.307271 0.000000 0.000000 3.141590 0.000000 0.400478
    14 3.593713 -0.000002 0.000000 0.028965 -0.069176 1.305274
    15 2.033346 1.000767 1.101697 1.848121 -1.411838 2.688434
    16 6.805510 -0.000001 0.000000 -1.684972 -0.715705 -0.299883
    17 12.387892 0.000000 0.000003 0.000000 0.000000 -1.539354
    18 9.337075 0.000000 -0.000028 -0.995803 0.224197 0.093491
    19 4.450115 -0.066306 0.568166 0.096281 -0.007823 -0.804076
    20 1.426598 0.000002 0.000000 0.023849 -0.079611 -1.125914
    21 1.322465 0.000001 0.000000 0.009300 -0.033625 -0.575064
    22 4.473159 -0.028570 1.578568 0.476656 -0.055406 -1.136065
    23 1.344418 0.000003 0.000000 0.023454 -0.208305 -0.755705
    24 1.224670 0.000002 0.000000 0.026030 -0.124608 -0.538675
    25 2.626417 -0.345018 1.903308 -0.354081 -0.915135 -1.788176
    26 1.059294 0.000000 0.000001 0.000551 0.000015 0.000038
    27 0.781205 0.000000 0.000001 -0.000455 0.006951 -0.135927
    28 2.033353 1.000771 -1.101647 -2.221209 1.324319 2.397438
    29 6.805509 0.000004 0.000000 1.383337 0.860158 -0.510536
    30 12.391785 0.000000 0.000000 0.000000 0.000000 -1.631836
    31 9.337099 0.000000 0.000004 -1.014183 -0.285845 0.065158
    32 4.450079 -0.073766 -0.571672 -0.386561 0.126208 -1.146667
    33 1.426600 0.000003 0.000000 -0.051390 0.078806 -1.521708
    34 1.322464 -0.000002 0.000000 -0.034695 0.051519 -1.200245
    35 4.477035 -0.043465 -1.581289 -0.083026 0.164909 0.067453
    36 1.344415 0.000000 0.000000 0.024520 0.136363 -0.478014
    37 1.224668 0.000000 0.000000 -0.166382 0.224946 -1.318138
    38 2.630290 -0.359833 -1.900382 1.070449 0.381371 -0.978459
    39 1.063198 0.000000 0.000002 0.002198 0.017473 0.317165
    40 0.781205 0.000000 0.000000 0.006460 0.026000 0.488017
    41 -0.044717 2.528787 4.661499 0.152362 -0.034680 -0.058844
    42 1.554961 -2.005421 -0.062502 -0.583859 0.091275 -1.371645
    43 2.676086 -1.712442 0.000000 -1.570796 0.000000 -1.570796
  time 23
    0 -0.650806 0.269544 25.691525 1.809351 -0.066951 0.056200
    1 3.890452 -0.000004 -0.000003 -1.964109 -1.343248 -1.257098
    2 17.848173 0.000000 0.000000 0.000000 0.000000 1.735940
    3 15.642404 0.000000 0.000000 0.173130 0.229232 -1.328076
    4 7.109923 -0.000001 0.000001 -0.006664 -0.003670 -0.770029
    5 -3.890452 0.000004 0.000007 -1.104592 -1.003111 -1.706162
    6 17.848169 0.000000 0.000000 0.000000 0.000000 1.742300
    7 15.642414 0.000000 0.000000 -0.219043 0.125361 -1.968983
    8 7.109928 0.000000 0.000000 -0.081165 -0.003131 -0.631740
    9 0.000005 3.345128 -2.981901 1.567153 -0.113002 1.564918
    10 4.018331 0.000000 0.000000 -0.051287 -0.044343 0.347915
    11 3.518565 0.000000 0.000000 -0.028270 -0.040508 0.212092
    12 8.942642 0.000000 0.000000 0.032646 -0.010175 0.164961
    13 3.307271 0.000000 0.000000 3.141590 0.000000 0.400478
    14 3.593713 -0.000002 0.000000 0.022174 -0.066503 1.313084
    15 2.033346 1.000767 1.101697 1.848121 -1.411838 2.688434
    16 6.805510 -0.000001 0.000000 -1.705015 -0.734600 -0.265485
    17 12.387892 0.000000 0.000003 0.000000 0.000000 -1.523066
    18 9.337075 0.000000 -0.000028 -1.007624 0.233601 0.086393
    19 4.450115 -0.070212 0.568166 0.096281 -0.007823 -0.804076
    20 1.426598 0.000002 0.000000 0.023861 -0.079611 -1.125914
    21 1.322465 0.000001 0.000000 0.009312 -0.033625 -0.575064
    22 4.473159 -0.028570 1.578568 0.476656 -0.055406 -1.136065
    23 1.348325 0.000003 0.000000 0.023454 -0.208305 -0.755705
    24 1.224670 0.000002 0.000000 0.026030 -0.124608 -0.538675
    25 2.626417 -0.345018 1.903308 -0.354081 -0.915135 -1.788176
    26 1.059294 0.000000 0.000001 0.000551 0.000015 0.000038
    27 0.781205 0.000000 0.000001 -0.000455 0.006951 -0.135927
    28 2.033353 1.000771 -1.101647 -2.221209 1.324319 2.397438
    29 6.805509 0.000004 0.000000 1.394349 0.862637 -0.519525
    30 12.391785 0.000000 0.000000 0.000000 0.000000 -1.631083
    31 9.337099 0.000000 0.000004 -1.016599 -0.285713 0.068835
    32 4.450079 -0.073766 -0.571672 -0.386561 0.126208 -1.146667
    33 1.426600 0.000003 0.000000 -0.051390 0.078806 -1.521708
    34 1.322464 -0.000002 0.000000 -0.034695 0.051507 -1.200245
    35 4.477035 -0.043465 -1.577382 -0.083026 0.164909 0.067453
    36 1.344415 0.000000 0.000000 0.024520 0.136363 -0.478014
    37 1.224668 0.000000 0.000000 -0.166394 0.224946 -1.318138
    38 2.630290 -0.359833 -1.900382 1.070449 0.381371 -0.978459
    39 1.063198 0.000000 0.000002 0.002198 0.017473 0.317165
    40 0.781205 0.000000 0.000000 0.006460 0.026000 0.488017
    41 -0.044717 2.528787 4.661499 0.152403 -0.035319 -0.042809
    42 1.554961 -2.005421 -0.062502 -0.583859 0.091275 -1.371645
    43 2.676086 -1.712442 0.000000 -1.570796 0.000000 -1.570796
end
