// Created by Crowbar 0.62
version 1
nodes
  0 "ValveBiped.Bip01_Pelvis" -1
  1 "ValveBiped.Bip01_L_Thigh" 0
  2 "ValveBiped.Bip01_L_Calf" 1
  3 "ValveBiped.Bip01_L_Foot" 2
  4 "ValveBiped.Bip01_L_Toe0" 3
  5 "ValveBiped.Bip01_R_Thigh" 0
  6 "ValveBiped.Bip01_R_Calf" 5
  7 "ValveBiped.Bip01_R_Foot" 6
  8 "ValveBiped.Bip01_R_Toe0" 7
  9 "ValveBiped.Bip01_Spine" 0
  10 "ValveBiped.Bip01_Spine1" 9
  11 "ValveBiped.Bip01_Spine2" 10
  12 "ValveBiped.Bip01_Spine4" 11
  13 "ValveBiped.Bip01_Neck1" 12
  14 "ValveBiped.Bip01_Head1" 13
  15 "ValveBiped.Bip01_L_Clavicle" 12
  16 "ValveBiped.Bip01_L_UpperArm" 15
  17 "ValveBiped.Bip01_L_Forearm" 16
  18 "ValveBiped.Bip01_L_Hand" 17
  19 "ValveBiped.Bip01_L_Finger2" 18
  20 "ValveBiped.Bip01_L_Finger21" 19
  21 "ValveBiped.Bip01_L_Finger22" 20
  22 "ValveBiped.Bip01_L_Finger1" 18
  23 "ValveBiped.Bip01_L_Finger11" 22
  24 "ValveBiped.Bip01_L_Finger12" 23
  25 "ValveBiped.Bip01_L_Finger0" 18
  26 "ValveBiped.Bip01_L_Finger01" 25
  27 "ValveBiped.Bip01_L_Finger02" 26
  28 "ValveBiped.Bip01_R_Clavicle" 12
  29 "ValveBiped.Bip01_R_UpperArm" 28
  30 "ValveBiped.Bip01_R_Forearm" 29
  31 "ValveBiped.Bip01_R_Hand" 30
  32 "ValveBiped.Bip01_R_Finger2" 31
  33 "ValveBiped.Bip01_R_Finger21" 32
  34 "ValveBiped.Bip01_R_Finger22" 33
  35 "ValveBiped.Bip01_R_Finger1" 31
  36 "ValveBiped.Bip01_R_Finger11" 35
  37 "ValveBiped.Bip01_R_Finger12" 36
  38 "ValveBiped.Bip01_R_Finger0" 31
  39 "ValveBiped.Bip01_R_Finger01" 38
  40 "ValveBiped.Bip01_R_Finger02" 39
  41 "ValveBiped.Cod" 0
  42 "ValveBiped.Anim_Attachment_LH" 18
  43 "ValveBiped.Anim_Attachment_RH" 31
end
skeleton
  time 0
    0 -0.385173 0.000005 38.141123 1.570796 0.000000 -1.514998
    1 3.890452 -0.000004 -0.000003 -1.635472 -0.132027 -1.547771
    2 17.848173 0.000000 0.000000 0.000000 0.000000 0.321291
    3 16.525244 0.000000 0.000000 -0.042578 -0.046144 -1.172862
    4 6.879447 -0.000001 0.000001 -0.007299 -0.002951 -0.584373
    5 -3.890452 0.000004 0.000007 -1.237385 0.030133 -1.565176
    6 17.848169 0.000000 0.000000 0.000000 0.000000 0.200718
    7 16.525253 0.000000 0.000000 -0.053644 -0.097000 -1.214889
    8 6.879452 0.000000 0.000000 -0.081333 -0.002951 -0.584373
    9 0.000005 3.345128 -2.981901 1.556714 -0.103045 1.557828
    10 4.002706 0.000000 0.000000 0.006069 0.007550 0.233709
    11 3.518565 0.000000 0.000000 0.014411 -0.016431 0.360749
    12 8.923110 0.000000 0.000000 0.001163 0.002756 0.243053
    13 3.307271 0.000000 0.000000 3.141590 0.000000 0.406087
    14 3.597619 -0.000002 0.000000 0.317230 0.078750 0.961646
    15 2.056784 0.981235 1.937660 2.040742 -1.091849 2.450968
    16 6.028142 -0.000001 0.000000 -1.733390 -0.283461 -0.690100
    17 11.692558 0.000000 0.000003 0.000000 0.000000 -1.662068
    18 11.481671 0.000000 -0.000028 -0.473401 -0.361105 0.205992
    19 3.883692 0.211047 0.408005 0.034908 0.091860 -1.433620
    20 1.719576 0.000002 0.000000 0.000000 0.005013 -0.700517
    21 1.209181 0.000001 0.000000 0.000000 0.002808 -0.550414
    22 3.867672 0.112060 1.301216 0.237815 0.158411 -1.402387
    23 1.719430 0.000003 0.000000 0.000000 0.005105 -0.697014
    24 1.099666 0.000002 0.000000 0.000000 0.003243 -0.578348
    25 0.837300 -0.302048 1.313446 -1.498998 -0.551603 -0.236177
    26 1.789785 0.000000 0.000001 0.000000 0.273240 -0.428038
    27 1.206999 0.000000 0.000001 0.000000 -0.003283 0.389058
    28 2.052885 0.981239 -1.937610 -2.004304 1.198315 2.584952
    29 6.028141 0.000004 0.000000 1.301563 0.923529 -0.206922
    30 11.692545 0.000000 0.000000 0.000000 0.000000 -1.730629
    31 11.481696 0.000000 0.000004 -1.359811 -0.301334 0.471222
    32 3.883655 0.203586 -0.403698 -0.090409 -0.246369 -0.499502
    33 1.719577 0.000003 0.000000 0.000000 -0.098494 -0.706929
    34 1.209180 -0.000002 0.000000 0.000000 -0.061016 -0.559568
    35 3.867641 0.101071 -1.303936 -0.352498 0.029279 -0.464103
    36 1.719427 0.000000 0.000000 0.000000 -0.007728 -0.686517
    37 1.099664 0.000000 0.000000 0.000000 -0.004906 -0.567832
    38 0.837266 -0.316863 -1.310520 1.384670 0.380862 -0.394860
    39 1.789782 0.000000 0.000002 0.000000 0.003270 0.228588
    40 1.206999 0.000000 0.000000 0.000000 0.004991 0.362980
    41 -0.044717 2.313936 4.661499 -0.039270 0.000000 0.000000
    42 2.676089 -1.712443 0.000000 1.570797 0.000000 1.570796
    43 2.676086 -1.712442 0.000000 -1.570796 0.000000 -1.570796
  time 1
    0 -0.385173 0.000005 38.141123 1.570796 0.000000 -1.514998
    1 3.890452 -0.000004 -0.000003 -1.635472 -0.132027 -1.547771
    2 17.848173 0.000000 0.000000 0.000000 0.000000 0.321291
    3 16.525244 0.000000 0.000000 -0.042578 -0.046144 -1.172862
    4 6.879447 -0.000001 0.000001 -0.007299 -0.002951 -0.584373
    5 -3.890452 0.000004 0.000007 -1.237385 0.030133 -1.565176
    6 17.848169 0.000000 0.000000 0.000000 0.000000 0.200718
    7 16.525253 0.000000 0.000000 -0.053644 -0.097000 -1.214889
    8 6.879452 0.000000 0.000000 -0.081333 -0.002951 -0.584373
    9 0.000005 3.345128 -2.981901 1.556714 -0.103045 1.557828
    10 4.002706 0.000000 0.000000 0.006069 0.007550 0.233709
    11 3.518565 0.000000 0.000000 0.014411 -0.016431 0.360749
    12 8.923110 0.000000 0.000000 0.001163 0.002756 0.243053
    13 3.307271 0.000000 0.000000 3.141590 0.000000 0.406087
    14 3.597619 -0.000002 0.000000 0.317230 0.078750 0.961646
    15 2.056784 0.981235 1.937660 2.040742 -1.091849 2.450968
    16 6.028142 -0.000001 0.000000 -1.733390 -0.283461 -0.690100
    17 11.692558 0.000000 0.000003 0.000000 0.000000 -1.662068
    18 11.481671 0.000000 -0.000028 -0.473401 -0.361105 0.205992
    19 3.883692 0.211047 0.408005 0.034908 0.091860 -1.433620
    20 1.719576 0.000002 0.000000 0.000000 0.005013 -0.700517
    21 1.209181 0.000001 0.000000 0.000000 0.002808 -0.550414
    22 3.867672 0.112060 1.301216 0.237815 0.158411 -1.402387
    23 1.719430 0.000003 0.000000 0.000000 0.005105 -0.697014
    24 1.099666 0.000002 0.000000 0.000000 0.003243 -0.578348
    25 0.837300 -0.302048 1.313446 -1.498998 -0.551603 -0.236177
    26 1.789785 0.000000 0.000001 0.000000 0.273240 -0.428038
    27 1.206999 0.000000 0.000001 0.000000 -0.003283 0.389058
    28 2.052885 0.981239 -1.937610 -2.004304 1.198315 2.584952
    29 6.028141 0.000004 0.000000 1.301563 0.923529 -0.206922
    30 11.692545 0.000000 0.000000 0.000000 0.000000 -1.730629
    31 11.481696 0.000000 0.000004 -1.359811 -0.301334 0.471222
    32 3.883655 0.203586 -0.403698 -0.090409 -0.246369 -0.499502
    33 1.719577 0.000003 0.000000 0.000000 -0.098494 -0.706929
    34 1.209180 -0.000002 0.000000 0.000000 -0.061016 -0.559568
    35 3.867641 0.101071 -1.303936 -0.352498 0.029279 -0.464103
    36 1.719427 0.000000 0.000000 0.000000 -0.007728 -0.686517
    37 1.099664 0.000000 0.000000 0.000000 -0.004906 -0.567832
    38 0.837266 -0.316863 -1.310520 1.384670 0.380862 -0.394860
    39 1.789782 0.000000 0.000002 0.000000 0.003270 0.228588
    40 1.206999 0.000000 0.000000 0.000000 0.004991 0.362980
    41 -0.044717 2.313936 4.661499 -0.039270 0.000000 0.000000
    42 2.676089 -1.712443 0.000000 1.570797 0.000000 1.570796
    43 2.676086 -1.712442 0.000000 -1.570796 0.000000 -1.570796
  time 2
    0 -0.385173 0.000005 38.141123 1.570796 0.000000 -1.514998
    1 3.890452 -0.000004 -0.000003 -1.635472 -0.132027 -1.547771
    2 17.848173 0.000000 0.000000 0.000000 0.000000 0.321291
    3 16.525244 0.000000 0.000000 -0.042578 -0.046144 -1.172862
    4 6.879447 -0.000001 0.000001 -0.007299 -0.002951 -0.584373
    5 -3.890452 0.000004 0.000007 -1.237385 0.030133 -1.565176
    6 17.848169 0.000000 0.000000 0.000000 0.000000 0.200718
    7 16.525253 0.000000 0.000000 -0.053644 -0.097000 -1.214889
    8 6.879452 0.000000 0.000000 -0.081333 -0.002951 -0.584373
    9 0.000005 3.345128 -2.981901 1.557050 -0.103045 1.554359
    10 4.002706 0.000000 0.000000 0.007936 0.001534 0.232782
    11 3.518565 0.000000 0.000000 0.013630 -0.016371 0.359659
    12 8.923110 0.000000 0.000000 0.001174 0.002816 0.242382
    13 3.307271 0.000000 0.000000 3.141590 0.000000 0.406087
    14 3.597619 -0.000002 0.000000 0.318016 0.073620 0.963398
    15 2.056784 0.985142 1.937660 2.042199 -1.086972 2.448279
    16 6.028142 -0.000001 0.000000 -1.735866 -0.278407 -0.680141
    17 11.692558 0.000000 0.000003 0.000000 0.000000 -1.668407
    18 11.481671 0.000000 -0.000028 -0.474768 -0.359098 0.215522
    19 3.883692 0.211047 0.404098 0.034908 0.091860 -1.433620
    20 1.719576 0.000002 0.000000 0.000000 0.005013 -0.700517
    21 1.209181 0.000001 0.000000 0.000000 0.002808 -0.550414
    22 3.867672 0.112060 1.301216 0.237815 0.158411 -1.402387
    23 1.719430 0.000003 0.000000 0.000000 0.005105 -0.697014
    24 1.099666 0.000002 0.000000 0.000000 0.003243 -0.578348
    25 0.837300 -0.305954 1.313446 -1.498998 -0.551603 -0.236177
    26 1.789785 0.000000 0.000001 0.000000 0.273240 -0.428038
    27 1.206999 0.000000 0.000001 0.000000 -0.003283 0.389058
    28 2.056792 0.981239 -1.937610 -2.016759 1.200345 2.572163
    29 6.028141 0.000004 0.000000 1.299169 0.918284 -0.217728
    30 11.692545 0.000000 0.000000 0.000000 0.000000 -1.732477
    31 11.481696 0.000000 0.000004 -1.359811 -0.301334 0.471222
    32 3.883655 0.203586 -0.403698 -0.090409 -0.246369 -0.499502
    33 1.719577 0.000003 0.000000 0.000000 -0.098494 -0.706929
    34 1.209180 -0.000002 0.000000 0.000000 -0.061016 -0.559568
    35 3.863735 0.101071 -1.303936 -0.352498 0.029279 -0.464103
    36 1.719427 0.000000 0.000000 0.000000 -0.007728 -0.686517
    37 1.099664 0.000000 0.000000 0.000000 -0.004906 -0.567832
    38 0.837266 -0.316863 -1.310520 1.384670 0.380862 -0.394860
    39 1.789782 0.000000 0.000002 0.000000 0.003270 0.228588
    40 1.206999 0.000000 0.000000 0.000000 0.004991 0.362980
    41 -0.044717 2.313936 4.661499 -0.039270 0.000000 0.000000
    42 2.676089 -1.712443 0.000000 1.570797 0.000000 1.570796
    43 2.676086 -1.712442 0.000000 -1.570796 0.000000 -1.570796
  time 3
    0 -0.385173 0.000005 38.141123 1.570796 0.000000 -1.514998
    1 3.890452 -0.000004 -0.000003 -1.635472 -0.132027 -1.547771
    2 17.848173 0.000000 0.000000 0.000000 0.000000 0.321291
    3 16.525244 0.000000 0.000000 -0.042578 -0.046144 -1.172862
    4 6.879447 -0.000001 0.000001 -0.007299 -0.002951 -0.584373
    5 -3.890452 0.000004 0.000007 -1.237385 0.030133 -1.565176
    6 17.848169 0.000000 0.000000 0.000000 0.000000 0.200718
    7 16.525253 0.000000 0.000000 -0.053644 -0.097000 -1.214889
    8 6.879452 0.000000 0.000000 -0.081333 -0.002951 -0.584373
    9 0.000005 3.345128 -2.981901 1.557433 -0.103028 1.550890
    10 4.002706 0.000000 0.000000 0.008648 -0.001618 0.231644
    11 3.518565 0.000000 0.000000 0.011397 -0.016227 0.358544
    12 8.927017 0.000000 0.000000 0.001174 0.002828 0.241447
    13 3.307271 0.000000 0.000000 3.141590 0.000000 0.406087
    14 3.597619 -0.000002 0.000000 0.319910 0.067940 0.965369
    15 2.056784 0.981235 1.937660 2.043500 -1.082825 2.445953
    16 6.028142 -0.000001 0.000000 -1.738151 -0.273809 -0.674176
    17 11.692558 0.000000 0.000003 0.000000 0.000000 -1.673124
    18 11.481671 0.000000 -0.000028 -0.475251 -0.357907 0.221291
    19 3.883692 0.211047 0.404098 0.034908 0.091860 -1.433620
    20 1.719576 0.000002 0.000000 0.000000 0.005013 -0.700517
    21 1.209181 0.000001 0.000000 0.000000 0.002808 -0.550414
    22 3.867672 0.112060 1.301216 0.237803 0.158411 -1.402387
    23 1.719430 0.000003 0.000000 0.000000 0.005105 -0.697014
    24 1.099666 0.000002 0.000000 0.000000 0.003243 -0.578348
    25 0.837300 -0.305954 1.313446 -1.498998 -0.551603 -0.236177
    26 1.789785 0.000000 0.000001 0.000000 0.273240 -0.428038
    27 1.206999 0.000000 0.000001 0.000000 -0.003283 0.389058
    28 2.052885 0.985146 -1.937610 -2.027461 1.202088 2.561191
    29 6.028141 0.000004 0.000000 1.298020 0.914326 -0.223944
    30 11.692545 0.000000 0.000000 0.000000 0.000000 -1.733913
    31 11.481696 0.000000 0.000004 -1.359811 -0.301334 0.471222
    32 3.883655 0.203586 -0.407605 -0.090409 -0.246369 -0.499502
    33 1.719577 0.000003 0.000000 0.000000 -0.098494 -0.706929
    34 1.209180 -0.000002 0.000000 0.000000 -0.061016 -0.559568
    35 3.867641 0.101071 -1.303936 -0.352498 0.029279 -0.464103
    36 1.719427 0.000000 0.000000 0.000000 -0.007728 -0.686517
    37 1.099664 0.000000 0.000000 0.000000 -0.004906 -0.567832
    38 0.837266 -0.316863 -1.314427 1.384670 0.380862 -0.394860
    39 1.789782 0.000000 0.000002 0.000000 0.003270 0.228588
    40 1.206999 0.000000 0.000000 0.000000 0.004991 0.362980
    41 -0.044717 2.313936 4.661499 -0.039270 0.000000 0.000000
    42 2.676089 -1.712443 0.000000 1.570797 0.000000 1.570796
    43 2.676086 -1.712442 0.000000 -1.570796 0.000000 -1.570796
  time 4
    0 -0.385173 0.000005 38.141123 1.570796 0.000000 -1.514998
    1 3.890452 -0.000004 -0.000003 -1.635472 -0.132027 -1.547771
    2 17.848173 0.000000 0.000000 0.000000 0.000000 0.321291
    3 16.525244 0.000000 0.000000 -0.042578 -0.046144 -1.172862
    4 6.879447 -0.000001 0.000001 -0.007299 -0.002951 -0.584373
    5 -3.890452 0.000004 0.000007 -1.237385 0.030133 -1.565176
    6 17.848169 0.000000 0.000000 0.000000 0.000000 0.200718
    7 16.525253 0.000000 0.000000 -0.053644 -0.097000 -1.214889
    8 6.879452 0.000000 0.000000 -0.081333 -0.002951 -0.584373
    9 0.000005 3.345128 -2.981901 1.557769 -0.103028 1.547421
    10 4.002706 0.000000 0.000000 0.008137 -0.005525 0.230426
    11 3.518565 0.000000 0.000000 0.007952 -0.015987 0.357609
    12 8.923110 0.000000 0.000000 0.001174 0.002804 0.240345
    13 3.307271 0.000000 0.000000 3.141590 0.000000 0.406087
    14 3.597619 -0.000002 0.000000 0.322728 0.061959 0.967486
    15 2.052878 0.985142 1.937660 2.044385 -1.079589 2.444247
    16 6.028142 -0.000001 0.000000 -1.740151 -0.270303 -0.669894
    17 11.692558 0.000000 0.000003 0.000000 0.000000 -1.676809
    18 11.481671 0.000000 -0.000028 -0.475251 -0.356737 0.225666
    19 3.883692 0.211047 0.404098 0.034908 0.091860 -1.433620
    20 1.719576 0.000002 0.000000 0.000000 0.005013 -0.700517
    21 1.209181 0.000001 0.000000 0.000000 0.002808 -0.550414
    22 3.867672 0.112060 1.301216 0.237803 0.158411 -1.402387
    23 1.719430 0.000003 0.000000 0.000000 0.005105 -0.697014
    24 1.099666 0.000002 0.000000 0.000000 0.003243 -0.578348
    25 0.837300 -0.302048 1.313446 -1.498998 -0.551603 -0.236177
    26 1.789785 0.000000 0.000001 0.000000 0.273240 -0.428038
    27 1.206999 0.000000 0.000001 0.000000 -0.003283 0.389058
    28 2.052885 0.985146 -1.937610 -2.035949 1.203368 2.552564
    29 6.028141 0.000004 0.000000 1.297158 0.911227 -0.228916
    30 11.692545 0.000000 0.000000 0.000000 0.000000 -1.735076
    31 11.481696 0.000000 0.000004 -1.359811 -0.301334 0.471222
    32 3.883655 0.203586 -0.403698 -0.090409 -0.246369 -0.499502
    33 1.719577 0.000003 0.000000 0.000000 -0.098494 -0.706929
    34 1.209180 -0.000002 0.000000 0.000000 -0.061016 -0.559568
    35 3.863735 0.101071 -1.303936 -0.352498 0.029279 -0.464103
    36 1.719427 0.000000 0.000000 0.000000 -0.007728 -0.686517
    37 1.099664 0.000000 0.000000 0.000000 -0.004906 -0.567832
    38 0.837266 -0.316863 -1.314427 1.384670 0.380862 -0.394860
    39 1.789782 0.000000 0.000002 0.000000 0.003270 0.228588
    40 1.206999 0.000000 0.000000 0.000000 0.004991 0.362980
    41 -0.044717 2.313936 4.661499 -0.039270 0.000000 0.000000
    42 2.676089 -1.712443 0.000000 1.570797 0.000000 1.570796
    43 2.676086 -1.712442 0.000000 -1.570796 0.000000 -1.570796
  time 5
    0 -0.385173 0.000005 38.141123 1.570796 0.000000 -1.514998
    1 3.890452 -0.000004 -0.000003 -1.635472 -0.132027 -1.547771
    2 17.848173 0.000000 0.000000 0.000000 0.000000 0.321291
    3 16.525244 0.000000 0.000000 -0.042578 -0.046144 -1.172862
    4 6.879447 -0.000001 0.000001 -0.007299 -0.002951 -0.584373
    5 -3.890452 0.000004 0.000007 -1.237385 0.030133 -1.565176
    6 17.848169 0.000000 0.000000 0.000000 0.000000 0.200718
    7 16.525253 0.000000 0.000000 -0.053644 -0.097000 -1.214889
    8 6.879452 0.000000 0.000000 -0.081333 -0.002951 -0.584373
    9 0.000005 3.345128 -2.981901 1.558104 -0.103011 1.544186
    10 4.002706 0.000000 0.000000 0.006580 -0.010343 0.229181
    11 3.518565 0.000000 0.000000 0.003512 -0.015688 0.357010
    12 8.923110 0.000000 0.000000 0.001163 0.002732 0.239230
    13 3.307271 0.000000 0.000000 3.141590 0.000000 0.406087
    14 3.597619 -0.000002 0.000000 0.326377 0.055811 0.969749
    15 2.056784 0.981235 1.937660 2.045061 -1.077516 2.443109
    16 6.028142 -0.000001 0.000000 -1.741627 -0.268209 -0.666959
    17 11.692558 0.000000 0.000003 0.000000 0.000000 -1.679241
    18 11.481671 0.000000 -0.000028 -0.474848 -0.355420 0.228778
    19 3.883692 0.211047 0.408005 0.034908 0.091860 -1.433620
    20 1.719576 0.000002 0.000000 0.000000 0.005013 -0.700517
    21 1.209181 0.000001 0.000000 0.000000 0.002808 -0.550414
    22 3.867672 0.112060 1.301216 0.237815 0.158411 -1.402387
    23 1.719430 0.000003 0.000000 0.000000 0.005105 -0.697014
    24 1.099666 0.000002 0.000000 0.000000 0.003243 -0.578348
    25 0.837300 -0.305954 1.313446 -1.498998 -0.551603 -0.236177
    26 1.789785 0.000000 0.000001 0.000000 0.273240 -0.428038
    27 1.206999 0.000000 0.000001 0.000000 -0.003283 0.389058
    28 2.052885 0.981239 -1.937610 -2.041393 1.204185 2.546965
    29 6.028141 0.000004 0.000000 1.296488 0.909129 -0.232837
    30 11.692545 0.000000 0.000000 0.000000 0.000000 -1.735829
    31 11.481696 0.000000 0.000004 -1.359811 -0.301334 0.471222
    32 3.883655 0.203586 -0.403698 -0.090409 -0.246369 -0.499502
    33 1.719577 0.000003 0.000000 0.000000 -0.098494 -0.706929
    34 1.209180 -0.000002 0.000000 0.000000 -0.061016 -0.559568
    35 3.867641 0.101071 -1.307843 -0.352498 0.029279 -0.464103
    36 1.719427 0.000000 0.000000 0.000000 -0.007728 -0.686517
    37 1.099664 0.000000 0.000000 0.000000 -0.004906 -0.567832
    38 0.837266 -0.316863 -1.314427 1.384670 0.380862 -0.394860
    39 1.789782 0.000000 0.000002 0.000000 0.003270 0.228588
    40 1.206999 0.000000 0.000000 0.000000 0.004991 0.362980
    41 -0.044717 2.313936 4.661499 -0.039270 0.000000 0.000000
    42 2.676089 -1.712443 0.000000 1.570797 0.000000 1.570796
    43 2.676086 -1.712442 0.000000 -1.570796 0.000000 -1.570796
  time 6
    0 -0.385173 0.000005 38.141123 1.570796 0.000000 -1.514998
    1 3.890452 -0.000004 -0.000003 -1.635472 -0.132027 -1.547771
    2 17.848173 0.000000 0.000000 0.000000 0.000000 0.321291
    3 16.525244 0.000000 0.000000 -0.042578 -0.046144 -1.172862
    4 6.879447 -0.000001 0.000001 -0.007299 -0.002951 -0.584373
    5 -3.890452 0.000004 0.000007 -1.237385 0.030133 -1.565176
    6 17.848169 0.000000 0.000000 0.000000 0.000000 0.200718
    7 16.525253 0.000000 0.000000 -0.053644 -0.097000 -1.214889
    8 6.879452 0.000000 0.000000 -0.081333 -0.002951 -0.584373
    9 0.000005 3.345128 -2.981901 1.558392 -0.103011 1.541240
    10 4.002706 0.000000 0.000000 0.004090 -0.016215 0.228030
    11 3.518565 0.000000 0.000000 -0.001682 -0.015328 0.356818
    12 8.923110 0.000000 0.000000 0.001127 0.002613 0.238283
    13 3.307271 0.000000 0.000000 3.141590 0.000000 0.406087
    14 3.597619 -0.000002 0.000000 0.330581 0.049711 0.972048
    15 2.056784 0.981235 1.937660 2.045218 -1.076737 2.442696
    16 6.028142 -0.000001 0.000000 -1.742674 -0.267799 -0.665420
    17 11.692558 0.000000 0.000003 0.000000 0.000000 -1.680494
    18 11.481671 0.000000 -0.000028 -0.473964 -0.353832 0.230917
    19 3.883692 0.211047 0.404098 0.034908 0.091860 -1.433620
    20 1.719576 0.000002 0.000000 0.000000 0.005013 -0.700517
    21 1.209181 0.000001 0.000000 0.000000 0.002808 -0.550414
    22 3.867672 0.112060 1.301216 0.237815 0.158411 -1.402387
    23 1.719430 0.000003 0.000000 0.000000 0.005105 -0.697014
    24 1.099666 0.000002 0.000000 0.000000 0.003231 -0.578348
    25 0.837300 -0.305954 1.313446 -1.498998 -0.551603 -0.236177
    26 1.789785 0.000000 0.000001 0.000000 0.273240 -0.428038
    27 1.206999 0.000000 0.000001 0.000000 -0.003283 0.389058
    28 2.052885 0.981239 -1.937610 -2.043238 1.204494 2.544922
    29 6.028141 0.000004 0.000000 1.295913 0.908080 -0.235801
    30 11.692545 0.000000 0.000000 0.000000 0.000000 -1.736103
    31 11.481696 0.000000 0.000004 -1.359811 -0.301334 0.471222
    32 3.883655 0.203586 -0.403698 -0.090409 -0.246369 -0.499502
    33 1.719577 0.000003 0.000000 0.000000 -0.098494 -0.706929
    34 1.209180 -0.000002 0.000000 0.000000 -0.061016 -0.559568
    35 3.863735 0.101071 -1.307843 -0.352498 0.029279 -0.464103
    36 1.719427 0.000000 0.000000 0.000000 -0.007728 -0.686517
    37 1.099664 0.000000 0.000000 0.000000 -0.004906 -0.567832
    38 0.837266 -0.316863 -1.310520 1.384670 0.380862 -0.394860
    39 1.789782 0.000000 0.000002 0.000000 0.003270 0.228588
    40 1.206999 0.000000 0.000000 0.000000 0.004991 0.362980
    41 -0.044717 2.313936 4.661499 -0.039270 0.000000 0.000000
    42 2.676089 -1.712443 0.000000 1.570797 0.000000 1.570796
    43 2.676086 -1.712442 0.000000 -1.570796 0.000000 -1.570796
  time 7
    0 -0.385173 0.000005 38.141123 1.570796 0.000000 -1.514998
    1 3.890452 -0.000004 -0.000003 -1.635472 -0.132027 -1.547771
    2 17.848173 0.000000 0.000000 0.000000 0.000000 0.321291
    3 16.525244 0.000000 0.000000 -0.042578 -0.046144 -1.172862
    4 6.879447 -0.000001 0.000001 -0.007299 -0.002951 -0.584373
    5 -3.890452 0.000004 0.000007 -1.237385 0.030133 -1.565176
    6 17.848169 0.000000 0.000000 0.000000 0.000000 0.200718
    7 16.525253 0.000000 0.000000 -0.053644 -0.097000 -1.214889
    8 6.879452 0.000000 0.000000 -0.081333 -0.002951 -0.584373
    9 0.000005 3.345128 -2.981901 1.558680 -0.102995 1.538721
    10 3.998799 0.000000 0.000000 0.000889 -0.023262 0.227050
    11 3.518565 0.000000 0.000000 -0.007454 -0.014933 0.357166
    12 8.923110 0.000000 0.000000 0.001079 0.002445 0.237708
    13 3.307271 0.000000 0.000000 3.141590 0.000000 0.406087
    14 3.597619 -0.000002 0.000000 0.335154 0.043839 0.974275
    15 2.056784 0.985142 1.937660 2.045061 -1.077516 2.443109
    16 6.028142 -0.000001 0.000000 -1.742960 -0.269347 -0.665083
    17 11.692558 0.000000 0.000003 0.000000 0.000000 -1.680346
    18 11.481671 0.000000 -0.000028 -0.472677 -0.351993 0.232052
    19 3.883692 0.211047 0.404098 0.034908 0.091860 -1.433620
    20 1.719576 0.000002 0.000000 0.000000 0.005013 -0.700517
    21 1.209181 0.000001 0.000000 0.000000 0.002808 -0.550414
    22 3.867672 0.112060 1.301216 0.237803 0.158411 -1.402387
    23 1.719430 0.000003 0.000000 0.000000 0.005105 -0.697014
    24 1.099666 0.000002 0.000000 0.000000 0.003243 -0.578348
    25 0.837300 -0.302048 1.313446 -1.498998 -0.551603 -0.236177
    26 1.789785 0.000000 0.000001 0.000000 0.273240 -0.428038
    27 1.206999 0.000000 0.000001 0.000000 -0.003283 0.389058
    28 2.052885 0.981239 -1.937610 -2.041393 1.204185 2.546965
    29 6.028141 0.000004 0.000000 1.295243 0.908175 -0.238096
    30 11.692545 0.000000 0.000000 0.000000 0.000000 -1.735829
    31 11.481696 0.000000 0.000004 -1.359811 -0.301334 0.471222
    32 3.883655 0.203586 -0.403698 -0.090409 -0.246369 -0.499502
    33 1.719577 0.000003 0.000000 0.000000 -0.098494 -0.706929
    34 1.209180 -0.000002 0.000000 0.000000 -0.061016 -0.559568
    35 3.867641 0.101071 -1.307843 -0.352498 0.029279 -0.464103
    36 1.719427 0.000000 0.000000 0.000000 -0.007728 -0.686517
    37 1.099664 0.000000 0.000000 0.000000 -0.004906 -0.567832
    38 0.837266 -0.316863 -1.314427 1.384670 0.380862 -0.394860
    39 1.789782 0.000000 0.000002 0.000000 0.003270 0.228588
    40 1.206999 0.000000 0.000000 0.000000 0.004991 0.362980
    41 -0.044717 2.313936 4.661499 -0.039270 0.000000 0.000000
    42 2.676089 -1.712443 0.000000 1.570797 0.000000 1.570796
    43 2.676086 -1.712442 0.000000 -1.570796 0.000000 -1.570796
  time 8
    0 -0.385173 0.000005 38.141123 1.570796 0.000000 -1.514998
    1 3.890452 -0.000004 -0.000003 -1.635472 -0.132027 -1.547771
    2 17.848173 0.000000 0.000000 0.000000 0.000000 0.321291
    3 16.525244 0.000000 0.000000 -0.042578 -0.046144 -1.172862
    4 6.879447 -0.000001 0.000001 -0.007299 -0.002951 -0.584373
    5 -3.890452 0.000004 0.000007 -1.237385 0.030133 -1.565176
    6 17.848169 0.000000 0.000000 0.000000 0.000000 0.200718
    7 16.525253 0.000000 0.000000 -0.053644 -0.097000 -1.214889
    8 6.879452 0.000000 0.000000 -0.081333 -0.002951 -0.584373
    9 0.000005 3.345128 -2.981901 1.558871 -0.102995 1.536766
    10 3.998799 0.000000 0.000000 -0.002823 -0.031496 0.226362
    11 3.518565 0.000000 0.000000 -0.013550 -0.014513 0.358340
    12 8.923110 0.000000 0.000000 0.001031 0.002217 0.237504
    13 3.307271 0.000000 0.000000 3.141590 0.000000 0.406087
    14 3.597619 -0.000002 0.000000 0.340005 0.038326 0.976245
    15 2.056784 0.981235 1.937660 2.044385 -1.079589 2.444247
    16 6.028142 -0.000001 0.000000 -1.742674 -0.272625 -0.665660
    17 11.692558 0.000000 0.000003 0.000000 0.000000 -1.679094
    18 11.481671 0.000000 -0.000028 -0.471149 -0.349841 0.232570
    19 3.883692 0.211047 0.404098 0.034908 0.091860 -1.433620
    20 1.719576 0.000002 0.000000 0.000000 0.005013 -0.700517
    21 1.209181 0.000001 0.000000 0.000000 0.002808 -0.550414
    22 3.867672 0.112060 1.301216 0.237803 0.158411 -1.402387
    23 1.719430 0.000003 0.000000 0.000000 0.005105 -0.697014
    24 1.099666 0.000002 0.000000 0.000000 0.003243 -0.578348
    25 0.837300 -0.302048 1.313446 -1.498998 -0.551603 -0.236177
    26 1.789785 0.000000 0.000001 0.000000 0.273240 -0.428038
    27 1.206999 0.000000 0.000001 0.000000 -0.003283 0.389058
    28 2.052885 0.981239 -1.937610 -2.035949 1.203368 2.552564
    29 6.028141 0.000004 0.000000 1.294573 0.909272 -0.240009
    30 11.692545 0.000000 0.000000 0.000000 0.000000 -1.735076
    31 11.481696 0.000000 0.000004 -1.359811 -0.301334 0.471222
    32 3.883655 0.203586 -0.407605 -0.090409 -0.246369 -0.499502
    33 1.719577 0.000003 0.000000 0.000000 -0.098494 -0.706929
    34 1.209180 -0.000002 0.000000 0.000000 -0.061016 -0.559568
    35 3.863735 0.101071 -1.307843 -0.352498 0.029279 -0.464103
    36 1.719427 0.000000 0.000000 0.000000 -0.007728 -0.686517
    37 1.099664 0.000000 0.000000 0.000000 -0.004906 -0.567832
    38 0.837266 -0.316863 -1.310520 1.384670 0.380862 -0.394860
    39 1.789782 0.000000 0.000002 0.000000 0.003270 0.228588
    40 1.206999 0.000000 0.000000 0.000000 0.004991 0.362980
    41 -0.044717 2.313936 4.661499 -0.039270 0.000000 0.000000
    42 2.676089 -1.712443 0.000000 1.570797 0.000000 1.570796
    43 2.676086 -1.712442 0.000000 -1.570796 0.000000 -1.570796
  time 9
    0 -0.385173 0.000005 38.141123 1.570796 0.000000 -1.514998
    1 3.890452 -0.000004 -0.000003 -1.635472 -0.132027 -1.547771
    2 17.848173 0.000000 0.000000 0.000000 0.000000 0.321291
    3 16.525244 0.000000 0.000000 -0.042578 -0.046144 -1.172862
    4 6.879447 -0.000001 0.000001 -0.007299 -0.002951 -0.584373
    5 -3.890452 0.000004 0.000007 -1.237385 0.030133 -1.565176
    6 17.848169 0.000000 0.000000 0.000000 0.000000 0.200718
    7 16.525253 0.000000 0.000000 -0.053644 -0.097000 -1.214889
    8 6.879452 0.000000 0.000000 -0.081333 -0.002951 -0.584373
    9 0.000005 3.345128 -2.981901 1.559015 -0.102995 1.535527
    10 4.002706 0.000000 0.000000 -0.006958 -0.041455 0.226044
    11 3.518565 0.000000 0.000000 -0.019753 -0.014082 0.360222
    12 8.923110 0.000000 0.000000 0.000959 0.001965 0.237864
    13 3.307271 0.000000 0.000000 3.141590 0.000000 0.406087
    14 3.597619 -0.000002 0.000000 0.344902 0.033400 0.977413
    15 2.052878 0.985142 1.937660 2.043500 -1.082825 2.445953
    16 6.028142 -0.000001 0.000000 -1.741912 -0.277451 -0.666430
    17 11.692558 0.000000 0.000003 0.000000 0.000000 -1.676882
    18 11.481671 0.000000 -0.000028 -0.469460 -0.347270 0.232959
    19 3.883692 0.211047 0.404098 0.034908 0.091860 -1.433620
    20 1.719576 0.000002 0.000000 0.000000 0.005013 -0.700517
    21 1.209181 0.000001 0.000000 0.000000 0.002808 -0.550414
    22 3.867672 0.112060 1.301216 0.237803 0.158411 -1.402387
    23 1.719430 0.000003 0.000000 0.000000 0.005105 -0.697014
    24 1.099666 0.000002 0.000000 0.000000 0.003243 -0.578348
    25 0.837300 -0.302048 1.313446 -1.498998 -0.551603 -0.236177
    26 1.789785 0.000000 0.000001 0.000000 0.273240 -0.428038
    27 1.206999 0.000000 0.000001 0.000000 -0.003283 0.389058
    28 2.052885 0.985146 -1.937610 -2.027461 1.202088 2.561191
    29 6.028141 0.000004 0.000000 1.293711 0.911179 -0.242208
    30 11.692545 0.000000 0.000000 0.000000 0.000000 -1.733913
    31 11.481696 0.000000 0.000004 -1.359811 -0.301334 0.471222
    32 3.883655 0.203586 -0.403698 -0.090409 -0.246369 -0.499502
    33 1.719577 0.000003 0.000000 0.000000 -0.098494 -0.706929
    34 1.209180 -0.000002 0.000000 0.000000 -0.061016 -0.559568
    35 3.863735 0.101071 -1.303936 -0.352498 0.029279 -0.464103
    36 1.719427 0.000000 0.000000 0.000000 -0.007728 -0.686517
    37 1.099664 0.000000 0.000000 0.000000 -0.004906 -0.567832
    38 0.837266 -0.316863 -1.310520 1.384670 0.380862 -0.394860
    39 1.789782 0.000000 0.000002 0.000000 0.003270 0.228588
    40 1.206999 0.000000 0.000000 0.000000 0.004991 0.362980
    41 -0.044717 2.313936 4.661499 -0.039270 0.000000 0.000000
    42 2.676089 -1.712443 0.000000 1.570797 0.000000 1.570796
    43 2.676086 -1.712442 0.000000 -1.570796 0.000000 -1.570796
  time 10
    0 -0.385173 0.000005 38.141123 1.570796 0.000000 -1.514998
    1 3.890452 -0.000004 -0.000003 -1.635472 -0.132027 -1.547771
    2 17.848173 0.000000 0.000000 0.000000 0.000000 0.321291
    3 16.525244 0.000000 0.000000 -0.042578 -0.046144 -1.172862
    4 6.879447 -0.000001 0.000001 -0.007299 -0.002951 -0.584373
    5 -3.890452 0.000004 0.000007 -1.237385 0.030133 -1.565176
    6 17.848169 0.000000 0.000000 0.000000 0.000000 0.200718
    7 16.525253 0.000000 0.000000 -0.053644 -0.097000 -1.214889
    8 6.879452 0.000000 0.000000 -0.081333 -0.002951 -0.584373
    9 0.000005 3.345128 -2.981901 1.559063 -0.102995 1.535059
    10 4.002706 0.000000 0.000000 -0.011316 -0.053164 0.226746
    11 3.518565 0.000000 0.000000 -0.025834 -0.013662 0.361780
    12 8.923110 0.000000 0.000000 0.000887 0.001690 0.239026
    13 3.307271 0.000000 0.000000 3.141590 0.000000 0.406087
    14 3.597619 -0.000002 0.000000 0.349706 0.029241 0.973691
    15 2.056784 0.981235 1.937660 2.042199 -1.086972 2.448279
    16 6.028142 -0.000001 0.000000 -1.740484 -0.283552 -0.667200
    17 11.692558 0.000000 0.000003 0.000000 0.000000 -1.674082
    18 11.481671 0.000000 -0.000028 -0.467772 -0.344324 0.233542
    19 3.883692 0.211047 0.408005 0.034908 0.091860 -1.433620
    20 1.719576 0.000002 0.000000 0.000000 0.005013 -0.700517
    21 1.209181 0.000001 0.000000 0.000000 0.002808 -0.550414
    22 3.867672 0.112060 1.301216 0.237815 0.158411 -1.402387
    23 1.719430 0.000003 0.000000 0.000000 0.005105 -0.697014
    24 1.099666 0.000002 0.000000 0.000000 0.003243 -0.578348
    25 0.837300 -0.302048 1.313446 -1.498998 -0.551603 -0.236177
    26 1.789785 0.000000 0.000001 0.000000 0.273240 -0.428038
    27 1.206999 0.000000 0.000001 0.000000 -0.003283 0.389058
    28 2.052885 0.981239 -1.937610 -2.016759 1.200345 2.572163
    29 6.028141 0.000004 0.000000 1.292562 0.913611 -0.244982
    30 11.692545 0.000000 0.000000 0.000000 0.000000 -1.732477
    31 11.481696 0.000000 0.000004 -1.359811 -0.301334 0.471222
    32 3.883655 0.203586 -0.407605 -0.090409 -0.246369 -0.499502
    33 1.719577 0.000003 0.000000 0.000000 -0.098494 -0.706929
    34 1.209180 -0.000002 0.000000 0.000000 -0.061016 -0.559568
    35 3.867641 0.101071 -1.303936 -0.352498 0.029279 -0.464103
    36 1.719427 0.000000 0.000000 0.000000 -0.007728 -0.686517
    37 1.099664 0.000000 0.000000 0.000000 -0.004918 -0.567832
    38 0.837266 -0.316863 -1.314427 1.384670 0.380862 -0.394860
    39 1.789782 0.000000 0.000002 0.000000 0.003270 0.228588
    40 1.206999 0.000000 0.000000 0.000000 0.004991 0.362980
    41 -0.044717 2.313936 4.661499 -0.039270 0.000000 0.000000
    42 2.676089 -1.712443 0.000000 1.570797 0.000000 1.570796
    43 2.676086 -1.712442 0.000000 -1.570796 0.000000 -1.570796
  time 11
    0 -0.385173 0.000005 38.141123 1.570796 0.000000 -1.514998
    1 3.890452 -0.000004 -0.000003 -1.635472 -0.132027 -1.547771
    2 17.848173 0.000000 0.000000 0.000000 0.000000 0.321291
    3 16.525244 0.000000 0.000000 -0.042578 -0.046144 -1.172862
    4 6.879447 -0.000001 0.000001 -0.007299 -0.002951 -0.584373
    5 -3.890452 0.000004 0.000007 -1.237385 0.030133 -1.565176
    6 17.848169 0.000000 0.000000 0.000000 0.000000 0.200718
    7 16.525253 0.000000 0.000000 -0.053644 -0.097000 -1.214889
    8 6.879452 0.000000 0.000000 -0.081333 -0.002951 -0.584373
    9 0.000005 3.345128 -2.981901 1.559015 -0.102995 1.535527
    10 4.002706 0.000000 0.000000 -0.015739 -0.064873 0.228520
    11 3.518565 0.000000 0.000000 -0.031607 -0.013267 0.362379
    12 8.923110 0.000000 0.000000 0.000803 0.001342 0.240932
    13 3.307271 0.000000 0.000000 3.141590 0.000000 0.406087
    14 3.597619 -0.000002 0.000000 0.354141 0.026089 0.965771
    15 2.056784 0.981235 1.937660 2.040742 -1.091849 2.450968
    16 6.028142 -0.000001 0.000000 -1.738723 -0.290518 -0.668595
    17 11.692558 0.000000 0.000003 0.000000 0.000000 -1.670544
    18 11.481671 0.000000 -0.000028 -0.466163 -0.341607 0.233478
    19 3.883692 0.211047 0.404098 0.034908 0.091860 -1.433620
    20 1.719576 0.000002 0.000000 0.000000 0.005013 -0.700517
    21 1.209181 0.000001 0.000000 0.000000 0.002808 -0.550414
    22 3.867672 0.112060 1.301216 0.237803 0.158411 -1.402387
    23 1.719430 0.000003 0.000000 0.000000 0.005105 -0.697014
    24 1.099666 0.000002 0.000000 0.000000 0.003243 -0.578348
    25 0.837300 -0.302048 1.313446 -1.498998 -0.551603 -0.236177
    26 1.789785 0.000000 0.000001 0.000000 0.273240 -0.428038
    27 1.206999 0.000000 0.000001 0.000000 -0.003283 0.389058
    28 2.052885 0.981239 -1.937610 -2.004304 1.198315 2.584952
    29 6.028141 0.000004 0.000000 1.291509 0.916663 -0.246990
    30 11.692545 0.000000 0.000000 0.000000 0.000000 -1.730629
    31 11.481696 0.000000 0.000004 -1.359811 -0.301334 0.471222
    32 3.883655 0.203586 -0.407605 -0.090409 -0.246369 -0.499502
    33 1.719577 0.000003 0.000000 0.000000 -0.098494 -0.706929
    34 1.209180 -0.000002 0.000000 0.000000 -0.061016 -0.559568
    35 3.867641 0.101071 -1.303936 -0.352498 0.029279 -0.464103
    36 1.719427 0.000000 0.000000 0.000000 -0.007728 -0.686517
    37 1.099664 0.000000 0.000000 0.000000 -0.004906 -0.567832
    38 0.837266 -0.316863 -1.310520 1.384670 0.380862 -0.394860
    39 1.789782 0.000000 0.000002 0.000000 0.003270 0.228588
    40 1.206999 0.000000 0.000000 0.000000 0.004991 0.362980
    41 -0.044717 2.313936 4.661499 -0.039270 0.000000 0.000000
    42 2.676089 -1.712443 0.000000 1.570797 0.000000 1.570796
    43 2.676086 -1.712442 0.000000 -1.570796 0.000000 -1.570796
  time 12
    0 -0.385173 0.000005 38.141123 1.570796 0.000000 -1.514998
    1 3.890452 -0.000004 -0.000003 -1.635472 -0.132027 -1.547771
    2 17.848173 0.000000 0.000000 0.000000 0.000000 0.321291
    3 16.525244 0.000000 0.000000 -0.042578 -0.046144 -1.172862
    4 6.879447 -0.000001 0.000001 -0.007299 -0.002951 -0.584373
    5 -3.890452 0.000004 0.000007 -1.237385 0.030133 -1.565176
    6 17.848169 0.000000 0.000000 0.000000 0.000000 0.200718
    7 16.525253 0.000000 0.000000 -0.053644 -0.097000 -1.214889
    8 6.879452 0.000000 0.000000 -0.081333 -0.002951 -0.584373
    9 0.000005 3.345128 -2.981901 1.558871 -0.102995 1.536766
    10 3.998799 0.000000 0.000000 -0.020186 -0.073022 0.230677
    11 3.518565 0.000000 0.000000 -0.036814 -0.012919 0.362451
    12 8.923110 0.000000 0.000000 0.000695 0.001019 0.242502
    13 3.307271 0.000000 0.000000 3.141590 0.000000 0.406087
    14 3.597619 -0.000002 0.000000 0.358068 0.024232 0.961464
    15 2.056784 0.985142 1.937660 2.038920 -1.097242 2.453915
    16 6.028142 -0.000001 0.000000 -1.736533 -0.297575 -0.672877
    17 11.692558 0.000000 0.000003 0.000000 0.000000 -1.665827
    18 11.481671 0.000000 -0.000028 -0.464233 -0.339893 0.230593
    19 3.883692 0.211047 0.404098 0.034908 0.091860 -1.433620
    20 1.719576 0.000002 0.000000 0.000000 0.005013 -0.700517
    21 1.209181 0.000001 0.000000 0.000000 0.002808 -0.550414
    22 3.867672 0.112060 1.301216 0.237803 0.158411 -1.402387
    23 1.719430 0.000003 0.000000 0.000000 0.005105 -0.697014
    24 1.099666 0.000002 0.000000 0.000000 0.003243 -0.578348
    25 0.837300 -0.302048 1.313446 -1.498998 -0.551603 -0.236177
    26 1.789785 0.000000 0.000001 0.000000 0.273240 -0.428038
    27 1.206999 0.000000 0.000001 0.000000 -0.003295 0.389058
    28 2.052885 0.985146 -1.937610 -1.990741 1.195954 2.598951
    29 6.028141 0.000004 0.000000 1.291221 0.920764 -0.245555
    30 11.692545 0.000000 0.000000 0.000000 0.000000 -1.728714
    31 11.481696 0.000000 0.000004 -1.359811 -0.301334 0.471222
    32 3.883655 0.203586 -0.407605 -0.090409 -0.246369 -0.499502
    33 1.719577 0.000003 0.000000 0.000000 -0.098494 -0.706929
    34 1.209180 -0.000002 0.000000 0.000000 -0.061016 -0.559568
    35 3.867641 0.101071 -1.307843 -0.352498 0.029279 -0.464103
    36 1.719427 0.000000 0.000000 0.000000 -0.007728 -0.686517
    37 1.099664 0.000000 0.000000 0.000000 -0.004906 -0.567832
    38 0.837266 -0.316863 -1.310520 1.384670 0.380862 -0.394860
    39 1.789782 0.000000 0.000002 0.000000 0.003270 0.228588
    40 1.206999 0.000000 0.000000 0.000000 0.004991 0.362980
    41 -0.044717 2.313936 4.661499 -0.039270 0.000000 0.000000
    42 2.676089 -1.712443 0.000000 1.570797 0.000000 1.570796
    43 2.676086 -1.712442 0.000000 -1.570796 0.000000 -1.570796
  time 13
    0 -0.385173 0.000005 38.141123 1.570796 0.000000 -1.514998
    1 3.890452 -0.000004 -0.000003 -1.635472 -0.132027 -1.547771
    2 17.848173 0.000000 0.000000 0.000000 0.000000 0.321291
    3 16.525244 0.000000 0.000000 -0.042578 -0.046144 -1.172862
    4 6.879447 -0.000001 0.000001 -0.007299 -0.002951 -0.584373
    5 -3.890452 0.000004 0.000007 -1.237385 0.030133 -1.565176
    6 17.848169 0.000000 0.000000 0.000000 0.000000 0.200718
    7 16.525253 0.000000 0.000000 -0.053644 -0.097000 -1.214889
    8 6.879452 0.000000 0.000000 -0.081333 -0.002951 -0.584373
    9 0.000005 3.345128 -2.981901 1.558680 -0.102995 1.538721
    10 3.998799 0.000000 0.000000 -0.024543 -0.075719 0.232504
    11 3.518565 0.000000 0.000000 -0.041268 -0.012608 0.362295
    12 8.923110 0.000000 0.000000 0.000611 0.000671 0.243101
    13 3.307271 0.000000 0.000000 3.141590 0.000000 0.406087
    14 3.597619 -0.000002 0.000000 0.361255 0.023956 0.962048
    15 2.056784 0.981235 1.937660 2.037046 -1.102935 2.457172
    16 6.028142 -0.000001 0.000000 -1.734152 -0.304358 -0.680911
    17 11.692558 0.000000 0.000003 0.000000 0.000000 -1.659931
    18 11.481671 0.000000 -0.000028 -0.462142 -0.339601 0.223949
    19 3.883692 0.211047 0.404098 0.034908 0.091860 -1.433620
    20 1.719576 0.000002 0.000000 0.000000 0.005013 -0.700517
    21 1.209181 0.000001 0.000000 0.000000 0.002808 -0.550414
    22 3.867672 0.112060 1.301216 0.237803 0.158411 -1.402387
    23 1.719430 0.000003 0.000000 0.000000 0.005105 -0.697014
    24 1.099666 0.000002 0.000000 0.000000 0.003231 -0.578348
    25 0.837300 -0.302048 1.313446 -1.498998 -0.551603 -0.236177
    26 1.789785 0.000000 0.000001 0.000000 0.273240 -0.428038
    27 1.206999 0.000000 0.000001 0.000000 -0.003283 0.389058
    28 2.052885 0.985146 -1.937610 -1.976533 1.193372 2.613631
    29 6.028141 0.000004 0.000000 1.292275 0.925818 -0.239244
    30 11.692545 0.000000 0.000000 0.000000 0.000000 -1.726661
    31 11.481696 0.000000 0.000004 -1.359811 -0.301334 0.471222
    32 3.883655 0.203586 -0.403698 -0.090409 -0.246369 -0.499502
    33 1.719577 0.000003 0.000000 0.000000 -0.098494 -0.706929
    34 1.209180 -0.000002 0.000000 0.000000 -0.061016 -0.559568
    35 3.863735 0.101071 -1.303936 -0.352498 0.029279 -0.464103
    36 1.719427 0.000000 0.000000 0.000000 -0.007728 -0.686517
    37 1.099664 0.000000 0.000000 0.000000 -0.004906 -0.567832
    38 0.837266 -0.316863 -1.310520 1.384670 0.380862 -0.394860
    39 1.789782 0.000000 0.000002 0.000000 0.003270 0.228588
    40 1.206999 0.000000 0.000000 0.000000 0.004991 0.362980
    41 -0.044717 2.313936 4.661499 -0.039270 0.000000 0.000000
    42 2.676089 -1.712443 0.000000 1.570797 0.000000 1.570796
    43 2.676086 -1.712442 0.000000 -1.570796 0.000000 -1.570796
  time 14
    0 -0.385173 0.000005 38.141123 1.570796 0.000000 -1.514998
    1 3.890452 -0.000004 -0.000003 -1.635472 -0.132027 -1.547771
    2 17.848173 0.000000 0.000000 0.000000 0.000000 0.321291
    3 16.525244 0.000000 0.000000 -0.042578 -0.046144 -1.172862
    4 6.879447 -0.000001 0.000001 -0.007299 -0.002951 -0.584373
    5 -3.890452 0.000004 0.000007 -1.237385 0.030133 -1.565176
    6 17.848169 0.000000 0.000000 0.000000 0.000000 0.200718
    7 16.525253 0.000000 0.000000 -0.053644 -0.097000 -1.214889
    8 6.879452 0.000000 0.000000 -0.081333 -0.002951 -0.584373
    9 0.000005 3.345128 -2.981901 1.558392 -0.103011 1.541240
    10 4.002706 0.000000 0.000000 -0.028567 -0.074508 0.233272
    11 3.518565 0.000000 0.000000 -0.044699 -0.012368 0.361924
    12 8.923110 0.000000 0.000000 0.000539 0.000395 0.243185
    13 3.307271 0.000000 0.000000 3.141590 0.000000 0.406087
    14 3.597619 -0.000002 0.000000 0.363565 0.025442 0.963179
    15 2.056784 0.981235 1.937660 2.035017 -1.108760 2.460533
    16 6.028142 -0.000001 0.000000 -1.731629 -0.310732 -0.691206
    17 11.692558 0.000000 0.000003 0.000000 0.000000 -1.653224
    18 11.481671 0.000000 -0.000028 -0.459971 -0.340332 0.214938
    19 3.883692 0.211047 0.408005 0.034908 0.091860 -1.433620
    20 1.719576 0.000002 0.000000 0.000000 0.005013 -0.700517
    21 1.209181 0.000001 0.000000 0.000000 0.002808 -0.550414
    22 3.867672 0.112060 1.301216 0.237815 0.158411 -1.402387
    23 1.719430 0.000003 0.000000 0.000000 0.005105 -0.697014
    24 1.099666 0.000002 0.000000 0.000000 0.003255 -0.578348
    25 0.837300 -0.302048 1.313446 -1.498998 -0.551603 -0.236177
    26 1.789785 0.000000 0.000001 0.000000 0.273240 -0.428038
    27 1.206999 0.000000 0.000001 0.000000 -0.003283 0.389058
    28 2.052885 0.981239 -1.937610 -1.962233 1.190680 2.628311
    29 6.028141 0.000004 0.000000 1.294094 0.931492 -0.229777
    30 11.692545 0.000000 0.000000 0.000000 0.000000 -1.724472
    31 11.481696 0.000000 0.000004 -1.359811 -0.301334 0.471222
    32 3.883655 0.203586 -0.403698 -0.090409 -0.246369 -0.499502
    33 1.719577 0.000003 0.000000 0.000000 -0.098494 -0.706929
    34 1.209180 -0.000002 0.000000 0.000000 -0.061016 -0.559568
    35 3.863735 0.101071 -1.303936 -0.352498 0.029279 -0.464103
    36 1.719427 0.000000 0.000000 0.000000 -0.007728 -0.686517
    37 1.099664 0.000000 0.000000 0.000000 -0.004906 -0.567832
    38 0.837266 -0.316863 -1.310520 1.384670 0.380862 -0.394860
    39 1.789782 0.000000 0.000002 0.000000 0.003270 0.228588
    40 1.206999 0.000000 0.000000 0.000000 0.004991 0.362980
    41 -0.044717 2.313936 4.661499 -0.039270 0.000000 0.000000
    42 2.676089 -1.712443 0.000000 1.570797 0.000000 1.570796
    43 2.676086 -1.712442 0.000000 -1.570796 0.000000 -1.570796
  time 15
    0 -0.385173 0.000005 38.141123 1.570796 0.000000 -1.514998
    1 3.890452 -0.000004 -0.000003 -1.635472 -0.132027 -1.547771
    2 17.848173 0.000000 0.000000 0.000000 0.000000 0.321291
    3 16.525244 0.000000 0.000000 -0.042578 -0.046144 -1.172862
    4 6.879447 -0.000001 0.000001 -0.007299 -0.002951 -0.584373
    5 -3.890452 0.000004 0.000007 -1.237385 0.030133 -1.565176
    6 17.848169 0.000000 0.000000 0.000000 0.000000 0.200718
    7 16.525253 0.000000 0.000000 -0.053644 -0.097000 -1.214889
    8 6.879452 0.000000 0.000000 -0.081333 -0.002951 -0.584373
    9 0.000005 3.345128 -2.981901 1.558104 -0.103011 1.544186
    10 4.002706 0.000000 0.000000 -0.032101 -0.070350 0.233073
    11 3.518565 0.000000 0.000000 -0.046933 -0.012224 0.361324
    12 8.923110 0.000000 0.000000 0.000479 0.000180 0.243041
    13 3.307271 0.000000 0.000000 3.141590 0.000000 0.406087
    14 3.597619 -0.000002 0.000000 0.364951 0.028438 0.964712
    15 2.056784 0.981235 1.937660 2.033039 -1.114464 2.463997
    16 6.028142 -0.000001 0.000000 -1.728867 -0.316651 -0.702704
    17 11.692558 0.000000 0.000003 0.000000 0.000000 -1.646075
    18 11.481671 0.000000 -0.000028 -0.457960 -0.341837 0.204404
    19 3.883692 0.211047 0.408005 0.034908 0.091860 -1.433620
    20 1.719576 0.000002 0.000000 0.000000 0.005013 -0.700517
    21 1.209181 0.000001 0.000000 0.000000 0.002808 -0.550414
    22 3.867672 0.112060 1.301216 0.237815 0.158411 -1.402387
    23 1.719430 0.000003 0.000000 0.000000 0.005105 -0.697014
    24 1.099666 0.000002 0.000000 0.000000 0.003243 -0.578348
    25 0.837300 -0.302048 1.313446 -1.498998 -0.551603 -0.236177
    26 1.789785 0.000000 0.000001 0.000000 0.273240 -0.428038
    27 1.206999 0.000000 0.000001 0.000000 -0.003283 0.389058
    28 2.052885 0.981239 -1.937610 -1.948486 1.187943 2.642462
    29 6.028141 0.000004 0.000000 1.296584 0.937453 -0.218015
    30 11.692545 0.000000 0.000000 0.000000 0.000000 -1.722419
    31 11.481696 0.000000 0.000004 -1.359811 -0.301334 0.471222
    32 3.883655 0.203586 -0.403698 -0.090409 -0.246369 -0.499502
    33 1.719577 0.000003 0.000000 0.000000 -0.098494 -0.706929
    34 1.209180 -0.000002 0.000000 0.000000 -0.061016 -0.559568
    35 3.867641 0.101071 -1.303936 -0.352498 0.029279 -0.464103
    36 1.719427 0.000000 0.000000 0.000000 -0.007728 -0.686517
    37 1.099664 0.000000 0.000000 0.000000 -0.004906 -0.567832
    38 0.837266 -0.316863 -1.310520 1.384670 0.380862 -0.394860
    39 1.789782 0.000000 0.000002 0.000000 0.003270 0.228588
    40 1.206999 0.000000 0.000000 0.000000 0.004991 0.362980
    41 -0.044717 2.313936 4.661499 -0.039270 0.000000 0.000000
    42 2.676089 -1.712443 0.000000 1.570797 0.000000 1.570796
    43 2.676086 -1.712442 0.000000 -1.570796 0.000000 -1.570796
  time 16
    0 -0.385173 0.000005 38.141123 1.570796 0.000000 -1.514998
    1 3.890452 -0.000004 -0.000003 -1.635472 -0.132027 -1.547771
    2 17.848173 0.000000 0.000000 0.000000 0.000000 0.321291
    3 16.525244 0.000000 0.000000 -0.042578 -0.046144 -1.172862
    4 6.879447 -0.000001 0.000001 -0.007299 -0.002951 -0.584373
    5 -3.890452 0.000004 0.000007 -1.237385 0.030133 -1.565176
    6 17.848169 0.000000 0.000000 0.000000 0.000000 0.200718
    7 16.525253 0.000000 0.000000 -0.053644 -0.097000 -1.214889
    8 6.879452 0.000000 0.000000 -0.081333 -0.002951 -0.584373
    9 0.000005 3.345128 -2.981901 1.557769 -0.103028 1.547421
    10 4.002706 0.000000 0.000000 -0.034947 -0.063890 0.232531
    11 3.518565 0.000000 0.000000 -0.047726 -0.012164 0.360521
    12 8.923110 0.000000 0.000000 0.000443 0.000060 0.242670
    13 3.307271 0.000000 0.000000 3.141590 0.000000 0.406087
    14 3.597619 -0.000002 0.000000 0.365274 0.032597 0.966537
    15 2.056784 0.981235 1.937660 2.030957 -1.119905 2.467254
    16 6.028142 -0.000001 0.000000 -1.726106 -0.321978 -0.714539
    17 11.692558 0.000000 0.000003 0.000000 0.000000 -1.638852
    18 11.481671 0.000000 -0.000028 -0.456272 -0.343801 0.193352
    19 3.883692 0.211047 0.408005 0.034908 0.091860 -1.433620
    20 1.719576 0.000002 0.000000 0.000000 0.005013 -0.700517
    21 1.209181 0.000001 0.000000 0.000000 0.002808 -0.550414
    22 3.867672 0.112060 1.301216 0.237803 0.158411 -1.402387
    23 1.719430 0.000003 0.000000 0.000000 0.005105 -0.697014
    24 1.099666 0.000002 0.000000 0.000000 0.003243 -0.578348
    25 0.837300 -0.305954 1.313446 -1.498998 -0.551603 -0.236177
    26 1.789785 0.000000 0.000001 0.000000 0.273240 -0.428038
    27 1.206999 0.000000 0.000001 0.000000 -0.003283 0.389058
    28 2.052885 0.981239 -1.937610 -1.935754 1.185295 2.655856
    29 6.028141 0.000004 0.000000 1.299648 0.943318 -0.205297
    30 11.692545 0.000000 0.000000 0.000000 0.000000 -1.720504
    31 11.481696 0.000000 0.000004 -1.359811 -0.301334 0.471222
    32 3.883655 0.203586 -0.403698 -0.090409 -0.246369 -0.499502
    33 1.719577 0.000003 0.000000 0.000000 -0.098494 -0.706929
    34 1.209180 -0.000002 0.000000 0.000000 -0.061016 -0.559568
    35 3.867641 0.101071 -1.303936 -0.352498 0.029279 -0.464103
    36 1.719427 0.000000 0.000000 0.000000 -0.007728 -0.686517
    37 1.099664 0.000000 0.000000 0.000000 -0.004906 -0.567832
    38 0.837266 -0.316863 -1.310520 1.384670 0.380862 -0.394860
    39 1.789782 0.000000 0.000002 0.000000 0.003270 0.228588
    40 1.206999 0.000000 0.000000 0.000000 0.004991 0.362980
    41 -0.044717 2.313936 4.661499 -0.039270 0.000000 0.000000
    42 2.676089 -1.712443 0.000000 1.570797 0.000000 1.570796
    43 2.676086 -1.712442 0.000000 -1.570796 0.000000 -1.570796
  time 17
    0 -0.385173 0.000005 38.141123 1.570796 0.000000 -1.514998
    1 3.890452 -0.000004 -0.000003 -1.635472 -0.132027 -1.547771
    2 17.848173 0.000000 0.000000 0.000000 0.000000 0.321291
    3 16.525244 0.000000 0.000000 -0.042578 -0.046144 -1.172862
    4 6.879447 -0.000001 0.000001 -0.007299 -0.002951 -0.584373
    5 -3.890452 0.000004 0.000007 -1.237385 0.030133 -1.565176
    6 17.848169 0.000000 0.000000 0.000000 0.000000 0.200718
    7 16.525253 0.000000 0.000000 -0.053644 -0.097000 -1.214889
    8 6.879452 0.000000 0.000000 -0.081333 -0.002951 -0.584373
    9 0.000005 3.345128 -2.981901 1.557433 -0.103028 1.550890
    10 4.002706 0.000000 0.000000 -0.036881 -0.055860 0.231710
    11 3.518565 0.000000 0.000000 -0.046933 -0.012224 0.359599
    12 8.923110 0.000000 0.000000 0.000431 0.000000 0.242082
    13 3.307271 0.000000 0.000000 3.141590 0.000000 0.406087
    14 3.597619 -0.000002 0.000000 0.364489 0.037667 0.968508
    15 2.056784 0.981235 1.937660 2.029031 -1.124783 2.470201
    16 6.028142 -0.000001 0.000000 -1.723392 -0.326576 -0.725749
    17 11.692558 0.000000 0.000003 0.000000 0.000000 -1.631924
    18 11.481671 0.000000 -0.000028 -0.455146 -0.346205 0.182494
    19 3.883692 0.211047 0.404098 0.034908 0.091860 -1.433620
    20 1.719576 0.000002 0.000000 0.000000 0.005013 -0.700517
    21 1.209181 0.000001 0.000000 0.000000 0.002808 -0.550414
    22 3.867672 0.112060 1.301216 0.237803 0.158411 -1.402387
    23 1.719430 0.000003 0.000000 0.000000 0.005105 -0.697014
    24 1.099666 0.000002 0.000000 0.000000 0.003243 -0.578348
    25 0.837300 -0.302048 1.313446 -1.498998 -0.551603 -0.236177
    26 1.789785 0.000000 0.000001 0.000000 0.273240 -0.428038
    27 1.206999 0.000000 0.000001 0.000000 -0.003283 0.389058
    28 2.052885 0.981239 -1.937610 -1.924313 1.182846 2.667585
    29 6.028141 0.000004 0.000000 1.302808 0.948802 -0.192387
    30 11.692545 0.000000 0.000000 0.000000 0.000000 -1.718725
    31 11.481696 0.000000 0.000004 -1.359811 -0.301334 0.471222
    32 3.883655 0.203586 -0.403698 -0.090409 -0.246369 -0.499502
    33 1.719577 0.000003 0.000000 0.000000 -0.098494 -0.706929
    34 1.209180 -0.000002 0.000000 0.000000 -0.061016 -0.559568
    35 3.867641 0.101071 -1.307843 -0.352498 0.029279 -0.464103
    36 1.719427 0.000000 0.000000 0.000000 -0.007728 -0.686517
    37 1.099664 0.000000 0.000000 0.000000 -0.004906 -0.567832
    38 0.837266 -0.316863 -1.310520 1.384670 0.380862 -0.394860
    39 1.789782 0.000000 0.000002 0.000000 0.003270 0.228588
    40 1.206999 0.000000 0.000000 0.000000 0.004991 0.362980
    41 -0.044717 2.313936 4.661499 -0.039270 0.000000 0.000000
    42 2.676089 -1.712443 0.000000 1.570797 0.000000 1.570796
    43 2.676086 -1.712442 0.000000 -1.570796 0.000000 -1.570796
  time 18
    0 -0.385173 0.000005 38.141123 1.570796 0.000000 -1.514998
    1 3.890452 -0.000004 -0.000003 -1.635472 -0.132027 -1.547771
    2 17.848173 0.000000 0.000000 0.000000 0.000000 0.321291
    3 16.525244 0.000000 0.000000 -0.042578 -0.046144 -1.172862
    4 6.879447 -0.000001 0.000001 -0.007299 -0.002951 -0.584373
    5 -3.890452 0.000004 0.000007 -1.237385 0.030133 -1.565176
    6 17.848169 0.000000 0.000000 0.000000 0.000000 0.200718
    7 16.525253 0.000000 0.000000 -0.053644 -0.097000 -1.214889
    8 6.879452 0.000000 0.000000 -0.081333 -0.002951 -0.584373
    9 0.000005 3.345128 -2.981901 1.557050 -0.103045 1.554359
    10 4.002706 0.000000 0.000000 -0.037704 -0.047998 0.230704
    11 3.518565 0.000000 0.000000 -0.044699 -0.012368 0.358592
    12 8.923110 0.000000 0.000000 0.000431 0.000000 0.241291
    13 3.307271 0.000000 0.000000 3.141590 0.000000 0.406087
    14 3.597619 -0.000002 0.000000 0.362641 0.043395 0.970552
    15 2.056784 0.981235 1.937660 2.027418 -1.128930 2.472786
    16 6.028142 -0.000001 0.000000 -1.720536 -0.330446 -0.734745
    17 11.692558 0.000000 0.000003 0.000000 0.000000 -1.625954
    18 11.481671 0.000000 -0.000028 -0.454985 -0.348712 0.173419
    19 3.883692 0.211047 0.404098 0.034908 0.091860 -1.433620
    20 1.719576 0.000002 0.000000 0.000000 0.005013 -0.700517
    21 1.209181 0.000001 0.000000 0.000000 0.002808 -0.550414
    22 3.867672 0.112060 1.301216 0.237815 0.158411 -1.402387
    23 1.719430 0.000003 0.000000 0.000000 0.005105 -0.697014
    24 1.099666 0.000002 0.000000 0.000000 0.003231 -0.578348
    25 0.837300 -0.305954 1.313446 -1.498998 -0.551603 -0.236177
    26 1.789785 0.000000 0.000001 0.000000 0.273240 -0.428038
    27 1.206999 0.000000 0.000001 0.000000 -0.003283 0.389058
    28 2.052885 0.985146 -1.937610 -1.914626 1.180749 2.677574
    29 6.028141 0.000004 0.000000 1.305776 0.953475 -0.181199
    30 11.692545 0.000000 0.000000 0.000000 0.000000 -1.717151
    31 11.481696 0.000000 0.000004 -1.359811 -0.301334 0.471222
    32 3.883655 0.203586 -0.407605 -0.090409 -0.246369 -0.499502
    33 1.719577 0.000003 0.000000 0.000000 -0.098494 -0.706929
    34 1.209180 -0.000002 0.000000 0.000000 -0.061016 -0.559568
    35 3.867641 0.101071 -1.307843 -0.352498 0.029279 -0.464103
    36 1.719427 0.000000 0.000000 0.000000 -0.007728 -0.686517
    37 1.099664 0.000000 0.000000 0.000000 -0.004906 -0.567832
    38 0.837266 -0.316863 -1.314427 1.384670 0.380862 -0.394860
    39 1.789782 0.000000 0.000002 0.000000 0.003270 0.228588
    40 1.206999 0.000000 0.000000 0.000000 0.004991 0.362980
    41 -0.044717 2.313936 4.661499 -0.039270 0.000000 0.000000
    42 2.676089 -1.712443 0.000000 1.570797 0.000000 1.570796
    43 2.676086 -1.712442 0.000000 -1.570796 0.000000 -1.570796
  time 19
    0 -0.385173 0.000005 38.141123 1.570796 0.000000 -1.514998
    1 3.890452 -0.000004 -0.000003 -1.635472 -0.132027 -1.547771
    2 17.848173 0.000000 0.000000 0.000000 0.000000 0.321291
    3 16.525244 0.000000 0.000000 -0.042578 -0.046144 -1.172862
    4 6.879447 -0.000001 0.000001 -0.007299 -0.002951 -0.584373
    5 -3.890452 0.000004 0.000007 -1.237385 0.030133 -1.565176
    6 17.848169 0.000000 0.000000 0.000000 0.000000 0.200718
    7 16.525253 0.000000 0.000000 -0.053644 -0.097000 -1.214889
    8 6.879452 0.000000 0.000000 -0.081333 -0.002951 -0.584373
    9 0.000005 3.345128 -2.981901 1.556714 -0.103045 1.557828
    10 4.002706 0.000000 0.000000 -0.037303 -0.041083 0.229605
    11 3.518565 0.000000 0.000000 -0.041268 -0.012608 0.357669
    12 8.923110 0.000000 0.000000 0.000443 0.000036 0.240345
    13 3.307271 0.000000 0.000000 3.141590 0.000000 0.406087
    14 3.597619 -0.000002 0.000000 0.359777 0.049555 0.972523
    15 2.056784 0.981235 1.937660 2.026065 -1.132165 2.474802
    16 6.028142 -0.000001 0.000000 -1.717965 -0.333360 -0.740807
    17 11.692558 0.000000 0.000003 0.000000 0.000000 -1.621385
    18 11.481671 0.000000 -0.000028 -0.455628 -0.351115 0.166742
    19 3.883692 0.211047 0.404098 0.034908 0.091860 -1.433620
    20 1.719576 0.000002 0.000000 0.000000 0.005013 -0.700517
    21 1.209181 0.000001 0.000000 0.000000 0.002808 -0.550414
    22 3.867672 0.112060 1.301216 0.237803 0.158411 -1.402387
    23 1.719430 0.000003 0.000000 0.000000 0.005105 -0.697014
    24 1.099666 0.000002 0.000000 0.000000 0.003243 -0.578348
    25 0.837300 -0.302048 1.313446 -1.498998 -0.551603 -0.236177
    26 1.789785 0.000000 0.000001 0.000000 0.273240 -0.428038
    27 1.206999 0.000000 0.000001 0.000000 -0.003283 0.389058
    28 2.052885 0.981239 -1.937610 -1.907245 1.179072 2.685292
    29 6.028141 0.000004 0.000000 1.308074 0.957051 -0.172592
    30 11.692545 0.000000 0.000000 0.000000 0.000000 -1.715988
    31 11.481696 0.000000 0.000004 -1.359811 -0.301334 0.471222
    32 3.883655 0.203586 -0.403698 -0.090409 -0.246369 -0.499502
    33 1.719577 0.000003 0.000000 0.000000 -0.098494 -0.706929
    34 1.209180 -0.000002 0.000000 0.000000 -0.061016 -0.559568
    35 3.867641 0.101071 -1.303936 -0.352498 0.029279 -0.464103
    36 1.719427 0.000000 0.000000 0.000000 -0.007728 -0.686517
    37 1.099664 0.000000 0.000000 0.000000 -0.004906 -0.567832
    38 0.837266 -0.316863 -1.314427 1.384670 0.380862 -0.394860
    39 1.789782 0.000000 0.000002 0.000000 0.003270 0.228588
    40 1.206999 0.000000 0.000000 0.000000 0.004991 0.362980
    41 -0.044717 2.313936 4.661499 -0.039270 0.000000 0.000000
    42 2.676089 -1.712443 0.000000 1.570797 0.000000 1.570796
    43 2.676086 -1.712442 0.000000 -1.570796 0.000000 -1.570796
  time 20
    0 -0.385173 0.000005 38.141123 1.570796 0.000000 -1.514998
    1 3.890452 -0.000004 -0.000003 -1.635472 -0.132027 -1.547771
    2 17.848173 0.000000 0.000000 0.000000 0.000000 0.321291
    3 16.525244 0.000000 0.000000 -0.042578 -0.046144 -1.172862
    4 6.879447 -0.000001 0.000001 -0.007299 -0.002951 -0.584373
    5 -3.890452 0.000004 0.000007 -1.237385 0.030133 -1.565176
    6 17.848169 0.000000 0.000000 0.000000 0.000000 0.200718
    7 16.525253 0.000000 0.000000 -0.053644 -0.097000 -1.214889
    8 6.879452 0.000000 0.000000 -0.081333 -0.002951 -0.584373
    9 0.000005 3.345128 -2.981901 1.556379 -0.103045 1.561063
    10 4.002706 0.000000 0.000000 -0.035770 -0.034647 0.228520
    11 3.518565 0.000000 0.000000 -0.036814 -0.012919 0.357022
    12 8.923110 0.000000 0.000000 0.000467 0.000132 0.239350
    13 3.307271 0.000000 0.000000 3.141590 0.000000 0.406087
    14 3.597619 -0.000002 0.000000 0.356174 0.055895 0.974348
    15 2.056784 0.985142 1.937660 2.025232 -1.134239 2.476147
    16 6.028142 -0.000001 0.000000 -1.715823 -0.335090 -0.744415
    17 11.692558 0.000000 0.000003 0.000000 0.000000 -1.618216
    18 11.481671 0.000000 -0.000028 -0.456915 -0.353519 0.162269
    19 3.883692 0.211047 0.404098 0.034908 0.091860 -1.433620
    20 1.719576 0.000002 0.000000 0.000000 0.005013 -0.700517
    21 1.209181 0.000001 0.000000 0.000000 0.002808 -0.550414
    22 3.867672 0.112060 1.301216 0.237815 0.158411 -1.402387
    23 1.719430 0.000003 0.000000 0.000000 0.005105 -0.697014
    24 1.099666 0.000002 0.000000 0.000000 0.003231 -0.578348
    25 0.837300 -0.302048 1.313446 -1.498998 -0.551603 -0.236177
    26 1.789785 0.000000 0.000001 0.000000 0.273240 -0.428038
    27 1.206999 0.000000 0.000001 0.000000 -0.003283 0.389058
    28 2.052885 0.985146 -1.937610 -1.902540 1.178013 2.690211
    29 6.028141 0.000004 0.000000 1.309798 0.959435 -0.166281
    30 11.692545 0.000000 0.000000 0.000000 0.000000 -1.715236
    31 11.481696 0.000000 0.000004 -1.359811 -0.301334 0.471222
    32 3.883655 0.203586 -0.403698 -0.090409 -0.246369 -0.499502
    33 1.719577 0.000003 0.000000 0.000000 -0.098494 -0.706929
    34 1.209180 -0.000002 0.000000 0.000000 -0.061016 -0.559568
    35 3.867641 0.101071 -1.303936 -0.352498 0.029279 -0.464103
    36 1.719427 0.000000 0.000000 0.000000 -0.007728 -0.686517
    37 1.099664 0.000000 0.000000 0.000000 -0.004906 -0.567832
    38 0.837266 -0.316863 -1.310520 1.384670 0.380862 -0.394860
    39 1.789782 0.000000 0.000002 0.000000 0.003270 0.228588
    40 1.206999 0.000000 0.000000 0.000000 0.004991 0.362980
    41 -0.044717 2.313936 4.661499 -0.039270 0.000000 0.000000
    42 2.676089 -1.712443 0.000000 1.570797 0.000000 1.570796
    43 2.676086 -1.712442 0.000000 -1.570796 0.000000 -1.570796
  time 21
    0 -0.385173 0.000005 38.141123 1.570796 0.000000 -1.514998
    1 3.890452 -0.000004 -0.000003 -1.635472 -0.132027 -1.547771
    2 17.848173 0.000000 0.000000 0.000000 0.000000 0.321291
    3 16.525244 0.000000 0.000000 -0.042578 -0.046144 -1.172862
    4 6.879447 -0.000001 0.000001 -0.007299 -0.002951 -0.584373
    5 -3.890452 0.000004 0.000007 -1.237385 0.030133 -1.565176
    6 17.848169 0.000000 0.000000 0.000000 0.000000 0.200718
    7 16.525253 0.000000 0.000000 -0.053644 -0.097000 -1.214889
    8 6.879452 0.000000 0.000000 -0.081333 -0.002951 -0.584373
    9 0.000005 3.345128 -2.981901 1.556091 -0.103045 1.564009
    10 4.002706 0.000000 0.000000 -0.033324 -0.028212 0.227527
    11 3.518565 0.000000 0.000000 -0.031607 -0.013267 0.356782
    12 8.923110 0.000000 0.000000 0.000503 0.000264 0.238427
    13 3.307271 0.000000 0.000000 3.141590 0.000000 0.406087
    14 3.597619 -0.000002 0.000000 0.351924 0.062211 0.975844
    15 2.056784 0.985142 1.937660 2.024816 -1.134970 2.476560
    16 6.028142 -0.000001 0.000000 -1.714299 -0.335272 -0.745955
    17 11.692558 0.000000 0.000003 0.000000 0.000000 -1.616520
    18 11.481671 0.000000 -0.000028 -0.458684 -0.355943 0.159546
    19 3.883692 0.211047 0.404098 0.034908 0.091860 -1.433620
    20 1.719576 0.000002 0.000000 0.000000 0.005013 -0.700517
    21 1.209181 0.000001 0.000000 0.000000 0.002808 -0.550414
    22 3.867672 0.112060 1.301216 0.237815 0.158411 -1.402387
    23 1.719430 0.000003 0.000000 0.000000 0.005105 -0.697014
    24 1.099666 0.000002 0.000000 0.000000 0.003231 -0.578348
    25 0.837300 -0.305954 1.313446 -1.498998 -0.551603 -0.236177
    26 1.789785 0.000000 0.000001 0.000000 0.273240 -0.428038
    27 1.206999 0.000000 0.000001 0.000000 -0.003283 0.389058
    28 2.052885 0.981239 -1.937610 -1.900971 1.177594 2.691951
    29 6.028141 0.000004 0.000000 1.311043 0.960627 -0.161882
    30 11.692545 0.000000 0.000000 0.000000 0.000000 -1.714962
    31 11.481696 0.000000 0.000004 -1.359811 -0.301334 0.471222
    32 3.883655 0.203586 -0.403698 -0.090409 -0.246369 -0.499502
    33 1.719577 0.000003 0.000000 0.000000 -0.098494 -0.706929
    34 1.209180 -0.000002 0.000000 0.000000 -0.061016 -0.559568
    35 3.867641 0.101071 -1.307843 -0.352498 0.029279 -0.464103
    36 1.719427 0.000000 0.000000 0.000000 -0.007728 -0.686517
    37 1.099664 0.000000 0.000000 0.000000 -0.004906 -0.567832
    38 0.837266 -0.316863 -1.314427 1.384670 0.380862 -0.394860
    39 1.789782 0.000000 0.000002 0.000000 0.003270 0.228588
    40 1.206999 0.000000 0.000000 0.000000 0.004991 0.362980
    41 -0.044717 2.313936 4.661499 -0.039270 0.000000 0.000000
    42 2.676089 -1.712443 0.000000 1.570797 0.000000 1.570796
    43 2.676086 -1.712442 0.000000 -1.570796 0.000000 -1.570796
  time 22
    0 -0.385173 0.000005 38.141123 1.570796 0.000000 -1.514998
    1 3.890452 -0.000004 -0.000003 -1.635472 -0.132027 -1.547771
    2 17.848173 0.000000 0.000000 0.000000 0.000000 0.321291
    3 16.525244 0.000000 0.000000 -0.042578 -0.046144 -1.172862
    4 6.879447 -0.000001 0.000001 -0.007299 -0.002951 -0.584373
    5 -3.890452 0.000004 0.000007 -1.237385 0.030133 -1.565176
    6 17.848169 0.000000 0.000000 0.000000 0.000000 0.200718
    7 16.525253 0.000000 0.000000 -0.053644 -0.097000 -1.214889
    8 6.879452 0.000000 0.000000 -0.081333 -0.002951 -0.584373
    9 0.000005 3.345128 -2.981901 1.555803 -0.103045 1.566529
    10 4.002706 0.000000 0.000000 -0.030123 -0.021045 0.226746
    11 3.518565 0.000000 0.000000 -0.025834 -0.013662 0.357118
    12 8.923110 0.000000 0.000000 0.000551 0.000443 0.237768
    13 3.307271 0.000000 0.000000 3.141590 0.000000 0.406087
    14 3.597619 -0.000002 0.000000 0.347304 0.068299 0.976902
    15 2.056784 0.981235 1.937660 2.025232 -1.134239 2.476147
    16 6.028142 -0.000001 0.000000 -1.713633 -0.333678 -0.746195
    17 11.692558 0.000000 0.000003 0.000000 0.000000 -1.616373
    18 11.481671 0.000000 -0.000028 -0.460534 -0.358430 0.158056
    19 3.883692 0.211047 0.404098 0.034908 0.091860 -1.433620
    20 1.719576 0.000002 0.000000 0.000000 0.005013 -0.700517
    21 1.209181 0.000001 0.000000 0.000000 0.002808 -0.550414
    22 3.867672 0.112060 1.301216 0.237803 0.158411 -1.402387
    23 1.719430 0.000003 0.000000 0.000000 0.005105 -0.697014
    24 1.099666 0.000002 0.000000 0.000000 0.003243 -0.578348
    25 0.837300 -0.302048 1.313446 -1.498998 -0.551603 -0.236177
    26 1.789785 0.000000 0.000001 0.000000 0.273240 -0.428038
    27 1.206999 0.000000 0.000001 0.000000 -0.003283 0.389058
    28 2.056792 0.981239 -1.937610 -1.902540 1.178013 2.690211
    29 6.028141 0.000004 0.000000 1.312096 0.960579 -0.158822
    30 11.692545 0.000000 0.000000 0.000000 0.000000 -1.715236
    31 11.481696 0.000000 0.000004 -1.359811 -0.301334 0.471222
    32 3.883655 0.203586 -0.403698 -0.090409 -0.246369 -0.499502
    33 1.719577 0.000003 0.000000 0.000000 -0.098494 -0.706929
    34 1.209180 -0.000002 0.000000 0.000000 -0.061016 -0.559568
    35 3.867641 0.101071 -1.303936 -0.352498 0.029279 -0.464103
    36 1.719427 0.000000 0.000000 0.000000 -0.007728 -0.686517
    37 1.099664 0.000000 0.000000 0.000000 -0.004906 -0.567832
    38 0.837266 -0.316863 -1.314427 1.384670 0.380862 -0.394860
    39 1.789782 0.000000 0.000002 0.000000 0.003270 0.228588
    40 1.206999 0.000000 0.000000 0.000000 0.004991 0.362980
    41 -0.044717 2.313936 4.661499 -0.039270 0.000000 0.000000
    42 2.676089 -1.712443 0.000000 1.570797 0.000000 1.570796
    43 2.676086 -1.712442 0.000000 -1.570796 0.000000 -1.570796
  time 23
    0 -0.385173 0.000005 38.141123 1.570796 0.000000 -1.514998
    1 3.890452 -0.000004 -0.000003 -1.635472 -0.132027 -1.547771
    2 17.848173 0.000000 0.000000 0.000000 0.000000 0.321291
    3 16.525244 0.000000 0.000000 -0.042578 -0.046144 -1.172862
    4 6.879447 -0.000001 0.000001 -0.007299 -0.002951 -0.584373
    5 -3.890452 0.000004 0.000007 -1.237385 0.030133 -1.565176
    6 17.848169 0.000000 0.000000 0.000000 0.000000 0.200718
    7 16.525253 0.000000 0.000000 -0.053644 -0.097000 -1.214889
    8 6.879452 0.000000 0.000000 -0.081333 -0.002951 -0.584373
    9 0.000005 3.345128 -2.981901 1.555612 -0.103062 1.568428
    10 4.002706 0.000000 0.000000 -0.026388 -0.011805 0.226229
    11 3.518565 0.000000 0.000000 -0.019753 -0.014082 0.358304
    12 8.923110 0.000000 0.000000 0.000611 0.000671 0.237504
    13 3.307271 0.000000 0.000000 3.141590 0.000000 0.406087
    14 3.597619 -0.000002 0.000000 0.342407 0.073956 0.977377
    15 2.056784 0.981235 1.937660 2.026065 -1.132165 2.474802
    16 6.028142 -0.000001 0.000000 -1.714013 -0.330355 -0.746292
    17 11.692558 0.000000 0.000003 0.000000 0.000000 -1.617405
    18 11.481671 0.000000 -0.000028 -0.462062 -0.361063 0.156532
    19 3.883692 0.211047 0.404098 0.034908 0.091860 -1.433620
    20 1.719576 0.000002 0.000000 0.000000 0.005013 -0.700517
    21 1.209181 0.000001 0.000000 0.000000 0.002808 -0.550414
    22 3.867672 0.112060 1.301216 0.237803 0.158411 -1.402387
    23 1.719430 0.000003 0.000000 0.000000 0.005105 -0.697014
    24 1.099666 0.000002 0.000000 0.000000 0.003243 -0.578348
    25 0.837300 -0.302048 1.313446 -1.498998 -0.551603 -0.236177
    26 1.789785 0.000000 0.000001 0.000000 0.273240 -0.428038
    27 1.206999 0.000000 0.000001 0.000000 -0.003283 0.389058
    28 2.052885 0.981239 -1.937610 -1.907245 1.179072 2.685292
    29 6.028141 0.000004 0.000000 1.313053 0.959673 -0.155475
    30 11.692545 0.000000 0.000000 0.000000 0.000000 -1.715988
    31 11.481696 0.000000 0.000004 -1.359811 -0.301334 0.471222
    32 3.883655 0.203586 -0.403698 -0.090409 -0.246369 -0.499502
    33 1.719577 0.000003 0.000000 0.000000 -0.098494 -0.706929
    34 1.209180 -0.000002 0.000000 0.000000 -0.061016 -0.559568
    35 3.867641 0.101071 -1.303936 -0.352498 0.029279 -0.464103
    36 1.719427 0.000000 0.000000 0.000000 -0.007728 -0.686517
    37 1.099664 0.000000 0.000000 0.000000 -0.004906 -0.567832
    38 0.837266 -0.316863 -1.314427 1.384670 0.380862 -0.394860
    39 1.789782 0.000000 0.000002 0.000000 0.003270 0.228588
    40 1.206999 0.000000 0.000000 0.000000 0.004991 0.362980
    41 -0.044717 2.313936 4.661499 -0.039270 0.000000 0.000000
    42 2.676089 -1.712443 0.000000 1.570797 0.000000 1.570796
    43 2.676086 -1.712442 0.000000 -1.570796 0.000000 -1.570796
  time 24
    0 -0.385173 0.000005 38.141123 1.570796 0.000000 -1.514998
    1 3.890452 -0.000004 -0.000003 -1.635472 -0.132027 -1.547771
    2 17.848173 0.000000 0.000000 0.000000 0.000000 0.321291
    3 16.525244 0.000000 0.000000 -0.042578 -0.046144 -1.172862
    4 6.879447 -0.000001 0.000001 -0.007299 -0.002951 -0.584373
    5 -3.890452 0.000004 0.000007 -1.237385 0.030133 -1.565176
    6 17.848169 0.000000 0.000000 0.000000 0.000000 0.200718
    7 16.525253 0.000000 0.000000 -0.053644 -0.097000 -1.214889
    8 6.879452 0.000000 0.000000 -0.081333 -0.002951 -0.584373
    9 0.000005 3.345128 -2.981901 1.555468 -0.103062 1.569667
    10 4.002706 0.000000 0.000000 -0.022275 -0.000180 0.226084
    11 3.518565 0.000000 0.000000 -0.013550 -0.014513 0.360390
    12 8.923110 0.000000 0.000000 0.000671 0.000935 0.237828
    13 3.307271 0.000000 0.000000 3.141590 0.000000 0.406087
    14 3.597619 -0.000002 0.000000 0.337464 0.078918 0.977121
    15 2.056784 0.981235 1.937660 2.027418 -1.128930 2.472786
    16 6.028142 -0.000001 0.000000 -1.715251 -0.325620 -0.746917
    17 11.692558 0.000000 0.000003 0.000000 0.000000 -1.619100
    18 11.481671 0.000000 -0.000028 -0.463107 -0.363821 0.154717
    19 3.883692 0.211047 0.404098 0.034908 0.091860 -1.433620
    20 1.719576 0.000002 0.000000 0.000000 0.005013 -0.700517
    21 1.209181 0.000001 0.000000 0.000000 0.002808 -0.550414
    22 3.867672 0.112060 1.301216 0.237815 0.158411 -1.402387
    23 1.719430 0.000003 0.000000 0.000000 0.005105 -0.697014
    24 1.099666 0.000002 0.000000 0.000000 0.003243 -0.578348
    25 0.837300 -0.302048 1.313446 -1.498998 -0.551603 -0.236177
    26 1.789785 0.000000 0.000001 0.000000 0.273240 -0.428038
    27 1.206999 0.000000 0.000001 0.000000 -0.003283 0.389058
    28 2.056792 0.981239 -1.937610 -1.914626 1.180749 2.677574
    29 6.028141 0.000004 0.000000 1.314394 0.958005 -0.151555
    30 11.692545 0.000000 0.000000 0.000000 0.000000 -1.717151
    31 11.481696 0.000000 0.000004 -1.359811 -0.301334 0.471222
    32 3.883655 0.203586 -0.403698 -0.090409 -0.246369 -0.499502
    33 1.719577 0.000003 0.000000 0.000000 -0.098494 -0.706929
    34 1.209180 -0.000002 0.000000 0.000000 -0.061016 -0.559568
    35 3.867641 0.101071 -1.303936 -0.352498 0.029279 -0.464103
    36 1.719427 0.000000 0.000000 0.000000 -0.007728 -0.686517
    37 1.099664 0.000000 0.000000 0.000000 -0.004906 -0.567832
    38 0.837266 -0.316863 -1.314427 1.384670 0.380862 -0.394860
    39 1.789782 0.000000 0.000002 0.000000 0.003270 0.228588
    40 1.206999 0.000000 0.000000 0.000000 0.004991 0.362980
    41 -0.044717 2.313936 4.661499 -0.039270 0.000000 0.000000
    42 2.676089 -1.712443 0.000000 1.570797 0.000000 1.570796
    43 2.676086 -1.712442 0.000000 -1.570796 0.000000 -1.570796
  time 25
    0 -0.385173 0.000005 38.141123 1.570796 0.000000 -1.514998
    1 3.890452 -0.000004 -0.000003 -1.635472 -0.132027 -1.547771
    2 17.848173 0.000000 0.000000 0.000000 0.000000 0.321291
    3 16.525244 0.000000 0.000000 -0.042578 -0.046144 -1.172862
    4 6.879447 -0.000001 0.000001 -0.007299 -0.002951 -0.584373
    5 -3.890452 0.000004 0.000007 -1.237385 0.030133 -1.565176
    6 17.848169 0.000000 0.000000 0.000000 0.000000 0.200718
    7 16.525253 0.000000 0.000000 -0.053644 -0.097000 -1.214889
    8 6.879452 0.000000 0.000000 -0.081333 -0.002951 -0.584373
    9 0.000005 3.345128 -2.981901 1.555420 -0.103062 1.570094
    10 4.002706 0.000000 0.000000 -0.017963 0.011937 0.227024
    11 3.518565 0.000000 0.000000 -0.007454 -0.014933 0.362223
    12 8.923110 0.000000 0.000000 0.000755 0.001210 0.238990
    13 3.307271 0.000000 0.000000 3.141590 0.000000 0.406087
    14 3.597619 -0.000002 0.000000 0.332660 0.083016 0.970588
    15 2.056784 0.981235 1.937660 2.029031 -1.124783 2.470201
    16 6.028142 -0.000001 0.000000 -1.717298 -0.319792 -0.746917
    17 11.692558 0.000000 0.000003 0.000000 0.000000 -1.621753
    18 11.481671 0.000000 -0.000028 -0.463831 -0.366287 0.153583
    19 3.883692 0.211047 0.408005 0.034908 0.091860 -1.433620
    20 1.719576 0.000002 0.000000 0.000000 0.005013 -0.700517
    21 1.209181 0.000001 0.000000 0.000000 0.002808 -0.550414
    22 3.867672 0.112060 1.301216 0.237803 0.158411 -1.402387
    23 1.719430 0.000003 0.000000 0.000000 0.005105 -0.697014
    24 1.099666 0.000002 0.000000 0.000000 0.003243 -0.578348
    25 0.837300 -0.305954 1.313446 -1.498998 -0.551603 -0.236177
    26 1.789785 0.000000 0.000001 0.000000 0.273240 -0.428038
    27 1.206999 0.000000 0.000001 0.000000 -0.003283 0.389058
    28 2.052885 0.981239 -1.937610 -1.924313 1.182846 2.667585
    29 6.028141 0.000004 0.000000 1.315351 0.955620 -0.148686
    30 11.692545 0.000000 0.000000 0.000000 0.000000 -1.718725
    31 11.481696 0.000000 0.000004 -1.359811 -0.301334 0.471222
    32 3.883655 0.203586 -0.403698 -0.090409 -0.246369 -0.499502
    33 1.719577 0.000003 0.000000 0.000000 -0.098494 -0.706929
    34 1.209180 -0.000002 0.000000 0.000000 -0.061016 -0.559568
    35 3.867641 0.101071 -1.303936 -0.352498 0.029279 -0.464103
    36 1.719427 0.000000 0.000000 0.000000 -0.007728 -0.686517
    37 1.099664 0.000000 0.000000 0.000000 -0.004906 -0.567832
    38 0.837266 -0.316863 -1.310520 1.384670 0.380862 -0.394860
    39 1.789782 0.000000 0.000002 0.000000 0.003270 0.228588
    40 1.206999 0.000000 0.000000 0.000000 0.004991 0.362980
    41 -0.044717 2.313936 4.661499 -0.039270 0.000000 0.000000
    42 2.676089 -1.712443 0.000000 1.570797 0.000000 1.570796
    43 2.676086 -1.712442 0.000000 -1.570796 0.000000 -1.570796
  time 26
    0 -0.385173 0.000005 38.141123 1.570796 0.000000 -1.514998
    1 3.890452 -0.000004 -0.000003 -1.635472 -0.132027 -1.547771
    2 17.848173 0.000000 0.000000 0.000000 0.000000 0.321291
    3 16.525244 0.000000 0.000000 -0.042578 -0.046144 -1.172862
    4 6.879447 -0.000001 0.000001 -0.007299 -0.002951 -0.584373
    5 -3.890452 0.000004 0.000007 -1.237385 0.030133 -1.565176
    6 17.848169 0.000000 0.000000 0.000000 0.000000 0.200718
    7 16.525253 0.000000 0.000000 -0.053644 -0.097000 -1.214889
    8 6.879452 0.000000 0.000000 -0.081333 -0.002951 -0.584373
    9 0.000005 3.345128 -2.981901 1.555468 -0.103062 1.569667
    10 4.002706 0.000000 0.000000 -0.013494 0.022339 0.229115
    11 3.518565 0.000000 0.000000 -0.001682 -0.015328 0.362882
    12 8.923110 0.000000 0.000000 0.000839 0.001522 0.241088
    13 3.307271 0.000000 0.000000 3.141590 0.000000 0.406087
    14 3.597619 -0.000002 0.000000 0.328271 0.086012 0.962413
    15 2.056784 0.981235 1.937660 2.030957 -1.119905 2.467254
    16 6.028142 -0.000001 0.000000 -1.719965 -0.313418 -0.745041
    17 11.692558 0.000000 0.000003 0.000000 0.000000 -1.625807
    18 11.481671 0.000000 -0.000028 -0.464555 -0.368043 0.154490
    19 3.883692 0.211047 0.408005 0.034908 0.091860 -1.433620
    20 1.719576 0.000002 0.000000 0.000000 0.005013 -0.700517
    21 1.209181 0.000001 0.000000 0.000000 0.002808 -0.550414
    22 3.867672 0.112060 1.301216 0.237815 0.158411 -1.402387
    23 1.719430 0.000003 0.000000 0.000000 0.005105 -0.697014
    24 1.099666 0.000002 0.000000 0.000000 0.003243 -0.578348
    25 0.837300 -0.305954 1.313446 -1.498998 -0.551603 -0.236177
    26 1.789785 0.000000 0.000001 0.000000 0.273240 -0.428038
    27 1.206999 0.000000 0.000001 0.000000 -0.003283 0.389058
    28 2.056792 0.981239 -1.937610 -1.935754 1.185295 2.655856
    29 6.028141 0.000004 0.000000 1.315639 0.952282 -0.148399
    30 11.692545 0.000000 0.000000 0.000000 0.000000 -1.720504
    31 11.481696 0.000000 0.000004 -1.359811 -0.301334 0.471222
    32 3.883655 0.203586 -0.403698 -0.090409 -0.246369 -0.499502
    33 1.719577 0.000003 0.000000 0.000000 -0.098494 -0.706929
    34 1.209180 -0.000002 0.000000 0.000000 -0.061016 -0.559568
    35 3.867641 0.101071 -1.303936 -0.352498 0.029279 -0.464103
    36 1.719427 0.000000 0.000000 0.000000 -0.007728 -0.686517
    37 1.099664 0.000000 0.000000 0.000000 -0.004906 -0.567832
    38 0.837266 -0.316863 -1.310520 1.384670 0.380862 -0.394860
    39 1.789782 0.000000 0.000002 0.000000 0.003270 0.228588
    40 1.206999 0.000000 0.000000 0.000000 0.004991 0.362980
    41 -0.044717 2.313936 4.661499 -0.039270 0.000000 0.000000
    42 2.676089 -1.712443 0.000000 1.570797 0.000000 1.570796
    43 2.676086 -1.712442 0.000000 -1.570796 0.000000 -1.570796
  time 27
    0 -0.385173 0.000005 38.141123 1.570796 0.000000 -1.514998
    1 3.890452 -0.000004 -0.000003 -1.635472 -0.132027 -1.547771
    2 17.848173 0.000000 0.000000 0.000000 0.000000 0.321291
    3 16.525244 0.000000 0.000000 -0.042578 -0.046144 -1.172862
    4 6.879447 -0.000001 0.000001 -0.007299 -0.002951 -0.584373
    5 -3.890452 0.000004 0.000007 -1.237385 0.030133 -1.565176
    6 17.848169 0.000000 0.000000 0.000000 0.000000 0.200718
    7 16.525253 0.000000 0.000000 -0.053644 -0.097000 -1.214889
    8 6.879452 0.000000 0.000000 -0.081333 -0.002951 -0.584373
    9 0.000005 3.345128 -2.981901 1.555612 -0.103062 1.568428
    10 4.002706 0.000000 0.000000 -0.009026 0.029854 0.231591
    11 3.518565 0.000000 0.000000 0.003512 -0.015688 0.362942
    12 8.923110 0.000000 0.000000 0.000923 0.001834 0.242909
    13 3.307271 0.000000 0.000000 3.141590 0.000000 0.406087
    14 3.597619 -0.000002 0.000000 0.324298 0.087702 0.958471
    15 2.056784 0.981235 1.937660 2.033039 -1.114464 2.463997
    16 6.028142 -0.000001 0.000000 -1.722821 -0.306680 -0.740711
    17 11.692558 0.000000 0.000003 0.000000 0.000000 -1.630892
    18 11.481671 0.000000 -0.000028 -0.465359 -0.369004 0.157893
    19 3.883692 0.211047 0.404098 0.034908 0.091860 -1.433620
    20 1.719576 0.000002 0.000000 0.000000 0.005013 -0.700517
    21 1.209181 0.000001 0.000000 0.000000 0.002808 -0.550414
    22 3.867672 0.112060 1.301216 0.237803 0.158411 -1.402387
    23 1.719430 0.000003 0.000000 0.000000 0.005105 -0.697014
    24 1.099666 0.000002 0.000000 0.000000 0.003243 -0.578348
    25 0.837300 -0.302048 1.313446 -1.498998 -0.551603 -0.236177
    26 1.789785 0.000000 0.000001 0.000000 0.273240 -0.428038
    27 1.206999 0.000000 0.000001 0.000000 -0.003283 0.389058
    28 2.052885 0.985146 -1.937610 -1.948486 1.187943 2.642462
    29 6.028141 0.000004 0.000000 1.314968 0.948086 -0.151459
    30 11.692545 0.000000 0.000000 0.000000 0.000000 -1.722419
    31 11.481696 0.000000 0.000004 -1.359811 -0.301334 0.471222
    32 3.883655 0.203586 -0.403698 -0.090409 -0.246369 -0.499502
    33 1.719577 0.000003 0.000000 0.000000 -0.098494 -0.706929
    34 1.209180 -0.000002 0.000000 0.000000 -0.061016 -0.559568
    35 3.867641 0.101071 -1.303936 -0.352498 0.029279 -0.464103
    36 1.719427 0.000000 0.000000 0.000000 -0.007728 -0.686517
    37 1.099664 0.000000 0.000000 0.000000 -0.004918 -0.567832
    38 0.837266 -0.316863 -1.310520 1.384670 0.380862 -0.394860
    39 1.789782 0.000000 0.000002 0.000000 0.003270 0.228588
    40 1.206999 0.000000 0.000000 0.000000 0.004991 0.362980
    41 -0.044717 2.313936 4.661499 -0.039270 0.000000 0.000000
    42 2.676089 -1.712443 0.000000 1.570797 0.000000 1.570796
    43 2.676086 -1.712442 0.000000 -1.570796 0.000000 -1.570796
  time 28
    0 -0.385173 0.000005 38.141123 1.570796 0.000000 -1.514998
    1 3.890452 -0.000004 -0.000003 -1.635472 -0.132027 -1.547771
    2 17.848173 0.000000 0.000000 0.000000 0.000000 0.321291
    3 16.525244 0.000000 0.000000 -0.042578 -0.046144 -1.172862
    4 6.879447 -0.000001 0.000001 -0.007299 -0.002951 -0.584373
    5 -3.890452 0.000004 0.000007 -1.237385 0.030133 -1.565176
    6 17.848169 0.000000 0.000000 0.000000 0.000000 0.200718
    7 16.525253 0.000000 0.000000 -0.053644 -0.097000 -1.214889
    8 6.879452 0.000000 0.000000 -0.081333 -0.002951 -0.584373
    9 0.000005 3.345128 -2.981901 1.555803 -0.103045 1.566529
    10 4.002706 0.000000 0.000000 -0.004691 0.032814 0.233669
    11 3.518565 0.000000 0.000000 0.007952 -0.015987 0.362763
    12 8.923110 0.000000 0.000000 0.001007 0.002121 0.243580
    13 3.307271 0.000000 0.000000 3.141590 0.000000 0.406087
    14 3.597619 -0.000002 0.000000 0.321111 0.087834 0.958507
    15 2.056784 0.981235 1.937660 2.035017 -1.108760 2.460533
    16 6.028142 -0.000001 0.000000 -1.725725 -0.300033 -0.733206
    17 11.692558 0.000000 0.000003 0.000000 0.000000 -1.637231
    18 11.481671 0.000000 -0.000028 -0.466646 -0.368962 0.164700
    19 3.883692 0.211047 0.404098 0.034908 0.091860 -1.433620
    20 1.719576 0.000002 0.000000 0.000000 0.005013 -0.700517
    21 1.209181 0.000001 0.000000 0.000000 0.002808 -0.550414
    22 3.867672 0.112060 1.301216 0.237803 0.158411 -1.402387
    23 1.719430 0.000003 0.000000 0.000000 0.005105 -0.697014
    24 1.099666 0.000002 0.000000 0.000000 0.003243 -0.578348
    25 0.837300 -0.302048 1.313446 -1.498998 -0.551603 -0.236177
    26 1.789785 0.000000 0.000001 0.000000 0.273240 -0.428038
    27 1.206999 0.000000 0.000001 0.000000 -0.003283 0.389058
    28 2.052885 0.981239 -1.937610 -1.962233 1.190680 2.628311
    29 6.028141 0.000004 0.000000 1.313149 0.942984 -0.158727
    30 11.692545 0.000000 0.000000 0.000000 0.000000 -1.724472
    31 11.481696 0.000000 0.000004 -1.359811 -0.301334 0.471222
    32 3.883655 0.203586 -0.403698 -0.090409 -0.246369 -0.499502
    33 1.719577 0.000003 0.000000 0.000000 -0.098494 -0.706929
    34 1.209180 -0.000002 0.000000 0.000000 -0.061016 -0.559568
    35 3.867641 0.101071 -1.303936 -0.352498 0.029279 -0.464103
    36 1.719427 0.000000 0.000000 0.000000 -0.007728 -0.686517
    37 1.099664 0.000000 0.000000 0.000000 -0.004906 -0.567832
    38 0.837266 -0.316863 -1.310520 1.384670 0.380862 -0.394860
    39 1.789782 0.000000 0.000002 0.000000 0.003270 0.228588
    40 1.206999 0.000000 0.000000 0.000000 0.004991 0.362980
    41 -0.044717 2.313936 4.661499 -0.039270 0.000000 0.000000
    42 2.676089 -1.712443 0.000000 1.570797 0.000000 1.570796
    43 2.676086 -1.712442 0.000000 -1.570796 0.000000 -1.570796
  time 29
    0 -0.385173 0.000005 38.141123 1.570796 0.000000 -1.514998
    1 3.890452 -0.000004 -0.000003 -1.635472 -0.132027 -1.547771
    2 17.848173 0.000000 0.000000 0.000000 0.000000 0.321291
    3 16.525244 0.000000 0.000000 -0.042578 -0.046144 -1.172862
    4 6.879447 -0.000001 0.000001 -0.007299 -0.002951 -0.584373
    5 -3.890452 0.000004 0.000007 -1.237385 0.030133 -1.565176
    6 17.848169 0.000000 0.000000 0.000000 0.000000 0.200718
    7 16.525253 0.000000 0.000000 -0.053644 -0.097000 -1.214889
    8 6.879452 0.000000 0.000000 -0.081333 -0.002951 -0.584373
    9 0.000005 3.345128 -2.981901 1.556091 -0.103045 1.564009
    10 4.002706 0.000000 0.000000 -0.000556 0.028308 0.234543
    11 3.518565 0.000000 0.000000 0.011397 -0.016227 0.362355
    12 8.923110 0.000000 0.000000 0.001067 0.002409 0.243628
    13 3.307271 0.000000 0.000000 3.141590 0.000000 0.406087
    14 3.597619 -0.000002 0.000000 0.318801 0.086228 0.959128
    15 2.056784 0.981235 1.937660 2.037046 -1.102935 2.457172
    16 6.028142 -0.000001 0.000000 -1.728487 -0.293887 -0.720697
    17 11.692558 0.000000 0.000003 0.000000 0.000000 -1.645191
    18 11.481671 0.000000 -0.000028 -0.468737 -0.367332 0.176530
    19 3.883692 0.211047 0.404098 0.034908 0.091860 -1.433620
    20 1.719576 0.000002 0.000000 0.000000 0.005013 -0.700517
    21 1.209181 0.000001 0.000000 0.000000 0.002808 -0.550414
    22 3.867672 0.112060 1.301216 0.237803 0.158411 -1.402387
    23 1.719430 0.000003 0.000000 0.000000 0.005105 -0.697014
    24 1.099666 0.000002 0.000000 0.000000 0.003243 -0.578348
    25 0.837300 -0.302048 1.313446 -1.498998 -0.551603 -0.236177
    26 1.789785 0.000000 0.000001 0.000000 0.273240 -0.428038
    27 1.206999 0.000000 0.000001 0.000000 -0.003283 0.389058
    28 2.052885 0.981239 -1.937610 -1.976533 1.193372 2.613631
    29 6.028141 0.000004 0.000000 1.309798 0.936881 -0.172305
    30 11.692545 0.000000 0.000000 0.000000 0.000000 -1.726661
    31 11.481696 0.000000 0.000004 -1.359811 -0.301334 0.471222
    32 3.883655 0.203586 -0.403698 -0.090409 -0.246369 -0.499502
    33 1.719577 0.000003 0.000000 0.000000 -0.098494 -0.706929
    34 1.209180 -0.000002 0.000000 0.000000 -0.061016 -0.559568
    35 3.867641 0.101071 -1.307843 -0.352498 0.029279 -0.464103
    36 1.719427 0.000000 0.000000 0.000000 -0.007728 -0.686517
    37 1.099664 0.000000 0.000000 0.000000 -0.004906 -0.567832
    38 0.837266 -0.316863 -1.310520 1.384670 0.380862 -0.394860
    39 1.789782 0.000000 0.000002 0.000000 0.003270 0.228588
    40 1.206999 0.000000 0.000000 0.000000 0.004991 0.362980
    41 -0.044717 2.313936 4.661499 -0.039270 0.000000 0.000000
    42 2.676089 -1.712443 0.000000 1.570797 0.000000 1.570796
    43 2.676086 -1.712442 0.000000 -1.570796 0.000000 -1.570796
  time 30
    0 -0.385173 0.000005 38.141123 1.570796 0.000000 -1.514998
    1 3.890452 -0.000004 -0.000003 -1.635472 -0.132027 -1.547771
    2 17.848173 0.000000 0.000000 0.000000 0.000000 0.321291
    3 16.525244 0.000000 0.000000 -0.042578 -0.046144 -1.172862
    4 6.879447 -0.000001 0.000001 -0.007299 -0.002951 -0.584373
    5 -3.890452 0.000004 0.000007 -1.237385 0.030133 -1.565176
    6 17.848169 0.000000 0.000000 0.000000 0.000000 0.200718
    7 16.525253 0.000000 0.000000 -0.053644 -0.097000 -1.214889
    8 6.879452 0.000000 0.000000 -0.081333 -0.002951 -0.584373
    9 0.000005 3.345128 -2.981901 1.556379 -0.103045 1.561063
    10 4.002706 0.000000 0.000000 0.003112 0.018061 0.234331
    11 3.518565 0.000000 0.000000 0.013630 -0.016371 0.361672
    12 8.923110 0.000000 0.000000 0.001127 0.002625 0.243461
    13 3.307271 0.000000 0.000000 3.141590 0.000000 0.406087
    14 3.597619 -0.000002 0.000000 0.317507 0.083076 0.960186
    15 2.056784 0.981235 1.937660 2.038920 -1.097242 2.453915
    16 6.028142 -0.000001 0.000000 -1.730962 -0.288469 -0.704917
    17 11.692558 0.000000 0.000003 0.000000 0.000000 -1.653961
    18 11.481671 0.000000 -0.000028 -0.471230 -0.364302 0.191731
    19 3.883692 0.211047 0.404098 0.034908 0.091860 -1.433620
    20 1.719576 0.000002 0.000000 0.000000 0.005013 -0.700517
    21 1.209181 0.000001 0.000000 0.000000 0.002808 -0.550414
    22 3.867672 0.112060 1.301216 0.237815 0.158411 -1.402387
    23 1.719430 0.000003 0.000000 0.000000 0.005105 -0.697014
    24 1.099666 0.000002 0.000000 0.000000 0.003243 -0.578348
    25 0.837300 -0.302048 1.313446 -1.498998 -0.551603 -0.236177
    26 1.789785 0.000000 0.000001 0.000000 0.273240 -0.428038
    27 1.206999 0.000000 0.000001 0.000000 -0.003283 0.389058
    28 2.052885 0.981239 -1.937610 -1.990741 1.195954 2.598951
    29 6.028141 0.000004 0.000000 1.305393 0.930014 -0.190188
    30 11.692545 0.000000 0.000000 0.000000 0.000000 -1.728714
    31 11.481696 0.000000 0.000004 -1.359811 -0.301334 0.471222
    32 3.883655 0.203586 -0.403698 -0.090409 -0.246369 -0.499502
    33 1.719577 0.000003 0.000000 0.000000 -0.098494 -0.706929
    34 1.209180 -0.000002 0.000000 0.000000 -0.061016 -0.559568
    35 3.863735 0.101071 -1.307843 -0.352498 0.029279 -0.464103
    36 1.719427 0.000000 0.000000 0.000000 -0.007728 -0.686517
    37 1.099664 0.000000 0.000000 0.000000 -0.004906 -0.567832
    38 0.837266 -0.316863 -1.314427 1.384670 0.380862 -0.394860
    39 1.789782 0.000000 0.000002 0.000000 0.003270 0.228588
    40 1.206999 0.000000 0.000000 0.000000 0.004991 0.362980
    41 -0.044717 2.313936 4.661499 -0.039270 0.000000 0.000000
    42 2.676089 -1.712443 0.000000 1.570797 0.000000 1.570796
    43 2.676086 -1.712442 0.000000 -1.570796 0.000000 -1.570796
  time 31
    0 -0.385173 0.000005 38.141123 1.570796 0.000000 -1.514998
    1 3.890452 -0.000004 -0.000003 -1.635472 -0.132027 -1.547771
    2 17.848173 0.000000 0.000000 0.000000 0.000000 0.321291
    3 16.525244 0.000000 0.000000 -0.042578 -0.046144 -1.172862
    4 6.879447 -0.000001 0.000001 -0.007299 -0.002951 -0.584373
    5 -3.890452 0.000004 0.000007 -1.237385 0.030133 -1.565176
    6 17.848169 0.000000 0.000000 0.000000 0.000000 0.200718
    7 16.525253 0.000000 0.000000 -0.053644 -0.097000 -1.214889
    8 6.879452 0.000000 0.000000 -0.081333 -0.002951 -0.584373
    9 0.000005 3.345128 -2.981901 1.556714 -0.103045 1.557828
    10 4.002706 0.000000 0.000000 0.006069 0.007550 0.233709
    11 3.518565 0.000000 0.000000 0.014411 -0.016431 0.360749
    12 8.923110 0.000000 0.000000 0.001163 0.002756 0.243053
    13 3.307271 0.000000 0.000000 3.141590 0.000000 0.406087
    14 3.597619 -0.000002 0.000000 0.317230 0.078750 0.961646
    15 2.056784 0.981235 1.937660 2.040742 -1.091849 2.450968
    16 6.028142 -0.000001 0.000000 -1.733390 -0.283461 -0.690100
    17 11.692558 0.000000 0.000003 0.000000 0.000000 -1.662068
    18 11.481671 0.000000 -0.000028 -0.473401 -0.361105 0.205992
    19 3.883692 0.211047 0.408005 0.034908 0.091860 -1.433620
    20 1.719576 0.000002 0.000000 0.000000 0.005013 -0.700517
    21 1.209181 0.000001 0.000000 0.000000 0.002808 -0.550414
    22 3.867672 0.112060 1.301216 0.237815 0.158411 -1.402387
    23 1.719430 0.000003 0.000000 0.000000 0.005105 -0.697014
    24 1.099666 0.000002 0.000000 0.000000 0.003243 -0.578348
    25 0.837300 -0.302048 1.313446 -1.498998 -0.551603 -0.236177
    26 1.789785 0.000000 0.000001 0.000000 0.273240 -0.428038
    27 1.206999 0.000000 0.000001 0.000000 -0.003283 0.389058
    28 2.052885 0.981239 -1.937610 -2.004304 1.198315 2.584952
    29 6.028141 0.000004 0.000000 1.301563 0.923529 -0.206922
    30 11.692545 0.000000 0.000000 0.000000 0.000000 -1.730629
    31 11.481696 0.000000 0.000004 -1.359811 -0.301334 0.471222
    32 3.883655 0.203586 -0.403698 -0.090409 -0.246369 -0.499502
    33 1.719577 0.000003 0.000000 0.000000 -0.098494 -0.706929
    34 1.209180 -0.000002 0.000000 0.000000 -0.061016 -0.559568
    35 3.867641 0.101071 -1.303936 -0.352498 0.029279 -0.464103
    36 1.719427 0.000000 0.000000 0.000000 -0.007728 -0.686517
    37 1.099664 0.000000 0.000000 0.000000 -0.004906 -0.567832
    38 0.837266 -0.316863 -1.310520 1.384670 0.380862 -0.394860
    39 1.789782 0.000000 0.000002 0.000000 0.003270 0.228588
    40 1.206999 0.000000 0.000000 0.000000 0.004991 0.362980
    41 -0.044717 2.313936 4.661499 -0.039270 0.000000 0.000000
    42 2.676089 -1.712443 0.000000 1.570797 0.000000 1.570796
    43 2.676086 -1.712442 0.000000 -1.570796 0.000000 -1.570796
end
