// Created by Crowbar 0.62
version 1
nodes
  0 "ValveBiped.Bip01_Pelvis" -1
  1 "ValveBiped.Bip01_L_Thigh" 0
  2 "ValveBiped.Bip01_L_Calf" 1
  3 "ValveBiped.Bip01_L_Foot" 2
  4 "ValveBiped.Bip01_L_Toe0" 3
  5 "ValveBiped.Bip01_R_Thigh" 0
  6 "ValveBiped.Bip01_R_Calf" 5
  7 "ValveBiped.Bip01_R_Foot" 6
  8 "ValveBiped.Bip01_R_Toe0" 7
  9 "ValveBiped.Bip01_Spine" 0
  10 "ValveBiped.Bip01_Spine1" 9
  11 "ValveBiped.Bip01_Spine2" 10
  12 "ValveBiped.Bip01_Spine4" 11
  13 "ValveBiped.Bip01_Neck1" 12
  14 "ValveBiped.Bip01_Head1" 13
  15 "ValveBiped.Bip01_L_Clavicle" 12
  16 "ValveBiped.Bip01_L_UpperArm" 15
  17 "ValveBiped.Bip01_L_Forearm" 16
  18 "ValveBiped.Bip01_L_Hand" 17
  19 "ValveBiped.Bip01_L_Finger2" 18
  20 "ValveBiped.Bip01_L_Finger21" 19
  21 "ValveBiped.Bip01_L_Finger22" 20
  22 "ValveBiped.Bip01_L_Finger1" 18
  23 "ValveBiped.Bip01_L_Finger11" 22
  24 "ValveBiped.Bip01_L_Finger12" 23
  25 "ValveBiped.Bip01_L_Finger0" 18
  26 "ValveBiped.Bip01_L_Finger01" 25
  27 "ValveBiped.Bip01_L_Finger02" 26
  28 "ValveBiped.Bip01_R_Clavicle" 12
  29 "ValveBiped.Bip01_R_UpperArm" 28
  30 "ValveBiped.Bip01_R_Forearm" 29
  31 "ValveBiped.Bip01_R_Hand" 30
  32 "ValveBiped.Bip01_R_Finger2" 31
  33 "ValveBiped.Bip01_R_Finger21" 32
  34 "ValveBiped.Bip01_R_Finger22" 33
  35 "ValveBiped.Bip01_R_Finger1" 31
  36 "ValveBiped.Bip01_R_Finger11" 35
  37 "ValveBiped.Bip01_R_Finger12" 36
  38 "ValveBiped.Bip01_R_Finger0" 31
  39 "ValveBiped.Bip01_R_Finger01" 38
  40 "ValveBiped.Bip01_R_Finger02" 39
  41 "ValveBiped.Cod" 0
  42 "ValveBiped.Anim_Attachment_LH" 18
  43 "ValveBiped.Anim_Attachment_RH" 31
end
skeleton
  time 0
    0 0.021089 -0.023433 36.559044 1.826668 0.036620 -0.007774
    1 3.890452 -0.000004 -0.000003 -2.121918 -0.645267 -1.280806
    2 17.848173 0.000000 0.000000 0.000000 0.000000 1.445253
    3 16.525244 0.000000 0.000000 0.171099 -0.066184 -1.098598
    4 6.879447 -0.000001 0.000001 -0.007299 -0.002951 -0.584373
    5 -3.890452 0.000004 0.000007 -1.767223 -0.301616 -1.516729
    6 17.848169 0.000000 0.000000 0.000000 0.000000 0.548896
    7 16.525253 0.000000 0.000000 0.063174 -0.117291 -1.371034
    8 6.879452 0.000000 0.000000 -0.081333 -0.002951 -0.584373
    9 0.000005 3.345128 -2.981901 1.602172 -0.018450 1.552570
    10 4.018331 0.000000 0.000000 -0.414629 -0.024053 0.164420
    11 3.518565 0.000000 0.000000 -0.189695 -0.047040 0.230692
    12 8.942642 0.000000 0.000000 0.069846 0.019739 0.278995
    13 3.307271 0.000000 0.000000 3.049644 0.000407 0.378882
    14 3.593713 -0.000002 0.000000 0.588125 -0.024390 0.788172
    15 2.033346 1.000767 1.937660 2.063173 -1.320875 2.457844
    16 6.028142 -0.000001 0.000000 -1.954773 -0.520981 -0.738209
    17 11.692558 0.000000 0.000003 0.000000 0.000000 -1.528151
    18 11.481671 0.000000 -0.000028 -0.516988 0.051519 -0.011004
    19 3.883692 -0.046774 0.431443 0.096592 -0.011005 -0.677032
    20 1.719576 0.000002 0.000000 0.055896 -0.087964 -1.150736
    21 1.209181 0.000001 0.000000 0.009300 -0.033625 -0.339454
    22 3.859859 -0.137948 1.332467 0.537921 -0.132407 -0.946649
    23 1.719430 0.000003 0.000000 0.023454 -0.208305 -0.755705
    24 1.099666 0.000002 0.000000 0.026030 -0.124608 -0.538675
    25 0.806049 -0.348924 1.321259 -1.269135 -0.727241 -0.266478
    26 1.789785 0.000000 0.000001 -0.001055 -0.012844 -0.131847
    27 1.206999 0.000000 0.000001 -0.000096 -0.003199 -0.064854
    28 2.033353 1.000771 -1.937610 -2.729659 1.487772 1.855480
    29 6.028141 0.000004 0.000000 1.113215 0.923100 -0.899640
    30 11.692545 0.000000 0.000000 0.000000 0.000000 -1.772295
    31 11.481696 0.000000 0.000004 -1.113811 -0.311586 0.388653
    32 3.883655 -0.050328 -0.431043 -0.386561 0.126208 -1.146667
    33 1.719577 0.000003 0.000000 -0.051390 0.078806 -1.521708
    34 1.209180 -0.000002 0.000000 -0.034695 0.051507 -1.200245
    35 3.859828 -0.148937 -1.331281 -0.083026 0.164909 0.067453
    36 1.719427 0.000000 0.000000 0.024520 0.136363 -0.478014
    37 1.099664 0.000000 0.000000 -0.166382 0.224946 -1.318138
    38 0.806015 -0.359833 -1.318333 1.070449 0.381371 -0.978459
    39 1.789782 0.000000 0.000002 0.002198 0.017473 0.317165
    40 1.206999 0.000000 0.000000 0.006460 0.026000 0.488017
    41 -0.044717 2.313936 4.661499 -0.862637 -0.041868 0.081112
    42 1.554961 -2.005421 -0.062502 -0.583859 0.091275 -1.371645
    43 2.676086 -1.712442 0.000000 -1.570796 0.000000 -1.570796
  time 1
    0 0.021089 -0.023433 36.559044 1.826668 0.036620 -0.007774
    1 3.890452 -0.000004 -0.000003 -2.121918 -0.645267 -1.280806
    2 17.848173 0.000000 0.000000 0.000000 0.000000 1.445253
    3 16.525244 0.000000 0.000000 0.171099 -0.066184 -1.098598
    4 6.879447 -0.000001 0.000001 -0.007299 -0.002951 -0.584373
    5 -3.890452 0.000004 0.000007 -1.767223 -0.301616 -1.516729
    6 17.848169 0.000000 0.000000 0.000000 0.000000 0.548896
    7 16.525253 0.000000 0.000000 0.063174 -0.117291 -1.371034
    8 6.879452 0.000000 0.000000 -0.081333 -0.002951 -0.584373
    9 0.000005 3.345128 -2.981901 1.602172 -0.018450 1.552570
    10 4.018331 0.000000 0.000000 -0.414629 -0.024053 0.164420
    11 3.518565 0.000000 0.000000 -0.189695 -0.047040 0.230692
    12 8.942642 0.000000 0.000000 0.069846 0.019739 0.278995
    13 3.307271 0.000000 0.000000 3.049644 0.000407 0.378882
    14 3.593713 -0.000002 0.000000 0.588125 -0.024390 0.788172
    15 2.033346 1.000767 1.937660 2.063173 -1.320875 2.457844
    16 6.028142 -0.000001 0.000000 -1.954773 -0.520981 -0.738209
    17 11.692558 0.000000 0.000003 0.000000 0.000000 -1.528151
    18 11.481671 0.000000 -0.000028 -0.516988 0.051519 -0.011004
    19 3.883692 -0.046774 0.431443 0.096592 -0.011005 -0.677032
    20 1.719576 0.000002 0.000000 0.055896 -0.087964 -1.150736
    21 1.209181 0.000001 0.000000 0.009300 -0.033625 -0.339454
    22 3.859859 -0.137948 1.332467 0.537921 -0.132407 -0.946649
    23 1.719430 0.000003 0.000000 0.023454 -0.208305 -0.755705
    24 1.099666 0.000002 0.000000 0.026030 -0.124608 -0.538675
    25 0.806049 -0.348924 1.321259 -1.269135 -0.727241 -0.266478
    26 1.789785 0.000000 0.000001 -0.001055 -0.012844 -0.131847
    27 1.206999 0.000000 0.000001 -0.000096 -0.003199 -0.064854
    28 2.033353 1.000771 -1.937610 -2.729659 1.487772 1.855480
    29 6.028141 0.000004 0.000000 1.113215 0.923100 -0.899640
    30 11.692545 0.000000 0.000000 0.000000 0.000000 -1.772295
    31 11.481696 0.000000 0.000004 -1.113811 -0.311586 0.388653
    32 3.883655 -0.050328 -0.431043 -0.386561 0.126208 -1.146667
    33 1.719577 0.000003 0.000000 -0.051390 0.078806 -1.521708
    34 1.209180 -0.000002 0.000000 -0.034695 0.051507 -1.200245
    35 3.859828 -0.148937 -1.331281 -0.083026 0.164909 0.067453
    36 1.719427 0.000000 0.000000 0.024520 0.136363 -0.478014
    37 1.099664 0.000000 0.000000 -0.166382 0.224946 -1.318138
    38 0.806015 -0.359833 -1.318333 1.070449 0.381371 -0.978459
    39 1.789782 0.000000 0.000002 0.002198 0.017473 0.317165
    40 1.206999 0.000000 0.000000 0.006460 0.026000 0.488017
    41 -0.044717 2.313936 4.661499 -0.862637 -0.041868 0.081112
    42 1.554961 -2.005421 -0.062502 -0.583859 0.091275 -1.371645
    43 2.676086 -1.712442 0.000000 -1.570796 0.000000 -1.570796
  time 2
    0 0.021089 -0.023433 36.648890 1.817399 0.074965 -0.038588
    1 3.890452 -0.000004 -0.000003 -2.231241 -0.475077 -1.288073
    2 17.848173 0.000000 0.000000 0.000000 0.000000 1.396594
    3 16.525244 0.000000 0.000000 0.180550 -0.026059 -1.043180
    4 6.879447 -0.000001 0.000001 -0.007299 -0.002951 -0.584373
    5 -3.890452 0.000004 0.000007 -1.852005 -0.470963 -1.316539
    6 17.848169 0.000000 0.000000 0.000000 0.000000 0.653728
    7 16.525253 0.000000 0.000000 0.011594 -0.112587 -1.259285
    8 6.879452 0.000000 0.000000 -0.081333 -0.002951 -0.584373
    9 0.000005 3.345128 -2.981901 1.602172 -0.018450 1.552570
    10 4.018331 0.000000 0.000000 -0.414696 -0.020566 0.169398
    11 3.518565 0.000000 0.000000 -0.101992 -0.031100 0.245014
    12 8.942642 0.000000 0.000000 0.069846 0.019739 0.278995
    13 3.307271 0.000000 0.000000 3.049644 0.000407 0.378882
    14 3.593713 -0.000002 0.000000 0.585816 -0.017295 0.792880
    15 2.033346 1.000767 1.937660 2.063173 -1.320875 2.457844
    16 6.028142 -0.000001 0.000000 -1.941204 -0.560819 -0.729213
    17 11.692558 0.000000 0.000003 0.000000 0.000000 -1.493069
    18 11.481671 0.000000 -0.000028 -0.535404 0.049053 -0.038943
    19 3.883692 -0.046774 0.431443 0.096592 -0.011005 -0.677032
    20 1.719576 0.000002 0.000000 0.055896 -0.087964 -1.150736
    21 1.209181 0.000001 0.000000 0.009312 -0.033625 -0.339454
    22 3.859859 -0.137948 1.332467 0.537921 -0.132407 -0.946649
    23 1.719430 0.000003 0.000000 0.023454 -0.208305 -0.755705
    24 1.099666 0.000002 0.000000 0.026030 -0.124608 -0.538675
    25 0.806049 -0.348924 1.321259 -1.269135 -0.727241 -0.266478
    26 1.789785 0.000000 0.000001 -0.001055 -0.012844 -0.131847
    27 1.206999 0.000000 0.000001 -0.000084 -0.003199 -0.064854
    28 2.033353 1.000771 -1.937610 -2.729659 1.487772 1.855480
    29 6.028141 0.000004 0.000000 1.136483 0.910941 -0.898110
    30 11.692545 0.000000 0.000000 0.000000 0.000000 -1.798978
    31 11.481696 0.000000 0.000004 -1.148954 -0.303798 0.436408
    32 3.883655 -0.050328 -0.431043 -0.386561 0.126208 -1.146667
    33 1.719577 0.000003 0.000000 -0.051390 0.078806 -1.521708
    34 1.209180 -0.000002 0.000000 -0.034695 0.051507 -1.200245
    35 3.859828 -0.148937 -1.331281 -0.083026 0.164909 0.067453
    36 1.719427 0.000000 0.000000 0.024520 0.136363 -0.478014
    37 1.099664 0.000000 0.000000 -0.166382 0.224946 -1.318138
    38 0.806015 -0.359833 -1.318333 1.070449 0.381371 -0.978459
    39 1.789782 0.000000 0.000002 0.002184 0.017473 0.317165
    40 1.206999 0.000000 0.000000 0.006460 0.026000 0.488017
    41 -0.044717 2.313936 4.661499 -0.717441 0.069219 0.083113
    42 1.554961 -2.005421 -0.062502 -0.583859 0.091275 -1.371645
    43 2.676086 -1.712442 0.000000 -1.570796 0.000000 -1.570796
  time 3
    0 0.021089 -0.023433 36.586388 1.817594 0.104110 -0.066449
    1 3.890452 -0.000004 -0.000003 -2.299923 -0.345317 -1.339032
    2 17.848173 0.000000 0.000000 0.000000 0.000000 1.316905
    3 16.525244 0.000000 0.000000 0.104937 0.040671 -0.922589
    4 6.879447 -0.000001 0.000001 -0.007299 -0.002951 -0.584373
    5 -3.890452 0.000004 0.000007 -1.936310 -0.590381 -1.130573
    6 17.848169 0.000000 0.000000 0.000000 0.000000 0.665887
    7 16.525253 0.000000 0.000000 -0.027717 -0.085799 -1.074007
    8 6.879452 0.000000 0.000000 -0.081333 -0.002951 -0.584373
    9 0.000005 3.345128 -2.981901 1.602172 -0.018450 1.552570
    10 4.018331 0.000000 0.000000 -0.414718 -0.019894 0.170324
    11 3.518565 0.000000 0.000000 -0.026050 -0.021369 0.252660
    12 8.942642 0.000000 0.000000 0.069846 0.019739 0.278995
    13 3.307271 0.000000 0.000000 3.049644 0.000407 0.378882
    14 3.593713 -0.000002 0.000000 0.583506 -0.010272 0.797552
    15 2.033346 1.000767 1.937660 2.063173 -1.320875 2.457844
    16 6.028142 -0.000001 0.000000 -1.932634 -0.605163 -0.712807
    17 11.692558 0.000000 0.000003 0.000000 0.000000 -1.461230
    18 11.481671 0.000000 -0.000028 -0.551407 0.044874 -0.065359
    19 3.883692 -0.046774 0.431443 0.096592 -0.011005 -0.677032
    20 1.719576 0.000002 0.000000 0.055896 -0.087964 -1.150736
    21 1.209181 0.000001 0.000000 0.009300 -0.033625 -0.339454
    22 3.859859 -0.137948 1.332467 0.537921 -0.132407 -0.946649
    23 1.719430 0.000003 0.000000 0.023454 -0.208305 -0.755705
    24 1.099666 0.000002 0.000000 0.026030 -0.124608 -0.538675
    25 0.806049 -0.348924 1.321259 -1.269135 -0.727241 -0.266478
    26 1.789785 0.000000 0.000001 -0.001055 -0.012844 -0.131847
    27 1.206999 0.000000 0.000001 -0.000096 -0.003199 -0.064854
    28 2.033353 1.000771 -1.937610 -2.729659 1.487772 1.855480
    29 6.028141 0.000004 0.000000 1.162719 0.900546 -0.893998
    30 11.692545 0.000000 0.000000 0.000000 0.000000 -1.825865
    31 11.481696 0.000000 0.000004 -1.183130 -0.289805 0.475758
    32 3.883655 -0.050328 -0.431043 -0.386561 0.126208 -1.146667
    33 1.719577 0.000003 0.000000 -0.051390 0.078806 -1.521708
    34 1.209180 -0.000002 0.000000 -0.034695 0.051507 -1.200245
    35 3.859828 -0.148937 -1.331281 -0.083026 0.164909 0.067453
    36 1.719427 0.000000 0.000000 0.024520 0.136363 -0.478014
    37 1.099664 0.000000 0.000000 -0.166382 0.224946 -1.318138
    38 0.806015 -0.359833 -1.318333 1.070449 0.381371 -0.978459
    39 1.789782 0.000000 0.000002 0.002198 0.017473 0.317165
    40 1.206999 0.000000 0.000000 0.006460 0.026000 0.488017
    41 -0.044717 2.313936 4.661499 -0.689184 0.158523 0.074436
    42 1.554961 -2.005421 -0.062502 -0.583859 0.091275 -1.371645
    43 2.676086 -1.712442 0.000000 -1.570796 0.000000 -1.570796
  time 4
    0 0.021089 -0.023433 36.445759 1.822653 0.127541 -0.093780
    1 3.890452 -0.000004 -0.000003 -2.335975 -0.265793 -1.405341
    2 17.848173 0.000000 0.000000 0.000000 0.000000 1.209995
    3 16.525244 0.000000 0.000000 0.039188 0.105158 -0.856511
    4 6.879447 -0.000001 0.000001 -0.007299 -0.002951 -0.584373
    5 -3.890452 0.000004 0.000007 -2.042621 -0.726572 -0.931629
    6 17.848169 0.000000 0.000000 0.000000 0.000000 0.731612
    7 16.525253 0.000000 0.000000 -0.031237 -0.007123 -0.848957
    8 6.879452 0.000000 0.000000 -0.081357 -0.002903 -0.576322
    9 0.000005 3.345128 -2.981901 1.602172 -0.018450 1.552570
    10 4.018331 0.000000 0.000000 -0.414674 -0.021740 0.166803
    11 3.518565 0.000000 0.000000 0.025108 -0.018828 0.250743
    12 8.942642 0.000000 0.000000 0.069846 0.019739 0.278995
    13 3.307271 0.000000 0.000000 3.049644 0.000407 0.378882
    14 3.593713 -0.000002 0.000000 0.581658 -0.004363 0.801457
    15 2.033346 1.000767 1.937660 2.063173 -1.320875 2.457844
    16 6.028142 -0.000001 0.000000 -1.932634 -0.629794 -0.695344
    17 11.692558 0.000000 0.000003 0.000000 0.000000 -1.450174
    18 11.481671 0.000000 -0.000028 -0.562425 0.037602 -0.080171
    19 3.883692 -0.046774 0.431443 0.096592 -0.011005 -0.677032
    20 1.719576 0.000002 0.000000 0.055896 -0.087964 -1.150736
    21 1.209181 0.000001 0.000000 0.009300 -0.033625 -0.339454
    22 3.859859 -0.137948 1.332467 0.537921 -0.132407 -0.946649
    23 1.719430 0.000003 0.000000 0.023454 -0.208305 -0.755705
    24 1.099666 0.000002 0.000000 0.026030 -0.124608 -0.538675
    25 0.806049 -0.348924 1.321259 -1.269135 -0.727241 -0.266478
    26 1.789785 0.000000 0.000001 -0.001055 -0.012844 -0.131847
    27 1.206999 0.000000 0.000001 -0.000096 -0.003199 -0.064854
    28 2.033353 1.000771 -1.937610 -2.729659 1.487772 1.855480
    29 6.028141 0.000004 0.000000 1.177849 0.896683 -0.893137
    30 11.692545 0.000000 0.000000 0.000000 0.000000 -1.843722
    31 11.481696 0.000000 0.000004 -1.207917 -0.278409 0.495672
    32 3.883655 -0.050328 -0.431043 -0.386561 0.126208 -1.146667
    33 1.719577 0.000003 0.000000 -0.051390 0.078806 -1.521708
    34 1.209180 -0.000002 0.000000 -0.034695 0.051507 -1.200245
    35 3.859828 -0.148937 -1.331281 -0.083026 0.164909 0.067453
    36 1.719427 0.000000 0.000000 0.024520 0.136363 -0.478014
    37 1.099664 0.000000 0.000000 -0.166382 0.224946 -1.318138
    38 0.806015 -0.359833 -1.318333 1.070449 0.381371 -0.978459
    39 1.789782 0.000000 0.000002 0.002198 0.017473 0.317165
    40 1.206999 0.000000 0.000000 0.006460 0.026000 0.488017
    41 -0.044717 2.313936 4.661499 -0.807251 0.221115 0.052504
    42 1.554961 -2.005421 -0.062502 -0.583859 0.091275 -1.371645
    43 2.676086 -1.712442 0.000000 -1.570796 0.000000 -1.570796
  time 5
    0 0.021089 -0.023433 36.277785 1.831160 0.139328 -0.112481
    1 3.890452 -0.000004 -0.000003 -2.348576 -0.255018 -1.468653
    2 17.848173 0.000000 0.000000 0.000000 0.000000 1.068248
    3 16.525244 0.000000 0.000000 0.046196 0.125336 -0.998315
    4 6.879447 -0.000001 0.000001 -0.007299 -0.002951 -0.584373
    5 -3.890452 0.000004 0.000007 -2.160172 -0.854352 -0.764952
    6 17.848169 0.000000 0.000000 0.000000 0.000000 0.830528
    7 16.525253 0.000000 0.000000 0.021161 0.097034 -0.683882
    8 6.879452 0.000000 0.000000 -0.081441 -0.002783 -0.555508
    9 0.000005 3.345128 -2.981901 1.602172 -0.018450 1.552570
    10 4.018331 0.000000 0.000000 -0.414585 -0.025755 0.159217
    11 3.518565 0.000000 0.000000 0.047229 -0.025707 0.240927
    12 8.942642 0.000000 0.000000 0.069846 0.019739 0.278995
    13 3.307271 0.000000 0.000000 3.049644 0.000407 0.378882
    14 3.593713 -0.000002 0.000000 0.580457 -0.000648 0.803903
    15 2.033346 1.000767 1.937660 2.063173 -1.320875 2.457844
    16 6.028142 -0.000001 0.000000 -1.935443 -0.640402 -0.676437
    17 11.692558 0.000000 0.000003 0.000000 0.000000 -1.441625
    18 11.481671 0.000000 -0.000028 -0.568778 0.029953 -0.093913
    19 3.883692 -0.046774 0.431443 0.096592 -0.011005 -0.677032
    20 1.719576 0.000002 0.000000 0.055896 -0.087964 -1.150736
    21 1.209181 0.000001 0.000000 0.009300 -0.033625 -0.339454
    22 3.859859 -0.137948 1.332467 0.537921 -0.132407 -0.946649
    23 1.719430 0.000003 0.000000 0.023454 -0.208305 -0.755705
    24 1.099666 0.000002 0.000000 0.026030 -0.124608 -0.538675
    25 0.806049 -0.348924 1.321259 -1.269135 -0.727241 -0.266478
    26 1.789785 0.000000 0.000001 -0.001055 -0.012844 -0.131847
    27 1.206999 0.000000 0.000001 -0.000096 -0.003199 -0.064854
    28 2.033353 1.000771 -1.937610 -2.729659 1.487772 1.855480
    29 6.028141 0.000004 0.000000 1.176412 0.894776 -0.899927
    30 11.692545 0.000000 0.000000 0.000000 0.000000 -1.844269
    31 11.481696 0.000000 0.000004 -1.222554 -0.264196 0.491757
    32 3.883655 -0.050328 -0.431043 -0.386561 0.126208 -1.146667
    33 1.719577 0.000003 0.000000 -0.051390 0.078806 -1.521708
    34 1.209180 -0.000002 0.000000 -0.034695 0.051507 -1.200245
    35 3.859828 -0.148937 -1.331281 -0.083026 0.164909 0.067453
    36 1.719427 0.000000 0.000000 0.024520 0.136363 -0.478014
    37 1.099664 0.000000 0.000000 -0.166382 0.224946 -1.318138
    38 0.806015 -0.359833 -1.318333 1.070449 0.381371 -0.978459
    39 1.789782 0.000000 0.000002 0.002184 0.017473 0.317165
    40 1.206999 0.000000 0.000000 0.006460 0.026000 0.488017
    41 -0.044717 2.313936 4.661499 -1.036694 0.274694 0.023358
    42 1.554961 -2.005421 -0.062502 -0.583859 0.091275 -1.371645
    43 2.676086 -1.712442 0.000000 -1.570796 0.000000 -1.570796
  time 6
    0 0.021089 -0.023433 36.137156 1.842038 0.133470 -0.114600
    1 3.890452 -0.000004 -0.000003 -2.333221 -0.288449 -1.503261
    2 17.848173 0.000000 0.000000 0.000000 0.000000 0.936797
    3 16.525244 0.000000 0.000000 0.062479 0.141354 -1.216159
    4 6.879447 -0.000001 0.000001 -0.007299 -0.002951 -0.584373
    5 -3.890452 0.000004 0.000007 -2.246097 -0.954600 -0.707171
    6 17.848169 0.000000 0.000000 0.000000 0.000000 0.938235
    7 16.525253 0.000000 0.000000 0.084416 0.144577 -0.659594
    8 6.879452 0.000000 0.000000 -0.081537 -0.002603 -0.527053
    9 0.000005 3.345128 -2.981901 1.602172 -0.018450 1.552570
    10 4.018331 0.000000 0.000000 -0.414473 -0.031555 0.151354
    11 3.518565 0.000000 0.000000 0.043972 -0.040999 0.228883
    12 8.942642 0.000000 0.000000 0.069846 0.019739 0.278995
    13 3.307271 0.000000 0.000000 3.049644 0.000407 0.378882
    14 3.593713 -0.000002 0.000000 0.579995 0.000610 0.804779
    15 2.033346 1.000767 1.937660 2.063173 -1.320875 2.457844
    16 6.028142 -0.000001 0.000000 -1.935824 -0.652057 -0.655798
    17 11.692558 0.000000 0.000003 0.000000 0.000000 -1.420767
    18 11.481671 0.000000 -0.000028 -0.573683 0.024896 -0.113328
    19 3.883692 -0.046774 0.431443 0.096592 -0.011005 -0.677032
    20 1.719576 0.000002 0.000000 0.055896 -0.087964 -1.150736
    21 1.209181 0.000001 0.000000 0.009300 -0.033625 -0.339454
    22 3.859859 -0.137948 1.332467 0.537921 -0.132407 -0.946649
    23 1.719430 0.000003 0.000000 0.023454 -0.208305 -0.755705
    24 1.099666 0.000002 0.000000 0.026030 -0.124608 -0.538675
    25 0.806049 -0.348924 1.321259 -1.269135 -0.727241 -0.266478
    26 1.789785 0.000000 0.000001 -0.001055 -0.012844 -0.131847
    27 1.206999 0.000000 0.000001 -0.000084 -0.003199 -0.064854
    28 2.033353 1.000771 -1.937610 -2.729659 1.487772 1.855480
    29 6.028141 0.000004 0.000000 1.167220 0.891486 -0.910255
    30 11.692545 0.000000 0.000000 0.000000 0.000000 -1.834281
    31 11.481696 0.000000 0.000004 -1.230563 -0.244528 0.477669
    32 3.883655 -0.050328 -0.431043 -0.386561 0.126208 -1.146667
    33 1.719577 0.000003 0.000000 -0.051390 0.078806 -1.521708
    34 1.209180 -0.000002 0.000000 -0.034695 0.051507 -1.200245
    35 3.859828 -0.148937 -1.331281 -0.083026 0.164909 0.067453
    36 1.719427 0.000000 0.000000 0.024520 0.136363 -0.478014
    37 1.099664 0.000000 0.000000 -0.166382 0.224946 -1.318138
    38 0.806015 -0.359833 -1.318333 1.070449 0.381371 -0.978459
    39 1.789782 0.000000 0.000002 0.002184 0.017473 0.317165
    40 1.206999 0.000000 0.000000 0.006460 0.026000 0.488017
    41 -0.044717 2.313936 4.661499 -1.254971 0.309530 -0.008138
    42 1.554961 -2.005421 -0.062502 -0.583859 0.091275 -1.371645
    43 2.676086 -1.712442 0.000000 -1.570796 0.000000 -1.570796
  time 7
    0 0.021089 -0.023433 36.078560 1.851749 0.107524 -0.097717
    1 3.890452 -0.000004 -0.000003 -2.295584 -0.324549 -1.495086
    2 17.848173 0.000000 0.000000 0.000000 0.000000 0.835036
    3 16.525244 0.000000 0.000000 0.071018 0.114426 -1.371930
    4 6.879447 -0.000001 0.000001 -0.007299 -0.002951 -0.584373
    5 -3.890452 0.000004 0.000007 -2.280296 -1.043895 -0.743885
    6 17.848169 0.000000 0.000000 0.000000 0.000000 1.115940
    7 16.525253 0.000000 0.000000 0.109277 0.134495 -0.737113
    8 6.879452 0.000000 0.000000 -0.081645 -0.002412 -0.496080
    9 0.000005 3.345128 -2.981901 1.602172 -0.018450 1.552570
    10 4.018331 0.000000 0.000000 -0.414318 -0.038746 0.149249
    11 3.518565 0.000000 0.000000 0.014680 -0.062044 0.222926
    12 8.942642 0.000000 0.000000 0.069846 0.019739 0.278995
    13 3.307271 0.000000 0.000000 3.049644 0.000407 0.378882
    14 3.593713 -0.000002 0.000000 0.580595 -0.001343 0.803465
    15 2.033346 1.000767 1.937660 2.063173 -1.320875 2.457844
    16 6.028142 -0.000001 0.000000 -1.935729 -0.670769 -0.638238
    17 11.692558 0.000000 0.000003 0.000000 0.000000 -1.392392
    18 11.481671 0.000000 -0.000028 -0.576418 0.024896 -0.131446
    19 3.883692 -0.046774 0.431443 0.096592 -0.011005 -0.677032
    20 1.719576 0.000002 0.000000 0.055896 -0.087964 -1.150736
    21 1.209181 0.000001 0.000000 0.009300 -0.033625 -0.339454
    22 3.859859 -0.137948 1.332467 0.537921 -0.132407 -0.946649
    23 1.719430 0.000003 0.000000 0.023454 -0.208305 -0.755705
    24 1.099666 0.000002 0.000000 0.026030 -0.124608 -0.538675
    25 0.806049 -0.348924 1.321259 -1.269135 -0.727241 -0.266478
    26 1.789785 0.000000 0.000001 -0.001055 -0.012844 -0.131847
    27 1.206999 0.000000 0.000001 -0.000084 -0.003199 -0.064854
    28 2.033353 1.000771 -1.937610 -2.729659 1.487772 1.855480
    29 6.028141 0.000004 0.000000 1.165209 0.890532 -0.910733
    30 11.692545 0.000000 0.000000 0.000000 0.000000 -1.823402
    31 11.481696 0.000000 0.000004 -1.228837 -0.226399 0.465014
    32 3.883655 -0.050328 -0.431043 -0.386561 0.126208 -1.146667
    33 1.719577 0.000003 0.000000 -0.051390 0.078806 -1.521708
    34 1.209180 -0.000002 0.000000 -0.034695 0.051507 -1.200245
    35 3.859828 -0.148937 -1.331281 -0.083026 0.164909 0.067453
    36 1.719427 0.000000 0.000000 0.024520 0.136363 -0.478014
    37 1.099664 0.000000 0.000000 -0.166382 0.224946 -1.318138
    38 0.806015 -0.359833 -1.318333 1.070449 0.381371 -0.978459
    39 1.789782 0.000000 0.000002 0.002198 0.017473 0.317165
    40 1.206999 0.000000 0.000000 0.006460 0.026000 0.488017
    41 -0.044717 2.313936 4.661499 -1.355786 0.315939 -0.037092
    42 1.554961 -2.005421 -0.062502 -0.583859 0.091275 -1.371645
    43 2.676086 -1.712442 0.000000 -1.570796 0.000000 -1.570796
  time 8
    0 0.021089 -0.023433 36.121530 1.851077 0.066699 -0.069856
    1 3.890452 -0.000004 -0.000003 -2.225400 -0.396843 -1.457480
    2 17.848173 0.000000 0.000000 0.000000 0.000000 0.787646
    3 16.525244 0.000000 0.000000 0.071754 0.058376 -1.445462
    4 6.879447 -0.000001 0.000001 -0.007299 -0.002951 -0.584373
    5 -3.890452 0.000004 0.000007 -2.207898 -1.098518 -0.918206
    6 17.848169 0.000000 0.000000 0.000000 0.000000 1.306953
    7 16.525253 0.000000 0.000000 0.087936 0.117262 -0.877931
    8 6.879452 0.000000 0.000000 -0.081740 -0.002244 -0.467625
    9 0.000005 3.345128 -2.981901 1.602172 -0.018450 1.552570
    10 4.018331 0.000000 0.000000 -0.414162 -0.046908 0.152519
    11 3.518565 0.000000 0.000000 -0.039801 -0.086649 0.222878
    12 8.942642 0.000000 0.000000 0.069846 0.019739 0.278995
    13 3.307271 0.000000 0.000000 3.049644 0.000407 0.378882
    14 3.593713 -0.000002 0.000000 0.582998 -0.008558 0.798647
    15 2.033346 1.000767 1.937660 2.063173 -1.320875 2.457844
    16 6.028142 -0.000001 0.000000 -1.935443 -0.675549 -0.630348
    17 11.692558 0.000000 0.000003 0.000000 0.000000 -1.379347
    18 11.481671 0.000000 -0.000028 -0.574246 0.035386 -0.130344
    19 3.883692 -0.046774 0.431443 0.096592 -0.011005 -0.677032
    20 1.719576 0.000002 0.000000 0.055896 -0.087964 -1.150736
    21 1.209181 0.000001 0.000000 0.009300 -0.033625 -0.339454
    22 3.859859 -0.137948 1.332467 0.537921 -0.132407 -0.946649
    23 1.719430 0.000003 0.000000 0.023454 -0.208305 -0.755705
    24 1.099666 0.000002 0.000000 0.026030 -0.124608 -0.538675
    25 0.806049 -0.348924 1.321259 -1.269135 -0.727241 -0.266478
    26 1.789785 0.000000 0.000001 -0.001055 -0.012844 -0.131847
    27 1.206999 0.000000 0.000001 -0.000084 -0.003199 -0.064854
    28 2.033353 1.000771 -1.937610 -2.729659 1.487772 1.855480
    29 6.028141 0.000004 0.000000 1.158027 0.890103 -0.909585
    30 11.692545 0.000000 0.000000 0.000000 0.000000 -1.814098
    31 11.481696 0.000000 0.000004 -1.208538 -0.214475 0.454269
    32 3.883655 -0.050328 -0.431043 -0.386561 0.126208 -1.146667
    33 1.719577 0.000003 0.000000 -0.051390 0.078806 -1.521708
    34 1.209180 -0.000002 0.000000 -0.034695 0.051507 -1.200245
    35 3.859828 -0.148937 -1.331281 -0.083026 0.164909 0.067453
    36 1.719427 0.000000 0.000000 0.024520 0.136363 -0.478014
    37 1.099664 0.000000 0.000000 -0.166382 0.224946 -1.318138
    38 0.806015 -0.359833 -1.318333 1.070449 0.381371 -0.978459
    39 1.789782 0.000000 0.000002 0.002184 0.017473 0.317165
    40 1.206999 0.000000 0.000000 0.006460 0.026000 0.488017
    41 -0.044717 2.313936 4.661499 -1.359696 0.273416 -0.070050
    42 1.554961 -2.005421 -0.062502 -0.583859 0.091275 -1.371645
    43 2.676086 -1.712442 0.000000 -1.570796 0.000000 -1.570796
  time 9
    0 0.021089 -0.023433 36.234815 1.840252 0.017286 -0.035560
    1 3.890452 -0.000004 -0.000003 -2.129930 -0.520894 -1.400981
    2 17.848173 0.000000 0.000000 0.000000 0.000000 0.801538
    3 16.525244 0.000000 0.000000 0.011187 -0.020165 -1.380046
    4 6.879447 -0.000001 0.000001 -0.007299 -0.002951 -0.584373
    5 -3.890452 0.000004 0.000007 -2.010994 -1.092014 -1.249425
    6 17.848169 0.000000 0.000000 0.000000 0.000000 1.437171
    7 16.525253 0.000000 0.000000 0.038066 0.112326 -1.006115
    8 6.879452 0.000000 0.000000 -0.081800 -0.002100 -0.446781
    9 0.000005 3.345128 -2.981901 1.602172 -0.018450 1.552570
    10 4.018331 0.000000 0.000000 -0.413984 -0.055597 0.157682
    11 3.518565 0.000000 0.000000 -0.116672 -0.112679 0.223490
    12 8.942642 0.000000 0.000000 0.069846 0.019739 0.278995
    13 3.307271 0.000000 0.000000 3.049644 0.000407 0.378882
    14 3.593713 -0.000002 0.000000 0.589419 -0.027542 0.785982
    15 2.033346 1.000767 1.937660 2.063173 -1.320875 2.457844
    16 6.028142 -0.000001 0.000000 -1.935634 -0.653833 -0.631935
    17 11.692558 0.000000 0.000003 0.000000 0.000000 -1.395266
    18 11.481671 0.000000 -0.000028 -0.565883 0.053379 -0.103280
    19 3.883692 -0.046774 0.431443 0.096592 -0.011005 -0.677032
    20 1.719576 0.000002 0.000000 0.055896 -0.087964 -1.150736
    21 1.209181 0.000001 0.000000 0.009300 -0.033625 -0.339454
    22 3.859859 -0.137948 1.332467 0.537921 -0.132407 -0.946649
    23 1.719430 0.000003 0.000000 0.023454 -0.208305 -0.755705
    24 1.099666 0.000002 0.000000 0.026030 -0.124608 -0.538675
    25 0.806049 -0.348924 1.321259 -1.269135 -0.727241 -0.266478
    26 1.789785 0.000000 0.000001 -0.001055 -0.012844 -0.131847
    27 1.206999 0.000000 0.000001 -0.000096 -0.003199 -0.064854
    28 2.033353 1.000771 -1.937610 -2.729659 1.487772 1.855480
    29 6.028141 0.000004 0.000000 1.137345 0.888434 -0.915514
    30 11.692545 0.000000 0.000000 0.000000 0.000000 -1.805546
    31 11.481696 0.000000 0.000004 -1.172360 -0.210910 0.439655
    32 3.883655 -0.050328 -0.431043 -0.386561 0.126208 -1.146667
    33 1.719577 0.000003 0.000000 -0.051390 0.078806 -1.521708
    34 1.209180 -0.000002 0.000000 -0.034695 0.051507 -1.200245
    35 3.859828 -0.148937 -1.331281 -0.083026 0.164909 0.067453
    36 1.719427 0.000000 0.000000 0.024520 0.136363 -0.478014
    37 1.099664 0.000000 0.000000 -0.166382 0.224946 -1.318138
    38 0.806015 -0.359833 -1.318333 1.070449 0.381371 -0.978459
    39 1.789782 0.000000 0.000002 0.002198 0.017473 0.317165
    40 1.206999 0.000000 0.000000 0.006460 0.026000 0.488017
    41 -0.044717 2.313936 4.661499 -1.285607 0.209124 -0.106950
    42 1.554961 -2.005421 -0.062502 -0.583859 0.091275 -1.371645
    43 2.676086 -1.712442 0.000000 -1.570796 0.000000 -1.570796
  time 10
    0 0.021089 -0.023433 36.406695 1.826756 -0.033350 0.002219
    1 3.890452 -0.000004 -0.000003 -2.025781 -0.619066 -1.361740
    2 17.848173 0.000000 0.000000 0.000000 0.000000 0.717407
    3 16.525244 0.000000 0.000000 -0.082858 -0.083612 -1.183521
    4 6.879447 -0.000001 0.000001 -0.007299 -0.002951 -0.584373
    5 -3.890452 0.000004 0.000007 -1.773510 -0.955823 -1.633713
    6 17.848169 0.000000 0.000000 0.000000 0.000000 1.463461
    7 16.525253 0.000000 0.000000 -0.004691 0.096633 -1.131101
    8 6.879452 0.000000 0.000000 -0.081824 -0.002052 -0.438760
    9 0.000005 3.345128 -2.981901 1.602172 -0.018450 1.552570
    10 4.018331 0.000000 0.000000 -0.413851 -0.061625 0.163970
    11 3.518565 0.000000 0.000000 -0.210282 -0.138230 0.222783
    12 8.942642 0.000000 0.000000 0.069846 0.019739 0.278995
    13 3.307271 0.000000 0.000000 3.049644 0.000407 0.378882
    14 3.593713 -0.000002 0.000000 0.597642 -0.051774 0.769631
    15 2.033346 1.000767 1.937660 2.063173 -1.320875 2.457844
    16 6.028142 -0.000001 0.000000 -1.944156 -0.612493 -0.634629
    17 11.692558 0.000000 0.000003 0.000000 0.000000 -1.440151
    18 11.481671 0.000000 -0.000028 -0.550684 0.069450 -0.056737
    19 3.883692 -0.046774 0.431443 0.096592 -0.011005 -0.677032
    20 1.719576 0.000002 0.000000 0.055896 -0.087964 -1.150736
    21 1.209181 0.000001 0.000000 0.009300 -0.033625 -0.339454
    22 3.859859 -0.137948 1.332467 0.537921 -0.132407 -0.946649
    23 1.719430 0.000003 0.000000 0.023454 -0.208305 -0.755705
    24 1.099666 0.000002 0.000000 0.026030 -0.124608 -0.538675
    25 0.806049 -0.348924 1.321259 -1.269135 -0.727241 -0.266478
    26 1.789785 0.000000 0.000001 -0.001055 -0.012844 -0.131847
    27 1.206999 0.000000 0.000001 -0.000084 -0.003199 -0.064854
    28 2.033353 1.000771 -1.937610 -2.729659 1.487772 1.855480
    29 6.028141 0.000004 0.000000 1.111204 0.890580 -0.926415
    30 11.692545 0.000000 0.000000 0.000000 0.000000 -1.794804
    31 11.481696 0.000000 0.000004 -1.132729 -0.216587 0.412530
    32 3.883655 -0.050328 -0.431043 -0.386561 0.126208 -1.146667
    33 1.719577 0.000003 0.000000 -0.051390 0.078806 -1.521708
    34 1.209180 -0.000002 0.000000 -0.034695 0.051507 -1.200245
    35 3.859828 -0.148937 -1.331281 -0.083026 0.164909 0.067453
    36 1.719427 0.000000 0.000000 0.024520 0.136363 -0.478014
    37 1.099664 0.000000 0.000000 -0.166382 0.224946 -1.318138
    38 0.806015 -0.359833 -1.318333 1.070449 0.381371 -0.978459
    39 1.789782 0.000000 0.000002 0.002198 0.017473 0.317165
    40 1.206999 0.000000 0.000000 0.006460 0.026000 0.488017
    41 -0.044717 2.313936 4.661499 -1.147384 0.138782 -0.133185
    42 1.554961 -2.005421 -0.062502 -0.583859 0.091275 -1.371645
    43 2.676086 -1.712442 0.000000 -1.570796 0.000000 -1.570796
  time 11
    0 0.021089 -0.023433 36.687954 1.817311 -0.076366 0.039090
    1 3.890452 -0.000004 -0.000003 -1.937738 -0.599082 -1.360469
    2 17.848173 0.000000 0.000000 0.000000 0.000000 0.372771
    3 16.525244 0.000000 0.000000 -0.159531 -0.070391 -0.833417
    4 6.879447 -0.000001 0.000001 -0.007299 -0.002951 -0.584373
    5 -3.890452 0.000004 0.000007 -1.642622 -0.725936 -1.855504
    6 17.848169 0.000000 0.000000 0.000000 0.000000 1.377854
    7 16.525253 0.000000 0.000000 -0.018323 0.071764 -1.239652
    8 6.879452 0.000000 0.000000 -0.081848 -0.002016 -0.433139
    9 0.000005 3.345128 -2.981901 1.602172 -0.018450 1.552570
    10 4.018331 0.000000 0.000000 -0.413784 -0.064225 0.170099
    11 3.518565 0.000000 0.000000 -0.307228 -0.160498 0.219319
    12 8.942642 0.000000 0.000000 0.069846 0.019739 0.278995
    13 3.307271 0.000000 0.000000 3.049644 0.000407 0.378882
    14 3.593713 -0.000002 0.000000 0.601707 -0.063747 0.761529
    15 2.033346 1.000767 1.937660 2.063173 -1.320875 2.457844
    16 6.028142 -0.000001 0.000000 -1.962057 -0.568194 -0.631647
    17 11.692558 0.000000 0.000003 0.000000 0.000000 -1.503830
    18 11.481671 0.000000 -0.000028 -0.529935 0.076262 0.000243
    19 3.883692 -0.046774 0.431443 0.096592 -0.011005 -0.677032
    20 1.719576 0.000002 0.000000 0.055896 -0.087964 -1.150736
    21 1.209181 0.000001 0.000000 0.009300 -0.033625 -0.339454
    22 3.859859 -0.137948 1.332467 0.537921 -0.132407 -0.946649
    23 1.719430 0.000003 0.000000 0.023454 -0.208305 -0.755705
    24 1.099666 0.000002 0.000000 0.026030 -0.124608 -0.538675
    25 0.806049 -0.348924 1.321259 -1.269135 -0.727241 -0.266478
    26 1.789785 0.000000 0.000001 -0.001055 -0.012844 -0.131847
    27 1.206999 0.000000 0.000001 -0.000096 -0.003199 -0.064854
    28 2.033353 1.000771 -1.937610 -2.729659 1.487772 1.855480
    29 6.028141 0.000004 0.000000 1.093298 0.894967 -0.938847
    30 11.692545 0.000000 0.000000 0.000000 0.000000 -1.785294
    31 11.481696 0.000000 0.000004 -1.102765 -0.230667 0.372129
    32 3.883655 -0.050328 -0.431043 -0.386561 0.126208 -1.146667
    33 1.719577 0.000003 0.000000 -0.051390 0.078806 -1.521708
    34 1.209180 -0.000002 0.000000 -0.034695 0.051507 -1.200245
    35 3.859828 -0.148937 -1.331281 -0.083026 0.164909 0.067453
    36 1.719427 0.000000 0.000000 0.024520 0.136363 -0.478014
    37 1.099664 0.000000 0.000000 -0.166382 0.224946 -1.318138
    38 0.806015 -0.359833 -1.318333 1.070449 0.381371 -0.978459
    39 1.789782 0.000000 0.000002 0.002184 0.017473 0.317165
    40 1.206999 0.000000 0.000000 0.006460 0.026000 0.488017
    41 -0.044717 2.313936 4.661499 -0.962887 0.069999 -0.134060
    42 1.554961 -2.005421 -0.062502 -0.583859 0.091275 -1.371645
    43 2.676086 -1.712442 0.000000 -1.570796 0.000000 -1.570796
  time 12
    0 0.021089 -0.023433 37.047340 1.817116 -0.108279 0.069979
    1 3.890452 -0.000004 -0.000003 -1.909197 -0.700017 -1.351385
    2 17.848173 0.000000 0.000000 0.000000 0.000000 0.332151
    3 16.525244 0.000000 0.000000 -0.168305 -0.064774 -0.588648
    4 6.879447 -0.000001 0.000001 -0.007299 -0.002951 -0.584373
    5 -3.890452 0.000004 0.000007 -1.578512 -0.514094 -1.963332
    6 17.848169 0.000000 0.000000 0.000000 0.000000 1.227015
    7 16.525253 0.000000 0.000000 0.008694 0.044576 -1.209411
    8 6.879452 0.000000 0.000000 -0.081812 -0.002076 -0.443239
    9 0.000005 3.345128 -2.981901 1.602172 -0.018450 1.552570
    10 4.018331 0.000000 0.000000 -0.413784 -0.064597 0.169318
    11 3.518565 0.000000 0.000000 -0.356004 -0.175706 0.215388
    12 8.942642 0.000000 0.000000 0.069846 0.019739 0.278995
    13 3.307271 0.000000 0.000000 3.049644 0.000407 0.378882
    14 3.593713 -0.000002 0.000000 0.601430 -0.062896 0.762113
    15 2.033346 1.000767 1.937660 2.063173 -1.320875 2.457844
    16 6.028142 -0.000001 0.000000 -1.959676 -0.575752 -0.626836
    17 11.692558 0.000000 0.000003 0.000000 0.000000 -1.517465
    18 11.481671 0.000000 -0.000028 -0.511600 0.078331 0.026529
    19 3.883692 -0.046774 0.431443 0.096592 -0.011005 -0.677032
    20 1.719576 0.000002 0.000000 0.055896 -0.087964 -1.150736
    21 1.209181 0.000001 0.000000 0.009300 -0.033625 -0.339454
    22 3.859859 -0.137948 1.332467 0.537921 -0.132407 -0.946649
    23 1.719430 0.000003 0.000000 0.023454 -0.208305 -0.755705
    24 1.099666 0.000002 0.000000 0.026030 -0.124608 -0.538675
    25 0.806049 -0.348924 1.321259 -1.269135 -0.727241 -0.266478
    26 1.789785 0.000000 0.000001 -0.001055 -0.012844 -0.131847
    27 1.206999 0.000000 0.000001 -0.000096 -0.003199 -0.064854
    28 2.033353 1.000771 -1.937610 -2.729659 1.487772 1.855480
    29 6.028141 0.000004 0.000000 1.109001 0.881425 -0.930623
    30 11.692545 0.000000 0.000000 0.000000 0.000000 -1.788920
    31 11.481696 0.000000 0.000004 -1.088818 -0.233175 0.346867
    32 3.883655 -0.050328 -0.431043 -0.386561 0.126208 -1.146667
    33 1.719577 0.000003 0.000000 -0.051378 0.078806 -1.521708
    34 1.209180 -0.000002 0.000000 -0.034695 0.051519 -1.200245
    35 3.859828 -0.148937 -1.331281 -0.083026 0.164909 0.067453
    36 1.719427 0.000000 0.000000 0.024520 0.136363 -0.478014
    37 1.099664 0.000000 0.000000 -0.166382 0.224946 -1.318138
    38 0.806015 -0.359833 -1.318333 1.070449 0.381371 -0.978459
    39 1.789782 0.000000 0.000002 0.002198 0.017473 0.317165
    40 1.206999 0.000000 0.000000 0.006460 0.026000 0.488017
    41 -0.044717 2.313936 4.661499 -0.852035 -0.055092 -0.062176
    42 1.554961 -2.005421 -0.062502 -0.583859 0.091275 -1.371645
    43 2.676086 -1.712442 0.000000 -1.570796 0.000000 -1.570796
  time 13
    0 0.021089 -0.023433 37.078591 1.822741 -0.130811 0.095418
    1 3.890452 -0.000004 -0.000003 -1.869557 -0.817437 -1.360015
    2 17.848173 0.000000 0.000000 0.000000 0.000000 0.427989
    3 16.525244 0.000000 0.000000 -0.155909 -0.100415 -0.508498
    4 6.879447 -0.000001 0.000001 -0.007299 -0.002951 -0.584373
    5 -3.890452 0.000004 0.000007 -1.534407 -0.312864 -2.034092
    6 17.848169 0.000000 0.000000 0.000000 0.000000 1.038959
    7 16.525253 0.000000 0.000000 0.042032 0.015214 -1.063842
    8 6.879452 0.000000 0.000000 -0.081717 -0.002280 -0.472719
    9 0.000005 3.345128 -2.981901 1.602172 -0.018450 1.552570
    10 4.018331 0.000000 0.000000 -0.413829 -0.062787 0.164698
    11 3.518565 0.000000 0.000000 -0.410297 -0.176689 0.205393
    12 8.942642 0.000000 0.000000 0.069846 0.019739 0.278995
    13 3.307271 0.000000 0.000000 3.049644 0.000407 0.378882
    14 3.593713 -0.000002 0.000000 0.600598 -0.060559 0.763718
    15 2.033346 1.000767 1.937660 2.063173 -1.320875 2.457844
    16 6.028142 -0.000001 0.000000 -1.964628 -0.558497 -0.640932
    17 11.692558 0.000000 0.000003 0.000000 0.000000 -1.543850
    18 11.481671 0.000000 -0.000028 -0.487555 0.081048 0.049768
    19 3.883692 -0.046774 0.431443 0.096592 -0.011005 -0.677032
    20 1.719576 0.000002 0.000000 0.055896 -0.087964 -1.150736
    21 1.209181 0.000001 0.000000 0.009312 -0.033625 -0.339454
    22 3.859859 -0.137948 1.332467 0.537921 -0.132407 -0.946649
    23 1.719430 0.000003 0.000000 0.023454 -0.208305 -0.755705
    24 1.099666 0.000002 0.000000 0.026030 -0.124608 -0.538675
    25 0.806049 -0.348924 1.321259 -1.269135 -0.727241 -0.266478
    26 1.789785 0.000000 0.000001 -0.001055 -0.012844 -0.131847
    27 1.206999 0.000000 0.000001 -0.000084 -0.003199 -0.064854
    28 2.033353 1.000771 -1.937610 -2.729659 1.487772 1.855480
    29 6.028141 0.000004 0.000000 1.104884 0.881472 -0.924120
    30 11.692545 0.000000 0.000000 0.000000 0.000000 -1.777837
    31 11.481696 0.000000 0.000004 -1.069279 -0.237575 0.312005
    32 3.883655 -0.050328 -0.431043 -0.386561 0.126208 -1.146667
    33 1.719577 0.000003 0.000000 -0.051390 0.078806 -1.521708
    34 1.209180 -0.000002 0.000000 -0.034695 0.051507 -1.200245
    35 3.859828 -0.148937 -1.331281 -0.083026 0.164909 0.067453
    36 1.719427 0.000000 0.000000 0.024520 0.136363 -0.478014
    37 1.099664 0.000000 0.000000 -0.166394 0.224946 -1.318138
    38 0.806015 -0.359833 -1.318333 1.070449 0.381371 -0.978459
    39 1.789782 0.000000 0.000002 0.002198 0.017473 0.317165
    40 1.206999 0.000000 0.000000 0.006460 0.026000 0.488017
    41 -0.044717 2.313936 4.661499 -0.871464 -0.203230 0.014897
    42 1.554961 -2.005421 -0.062502 -0.583859 0.091275 -1.371645
    43 2.676086 -1.712442 0.000000 -1.570796 0.000000 -1.570796
  time 14
    0 0.021089 -0.023433 36.824677 1.831921 -0.140981 0.112679
    1 3.890452 -0.000004 -0.000003 -1.844104 -0.967919 -1.355654
    2 17.848173 0.000000 0.000000 0.000000 0.000000 0.704642
    3 16.525244 0.000000 0.000000 -0.153701 -0.119992 -0.568898
    4 6.879447 -0.000001 0.000001 -0.007299 -0.002951 -0.584373
    5 -3.890452 0.000004 0.000007 -1.506495 -0.138040 -2.063960
    6 17.848169 0.000000 0.000000 0.000000 0.000000 0.834143
    7 16.525253 0.000000 0.000000 0.052863 -0.027499 -0.950225
    8 6.879452 0.000000 0.000000 -0.081561 -0.002567 -0.520173
    9 0.000005 3.345128 -2.981901 1.602172 -0.018450 1.552570
    10 4.018331 0.000000 0.000000 -0.413895 -0.058952 0.157894
    11 3.518565 0.000000 0.000000 -0.440895 -0.165507 0.192701
    12 8.942642 0.000000 0.000000 0.069846 0.019739 0.278995
    13 3.307271 0.000000 0.000000 3.049644 0.000407 0.378882
    14 3.593713 -0.000002 0.000000 0.599351 -0.057096 0.766091
    15 2.033346 1.000767 1.937660 2.063173 -1.320875 2.457844
    16 6.028142 -0.000001 0.000000 -1.962533 -0.540695 -0.669076
    17 11.692558 0.000000 0.000003 0.000000 0.000000 -1.556822
    18 11.481671 0.000000 -0.000028 -0.468415 0.080463 0.056801
    19 3.883692 -0.046774 0.431443 0.096592 -0.011005 -0.677032
    20 1.719576 0.000002 0.000000 0.055908 -0.087964 -1.150736
    21 1.209181 0.000001 0.000000 0.009312 -0.033625 -0.339454
    22 3.859859 -0.137948 1.332467 0.537921 -0.132407 -0.946649
    23 1.719430 0.000003 0.000000 0.023454 -0.208305 -0.755705
    24 1.099666 0.000002 0.000000 0.026030 -0.124608 -0.538675
    25 0.806049 -0.348924 1.321259 -1.269135 -0.727241 -0.266478
    26 1.789785 0.000000 0.000001 -0.001055 -0.012844 -0.131847
    27 1.206999 0.000000 0.000001 -0.000084 -0.003199 -0.064854
    28 2.033353 1.000771 -1.937610 -2.729659 1.487772 1.855480
    29 6.028141 0.000004 0.000000 1.100000 0.883857 -0.912454
    30 11.692545 0.000000 0.000000 0.000000 0.000000 -1.764359
    31 11.481696 0.000000 0.000004 -1.053399 -0.244440 0.287554
    32 3.883655 -0.050328 -0.431043 -0.386561 0.126208 -1.146667
    33 1.719577 0.000003 0.000000 -0.051390 0.078806 -1.521708
    34 1.209180 -0.000002 0.000000 -0.034695 0.051507 -1.200245
    35 3.859828 -0.148937 -1.331281 -0.083026 0.164909 0.067453
    36 1.719427 0.000000 0.000000 0.024520 0.136363 -0.478014
    37 1.099664 0.000000 0.000000 -0.166382 0.224946 -1.318138
    38 0.806015 -0.359833 -1.318333 1.070449 0.381371 -0.978459
    39 1.789782 0.000000 0.000002 0.002184 0.017473 0.317165
    40 1.206999 0.000000 0.000000 0.006460 0.026000 0.488017
    41 -0.044717 2.313936 4.661499 -0.987758 -0.288214 0.079674
    42 1.554961 -2.005421 -0.062502 -0.583859 0.091275 -1.371645
    43 2.676086 -1.712442 0.000000 -1.570796 0.000000 -1.570796
  time 15
    0 0.021089 -0.023433 36.391070 1.842799 -0.134620 0.115178
    1 3.890452 -0.000004 -0.000003 -1.823491 -1.057894 -1.370461
    2 17.848173 0.000000 0.000000 0.000000 0.000000 1.041239
    3 16.525244 0.000000 0.000000 -0.138979 -0.115370 -0.733970
    4 6.879447 -0.000001 0.000001 -0.007299 -0.002951 -0.584373
    5 -3.890452 0.000004 0.000007 -1.501923 -0.045958 -2.047781
    6 17.848169 0.000000 0.000000 0.000000 0.000000 0.690616
    7 16.525253 0.000000 0.000000 0.024185 -0.090840 -0.990440
    8 6.879452 0.000000 0.000000 -0.081333 -0.002951 -0.584373
    9 0.000005 3.345128 -2.981901 1.602172 -0.018450 1.552570
    10 4.018331 0.000000 0.000000 -0.414007 -0.053403 0.150891
    11 3.518565 0.000000 0.000000 -0.440101 -0.144031 0.183377
    12 8.942642 0.000000 0.000000 0.069846 0.019739 0.278995
    13 3.307271 0.000000 0.000000 3.049644 0.000407 0.378882
    14 3.593713 -0.000002 0.000000 0.597827 -0.052817 0.769011
    15 2.033346 1.000767 1.937660 2.063173 -1.320875 2.457844
    16 6.028142 -0.000001 0.000000 -1.957962 -0.521346 -0.700299
    17 11.692558 0.000000 0.000003 0.000000 0.000000 -1.565666
    18 11.481671 0.000000 -0.000028 -0.461660 0.073650 0.056218
    19 3.883692 -0.046774 0.431443 0.096592 -0.011005 -0.677032
    20 1.719576 0.000002 0.000000 0.055908 -0.087964 -1.150736
    21 1.209181 0.000001 0.000000 0.009312 -0.033625 -0.339454
    22 3.859859 -0.137948 1.332467 0.537921 -0.132407 -0.946649
    23 1.719430 0.000003 0.000000 0.023454 -0.208305 -0.755705
    24 1.099666 0.000002 0.000000 0.026030 -0.124608 -0.538675
    25 0.806049 -0.348924 1.321259 -1.269135 -0.727241 -0.266478
    26 1.789785 0.000000 0.000001 -0.001055 -0.012844 -0.131847
    27 1.206999 0.000000 0.000001 -0.000084 -0.003199 -0.064854
    28 2.033353 1.000771 -1.937610 -2.729659 1.487772 1.855480
    29 6.028141 0.000004 0.000000 1.100479 0.891247 -0.896293
    30 11.692545 0.000000 0.000000 0.000000 0.000000 -1.756286
    31 11.481696 0.000000 0.000004 -1.043526 -0.260764 0.281346
    32 3.883655 -0.050328 -0.431043 -0.386561 0.126208 -1.146667
    33 1.719577 0.000003 0.000000 -0.051390 0.078806 -1.521708
    34 1.209180 -0.000002 0.000000 -0.034695 0.051507 -1.200245
    35 3.859828 -0.148937 -1.331281 -0.083026 0.164909 0.067453
    36 1.719427 0.000000 0.000000 0.024520 0.136363 -0.478014
    37 1.099664 0.000000 0.000000 -0.166382 0.224946 -1.318138
    38 0.806015 -0.359833 -1.318333 1.070449 0.381371 -0.978459
    39 1.789782 0.000000 0.000002 0.002184 0.017473 0.317165
    40 1.206999 0.000000 0.000000 0.006460 0.026000 0.488017
    41 -0.044717 2.313936 4.661499 -1.110703 -0.287543 0.109000
    42 1.554961 -2.005421 -0.062502 -0.583859 0.091275 -1.371645
    43 2.676086 -1.712442 0.000000 -1.570796 0.000000 -1.570796
  time 16
    0 0.021089 -0.023433 36.078560 1.852315 -0.107129 0.097386
    1 3.890452 -0.000004 -0.000003 -1.837010 -1.061164 -1.368280
    2 17.848173 0.000000 0.000000 0.000000 0.000000 1.275580
    3 16.525244 0.000000 0.000000 -0.094842 -0.107026 -0.875356
    4 6.879447 -0.000001 0.000001 -0.007299 -0.002951 -0.584373
    5 -3.890452 0.000004 0.000007 -1.533073 -0.047963 -1.980311
    6 17.848169 0.000000 0.000000 0.000000 0.000000 0.621605
    7 16.525253 0.000000 0.000000 0.019476 -0.147116 -1.168087
    8 6.879452 0.000000 0.000000 -0.081333 -0.002951 -0.584373
    9 0.000005 3.345128 -2.981901 1.602172 -0.018450 1.552570
    10 4.018331 0.000000 0.000000 -0.414162 -0.046572 0.147793
    11 3.518565 0.000000 0.000000 -0.407956 -0.117773 0.183329
    12 8.942642 0.000000 0.000000 0.069846 0.019739 0.278995
    13 3.307271 0.000000 0.000000 3.049644 0.000407 0.378882
    14 3.593713 -0.000002 0.000000 0.596164 -0.048059 0.772259
    15 2.033346 1.000767 1.937660 2.063173 -1.320875 2.457844
    16 6.028142 -0.000001 0.000000 -1.959486 -0.505274 -0.721082
    17 11.692558 0.000000 0.000003 0.000000 0.000000 -1.570678
    18 11.481671 0.000000 -0.000028 -0.466565 0.065834 0.050351
    19 3.883692 -0.046774 0.431443 0.096592 -0.011005 -0.677032
    20 1.719576 0.000002 0.000000 0.055896 -0.087964 -1.150736
    21 1.209181 0.000001 0.000000 0.009312 -0.033625 -0.339454
    22 3.859859 -0.137948 1.332467 0.537921 -0.132407 -0.946649
    23 1.719430 0.000003 0.000000 0.023454 -0.208305 -0.755705
    24 1.099666 0.000002 0.000000 0.026030 -0.124608 -0.538675
    25 0.806049 -0.348924 1.321259 -1.269135 -0.727241 -0.266478
    26 1.789785 0.000000 0.000001 -0.001055 -0.012844 -0.131847
    27 1.206999 0.000000 0.000001 -0.000084 -0.003199 -0.064854
    28 2.033353 1.000771 -1.937610 -2.729659 1.487772 1.855480
    29 6.028141 0.000004 0.000000 1.101533 0.905314 -0.886635
    30 11.692545 0.000000 0.000000 0.000000 0.000000 -1.750949
    31 11.481696 0.000000 0.000004 -1.043112 -0.279817 0.288796
    32 3.883655 -0.050328 -0.431043 -0.386561 0.126208 -1.146667
    33 1.719577 0.000003 0.000000 -0.051390 0.078806 -1.521708
    34 1.209180 -0.000002 0.000000 -0.034695 0.051507 -1.200245
    35 3.859828 -0.148937 -1.331281 -0.083026 0.164909 0.067453
    36 1.719427 0.000000 0.000000 0.024520 0.136363 -0.478014
    37 1.099664 0.000000 0.000000 -0.166382 0.224946 -1.318138
    38 0.806015 -0.359833 -1.318333 1.070449 0.381371 -0.978459
    39 1.789782 0.000000 0.000002 0.002184 0.017473 0.317165
    40 1.206999 0.000000 0.000000 0.006460 0.026000 0.488017
    41 -0.044717 2.313936 4.661499 -1.170240 -0.252037 0.107765
    42 1.554961 -2.005421 -0.062502 -0.583859 0.091275 -1.371645
    43 2.676086 -1.712442 0.000000 -1.570796 0.000000 -1.570796
  time 17
    0 0.021089 -0.023433 36.164500 1.851926 -0.063537 0.066497
    1 3.890452 -0.000004 -0.000003 -1.882826 -0.974964 -1.354928
    2 17.848173 0.000000 0.000000 0.000000 0.000000 1.403434
    3 16.525244 0.000000 0.000000 -0.027915 -0.102657 -0.984800
    4 6.879447 -0.000001 0.000001 -0.007299 -0.002951 -0.584373
    5 -3.890452 0.000004 0.000007 -1.601279 -0.048648 -1.849192
    6 17.848169 0.000000 0.000000 0.000000 0.000000 0.453102
    7 16.525253 0.000000 0.000000 0.068057 -0.144248 -1.311945
    8 6.879452 0.000000 0.000000 -0.081333 -0.002951 -0.584373
    9 0.000005 3.345128 -2.981901 1.602172 -0.018450 1.552570
    10 4.018331 0.000000 0.000000 -0.414318 -0.038866 0.151725
    11 3.518565 0.000000 0.000000 -0.352277 -0.091922 0.195242
    12 8.942642 0.000000 0.000000 0.069846 0.019739 0.278995
    13 3.307271 0.000000 0.000000 3.049644 0.000407 0.378882
    14 3.593713 -0.000002 0.000000 0.593808 -0.041240 0.776858
    15 2.033346 1.000767 1.937660 2.063173 -1.320875 2.457844
    16 6.028142 -0.000001 0.000000 -1.965009 -0.497944 -0.729357
    17 11.692558 0.000000 0.000003 0.000000 0.000000 -1.566624
    18 11.481671 0.000000 -0.000028 -0.480317 0.060150 0.036058
    19 3.883692 -0.046774 0.431443 0.096592 -0.011005 -0.677032
    20 1.719576 0.000002 0.000000 0.055896 -0.087964 -1.150736
    21 1.209181 0.000001 0.000000 0.009300 -0.033625 -0.339454
    22 3.859859 -0.137948 1.332467 0.537921 -0.132407 -0.946649
    23 1.719430 0.000003 0.000000 0.023454 -0.208305 -0.755705
    24 1.099666 0.000002 0.000000 0.026030 -0.124608 -0.538675
    25 0.806049 -0.348924 1.321259 -1.269135 -0.727241 -0.266478
    26 1.789785 0.000000 0.000001 -0.001055 -0.012844 -0.131847
    27 1.206999 0.000000 0.000001 -0.000084 -0.003199 -0.064854
    28 2.033353 1.000771 -1.937610 -2.729659 1.487772 1.855480
    29 6.028141 0.000004 0.000000 1.099330 0.920430 -0.890269
    30 11.692545 0.000000 0.000000 0.000000 0.000000 -1.747939
    31 11.481696 0.000000 0.000004 -1.057058 -0.295262 0.308758
    32 3.883655 -0.050328 -0.431043 -0.386561 0.126208 -1.146667
    33 1.719577 0.000003 0.000000 -0.051390 0.078806 -1.521708
    34 1.209180 -0.000002 0.000000 -0.034695 0.051507 -1.200245
    35 3.859828 -0.148937 -1.331281 -0.083026 0.164909 0.067453
    36 1.719427 0.000000 0.000000 0.024520 0.136363 -0.478014
    37 1.099664 0.000000 0.000000 -0.166394 0.224946 -1.318138
    38 0.806015 -0.359833 -1.318333 1.070449 0.381371 -0.978459
    39 1.789782 0.000000 0.000002 0.002198 0.017473 0.317165
    40 1.206999 0.000000 0.000000 0.006460 0.026000 0.488017
    41 -0.044717 2.313936 4.661499 -1.152907 -0.196119 0.092353
    42 1.554961 -2.005421 -0.062502 -0.583859 0.091275 -1.371645
    43 2.676086 -1.712442 0.000000 -1.570796 0.000000 -1.570796
  time 18
    0 0.021089 -0.023433 36.359819 1.841189 -0.012542 0.029323
    1 3.890452 -0.000004 -0.000003 -1.988644 -0.826140 -1.316505
    2 17.848173 0.000000 0.000000 0.000000 0.000000 1.454915
    3 16.525244 0.000000 0.000000 0.069280 -0.091817 -1.063383
    4 6.879447 -0.000001 0.000001 -0.007299 -0.002951 -0.584373
    5 -3.890452 0.000004 0.000007 -1.683013 -0.101951 -1.698606
    6 17.848169 0.000000 0.000000 0.000000 0.000000 0.359526
    7 16.525253 0.000000 0.000000 0.092868 -0.122712 -1.350799
    8 6.879452 0.000000 0.000000 -0.081333 -0.002951 -0.584373
    9 0.000005 3.345128 -2.981901 1.602172 -0.018450 1.552570
    10 4.018331 0.000000 0.000000 -0.414496 -0.030657 0.157854
    11 3.518565 0.000000 0.000000 -0.276698 -0.067821 0.212464
    12 8.942642 0.000000 0.000000 0.069846 0.019739 0.278995
    13 3.307271 0.000000 0.000000 3.049644 0.000407 0.378882
    14 3.593713 -0.000002 0.000000 0.590805 -0.032443 0.782770
    15 2.033346 1.000767 1.937660 2.063173 -1.320875 2.457844
    16 6.028142 -0.000001 0.000000 -1.963485 -0.501677 -0.736622
    17 11.692558 0.000000 0.000003 0.000000 0.000000 -1.551810
    18 11.481671 0.000000 -0.000028 -0.497607 0.055323 0.013791
    19 3.883692 -0.046774 0.431443 0.096592 -0.011005 -0.677032
    20 1.719576 0.000002 0.000000 0.055896 -0.087964 -1.150736
    21 1.209181 0.000001 0.000000 0.009300 -0.033625 -0.339454
    22 3.859859 -0.137948 1.332467 0.537921 -0.132407 -0.946649
    23 1.719430 0.000003 0.000000 0.023454 -0.208305 -0.755705
    24 1.099666 0.000002 0.000000 0.026030 -0.124608 -0.538675
    25 0.806049 -0.348924 1.321259 -1.269135 -0.727241 -0.266478
    26 1.789785 0.000000 0.000001 -0.001055 -0.012844 -0.131847
    27 1.206999 0.000000 0.000001 -0.000084 -0.003199 -0.064854
    28 2.033353 1.000771 -1.937610 -2.729659 1.487772 1.855480
    29 6.028141 0.000004 0.000000 1.101245 0.926772 -0.896389
    30 11.692545 0.000000 0.000000 0.000000 0.000000 -1.754028
    31 11.481696 0.000000 0.000004 -1.082052 -0.307054 0.342998
    32 3.883655 -0.050328 -0.431043 -0.386561 0.126208 -1.146667
    33 1.719577 0.000003 0.000000 -0.051390 0.078806 -1.521708
    34 1.209180 -0.000002 0.000000 -0.034695 0.051507 -1.200245
    35 3.859828 -0.148937 -1.331281 -0.083026 0.164909 0.067453
    36 1.719427 0.000000 0.000000 0.024520 0.136363 -0.478014
    37 1.099664 0.000000 0.000000 -0.166394 0.224946 -1.318138
    38 0.806015 -0.359833 -1.318333 1.070449 0.381371 -0.978459
    39 1.789782 0.000000 0.000002 0.002184 0.017473 0.317165
    40 1.206999 0.000000 0.000000 0.006460 0.026000 0.488017
    41 -0.044717 2.313936 4.661499 -1.041531 -0.131141 0.079674
    42 1.554961 -2.005421 -0.062502 -0.583859 0.091275 -1.371645
    43 2.676086 -1.712442 0.000000 -1.570796 0.000000 -1.570796
  time 19
    0 0.021089 -0.023433 36.559044 1.826668 0.036620 -0.007774
    1 3.890452 -0.000004 -0.000003 -2.121918 -0.645267 -1.280806
    2 17.848173 0.000000 0.000000 0.000000 0.000000 1.445253
    3 16.525244 0.000000 0.000000 0.171099 -0.066184 -1.098598
    4 6.879447 -0.000001 0.000001 -0.007299 -0.002951 -0.584373
    5 -3.890452 0.000004 0.000007 -1.767223 -0.301616 -1.516729
    6 17.848169 0.000000 0.000000 0.000000 0.000000 0.548896
    7 16.525253 0.000000 0.000000 0.063174 -0.117291 -1.371034
    8 6.879452 0.000000 0.000000 -0.081333 -0.002951 -0.584373
    9 0.000005 3.345128 -2.981901 1.602172 -0.018450 1.552570
    10 4.018331 0.000000 0.000000 -0.414629 -0.024053 0.164420
    11 3.518565 0.000000 0.000000 -0.189695 -0.047040 0.230692
    12 8.942642 0.000000 0.000000 0.069846 0.019739 0.278995
    13 3.307271 0.000000 0.000000 3.049644 0.000407 0.378882
    14 3.593713 -0.000002 0.000000 0.588125 -0.024390 0.788172
    15 2.033346 1.000767 1.937660 2.063173 -1.320875 2.457844
    16 6.028142 -0.000001 0.000000 -1.954773 -0.520981 -0.738209
    17 11.692558 0.000000 0.000003 0.000000 0.000000 -1.528151
    18 11.481671 0.000000 -0.000028 -0.516988 0.051519 -0.011004
    19 3.883692 -0.046774 0.431443 0.096592 -0.011005 -0.677032
    20 1.719576 0.000002 0.000000 0.055896 -0.087964 -1.150736
    21 1.209181 0.000001 0.000000 0.009300 -0.033625 -0.339454
    22 3.859859 -0.137948 1.332467 0.537921 -0.132407 -0.946649
    23 1.719430 0.000003 0.000000 0.023454 -0.208305 -0.755705
    24 1.099666 0.000002 0.000000 0.026030 -0.124608 -0.538675
    25 0.806049 -0.348924 1.321259 -1.269135 -0.727241 -0.266478
    26 1.789785 0.000000 0.000001 -0.001055 -0.012844 -0.131847
    27 1.206999 0.000000 0.000001 -0.000096 -0.003199 -0.064854
    28 2.033353 1.000771 -1.937610 -2.729659 1.487772 1.855480
    29 6.028141 0.000004 0.000000 1.113215 0.923100 -0.899640
    30 11.692545 0.000000 0.000000 0.000000 0.000000 -1.772295
    31 11.481696 0.000000 0.000004 -1.113811 -0.311586 0.388653
    32 3.883655 -0.050328 -0.431043 -0.386561 0.126208 -1.146667
    33 1.719577 0.000003 0.000000 -0.051390 0.078806 -1.521708
    34 1.209180 -0.000002 0.000000 -0.034695 0.051507 -1.200245
    35 3.859828 -0.148937 -1.331281 -0.083026 0.164909 0.067453
    36 1.719427 0.000000 0.000000 0.024520 0.136363 -0.478014
    37 1.099664 0.000000 0.000000 -0.166382 0.224946 -1.318138
    38 0.806015 -0.359833 -1.318333 1.070449 0.381371 -0.978459
    39 1.789782 0.000000 0.000002 0.002198 0.017473 0.317165
    40 1.206999 0.000000 0.000000 0.006460 0.026000 0.488017
    41 -0.044717 2.313936 4.661499 -0.862637 -0.041868 0.081112
    42 1.554961 -2.005421 -0.062502 -0.583859 0.091275 -1.371645
    43 2.676086 -1.712442 0.000000 -1.570796 0.000000 -1.570796
end
