"VertexLitGeneric"
{
	"$baseTexture" 		"Models/Combine_soldier/combine_hazard_s"
	"$bumpmap" "models/combine_soldier/combinesoldier_normal"
	"$phongexponenttexture" "models/combine_soldier/combinesoldier_phong"
	"$selfillummask" 	"Models/Combine_soldier/combinesoldierselfillummask"
	"$surfaceprop" "flesh"
	"$selfillum" 1
	"$model" 1
	"$phong" 1
	"$phongboost" "5"
	"$halflambert" "1"
	"$phongalbedotint" "1"										
	"$phongfresnelranges"	"[.1 .5 1.0]"
}
