version 1
nodes
  0 "Bip01" -1
  1 "Bip01 Pelvis" 0
  2 "Bip01 L Leg" 1
  3 "Bip01 L Leg1" 2
  4 "Bip01 L Foot" 3
  5 "Bip01 L Toe0" 4
  6 "Bip01 L Toe01" 5
  7 "Bip01 L Toe02" 6
  8 "Bip01 L Toe1" 4
  9 "Bip01 L Toe11" 8
  10 "Bip01 L Toe12" 9
  11 "Bip01 R Leg" 1
  12 "Bip01 R Leg1" 11
  13 "Bip01 R Foot" 12
  14 "Bip01 R Toe0" 13
  15 "Bip01 R Toe01" 14
  16 "Bip01 R Toe02" 15
  17 "Bip01 R Toe1" 13
  18 "Bip01 R Toe11" 17
  19 "Bip01 R Toe12" 18
  20 "Bip01 Spine" 1
  21 "Bip01 Neck" 20
  22 "Bone04" 21
  23 "Bone05" 22
  24 "Bone06" 23
  25 "Bone01" 21
  26 "Bone02" 25
  27 "Bone03" 26
  28 "Bone08" 27
end
skeleton
  time 0
    0 0.070971 6.275935 8.830147 0.000000 0.000000 -1.570939
    1 0.000000 0.000000 0.000000 -1.570795 -1.570796 0.000000
    2 -0.000006 0.000007 4.278235 0.000001 -2.967150 -0.091278
    3 4.365399 0.000000 0.000000 0.000000 0.000000 -0.400611
    4 4.407782 0.000000 0.000000 0.016063 -0.173711 0.307935
    5 0.381442 1.229093 -0.402634 0.000000 0.000000 1.570796
    6 0.127147 0.000000 0.000001 0.000000 0.000000 0.000000
    7 0.127147 0.000000 -0.000001 0.000000 0.000000 0.000000
    8 0.381442 1.229093 0.402635 0.000000 0.000000 1.570796
    9 0.135624 0.000000 0.000000 0.000000 0.000000 0.000000
    10 0.135624 0.000000 0.000000 0.000000 0.000000 0.000000
    11 0.000006 -0.000005 -4.278235 0.000001 2.967147 -0.091278
    12 4.365399 0.000000 0.000000 0.000000 0.000000 -0.400611
    13 4.407782 0.000000 0.000000 -0.016063 0.173711 0.307935
    14 0.381442 1.229092 0.402634 0.000000 0.000000 1.570796
    15 0.127148 0.000000 0.000001 0.000000 0.000000 0.000000
    16 0.127147 0.000000 -0.000001 0.000000 0.000000 0.000000
    17 0.381442 1.229093 -0.402634 0.000000 0.000000 1.570796
    18 0.135624 0.000000 0.000000 0.000000 0.000000 0.000000
    19 0.135624 0.000000 0.000000 0.000000 0.000000 0.000000
    20 0.302903 0.004685 0.000001 -0.000004 0.000002 2.216241
    21 9.785276 -0.000338 0.000000 0.000000 0.000000 0.000000
    22 -1.277974 0.148840 -3.491888 0.925352 -1.570796 0.000000
    23 -0.731086 -1.552348 0.000000 0.000000 0.000000 0.000000
    24 -0.334923 -5.297355 0.000000 0.000000 0.000000 0.000000
    25 -1.386638 0.165378 3.181271 0.925352 -1.570796 0.000000
    26 0.000000 0.000000 0.000000 0.000000 0.000000 0.000000
    27 0.715433 -1.567139 0.000000 0.000000 0.000000 0.000000
    28 0.647297 -5.519052 0.000000 0.000000 0.000000 0.000000
  time 1
    0 0.070971 6.275935 8.830147 0.000000 -0.069753 -1.570939
    1 0.000000 0.000000 0.000000 -1.570795 -1.570796 0.000000
    2 -0.000006 0.000007 4.278235 -0.011497 -2.964898 -0.021529
    3 4.365399 0.000000 0.000000 0.000000 0.000000 -0.400611
    4 4.407782 0.000000 0.000000 0.027944 -0.174946 0.305965
    5 0.381442 1.229093 -0.402634 0.000000 0.000000 1.570796
    6 0.127147 0.000000 0.000001 0.000000 0.000000 0.000000
    7 0.127147 0.000000 -0.000001 0.000000 0.000000 0.000000
    8 0.381442 1.229093 0.402635 0.000000 0.000000 1.570796
    9 0.135624 0.000000 0.000000 0.000000 0.000000 0.000000
    10 0.135624 0.000000 0.000000 0.000000 0.000000 0.000000
    11 0.000006 -0.000005 -4.278235 0.011515 2.964798 -0.021500
    12 4.365399 0.000000 0.000000 0.000000 0.000000 -0.400611
    13 4.407782 0.000000 0.000000 -0.027940 0.174949 0.305986
    14 0.381442 1.229092 0.402634 0.000000 0.000000 1.570796
    15 0.127148 0.000000 0.000001 0.000000 0.000000 0.000000
    16 0.127147 0.000000 -0.000001 0.000000 0.000000 0.000000
    17 0.381442 1.229093 -0.402634 0.000000 0.000000 1.570796
    18 0.135624 0.000000 0.000000 0.000000 0.000000 0.000000
    19 0.135624 0.000000 0.000000 0.000000 0.000000 0.000000
    20 0.302903 0.004685 0.000001 -0.000004 0.000002 2.216241
    21 9.785276 -0.000338 0.000000 0.000000 0.000000 0.000000
    22 -1.277974 0.148840 -3.491888 -0.164357 -1.586846 0.786447
    23 -0.731086 -1.552348 0.000000 0.000000 0.000000 0.000000
    24 -0.334923 -5.297355 0.000000 0.000000 0.000000 0.000000
    25 -1.386638 0.165378 3.181271 0.407961 -1.570796 0.000000
    26 0.000000 0.000000 0.000000 0.201089 0.003495 -0.001678
    27 0.715433 -1.567139 0.000000 0.000000 0.000000 0.000000
    28 0.647297 -5.519052 0.000000 0.000000 0.000000 0.000000
  time 2
    0 0.070971 6.275935 8.830147 0.000000 -0.219484 -1.570939
    1 0.000000 0.000000 0.000000 -1.570795 -1.570796 0.000000
    2 -0.000006 0.000007 4.278235 -0.035855 -2.959962 0.128481
    3 4.365399 0.000000 0.000000 0.000000 0.000000 -0.400611
    4 4.407782 0.000000 0.000000 0.053066 -0.177556 0.301614
    5 0.381442 1.229093 -0.402634 0.000000 0.000000 1.570796
    6 0.127147 0.000000 0.000001 0.000000 0.000000 0.000000
    7 0.127147 0.000000 -0.000001 0.000000 0.000000 0.000000
    8 0.381442 1.229093 0.402635 0.000000 0.000000 1.570796
    9 0.135624 0.000000 0.000000 0.000000 0.000000 0.000000
    10 0.135624 0.000000 0.000000 0.000000 0.000000 0.000000
    11 0.000006 -0.000005 -4.278235 0.035936 2.959837 0.128444
    12 4.365399 0.000000 0.000000 0.000000 0.000000 -0.400611
    13 4.407782 0.000000 0.000000 -0.053069 0.177547 0.301530
    14 0.381442 1.229092 0.402634 0.000000 0.000000 1.570796
    15 0.127148 0.000000 0.000001 0.000000 0.000000 0.000000
    16 0.127147 0.000000 -0.000001 0.000000 0.000000 0.000000
    17 0.381442 1.229093 -0.402634 0.000000 0.000000 1.570796
    18 0.135624 0.000000 0.000000 0.000000 0.000000 0.000000
    19 0.135624 0.000000 0.000000 0.000000 0.000000 0.000000
    20 0.302903 0.004685 0.000001 -0.000004 0.000002 2.216241
    21 9.785276 -0.000338 0.000000 0.000000 0.000000 0.000000
    22 -1.277974 0.148840 -3.491888 -0.315946 -1.602612 0.634621
    23 -0.731086 -1.552348 0.000000 0.000000 0.000000 0.000000
    24 -0.334923 -5.297355 0.000000 0.000000 0.000000 0.000000
    25 -1.386638 0.165378 3.181271 -0.109353 -1.570796 0.000000
    26 0.000000 0.000000 0.000000 0.422294 0.013268 -0.004614
    27 0.715433 -1.567139 0.000000 0.000000 0.000000 0.000000
    28 0.647297 -5.519052 0.000000 0.000000 0.000000 0.000000
  time 3
    0 0.070971 6.275935 8.830147 0.000000 -0.372867 -1.570939
    1 0.000000 0.000000 0.000000 -1.570795 -1.570796 0.000000
    2 -0.000006 0.000007 4.278235 -0.060468 -2.954853 0.281928
    3 4.365399 0.000000 0.000000 0.000000 0.000000 -0.400611
    4 4.407782 0.000000 0.000000 0.078480 -0.180044 0.297099
    5 0.381442 1.229093 -0.402634 0.000000 0.000000 1.570796
    6 0.127147 0.000000 0.000001 0.000000 0.000000 0.000000
    7 0.127147 0.000000 -0.000001 0.000000 0.000000 0.000000
    8 0.381442 1.229093 0.402635 0.000000 0.000000 1.570796
    9 0.135624 0.000000 0.000000 0.000000 0.000000 0.000000
    10 0.135624 0.000000 0.000000 0.000000 0.000000 0.000000
    11 0.000006 -0.000005 -4.278235 0.060578 2.954815 0.281931
    12 4.365399 0.000000 0.000000 0.000000 0.000000 -0.400611
    13 4.407782 0.000000 0.000000 -0.078474 0.180058 0.296982
    14 0.381442 1.229092 0.402634 0.000000 0.000000 1.570796
    15 0.127148 0.000000 0.000001 0.000000 0.000000 0.000000
    16 0.127147 0.000000 -0.000001 0.000000 0.000000 0.000000
    17 0.381442 1.229093 -0.402634 0.000000 0.000000 1.570796
    18 0.135624 0.000000 0.000000 0.000000 0.000000 0.000000
    19 0.135624 0.000000 0.000000 0.000000 0.000000 0.000000
    20 0.302903 0.004685 0.000001 -0.000004 0.000002 2.216241
    21 9.785276 -0.000338 0.000000 0.000000 0.000000 0.000000
    22 -1.277974 0.148840 -3.491888 -0.328196 -1.611577 0.622346
    23 -0.731086 -1.552348 0.000000 0.000000 0.000000 0.000000
    24 -0.334923 -5.297355 0.000000 0.000000 0.000000 0.000000
    25 -1.386638 0.165378 3.181271 -0.348067 -1.570796 0.000000
    26 0.000000 0.000000 0.000000 0.656910 0.027374 -0.006064
    27 0.715433 -1.567139 0.000000 0.000000 0.000000 0.000000
    28 0.647297 -5.519052 0.000000 0.000000 0.000000 0.000000
  time 4
    0 0.070971 6.275935 8.830147 0.000000 -0.525611 -1.570939
    1 0.000000 0.000000 0.000000 -1.570795 -1.570796 0.000000
    2 -0.000006 0.000007 4.278235 -0.084826 -2.950004 0.435173
    3 4.365399 0.000000 0.000000 0.000000 0.000000 -0.400611
    4 4.407782 0.000000 0.000000 0.103544 -0.182425 0.292584
    5 0.381442 1.229093 -0.402634 0.000000 0.000000 1.570796
    6 0.127147 0.000000 0.000001 0.000000 0.000000 0.000000
    7 0.127147 0.000000 -0.000001 0.000000 0.000000 0.000000
    8 0.381442 1.229093 0.402635 0.000000 0.000000 1.570796
    9 0.135624 0.000000 0.000000 0.000000 0.000000 0.000000
    10 0.135624 0.000000 0.000000 0.000000 0.000000 0.000000
    11 0.000006 -0.000005 -4.278235 0.084952 2.949865 0.435180
    12 4.365399 0.000000 0.000000 0.000000 0.000000 -0.400611
    13 4.407782 0.000000 0.000000 -0.103551 0.182429 0.292434
    14 0.381442 1.229092 0.402634 0.000000 0.000000 1.570796
    15 0.127148 0.000000 0.000001 0.000000 0.000000 0.000000
    16 0.127147 0.000000 -0.000001 0.000000 0.000000 0.000000
    17 0.381442 1.229093 -0.402634 0.000000 0.000000 1.570796
    18 0.135624 0.000000 0.000000 0.000000 0.000000 0.000000
    19 0.135624 0.000000 0.000000 0.000000 0.000000 0.000000
    20 0.302903 0.004685 0.000001 -0.000004 0.000002 2.216241
    21 9.785276 -0.000338 0.000000 0.000000 0.000000 0.000000
    22 -1.277974 0.148840 -3.491888 0.004400 -1.632882 0.552571
    23 -0.731086 -1.552348 0.000000 0.000000 0.000000 0.000000
    24 -0.334923 -5.297355 0.000000 0.000000 0.000000 0.000000
    25 -1.386638 0.165378 3.181271 -0.306353 -1.570796 0.000000
    26 0.000000 0.000000 0.000000 0.898231 0.043245 -0.004243
    27 0.715433 -1.567139 0.000000 0.000000 0.000000 0.000000
    28 0.647297 -5.519052 0.000000 0.000000 0.000000 0.000000
  time 5
    0 0.070971 6.275935 8.830147 0.000000 -0.677990 -1.570939
    1 0.000000 0.000000 0.000000 -1.570795 -1.570796 0.000000
    2 -0.000006 0.000007 4.278235 -0.108929 -2.945154 0.587912
    3 4.365399 0.000000 0.000000 0.000000 0.000000 -0.400611
    4 4.407782 0.000000 0.000000 0.128277 -0.184630 0.288069
    5 0.381442 1.229093 -0.402634 0.000000 0.000000 1.570796
    6 0.127147 0.000000 0.000001 0.000000 0.000000 0.000000
    7 0.127147 0.000000 -0.000001 0.000000 0.000000 0.000000
    8 0.381442 1.229093 0.402635 0.000000 0.000000 1.570796
    9 0.135624 0.000000 0.000000 0.000000 0.000000 0.000000
    10 0.135624 0.000000 0.000000 0.000000 0.000000 0.000000
    11 0.000006 -0.000005 -4.278235 0.108945 2.945024 0.587910
    12 4.365399 0.000000 0.000000 0.000000 0.000000 -0.400611
    13 4.407782 0.000000 0.000000 -0.128301 0.184626 0.288072
    14 0.381442 1.229092 0.402634 0.000000 0.000000 1.570796
    15 0.127148 0.000000 0.000001 0.000000 0.000000 0.000000
    16 0.127147 0.000000 -0.000001 0.000000 0.000000 0.000000
    17 0.381442 1.229093 -0.402634 0.000000 0.000000 1.570796
    18 0.135624 0.000000 0.000000 0.000000 0.000000 0.000000
    19 0.135624 0.000000 0.000000 0.000000 0.000000 0.000000
    20 0.302903 0.004685 0.000001 -0.000004 0.000002 2.216241
    21 9.785276 -0.000338 0.000000 0.000000 0.000000 0.000000
    22 -1.277974 0.148840 -3.491888 0.366914 -1.681108 0.544449
    23 -0.731086 -1.552348 0.000000 0.000000 0.000000 0.000000
    24 -0.334923 -5.297355 0.000000 0.000000 0.000000 0.000000
    25 -1.386638 0.165378 3.181271 -0.184712 -1.570796 0.000000
    26 0.000000 0.000000 0.000000 1.139980 0.057850 0.001306
    27 0.715433 -1.567139 0.000000 0.000000 0.000000 0.000000
    28 0.647297 -5.519052 0.000000 0.000000 0.000000 0.000000
  time 6
    0 0.070971 6.275935 8.830147 0.000000 -0.829364 -1.570939
    1 0.000000 0.000000 0.000000 -1.570795 -1.570796 0.000000
    2 -0.000006 0.000007 4.278235 -0.132606 -2.940391 0.740045
    3 4.365399 0.000000 0.000000 0.000000 0.000000 -0.400611
    4 4.407782 0.000000 0.000000 0.152680 -0.186711 0.283554
    5 0.381442 1.229093 -0.402634 0.000000 0.000000 1.570796
    6 0.127147 0.000000 0.000001 0.000000 0.000000 0.000000
    7 0.127147 0.000000 -0.000001 0.000000 0.000000 0.000000
    8 0.381442 1.229093 0.402635 0.000000 0.000000 1.570796
    9 0.135624 0.000000 0.000000 0.000000 0.000000 0.000000
    10 0.135624 0.000000 0.000000 0.000000 0.000000 0.000000
    11 0.000006 -0.000005 -4.278235 0.132654 2.940242 0.740004
    12 4.365399 0.000000 0.000000 0.000000 0.000000 -0.400611
    13 4.407782 0.000000 0.000000 -0.152696 0.186718 0.283523
    14 0.381442 1.229092 0.402634 0.000000 0.000000 1.570796
    15 0.127148 0.000000 0.000001 0.000000 0.000000 0.000000
    16 0.127147 0.000000 -0.000001 0.000000 0.000000 0.000000
    17 0.381442 1.229093 -0.402634 0.000000 0.000000 1.570796
    18 0.135624 0.000000 0.000000 0.000000 0.000000 0.000000
    19 0.135624 0.000000 0.000000 0.000000 0.000000 0.000000
    20 0.302903 0.004685 0.000001 -0.000004 0.000002 2.216241
    21 9.785276 -0.000338 0.000000 0.000000 0.000000 0.000000
    22 -1.277974 0.148840 -3.491888 0.663175 -1.735181 0.666094
    23 -0.731086 -1.552348 0.000000 0.000000 0.000000 0.000000
    24 -0.334923 -5.297355 0.000000 0.000000 0.000000 0.000000
    25 -1.386638 0.165378 3.181271 -0.007732 -1.570796 0.000000
    26 0.000000 0.000000 0.000000 1.375309 0.068461 0.009696
    27 0.715433 -1.567139 0.000000 0.000000 0.000000 0.000000
    28 0.647297 -5.519052 0.000000 0.000000 0.000000 0.000000
  time 7
    0 0.070971 6.275935 8.830147 0.000000 -0.980008 -1.570939
    1 0.000000 0.000000 0.000000 -1.570795 -1.570796 0.000000
    2 -0.000006 0.000007 4.278235 -0.156027 -2.935628 0.891319
    3 4.365399 0.000000 0.000000 0.000000 0.000000 -0.400611
    4 4.407782 0.000000 0.000000 0.176772 -0.188652 0.279039
    5 0.381442 1.229093 -0.402634 0.000000 0.000000 1.570796
    6 0.127147 0.000000 0.000001 0.000000 0.000000 0.000000
    7 0.127147 0.000000 -0.000001 0.000000 0.000000 0.000000
    8 0.381442 1.229093 0.402635 0.000000 0.000000 1.570796
    9 0.135624 0.000000 0.000000 0.000000 0.000000 0.000000
    10 0.135624 0.000000 0.000000 0.000000 0.000000 0.000000
    11 0.000006 -0.000005 -4.278235 0.156077 2.935544 0.891302
    12 4.365399 0.000000 0.000000 0.000000 0.000000 -0.400611
    13 4.407782 0.000000 0.000000 -0.176790 0.188636 0.278975
    14 0.381442 1.229092 0.402634 0.000000 0.000000 1.570796
    15 0.127148 0.000000 0.000001 0.000000 0.000000 0.000000
    16 0.127147 0.000000 -0.000001 0.000000 0.000000 0.000000
    17 0.381442 1.229093 -0.402634 0.000000 0.000000 1.570796
    18 0.135624 0.000000 0.000000 0.000000 0.000000 0.000000
    19 0.135624 0.000000 0.000000 0.000000 0.000000 0.000000
    20 0.302903 0.004685 0.000001 -0.000004 0.000002 2.216241
    21 9.785276 -0.000338 0.000000 0.000000 0.000000 0.000000
    22 -1.277974 0.148840 -3.491888 0.934936 -1.774519 0.846346
    23 -0.731086 -1.552348 0.000000 0.000000 0.000000 0.000000
    24 -0.334923 -5.297355 0.000000 0.000000 0.000000 0.000000
    25 -1.386638 0.165378 3.181271 0.200381 -1.570796 0.000000
    26 0.000000 0.000000 0.000000 1.597370 0.073061 0.018792
    27 0.715433 -1.567139 0.000000 0.000000 0.000000 0.000000
    28 0.647297 -5.519052 0.000000 0.000000 0.000000 0.000000
  time 8
    0 0.070971 6.275935 8.919993 -0.178421 -1.073407 -1.406799
    1 -0.101566 0.000000 0.000000 -1.570795 -1.570796 0.000000
    2 -0.000006 0.000007 4.278235 -0.148447 -2.925583 0.834813
    3 4.365399 0.000000 0.000000 0.000000 0.000000 -0.480425
    4 4.407782 0.000000 0.000000 0.211033 -0.155613 0.129139
    5 0.381442 1.229093 -0.402634 0.000000 0.000000 1.570796
    6 0.127147 0.000000 0.000001 0.000000 0.000000 0.000000
    7 0.127147 0.000000 -0.000001 0.000000 0.000000 0.000000
    8 0.381442 1.229093 0.402635 0.000000 0.000000 1.570796
    9 0.135624 0.000000 0.000000 0.000000 0.000000 0.000000
    10 0.135624 0.000000 0.000000 0.000000 0.000000 0.000000
    11 0.000006 -0.000005 -4.278235 0.093821 2.893286 0.602758
    12 4.365399 0.000000 0.000000 0.000000 0.000000 -0.343288
    13 4.407782 0.000000 0.000000 -0.138342 0.226837 0.142994
    14 0.381442 1.229092 0.402634 0.000000 0.000000 1.570796
    15 0.127148 0.000000 0.000001 0.000000 0.000000 0.000000
    16 0.127147 0.000000 -0.000001 0.000000 0.000000 0.000000
    17 0.381442 1.229093 -0.402634 0.000000 0.000000 1.570796
    18 0.135624 0.000000 0.000000 0.000000 0.000000 0.000000
    19 0.135624 0.000000 0.000000 0.000000 0.000000 0.000000
    20 0.302903 0.004685 0.000001 -0.000004 0.000002 2.189907
    21 9.785276 -0.000338 0.000000 0.000000 0.000000 0.000000
    22 -1.277974 0.148840 -3.491888 1.190779 -1.784850 1.045150
    23 -0.731086 -1.552348 0.000000 0.000000 0.000000 0.000000
    24 -0.334923 -5.297355 0.000000 0.000000 0.000000 0.000000
    25 -1.386638 0.165378 3.181271 0.415117 -1.570504 0.000000
    26 0.000000 0.000000 0.000000 1.799315 0.070725 0.026043
    27 0.715433 -1.567139 0.000000 0.000000 0.000000 0.000000
    28 0.647297 -5.519052 0.000000 0.000000 0.000000 0.000000
  time 9
    0 0.070971 6.275935 9.041091 -0.497392 -1.161968 -1.105170
    1 -0.230476 0.000000 0.000000 -1.570795 -1.570796 0.000000
    2 -0.000006 0.000007 4.278235 -0.138908 -2.916144 0.769360
    3 4.365399 0.000000 0.000000 0.000000 0.000000 -0.560776
    4 4.407782 0.000000 0.000000 0.238683 -0.114389 -0.028231
    5 0.381442 1.229093 -0.402634 0.000000 0.000000 1.570796
    6 0.127147 0.000000 0.000001 0.000000 0.000000 0.000000
    7 0.127147 0.000000 -0.000001 0.000000 0.000000 0.000000
    8 0.381442 1.229093 0.402635 0.000000 0.000000 1.570796
    9 0.135624 0.000000 0.000000 0.000000 0.000000 0.000000
    10 0.135624 0.000000 0.000000 0.000000 0.000000 0.000000
    11 0.000006 -0.000005 -4.278235 0.020637 2.872433 0.302510
    12 4.365399 0.000000 0.000000 0.000000 0.000000 -0.287563
    13 4.407782 0.000000 0.000000 -0.092907 0.253810 0.007012
    14 0.381442 1.229092 0.402634 0.000000 0.000000 1.570796
    15 0.127148 0.000000 0.000001 0.000000 0.000000 0.000000
    16 0.127147 0.000000 -0.000001 0.000000 0.000000 0.000000
    17 0.381442 1.229093 -0.402634 0.000000 0.000000 1.570796
    18 0.135624 0.000000 0.000000 0.000000 0.000000 0.000000
    19 0.135624 0.000000 0.000000 0.000000 0.000000 0.000000
    20 0.302903 0.004685 0.000001 -0.000004 0.000002 2.157548
    21 9.785276 -0.000338 0.000000 0.000000 0.000000 0.000000
    22 -1.277974 0.148840 -3.491888 1.423371 -1.760763 1.236293
    23 -0.731086 -1.552348 0.000000 0.000000 0.000000 0.000000
    24 -0.334923 -5.297355 0.000000 0.000000 0.000000 0.000000
    25 -1.386638 0.165378 3.181271 0.612116 -1.570796 0.000000
    26 0.000000 0.000000 0.000000 1.974082 0.061452 0.028943
    27 0.715433 -1.567139 0.000000 0.000000 0.000000 0.000000
    28 0.647297 -5.519052 0.000000 0.000000 0.000000 0.000000
  time 10
    0 0.070971 6.275935 9.158282 -0.920769 -1.195201 -0.699037
    1 -0.351573 0.000000 0.000000 -1.570795 -1.570796 0.000000
    2 -0.000006 0.000007 4.278235 -0.130221 -2.908956 0.713713
    3 4.365399 0.000000 0.000000 0.000000 0.000000 -0.626645
    4 4.407782 0.000000 0.000000 0.254783 -0.077399 -0.153913
    5 0.381442 1.229093 -0.402634 0.000000 0.000000 1.570796
    6 0.127147 0.000000 0.000001 0.000000 0.000000 0.000000
    7 0.127147 0.000000 -0.000001 0.000000 0.000000 0.000000
    8 0.381442 1.229093 0.402635 0.000000 0.000000 1.570796
    9 0.135624 0.000000 0.000000 0.000000 0.000000 0.000000
    10 0.135624 0.000000 0.000000 0.000000 0.000000 0.000000
    11 0.000006 -0.000005 -4.278235 -0.047194 2.872756 0.033311
    12 4.365399 0.000000 0.000000 0.000000 0.000000 -0.241743
    13 4.407782 0.000000 0.000000 -0.066873 0.264707 -0.178535
    14 0.381442 1.229092 0.402634 0.000000 0.000000 1.570796
    15 0.127148 0.000000 0.000001 0.000000 0.000000 0.000000
    16 0.127147 0.000000 -0.000001 0.000000 0.000000 0.000000
    17 0.381442 1.229093 -0.402634 0.000000 0.000000 1.570796
    18 0.135624 0.000000 0.000000 0.000000 0.000000 0.000000
    19 0.135624 0.000000 0.000000 0.000000 0.000000 0.000000
    20 0.302903 0.004685 0.000001 -0.000004 0.000002 2.124015
    21 9.785276 -0.000338 0.000000 0.000000 0.000000 0.000000
    22 -1.277974 0.148840 -3.491888 -1.520743 -1.434774 -1.742901
    23 -0.731086 -1.552348 0.000000 0.000000 0.000000 0.000000
    24 -0.334923 -5.297355 0.000000 0.000000 0.000000 0.000000
    25 -1.386638 0.165378 3.181271 0.767174 -1.570796 0.000000
    26 0.000000 0.000000 0.000000 2.114823 0.045973 0.025755
    27 0.715433 -1.567139 0.000000 0.000000 0.000000 0.000000
    28 0.647297 -5.519052 0.000000 0.000000 0.000000 0.000000
  time 11
    0 0.070971 6.275935 9.255941 -1.305702 -1.164981 -0.330103
    1 -0.464858 0.000000 0.000000 -1.570795 -1.570796 0.000000
    2 -0.000006 0.000007 4.278235 -0.122471 -2.903414 0.665900
    3 4.365399 0.000000 0.000000 0.000000 0.000000 -0.682483
    4 4.407782 0.000000 0.000000 0.263611 -0.045084 -0.256528
    5 0.381442 1.229093 -0.402634 0.000000 0.000000 1.570796
    6 0.127147 0.000000 0.000001 0.000000 0.000000 0.000000
    7 0.127147 0.000000 -0.000001 0.000000 0.000000 0.000000
    8 0.381442 1.229093 0.402635 0.000000 0.000000 1.570796
    9 0.135624 0.000000 0.000000 0.000000 0.000000 0.000000
    10 0.135624 0.000000 0.000000 0.000000 0.000000 0.000000
    11 0.000006 -0.000005 -4.278235 -0.111176 2.889918 -0.230435
    12 4.365399 0.000000 0.000000 0.000000 0.000000 -0.204742
    13 4.407782 0.000000 0.000000 -0.087178 0.260784 -0.529580
    14 0.381442 1.229092 0.402634 0.000000 0.000000 1.570796
    15 0.127148 0.000000 0.000001 0.000000 0.000000 0.000000
    16 0.127147 0.000000 -0.000001 0.000000 0.000000 0.000000
    17 0.381442 1.229093 -0.402634 0.000000 0.000000 1.570796
    18 0.135624 0.000000 0.000000 0.000000 0.000000 0.000000
    19 0.135624 0.000000 0.000000 0.000000 0.000000 0.000000
    20 0.302903 0.004685 0.000001 -0.000004 0.000002 2.091929
    21 9.785276 -0.000338 0.000000 0.000000 0.000000 0.000000
    22 -1.277974 0.148840 -3.491888 -1.371237 -1.505129 -1.629009
    23 -0.731086 -1.552348 0.000000 0.000000 0.000000 0.000000
    24 -0.334923 -5.297355 0.000000 0.000000 0.000000 0.000000
    25 -1.386638 0.165378 3.181271 0.855702 -1.570796 0.000000
    26 0.000000 0.000000 0.000000 2.214832 0.025234 0.015844
    27 0.715433 -1.567139 0.000000 0.000000 0.000000 0.000000
    28 0.647297 -5.519052 0.000000 0.000000 0.000000 0.000000
  time 12
    0 0.070971 6.275935 9.330162 -1.568874 -1.099702 -0.081207
    1 -0.562517 0.000000 0.000000 -1.570795 -1.570796 0.000000
    2 -0.000006 0.000007 4.278235 -0.114380 -2.898218 0.617581
    3 4.365399 0.000000 0.000000 0.000000 0.000000 -0.738642
    4 4.407782 0.000000 0.000000 0.268219 -0.012804 -0.354463
    5 0.381442 1.229093 -0.402634 0.000000 0.000000 1.570796
    6 0.127147 0.000000 0.000001 0.000000 0.000000 0.000000
    7 0.127147 0.000000 -0.000001 0.000000 0.000000 0.000000
    8 0.381442 1.229093 0.402635 0.000000 0.000000 1.570796
    9 0.135624 0.000000 0.000000 0.000000 0.000000 0.000000
    10 0.135624 0.000000 0.000000 0.000000 0.000000 0.000000
    11 0.000006 -0.000005 -4.278235 -0.171263 2.924698 -0.505367
    12 4.365399 0.000000 0.000000 0.000000 0.000000 -0.154833
    13 4.407782 0.000000 0.000000 -0.227180 0.157269 -1.478851
    14 0.381442 1.229092 0.402634 0.000000 0.000000 1.570796
    15 0.127148 0.000000 0.000001 0.000000 0.000000 0.000000
    16 0.127147 0.000000 -0.000001 0.000000 0.000000 0.000000
    17 0.381442 1.229093 -0.402634 0.000000 0.000000 1.570796
    18 0.135624 0.000000 0.000000 0.000000 0.000000 0.000000
    19 0.135624 0.000000 0.000000 0.000000 0.000000 0.000000
    20 0.302903 0.004685 0.000001 -0.000004 0.000002 2.062583
    21 9.785276 -0.000338 0.000000 0.000000 0.000000 0.000000
    22 -1.277974 0.148840 -3.491888 3.419782 -1.570796 0.000000
    23 -0.731086 -1.552348 0.000000 0.000000 0.000000 0.000000
    24 -0.334923 -5.297355 0.000000 0.000000 0.000000 0.000000
    25 -1.386638 0.165378 3.181271 0.898329 -1.570796 0.000000
    26 0.000000 0.000000 0.000000 2.267690 0.000000 0.000000
    27 0.715433 -1.567139 0.000000 0.000000 0.000000 0.000000
    28 0.647297 -5.519052 0.000000 0.000000 0.000000 0.000000
  time 13
    0 0.070971 6.275935 9.380945 -1.735023 -1.024745 -6.210604
    1 -0.644551 0.000000 0.000000 -1.570795 -1.570796 0.000000
    2 -0.000006 0.000007 4.278235 -0.104415 -2.892589 0.559962
    3 4.365399 0.000000 0.000000 0.000000 0.000000 -0.805745
    4 4.407782 0.000000 0.000000 0.268608 0.023975 -0.462496
    5 0.381442 1.229093 -0.402634 0.000000 0.000000 1.570796
    6 0.127147 0.000000 0.000001 0.000000 0.000000 0.000000
    7 0.127147 0.000000 -0.000001 0.000000 0.000000 0.000000
    8 0.381442 1.229093 0.402635 0.000000 0.000000 1.570796
    9 0.135624 0.000000 0.000000 0.000000 0.000000 0.000000
    10 0.135624 0.000000 0.000000 0.000000 0.000000 0.000000
    11 0.000006 -0.000005 -4.278235 -0.214182 2.968549 -0.748693
    12 4.365399 0.000000 0.000000 0.000000 0.000000 -0.120452
    13 4.407782 0.000000 0.000000 -0.252270 -0.109355 -2.733592
    14 0.381442 1.229092 0.402634 0.000000 0.000000 1.570796
    15 0.127148 0.000000 0.000001 0.000000 0.000000 0.000000
    16 0.127147 0.000000 -0.000001 0.000000 0.000000 0.000000
    17 0.381442 1.229093 -0.402634 0.000000 0.000000 1.570796
    18 0.135624 0.000000 0.000000 0.000000 0.000000 0.000000
    19 0.135624 0.000000 0.000000 0.000000 0.000000 0.000000
    20 0.302903 0.004685 0.000001 -0.000004 0.000002 2.036249
    21 9.785276 -0.000338 0.000000 0.000000 0.000000 0.000000
    22 -1.277974 0.148840 -3.491888 1.815886 -1.434001 1.445249
    23 -0.731086 -1.552348 0.000000 0.000000 0.000000 0.000000
    24 -0.334923 -5.297355 0.000000 0.000000 0.000000 0.000000
    25 -1.386638 0.165378 3.181271 0.932431 -1.570796 0.000000
    26 0.000000 0.000000 0.000000 2.121457 -0.075505 -0.042617
    27 0.715433 -1.567139 0.000000 0.000000 0.000000 0.000000
    28 0.647297 -5.519052 0.000000 0.000000 0.000000 0.000000
  time 14
    0 0.070971 6.275935 9.412196 -1.842498 -0.951340 -6.114536
    1 -0.714866 0.000000 0.000000 -1.570795 -1.570796 0.000000
    2 -0.000006 0.000007 4.278235 -0.092066 -2.886701 0.489607
    3 4.365399 0.000000 0.000000 0.000000 0.000000 -0.889367
    4 4.407782 0.000000 0.000000 0.263358 0.063699 -0.574059
    5 0.381442 1.229093 -0.402634 0.000000 0.000000 1.570796
    6 0.127147 0.000000 0.000001 0.000000 0.000000 0.000000
    7 0.127147 0.000000 -0.000001 0.000000 0.000000 0.000000
    8 0.381442 1.229093 0.402635 0.000000 0.000000 1.570796
    9 0.135624 0.000000 0.000000 0.000000 0.000000 0.000000
    10 0.135624 0.000000 0.000000 0.000000 0.000000 0.000000
    11 0.000006 -0.000005 -4.278235 -0.220200 2.980738 -0.812659
    12 4.365399 0.000000 0.000000 0.000000 0.000000 -0.221358
    13 4.407782 0.000000 0.000000 -0.156222 -0.223453 3.048818
    14 0.381442 1.229092 0.402634 0.000000 0.000000 1.570796
    15 0.127148 0.000000 0.000001 0.000000 0.000000 0.000000
    16 0.127147 0.000000 -0.000001 0.000000 0.000000 0.000000
    17 0.381442 1.229093 -0.402634 0.000000 0.000000 1.570796
    18 0.135624 0.000000 0.000000 0.000000 0.000000 0.000000
    19 0.135624 0.000000 0.000000 0.000000 0.000000 0.000000
    20 0.302903 0.004685 0.000001 -0.000004 0.000002 2.012811
    21 9.785276 -0.000338 0.000000 0.000000 0.000000 0.000000
    22 -1.277974 0.148840 -3.491888 1.576127 -1.222498 1.188669
    23 -0.731086 -1.552348 0.000000 0.000000 0.000000 0.000000
    24 -0.334923 -5.297355 0.000000 0.000000 0.000000 0.000000
    25 -1.386638 0.165378 3.181271 0.958997 -1.570796 0.000000
    26 0.000000 0.000000 0.000000 1.723345 -0.223072 -0.072866
    27 0.715433 -1.567139 0.000000 0.000000 0.000000 0.000000
    28 0.647297 -5.519052 0.000000 0.000000 0.000000 0.000000
  time 15
    0 0.070971 6.275935 9.427821 -1.915170 -0.882592 -6.052312
    1 -0.773461 0.000000 0.000000 -1.570795 -1.570796 0.000000
    2 -0.000006 0.000007 4.278235 -0.079972 -2.881591 0.422436
    3 4.365399 0.000000 0.000000 0.000000 0.000000 -0.976960
    4 4.407782 0.000000 0.000000 0.257836 0.086807 -0.619373
    5 0.381442 1.229093 -0.402634 0.000000 0.000000 1.570796
    6 0.127147 0.000000 0.000001 0.000000 0.000000 0.000000
    7 0.127147 0.000000 -0.000001 0.000000 0.000000 0.000000
    8 0.381442 1.229093 0.402635 0.000000 0.000000 1.570796
    9 0.135624 0.000000 0.000000 0.000000 0.000000 0.000000
    10 0.135624 0.000000 0.000000 0.000000 0.000000 0.000000
    11 0.000006 -0.000005 -4.278235 -0.164864 2.925441 -0.538206
    12 4.365399 0.000000 0.000000 0.000000 0.000000 -0.630349
    13 4.407782 0.000000 0.000000 -0.247656 -0.111360 -1.996230
    14 0.381442 1.229092 0.402634 0.000000 0.000000 1.570796
    15 0.127148 0.000000 0.000001 0.000000 0.000000 0.000000
    16 0.127147 0.000000 -0.000001 0.000000 0.000000 0.000000
    17 0.381442 1.229093 -0.402634 0.000000 0.000000 1.570796
    18 0.135624 0.000000 0.000000 0.000000 0.000000 0.000000
    19 0.135624 0.000000 0.000000 0.000000 0.000000 0.000000
    20 0.302903 0.004685 0.000001 -0.000004 0.000002 1.991682
    21 9.785276 -0.000338 0.000000 0.000000 0.000000 0.000000
    22 -1.277974 0.148840 -3.491888 1.249198 -1.052960 0.851238
    23 -0.731086 -1.552348 0.000000 0.000000 0.000000 0.000000
    24 -0.334923 -5.297355 0.000000 0.000000 0.000000 0.000000
    25 -1.386638 0.165378 3.181271 0.978560 -1.570796 0.000000
    26 0.000000 0.000000 0.000000 1.197332 -0.376150 -0.019691
    27 0.715433 -1.567139 0.000000 0.000000 0.000000 0.000000
    28 0.647297 -5.519052 0.000000 0.000000 0.000000 0.000000
  time 16
    0 0.070971 6.275935 9.435634 -1.965887 -0.818682 -6.011277
    1 -0.832057 0.000000 0.000000 -1.570795 -1.570796 0.000000
    2 -0.000006 0.000007 4.278235 -0.088829 -2.885229 0.451599
    3 4.365399 0.000000 0.000000 0.000000 0.000000 -1.077639
    4 4.407782 0.000000 0.000000 0.178580 -0.205021 0.679072
    5 0.381442 1.229093 -0.402634 0.000000 0.000000 1.570796
    6 0.127147 0.000000 0.000001 0.000000 0.000000 0.000000
    7 0.127147 0.000000 -0.000001 0.000000 0.000000 0.000000
    8 0.381442 1.229093 0.402635 0.000000 0.000000 1.570796
    9 0.135624 0.000000 0.000000 0.000000 0.000000 0.000000
    10 0.135624 0.000000 0.000000 0.000000 0.000000 0.000000
    11 0.000006 -0.000005 -4.278235 -0.049760 2.875105 -0.079416
    12 4.365399 0.000000 0.000000 0.000000 0.000000 -1.162997
    13 4.407782 0.000000 0.000000 -0.228740 0.146581 -0.027702
    14 0.381442 1.229092 0.402634 0.000000 0.000000 1.570796
    15 0.127148 0.000000 0.000001 0.000000 0.000000 0.000000
    16 0.127147 0.000000 -0.000001 0.000000 0.000000 0.000000
    17 0.381442 1.229093 -0.402634 0.000000 0.000000 1.570796
    18 0.135624 0.000000 0.000000 0.000000 0.000000 0.000000
    19 0.135624 0.000000 0.000000 0.000000 0.000000 0.000000
    20 0.302903 0.004685 0.000001 -0.000004 0.000002 1.972313
    21 9.785276 -0.000338 0.000000 0.000000 0.000000 0.000000
    22 -1.277974 0.148840 -3.491888 0.939936 -0.989587 0.533835
    23 -0.731086 -1.552348 0.000000 0.000000 0.000000 0.000000
    24 -0.334923 -5.297355 0.000000 0.000000 0.000000 0.000000
    25 -1.386638 0.165378 3.181271 0.991881 -1.570796 0.000000
    26 0.000000 0.000000 0.000000 0.683232 -0.453919 0.096116
    27 0.715433 -1.567139 0.000000 0.000000 0.000000 0.000000
    28 0.647297 -5.519052 0.000000 0.000000 0.000000 0.000000
  time 17
    0 0.070971 6.275935 9.435634 -2.000210 -0.760433 -5.986157
    1 -0.878933 0.000000 0.000000 -1.570795 -1.570796 0.000000
    2 -0.000006 0.000007 4.278235 -0.063279 -2.882198 0.333886
    3 4.365399 0.000000 0.000000 0.000000 0.000000 -1.011074
    4 4.407782 0.000000 0.000000 0.128258 0.234802 -1.390461
    5 0.381442 1.229093 -0.402634 0.000000 0.000000 1.570796
    6 0.127147 0.000000 0.000001 0.000000 0.000000 0.000000
    7 0.127147 0.000000 -0.000001 0.000000 0.000000 0.000000
    8 0.381442 1.229093 0.402635 0.000000 0.000000 1.570796
    9 0.135624 0.000000 0.000000 0.000000 0.000000 0.000000
    10 0.135624 0.000000 0.000000 0.000000 0.000000 0.000000
    11 0.000006 -0.000005 -4.278235 0.020969 2.875417 0.171394
    12 4.365399 0.000000 0.000000 0.000000 0.000000 -1.412354
    13 4.407782 0.000000 0.000000 -0.149550 0.221990 0.888896
    14 0.381442 1.229092 0.402634 0.000000 0.000000 1.570796
    15 0.127148 0.000000 0.000001 0.000000 0.000000 0.000000
    16 0.127147 0.000000 -0.000001 0.000000 0.000000 0.000000
    17 0.381442 1.229093 -0.402634 0.000000 0.000000 1.570796
    18 0.135624 0.000000 0.000000 0.000000 0.000000 0.000000
    19 0.135624 0.000000 0.000000 0.000000 0.000000 0.000000
    20 0.302903 0.004685 0.000001 -0.000004 0.000002 1.954040
    21 9.785276 -0.000338 0.000000 0.000000 0.000000 0.000000
    22 -1.277974 0.148840 -3.491888 0.764179 -0.999273 0.353952
    23 -0.731086 -1.552348 0.000000 0.000000 0.000000 0.000000
    24 -0.334923 -5.297355 0.000000 0.000000 0.000000 0.000000
    25 -1.386638 0.165378 3.181271 0.999722 -1.570796 0.000000
    26 0.000000 0.000000 0.000000 0.377782 -0.453830 0.172362
    27 0.715433 -1.567139 0.000000 0.000000 0.000000 0.000000
    28 0.647297 -5.519052 0.000000 0.000000 0.000000 0.000000
  time 18
    0 0.070971 6.275935 9.427821 -2.019384 -0.710127 -5.975515
    1 -0.921903 0.000000 0.000000 -1.570795 -1.570796 0.000000
    2 -0.000006 0.000007 4.278235 0.024189 -2.880292 -0.048468
    3 4.365399 0.000000 0.000000 0.000000 0.000000 -0.843882
    4 4.407782 0.000000 0.000000 0.256922 -0.054045 -0.614448
    5 0.381442 1.229093 -0.402634 0.000000 0.000000 1.570796
    6 0.127147 0.000000 0.000001 0.000000 0.000000 0.000000
    7 0.127147 0.000000 -0.000001 0.000000 0.000000 0.000000
    8 0.381442 1.229093 0.402635 0.000000 0.000000 1.570796
    9 0.135624 0.000000 0.000000 0.000000 0.000000 0.000000
    10 0.135624 0.000000 0.000000 0.000000 0.000000 0.000000
    11 0.000006 -0.000005 -4.278235 0.038771 2.884573 0.224732
    12 4.365399 0.000000 0.000000 0.000000 0.000000 -1.419830
    13 4.407782 0.000000 0.000000 -0.182440 0.186073 0.782245
    14 0.381442 1.229092 0.402634 0.000000 0.000000 1.570796
    15 0.127148 0.000000 0.000001 0.000000 0.000000 0.000000
    16 0.127147 0.000000 -0.000001 0.000000 0.000000 0.000000
    17 0.381442 1.229093 -0.402634 0.000000 0.000000 1.570796
    18 0.135624 0.000000 0.000000 0.000000 0.000000 0.000000
    19 0.135624 0.000000 0.000000 0.000000 0.000000 0.000000
    20 0.302903 0.004685 0.000001 -0.000004 0.000002 1.936119
    21 9.785276 -0.000338 0.000000 0.000000 0.000000 0.000000
    22 -1.277974 0.148840 -3.491888 0.700927 -1.020552 0.290730
    23 -0.731086 -1.552348 0.000000 0.000000 0.000000 0.000000
    24 -0.334923 -5.297355 0.000000 0.000000 0.000000 0.000000
    25 -1.386638 0.165378 3.181271 1.002614 -1.570796 0.000000
    26 0.000000 0.000000 0.000000 0.258798 -0.431218 0.193767
    27 0.715433 -1.567139 0.000000 0.000000 0.000000 0.000000
    28 0.647297 -5.519052 0.000000 0.000000 0.000000 0.000000
  time 19
    0 0.070971 6.275935 9.431728 -2.019768 -0.673699 -5.982322
    1 -0.964873 0.000000 0.000000 -1.570795 -1.570796 0.000000
    2 -0.000006 0.000007 4.278235 0.116596 -2.915624 -0.480455
    3 4.365399 0.000000 0.000000 0.000000 0.000000 -0.659150
    4 4.407782 0.000000 0.000000 0.253519 0.015014 -1.437992
    5 0.381442 1.229093 -0.402634 0.000000 0.000000 1.570796
    6 0.127147 0.000000 0.000001 0.000000 0.000000 0.000000
    7 0.127147 0.000000 -0.000001 0.000000 0.000000 0.000000
    8 0.381442 1.229093 0.402635 0.000000 0.000000 1.570796
    9 0.135624 0.000000 0.000000 0.000000 0.000000 0.000000
    10 0.135624 0.000000 0.000000 0.000000 0.000000 0.000000
    11 0.000006 -0.000005 -4.278235 0.040909 2.893897 0.218522
    12 4.365399 0.000000 0.000000 0.000000 0.000000 -1.343208
    13 4.407782 0.000000 0.000000 -0.231467 0.097936 0.326128
    14 0.381442 1.229092 0.402634 0.000000 0.000000 1.570796
    15 0.127148 0.000000 0.000001 0.000000 0.000000 0.000000
    16 0.127147 0.000000 -0.000001 0.000000 0.000000 0.000000
    17 0.381442 1.229093 -0.402634 0.000000 0.000000 1.570796
    18 0.135624 0.000000 0.000000 0.000000 0.000000 0.000000
    19 0.135624 0.000000 0.000000 0.000000 0.000000 0.000000
    20 0.302903 0.004685 0.000001 -0.000004 0.000002 1.918002
    21 9.785276 -0.000338 0.000000 0.000000 0.000000 0.000000
    22 -1.277974 0.148840 -3.491888 0.655592 -1.051028 0.245413
    23 -0.731086 -1.552348 0.000000 0.000000 0.000000 0.000000
    24 -0.334923 -5.297355 0.000000 0.000000 0.000000 0.000000
    25 -1.386638 0.165378 3.181271 1.001549 -1.570796 0.000000
    26 0.000000 0.000000 0.000000 0.170059 -0.402721 0.202600
    27 0.715433 -1.567139 0.000000 0.000000 0.000000 0.000000
    28 0.647297 -5.519052 0.000000 0.000000 0.000000 0.000000
  time 20
    0 0.070971 6.275935 9.451259 -1.991102 -0.662560 -6.014632
    1 -1.007843 0.000000 0.000000 -1.570795 -1.570796 0.000000
    2 -0.000006 0.000007 4.278235 0.171529 -2.968103 -0.810751
    3 4.365399 0.000000 0.000000 0.000000 0.000000 -0.509498
    4 4.407782 0.000000 0.000000 0.233433 0.069361 -2.117958
    5 0.381442 1.229093 -0.402634 0.000000 0.000000 1.570796
    6 0.127147 0.000000 0.000001 0.000000 0.000000 0.000000
    7 0.127147 0.000000 -0.000001 0.000000 0.000000 0.000000
    8 0.381442 1.229093 0.402635 0.000000 0.000000 1.570796
    9 0.135624 0.000000 0.000000 0.000000 0.000000 0.000000
    10 0.135624 0.000000 0.000000 0.000000 0.000000 0.000000
    11 0.000006 -0.000005 -4.278235 0.036458 2.902586 0.186679
    12 4.365399 0.000000 0.000000 0.000000 0.000000 -1.234059
    13 4.407782 0.000000 0.000000 -0.241626 -0.006084 -0.212785
    14 0.381442 1.229092 0.402634 0.000000 0.000000 1.570796
    15 0.127148 0.000000 0.000001 0.000000 0.000000 0.000000
    16 0.127147 0.000000 -0.000001 0.000000 0.000000 0.000000
    17 0.381442 1.229093 -0.402634 0.000000 0.000000 1.570796
    18 0.135624 0.000000 0.000000 0.000000 0.000000 0.000000
    19 0.135624 0.000000 0.000000 0.000000 0.000000 0.000000
    20 0.302903 0.004685 0.000001 -0.000004 0.000002 1.899338
    21 9.785276 -0.000338 0.000000 0.000000 0.000000 0.000000
    22 -1.277974 0.148840 -3.491888 0.625840 -1.088074 0.215509
    23 -0.731086 -1.552348 0.000000 0.000000 0.000000 0.000000
    24 -0.334923 -5.297355 0.000000 0.000000 0.000000 0.000000
    25 -1.386638 0.165378 3.181271 0.996905 -1.570796 0.000000
    26 0.000000 0.000000 0.000000 0.107357 -0.370728 0.200970
    27 0.715433 -1.567139 0.000000 0.000000 0.000000 0.000000
    28 0.647297 -5.519052 0.000000 0.000000 0.000000 0.000000
  time 21
    0 0.070971 6.275935 9.494230 -1.910184 -0.688763 -6.094402
    1 -1.050813 0.000000 0.000000 -1.570795 -1.570796 0.000000
    2 -0.000006 0.000007 4.278235 0.194184 -3.010882 -1.015751
    3 4.365399 0.000000 0.000000 0.000000 0.000000 -0.405546
    4 4.407782 0.000000 0.000000 0.229544 0.043131 -2.321053
    5 0.381442 1.229093 -0.402634 0.000000 0.000000 1.570796
    6 0.127147 0.000000 0.000001 0.000000 0.000000 0.000000
    7 0.127147 0.000000 -0.000001 0.000000 0.000000 0.000000
    8 0.381442 1.229093 0.402635 0.000000 0.000000 1.570796
    9 0.135624 0.000000 0.000000 0.000000 0.000000 0.000000
    10 0.135624 0.000000 0.000000 0.000000 0.000000 0.000000
    11 0.000006 -0.000005 -4.278235 0.030013 2.910832 0.146715
    12 4.365399 0.000000 0.000000 0.000000 0.000000 -1.117816
    13 4.407782 0.000000 0.000000 -0.215225 -0.089095 -0.712436
    14 0.381442 1.229092 0.402634 0.000000 0.000000 1.570796
    15 0.127148 0.000000 0.000001 0.000000 0.000000 0.000000
    16 0.127147 0.000000 -0.000001 0.000000 0.000000 0.000000
    17 0.381442 1.229093 -0.402634 0.000000 0.000000 1.570796
    18 0.135624 0.000000 0.000000 0.000000 0.000000 0.000000
    19 0.135624 0.000000 0.000000 0.000000 0.000000 0.000000
    20 0.302903 0.004685 0.000001 -0.000004 0.000002 1.879656
    21 9.785276 -0.000338 0.000000 0.000000 0.000000 0.000000
    22 -1.277974 0.148840 -3.491888 0.609340 -1.129911 0.199081
    23 -0.731086 -1.552348 0.000000 0.000000 0.000000 0.000000
    24 -0.334923 -5.297355 0.000000 0.000000 0.000000 0.000000
    25 -1.386638 0.165378 3.181271 0.989826 -1.570796 0.000000
    26 0.000000 0.000000 0.000000 0.066269 -0.336561 0.191178
    27 0.715433 -1.567139 0.000000 0.000000 0.000000 0.000000
    28 0.647297 -5.519052 0.000000 0.000000 0.000000 0.000000
  time 22
    0 0.070971 6.275935 9.568451 -1.756882 -0.742995 -6.241285
    1 -1.089877 0.000000 0.000000 -1.570795 -1.570796 0.000000
    2 -0.000006 0.000007 4.278235 0.204149 -3.047513 -1.173343
    3 4.365399 0.000000 0.000000 0.000000 0.000000 -0.319670
    4 4.407782 0.000000 0.000000 0.224469 -0.001162 -2.382047
    5 0.381442 1.229093 -0.402634 0.000000 0.000000 1.570796
    6 0.127147 0.000000 0.000001 0.000000 0.000000 0.000000
    7 0.127147 0.000000 -0.000001 0.000000 0.000000 0.000000
    8 0.381442 1.229093 0.402635 0.000000 0.000000 1.570796
    9 0.135624 0.000000 0.000000 0.000000 0.000000 0.000000
    10 0.135624 0.000000 0.000000 0.000000 0.000000 0.000000
    11 0.000006 -0.000005 -4.278235 0.023979 2.918693 0.108422
    12 4.365399 0.000000 0.000000 0.000000 0.000000 -1.008219
    13 4.407782 0.000000 0.000000 -0.179215 -0.135351 -1.097175
    14 0.381442 1.229092 0.402634 0.000000 0.000000 1.570796
    15 0.127148 0.000000 0.000001 0.000000 0.000000 0.000000
    16 0.127147 0.000000 -0.000001 0.000000 0.000000 0.000000
    17 0.381442 1.229093 -0.402634 0.000000 0.000000 1.570796
    18 0.135624 0.000000 0.000000 0.000000 0.000000 0.000000
    19 0.135624 0.000000 0.000000 0.000000 0.000000 0.000000
    20 0.302903 0.004685 0.000001 -0.000004 0.000002 1.859231
    21 9.785276 -0.000338 0.000000 0.000000 0.000000 0.000000
    22 -1.277974 0.148840 -3.491888 0.603673 -1.175251 0.193451
    23 -0.731086 -1.552348 0.000000 0.000000 0.000000 0.000000
    24 -0.334923 -5.297355 0.000000 0.000000 0.000000 0.000000
    25 -1.386638 0.165378 3.181271 0.980768 -1.570796 0.000000
    26 0.000000 0.000000 0.000000 0.042301 -0.300806 0.175430
    27 0.715433 -1.567139 0.000000 0.000000 0.000000 0.000000
    28 0.647297 -5.519052 0.000000 0.000000 0.000000 0.000000
  time 23
    0 0.070971 6.275935 9.634859 -1.516048 -0.799144 -0.188014
    1 -1.128941 0.000000 0.000000 -1.570795 -1.570796 0.000000
    2 -0.000006 0.000007 4.278235 0.206363 -3.082152 -1.311931
    3 4.365399 0.000000 0.000000 0.000000 0.000000 -0.235028
    4 4.407782 0.000000 0.000000 0.202205 -0.072478 -2.284604
    5 0.381442 1.229093 -0.402634 0.000000 0.000000 1.570796
    6 0.127147 0.000000 0.000001 0.000000 0.000000 0.000000
    7 0.127147 0.000000 -0.000001 0.000000 0.000000 0.000000
    8 0.381442 1.229093 0.402635 0.000000 0.000000 1.570796
    9 0.135624 0.000000 0.000000 0.000000 0.000000 0.000000
    10 0.135624 0.000000 0.000000 0.000000 0.000000 0.000000
    11 0.000006 -0.000005 -4.278235 0.020384 2.926040 0.080042
    12 4.365399 0.000000 0.000000 0.000000 0.000000 -0.916515
    13 4.407782 0.000000 0.000000 -0.162056 -0.144191 -1.282351
    14 0.381442 1.229092 0.402634 0.000000 0.000000 1.570796
    15 0.127148 0.000000 0.000001 0.000000 0.000000 0.000000
    16 0.127147 0.000000 -0.000001 0.000000 0.000000 0.000000
    17 0.381442 1.229093 -0.402634 0.000000 0.000000 1.570796
    18 0.135624 0.000000 0.000000 0.000000 0.000000 0.000000
    19 0.135624 0.000000 0.000000 0.000000 0.000000 0.000000
    20 0.302903 0.004685 0.000001 -0.000004 0.000002 1.838689
    21 9.785276 -0.000338 0.000000 0.000000 0.000000 0.000000
    22 -1.277974 0.148840 -3.491888 0.606506 -1.223297 0.196127
    23 -0.731086 -1.552348 0.000000 0.000000 0.000000 0.000000
    24 -0.334923 -5.297355 0.000000 0.000000 0.000000 0.000000
    25 -1.386638 0.165378 3.181271 0.970339 -1.570796 0.000000
    26 0.000000 0.000000 0.000000 0.031387 -0.263767 0.155608
    27 0.715433 -1.567139 0.000000 0.000000 0.000000 0.000000
    28 0.647297 -5.519052 0.000000 0.000000 0.000000 0.000000
  time 24
    0 0.070971 6.275935 9.677829 -1.191516 -0.817313 -0.497696
    1 -1.160192 0.000000 0.000000 -1.570795 -1.570796 0.000000
    2 -0.000006 0.000007 4.278235 0.190011 -3.059810 -1.177740
    3 4.365399 0.000000 0.000000 0.000000 0.000000 -0.240928
    4 4.407782 0.000000 0.000000 0.026991 -0.204951 -1.052653
    5 0.381442 1.229093 -0.402634 0.000000 0.000000 1.570796
    6 0.127147 0.000000 0.000001 0.000000 0.000000 0.000000
    7 0.127147 0.000000 -0.000001 0.000000 0.000000 0.000000
    8 0.381442 1.229093 0.402635 0.000000 0.000000 1.570796
    9 0.135624 0.000000 0.000000 0.000000 0.000000 0.000000
    10 0.135624 0.000000 0.000000 0.000000 0.000000 0.000000
    11 0.000006 -0.000005 -4.278235 0.018008 2.932991 0.056796
    12 4.365399 0.000000 0.000000 0.000000 0.000000 -0.834845
    13 4.407782 0.000000 0.000000 -0.174470 -0.116329 -1.233342
    14 0.381442 1.229092 0.402634 0.000000 0.000000 1.570796
    15 0.127148 0.000000 0.000001 0.000000 0.000000 0.000000
    16 0.127147 0.000000 -0.000001 0.000000 0.000000 0.000000
    17 0.381442 1.229093 -0.402634 0.000000 0.000000 1.570796
    18 0.135624 0.000000 0.000000 0.000000 0.000000 0.000000
    19 0.135624 0.000000 0.000000 0.000000 0.000000 0.000000
    20 0.302903 0.004685 0.000001 -0.000004 0.000002 1.819359
    21 9.785276 -0.000338 0.000000 0.000000 0.000000 0.000000
    22 -1.277974 0.148840 -3.491888 0.615340 -1.273171 0.205080
    23 -0.731086 -1.552348 0.000000 0.000000 0.000000 0.000000
    24 -0.334923 -5.297355 0.000000 0.000000 0.000000 0.000000
    25 -1.386638 0.165378 3.181271 0.959606 -1.570796 0.000000
    26 0.000000 0.000000 0.000000 0.029318 -0.225675 0.133317
    27 0.715433 -1.567139 0.000000 0.000000 0.000000 0.000000
    28 0.647297 -5.519052 0.000000 0.000000 0.000000 0.000000
  time 25
    0 0.070971 6.275935 9.646578 -0.840044 -0.761894 -0.831347
    1 -1.187536 0.000000 0.000000 -1.570795 -1.570796 0.000000
    2 -0.000006 0.000007 4.278235 0.159861 -3.023785 -0.949035
    3 4.365399 0.000000 0.000000 0.000000 0.000000 -0.273594
    4 4.407782 0.000000 0.000000 0.096894 -0.173358 -1.171604
    5 0.381442 1.229093 -0.402634 0.000000 0.000000 1.570796
    6 0.127147 0.000000 0.000001 0.000000 0.000000 0.000000
    7 0.127147 0.000000 -0.000001 0.000000 0.000000 0.000000
    8 0.381442 1.229093 0.402635 0.000000 0.000000 1.570796
    9 0.135624 0.000000 0.000000 0.000000 0.000000 0.000000
    10 0.135624 0.000000 0.000000 0.000000 0.000000 0.000000
    11 0.000006 -0.000005 -4.278235 0.014745 2.939882 0.029569
    12 4.365399 0.000000 0.000000 0.000000 0.000000 -0.748893
    13 4.407782 0.000000 0.000000 -0.193556 -0.058949 -1.041668
    14 0.381442 1.229092 0.402634 0.000000 0.000000 1.570796
    15 0.127148 0.000000 0.000001 0.000000 0.000000 0.000000
    16 0.127147 0.000000 -0.000001 0.000000 0.000000 0.000000
    17 0.381442 1.229093 -0.402634 0.000000 0.000000 1.570796
    18 0.135624 0.000000 0.000000 0.000000 0.000000 0.000000
    19 0.135624 0.000000 0.000000 0.000000 0.000000 0.000000
    20 0.302903 0.004685 0.000001 -0.000004 0.000002 1.804138
    21 9.785276 -0.000338 0.000000 0.000000 0.000000 0.000000
    22 -1.277974 0.148840 -3.491888 0.628007 -1.324282 0.217632
    23 -0.731086 -1.552348 0.000000 0.000000 0.000000 0.000000
    24 -0.334923 -5.297355 0.000000 0.000000 0.000000 0.000000
    25 -1.386638 0.165378 3.181271 0.949102 -1.570796 0.000000
    26 0.000000 0.000000 0.000000 0.032457 -0.186800 0.109863
    27 0.715433 -1.567139 0.000000 0.000000 0.000000 0.000000
    28 0.647297 -5.519052 0.000000 0.000000 0.000000 0.000000
  time 26
    0 0.070971 6.275935 9.537200 -0.538522 -0.631792 -1.112361
    1 -1.195349 0.000000 0.000000 -1.570795 -1.570796 0.000000
    2 -0.000006 0.000007 4.278235 0.121280 -2.994515 -0.711536
    3 4.365399 0.000000 0.000000 0.000000 0.000000 -0.309103
    4 4.407782 0.000000 0.000000 0.151047 -0.116365 -1.295399
    5 0.381442 1.229093 -0.402634 0.000000 0.000000 1.570796
    6 0.127147 0.000000 0.000001 0.000000 0.000000 0.000000
    7 0.127147 0.000000 -0.000001 0.000000 0.000000 0.000000
    8 0.381442 1.229093 0.402635 0.000000 0.000000 1.570796
    9 0.135624 0.000000 0.000000 0.000000 0.000000 0.000000
    10 0.135624 0.000000 0.000000 0.000000 0.000000 0.000000
    11 0.000006 -0.000005 -4.278235 0.011135 2.946582 0.000870
    12 4.365399 0.000000 0.000000 0.000000 0.000000 -0.663388
    13 4.407782 0.000000 0.000000 -0.194631 0.016582 -0.767200
    14 0.381442 1.229092 0.402634 0.000000 0.000000 1.570796
    15 0.127148 0.000000 0.000001 0.000000 0.000000 0.000000
    16 0.127147 0.000000 -0.000001 0.000000 0.000000 0.000000
    17 0.381442 1.229093 -0.402634 0.000000 0.000000 1.570796
    18 0.135624 0.000000 0.000000 0.000000 0.000000 0.000000
    19 0.135624 0.000000 0.000000 0.000000 0.000000 0.000000
    20 0.302903 0.004685 0.000001 -0.000004 0.000002 1.797643
    21 9.785276 -0.000338 0.000000 0.000000 0.000000 0.000000
    22 -1.277974 0.148840 -3.491888 0.642091 -1.375754 0.231753
    23 -0.731086 -1.552348 0.000000 0.000000 0.000000 0.000000
    24 -0.334923 -5.297355 0.000000 0.000000 0.000000 0.000000
    25 -1.386638 0.165378 3.181271 0.939434 -1.570796 0.000000
    26 0.000000 0.000000 0.000000 0.036951 -0.147514 0.086229
    27 0.715433 -1.567139 0.000000 0.000000 0.000000 0.000000
    28 0.647297 -5.519052 0.000000 0.000000 0.000000 0.000000
  time 27
    0 0.070971 6.275935 9.341881 -0.316287 -0.457593 -1.312839
    1 -1.156285 0.000000 0.000000 -1.570795 -1.570796 0.000000
    2 -0.000006 0.000007 4.278235 0.085765 -2.977975 -0.519727
    3 4.365399 0.000000 0.000000 0.000000 0.000000 -0.337425
    4 4.407782 0.000000 0.000000 -0.000601 -0.184453 -0.138808
    5 0.381442 1.229093 -0.402634 0.000000 0.000000 1.570796
    6 0.127147 0.000000 0.000001 0.000000 0.000000 0.000000
    7 0.127147 0.000000 -0.000001 0.000000 0.000000 0.000000
    8 0.381442 1.229093 0.402635 0.000000 0.000000 1.570796
    9 0.135624 0.000000 0.000000 0.000000 0.000000 0.000000
    10 0.135624 0.000000 0.000000 0.000000 0.000000 0.000000
    11 0.000006 -0.000005 -4.278235 0.007571 2.952873 -0.027431
    12 4.365399 0.000000 0.000000 0.000000 0.000000 -0.582165
    13 4.407782 0.000000 0.000000 -0.165988 0.090526 -0.454118
    14 0.381442 1.229092 0.402634 0.000000 0.000000 1.570796
    15 0.127148 0.000000 0.000001 0.000000 0.000000 0.000000
    16 0.127147 0.000000 -0.000001 0.000000 0.000000 0.000000
    17 0.381442 1.229093 -0.402634 0.000000 0.000000 1.570796
    18 0.135624 0.000000 0.000000 0.000000 0.000000 0.000000
    19 0.135624 0.000000 0.000000 0.000000 0.000000 0.000000
    20 0.302903 0.004685 0.000001 -0.000004 0.000002 1.821355
    21 9.785276 -0.000338 0.000000 0.000000 0.000000 0.000000
    22 -1.277974 0.148840 -3.491888 0.655342 -1.426969 0.245136
    23 -0.731086 -1.552348 0.000000 0.000000 0.000000 0.000000
    24 -0.334923 -5.297355 0.000000 0.000000 0.000000 0.000000
    25 -1.386638 0.165378 3.181271 0.931670 -1.570796 0.000000
    26 0.000000 0.000000 0.000000 0.039305 -0.108371 0.063159
    27 0.715433 -1.567139 0.000000 0.000000 0.000000 0.000000
    28 0.647297 -5.519052 0.000000 0.000000 0.000000 0.000000
  time 28
    0 0.070971 6.275935 9.080154 -0.162122 -0.275633 -1.444574
    1 -0.925810 0.000000 0.000000 -1.570795 -1.570796 0.000000
    2 -0.000006 0.000007 4.278235 0.050676 -2.968969 -0.341160
    3 4.365399 0.000000 0.000000 0.000000 0.000000 -0.363761
    4 4.407782 0.000000 0.000000 -0.006376 -0.179567 0.116497
    5 0.381442 1.229093 -0.402634 0.000000 0.000000 1.570796
    6 0.127147 0.000000 0.000001 0.000000 0.000000 0.000000
    7 0.127147 0.000000 -0.000001 0.000000 0.000000 0.000000
    8 0.381442 1.229093 0.402635 0.000000 0.000000 1.570796
    9 0.135624 0.000000 0.000000 0.000000 0.000000 0.000000
    10 0.135624 0.000000 0.000000 0.000000 0.000000 0.000000
    11 0.000006 -0.000005 -4.278235 0.004340 2.958554 -0.053463
    12 4.365399 0.000000 0.000000 0.000000 0.000000 -0.508738
    13 4.407782 0.000000 0.000000 -0.113842 0.143704 -0.141407
    14 0.381442 1.229092 0.402634 0.000000 0.000000 1.570796
    15 0.127148 0.000000 0.000001 0.000000 0.000000 0.000000
    16 0.127147 0.000000 -0.000001 0.000000 0.000000 0.000000
    17 0.381442 1.229093 -0.402634 0.000000 0.000000 1.570796
    18 0.135624 0.000000 0.000000 0.000000 0.000000 0.000000
    19 0.135624 0.000000 0.000000 0.000000 0.000000 0.000000
    20 0.302903 0.004685 0.000001 -0.000004 0.000002 1.934906
    21 9.785276 -0.000338 0.000000 0.000000 0.000000 0.000000
    22 -1.277974 0.148840 -3.491888 0.665592 -1.477023 0.255196
    23 -0.731086 -1.552348 0.000000 0.000000 0.000000 0.000000
    24 -0.334923 -5.297355 0.000000 0.000000 0.000000 0.000000
    25 -1.386638 0.165378 3.181271 0.926113 -1.570796 0.000000
    26 0.000000 0.000000 0.000000 0.036166 -0.070155 0.040999
    27 0.715433 -1.567139 0.000000 0.000000 0.000000 0.000000
    28 0.647297 -5.519052 0.000000 0.000000 0.000000 0.000000
  time 29
    0 0.070971 6.275935 8.877023 -0.060017 -0.115768 -1.526165
    1 -0.417982 0.000000 0.000000 -1.570795 -1.570796 0.000000
    2 -0.000006 0.000007 4.278235 0.020782 -2.966457 -0.194183
    3 4.365399 0.000000 0.000000 0.000000 0.000000 -0.385431
    4 4.407782 0.000000 0.000000 0.006535 -0.176233 0.230440
    5 0.381442 1.229093 -0.402634 0.000000 0.000000 1.570796
    6 0.127147 0.000000 0.000001 0.000000 0.000000 0.000000
    7 0.127147 0.000000 -0.000001 0.000000 0.000000 0.000000
    8 0.381442 1.229093 0.402635 0.000000 0.000000 1.570796
    9 0.135624 0.000000 0.000000 0.000000 0.000000 0.000000
    10 0.135624 0.000000 0.000000 0.000000 0.000000 0.000000
    11 0.000006 -0.000005 -4.278235 0.001711 2.963432 -0.075356
    12 4.365399 0.000000 0.000000 0.000000 0.000000 -0.446814
    13 4.407782 0.000000 0.000000 -0.057133 0.168881 0.128607
    14 0.381442 1.229092 0.402634 0.000000 0.000000 1.570796
    15 0.127148 0.000000 0.000001 0.000000 0.000000 0.000000
    16 0.127147 0.000000 -0.000001 0.000000 0.000000 0.000000
    17 0.381442 1.229093 -0.402634 0.000000 0.000000 1.570796
    18 0.135624 0.000000 0.000000 0.000000 0.000000 0.000000
    19 0.135624 0.000000 0.000000 0.000000 0.000000 0.000000
    20 0.302903 0.004685 0.000001 -0.000004 0.000002 2.105507
    21 9.785276 -0.000338 0.000000 0.000000 0.000000 0.000000
    22 -1.277974 0.148840 -3.491888 0.670509 -1.525249 0.260180
    23 -0.731086 -1.552348 0.000000 0.000000 0.000000 0.000000
    24 -0.334923 -5.297355 0.000000 0.000000 0.000000 0.000000
    25 -1.386638 0.165378 3.181271 0.923982 -1.570796 0.000000
    26 0.000000 0.000000 0.000000 0.024182 -0.033686 0.019954
    27 0.715433 -1.567139 0.000000 0.000000 0.000000 0.000000
    28 0.647297 -5.519052 0.000000 0.000000 0.000000 0.000000
  time 30
    0 0.070971 6.275935 8.830147 0.000000 0.000000 -1.570939
    1 0.000000 0.000000 0.000000 -1.570795 -1.570796 0.000000
    2 -0.000006 0.000007 4.278235 0.000001 -2.967150 -0.091278
    3 4.365399 0.000000 0.000000 0.000000 0.000000 -0.400611
    4 4.407782 0.000000 0.000000 0.016063 -0.173711 0.307935
    5 0.381442 1.229093 -0.402634 0.000000 0.000000 1.570796
    6 0.127147 0.000000 0.000001 0.000000 0.000000 0.000000
    7 0.127147 0.000000 -0.000001 0.000000 0.000000 0.000000
    8 0.381442 1.229093 0.402635 0.000000 0.000000 1.570796
    9 0.135624 0.000000 0.000000 0.000000 0.000000 0.000000
    10 0.135624 0.000000 0.000000 0.000000 0.000000 0.000000
    11 0.000006 -0.000005 -4.278235 0.000001 2.967147 -0.091278
    12 4.365399 0.000000 0.000000 0.000000 0.000000 -0.400611
    13 4.407782 0.000000 0.000000 -0.016063 0.173711 0.307935
    14 0.381442 1.229092 0.402634 0.000000 0.000000 1.570796
    15 0.127148 0.000000 0.000001 0.000000 0.000000 0.000000
    16 0.127147 0.000000 -0.000001 0.000000 0.000000 0.000000
    17 0.381442 1.229093 -0.402634 0.000000 0.000000 1.570796
    18 0.135624 0.000000 0.000000 0.000000 0.000000 0.000000
    19 0.135624 0.000000 0.000000 0.000000 0.000000 0.000000
    20 0.302903 0.004685 0.000001 -0.000004 0.000002 2.216241
    21 9.785276 -0.000338 0.000000 0.000000 0.000000 0.000000
    22 -1.277974 0.148840 -3.491888 0.925352 -1.570796 0.000000
    23 -0.731086 -1.552348 0.000000 0.000000 0.000000 0.000000
    24 -0.334923 -5.297355 0.000000 0.000000 0.000000 0.000000
    25 -1.386638 0.165378 3.181271 0.925352 -1.570504 0.000000
    26 0.000000 0.000000 0.000000 0.000000 0.000000 0.000000
    27 0.715433 -1.567139 0.000000 0.000000 0.000000 0.000000
    28 0.647297 -5.519052 0.000000 0.000000 0.000000 0.000000
end
