// Created by Crowbar 0.56
version 1
nodes
  0 "Bip01" -1
  1 "Bip01 Pelvis" 0
  2 "Bip01 L Thigh" 1
  3 "Bip01 L Calf" 2
  4 "Bip01 L Foot" 3
  5 "Bip01 R Thigh" 1
  6 "Bip01 R Calf" 5
  7 "Bip01 R Foot" 6
  8 "Bip01 Spine" 1
  9 "Bip01 Spine1" 8
  10 "Bone16" 8
  11 "Bone01" 8
  12 "Bone03" 1
  13 "Bip01 Neck" 9
  14 "Bip01 R Clavicle" 13
  15 "Bip01 R UpperArm" 14
  16 "Bip01 R Forearm" 15
  17 "Bip01 R Hand" 16
  18 "Bip01 R Finger0" 17
  19 "Bip01 R Finger01" 18
  20 "Bip01 R Finger1" 17
  21 "Bip01 R Finger11" 20
  22 "Bip01 R Finger12" 21
  23 "Bip01 R Finger2" 17
  24 "Bip01 R Finger21" 23
  25 "Bip01 R Finger22" 24
  26 "Bip01 R Finger4" 17
  27 "Bip01 L Clavicle" 13
  28 "Bip01 L UpperArm" 27
  29 "Bip01 L Forearm" 28
  30 "Bip01 L Hand" 29
  31 "Bip01 L Finger0" 30
  32 "Bip01 L Finger01" 31
  33 "Bip01 L Finger02" 32
  34 "Bip01 L Finger1" 30
  35 "Bip01 L Finger11" 34
  36 "Bip01 L Finger12" 35
  37 "Bip01 L Finger2" 30
  38 "Bip01 L Finger21" 37
  39 "Bip01 L Finger22" 38
  40 "Bip01 L Finger3" 30
  41 "Bip01 L Finger31" 40
  42 "Bip01 L Finger32" 41
  43 "Bip01 L Finger4" 30
  44 "Bip01 L Finger41" 43
  45 "Bip01 L Finger42" 44
  46 "Bip01 R Finger02" 19
  47 "Bip01 R Finger3" 17
  48 "Bip01 R Finger31" 47
  49 "Bip01 R Finger32" 48
  50 "Bip01 R Finger41" 26
  51 "Bip01 R Finger42" 50
  52 "Bip01 Head" 13
  53 "R_eye" 52
  54 "L_eye" 52
  55 "Bone05" 52
  56 "Bone08" 9
  57 "Eyelids" 52
  58 "R_eyebrow" 52
  59 "C_eyebrow" 52
  60 "L_eyebrow" 52
  61 "Bip01 L Leg" 1
  62 "Bip01 L Leg1" 61
  63 "Bip01 R Leg" 1
  64 "Bip01 R Leg1" 63
  65 "Bip01 Spine2" 9
  66 "Bip01 Spine3" 65
  67 "Bip01 R Arm" 13
  68 "Bip01 R Arm1" 67
  69 "Bip01 R Arm2" 68
end
skeleton
  time 0
    0 0.382568 1.840820 39.187500 0.000000 0.000000 -1.570939
    1 -0.245771 0.000000 0.000000 0.000000 -1.570451 -1.570795
    2 -0.000008 0.000008 4.427393 -2.970391 -0.037396 -3.027704
    3 18.465942 0.000000 0.000000 0.000000 0.000000 -0.132541
    4 14.875443 0.000000 -0.000001 -0.514529 -0.017157 0.251089
    5 0.000008 -0.000004 -4.427393 -3.140626 0.035321 2.936568
    6 18.465942 0.000000 0.000000 0.000000 0.000000 -0.347773
    7 14.875444 0.000000 0.000000 -0.008308 0.034349 0.142498
    8 2.255207 -0.007574 0.000003 -0.000004 -0.000001 0.000796
    9 9.514221 -0.009357 0.000000 0.000000 0.000000 0.000000
    10 2.450428 5.076128 0.001325 0.000000 -1.570796 3.140791
    11 6.312405 -4.528058 0.001311 0.000000 -1.570796 3.140791
    12 2.233307 1.152535 -7.309138 -1.186022 -1.535920 -0.725144
    13 11.751816 -0.001633 0.000000 0.000000 -0.000001 0.239386
    14 -2.133121 0.444686 -2.649726 -0.377502 1.356119 2.531832
    15 4.640943 0.000000 0.000000 -0.661797 -1.084565 0.494018
    16 10.828049 0.000000 0.000000 0.000000 0.000000 -0.200151
    17 9.393341 0.000000 0.000002 1.569609 -0.034188 0.000012
    18 1.442244 0.107454 1.746178 -1.686403 -0.539234 0.325847
    19 1.063452 0.000000 -0.000002 0.000000 0.000000 0.199045
    20 4.172848 -0.251364 1.312744 -0.008024 -0.095730 0.148652
    21 1.215370 0.000000 0.000002 0.000000 0.000000 0.645721
    22 1.215372 0.000002 0.000000 0.000000 0.000000 0.645719
    23 4.220535 -0.244852 0.431465 -0.001334 -0.026240 0.148333
    24 1.350418 0.000000 -0.000001 0.000000 0.000000 0.863873
    25 1.350410 -0.000002 0.000001 0.000000 0.000000 0.863873
    26 4.262825 -0.232721 -1.392178 0.016839 0.076668 0.253758
    27 -2.133121 0.444674 2.649729 0.088019 -1.370041 2.815150
    28 4.640941 0.000000 0.000000 0.239244 1.007262 -0.182947
    29 10.828045 0.000000 -0.000002 0.000000 0.000000 -0.200048
    30 9.393339 0.000000 0.000000 -1.569608 0.034156 0.000047
    31 1.442245 0.107452 -1.746177 1.686432 0.539220 0.325884
    32 1.063452 -0.000002 0.000000 0.000000 0.000000 0.199047
    33 1.376307 0.000000 0.000002 0.000000 0.000000 0.199038
    34 4.172848 -0.251366 -1.312744 0.008024 0.095730 0.148652
    35 1.215372 0.000002 0.000002 0.000000 0.000000 0.645747
    36 1.215368 -0.000002 0.000000 0.000000 0.000000 0.645733
    37 4.220533 -0.244856 -0.431464 0.001334 0.026240 0.148333
    38 1.350416 0.000000 0.000001 0.000000 0.000000 0.863848
    39 1.350409 -0.000002 -0.000001 0.000000 0.000000 0.863848
    40 4.237633 -0.195358 0.527089 0.000663 0.008835 0.261752
    41 1.215376 0.000002 0.000001 0.000000 0.000000 0.977272
    42 1.215372 -0.000002 0.000000 0.000000 0.000000 0.977275
    43 4.262829 -0.232719 1.392177 -0.016839 -0.076668 0.253758
    44 1.012810 0.000000 0.000000 0.000000 0.000000 0.968558
    45 1.012808 0.000000 0.000000 0.000000 0.000000 0.968558
    46 1.376305 0.000000 0.000000 0.000000 0.000000 0.199055
    47 4.237637 -0.195356 -0.527090 -0.000663 -0.008835 0.261711
    48 1.215376 0.000000 -0.000001 0.000000 0.000000 0.977300
    49 1.215372 0.000000 0.000000 0.000000 0.000000 0.977316
    50 1.012814 0.000000 0.000000 0.000000 0.000000 0.968644
    51 1.012812 -0.000002 -0.000001 0.000000 0.000000 0.968644
    52 2.110538 0.000000 0.000000 0.405877 0.105356 -0.323088
    53 4.598148 4.158443 -1.350299 0.000000 -1.570796 2.984594
    54 4.598141 4.158430 1.240876 0.000000 -1.570796 2.984594
    55 0.891926 2.373051 -0.014527 -3.141592 -0.000001 1.413797
    56 7.228123 5.709446 3.726568 0.000000 -1.570796 3.140796
    57 4.598141 4.158430 -0.054439 0.000000 -1.570796 2.984594
    58 5.253246 3.139475 -1.673515 0.000000 -1.570796 2.984594
    59 5.253262 3.139473 -0.054760 0.000000 -1.570796 2.984594
    60 5.253254 3.139468 1.574632 0.000000 -1.570796 2.984594
    61 -0.000015 0.000007 4.427393 2.970641 0.008951 3.128169
    62 18.301062 0.000000 0.000000 0.000000 0.000000 -0.414350
    63 0.000004 -0.000004 -4.427393 -3.032389 0.037901 2.853221
    64 18.133162 -0.000001 0.000000 0.000000 0.000000 -0.213590
    65 5.334999 -0.004116 -0.000072 0.017439 0.000443 -0.026163
    66 5.172565 -0.004196 0.000110 -0.026163 -0.000436 -0.017439
    67 -2.772717 1.008385 -2.551214 1.160522 1.415280 -2.327811
    68 6.269506 0.000000 0.000000 0.060496 -0.087094 -0.331165
    69 8.573798 0.000000 -0.000004 0.000000 0.000000 -0.200000
  time 1
    0 0.382568 1.840820 39.187500 0.000000 0.000000 -1.570939
    1 -0.245771 0.000000 0.000000 0.000000 -1.570451 -1.570795
    2 -0.000008 0.000008 4.427393 -2.970391 -0.037396 -3.027704
    3 18.465942 0.000000 0.000000 0.000000 0.000000 -0.132541
    4 14.875443 0.000000 -0.000001 -0.514529 -0.017157 0.251089
    5 0.000008 -0.000004 -4.427393 -3.140626 0.035321 2.936568
    6 18.465942 0.000000 0.000000 0.000000 0.000000 -0.347773
    7 14.875444 0.000000 0.000000 -0.008308 0.034349 0.142498
    8 2.255207 -0.007574 0.000003 -0.000004 -0.000001 0.000796
    9 9.514221 -0.009357 0.000000 0.000000 0.000000 0.000000
    10 2.450428 5.076128 0.001325 0.000000 -1.570796 3.140791
    11 6.312405 -4.528058 0.001311 0.000000 -1.570796 3.140791
    12 2.233307 1.152535 -7.309138 -1.186022 -1.535920 -0.725144
    13 11.751816 -0.001633 0.000000 0.000000 -0.000001 0.239386
    14 -2.133121 0.444686 -2.649726 -0.377502 1.356119 2.531832
    15 4.640943 0.000000 0.000000 -0.661797 -1.084565 0.494018
    16 10.828049 0.000000 0.000000 0.000000 0.000000 -0.200151
    17 9.393341 0.000000 0.000002 1.569609 -0.034188 0.000012
    18 1.442244 0.107454 1.746178 -1.686403 -0.539234 0.325847
    19 1.063452 0.000000 -0.000002 0.000000 0.000000 0.199045
    20 4.172848 -0.251364 1.312744 -0.008024 -0.095730 0.148652
    21 1.215370 0.000000 0.000002 0.000000 0.000000 0.645721
    22 1.215372 0.000002 0.000000 0.000000 0.000000 0.645719
    23 4.220535 -0.244852 0.431465 -0.001334 -0.026240 0.148333
    24 1.350418 0.000000 -0.000001 0.000000 0.000000 0.863873
    25 1.350410 -0.000002 0.000001 0.000000 0.000000 0.863873
    26 4.262825 -0.232721 -1.392178 0.016839 0.076668 0.253758
    27 -2.133121 0.444674 2.649729 0.088019 -1.370041 2.815150
    28 4.640941 0.000000 0.000000 0.239244 1.007262 -0.182947
    29 10.828045 0.000000 -0.000002 0.000000 0.000000 -0.200048
    30 9.393339 0.000000 0.000000 -1.569608 0.034156 0.000047
    31 1.442245 0.107452 -1.746177 1.686432 0.539220 0.325884
    32 1.063452 -0.000002 0.000000 0.000000 0.000000 0.199047
    33 1.376307 0.000000 0.000002 0.000000 0.000000 0.199038
    34 4.172848 -0.251366 -1.312744 0.008024 0.095730 0.148652
    35 1.215372 0.000002 0.000002 0.000000 0.000000 0.645747
    36 1.215368 -0.000002 0.000000 0.000000 0.000000 0.645733
    37 4.220533 -0.244856 -0.431464 0.001334 0.026240 0.148333
    38 1.350416 0.000000 0.000001 0.000000 0.000000 0.863848
    39 1.350409 -0.000002 -0.000001 0.000000 0.000000 0.863848
    40 4.237633 -0.195358 0.527089 0.000663 0.008835 0.261752
    41 1.215376 0.000002 0.000001 0.000000 0.000000 0.977272
    42 1.215372 -0.000002 0.000000 0.000000 0.000000 0.977275
    43 4.262829 -0.232719 1.392177 -0.016839 -0.076668 0.253758
    44 1.012810 0.000000 0.000000 0.000000 0.000000 0.968558
    45 1.012808 0.000000 0.000000 0.000000 0.000000 0.968558
    46 1.376305 0.000000 0.000000 0.000000 0.000000 0.199055
    47 4.237637 -0.195356 -0.527090 -0.000663 -0.008835 0.261711
    48 1.215376 0.000000 -0.000001 0.000000 0.000000 0.977300
    49 1.215372 0.000000 0.000000 0.000000 0.000000 0.977316
    50 1.012814 0.000000 0.000000 0.000000 0.000000 0.968644
    51 1.012812 -0.000002 -0.000001 0.000000 0.000000 0.968644
    52 2.110538 0.000000 0.000000 0.405877 0.105356 -0.323088
    53 4.598148 4.158443 -1.350299 0.000000 -1.570796 2.984594
    54 4.598141 4.158430 1.240876 0.000000 -1.570796 2.984594
    55 0.891926 2.373051 -0.014527 -3.141592 -0.000001 1.413797
    56 7.228123 5.709446 3.726568 0.000000 -1.570796 3.140796
    57 4.598141 4.158430 -0.054439 0.000000 -1.570796 2.984594
    58 5.253246 3.139475 -1.673515 0.000000 -1.570796 2.984594
    59 5.253262 3.139473 -0.054760 0.000000 -1.570796 2.984594
    60 5.253254 3.139468 1.574632 0.000000 -1.570796 2.984594
    61 -0.000015 0.000007 4.427393 2.970641 0.008951 3.128169
    62 18.301062 0.000000 0.000000 0.000000 0.000000 -0.414350
    63 0.000004 -0.000004 -4.427393 -3.032389 0.037901 2.853221
    64 18.133162 -0.000001 0.000000 0.000000 0.000000 -0.213590
    65 5.334999 -0.004116 -0.000072 0.017439 0.000443 -0.026163
    66 5.172565 -0.004196 0.000110 -0.026163 -0.000436 -0.017439
    67 -2.772717 1.008385 -2.551214 1.160522 1.415280 -2.327811
    68 6.269506 0.000000 0.000000 0.060496 -0.087094 -0.331165
    69 8.573798 0.000000 -0.000004 0.000000 0.000000 -0.200000
end
