// envmaptint_fix
"LightmappedGeneric"
{
	"$basetexture" "Stone/stonefloor006f"
	"$surfaceprop" "concrete"
	"%keywords" "c17downtown,wasteland"
	"$envmap" "env_cubemap"
	"$bumpmap" "stone/stonefloor006c_normal"
	"$envmapsaturation" 1
	"$envmapcontrast" 1
	"$envmaptint" "[ .6 .6 .6 ]"
	"$normalmapalphaenvmapmask" 1
		$phong 1
		$phongboost 2
		$phongexponent 20

	"$detail" "detail\noise_detail_01"
	"$detailscale" "7.345"
	"$detailblendfactor" .8
	"$detailblendmode" 0

	"LightmappedGeneric_DX8"
	{
		"$envmaptint" "[ .5 .5 .5 ]"
	}
}
