"VertexLitGeneric"
{
	"$color2" "[.5 .35 0]"
	"$envmap" "models/v_9mmhandgun/chrome_black"
	"$envmapsphere"			1
	"$envmapmode" 1

	// requred to see specular on dx6+7 at all
	"$multipass" 1
	
	"VertexLitGeneric_HDR_DX9"
	{
		"$envmaptint" "[.2 .2 .2]"
		"$envmapcontrast" .6
	}
}

