// Created by Crowbar 0.58
version 1
nodes
  0 "cbar" -1
  1 "l_wrist" -1
  2 "l_thumb_low" 1
  3 "l_thumb_mid" 2
  4 "l_thumb_tip" 3
  5 "l_index_low" 1
  6 "l_index_mid" 5
  7 "l_index_tip" 6
  8 "l_middle_low" 1
  9 "l_middle_mid" 8
  10 "l_middle_tip" 9
  11 "l_ring_low" 1
  12 "l_ring_mid" 11
  13 "l_ring_tip" 12
  14 "l_pinky_low" 1
  15 "l_pinky_mid" 14
  16 "l_pinky_tip" 15
  17 "l_upperarm" -1
  18 "l_forearm" 17
  19 "r_wrist" -1
  20 "r_thumb_low" 19
  21 "r_thumb_mid" 20
  22 "r_thumb_tip" 21
  23 "r_index_low" 19
  24 "r_index_mid" 23
  25 "r_index_tip" 24
  26 "r_middle_low" 19
  27 "r_middle_mid" 26
  28 "r_middle_tip" 27
  29 "r_ring_low" 19
  30 "r_ring_mid" 29
  31 "r_ring_tip" 30
  32 "r_pinky_low" 19
  33 "r_pinky_mid" 32
  34 "r_pinky_tip" 33
  35 "r_upperarm" -1
  36 "r_forearm" 35
  37 "ValveBiped.Bip01_L_UpperArm" 17
  38 "ValveBiped.Bip01_L_Forearm" 18
  39 "ValveBiped.Bip01_L_Hand" 1
  40 "ValveBiped.Bip01_L_Finger0" 2
  41 "ValveBiped.Bip01_L_Finger01" 3
  42 "ValveBiped.Bip01_L_Finger02" 4
  43 "ValveBiped.Bip01_L_Finger1" 5
  44 "ValveBiped.Bip01_L_Finger11" 6
  45 "ValveBiped.Bip01_L_Finger12" 7
  46 "ValveBiped.Bip01_L_Finger2" 8
  47 "ValveBiped.Bip01_L_Finger21" 9
  48 "ValveBiped.Bip01_L_Finger22" 10
  49 "ValveBiped.Bip01_L_Finger3" 11
  50 "ValveBiped.Bip01_L_Finger31" 12
  51 "ValveBiped.Bip01_L_Finger32" 13
  52 "ValveBiped.Bip01_L_Finger4" 14
  53 "ValveBiped.Bip01_L_Finger41" 15
  54 "ValveBiped.Bip01_L_Finger42" 16
  55 "ValveBiped.Bip01_R_UpperArm" 35
  56 "ValveBiped.Bip01_R_Forearm" 36
  57 "ValveBiped.Bip01_R_Hand" 19
  58 "ValveBiped.Bip01_R_Finger0" 20
  59 "ValveBiped.Bip01_R_Finger01" 21
  60 "ValveBiped.Bip01_R_Finger02" 22
  61 "ValveBiped.Bip01_R_Finger1" 23
  62 "ValveBiped.Bip01_R_Finger11" 24
  63 "ValveBiped.Bip01_R_Finger12" 25
  64 "ValveBiped.Bip01_R_Finger2" 26
  65 "ValveBiped.Bip01_R_Finger21" 27
  66 "ValveBiped.Bip01_R_Finger22" 28
  67 "ValveBiped.Bip01_R_Finger3" 29
  68 "ValveBiped.Bip01_R_Finger31" 30
  69 "ValveBiped.Bip01_R_Finger32" 31
  70 "ValveBiped.Bip01_R_Finger4" 32
  71 "ValveBiped.Bip01_R_Finger41" 33
  72 "ValveBiped.Bip01_R_Finger42" 34
end
skeleton
  time 0
    0 -9.581213 -25.635153 -5.855780 0.553890 -1.188907 2.550005
    1 4.785156 -17.703125 -23.156250 -2.282634 0.765599 -1.730061
    2 1.473661 0.639422 -1.295233 2.123499 0.734169 0.670777
    3 1.832608 0.000002 0.000000 3.110045 0.047490 0.758065
    4 1.003329 0.000000 0.000001 -3.040060 -0.014406 -0.167805
    5 3.823887 -0.419591 -1.411516 0.374201 0.211205 0.435260
    6 2.187963 0.000000 0.000000 -0.025371 -0.118763 0.373851
    7 1.100956 -0.000002 0.000000 0.056981 -0.085090 0.256395
    8 3.987879 -0.577437 -0.474708 0.218109 0.079349 0.376932
    9 1.890101 -0.000003 0.000000 0.070153 -0.155442 0.431101
    10 1.310922 0.000002 0.000000 0.022870 0.076654 0.411714
    11 4.117971 -0.654518 0.453699 0.105788 -0.175952 0.516342
    12 1.655286 0.000000 0.000000 -0.108110 0.088915 0.447091
    13 0.869586 0.000008 0.000000 0.057673 -0.031831 0.217996
    14 4.150646 -0.581580 1.354867 -0.297435 -0.233578 0.643110
    15 1.157243 -0.000002 0.000000 0.034842 0.039183 0.490097
    16 1.019837 -0.000002 0.000000 -1.467663 -0.051050 0.396031
    17 5.000000 -3.345703 -4.820313 -0.701592 1.191411 -0.927544
    18 12.695426 0.000001 0.000002 -0.018018 0.219877 -0.818453
    19 -7.957372 -23.854124 -12.786605 3.508828 -0.284590 -1.670279
    20 1.474217 -0.497913 -1.376119 0.945680 0.413346 -0.662993
    21 1.832175 -0.000001 0.000001 -2.551366 -0.431934 0.492508
    22 1.042031 0.000000 -0.000002 -2.702781 -0.329304 -0.389604
    23 3.828125 0.623047 -1.324219 -0.024298 -0.114327 -1.089400
    24 2.152370 0.000002 0.000000 -0.047431 0.103996 -1.361217
    25 1.056621 -0.000002 0.000000 0.190904 0.078321 -1.088534
    26 3.990234 0.902344 -0.376953 0.126657 -0.044022 -1.088904
    27 1.830173 0.000000 0.000000 0.107756 0.011545 -1.328421
    28 1.561353 0.000002 0.000000 0.108642 -0.073203 -1.348440
    29 4.116521 0.723009 0.551868 0.102895 0.105902 -1.592375
    30 1.752731 0.000000 0.000000 -0.035048 -0.041300 -0.636687
    31 0.869359 -0.000002 0.000000 -0.048956 0.259083 -1.365561
    32 4.118825 0.331242 1.419828 0.145379 0.226208 -1.714317
    33 1.176323 0.000000 0.000000 0.228831 -0.081528 -0.450932
    34 0.970203 -0.000002 0.000000 1.664450 0.071976 -1.259838
    35 -10.008454 -2.936290 -9.065956 -2.289342 0.724060 -1.703951
    36 12.706341 0.000001 0.000000 -0.096406 0.273112 -1.147042
    37 0.000000 0.000000 0.000001 0.000000 0.000000 0.000000
    38 1.200000 0.000000 0.000000 0.000000 0.000000 0.000000
    39 0.000001 -0.300000 0.000000 -3.141593 0.000000 -0.174533
    40 0.000000 0.000000 0.000000 0.000000 0.000000 0.000000
    41 -0.000001 0.000000 0.000000 -3.141593 0.000000 0.000000
    42 0.000001 0.000000 0.000001 0.000000 0.000000 0.349066
    43 0.000000 0.000000 0.000000 -3.141593 0.000000 0.000000
    44 0.000000 -0.000001 0.000000 -3.141593 0.000000 0.000000
    45 0.000001 0.000000 0.000000 -3.141593 0.000000 0.000000
    46 0.000000 -0.000001 0.000000 -3.141593 0.000000 0.000000
    47 0.000000 0.000002 0.000000 -3.141593 0.000000 0.000000
    48 0.000000 0.000000 0.000000 -3.141593 0.000000 0.000000
    49 0.000001 0.000000 0.000000 -3.141593 0.000000 0.000000
    50 0.000000 0.000002 0.000000 -3.141593 0.000000 0.000000
    51 0.000000 -0.000002 0.000000 -3.141593 0.000000 0.000000
    52 0.000001 0.000000 0.000000 -3.141593 0.000000 0.000000
    53 0.000000 0.000000 0.000000 -3.141593 0.000000 0.000000
    54 0.000000 0.000000 0.000000 -1.570796 0.000000 0.000000
    55 0.000000 0.000000 0.000000 0.000000 0.000000 0.000000
    56 1.200001 0.000000 0.000000 0.000000 0.000000 0.000000
    57 0.000000 0.300000 0.000000 0.000000 0.000000 0.174533
    58 0.000000 0.000000 -0.000001 0.000000 0.000000 0.000000
    59 0.000001 0.000000 0.000000 -3.141593 0.000000 0.000000
    60 0.000000 0.000000 0.000000 0.000000 0.000000 0.349066
    61 0.000000 0.000000 0.000000 0.000000 0.000000 0.000000
    62 -0.000001 0.000000 0.000000 0.000000 0.000000 0.000000
    63 0.000001 0.000000 0.000000 0.000000 0.000000 0.000000
    64 0.000000 0.000000 0.000000 0.000000 0.000000 0.000000
    65 0.000000 0.000000 0.000000 0.000000 0.000000 0.000000
    66 0.000000 0.000000 0.000000 0.000000 0.000000 0.000000
    67 0.000000 -0.000002 0.000000 0.000000 0.000000 0.000000
    68 0.000000 0.000000 0.000000 0.000000 0.000000 0.000000
    69 0.000000 0.000000 0.000000 0.000000 0.000000 0.000000
    70 0.000000 0.000000 0.000000 0.000000 0.000000 0.000000
    71 0.000000 -0.000002 0.000000 0.000000 0.000000 0.000000
    72 0.000000 0.000000 0.000000 -1.570796 0.000000 0.000000
  time 1
    0 -0.077017 -30.193886 -6.535488 -0.573519 -0.773218 4.298263
    1 4.785156 -17.703125 -23.156250 -2.282634 0.765599 -1.730061
    2 1.473661 0.639422 -1.295233 2.123499 0.734169 0.670777
    3 1.832608 0.000002 0.000000 3.110045 0.047490 0.758065
    4 1.003329 0.000000 0.000001 -3.040060 -0.014406 -0.167805
    5 3.823887 -0.419591 -1.411516 0.374201 0.211205 0.435260
    6 2.187963 0.000000 0.000000 -0.025371 -0.118763 0.373851
    7 1.100956 -0.000002 0.000000 0.056981 -0.085090 0.256395
    8 3.987879 -0.577437 -0.474708 0.218109 0.079349 0.376932
    9 1.890101 -0.000003 0.000000 0.070153 -0.155442 0.431101
    10 1.310922 0.000002 0.000000 0.022870 0.076654 0.411714
    11 4.117971 -0.654518 0.453699 0.105788 -0.175952 0.516342
    12 1.655286 0.000000 0.000000 -0.108110 0.088915 0.447091
    13 0.869586 0.000008 0.000000 0.057673 -0.031831 0.217996
    14 4.150646 -0.581580 1.354867 -0.297435 -0.233578 0.643110
    15 1.157243 -0.000002 0.000000 0.034842 0.039183 0.490097
    16 1.019837 -0.000002 0.000000 -1.467663 -0.051050 0.396031
    17 5.000000 -3.345703 -4.820313 -0.701592 1.191411 -0.927544
    18 12.695426 0.000001 0.000002 -0.018018 0.219877 -0.818453
    19 -0.648555 -23.901001 -10.259184 3.861955 0.327567 -0.899813
    20 1.474217 -0.497913 -1.376119 0.945680 0.413346 -0.662993
    21 1.832175 -0.000001 0.000001 -2.551366 -0.431934 0.492508
    22 1.042031 0.000000 -0.000002 -2.702781 -0.329304 -0.389604
    23 3.828125 0.623047 -1.324219 -0.024298 -0.114327 -1.089400
    24 2.152370 0.000002 0.000000 -0.047431 0.103996 -1.361217
    25 1.056621 -0.000002 0.000000 0.190904 0.078321 -1.088534
    26 3.990234 0.902344 -0.376953 0.126657 -0.044022 -1.088904
    27 1.830173 0.000000 0.000000 0.107756 0.011545 -1.328421
    28 1.561353 0.000002 0.000000 0.108642 -0.073203 -1.348440
    29 4.116521 0.726916 0.551868 0.102895 0.105902 -1.592346
    30 1.752731 0.000000 0.000000 -0.035048 -0.041300 -0.636687
    31 0.869359 -0.000002 0.000000 -0.048956 0.259095 -1.365561
    32 4.118825 0.331242 1.419828 0.145379 0.226208 -1.714317
    33 1.176323 0.000000 0.000000 0.228831 -0.081528 -0.450932
    34 0.970203 -0.000002 0.000000 1.664450 0.071976 -1.259838
    35 -10.008454 -2.936290 -9.065956 -2.454477 0.440071 -1.396002
    36 12.706341 0.000001 0.000000 -0.029424 0.232736 -0.880819
    37 0.000000 0.000000 0.000001 0.000000 0.000000 0.000000
    38 1.200000 0.000000 0.000000 0.000000 0.000000 0.000000
    39 0.000001 -0.300000 0.000000 -3.141593 0.000000 -0.174533
    40 0.000000 0.000000 0.000000 0.000000 0.000000 0.000000
    41 -0.000001 0.000000 0.000000 -3.141593 0.000000 0.000000
    42 0.000001 0.000000 0.000001 0.000000 0.000000 0.349066
    43 0.000000 0.000000 0.000000 -3.141593 0.000000 0.000000
    44 0.000000 -0.000001 0.000000 -3.141593 0.000000 0.000000
    45 0.000001 0.000000 0.000000 -3.141593 0.000000 0.000000
    46 0.000000 -0.000001 0.000000 -3.141593 0.000000 0.000000
    47 0.000000 0.000002 0.000000 -3.141593 0.000000 0.000000
    48 0.000000 0.000000 0.000000 -3.141593 0.000000 0.000000
    49 0.000001 0.000000 0.000000 -3.141593 0.000000 0.000000
    50 0.000000 0.000002 0.000000 -3.141593 0.000000 0.000000
    51 0.000000 -0.000002 0.000000 -3.141593 0.000000 0.000000
    52 0.000001 0.000000 0.000000 -3.141593 0.000000 0.000000
    53 0.000000 0.000000 0.000000 -3.141593 0.000000 0.000000
    54 0.000000 0.000000 0.000000 -1.570796 0.000000 0.000000
    55 0.000000 0.000000 0.000000 0.000000 0.000000 0.000000
    56 1.200001 0.000000 0.000000 0.000000 0.000000 0.000000
    57 0.000000 0.300000 0.000000 0.000000 0.000000 0.174533
    58 0.000000 0.000000 -0.000001 0.000000 0.000000 0.000000
    59 0.000001 0.000000 0.000000 -3.141593 0.000000 0.000000
    60 0.000000 0.000000 0.000000 0.000000 0.000000 0.349066
    61 0.000000 0.000000 0.000000 0.000000 0.000000 0.000000
    62 -0.000001 0.000000 0.000000 0.000000 0.000000 0.000000
    63 0.000001 0.000000 0.000000 0.000000 0.000000 0.000000
    64 0.000000 0.000000 0.000000 0.000000 0.000000 0.000000
    65 0.000000 0.000000 0.000000 0.000000 0.000000 0.000000
    66 0.000000 0.000000 0.000000 0.000000 0.000000 0.000000
    67 0.000000 -0.000002 0.000000 0.000000 0.000000 0.000000
    68 0.000000 0.000000 0.000000 0.000000 0.000000 0.000000
    69 0.000000 0.000000 0.000000 0.000000 0.000000 0.000000
    70 0.000000 0.000000 0.000000 0.000000 0.000000 0.000000
    71 0.000000 -0.000002 0.000000 0.000000 0.000000 0.000000
    72 0.000000 0.000000 0.000000 -1.570796 0.000000 0.000000
  time 2
    0 -1.174706 -30.115758 -6.512050 -0.410889 -0.869308 4.061462
    1 4.785156 -17.703125 -23.156250 -2.282634 0.765599 -1.730061
    2 1.473661 0.639422 -1.295233 2.123499 0.734169 0.670777
    3 1.832608 0.000002 0.000000 3.110045 0.047490 0.758065
    4 1.003329 0.000000 0.000001 -3.040060 -0.014406 -0.167805
    5 3.823887 -0.419591 -1.411516 0.374201 0.211205 0.435260
    6 2.187963 0.000000 0.000000 -0.025371 -0.118763 0.373851
    7 1.100956 -0.000002 0.000000 0.056981 -0.085090 0.256395
    8 3.987879 -0.577437 -0.474708 0.218109 0.079349 0.376932
    9 1.890101 -0.000003 0.000000 0.070153 -0.155442 0.431101
    10 1.310922 0.000002 0.000000 0.022870 0.076654 0.411714
    11 4.117971 -0.654518 0.453699 0.105788 -0.175952 0.516342
    12 1.655286 0.000000 0.000000 -0.108110 0.088915 0.447091
    13 0.869586 0.000008 0.000000 0.057673 -0.031831 0.217996
    14 4.150646 -0.581580 1.354867 -0.297435 -0.233578 0.643110
    15 1.157243 -0.000002 0.000000 0.034842 0.039183 0.490097
    16 1.019837 -0.000002 0.000000 -1.467663 -0.051050 0.396031
    17 5.000000 -3.345703 -4.820313 -0.701592 1.191411 -0.927544
    18 12.695426 0.000001 0.000002 -0.018018 0.219877 -0.818453
    19 -0.851686 -24.385390 -11.083428 3.819820 0.186734 -1.027966
    20 1.474217 -0.497913 -1.376119 0.945680 0.413346 -0.662993
    21 1.832175 -0.000001 0.000001 -2.551366 -0.431934 0.492508
    22 1.042031 0.000000 -0.000002 -2.702781 -0.329304 -0.389604
    23 3.828125 0.623047 -1.324219 -0.024298 -0.114327 -1.089400
    24 2.152370 0.000002 0.000000 -0.047431 0.103996 -1.361217
    25 1.056621 -0.000002 0.000000 0.190904 0.078321 -1.088534
    26 3.990234 0.902344 -0.376953 0.126657 -0.044022 -1.088904
    27 1.830173 0.000000 0.000000 0.107756 0.011545 -1.328421
    28 1.561353 0.000002 0.000000 0.108642 -0.073203 -1.348440
    29 4.116521 0.726916 0.551868 0.102895 0.105902 -1.592405
    30 1.752731 0.000000 0.000000 -0.035048 -0.041300 -0.636687
    31 0.869359 -0.000002 0.000000 -0.048956 0.259083 -1.365561
    32 4.118825 0.331242 1.419828 0.145379 0.226208 -1.714317
    33 1.176323 0.000000 0.000000 0.228831 -0.081528 -0.450932
    34 0.970203 -0.000002 0.000000 1.664450 0.071976 -1.259838
    35 -10.008454 -2.936290 -9.065956 -2.471774 0.436455 -1.398496
    36 12.706341 0.000001 0.000000 -0.011735 0.217324 -0.801692
    37 0.000000 0.000000 0.000001 0.000000 0.000000 0.000000
    38 1.200000 0.000000 0.000000 0.000000 0.000000 0.000000
    39 0.000001 -0.300000 0.000000 -3.141593 0.000000 -0.174533
    40 0.000000 0.000000 0.000000 0.000000 0.000000 0.000000
    41 -0.000001 0.000000 0.000000 -3.141593 0.000000 0.000000
    42 0.000001 0.000000 0.000001 0.000000 0.000000 0.349066
    43 0.000000 0.000000 0.000000 -3.141593 0.000000 0.000000
    44 0.000000 -0.000001 0.000000 -3.141593 0.000000 0.000000
    45 0.000001 0.000000 0.000000 -3.141593 0.000000 0.000000
    46 0.000000 -0.000001 0.000000 -3.141593 0.000000 0.000000
    47 0.000000 0.000002 0.000000 -3.141593 0.000000 0.000000
    48 0.000000 0.000000 0.000000 -3.141593 0.000000 0.000000
    49 0.000001 0.000000 0.000000 -3.141593 0.000000 0.000000
    50 0.000000 0.000002 0.000000 -3.141593 0.000000 0.000000
    51 0.000000 -0.000002 0.000000 -3.141593 0.000000 0.000000
    52 0.000001 0.000000 0.000000 -3.141593 0.000000 0.000000
    53 0.000000 0.000000 0.000000 -3.141593 0.000000 0.000000
    54 0.000000 0.000000 0.000000 -1.570796 0.000000 0.000000
    55 0.000000 0.000000 0.000000 0.000000 0.000000 0.000000
    56 1.200001 0.000000 0.000000 0.000000 0.000000 0.000000
    57 0.000000 0.300000 0.000000 0.000000 0.000000 0.174533
    58 0.000000 0.000000 -0.000001 0.000000 0.000000 0.000000
    59 0.000001 0.000000 0.000000 -3.141593 0.000000 0.000000
    60 0.000000 0.000000 0.000000 0.000000 0.000000 0.349066
    61 0.000000 0.000000 0.000000 0.000000 0.000000 0.000000
    62 -0.000001 0.000000 0.000000 0.000000 0.000000 0.000000
    63 0.000001 0.000000 0.000000 0.000000 0.000000 0.000000
    64 0.000000 0.000000 0.000000 0.000000 0.000000 0.000000
    65 0.000000 0.000000 0.000000 0.000000 0.000000 0.000000
    66 0.000000 0.000000 0.000000 0.000000 0.000000 0.000000
    67 0.000000 -0.000002 0.000000 0.000000 0.000000 0.000000
    68 0.000000 0.000000 0.000000 0.000000 0.000000 0.000000
    69 0.000000 0.000000 0.000000 0.000000 0.000000 0.000000
    70 0.000000 0.000000 0.000000 0.000000 0.000000 0.000000
    71 0.000000 -0.000002 0.000000 0.000000 0.000000 0.000000
    72 0.000000 0.000000 0.000000 -1.570796 0.000000 0.000000
  time 3
    0 -2.237239 -29.779811 -6.433923 -0.495760 -0.885338 4.119537
    1 4.785156 -17.703125 -23.156250 -2.282634 0.765599 -1.730061
    2 1.473661 0.639422 -1.295233 2.123499 0.734169 0.670777
    3 1.832608 0.000002 0.000000 3.110045 0.047490 0.758065
    4 1.003329 0.000000 0.000001 -3.040060 -0.014406 -0.167805
    5 3.823887 -0.419591 -1.411516 0.374201 0.211205 0.435260
    6 2.187963 0.000000 0.000000 -0.025371 -0.118763 0.373851
    7 1.100956 -0.000002 0.000000 0.056981 -0.085090 0.256395
    8 3.987879 -0.577437 -0.474708 0.218109 0.079349 0.376932
    9 1.890101 -0.000003 0.000000 0.070153 -0.155442 0.431101
    10 1.310922 0.000002 0.000000 0.022870 0.076654 0.411714
    11 4.117971 -0.654518 0.453699 0.105788 -0.175952 0.516342
    12 1.655286 0.000000 0.000000 -0.108110 0.088915 0.447091
    13 0.869586 0.000008 0.000000 0.057673 -0.031831 0.217996
    14 4.150646 -0.581580 1.354867 -0.297435 -0.233578 0.643110
    15 1.157243 -0.000002 0.000000 0.034842 0.039183 0.490097
    16 1.019837 -0.000002 0.000000 -1.467663 -0.051050 0.396031
    17 5.000000 -3.345703 -4.820313 -0.701592 1.191411 -0.927544
    18 12.695426 0.000001 0.000002 -0.018018 0.219877 -0.818453
    19 -2.113444 -23.967409 -10.911548 3.782484 0.230036 -1.042835
    20 1.474217 -0.497913 -1.376119 0.945680 0.413346 -0.662993
    21 1.832175 -0.000001 0.000001 -2.551366 -0.431934 0.492508
    22 1.042031 0.000000 -0.000002 -2.702781 -0.329304 -0.389604
    23 3.828125 0.623047 -1.324219 -0.024298 -0.114327 -1.089400
    24 2.152370 0.000002 0.000000 -0.047431 0.103996 -1.361217
    25 1.056621 -0.000002 0.000000 0.190904 0.078321 -1.088534
    26 3.990234 0.902344 -0.376953 0.126657 -0.044022 -1.088904
    27 1.830173 0.000000 0.000000 0.107756 0.011545 -1.328421
    28 1.561353 0.000002 0.000000 0.108642 -0.073203 -1.348440
    29 4.116521 0.723009 0.551868 0.102895 0.105902 -1.592405
    30 1.752731 0.000000 0.000000 -0.035048 -0.041300 -0.636687
    31 0.869359 -0.000002 0.000000 -0.048968 0.259083 -1.365561
    32 4.118825 0.331242 1.419828 0.145379 0.226208 -1.714317
    33 1.176323 0.000000 0.000000 0.228831 -0.081528 -0.450932
    34 0.970203 -0.000002 0.000000 1.664450 0.071976 -1.259838
    35 -10.008454 -2.936290 -9.065956 -2.452843 0.506205 -1.476388
    36 12.706341 0.000001 0.000000 -0.048013 0.246458 -0.959086
    37 0.000000 0.000000 0.000001 0.000000 0.000000 0.000000
    38 1.200000 0.000000 0.000000 0.000000 0.000000 0.000000
    39 0.000001 -0.300000 0.000000 -3.141593 0.000000 -0.174533
    40 0.000000 0.000000 0.000000 0.000000 0.000000 0.000000
    41 -0.000001 0.000000 0.000000 -3.141593 0.000000 0.000000
    42 0.000001 0.000000 0.000001 0.000000 0.000000 0.349066
    43 0.000000 0.000000 0.000000 -3.141593 0.000000 0.000000
    44 0.000000 -0.000001 0.000000 -3.141593 0.000000 0.000000
    45 0.000001 0.000000 0.000000 -3.141593 0.000000 0.000000
    46 0.000000 -0.000001 0.000000 -3.141593 0.000000 0.000000
    47 0.000000 0.000002 0.000000 -3.141593 0.000000 0.000000
    48 0.000000 0.000000 0.000000 -3.141593 0.000000 0.000000
    49 0.000001 0.000000 0.000000 -3.141593 0.000000 0.000000
    50 0.000000 0.000002 0.000000 -3.141593 0.000000 0.000000
    51 0.000000 -0.000002 0.000000 -3.141593 0.000000 0.000000
    52 0.000001 0.000000 0.000000 -3.141593 0.000000 0.000000
    53 0.000000 0.000000 0.000000 -3.141593 0.000000 0.000000
    54 0.000000 0.000000 0.000000 -1.570796 0.000000 0.000000
    55 0.000000 0.000000 0.000000 0.000000 0.000000 0.000000
    56 1.200001 0.000000 0.000000 0.000000 0.000000 0.000000
    57 0.000000 0.300000 0.000000 0.000000 0.000000 0.174533
    58 0.000000 0.000000 -0.000001 0.000000 0.000000 0.000000
    59 0.000001 0.000000 0.000000 -3.141593 0.000000 0.000000
    60 0.000000 0.000000 0.000000 0.000000 0.000000 0.349066
    61 0.000000 0.000000 0.000000 0.000000 0.000000 0.000000
    62 -0.000001 0.000000 0.000000 0.000000 0.000000 0.000000
    63 0.000001 0.000000 0.000000 0.000000 0.000000 0.000000
    64 0.000000 0.000000 0.000000 0.000000 0.000000 0.000000
    65 0.000000 0.000000 0.000000 0.000000 0.000000 0.000000
    66 0.000000 0.000000 0.000000 0.000000 0.000000 0.000000
    67 0.000000 -0.000002 0.000000 0.000000 0.000000 0.000000
    68 0.000000 0.000000 0.000000 0.000000 0.000000 0.000000
    69 0.000000 0.000000 0.000000 0.000000 0.000000 0.000000
    70 0.000000 0.000000 0.000000 0.000000 0.000000 0.000000
    71 0.000000 -0.000002 0.000000 0.000000 0.000000 0.000000
    72 0.000000 0.000000 0.000000 -1.570796 0.000000 0.000000
  time 4
    0 -3.252895 -29.314953 -6.320638 -0.633830 -0.923857 4.226101
    1 4.785156 -17.703125 -23.156250 -2.282634 0.765599 -1.730061
    2 1.473661 0.639422 -1.295233 2.123499 0.734169 0.670777
    3 1.832608 0.000002 0.000000 3.110045 0.047490 0.758065
    4 1.003329 0.000000 0.000001 -3.040060 -0.014406 -0.167805
    5 3.823887 -0.419591 -1.411516 0.374201 0.211205 0.435260
    6 2.187963 0.000000 0.000000 -0.025371 -0.118763 0.373851
    7 1.100956 -0.000002 0.000000 0.056981 -0.085090 0.256395
    8 3.987879 -0.577437 -0.474708 0.218109 0.079349 0.376932
    9 1.890101 -0.000003 0.000000 0.070153 -0.155442 0.431101
    10 1.310922 0.000002 0.000000 0.022870 0.076654 0.411714
    11 4.117971 -0.654518 0.453699 0.105788 -0.175952 0.516342
    12 1.655286 0.000000 0.000000 -0.108110 0.088915 0.447091
    13 0.869586 0.000008 0.000000 0.057673 -0.031831 0.217996
    14 4.150646 -0.581580 1.354867 -0.297435 -0.233578 0.643110
    15 1.157243 -0.000002 0.000000 0.034842 0.039183 0.490097
    16 1.019837 -0.000002 0.000000 -1.467663 -0.051050 0.396031
    17 5.000000 -3.345703 -4.820313 -0.701592 1.191411 -0.927544
    18 12.695426 0.000001 0.000002 -0.018018 0.219877 -0.818453
    19 -3.535362 -23.455675 -10.724042 3.704462 0.285337 -1.064753
    20 1.474217 -0.497913 -1.376119 0.945680 0.413346 -0.662993
    21 1.832175 -0.000001 0.000001 -2.551366 -0.431934 0.492508
    22 1.042031 0.000000 -0.000002 -2.702781 -0.329304 -0.389604
    23 3.828125 0.623047 -1.324219 -0.024298 -0.114327 -1.089400
    24 2.152370 0.000002 0.000000 -0.047431 0.103996 -1.361217
    25 1.056621 -0.000002 0.000000 0.190904 0.078321 -1.088534
    26 3.990234 0.902344 -0.376953 0.126657 -0.044022 -1.088904
    27 1.830173 0.000000 0.000000 0.107756 0.011545 -1.328421
    28 1.561353 0.000002 0.000000 0.108642 -0.073203 -1.348440
    29 4.116521 0.723009 0.551868 0.102895 0.105902 -1.592375
    30 1.752731 0.000000 0.000000 -0.035048 -0.041300 -0.636687
    31 0.869359 -0.000002 0.000000 -0.048956 0.259083 -1.365561
    32 4.118825 0.331242 1.419828 0.145379 0.226208 -1.714317
    33 1.176323 0.000000 0.000000 0.228831 -0.081528 -0.450932
    34 0.970203 -0.000002 0.000000 1.664450 0.071976 -1.259838
    35 -10.008454 -2.936290 -9.065956 -2.420292 0.578377 -1.551728
    36 12.706341 0.000001 0.000000 -0.087010 0.268846 -1.111836
    37 0.000000 0.000000 0.000001 0.000000 0.000000 0.000000
    38 1.200000 0.000000 0.000000 0.000000 0.000000 0.000000
    39 0.000001 -0.300000 0.000000 -3.141593 0.000000 -0.174533
    40 0.000000 0.000000 0.000000 0.000000 0.000000 0.000000
    41 -0.000001 0.000000 0.000000 -3.141593 0.000000 0.000000
    42 0.000001 0.000000 0.000001 0.000000 0.000000 0.349066
    43 0.000000 0.000000 0.000000 -3.141593 0.000000 0.000000
    44 0.000000 -0.000001 0.000000 -3.141593 0.000000 0.000000
    45 0.000001 0.000000 0.000000 -3.141593 0.000000 0.000000
    46 0.000000 -0.000001 0.000000 -3.141593 0.000000 0.000000
    47 0.000000 0.000002 0.000000 -3.141593 0.000000 0.000000
    48 0.000000 0.000000 0.000000 -3.141593 0.000000 0.000000
    49 0.000001 0.000000 0.000000 -3.141593 0.000000 0.000000
    50 0.000000 0.000002 0.000000 -3.141593 0.000000 0.000000
    51 0.000000 -0.000002 0.000000 -3.141593 0.000000 0.000000
    52 0.000001 0.000000 0.000000 -3.141593 0.000000 0.000000
    53 0.000000 0.000000 0.000000 -3.141593 0.000000 0.000000
    54 0.000000 0.000000 0.000000 -1.570796 0.000000 0.000000
    55 0.000000 0.000000 0.000000 0.000000 0.000000 0.000000
    56 1.200001 0.000000 0.000000 0.000000 0.000000 0.000000
    57 0.000000 0.300000 0.000000 0.000000 0.000000 0.174533
    58 0.000000 0.000000 -0.000001 0.000000 0.000000 0.000000
    59 0.000001 0.000000 0.000000 -3.141593 0.000000 0.000000
    60 0.000000 0.000000 0.000000 0.000000 0.000000 0.349066
    61 0.000000 0.000000 0.000000 0.000000 0.000000 0.000000
    62 -0.000001 0.000000 0.000000 0.000000 0.000000 0.000000
    63 0.000001 0.000000 0.000000 0.000000 0.000000 0.000000
    64 0.000000 0.000000 0.000000 0.000000 0.000000 0.000000
    65 0.000000 0.000000 0.000000 0.000000 0.000000 0.000000
    66 0.000000 0.000000 0.000000 0.000000 0.000000 0.000000
    67 0.000000 -0.000002 0.000000 0.000000 0.000000 0.000000
    68 0.000000 0.000000 0.000000 0.000000 0.000000 0.000000
    69 0.000000 0.000000 0.000000 0.000000 0.000000 0.000000
    70 0.000000 0.000000 0.000000 0.000000 0.000000 0.000000
    71 0.000000 -0.000002 0.000000 0.000000 0.000000 0.000000
    72 0.000000 0.000000 0.000000 -1.570796 0.000000 0.000000
  time 5
    0 -4.276364 -28.857908 -6.207353 -0.724960 -1.005245 4.245268
    1 4.785156 -17.703125 -23.156250 -2.282634 0.765599 -1.730061
    2 1.473661 0.639422 -1.295233 2.123499 0.734169 0.670777
    3 1.832608 0.000002 0.000000 3.110045 0.047490 0.758065
    4 1.003329 0.000000 0.000001 -3.040060 -0.014406 -0.167805
    5 3.823887 -0.419591 -1.411516 0.374201 0.211205 0.435260
    6 2.187963 0.000000 0.000000 -0.025371 -0.118763 0.373851
    7 1.100956 -0.000002 0.000000 0.056981 -0.085090 0.256395
    8 3.987879 -0.577437 -0.474708 0.218109 0.079349 0.376932
    9 1.890101 -0.000003 0.000000 0.070153 -0.155442 0.431101
    10 1.310922 0.000002 0.000000 0.022870 0.076654 0.411714
    11 4.117971 -0.654518 0.453699 0.105788 -0.175952 0.516342
    12 1.655286 0.000000 0.000000 -0.108110 0.088915 0.447091
    13 0.869586 0.000008 0.000000 0.057673 -0.031831 0.217996
    14 4.150646 -0.581580 1.354867 -0.297435 -0.233578 0.643110
    15 1.157243 -0.000002 0.000000 0.034842 0.039183 0.490097
    16 1.019837 -0.000002 0.000000 -1.467663 -0.051050 0.396031
    17 5.000000 -3.345703 -4.820313 -0.701592 1.191411 -0.927544
    18 12.695426 0.000001 0.000002 -0.018018 0.219877 -0.818453
    19 -4.613520 -23.201761 -10.872484 3.604052 0.279497 -1.148555
    20 1.474217 -0.497913 -1.376119 0.945680 0.413346 -0.662993
    21 1.832175 -0.000001 0.000001 -2.551366 -0.431934 0.492508
    22 1.042031 0.000000 -0.000002 -2.702781 -0.329304 -0.389604
    23 3.828125 0.623047 -1.324219 -0.024298 -0.114327 -1.089400
    24 2.152370 0.000002 0.000000 -0.047431 0.103996 -1.361217
    25 1.056621 -0.000002 0.000000 0.190904 0.078321 -1.088534
    26 3.990234 0.902344 -0.376953 0.126657 -0.044022 -1.088904
    27 1.830173 0.000000 0.000000 0.107756 0.011545 -1.328421
    28 1.561353 0.000002 0.000000 0.108642 -0.073203 -1.348440
    29 4.116521 0.723009 0.551868 0.102895 0.105902 -1.592375
    30 1.752731 0.000000 0.000000 -0.035048 -0.041300 -0.636687
    31 0.869359 -0.000002 0.000000 -0.048968 0.259083 -1.365561
    32 4.118825 0.331242 1.419828 0.145379 0.226208 -1.714317
    33 1.176323 0.000000 0.000000 0.228831 -0.081528 -0.450932
    34 0.970203 -0.000002 0.000000 1.664450 0.071976 -1.259838
    35 -10.008454 -2.936290 -9.065956 -2.396118 0.629397 -1.602370
    36 12.706341 0.000001 0.000000 -0.108019 0.277882 -1.189702
    37 0.000000 0.000000 0.000001 0.000000 0.000000 0.000000
    38 1.200000 0.000000 0.000000 0.000000 0.000000 0.000000
    39 0.000001 -0.300000 0.000000 -3.141593 0.000000 -0.174533
    40 0.000000 0.000000 0.000000 0.000000 0.000000 0.000000
    41 -0.000001 0.000000 0.000000 -3.141593 0.000000 0.000000
    42 0.000001 0.000000 0.000001 0.000000 0.000000 0.349066
    43 0.000000 0.000000 0.000000 -3.141593 0.000000 0.000000
    44 0.000000 -0.000001 0.000000 -3.141593 0.000000 0.000000
    45 0.000001 0.000000 0.000000 -3.141593 0.000000 0.000000
    46 0.000000 -0.000001 0.000000 -3.141593 0.000000 0.000000
    47 0.000000 0.000002 0.000000 -3.141593 0.000000 0.000000
    48 0.000000 0.000000 0.000000 -3.141593 0.000000 0.000000
    49 0.000001 0.000000 0.000000 -3.141593 0.000000 0.000000
    50 0.000000 0.000002 0.000000 -3.141593 0.000000 0.000000
    51 0.000000 -0.000002 0.000000 -3.141593 0.000000 0.000000
    52 0.000001 0.000000 0.000000 -3.141593 0.000000 0.000000
    53 0.000000 0.000000 0.000000 -3.141593 0.000000 0.000000
    54 0.000000 0.000000 0.000000 -1.570796 0.000000 0.000000
    55 0.000000 0.000000 0.000000 0.000000 0.000000 0.000000
    56 1.200001 0.000000 0.000000 0.000000 0.000000 0.000000
    57 0.000000 0.300000 0.000000 0.000000 0.000000 0.174533
    58 0.000000 0.000000 -0.000001 0.000000 0.000000 0.000000
    59 0.000001 0.000000 0.000000 -3.141593 0.000000 0.000000
    60 0.000000 0.000000 0.000000 0.000000 0.000000 0.349066
    61 0.000000 0.000000 0.000000 0.000000 0.000000 0.000000
    62 -0.000001 0.000000 0.000000 0.000000 0.000000 0.000000
    63 0.000001 0.000000 0.000000 0.000000 0.000000 0.000000
    64 0.000000 0.000000 0.000000 0.000000 0.000000 0.000000
    65 0.000000 0.000000 0.000000 0.000000 0.000000 0.000000
    66 0.000000 0.000000 0.000000 0.000000 0.000000 0.000000
    67 0.000000 -0.000002 0.000000 0.000000 0.000000 0.000000
    68 0.000000 0.000000 0.000000 0.000000 0.000000 0.000000
    69 0.000000 0.000000 0.000000 0.000000 0.000000 0.000000
    70 0.000000 0.000000 0.000000 0.000000 0.000000 0.000000
    71 0.000000 -0.000002 0.000000 0.000000 0.000000 0.000000
    72 0.000000 0.000000 0.000000 -1.570796 0.000000 0.000000
  time 6
    0 -5.276394 -28.381330 -6.094069 -0.765736 -1.146541 4.191123
    1 4.785156 -17.703125 -23.156250 -2.282634 0.765599 -1.730061
    2 1.473661 0.639422 -1.295233 2.123499 0.734169 0.670777
    3 1.832608 0.000002 0.000000 3.110045 0.047490 0.758065
    4 1.003329 0.000000 0.000001 -3.040060 -0.014406 -0.167805
    5 3.823887 -0.419591 -1.411516 0.374201 0.211205 0.435260
    6 2.187963 0.000000 0.000000 -0.025371 -0.118763 0.373851
    7 1.100956 -0.000002 0.000000 0.056981 -0.085090 0.256395
    8 3.987879 -0.577437 -0.474708 0.218109 0.079349 0.376932
    9 1.890101 -0.000003 0.000000 0.070153 -0.155442 0.431101
    10 1.310922 0.000002 0.000000 0.022870 0.076654 0.411714
    11 4.117971 -0.654518 0.453699 0.105788 -0.175952 0.516342
    12 1.655286 0.000000 0.000000 -0.108110 0.088915 0.447091
    13 0.869586 0.000008 0.000000 0.057673 -0.031831 0.217996
    14 4.150646 -0.581580 1.354867 -0.297435 -0.233578 0.643110
    15 1.157243 -0.000002 0.000000 0.034842 0.039183 0.490097
    16 1.019837 -0.000002 0.000000 -1.467663 -0.051050 0.396031
    17 5.000000 -3.345703 -4.820313 -0.701592 1.191411 -0.927544
    18 12.695426 0.000001 0.000002 -0.018018 0.219877 -0.818453
    19 -5.547142 -23.272075 -11.349061 3.480963 0.201473 -1.268027
    20 1.474217 -0.497913 -1.376119 0.945680 0.413346 -0.662993
    21 1.832175 -0.000001 0.000001 -2.551366 -0.431934 0.492508
    22 1.042031 0.000000 -0.000002 -2.702781 -0.329304 -0.389604
    23 3.828125 0.623047 -1.324219 -0.024298 -0.114327 -1.089400
    24 2.152370 0.000002 0.000000 -0.047431 0.103996 -1.361217
    25 1.056621 -0.000002 0.000000 0.190904 0.078321 -1.088534
    26 3.990234 0.902344 -0.376953 0.126657 -0.044022 -1.088904
    27 1.830173 0.000000 0.000000 0.107756 0.011545 -1.328421
    28 1.561353 0.000002 0.000000 0.108642 -0.073203 -1.348440
    29 4.116521 0.726916 0.551868 0.102895 0.105902 -1.592375
    30 1.752731 0.000000 0.000000 -0.035048 -0.041300 -0.636687
    31 0.869359 -0.000002 0.000000 -0.048968 0.259083 -1.365561
    32 4.118825 0.331242 1.419828 0.145379 0.226208 -1.714317
    33 1.176323 0.000000 0.000000 0.228831 -0.081528 -0.450932
    34 0.970203 -0.000002 0.000000 1.664450 0.071976 -1.259838
    35 -10.008454 -2.936290 -9.065956 -2.379298 0.664796 -1.641554
    36 12.706341 0.000001 0.000000 -0.112094 0.279404 -1.204495
    37 0.000000 0.000000 0.000001 0.000000 0.000000 0.000000
    38 1.200000 0.000000 0.000000 0.000000 0.000000 0.000000
    39 0.000001 -0.300000 0.000000 -3.141593 0.000000 -0.174533
    40 0.000000 0.000000 0.000000 0.000000 0.000000 0.000000
    41 -0.000001 0.000000 0.000000 -3.141593 0.000000 0.000000
    42 0.000001 0.000000 0.000001 0.000000 0.000000 0.349066
    43 0.000000 0.000000 0.000000 -3.141593 0.000000 0.000000
    44 0.000000 -0.000001 0.000000 -3.141593 0.000000 0.000000
    45 0.000001 0.000000 0.000000 -3.141593 0.000000 0.000000
    46 0.000000 -0.000001 0.000000 -3.141593 0.000000 0.000000
    47 0.000000 0.000002 0.000000 -3.141593 0.000000 0.000000
    48 0.000000 0.000000 0.000000 -3.141593 0.000000 0.000000
    49 0.000001 0.000000 0.000000 -3.141593 0.000000 0.000000
    50 0.000000 0.000002 0.000000 -3.141593 0.000000 0.000000
    51 0.000000 -0.000002 0.000000 -3.141593 0.000000 0.000000
    52 0.000001 0.000000 0.000000 -3.141593 0.000000 0.000000
    53 0.000000 0.000000 0.000000 -3.141593 0.000000 0.000000
    54 0.000000 0.000000 0.000000 -1.570796 0.000000 0.000000
    55 0.000000 0.000000 0.000000 0.000000 0.000000 0.000000
    56 1.200001 0.000000 0.000000 0.000000 0.000000 0.000000
    57 0.000000 0.300000 0.000000 0.000000 0.000000 0.174533
    58 0.000000 0.000000 -0.000001 0.000000 0.000000 0.000000
    59 0.000001 0.000000 0.000000 -3.141593 0.000000 0.000000
    60 0.000000 0.000000 0.000000 0.000000 0.000000 0.349066
    61 0.000000 0.000000 0.000000 0.000000 0.000000 0.000000
    62 -0.000001 0.000000 0.000000 0.000000 0.000000 0.000000
    63 0.000001 0.000000 0.000000 0.000000 0.000000 0.000000
    64 0.000000 0.000000 0.000000 0.000000 0.000000 0.000000
    65 0.000000 0.000000 0.000000 0.000000 0.000000 0.000000
    66 0.000000 0.000000 0.000000 0.000000 0.000000 0.000000
    67 0.000000 -0.000002 0.000000 0.000000 0.000000 0.000000
    68 0.000000 0.000000 0.000000 0.000000 0.000000 0.000000
    69 0.000000 0.000000 0.000000 0.000000 0.000000 0.000000
    70 0.000000 0.000000 0.000000 0.000000 0.000000 0.000000
    71 0.000000 -0.000002 0.000000 0.000000 0.000000 0.000000
    72 0.000000 0.000000 0.000000 -1.570796 0.000000 0.000000
  time 7
    0 -6.135795 -27.971162 -5.992503 -0.768960 -1.260036 4.118578
    1 4.785156 -17.703125 -23.156250 -2.282634 0.765599 -1.730061
    2 1.473661 0.639422 -1.295233 2.123499 0.734169 0.670777
    3 1.832608 0.000002 0.000000 3.110045 0.047490 0.758065
    4 1.003329 0.000000 0.000001 -3.040060 -0.014406 -0.167805
    5 3.823887 -0.419591 -1.411516 0.374201 0.211205 0.435260
    6 2.187963 0.000000 0.000000 -0.025371 -0.118763 0.373851
    7 1.100956 -0.000002 0.000000 0.056981 -0.085090 0.256395
    8 3.987879 -0.577437 -0.474708 0.218109 0.079349 0.376932
    9 1.890101 -0.000003 0.000000 0.070153 -0.155442 0.431101
    10 1.310922 0.000002 0.000000 0.022870 0.076654 0.411714
    11 4.117971 -0.654518 0.453699 0.105788 -0.175952 0.516342
    12 1.655286 0.000000 0.000000 -0.108110 0.088915 0.447091
    13 0.869586 0.000008 0.000000 0.057673 -0.031831 0.217996
    14 4.150646 -0.581580 1.354867 -0.297435 -0.233578 0.643110
    15 1.157243 -0.000002 0.000000 0.034842 0.039183 0.490097
    16 1.019837 -0.000002 0.000000 -1.467663 -0.051050 0.396031
    17 5.000000 -3.345703 -4.820313 -0.701592 1.191411 -0.927544
    18 12.695426 0.000001 0.000002 -0.018018 0.219877 -0.818453
    19 -6.375292 -23.369734 -11.696728 3.396337 0.124442 -1.357159
    20 1.474217 -0.497913 -1.376119 0.945680 0.413346 -0.662993
    21 1.832175 -0.000001 0.000001 -2.551366 -0.431934 0.492508
    22 1.042031 0.000000 -0.000002 -2.702781 -0.329304 -0.389604
    23 3.828125 0.623047 -1.324219 -0.024298 -0.114327 -1.089400
    24 2.152370 0.000002 0.000000 -0.047431 0.103996 -1.361217
    25 1.056621 -0.000002 0.000000 0.190904 0.078321 -1.088534
    26 3.990234 0.902344 -0.376953 0.126657 -0.044022 -1.088904
    27 1.830173 0.000000 0.000000 0.107756 0.011545 -1.328421
    28 1.561353 0.000002 0.000000 0.108642 -0.073203 -1.348440
    29 4.116521 0.726916 0.551868 0.102895 0.105902 -1.592375
    30 1.752731 0.000000 0.000000 -0.035048 -0.041300 -0.636687
    31 0.869359 -0.000002 0.000000 -0.048956 0.259083 -1.365561
    32 4.118825 0.331242 1.419828 0.145379 0.226208 -1.714317
    33 1.176323 0.000000 0.000000 0.228831 -0.081528 -0.450932
    34 0.970203 -0.000002 0.000000 1.664450 0.071976 -1.259838
    35 -10.008454 -2.936290 -9.065956 -2.350016 0.690577 -1.667261
    36 12.706341 0.000001 0.000000 -0.113065 0.279764 -1.208050
    37 0.000000 0.000000 0.000001 0.000000 0.000000 0.000000
    38 1.200000 0.000000 0.000000 0.000000 0.000000 0.000000
    39 0.000001 -0.300000 0.000000 -3.141593 0.000000 -0.174533
    40 0.000000 0.000000 0.000000 0.000000 0.000000 0.000000
    41 -0.000001 0.000000 0.000000 -3.141593 0.000000 0.000000
    42 0.000001 0.000000 0.000001 0.000000 0.000000 0.349066
    43 0.000000 0.000000 0.000000 -3.141593 0.000000 0.000000
    44 0.000000 -0.000001 0.000000 -3.141593 0.000000 0.000000
    45 0.000001 0.000000 0.000000 -3.141593 0.000000 0.000000
    46 0.000000 -0.000001 0.000000 -3.141593 0.000000 0.000000
    47 0.000000 0.000002 0.000000 -3.141593 0.000000 0.000000
    48 0.000000 0.000000 0.000000 -3.141593 0.000000 0.000000
    49 0.000001 0.000000 0.000000 -3.141593 0.000000 0.000000
    50 0.000000 0.000002 0.000000 -3.141593 0.000000 0.000000
    51 0.000000 -0.000002 0.000000 -3.141593 0.000000 0.000000
    52 0.000001 0.000000 0.000000 -3.141593 0.000000 0.000000
    53 0.000000 0.000000 0.000000 -3.141593 0.000000 0.000000
    54 0.000000 0.000000 0.000000 -1.570796 0.000000 0.000000
    55 0.000000 0.000000 0.000000 0.000000 0.000000 0.000000
    56 1.200001 0.000000 0.000000 0.000000 0.000000 0.000000
    57 0.000000 0.300000 0.000000 0.000000 0.000000 0.174533
    58 0.000000 0.000000 -0.000001 0.000000 0.000000 0.000000
    59 0.000001 0.000000 0.000000 -3.141593 0.000000 0.000000
    60 0.000000 0.000000 0.000000 0.000000 0.000000 0.349066
    61 0.000000 0.000000 0.000000 0.000000 0.000000 0.000000
    62 -0.000001 0.000000 0.000000 0.000000 0.000000 0.000000
    63 0.000001 0.000000 0.000000 0.000000 0.000000 0.000000
    64 0.000000 0.000000 0.000000 0.000000 0.000000 0.000000
    65 0.000000 0.000000 0.000000 0.000000 0.000000 0.000000
    66 0.000000 0.000000 0.000000 0.000000 0.000000 0.000000
    67 0.000000 -0.000002 0.000000 0.000000 0.000000 0.000000
    68 0.000000 0.000000 0.000000 0.000000 0.000000 0.000000
    69 0.000000 0.000000 0.000000 0.000000 0.000000 0.000000
    70 0.000000 0.000000 0.000000 0.000000 0.000000 0.000000
    71 0.000000 -0.000002 0.000000 0.000000 0.000000 0.000000
    72 0.000000 0.000000 0.000000 -1.570796 0.000000 0.000000
  time 8
    0 -6.936601 -27.584431 -5.887031 -0.745348 -1.335745 4.039325
    1 4.785156 -17.703125 -23.156250 -2.282634 0.765599 -1.730061
    2 1.473661 0.639422 -1.295233 2.123499 0.734169 0.670777
    3 1.832608 0.000002 0.000000 3.110045 0.047490 0.758065
    4 1.003329 0.000000 0.000001 -3.040060 -0.014406 -0.167805
    5 3.823887 -0.419591 -1.411516 0.374201 0.211205 0.435260
    6 2.187963 0.000000 0.000000 -0.025371 -0.118763 0.373851
    7 1.100956 -0.000002 0.000000 0.056981 -0.085090 0.256395
    8 3.987879 -0.577437 -0.474708 0.218109 0.079349 0.376932
    9 1.890101 -0.000003 0.000000 0.070153 -0.155442 0.431101
    10 1.310922 0.000002 0.000000 0.022870 0.076654 0.411714
    11 4.117971 -0.654518 0.453699 0.105788 -0.175952 0.516342
    12 1.655286 0.000000 0.000000 -0.108110 0.088915 0.447091
    13 0.869586 0.000008 0.000000 0.057673 -0.031831 0.217996
    14 4.150646 -0.581580 1.354867 -0.297435 -0.233578 0.643110
    15 1.157243 -0.000002 0.000000 0.034842 0.039183 0.490097
    16 1.019837 -0.000002 0.000000 -1.467663 -0.051050 0.396031
    17 5.000000 -3.345703 -4.820313 -0.701592 1.191411 -0.927544
    18 12.695426 0.000001 0.000002 -0.018018 0.219877 -0.818453
    19 -7.156566 -23.350203 -11.880327 3.345246 0.067949 -1.418528
    20 1.474217 -0.497913 -1.376119 0.945680 0.413346 -0.662993
    21 1.832175 -0.000001 0.000001 -2.551366 -0.431934 0.492508
    22 1.042031 0.000000 -0.000002 -2.702781 -0.329304 -0.389604
    23 3.828125 0.623047 -1.324219 -0.024298 -0.114327 -1.089400
    24 2.152370 0.000002 0.000000 -0.047431 0.103996 -1.361217
    25 1.056621 -0.000002 0.000000 0.190904 0.078321 -1.088534
    26 3.990234 0.902344 -0.376953 0.126657 -0.044022 -1.088904
    27 1.830173 0.000000 0.000000 0.107756 0.011545 -1.328421
    28 1.561353 0.000002 0.000000 0.108642 -0.073203 -1.348440
    29 4.116521 0.723009 0.551868 0.102895 0.105902 -1.592375
    30 1.752731 0.000000 0.000000 -0.035048 -0.041300 -0.636687
    31 0.869359 -0.000002 0.000000 -0.048956 0.259083 -1.365561
    32 4.118825 0.331242 1.419828 0.145379 0.226208 -1.714317
    33 1.176323 0.000000 0.000000 0.228831 -0.081528 -0.450932
    34 0.970203 -0.000002 0.000000 1.664450 0.071976 -1.259838
    35 -10.008454 -2.936290 -9.065956 -2.308068 0.716792 -1.685131
    36 12.706341 0.000001 0.000000 -0.117667 0.281393 -1.224621
    37 0.000000 0.000000 0.000001 0.000000 0.000000 0.000000
    38 1.200000 0.000000 0.000000 0.000000 0.000000 0.000000
    39 0.000001 -0.300000 0.000000 -3.141593 0.000000 -0.174533
    40 0.000000 0.000000 0.000000 0.000000 0.000000 0.000000
    41 -0.000001 0.000000 0.000000 -3.141593 0.000000 0.000000
    42 0.000001 0.000000 0.000001 0.000000 0.000000 0.349066
    43 0.000000 0.000000 0.000000 -3.141593 0.000000 0.000000
    44 0.000000 -0.000001 0.000000 -3.141593 0.000000 0.000000
    45 0.000001 0.000000 0.000000 -3.141593 0.000000 0.000000
    46 0.000000 -0.000001 0.000000 -3.141593 0.000000 0.000000
    47 0.000000 0.000002 0.000000 -3.141593 0.000000 0.000000
    48 0.000000 0.000000 0.000000 -3.141593 0.000000 0.000000
    49 0.000001 0.000000 0.000000 -3.141593 0.000000 0.000000
    50 0.000000 0.000002 0.000000 -3.141593 0.000000 0.000000
    51 0.000000 -0.000002 0.000000 -3.141593 0.000000 0.000000
    52 0.000001 0.000000 0.000000 -3.141593 0.000000 0.000000
    53 0.000000 0.000000 0.000000 -3.141593 0.000000 0.000000
    54 0.000000 0.000000 0.000000 -1.570796 0.000000 0.000000
    55 0.000000 0.000000 0.000000 0.000000 0.000000 0.000000
    56 1.200001 0.000000 0.000000 0.000000 0.000000 0.000000
    57 0.000000 0.300000 0.000000 0.000000 0.000000 0.174533
    58 0.000000 0.000000 -0.000001 0.000000 0.000000 0.000000
    59 0.000001 0.000000 0.000000 -3.141593 0.000000 0.000000
    60 0.000000 0.000000 0.000000 0.000000 0.000000 0.349066
    61 0.000000 0.000000 0.000000 0.000000 0.000000 0.000000
    62 -0.000001 0.000000 0.000000 0.000000 0.000000 0.000000
    63 0.000001 0.000000 0.000000 0.000000 0.000000 0.000000
    64 0.000000 0.000000 0.000000 0.000000 0.000000 0.000000
    65 0.000000 0.000000 0.000000 0.000000 0.000000 0.000000
    66 0.000000 0.000000 0.000000 0.000000 0.000000 0.000000
    67 0.000000 -0.000002 0.000000 0.000000 0.000000 0.000000
    68 0.000000 0.000000 0.000000 0.000000 0.000000 0.000000
    69 0.000000 0.000000 0.000000 0.000000 0.000000 0.000000
    70 0.000000 0.000000 0.000000 0.000000 0.000000 0.000000
    71 0.000000 -0.000002 0.000000 0.000000 0.000000 0.000000
    72 0.000000 0.000000 0.000000 -1.570796 0.000000 0.000000
  time 9
    0 -7.725688 -27.182075 -5.781559 -0.628899 -1.396248 3.875836
    1 4.785156 -17.703125 -23.156250 -2.282634 0.765599 -1.730061
    2 1.473661 0.639422 -1.295233 2.123499 0.734169 0.670777
    3 1.832608 0.000002 0.000000 3.110045 0.047490 0.758065
    4 1.003329 0.000000 0.000001 -3.040060 -0.014406 -0.167805
    5 3.823887 -0.419591 -1.411516 0.374201 0.211205 0.435260
    6 2.187963 0.000000 0.000000 -0.025371 -0.118763 0.373851
    7 1.100956 -0.000002 0.000000 0.056981 -0.085090 0.256395
    8 3.987879 -0.577437 -0.474708 0.218109 0.079349 0.376932
    9 1.890101 -0.000003 0.000000 0.070153 -0.155442 0.431101
    10 1.310922 0.000002 0.000000 0.022870 0.076654 0.411714
    11 4.117971 -0.654518 0.453699 0.105788 -0.175952 0.516342
    12 1.655286 0.000000 0.000000 -0.108110 0.088915 0.447091
    13 0.869586 0.000008 0.000000 0.057673 -0.031831 0.217996
    14 4.150646 -0.581580 1.354867 -0.297435 -0.233578 0.643110
    15 1.157243 -0.000002 0.000000 0.034842 0.039183 0.490097
    16 1.019837 -0.000002 0.000000 -1.467663 -0.051050 0.396031
    17 5.000000 -3.345703 -4.820313 -0.701592 1.191411 -0.927544
    18 12.695426 0.000001 0.000002 -0.018018 0.219877 -0.818453
    19 -7.894870 -23.307232 -12.009237 3.313709 0.011259 -1.469325
    20 1.474217 -0.497913 -1.376119 0.945680 0.413346 -0.662993
    21 1.832175 -0.000001 0.000001 -2.551366 -0.431934 0.492508
    22 1.042031 0.000000 -0.000002 -2.702781 -0.329304 -0.389604
    23 3.828125 0.623047 -1.324219 -0.024298 -0.114327 -1.089400
    24 2.152370 0.000002 0.000000 -0.047431 0.103996 -1.361217
    25 1.056621 -0.000002 0.000000 0.190904 0.078321 -1.088534
    26 3.990234 0.902344 -0.376953 0.126657 -0.044022 -1.088904
    27 1.830173 0.000000 0.000000 0.107756 0.011545 -1.328421
    28 1.561353 0.000002 0.000000 0.108642 -0.073203 -1.348440
    29 4.116521 0.726916 0.551868 0.102895 0.105902 -1.592375
    30 1.752731 0.000000 0.000000 -0.035048 -0.041300 -0.636687
    31 0.869359 -0.000002 0.000000 -0.048956 0.259083 -1.365561
    32 4.118825 0.331242 1.419828 0.145379 0.226208 -1.714317
    33 1.176323 0.000000 0.000000 0.228831 -0.081528 -0.450932
    34 0.970203 -0.000002 0.000000 1.664450 0.071976 -1.259838
    35 -10.008454 -2.936290 -9.065956 -2.257881 0.740946 -1.695164
    36 12.706341 0.000001 0.000000 -0.121981 0.282868 -1.240160
    37 0.000000 0.000000 0.000001 0.000000 0.000000 0.000000
    38 1.200000 0.000000 0.000000 0.000000 0.000000 0.000000
    39 0.000001 -0.300000 0.000000 -3.141593 0.000000 -0.174533
    40 0.000000 0.000000 0.000000 0.000000 0.000000 0.000000
    41 -0.000001 0.000000 0.000000 -3.141593 0.000000 0.000000
    42 0.000001 0.000000 0.000001 0.000000 0.000000 0.349066
    43 0.000000 0.000000 0.000000 -3.141593 0.000000 0.000000
    44 0.000000 -0.000001 0.000000 -3.141593 0.000000 0.000000
    45 0.000001 0.000000 0.000000 -3.141593 0.000000 0.000000
    46 0.000000 -0.000001 0.000000 -3.141593 0.000000 0.000000
    47 0.000000 0.000002 0.000000 -3.141593 0.000000 0.000000
    48 0.000000 0.000000 0.000000 -3.141593 0.000000 0.000000
    49 0.000001 0.000000 0.000000 -3.141593 0.000000 0.000000
    50 0.000000 0.000002 0.000000 -3.141593 0.000000 0.000000
    51 0.000000 -0.000002 0.000000 -3.141593 0.000000 0.000000
    52 0.000001 0.000000 0.000000 -3.141593 0.000000 0.000000
    53 0.000000 0.000000 0.000000 -3.141593 0.000000 0.000000
    54 0.000000 0.000000 0.000000 -1.570796 0.000000 0.000000
    55 0.000000 0.000000 0.000000 0.000000 0.000000 0.000000
    56 1.200001 0.000000 0.000000 0.000000 0.000000 0.000000
    57 0.000000 0.300000 0.000000 0.000000 0.000000 0.174533
    58 0.000000 0.000000 -0.000001 0.000000 0.000000 0.000000
    59 0.000001 0.000000 0.000000 -3.141593 0.000000 0.000000
    60 0.000000 0.000000 0.000000 0.000000 0.000000 0.349066
    61 0.000000 0.000000 0.000000 0.000000 0.000000 0.000000
    62 -0.000001 0.000000 0.000000 0.000000 0.000000 0.000000
    63 0.000001 0.000000 0.000000 0.000000 0.000000 0.000000
    64 0.000000 0.000000 0.000000 0.000000 0.000000 0.000000
    65 0.000000 0.000000 0.000000 0.000000 0.000000 0.000000
    66 0.000000 0.000000 0.000000 0.000000 0.000000 0.000000
    67 0.000000 -0.000002 0.000000 0.000000 0.000000 0.000000
    68 0.000000 0.000000 0.000000 0.000000 0.000000 0.000000
    69 0.000000 0.000000 0.000000 0.000000 0.000000 0.000000
    70 0.000000 0.000000 0.000000 0.000000 0.000000 0.000000
    71 0.000000 -0.000002 0.000000 0.000000 0.000000 0.000000
    72 0.000000 0.000000 0.000000 -1.570796 0.000000 0.000000
  time 10
    0 -8.405396 -26.842221 -5.695619 -0.412312 -1.433576 3.621882
    1 4.785156 -17.703125 -23.156250 -2.282634 0.765599 -1.730061
    2 1.473661 0.639422 -1.295233 2.123499 0.734169 0.670777
    3 1.832608 0.000002 0.000000 3.110045 0.047490 0.758065
    4 1.003329 0.000000 0.000001 -3.040060 -0.014406 -0.167805
    5 3.823887 -0.419591 -1.411516 0.374201 0.211205 0.435260
    6 2.187963 0.000000 0.000000 -0.025371 -0.118763 0.373851
    7 1.100956 -0.000002 0.000000 0.056981 -0.085090 0.256395
    8 3.987879 -0.577437 -0.474708 0.218109 0.079349 0.376932
    9 1.890101 -0.000003 0.000000 0.070153 -0.155442 0.431101
    10 1.310922 0.000002 0.000000 0.022870 0.076654 0.411714
    11 4.117971 -0.654518 0.453699 0.105788 -0.175952 0.516342
    12 1.655286 0.000000 0.000000 -0.108110 0.088915 0.447091
    13 0.869586 0.000008 0.000000 0.057673 -0.031831 0.217996
    14 4.150646 -0.581580 1.354867 -0.297435 -0.233578 0.643110
    15 1.157243 -0.000002 0.000000 0.034842 0.039183 0.490097
    16 1.019837 -0.000002 0.000000 -1.467663 -0.051050 0.396031
    17 5.000000 -3.345703 -4.820313 -0.701592 1.191411 -0.927544
    18 12.695426 0.000001 0.000002 -0.018018 0.219877 -0.818453
    19 -8.496451 -23.268169 -12.099084 3.298440 -0.036295 -1.509207
    20 1.474217 -0.497913 -1.376119 0.945680 0.413346 -0.662993
    21 1.832175 -0.000001 0.000001 -2.551366 -0.431934 0.492508
    22 1.042031 0.000000 -0.000002 -2.702781 -0.329304 -0.389604
    23 3.828125 0.623047 -1.324219 -0.024298 -0.114327 -1.089400
    24 2.152370 0.000002 0.000000 -0.047431 0.103996 -1.361217
    25 1.056621 -0.000002 0.000000 0.190904 0.078321 -1.088534
    26 3.990234 0.902344 -0.376953 0.126657 -0.044022 -1.088904
    27 1.830173 0.000000 0.000000 0.107756 0.011545 -1.328421
    28 1.561353 0.000002 0.000000 0.108642 -0.073203 -1.348440
    29 4.116521 0.726916 0.551868 0.102895 0.105902 -1.592375
    30 1.752731 0.000000 0.000000 -0.035048 -0.041300 -0.636687
    31 0.869359 -0.000002 0.000000 -0.048956 0.259083 -1.365561
    32 4.118825 0.331242 1.419828 0.145379 0.226208 -1.714317
    33 1.176323 0.000000 0.000000 0.228831 -0.081528 -0.450932
    34 0.970203 -0.000002 0.000000 1.664450 0.071976 -1.259838
    35 -10.008454 -2.936290 -9.065956 -2.207489 0.759206 -1.697242
    36 12.706341 0.000001 0.000000 -0.125038 0.283838 -1.251054
    37 0.000000 0.000000 0.000001 0.000000 0.000000 0.000000
    38 1.200000 0.000000 0.000000 0.000000 0.000000 0.000000
    39 0.000001 -0.300000 0.000000 -3.141593 0.000000 -0.174533
    40 0.000000 0.000000 0.000000 0.000000 0.000000 0.000000
    41 -0.000001 0.000000 0.000000 -3.141593 0.000000 0.000000
    42 0.000001 0.000000 0.000001 0.000000 0.000000 0.349066
    43 0.000000 0.000000 0.000000 -3.141593 0.000000 0.000000
    44 0.000000 -0.000001 0.000000 -3.141593 0.000000 0.000000
    45 0.000001 0.000000 0.000000 -3.141593 0.000000 0.000000
    46 0.000000 -0.000001 0.000000 -3.141593 0.000000 0.000000
    47 0.000000 0.000002 0.000000 -3.141593 0.000000 0.000000
    48 0.000000 0.000000 0.000000 -3.141593 0.000000 0.000000
    49 0.000001 0.000000 0.000000 -3.141593 0.000000 0.000000
    50 0.000000 0.000002 0.000000 -3.141593 0.000000 0.000000
    51 0.000000 -0.000002 0.000000 -3.141593 0.000000 0.000000
    52 0.000001 0.000000 0.000000 -3.141593 0.000000 0.000000
    53 0.000000 0.000000 0.000000 -3.141593 0.000000 0.000000
    54 0.000000 0.000000 0.000000 -1.570796 0.000000 0.000000
    55 0.000000 0.000000 0.000000 0.000000 0.000000 0.000000
    56 1.200001 0.000000 0.000000 0.000000 0.000000 0.000000
    57 0.000000 0.300000 0.000000 0.000000 0.000000 0.174533
    58 0.000000 0.000000 -0.000001 0.000000 0.000000 0.000000
    59 0.000001 0.000000 0.000000 -3.141593 0.000000 0.000000
    60 0.000000 0.000000 0.000000 0.000000 0.000000 0.349066
    61 0.000000 0.000000 0.000000 0.000000 0.000000 0.000000
    62 -0.000001 0.000000 0.000000 0.000000 0.000000 0.000000
    63 0.000001 0.000000 0.000000 0.000000 0.000000 0.000000
    64 0.000000 0.000000 0.000000 0.000000 0.000000 0.000000
    65 0.000000 0.000000 0.000000 0.000000 0.000000 0.000000
    66 0.000000 0.000000 0.000000 0.000000 0.000000 0.000000
    67 0.000000 -0.000002 0.000000 0.000000 0.000000 0.000000
    68 0.000000 0.000000 0.000000 0.000000 0.000000 0.000000
    69 0.000000 0.000000 0.000000 0.000000 0.000000 0.000000
    70 0.000000 0.000000 0.000000 0.000000 0.000000 0.000000
    71 0.000000 -0.000002 0.000000 0.000000 0.000000 0.000000
    72 0.000000 0.000000 0.000000 -1.570796 0.000000 0.000000
  time 11
    0 -8.893692 -26.627371 -5.637023 -0.189087 -1.451347 3.368982
    1 4.785156 -17.703125 -23.156250 -2.282634 0.765599 -1.730061
    2 1.473661 0.639422 -1.295233 2.123499 0.734169 0.670777
    3 1.832608 0.000002 0.000000 3.110045 0.047490 0.758065
    4 1.003329 0.000000 0.000001 -3.040060 -0.014406 -0.167805
    5 3.823887 -0.419591 -1.411516 0.374201 0.211205 0.435260
    6 2.187963 0.000000 0.000000 -0.025371 -0.118763 0.373851
    7 1.100956 -0.000002 0.000000 0.056981 -0.085090 0.256395
    8 3.987879 -0.577437 -0.474708 0.218109 0.079349 0.376932
    9 1.890101 -0.000003 0.000000 0.070153 -0.155442 0.431101
    10 1.310922 0.000002 0.000000 0.022870 0.076654 0.411714
    11 4.117971 -0.654518 0.453699 0.105788 -0.175952 0.516342
    12 1.655286 0.000000 0.000000 -0.108110 0.088915 0.447091
    13 0.869586 0.000008 0.000000 0.057673 -0.031831 0.217996
    14 4.150646 -0.581580 1.354867 -0.297435 -0.233578 0.643110
    15 1.157243 -0.000002 0.000000 0.034842 0.039183 0.490097
    16 1.019837 -0.000002 0.000000 -1.467663 -0.051050 0.396031
    17 5.000000 -3.345703 -4.820313 -0.701592 1.191411 -0.927544
    18 12.695426 0.000001 0.000002 -0.018018 0.219877 -0.818453
    19 -8.918339 -23.260356 -12.153773 3.290225 -0.068792 -1.540149
    20 1.474217 -0.497913 -1.376119 0.945680 0.413346 -0.662993
    21 1.832175 -0.000001 0.000001 -2.551366 -0.431934 0.492508
    22 1.042031 0.000000 -0.000002 -2.702781 -0.329304 -0.389604
    23 3.828125 0.623047 -1.324219 -0.024298 -0.114327 -1.089400
    24 2.152370 0.000002 0.000000 -0.047431 0.103996 -1.361217
    25 1.056621 -0.000002 0.000000 0.190904 0.078321 -1.088534
    26 3.990234 0.902344 -0.376953 0.126657 -0.044022 -1.088904
    27 1.830173 0.000000 0.000000 0.107756 0.011545 -1.328421
    28 1.561353 0.000002 0.000000 0.108642 -0.073203 -1.348440
    29 4.116521 0.726916 0.551868 0.102895 0.105902 -1.592375
    30 1.752731 0.000000 0.000000 -0.035048 -0.041300 -0.636687
    31 0.869359 -0.000002 0.000000 -0.048956 0.259083 -1.365561
    32 4.118825 0.331242 1.419828 0.145379 0.226208 -1.714317
    33 1.176323 0.000000 0.000000 0.228831 -0.081528 -0.450932
    34 0.970203 -0.000002 0.000000 1.664450 0.071976 -1.259838
    35 -10.008454 -2.936290 -9.065956 -2.166154 0.769222 -1.694274
    36 12.706341 0.000001 0.000000 -0.125840 0.284090 -1.253921
    37 0.000000 0.000000 0.000001 0.000000 0.000000 0.000000
    38 1.200000 0.000000 0.000000 0.000000 0.000000 0.000000
    39 0.000001 -0.300000 0.000000 -3.141593 0.000000 -0.174533
    40 0.000000 0.000000 0.000000 0.000000 0.000000 0.000000
    41 -0.000001 0.000000 0.000000 -3.141593 0.000000 0.000000
    42 0.000001 0.000000 0.000001 0.000000 0.000000 0.349066
    43 0.000000 0.000000 0.000000 -3.141593 0.000000 0.000000
    44 0.000000 -0.000001 0.000000 -3.141593 0.000000 0.000000
    45 0.000001 0.000000 0.000000 -3.141593 0.000000 0.000000
    46 0.000000 -0.000001 0.000000 -3.141593 0.000000 0.000000
    47 0.000000 0.000002 0.000000 -3.141593 0.000000 0.000000
    48 0.000000 0.000000 0.000000 -3.141593 0.000000 0.000000
    49 0.000001 0.000000 0.000000 -3.141593 0.000000 0.000000
    50 0.000000 0.000002 0.000000 -3.141593 0.000000 0.000000
    51 0.000000 -0.000002 0.000000 -3.141593 0.000000 0.000000
    52 0.000001 0.000000 0.000000 -3.141593 0.000000 0.000000
    53 0.000000 0.000000 0.000000 -3.141593 0.000000 0.000000
    54 0.000000 0.000000 0.000000 -1.570796 0.000000 0.000000
    55 0.000000 0.000000 0.000000 0.000000 0.000000 0.000000
    56 1.200001 0.000000 0.000000 0.000000 0.000000 0.000000
    57 0.000000 0.300000 0.000000 0.000000 0.000000 0.174533
    58 0.000000 0.000000 -0.000001 0.000000 0.000000 0.000000
    59 0.000001 0.000000 0.000000 -3.141593 0.000000 0.000000
    60 0.000000 0.000000 0.000000 0.000000 0.000000 0.349066
    61 0.000000 0.000000 0.000000 0.000000 0.000000 0.000000
    62 -0.000001 0.000000 0.000000 0.000000 0.000000 0.000000
    63 0.000001 0.000000 0.000000 0.000000 0.000000 0.000000
    64 0.000000 0.000000 0.000000 0.000000 0.000000 0.000000
    65 0.000000 0.000000 0.000000 0.000000 0.000000 0.000000
    66 0.000000 0.000000 0.000000 0.000000 0.000000 0.000000
    67 0.000000 -0.000002 0.000000 0.000000 0.000000 0.000000
    68 0.000000 0.000000 0.000000 0.000000 0.000000 0.000000
    69 0.000000 0.000000 0.000000 0.000000 0.000000 0.000000
    70 0.000000 0.000000 0.000000 0.000000 0.000000 0.000000
    71 0.000000 -0.000002 0.000000 0.000000 0.000000 0.000000
    72 0.000000 0.000000 0.000000 -1.570796 0.000000 0.000000
  time 12
    0 -9.178857 -26.560962 -5.613585 -0.043431 -1.463209 3.197827
    1 4.785156 -17.703125 -23.156250 -2.282634 0.765599 -1.730061
    2 1.473661 0.639422 -1.295233 2.123499 0.734169 0.670777
    3 1.832608 0.000002 0.000000 3.110045 0.047490 0.758065
    4 1.003329 0.000000 0.000001 -3.040060 -0.014406 -0.167805
    5 3.823887 -0.419591 -1.411516 0.374201 0.211205 0.435260
    6 2.187963 0.000000 0.000000 -0.025371 -0.118763 0.373851
    7 1.100956 -0.000002 0.000000 0.056981 -0.085090 0.256395
    8 3.987879 -0.577437 -0.474708 0.218109 0.079349 0.376932
    9 1.890101 -0.000003 0.000000 0.070153 -0.155442 0.431101
    10 1.310922 0.000002 0.000000 0.022870 0.076654 0.411714
    11 4.117971 -0.654518 0.453699 0.105788 -0.175952 0.516342
    12 1.655286 0.000000 0.000000 -0.108110 0.088915 0.447091
    13 0.869586 0.000008 0.000000 0.057673 -0.031831 0.217996
    14 4.150646 -0.581580 1.354867 -0.297435 -0.233578 0.643110
    15 1.157243 -0.000002 0.000000 0.034842 0.039183 0.490097
    16 1.019837 -0.000002 0.000000 -1.467663 -0.051050 0.396031
    17 5.000000 -3.345703 -4.820313 -0.701592 1.191411 -0.927544
    18 12.695426 0.000001 0.000002 -0.018018 0.219877 -0.818453
    19 -9.180066 -23.315045 -12.200650 3.280497 -0.086669 -1.565848
    20 1.474217 -0.497913 -1.376119 0.945680 0.413346 -0.662993
    21 1.832175 -0.000001 0.000001 -2.551366 -0.431934 0.492508
    22 1.042031 0.000000 -0.000002 -2.702781 -0.329304 -0.389604
    23 3.828125 0.623047 -1.324219 -0.024298 -0.114327 -1.089400
    24 2.152370 0.000002 0.000000 -0.047431 0.103996 -1.361217
    25 1.056621 -0.000002 0.000000 0.190904 0.078321 -1.088534
    26 3.990234 0.902344 -0.376953 0.126657 -0.044022 -1.088904
    27 1.830173 0.000000 0.000000 0.107756 0.011545 -1.328421
    28 1.561353 0.000002 0.000000 0.108642 -0.073203 -1.348440
    29 4.116521 0.726916 0.551868 0.102895 0.105902 -1.592375
    30 1.752731 0.000000 0.000000 -0.035048 -0.041300 -0.636687
    31 0.869359 -0.000002 0.000000 -0.048956 0.259083 -1.365561
    32 4.118825 0.331242 1.419828 0.145379 0.226208 -1.714317
    33 1.176323 0.000000 0.000000 0.228831 -0.081528 -0.450932
    34 0.970203 -0.000002 0.000000 1.664450 0.071976 -1.259838
    35 -10.008454 -2.936290 -9.065956 -2.137349 0.771536 -1.689762
    36 12.706341 0.000001 0.000000 -0.124127 0.283563 -1.247786
    37 0.000000 0.000000 0.000001 0.000000 0.000000 0.000000
    38 1.200000 0.000000 0.000000 0.000000 0.000000 0.000000
    39 0.000001 -0.300000 0.000000 -3.141593 0.000000 -0.174533
    40 0.000000 0.000000 0.000000 0.000000 0.000000 0.000000
    41 -0.000001 0.000000 0.000000 -3.141593 0.000000 0.000000
    42 0.000001 0.000000 0.000001 0.000000 0.000000 0.349066
    43 0.000000 0.000000 0.000000 -3.141593 0.000000 0.000000
    44 0.000000 -0.000001 0.000000 -3.141593 0.000000 0.000000
    45 0.000001 0.000000 0.000000 -3.141593 0.000000 0.000000
    46 0.000000 -0.000001 0.000000 -3.141593 0.000000 0.000000
    47 0.000000 0.000002 0.000000 -3.141593 0.000000 0.000000
    48 0.000000 0.000000 0.000000 -3.141593 0.000000 0.000000
    49 0.000001 0.000000 0.000000 -3.141593 0.000000 0.000000
    50 0.000000 0.000002 0.000000 -3.141593 0.000000 0.000000
    51 0.000000 -0.000002 0.000000 -3.141593 0.000000 0.000000
    52 0.000001 0.000000 0.000000 -3.141593 0.000000 0.000000
    53 0.000000 0.000000 0.000000 -3.141593 0.000000 0.000000
    54 0.000000 0.000000 0.000000 -1.570796 0.000000 0.000000
    55 0.000000 0.000000 0.000000 0.000000 0.000000 0.000000
    56 1.200001 0.000000 0.000000 0.000000 0.000000 0.000000
    57 0.000000 0.300000 0.000000 0.000000 0.000000 0.174533
    58 0.000000 0.000000 -0.000001 0.000000 0.000000 0.000000
    59 0.000001 0.000000 0.000000 -3.141593 0.000000 0.000000
    60 0.000000 0.000000 0.000000 0.000000 0.000000 0.349066
    61 0.000000 0.000000 0.000000 0.000000 0.000000 0.000000
    62 -0.000001 0.000000 0.000000 0.000000 0.000000 0.000000
    63 0.000001 0.000000 0.000000 0.000000 0.000000 0.000000
    64 0.000000 0.000000 0.000000 0.000000 0.000000 0.000000
    65 0.000000 0.000000 0.000000 0.000000 0.000000 0.000000
    66 0.000000 0.000000 0.000000 0.000000 0.000000 0.000000
    67 0.000000 -0.000002 0.000000 0.000000 0.000000 0.000000
    68 0.000000 0.000000 0.000000 0.000000 0.000000 0.000000
    69 0.000000 0.000000 0.000000 0.000000 0.000000 0.000000
    70 0.000000 0.000000 0.000000 0.000000 0.000000 0.000000
    71 0.000000 -0.000002 0.000000 0.000000 0.000000 0.000000
    72 0.000000 0.000000 0.000000 -1.570796 0.000000 0.000000
  time 13
    0 -9.362456 -26.564869 -5.621398 0.062492 -1.475026 3.068358
    1 4.785156 -17.703125 -23.156250 -2.282634 0.765599 -1.730061
    2 1.473661 0.639422 -1.295233 2.123499 0.734169 0.670777
    3 1.832608 0.000002 0.000000 3.110045 0.047490 0.758065
    4 1.003329 0.000000 0.000001 -3.040060 -0.014406 -0.167805
    5 3.823887 -0.419591 -1.411516 0.374201 0.211205 0.435260
    6 2.187963 0.000000 0.000000 -0.025371 -0.118763 0.373851
    7 1.100956 -0.000002 0.000000 0.056981 -0.085090 0.256395
    8 3.987879 -0.577437 -0.474708 0.218109 0.079349 0.376932
    9 1.890101 -0.000003 0.000000 0.070153 -0.155442 0.431101
    10 1.310922 0.000002 0.000000 0.022870 0.076654 0.411714
    11 4.117971 -0.654518 0.453699 0.105788 -0.175952 0.516342
    12 1.655286 0.000000 0.000000 -0.108110 0.088915 0.447091
    13 0.869586 0.000008 0.000000 0.057673 -0.031831 0.217996
    14 4.150646 -0.581580 1.354867 -0.297435 -0.233578 0.643110
    15 1.157243 -0.000002 0.000000 0.034842 0.039183 0.490097
    16 1.019837 -0.000002 0.000000 -1.467663 -0.051050 0.396031
    17 5.000000 -3.345703 -4.820313 -0.701592 1.191411 -0.927544
    18 12.695426 0.000001 0.000002 -0.018018 0.219877 -0.818453
    19 -9.363665 -23.385360 -12.235807 3.268610 -0.097355 -1.588625
    20 1.474217 -0.497913 -1.376119 0.945680 0.413346 -0.662993
    21 1.832175 -0.000001 0.000001 -2.551366 -0.431934 0.492508
    22 1.042031 0.000000 -0.000002 -2.702781 -0.329304 -0.389604
    23 3.828125 0.623047 -1.324219 -0.024298 -0.114327 -1.089400
    24 2.152370 0.000002 0.000000 -0.047431 0.103996 -1.361217
    25 1.056621 -0.000002 0.000000 0.190904 0.078321 -1.088534
    26 3.990234 0.902344 -0.376953 0.126657 -0.044022 -1.088904
    27 1.830173 0.000000 0.000000 0.107756 0.011545 -1.328421
    28 1.561353 0.000002 0.000000 0.108642 -0.073203 -1.348440
    29 4.116521 0.726916 0.551868 0.102895 0.105902 -1.592375
    30 1.752731 0.000000 0.000000 -0.035048 -0.041300 -0.636687
    31 0.869359 -0.000002 0.000000 -0.048956 0.259083 -1.365561
    32 4.118825 0.331242 1.419828 0.145379 0.226208 -1.714317
    33 1.176323 0.000000 0.000000 0.228831 -0.081528 -0.450932
    34 0.970203 -0.000002 0.000000 1.664450 0.071976 -1.259838
    35 -10.008454 -2.936290 -9.065956 -2.115694 0.770379 -1.685190
    36 12.706341 0.000001 0.000000 -0.121334 0.282652 -1.237866
    37 0.000000 0.000000 0.000001 0.000000 0.000000 0.000000
    38 1.200000 0.000000 0.000000 0.000000 0.000000 0.000000
    39 0.000001 -0.300000 0.000000 -3.141593 0.000000 -0.174533
    40 0.000000 0.000000 0.000000 0.000000 0.000000 0.000000
    41 -0.000001 0.000000 0.000000 -3.141593 0.000000 0.000000
    42 0.000001 0.000000 0.000001 0.000000 0.000000 0.349066
    43 0.000000 0.000000 0.000000 -3.141593 0.000000 0.000000
    44 0.000000 -0.000001 0.000000 -3.141593 0.000000 0.000000
    45 0.000001 0.000000 0.000000 -3.141593 0.000000 0.000000
    46 0.000000 -0.000001 0.000000 -3.141593 0.000000 0.000000
    47 0.000000 0.000002 0.000000 -3.141593 0.000000 0.000000
    48 0.000000 0.000000 0.000000 -3.141593 0.000000 0.000000
    49 0.000001 0.000000 0.000000 -3.141593 0.000000 0.000000
    50 0.000000 0.000002 0.000000 -3.141593 0.000000 0.000000
    51 0.000000 -0.000002 0.000000 -3.141593 0.000000 0.000000
    52 0.000001 0.000000 0.000000 -3.141593 0.000000 0.000000
    53 0.000000 0.000000 0.000000 -3.141593 0.000000 0.000000
    54 0.000000 0.000000 0.000000 -1.570796 0.000000 0.000000
    55 0.000000 0.000000 0.000000 0.000000 0.000000 0.000000
    56 1.200001 0.000000 0.000000 0.000000 0.000000 0.000000
    57 0.000000 0.300000 0.000000 0.000000 0.000000 0.174533
    58 0.000000 0.000000 -0.000001 0.000000 0.000000 0.000000
    59 0.000001 0.000000 0.000000 -3.141593 0.000000 0.000000
    60 0.000000 0.000000 0.000000 0.000000 0.000000 0.349066
    61 0.000000 0.000000 0.000000 0.000000 0.000000 0.000000
    62 -0.000001 0.000000 0.000000 0.000000 0.000000 0.000000
    63 0.000001 0.000000 0.000000 0.000000 0.000000 0.000000
    64 0.000000 0.000000 0.000000 0.000000 0.000000 0.000000
    65 0.000000 0.000000 0.000000 0.000000 0.000000 0.000000
    66 0.000000 0.000000 0.000000 0.000000 0.000000 0.000000
    67 0.000000 -0.000002 0.000000 0.000000 0.000000 0.000000
    68 0.000000 0.000000 0.000000 0.000000 0.000000 0.000000
    69 0.000000 0.000000 0.000000 0.000000 0.000000 0.000000
    70 0.000000 0.000000 0.000000 0.000000 0.000000 0.000000
    71 0.000000 -0.000002 0.000000 0.000000 0.000000 0.000000
    72 0.000000 0.000000 0.000000 -1.570796 0.000000 0.000000
  time 14
    0 -9.503086 -26.572682 -5.629211 0.166328 -1.484690 2.945119
    1 4.785156 -17.703125 -23.156250 -2.282634 0.765599 -1.730061
    2 1.473661 0.639422 -1.295233 2.123499 0.734169 0.670777
    3 1.832608 0.000002 0.000000 3.110045 0.047490 0.758065
    4 1.003329 0.000000 0.000001 -3.040060 -0.014406 -0.167805
    5 3.823887 -0.419591 -1.411516 0.374201 0.211205 0.435260
    6 2.187963 0.000000 0.000000 -0.025371 -0.118763 0.373851
    7 1.100956 -0.000002 0.000000 0.056981 -0.085090 0.256395
    8 3.987879 -0.577437 -0.474708 0.218109 0.079349 0.376932
    9 1.890101 -0.000003 0.000000 0.070153 -0.155442 0.431101
    10 1.310922 0.000002 0.000000 0.022870 0.076654 0.411714
    11 4.117971 -0.654518 0.453699 0.105788 -0.175952 0.516342
    12 1.655286 0.000000 0.000000 -0.108110 0.088915 0.447091
    13 0.869586 0.000008 0.000000 0.057673 -0.031831 0.217996
    14 4.150646 -0.581580 1.354867 -0.297435 -0.233578 0.643110
    15 1.157243 -0.000002 0.000000 0.034842 0.039183 0.490097
    16 1.019837 -0.000002 0.000000 -1.467663 -0.051050 0.396031
    17 5.000000 -3.345703 -4.820313 -0.701592 1.191411 -0.927544
    18 12.695426 0.000001 0.000002 -0.018018 0.219877 -0.818453
    19 -9.512107 -23.451768 -12.267058 3.257915 -0.105738 -1.607363
    20 1.474217 -0.497913 -1.376119 0.945680 0.413346 -0.662993
    21 1.832175 -0.000001 0.000001 -2.551366 -0.431934 0.492508
    22 1.042031 0.000000 -0.000002 -2.702781 -0.329304 -0.389604
    23 3.828125 0.623047 -1.324219 -0.024298 -0.114327 -1.089400
    24 2.152370 0.000002 0.000000 -0.047431 0.103996 -1.361217
    25 1.056621 -0.000002 0.000000 0.190904 0.078321 -1.088534
    26 3.990234 0.902344 -0.376953 0.126657 -0.044022 -1.088904
    27 1.830173 0.000000 0.000000 0.107756 0.011545 -1.328421
    28 1.561353 0.000002 0.000000 0.108642 -0.073203 -1.348440
    29 4.116521 0.726916 0.551868 0.102895 0.105902 -1.592375
    30 1.752731 0.000000 0.000000 -0.035048 -0.041300 -0.636687
    31 0.869359 -0.000002 0.000000 -0.048956 0.259083 -1.365561
    32 4.118825 0.331242 1.419828 0.145379 0.226208 -1.714317
    33 1.176323 0.000000 0.000000 0.228831 -0.081528 -0.450932
    34 0.970203 -0.000002 0.000000 1.664450 0.071976 -1.259838
    35 -10.008454 -2.936290 -9.065956 -2.098125 0.769114 -1.681450
    36 12.706341 0.000001 0.000000 -0.118889 0.281825 -1.229036
    37 0.000000 0.000000 0.000001 0.000000 0.000000 0.000000
    38 1.200000 0.000000 0.000000 0.000000 0.000000 0.000000
    39 0.000001 -0.300000 0.000000 -3.141593 0.000000 -0.174533
    40 0.000000 0.000000 0.000000 0.000000 0.000000 0.000000
    41 -0.000001 0.000000 0.000000 -3.141593 0.000000 0.000000
    42 0.000001 0.000000 0.000001 0.000000 0.000000 0.349066
    43 0.000000 0.000000 0.000000 -3.141593 0.000000 0.000000
    44 0.000000 -0.000001 0.000000 -3.141593 0.000000 0.000000
    45 0.000001 0.000000 0.000000 -3.141593 0.000000 0.000000
    46 0.000000 -0.000001 0.000000 -3.141593 0.000000 0.000000
    47 0.000000 0.000002 0.000000 -3.141593 0.000000 0.000000
    48 0.000000 0.000000 0.000000 -3.141593 0.000000 0.000000
    49 0.000001 0.000000 0.000000 -3.141593 0.000000 0.000000
    50 0.000000 0.000002 0.000000 -3.141593 0.000000 0.000000
    51 0.000000 -0.000002 0.000000 -3.141593 0.000000 0.000000
    52 0.000001 0.000000 0.000000 -3.141593 0.000000 0.000000
    53 0.000000 0.000000 0.000000 -3.141593 0.000000 0.000000
    54 0.000000 0.000000 0.000000 -1.570796 0.000000 0.000000
    55 0.000000 0.000000 0.000000 0.000000 0.000000 0.000000
    56 1.200001 0.000000 0.000000 0.000000 0.000000 0.000000
    57 0.000000 0.300000 0.000000 0.000000 0.000000 0.174533
    58 0.000000 0.000000 -0.000001 0.000000 0.000000 0.000000
    59 0.000001 0.000000 0.000000 -3.141593 0.000000 0.000000
    60 0.000000 0.000000 0.000000 0.000000 0.000000 0.349066
    61 0.000000 0.000000 0.000000 0.000000 0.000000 0.000000
    62 -0.000001 0.000000 0.000000 0.000000 0.000000 0.000000
    63 0.000001 0.000000 0.000000 0.000000 0.000000 0.000000
    64 0.000000 0.000000 0.000000 0.000000 0.000000 0.000000
    65 0.000000 0.000000 0.000000 0.000000 0.000000 0.000000
    66 0.000000 0.000000 0.000000 0.000000 0.000000 0.000000
    67 0.000000 -0.000002 0.000000 0.000000 0.000000 0.000000
    68 0.000000 0.000000 0.000000 0.000000 0.000000 0.000000
    69 0.000000 0.000000 0.000000 0.000000 0.000000 0.000000
    70 0.000000 0.000000 0.000000 0.000000 0.000000 0.000000
    71 0.000000 -0.000002 0.000000 0.000000 0.000000 0.000000
    72 0.000000 0.000000 0.000000 -1.570796 0.000000 0.000000
  time 15
    0 -9.589026 -26.588307 -5.640930 0.252053 -1.492156 2.845070
    1 4.785156 -17.703125 -23.156250 -2.282634 0.765599 -1.730061
    2 1.473661 0.639422 -1.295233 2.123499 0.734169 0.670777
    3 1.832608 0.000002 0.000000 3.110045 0.047490 0.758065
    4 1.003329 0.000000 0.000001 -3.040060 -0.014406 -0.167805
    5 3.823887 -0.419591 -1.411516 0.374201 0.211205 0.435260
    6 2.187963 0.000000 0.000000 -0.025371 -0.118763 0.373851
    7 1.100956 -0.000002 0.000000 0.056981 -0.085090 0.256395
    8 3.987879 -0.577437 -0.474708 0.218109 0.079349 0.376932
    9 1.890101 -0.000003 0.000000 0.070153 -0.155442 0.431101
    10 1.310922 0.000002 0.000000 0.022870 0.076654 0.411714
    11 4.117971 -0.654518 0.453699 0.105788 -0.175952 0.516342
    12 1.655286 0.000000 0.000000 -0.108110 0.088915 0.447091
    13 0.869586 0.000008 0.000000 0.057673 -0.031831 0.217996
    14 4.150646 -0.581580 1.354867 -0.297435 -0.233578 0.643110
    15 1.157243 -0.000002 0.000000 0.034842 0.039183 0.490097
    16 1.019837 -0.000002 0.000000 -1.467663 -0.051050 0.396031
    17 5.000000 -3.345703 -4.820313 -0.701592 1.191411 -0.927544
    18 12.695426 0.000001 0.000002 -0.018018 0.219877 -0.818453
    19 -9.613672 -23.498645 -12.290496 3.249217 -0.111181 -1.621029
    20 1.474217 -0.497913 -1.376119 0.945680 0.413346 -0.662993
    21 1.832175 -0.000001 0.000001 -2.551366 -0.431934 0.492508
    22 1.042031 0.000000 -0.000002 -2.702781 -0.329304 -0.389604
    23 3.828125 0.623047 -1.324219 -0.024298 -0.114327 -1.089400
    24 2.152370 0.000002 0.000000 -0.047431 0.103996 -1.361217
    25 1.056621 -0.000002 0.000000 0.190904 0.078321 -1.088534
    26 3.990234 0.902344 -0.376953 0.126657 -0.044022 -1.088904
    27 1.830173 0.000000 0.000000 0.107756 0.011545 -1.328421
    28 1.561353 0.000002 0.000000 0.108642 -0.073203 -1.348440
    29 4.116521 0.726916 0.551868 0.102895 0.105902 -1.592375
    30 1.752731 0.000000 0.000000 -0.035048 -0.041300 -0.636687
    31 0.869359 -0.000002 0.000000 -0.048956 0.259083 -1.365561
    32 4.118825 0.331242 1.419828 0.145379 0.226208 -1.714317
    33 1.176323 0.000000 0.000000 0.228831 -0.081528 -0.450932
    34 0.970203 -0.000002 0.000000 1.664450 0.071976 -1.259838
    35 -10.008454 -2.936290 -9.065956 -2.086072 0.767884 -1.678897
    36 12.706341 0.000001 0.000000 -0.117020 0.281178 -1.222270
    37 0.000000 0.000000 0.000001 0.000000 0.000000 0.000000
    38 1.200000 0.000000 0.000000 0.000000 0.000000 0.000000
    39 0.000001 -0.300000 0.000000 -3.141593 0.000000 -0.174533
    40 0.000000 0.000000 0.000000 0.000000 0.000000 0.000000
    41 -0.000001 0.000000 0.000000 -3.141593 0.000000 0.000000
    42 0.000001 0.000000 0.000001 0.000000 0.000000 0.349066
    43 0.000000 0.000000 0.000000 -3.141593 0.000000 0.000000
    44 0.000000 -0.000001 0.000000 -3.141593 0.000000 0.000000
    45 0.000001 0.000000 0.000000 -3.141593 0.000000 0.000000
    46 0.000000 -0.000001 0.000000 -3.141593 0.000000 0.000000
    47 0.000000 0.000002 0.000000 -3.141593 0.000000 0.000000
    48 0.000000 0.000000 0.000000 -3.141593 0.000000 0.000000
    49 0.000001 0.000000 0.000000 -3.141593 0.000000 0.000000
    50 0.000000 0.000002 0.000000 -3.141593 0.000000 0.000000
    51 0.000000 -0.000002 0.000000 -3.141593 0.000000 0.000000
    52 0.000001 0.000000 0.000000 -3.141593 0.000000 0.000000
    53 0.000000 0.000000 0.000000 -3.141593 0.000000 0.000000
    54 0.000000 0.000000 0.000000 -1.570796 0.000000 0.000000
    55 0.000000 0.000000 0.000000 0.000000 0.000000 0.000000
    56 1.200001 0.000000 0.000000 0.000000 0.000000 0.000000
    57 0.000000 0.300000 0.000000 0.000000 0.000000 0.174533
    58 0.000000 0.000000 -0.000001 0.000000 0.000000 0.000000
    59 0.000001 0.000000 0.000000 -3.141593 0.000000 0.000000
    60 0.000000 0.000000 0.000000 0.000000 0.000000 0.349066
    61 0.000000 0.000000 0.000000 0.000000 0.000000 0.000000
    62 -0.000001 0.000000 0.000000 0.000000 0.000000 0.000000
    63 0.000001 0.000000 0.000000 0.000000 0.000000 0.000000
    64 0.000000 0.000000 0.000000 0.000000 0.000000 0.000000
    65 0.000000 0.000000 0.000000 0.000000 0.000000 0.000000
    66 0.000000 0.000000 0.000000 0.000000 0.000000 0.000000
    67 0.000000 -0.000002 0.000000 0.000000 0.000000 0.000000
    68 0.000000 0.000000 0.000000 0.000000 0.000000 0.000000
    69 0.000000 0.000000 0.000000 0.000000 0.000000 0.000000
    70 0.000000 0.000000 0.000000 0.000000 0.000000 0.000000
    71 0.000000 -0.000002 0.000000 0.000000 0.000000 0.000000
    72 0.000000 0.000000 0.000000 -1.570796 0.000000 0.000000
  time 16
    0 -9.631996 -26.596120 -5.652649 0.307243 -1.497194 2.781246
    1 4.785156 -17.703125 -23.156250 -2.282634 0.765599 -1.730061
    2 1.473661 0.639422 -1.295233 2.123499 0.734169 0.670777
    3 1.832608 0.000002 0.000000 3.110045 0.047490 0.758065
    4 1.003329 0.000000 0.000001 -3.040060 -0.014406 -0.167805
    5 3.823887 -0.419591 -1.411516 0.374201 0.211205 0.435260
    6 2.187963 0.000000 0.000000 -0.025371 -0.118763 0.373851
    7 1.100956 -0.000002 0.000000 0.056981 -0.085090 0.256395
    8 3.987879 -0.577437 -0.474708 0.218109 0.079349 0.376932
    9 1.890101 -0.000003 0.000000 0.070153 -0.155442 0.431101
    10 1.310922 0.000002 0.000000 0.022870 0.076654 0.411714
    11 4.117971 -0.654518 0.453699 0.105788 -0.175952 0.516342
    12 1.655286 0.000000 0.000000 -0.108110 0.088915 0.447091
    13 0.869586 0.000008 0.000000 0.057673 -0.031831 0.217996
    14 4.150646 -0.581580 1.354867 -0.297435 -0.233578 0.643110
    15 1.157243 -0.000002 0.000000 0.034842 0.039183 0.490097
    16 1.019837 -0.000002 0.000000 -1.467663 -0.051050 0.396031
    17 5.000000 -3.345703 -4.820313 -0.701592 1.191411 -0.927544
    18 12.695426 0.000001 0.000002 -0.018018 0.219877 -0.818453
    19 -9.668362 -23.529896 -12.313934 3.243193 -0.113802 -1.629194
    20 1.474217 -0.497913 -1.376119 0.945680 0.413346 -0.662993
    21 1.832175 -0.000001 0.000001 -2.551366 -0.431934 0.492508
    22 1.042031 0.000000 -0.000002 -2.702781 -0.329304 -0.389604
    23 3.828125 0.623047 -1.324219 -0.024298 -0.114327 -1.089400
    24 2.152370 0.000002 0.000000 -0.047431 0.103996 -1.361217
    25 1.056621 -0.000002 0.000000 0.190904 0.078321 -1.088534
    26 3.990234 0.902344 -0.376953 0.126657 -0.044022 -1.088904
    27 1.830173 0.000000 0.000000 0.107756 0.011545 -1.328421
    28 1.561353 0.000002 0.000000 0.108642 -0.073203 -1.348440
    29 4.116521 0.726916 0.551868 0.102895 0.105902 -1.592375
    30 1.752731 0.000000 0.000000 -0.035048 -0.041300 -0.636687
    31 0.869359 -0.000002 0.000000 -0.048956 0.259083 -1.365561
    32 4.118825 0.331242 1.419828 0.145379 0.226208 -1.714317
    33 1.176323 0.000000 0.000000 0.228831 -0.081528 -0.450932
    34 0.970203 -0.000002 0.000000 1.664450 0.071976 -1.259838
    35 -10.008454 -2.936290 -9.065956 -2.079466 0.767089 -1.677472
    36 12.706341 0.000001 0.000000 -0.115821 0.280746 -1.218027
    37 0.000000 0.000000 0.000001 0.000000 0.000000 0.000000
    38 1.200000 0.000000 0.000000 0.000000 0.000000 0.000000
    39 0.000001 -0.300000 0.000000 -3.141593 0.000000 -0.174533
    40 0.000000 0.000000 0.000000 0.000000 0.000000 0.000000
    41 -0.000001 0.000000 0.000000 -3.141593 0.000000 0.000000
    42 0.000001 0.000000 0.000001 0.000000 0.000000 0.349066
    43 0.000000 0.000000 0.000000 -3.141593 0.000000 0.000000
    44 0.000000 -0.000001 0.000000 -3.141593 0.000000 0.000000
    45 0.000001 0.000000 0.000000 -3.141593 0.000000 0.000000
    46 0.000000 -0.000001 0.000000 -3.141593 0.000000 0.000000
    47 0.000000 0.000002 0.000000 -3.141593 0.000000 0.000000
    48 0.000000 0.000000 0.000000 -3.141593 0.000000 0.000000
    49 0.000001 0.000000 0.000000 -3.141593 0.000000 0.000000
    50 0.000000 0.000002 0.000000 -3.141593 0.000000 0.000000
    51 0.000000 -0.000002 0.000000 -3.141593 0.000000 0.000000
    52 0.000001 0.000000 0.000000 -3.141593 0.000000 0.000000
    53 0.000000 0.000000 0.000000 -3.141593 0.000000 0.000000
    54 0.000000 0.000000 0.000000 -1.570796 0.000000 0.000000
    55 0.000000 0.000000 0.000000 0.000000 0.000000 0.000000
    56 1.200001 0.000000 0.000000 0.000000 0.000000 0.000000
    57 0.000000 0.300000 0.000000 0.000000 0.000000 0.174533
    58 0.000000 0.000000 -0.000001 0.000000 0.000000 0.000000
    59 0.000001 0.000000 0.000000 -3.141593 0.000000 0.000000
    60 0.000000 0.000000 0.000000 0.000000 0.000000 0.349066
    61 0.000000 0.000000 0.000000 0.000000 0.000000 0.000000
    62 -0.000001 0.000000 0.000000 0.000000 0.000000 0.000000
    63 0.000001 0.000000 0.000000 0.000000 0.000000 0.000000
    64 0.000000 0.000000 0.000000 0.000000 0.000000 0.000000
    65 0.000000 0.000000 0.000000 0.000000 0.000000 0.000000
    66 0.000000 0.000000 0.000000 0.000000 0.000000 0.000000
    67 0.000000 -0.000002 0.000000 0.000000 0.000000 0.000000
    68 0.000000 0.000000 0.000000 0.000000 0.000000 0.000000
    69 0.000000 0.000000 0.000000 0.000000 0.000000 0.000000
    70 0.000000 0.000000 0.000000 0.000000 0.000000 0.000000
    71 0.000000 -0.000002 0.000000 0.000000 0.000000 0.000000
    72 0.000000 0.000000 0.000000 -1.570796 0.000000 0.000000
  time 17
    0 -9.651528 -26.611745 -5.660462 0.332182 -1.499988 2.752209
    1 4.785156 -17.703125 -23.156250 -2.282634 0.765599 -1.730061
    2 1.473661 0.639422 -1.295233 2.123499 0.734169 0.670777
    3 1.832608 0.000002 0.000000 3.110045 0.047490 0.758065
    4 1.003329 0.000000 0.000001 -3.040060 -0.014406 -0.167805
    5 3.823887 -0.419591 -1.411516 0.374201 0.211205 0.435260
    6 2.187963 0.000000 0.000000 -0.025371 -0.118763 0.373851
    7 1.100956 -0.000002 0.000000 0.056981 -0.085090 0.256395
    8 3.987879 -0.577437 -0.474708 0.218109 0.079349 0.376932
    9 1.890101 -0.000003 0.000000 0.070153 -0.155442 0.431101
    10 1.310922 0.000002 0.000000 0.022870 0.076654 0.411714
    11 4.117971 -0.654518 0.453699 0.105788 -0.175952 0.516342
    12 1.655286 0.000000 0.000000 -0.108110 0.088915 0.447091
    13 0.869586 0.000008 0.000000 0.057673 -0.031831 0.217996
    14 4.150646 -0.581580 1.354867 -0.297435 -0.233578 0.643110
    15 1.157243 -0.000002 0.000000 0.034842 0.039183 0.490097
    16 1.019837 -0.000002 0.000000 -1.467663 -0.051050 0.396031
    17 5.000000 -3.345703 -4.820313 -0.701592 1.191411 -0.927544
    18 12.695426 0.000001 0.000002 -0.018018 0.219877 -0.818453
    19 -9.691800 -23.541615 -12.321747 3.239907 -0.114676 -1.632890
    20 1.474217 -0.497913 -1.376119 0.945680 0.413346 -0.662993
    21 1.832175 -0.000001 0.000001 -2.551366 -0.431934 0.492508
    22 1.042031 0.000000 -0.000002 -2.702781 -0.329304 -0.389604
    23 3.828125 0.623047 -1.324219 -0.024298 -0.114327 -1.089400
    24 2.152370 0.000002 0.000000 -0.047431 0.103996 -1.361217
    25 1.056621 -0.000002 0.000000 0.190904 0.078321 -1.088534
    26 3.990234 0.902344 -0.376953 0.126657 -0.044022 -1.088904
    27 1.830173 0.000000 0.000000 0.107756 0.011545 -1.328421
    28 1.561353 0.000002 0.000000 0.108642 -0.073203 -1.348440
    29 4.116521 0.723009 0.551868 0.102895 0.105902 -1.592375
    30 1.752731 0.000000 0.000000 -0.035048 -0.041300 -0.636687
    31 0.869359 -0.000002 0.000000 -0.048956 0.259083 -1.365561
    32 4.118825 0.331242 1.419828 0.145379 0.226208 -1.714317
    33 1.176323 0.000000 0.000000 0.228831 -0.081528 -0.450932
    34 0.970203 -0.000002 0.000000 1.664450 0.071976 -1.259838
    35 -10.008454 -2.936290 -9.065956 -2.076947 0.766655 -1.676938
    36 12.706341 0.000001 0.000000 -0.115246 0.280555 -1.215848
    37 0.000000 0.000000 0.000001 0.000000 0.000000 0.000000
    38 1.200000 0.000000 0.000000 0.000000 0.000000 0.000000
    39 0.000001 -0.300000 0.000000 -3.141593 0.000000 -0.174533
    40 0.000000 0.000000 0.000000 0.000000 0.000000 0.000000
    41 -0.000001 0.000000 0.000000 -3.141593 0.000000 0.000000
    42 0.000001 0.000000 0.000001 0.000000 0.000000 0.349066
    43 0.000000 0.000000 0.000000 -3.141593 0.000000 0.000000
    44 0.000000 -0.000001 0.000000 -3.141593 0.000000 0.000000
    45 0.000001 0.000000 0.000000 -3.141593 0.000000 0.000000
    46 0.000000 -0.000001 0.000000 -3.141593 0.000000 0.000000
    47 0.000000 0.000002 0.000000 -3.141593 0.000000 0.000000
    48 0.000000 0.000000 0.000000 -3.141593 0.000000 0.000000
    49 0.000001 0.000000 0.000000 -3.141593 0.000000 0.000000
    50 0.000000 0.000002 0.000000 -3.141593 0.000000 0.000000
    51 0.000000 -0.000002 0.000000 -3.141593 0.000000 0.000000
    52 0.000001 0.000000 0.000000 -3.141593 0.000000 0.000000
    53 0.000000 0.000000 0.000000 -3.141593 0.000000 0.000000
    54 0.000000 0.000000 0.000000 -1.570796 0.000000 0.000000
    55 0.000000 0.000000 0.000000 0.000000 0.000000 0.000000
    56 1.200001 0.000000 0.000000 0.000000 0.000000 0.000000
    57 0.000000 0.300000 0.000000 0.000000 0.000000 0.174533
    58 0.000000 0.000000 -0.000001 0.000000 0.000000 0.000000
    59 0.000001 0.000000 0.000000 -3.141593 0.000000 0.000000
    60 0.000000 0.000000 0.000000 0.000000 0.000000 0.349066
    61 0.000000 0.000000 0.000000 0.000000 0.000000 0.000000
    62 -0.000001 0.000000 0.000000 0.000000 0.000000 0.000000
    63 0.000001 0.000000 0.000000 0.000000 0.000000 0.000000
    64 0.000000 0.000000 0.000000 0.000000 0.000000 0.000000
    65 0.000000 0.000000 0.000000 0.000000 0.000000 0.000000
    66 0.000000 0.000000 0.000000 0.000000 0.000000 0.000000
    67 0.000000 -0.000002 0.000000 0.000000 0.000000 0.000000
    68 0.000000 0.000000 0.000000 0.000000 0.000000 0.000000
    69 0.000000 0.000000 0.000000 0.000000 0.000000 0.000000
    70 0.000000 0.000000 0.000000 0.000000 0.000000 0.000000
    71 0.000000 -0.000002 0.000000 0.000000 0.000000 0.000000
    72 0.000000 0.000000 0.000000 -1.570796 0.000000 0.000000
  time 18
    0 -9.651528 -26.615652 -5.660462 0.337967 -1.500766 2.745405
    1 4.785156 -17.703125 -23.156250 -2.282634 0.765599 -1.730061
    2 1.473661 0.639422 -1.295233 2.123499 0.734169 0.670777
    3 1.832608 0.000002 0.000000 3.110045 0.047490 0.758065
    4 1.003329 0.000000 0.000001 -3.040060 -0.014406 -0.167805
    5 3.823887 -0.419591 -1.411516 0.374201 0.211205 0.435260
    6 2.187963 0.000000 0.000000 -0.025371 -0.118763 0.373851
    7 1.100956 -0.000002 0.000000 0.056981 -0.085090 0.256395
    8 3.987879 -0.577437 -0.474708 0.218109 0.079349 0.376932
    9 1.890101 -0.000003 0.000000 0.070153 -0.155442 0.431101
    10 1.310922 0.000002 0.000000 0.022870 0.076654 0.411714
    11 4.117971 -0.654518 0.453699 0.105788 -0.175952 0.516342
    12 1.655286 0.000000 0.000000 -0.108110 0.088915 0.447091
    13 0.869586 0.000008 0.000000 0.057673 -0.031831 0.217996
    14 4.150646 -0.581580 1.354867 -0.297435 -0.233578 0.643110
    15 1.157243 -0.000002 0.000000 0.034842 0.039183 0.490097
    16 1.019837 -0.000002 0.000000 -1.467663 -0.051050 0.396031
    17 5.000000 -3.345703 -4.820313 -0.701592 1.191411 -0.927544
    18 12.695426 0.000001 0.000002 -0.018018 0.219877 -0.818453
    19 -9.695706 -23.545521 -12.321747 3.238973 -0.114796 -1.633922
    20 1.474217 -0.497913 -1.376119 0.945680 0.413346 -0.662993
    21 1.832175 -0.000001 0.000001 -2.551366 -0.431934 0.492508
    22 1.042031 0.000000 -0.000002 -2.702781 -0.329304 -0.389604
    23 3.828125 0.623047 -1.324219 -0.024298 -0.114327 -1.089400
    24 2.152370 0.000002 0.000000 -0.047431 0.103996 -1.361217
    25 1.056621 -0.000002 0.000000 0.190904 0.078321 -1.088534
    26 3.990234 0.902344 -0.376953 0.126657 -0.044022 -1.088904
    27 1.830173 0.000000 0.000000 0.107756 0.011545 -1.328421
    28 1.561353 0.000002 0.000000 0.108642 -0.073203 -1.348440
    29 4.116521 0.726916 0.551868 0.102895 0.105902 -1.592375
    30 1.752731 0.000000 0.000000 -0.035048 -0.041300 -0.636687
    31 0.869359 -0.000002 0.000000 -0.048956 0.259083 -1.365561
    32 4.118825 0.331242 1.419828 0.145379 0.226208 -1.714317
    33 1.176323 0.000000 0.000000 0.228831 -0.081528 -0.450932
    34 0.970203 -0.000002 0.000000 1.664450 0.071976 -1.259838
    35 -10.008454 -2.936290 -9.065956 -2.076402 0.766510 -1.676938
    36 12.706341 0.000001 0.000000 -0.115090 0.280507 -1.215332
    37 0.000000 0.000000 0.000001 0.000000 0.000000 0.000000
    38 1.200000 0.000000 0.000000 0.000000 0.000000 0.000000
    39 0.000001 -0.300000 0.000000 -3.141593 0.000000 -0.174533
    40 0.000000 0.000000 0.000000 0.000000 0.000000 0.000000
    41 -0.000001 0.000000 0.000000 -3.141593 0.000000 0.000000
    42 0.000001 0.000000 0.000001 0.000000 0.000000 0.349066
    43 0.000000 0.000000 0.000000 -3.141593 0.000000 0.000000
    44 0.000000 -0.000001 0.000000 -3.141593 0.000000 0.000000
    45 0.000001 0.000000 0.000000 -3.141593 0.000000 0.000000
    46 0.000000 -0.000001 0.000000 -3.141593 0.000000 0.000000
    47 0.000000 0.000002 0.000000 -3.141593 0.000000 0.000000
    48 0.000000 0.000000 0.000000 -3.141593 0.000000 0.000000
    49 0.000001 0.000000 0.000000 -3.141593 0.000000 0.000000
    50 0.000000 0.000002 0.000000 -3.141593 0.000000 0.000000
    51 0.000000 -0.000002 0.000000 -3.141593 0.000000 0.000000
    52 0.000001 0.000000 0.000000 -3.141593 0.000000 0.000000
    53 0.000000 0.000000 0.000000 -3.141593 0.000000 0.000000
    54 0.000000 0.000000 0.000000 -1.570796 0.000000 0.000000
    55 0.000000 0.000000 0.000000 0.000000 0.000000 0.000000
    56 1.200001 0.000000 0.000000 0.000000 0.000000 0.000000
    57 0.000000 0.300000 0.000000 0.000000 0.000000 0.174533
    58 0.000000 0.000000 -0.000001 0.000000 0.000000 0.000000
    59 0.000001 0.000000 0.000000 -3.141593 0.000000 0.000000
    60 0.000000 0.000000 0.000000 0.000000 0.000000 0.349066
    61 0.000000 0.000000 0.000000 0.000000 0.000000 0.000000
    62 -0.000001 0.000000 0.000000 0.000000 0.000000 0.000000
    63 0.000001 0.000000 0.000000 0.000000 0.000000 0.000000
    64 0.000000 0.000000 0.000000 0.000000 0.000000 0.000000
    65 0.000000 0.000000 0.000000 0.000000 0.000000 0.000000
    66 0.000000 0.000000 0.000000 0.000000 0.000000 0.000000
    67 0.000000 -0.000002 0.000000 0.000000 0.000000 0.000000
    68 0.000000 0.000000 0.000000 0.000000 0.000000 0.000000
    69 0.000000 0.000000 0.000000 0.000000 0.000000 0.000000
    70 0.000000 0.000000 0.000000 0.000000 0.000000 0.000000
    71 0.000000 -0.000002 0.000000 0.000000 0.000000 0.000000
    72 0.000000 0.000000 0.000000 -1.570796 0.000000 0.000000
end
