"canvas"
{
	"cfmt_version"		"canvasver#003"
	"flowgraph_type"		"1"
	"config"
	{
		"shadermodel"		"1"
		"cull_mode"		"0"
		"alpha_blending"		"0"
		"depth_test"		"1"
		"depth_write"		"1"
		"srgb_write"		"1"
	}
	"Nodes"
	{
		"Node_000"
		{
			"iType"		"75"
			"pos_x"		"-196.710205"
			"pos_y"		"-1098.514526"
			"size_x"		"80.000000"
			"size_y"		"-17.000000"
			"iPreview"		"0"
		}
		"Node_001"
		{
			"iType"		"19"
			"pos_x"		"-56.518372"
			"pos_y"		"-1030.090332"
			"size_x"		"91.000000"
			"size_y"		"-80.000000"
			"iPreview"		"1"
			"bridges"
			{
				"jackIn_00"
				{
					"iTarget_node"		"104"
					"iTarget_jack"		"0"
				}
				"jackIn_01"
				{
					"iTarget_node"		"0"
					"iTarget_jack"		"0"
				}
			}
			"i_mat_rotation"		"0"
		}
		"Node_002"
		{
			"iType"		"70"
			"pos_x"		"753.508606"
			"pos_y"		"-1626.157104"
			"size_x"		"59.000000"
			"size_y"		"-17.000000"
			"iPreview"		"0"
			"flSmartVal0"		"0.000000"
		}
		"Node_003"
		{
			"iType"		"7"
			"pos_x"		"644.590515"
			"pos_y"		"-1630.190796"
			"size_x"		"69.000000"
			"size_y"		"-50.000000"
			"iPreview"		"1"
			"flSmartVal0"		"0.000000"
		}
		"Node_004"
		{
			"iType"		"27"
			"pos_x"		"623.420959"
			"pos_y"		"-1827.510376"
			"size_x"		"124.000000"
			"size_y"		"-80.000000"
			"iPreview"		"1"
			"bridges"
			{
				"jackIn_00"
				{
					"iTarget_node"		"7"
					"iTarget_jack"		"0"
				}
			}
			"swizzleString"		"x y z 1"
		}
		"Node_005"
		{
			"iType"		"72"
			"pos_x"		"935.423645"
			"pos_y"		"-1818.350220"
			"size_x"		"130.000000"
			"size_y"		"-80.000000"
			"iPreview"		"1"
			"bridges"
			{
				"jackIn_00"
				{
					"iTarget_node"		"4"
					"iTarget_jack"		"0"
				}
				"jackIn_01"
				{
					"iTarget_node"		"99"
					"iTarget_jack"		"0"
				}
				"jackIn_02"
				{
					"iTarget_node"		"6"
					"iTarget_jack"		"0"
				}
			}
			"i_final_tonemap"		"1"
			"i_final_wdepth"		"1"
		}
		"Node_006"
		{
			"iType"		"27"
			"pos_x"		"744.712952"
			"pos_y"		"-1769.171509"
			"size_x"		"80.000000"
			"size_y"		"-17.000000"
			"iPreview"		"0"
			"bridges"
			{
				"jackIn_00"
				{
					"iTarget_node"		"90"
					"iTarget_jack"		"0"
				}
			}
			"swizzleString"		"z"
		}
		"Node_007"
		{
			"iType"		"19"
			"pos_x"		"445.182526"
			"pos_y"		"-1830.886597"
			"size_x"		"91.000000"
			"size_y"		"-80.000000"
			"iPreview"		"1"
			"bridges"
			{
				"jackIn_00"
				{
					"iTarget_node"		"37"
					"iTarget_jack"		"0"
				}
				"jackIn_01"
				{
					"iTarget_node"		"94"
					"iTarget_jack"		"0"
				}
			}
			"i_mat_rotation"		"0"
		}
		"Node_008"
		{
			"iType"		"17"
			"pos_x"		"-195.430313"
			"pos_y"		"154.320465"
			"size_x"		"80.000000"
			"size_y"		"-28.000000"
			"iPreview"		"1"
			"bridges"
			{
				"jackIn_00"
				{
					"iTarget_node"		"43"
					"iTarget_jack"		"0"
				}
				"jackIn_01"
				{
					"iTarget_node"		"50"
					"iTarget_jack"		"6"
				}
			}
		}
		"Node_009"
		{
			"iType"		"23"
			"pos_x"		"-1063.938477"
			"pos_y"		"-436.916229"
			"size_x"		"91.000000"
			"size_y"		"-80.000000"
			"iPreview"		"1"
			"bridges"
			{
				"jackIn_00"
				{
					"iTarget_node"		"58"
					"iTarget_jack"		"0"
				}
				"jackIn_01"
				{
					"iTarget_node"		"42"
					"iTarget_jack"		"1"
				}
			}
		}
		"Node_010"
		{
			"iType"		"23"
			"pos_x"		"-1068.266357"
			"pos_y"		"-540.778015"
			"size_x"		"91.000000"
			"size_y"		"-80.000000"
			"iPreview"		"1"
			"bridges"
			{
				"jackIn_00"
				{
					"iTarget_node"		"58"
					"iTarget_jack"		"0"
				}
				"jackIn_01"
				{
					"iTarget_node"		"42"
					"iTarget_jack"		"2"
				}
			}
		}
		"Node_011"
		{
			"iType"		"19"
			"pos_x"		"-594.653809"
			"pos_y"		"-490.616608"
			"size_x"		"91.000000"
			"size_y"		"-80.000000"
			"iPreview"		"1"
			"bridges"
			{
				"jackIn_00"
				{
					"iTarget_node"		"24"
					"iTarget_jack"		"0"
				}
				"jackIn_01"
				{
					"iTarget_node"		"24"
					"iTarget_jack"		"0"
				}
			}
			"i_mat_rotation"		"0"
		}
		"Node_012"
		{
			"iType"		"26"
			"pos_x"		"-754.523193"
			"pos_y"		"-383.833893"
			"size_x"		"91.000000"
			"size_y"		"-80.000000"
			"iPreview"		"1"
			"bridges"
			{
				"jackIn_00"
				{
					"iTarget_node"		"22"
					"iTarget_jack"		"0"
				}
				"jackIn_01"
				{
					"iTarget_node"		"23"
					"iTarget_jack"		"0"
				}
			}
		}
		"Node_013"
		{
			"iType"		"29"
			"pos_x"		"-415.631012"
			"pos_y"		"-373.722748"
			"size_x"		"122.000000"
			"size_y"		"-80.000000"
			"iPreview"		"1"
			"bridges"
			{
				"jackIn_00"
				{
					"iTarget_node"		"33"
					"iTarget_jack"		"0"
				}
			}
			"iSRGB"		"0"
			"iTextureType"		"4"
			"IsCubemap"		"0"
			"iLookupoverride"		"0"
			"szDemoTexturePath"		"Dev\bump"
			"szFallbackTexturePath"		"Lights\White"
			"iFallbackMode"		"0"
		}
		"Node_014"
		{
			"iType"		"29"
			"pos_x"		"-414.728546"
			"pos_y"		"-476.595612"
			"size_x"		"122.000000"
			"size_y"		"-80.000000"
			"iPreview"		"1"
			"bridges"
			{
				"jackIn_00"
				{
					"iTarget_node"		"103"
					"iTarget_jack"		"4"
				}
			}
			"iSRGB"		"0"
			"iTextureType"		"4"
			"IsCubemap"		"0"
			"iLookupoverride"		"0"
			"szDemoTexturePath"		"Dev\bump"
			"szFallbackTexturePath"		"Lights\White"
			"iFallbackMode"		"0"
		}
		"Node_015"
		{
			"iType"		"27"
			"pos_x"		"-566.974243"
			"pos_y"		"-343.340485"
			"size_x"		"80.000000"
			"size_y"		"-17.000000"
			"iPreview"		"0"
			"bridges"
			{
				"jackIn_00"
				{
					"iTarget_node"		"103"
					"iTarget_jack"		"1"
				}
			}
			"swizzleString"		"xy"
		}
		"Node_016"
		{
			"iType"		"27"
			"pos_x"		"-394.948639"
			"pos_y"		"-590.862610"
			"size_x"		"80.000000"
			"size_y"		"-17.000000"
			"iPreview"		"0"
			"bridges"
			{
				"jackIn_00"
				{
					"iTarget_node"		"11"
					"iTarget_jack"		"0"
				}
			}
			"swizzleString"		"x"
		}
		"Node_017"
		{
			"iType"		"27"
			"pos_x"		"-388.216217"
			"pos_y"		"-635.082581"
			"size_x"		"80.000000"
			"size_y"		"-17.000000"
			"iPreview"		"0"
			"bridges"
			{
				"jackIn_00"
				{
					"iTarget_node"		"11"
					"iTarget_jack"		"0"
				}
			}
			"swizzleString"		"y"
		}
		"Node_018"
		{
			"iType"		"27"
			"pos_x"		"-390.140411"
			"pos_y"		"-683.180481"
			"size_x"		"80.000000"
			"size_y"		"-17.000000"
			"iPreview"		"0"
			"bridges"
			{
				"jackIn_00"
				{
					"iTarget_node"		"11"
					"iTarget_jack"		"0"
				}
			}
			"swizzleString"		"z"
		}
		"Node_019"
		{
			"iType"		"19"
			"pos_x"		"-161.960602"
			"pos_y"		"-387.228058"
			"size_x"		"91.000000"
			"size_y"		"-80.000000"
			"iPreview"		"1"
			"bridges"
			{
				"jackIn_00"
				{
					"iTarget_node"		"13"
					"iTarget_jack"		"1"
				}
				"jackIn_01"
				{
					"iTarget_node"		"17"
					"iTarget_jack"		"0"
				}
			}
			"i_mat_rotation"		"0"
		}
		"Node_020"
		{
			"iType"		"19"
			"pos_x"		"-159.075714"
			"pos_y"		"-498.778900"
			"size_x"		"91.000000"
			"size_y"		"-80.000000"
			"iPreview"		"1"
			"bridges"
			{
				"jackIn_00"
				{
					"iTarget_node"		"14"
					"iTarget_jack"		"1"
				}
				"jackIn_01"
				{
					"iTarget_node"		"18"
					"iTarget_jack"		"0"
				}
			}
			"i_mat_rotation"		"0"
		}
		"Node_021"
		{
			"iType"		"23"
			"pos_x"		"-1062.441406"
			"pos_y"		"-333.783966"
			"size_x"		"91.000000"
			"size_y"		"-80.000000"
			"iPreview"		"1"
			"bridges"
			{
				"jackIn_00"
				{
					"iTarget_node"		"58"
					"iTarget_jack"		"0"
				}
				"jackIn_01"
				{
					"iTarget_node"		"42"
					"iTarget_jack"		"0"
				}
			}
		}
		"Node_022"
		{
			"iType"		"60"
			"pos_x"		"-915.271729"
			"pos_y"		"-335.673615"
			"size_x"		"93.000000"
			"size_y"		"-80.000000"
			"iPreview"		"1"
			"bridges"
			{
				"jackIn_00"
				{
					"iTarget_node"		"21"
					"iTarget_jack"		"0"
				}
			}
		}
		"Node_023"
		{
			"iType"		"60"
			"pos_x"		"-914.173828"
			"pos_y"		"-439.988922"
			"size_x"		"93.000000"
			"size_y"		"-80.000000"
			"iPreview"		"1"
			"bridges"
			{
				"jackIn_00"
				{
					"iTarget_node"		"9"
					"iTarget_jack"		"0"
				}
			}
		}
		"Node_024"
		{
			"iType"		"26"
			"pos_x"		"-755.468018"
			"pos_y"		"-497.502289"
			"size_x"		"91.000000"
			"size_y"		"-80.000000"
			"iPreview"		"1"
			"bridges"
			{
				"jackIn_00"
				{
					"iTarget_node"		"12"
					"iTarget_jack"		"0"
				}
				"jackIn_01"
				{
					"iTarget_node"		"25"
					"iTarget_jack"		"0"
				}
			}
		}
		"Node_025"
		{
			"iType"		"60"
			"pos_x"		"-906.487305"
			"pos_y"		"-547.598328"
			"size_x"		"93.000000"
			"size_y"		"-80.000000"
			"iPreview"		"1"
			"bridges"
			{
				"jackIn_00"
				{
					"iTarget_node"		"10"
					"iTarget_jack"		"0"
				}
			}
		}
		"Node_026"
		{
			"iType"		"23"
			"pos_x"		"-397.109283"
			"pos_y"		"-777.056580"
			"size_x"		"91.000000"
			"size_y"		"-80.000000"
			"iPreview"		"1"
			"bridges"
			{
				"jackIn_00"
				{
					"iTarget_node"		"11"
					"iTarget_jack"		"0"
				}
				"jackIn_01"
				{
					"iTarget_node"		"27"
					"iTarget_jack"		"0"
				}
			}
		}
		"Node_027"
		{
			"iType"		"5"
			"pos_x"		"-488.589386"
			"pos_y"		"-832.720154"
			"size_x"		"50.000000"
			"size_y"		"-50.000000"
			"iPreview"		"1"
			"szConstantString"		"1"
		}
		"Node_028"
		{
			"iType"		"19"
			"pos_x"		"-163.883820"
			"pos_y"		"-283.370331"
			"size_x"		"91.000000"
			"size_y"		"-80.000000"
			"iPreview"		"1"
			"bridges"
			{
				"jackIn_00"
				{
					"iTarget_node"		"35"
					"iTarget_jack"		"1"
				}
				"jackIn_01"
				{
					"iTarget_node"		"16"
					"iTarget_jack"		"0"
				}
			}
			"i_mat_rotation"		"0"
		}
		"Node_029"
		{
			"iType"		"17"
			"pos_x"		"-12.768341"
			"pos_y"		"-348.850494"
			"size_x"		"91.000000"
			"size_y"		"-80.000000"
			"iPreview"		"1"
			"bridges"
			{
				"jackIn_00"
				{
					"iTarget_node"		"28"
					"iTarget_jack"		"0"
				}
				"jackIn_01"
				{
					"iTarget_node"		"19"
					"iTarget_jack"		"0"
				}
			}
		}
		"Node_030"
		{
			"iType"		"17"
			"pos_x"		"-10.572052"
			"pos_y"		"-471.832733"
			"size_x"		"91.000000"
			"size_y"		"-80.000000"
			"iPreview"		"1"
			"bridges"
			{
				"jackIn_00"
				{
					"iTarget_node"		"29"
					"iTarget_jack"		"0"
				}
				"jackIn_01"
				{
					"iTarget_node"		"20"
					"iTarget_jack"		"0"
				}
			}
		}
		"Node_031"
		{
			"iType"		"80"
			"pos_x"		"-157.359894"
			"pos_y"		"-676.886658"
			"size_x"		"88.000000"
			"size_y"		"-50.000000"
			"iPreview"		"1"
			"i_lscale_type"		"1"
		}
		"Node_032"
		{
			"iType"		"20"
			"pos_x"		"-14.695099"
			"pos_y"		"-694.812683"
			"size_x"		"91.000000"
			"size_y"		"-80.000000"
			"iPreview"		"1"
			"bridges"
			{
				"jackIn_00"
				{
					"iTarget_node"		"31"
					"iTarget_jack"		"0"
				}
				"jackIn_01"
				{
					"iTarget_node"		"26"
					"iTarget_jack"		"0"
				}
			}
		}
		"Node_033"
		{
			"iType"		"27"
			"pos_x"		"-565.747803"
			"pos_y"		"-391.027374"
			"size_x"		"80.000000"
			"size_y"		"-17.000000"
			"iPreview"		"0"
			"bridges"
			{
				"jackIn_00"
				{
					"iTarget_node"		"103"
					"iTarget_jack"		"1"
				}
			}
			"swizzleString"		"zw"
		}
		"Node_034"
		{
			"iType"		"19"
			"pos_x"		"180.579437"
			"pos_y"		"-564.280090"
			"size_x"		"91.000000"
			"size_y"		"-80.000000"
			"iPreview"		"1"
			"bridges"
			{
				"jackIn_00"
				{
					"iTarget_node"		"30"
					"iTarget_jack"		"0"
				}
				"jackIn_01"
				{
					"iTarget_node"		"32"
					"iTarget_jack"		"0"
				}
			}
			"i_mat_rotation"		"0"
		}
		"Node_035"
		{
			"iType"		"29"
			"pos_x"		"-419.033722"
			"pos_y"		"-266.936951"
			"size_x"		"122.000000"
			"size_y"		"-80.000000"
			"iPreview"		"1"
			"bridges"
			{
				"jackIn_00"
				{
					"iTarget_node"		"15"
					"iTarget_jack"		"0"
				}
			}
			"iSRGB"		"0"
			"iTextureType"		"4"
			"IsCubemap"		"0"
			"iLookupoverride"		"0"
			"szDemoTexturePath"		"Dev\bump"
			"szFallbackTexturePath"		"Lights\White"
			"iFallbackMode"		"0"
		}
		"Node_036"
		{
			"iType"		"17"
			"pos_x"		"-178.732437"
			"pos_y"		"104.991516"
			"size_x"		"80.000000"
			"size_y"		"-28.000000"
			"iPreview"		"1"
			"bridges"
			{
				"jackIn_00"
				{
					"iTarget_node"		"8"
					"iTarget_jack"		"0"
				}
				"jackIn_01"
				{
					"iTarget_node"		"50"
					"iTarget_jack"		"6"
				}
			}
		}
		"Node_037"
		{
			"iType"		"33"
			"pos_x"		"452.038361"
			"pos_y"		"-1002.346069"
			"size_x"		"50.000000"
			"size_y"		"-50.000000"
			"iPreview"		"1"
			"bridges"
			{
				"jackIn_00"
				{
					"iTarget_node"		"128"
					"iTarget_jack"		"0"
				}
				"jackIn_01"
				{
					"iTarget_node"		"39"
					"iTarget_jack"		"0"
				}
			}
		}
		"Node_038"
		{
			"iType"		"32"
			"pos_x"		"121.640915"
			"pos_y"		"-78.065155"
			"size_x"		"50.000000"
			"size_y"		"-50.000000"
			"iPreview"		"1"
			"bridges"
			{
				"jackIn_00"
				{
					"iTarget_node"		"129"
					"iTarget_jack"		"0"
				}
			}
		}
		"Node_039"
		{
			"iType"		"33"
			"pos_x"		"279.624786"
			"pos_y"		"-1132.339722"
			"size_x"		"50.000000"
			"size_y"		"-50.000000"
			"iPreview"		"1"
			"bridges"
			{
				"jackIn_00"
				{
					"iTarget_node"		"38"
					"iTarget_jack"		"0"
				}
				"jackIn_01"
				{
					"iTarget_node"		"119"
					"iTarget_jack"		"0"
				}
			}
		}
		"Node_040"
		{
			"iType"		"5"
			"pos_x"		"-1373.278076"
			"pos_y"		"-1435.535889"
			"size_x"		"50.000000"
			"size_y"		"-17.000000"
			"iPreview"		"0"
			"szConstantString"		"1"
		}
		"Node_041"
		{
			"iType"		"5"
			"pos_x"		"-1376.890747"
			"pos_y"		"-1364.183838"
			"size_x"		"50.000000"
			"size_y"		"-17.000000"
			"iPreview"		"0"
			"szConstantString"		"2"
		}
		"Node_042"
		{
			"iType"		"87"
			"pos_x"		"-1305.974487"
			"pos_y"		"-306.997589"
			"size_x"		"60.000000"
			"size_y"		"-50.000000"
			"iPreview"		"1"
		}
		"Node_043"
		{
			"iType"		"17"
			"pos_x"		"-200.096085"
			"pos_y"		"211.243134"
			"size_x"		"80.000000"
			"size_y"		"-28.000000"
			"iPreview"		"1"
			"bridges"
			{
				"jackIn_00"
				{
					"iTarget_node"		"50"
					"iTarget_jack"		"5"
				}
				"jackIn_01"
				{
					"iTarget_node"		"50"
					"iTarget_jack"		"6"
				}
			}
		}
		"Node_044"
		{
			"iType"		"27"
			"pos_x"		"-762.945190"
			"pos_y"		"-1153.852905"
			"size_x"		"80.000000"
			"size_y"		"-17.000000"
			"iPreview"		"0"
			"bridges"
			{
				"jackIn_00"
				{
					"iTarget_node"		"90"
					"iTarget_jack"		"0"
				}
			}
			"swizzleString"		"xy"
		}
		"Node_045"
		{
			"iType"		"27"
			"pos_x"		"-777.594360"
			"pos_y"		"-1211.987183"
			"size_x"		"80.000000"
			"size_y"		"-17.000000"
			"iPreview"		"0"
			"bridges"
			{
				"jackIn_00"
				{
					"iTarget_node"		"90"
					"iTarget_jack"		"0"
				}
			}
			"swizzleString"		"w"
		}
		"Node_046"
		{
			"iType"		"20"
			"pos_x"		"-617.374634"
			"pos_y"		"-1162.267212"
			"size_x"		"91.000000"
			"size_y"		"-80.000000"
			"iPreview"		"1"
			"bridges"
			{
				"jackIn_00"
				{
					"iTarget_node"		"44"
					"iTarget_jack"		"0"
				}
				"jackIn_01"
				{
					"iTarget_node"		"45"
					"iTarget_jack"		"0"
				}
			}
		}
		"Node_047"
		{
			"iType"		"17"
			"pos_x"		"-306.051117"
			"pos_y"		"-1156.147827"
			"size_x"		"91.000000"
			"size_y"		"-80.000000"
			"iPreview"		"1"
			"bridges"
			{
				"jackIn_00"
				{
					"iTarget_node"		"97"
					"iTarget_jack"		"0"
				}
				"jackIn_01"
				{
					"iTarget_node"		"93"
					"iTarget_jack"		"0"
				}
			}
		}
		"Node_048"
		{
			"iType"		"15"
			"pos_x"		"-371.334473"
			"pos_y"		"557.775269"
			"size_x"		"80.000000"
			"size_y"		"-17.000000"
			"iPreview"		"0"
		}
		"Node_049"
		{
			"iType"		"26"
			"pos_x"		"50.448524"
			"pos_y"		"210.450958"
			"size_x"		"80.000000"
			"size_y"		"-28.000000"
			"iPreview"		"1"
			"bridges"
			{
				"jackIn_00"
				{
					"iTarget_node"		"43"
					"iTarget_jack"		"0"
				}
				"jackIn_01"
				{
					"iTarget_node"		"8"
					"iTarget_jack"		"0"
				}
			}
		}
		"Node_050"
		{
			"iType"		"1"
			"pos_x"		"-381.067932"
			"pos_y"		"384.642883"
			"size_x"		"55.000000"
			"size_y"		"-83.000000"
			"iPreview"		"0"
			"enable_flex"		"0"
			"enable_normal"		"1"
			"enable_normal_compression"		"0"
			"enable_blendweights"		"0"
			"enable_tangentspace"		"1"
			"enable_tangentspace_skinning"		"0"
			"numTexcoords"		"3"
			"numColor"		"0"
			"dTFlag_Texcoords_0"		"2"
			"dTFlag_Texcoords_1"		"2"
			"dTFlag_Texcoords_2"		"2"
			"dTFlag_Color_0"		"8"
			"dTFlag_Color_1"		"8"
		}
		"Node_051"
		{
			"iType"		"19"
			"pos_x"		"-200.112106"
			"pos_y"		"314.781982"
			"size_x"		"80.000000"
			"size_y"		"-28.000000"
			"iPreview"		"1"
			"bridges"
			{
				"jackIn_00"
				{
					"iTarget_node"		"50"
					"iTarget_jack"		"3"
				}
				"jackIn_01"
				{
					"iTarget_node"		"48"
					"iTarget_jack"		"0"
				}
			}
			"i_mat_rotation"		"0"
		}
		"Node_052"
		{
			"iType"		"25"
			"pos_x"		"-25.137175"
			"pos_y"		"372.060944"
			"size_x"		"80.000000"
			"size_y"		"-17.000000"
			"iPreview"		"1"
			"bridges"
			{
				"jackIn_00"
				{
					"iTarget_node"		"66"
					"iTarget_jack"		"0"
				}
			}
		}
		"Node_053"
		{
			"iType"		"25"
			"pos_x"		"-30.844557"
			"pos_y"		"304.999237"
			"size_x"		"80.000000"
			"size_y"		"-17.000000"
			"iPreview"		"1"
			"bridges"
			{
				"jackIn_00"
				{
					"iTarget_node"		"51"
					"iTarget_jack"		"0"
				}
			}
		}
		"Node_054"
		{
			"iType"		"2"
			"pos_x"		"279.593658"
			"pos_y"		"385.779694"
			"size_x"		"58.000000"
			"size_y"		"-94.000000"
			"iPreview"		"0"
			"bridges"
			{
				"jackIn_00"
				{
					"iTarget_node"		"64"
					"iTarget_jack"		"0"
				}
				"jackIn_01"
				{
					"iTarget_node"		"50"
					"iTarget_jack"		"4"
				}
				"jackIn_02"
				{
					"iTarget_node"		"49"
					"iTarget_jack"		"0"
				}
				"jackIn_03"
				{
					"iTarget_node"		"60"
					"iTarget_jack"		"0"
				}
				"jackIn_04"
				{
					"iTarget_node"		"62"
					"iTarget_jack"		"0"
				}
				"jackIn_05"
				{
					"iTarget_node"		"36"
					"iTarget_jack"		"0"
				}
				"jackIn_06"
				{
					"iTarget_node"		"52"
					"iTarget_jack"		"0"
				}
				"jackIn_07"
				{
					"iTarget_node"		"53"
					"iTarget_jack"		"0"
				}
			}
			"numTexcoords"		"7"
			"numColor"		"0"
			"numTexcoord_Flag_0"		"2"
			"numTexcoord_Name_0"		"UV"
			"numTexcoord_Flag_1"		"8"
			"numTexcoord_Name_1"		"Lightmap1and2"
			"numTexcoord_Flag_2"		"4"
			"numTexcoord_Name_2"		"Wnormal"
			"numTexcoord_Flag_3"		"4"
			"numTexcoord_Name_3"		"WPos"
			"numTexcoord_Flag_4"		"2"
			"numTexcoord_Name_4"		"Lightmap3"
			"numTexcoord_Flag_5"		"4"
			"numTexcoord_Name_5"		"tan s"
			"numTexcoord_Flag_6"		"4"
			"numTexcoord_Name_6"		"tan t"
			"numTexcoord_Flag_7"		"1"
			"numTexcoord_Name_7"		"view vec"
			"numColor_Flag_0"		"8"
			"numColor_Name_0"		"Proj pos"
			"numColor_Flag_1"		"2"
			"numColor_Name_1"		"parallax uv"
		}
		"Node_055"
		{
			"iType"		"19"
			"pos_x"		"-1284.492310"
			"pos_y"		"-1327.507202"
			"size_x"		"80.000000"
			"size_y"		"-28.000000"
			"iPreview"		"0"
			"bridges"
			{
				"jackIn_00"
				{
					"iTarget_node"		"116"
					"iTarget_jack"		"1"
				}
				"jackIn_01"
				{
					"iTarget_node"		"41"
					"iTarget_jack"		"0"
				}
			}
			"i_mat_rotation"		"0"
		}
		"Node_056"
		{
			"iType"		"25"
			"pos_x"		"-707.195374"
			"pos_y"		"-1040.824951"
			"size_x"		"93.000000"
			"size_y"		"-80.000000"
			"iPreview"		"1"
			"bridges"
			{
				"jackIn_00"
				{
					"iTarget_node"		"78"
					"iTarget_jack"		"0"
				}
			}
		}
		"Node_057"
		{
			"iType"		"31"
			"szName"		"Off"
			"pos_x"		"-1476.140625"
			"pos_y"		"-543.904968"
			"size_x"		"50.000000"
			"size_y"		"-30.000000"
			"iPreview"		"0"
			"container_extents_x"		"406.346802"
			"container_extents_y"		"1871.088501"
			"container_extents_z"		"-406.346802"
			"i_combo_condition"		"4"
			"i_combo_value"		"0"
			"i_combo_static"		"0"
			"sz_cname"		"FLASHLIGHT"
		}
		"Node_058"
		{
			"iType"		"18"
			"pos_x"		"-1283.588989"
			"pos_y"		"-1410.600586"
			"size_x"		"80.000000"
			"size_y"		"-28.000000"
			"iPreview"		"0"
			"bridges"
			{
				"jackIn_00"
				{
					"iTarget_node"		"55"
					"iTarget_jack"		"0"
				}
				"jackIn_01"
				{
					"iTarget_node"		"40"
					"iTarget_jack"		"0"
				}
			}
		}
		"Node_059"
		{
			"iType"		"19"
			"pos_x"		"-199.809982"
			"pos_y"		"430.784729"
			"size_x"		"80.000000"
			"size_y"		"-28.000000"
			"iPreview"		"1"
			"bridges"
			{
				"jackIn_00"
				{
					"iTarget_node"		"50"
					"iTarget_jack"		"1"
				}
				"jackIn_01"
				{
					"iTarget_node"		"48"
					"iTarget_jack"		"0"
				}
			}
			"i_mat_rotation"		"0"
		}
		"Node_060"
		{
			"iType"		"25"
			"pos_x"		"-40.596832"
			"pos_y"		"422.590576"
			"size_x"		"80.000000"
			"size_y"		"-17.000000"
			"iPreview"		"1"
			"bridges"
			{
				"jackIn_00"
				{
					"iTarget_node"		"59"
					"iTarget_jack"		"0"
				}
			}
		}
		"Node_061"
		{
			"iType"		"19"
			"pos_x"		"-199.612503"
			"pos_y"		"497.620972"
			"size_x"		"80.000000"
			"size_y"		"-28.000000"
			"iPreview"		"1"
			"bridges"
			{
				"jackIn_00"
				{
					"iTarget_node"		"50"
					"iTarget_jack"		"0"
				}
				"jackIn_01"
				{
					"iTarget_node"		"48"
					"iTarget_jack"		"0"
				}
			}
			"i_mat_rotation"		"0"
		}
		"Node_062"
		{
			"iType"		"17"
			"pos_x"		"97.343826"
			"pos_y"		"595.173096"
			"size_x"		"80.000000"
			"size_y"		"-28.000000"
			"iPreview"		"1"
			"bridges"
			{
				"jackIn_00"
				{
					"iTarget_node"		"61"
					"iTarget_jack"		"0"
				}
				"jackIn_01"
				{
					"iTarget_node"		"63"
					"iTarget_jack"		"0"
				}
			}
		}
		"Node_063"
		{
			"iType"		"19"
			"pos_x"		"56.863014"
			"pos_y"		"508.450470"
			"size_x"		"80.000000"
			"size_y"		"-28.000000"
			"iPreview"		"1"
			"bridges"
			{
				"jackIn_00"
				{
					"iTarget_node"		"60"
					"iTarget_jack"		"0"
				}
				"jackIn_01"
				{
					"iTarget_node"		"91"
					"iTarget_jack"		"0"
				}
			}
			"i_mat_rotation"		"0"
		}
		"Node_064"
		{
			"iType"		"19"
			"pos_x"		"240.028519"
			"pos_y"		"627.172485"
			"size_x"		"80.000000"
			"size_y"		"-28.000000"
			"iPreview"		"1"
			"bridges"
			{
				"jackIn_00"
				{
					"iTarget_node"		"62"
					"iTarget_jack"		"0"
				}
				"jackIn_01"
				{
					"iTarget_node"		"65"
					"iTarget_jack"		"0"
				}
			}
			"i_mat_rotation"		"0"
		}
		"Node_065"
		{
			"iType"		"14"
			"pos_x"		"118.727341"
			"pos_y"		"707.575928"
			"size_x"		"80.000000"
			"size_y"		"-17.000000"
			"iPreview"		"0"
		}
		"Node_066"
		{
			"iType"		"19"
			"pos_x"		"-199.013474"
			"pos_y"		"366.788788"
			"size_x"		"80.000000"
			"size_y"		"-28.000000"
			"iPreview"		"1"
			"bridges"
			{
				"jackIn_00"
				{
					"iTarget_node"		"50"
					"iTarget_jack"		"2"
				}
				"jackIn_01"
				{
					"iTarget_node"		"48"
					"iTarget_jack"		"0"
				}
			}
			"i_mat_rotation"		"0"
		}
		"Node_067"
		{
			"iType"		"19"
			"pos_x"		"-2512.718262"
			"pos_y"		"-1056.819580"
			"size_x"		"91.000000"
			"size_y"		"-80.000000"
			"iPreview"		"1"
			"bridges"
			{
				"jackIn_00"
				{
					"iTarget_node"		"70"
					"iTarget_jack"		"0"
				}
				"jackIn_01"
				{
					"iTarget_node"		"68"
					"iTarget_jack"		"0"
				}
			}
			"i_mat_rotation"		"0"
		}
		"Node_068"
		{
			"iType"		"18"
			"pos_x"		"-2677.724609"
			"pos_y"		"-1097.021729"
			"size_x"		"91.000000"
			"size_y"		"-80.000000"
			"iPreview"		"1"
			"bridges"
			{
				"jackIn_00"
				{
					"iTarget_node"		"103"
					"iTarget_jack"		"3"
				}
				"jackIn_01"
				{
					"iTarget_node"		"69"
					"iTarget_jack"		"0"
				}
			}
		}
		"Node_069"
		{
			"iType"		"7"
			"pos_x"		"-2791.159180"
			"pos_y"		"-1273.835205"
			"size_x"		"69.000000"
			"size_y"		"-50.000000"
			"iPreview"		"1"
			"flSmartVal0"		"0.000000"
		}
		"Node_070"
		{
			"iType"		"73"
			"pos_x"		"-2650.385742"
			"pos_y"		"-914.091858"
			"size_x"		"91.000000"
			"size_y"		"-80.000000"
			"iPreview"		"1"
			"bridges"
			{
				"jackIn_00"
				{
					"iTarget_node"		"103"
					"iTarget_jack"		"5"
				}
				"jackIn_01"
				{
					"iTarget_node"		"103"
					"iTarget_jack"		"6"
				}
				"jackIn_02"
				{
					"iTarget_node"		"103"
					"iTarget_jack"		"2"
				}
			}
			"i_mcomp_matrix"		"16"
			"i_mcomp_c"		"0"
		}
		"Node_071"
		{
			"iType"		"27"
			"pos_x"		"-2492.824707"
			"pos_y"		"-1592.227295"
			"size_x"		"103.000000"
			"size_y"		"-80.000000"
			"iPreview"		"1"
			"bridges"
			{
				"jackIn_00"
				{
					"iTarget_node"		"115"
					"iTarget_jack"		"0"
				}
			}
			"swizzleString"		"y"
		}
		"Node_072"
		{
			"iType"		"19"
			"pos_x"		"-2310.402344"
			"pos_y"		"-1597.063232"
			"size_x"		"91.000000"
			"size_y"		"-80.000000"
			"iPreview"		"1"
			"bridges"
			{
				"jackIn_00"
				{
					"iTarget_node"		"71"
					"iTarget_jack"		"0"
				}
				"jackIn_01"
				{
					"iTarget_node"		"103"
					"iTarget_jack"		"6"
				}
			}
			"i_mat_rotation"		"0"
		}
		"Node_073"
		{
			"iType"		"19"
			"pos_x"		"-2316.643066"
			"pos_y"		"-1460.595093"
			"size_x"		"91.000000"
			"size_y"		"-80.000000"
			"iPreview"		"1"
			"bridges"
			{
				"jackIn_00"
				{
					"iTarget_node"		"74"
					"iTarget_jack"		"0"
				}
				"jackIn_01"
				{
					"iTarget_node"		"103"
					"iTarget_jack"		"5"
				}
			}
			"i_mat_rotation"		"0"
		}
		"Node_074"
		{
			"iType"		"27"
			"pos_x"		"-2494.773438"
			"pos_y"		"-1467.157104"
			"size_x"		"103.000000"
			"size_y"		"-80.000000"
			"iPreview"		"1"
			"bridges"
			{
				"jackIn_00"
				{
					"iTarget_node"		"115"
					"iTarget_jack"		"0"
				}
			}
			"swizzleString"		"x"
		}
		"Node_075"
		{
			"iType"		"27"
			"pos_x"		"-1367.511475"
			"pos_y"		"-1852.267090"
			"size_x"		"105.000000"
			"size_y"		"-80.000000"
			"iPreview"		"1"
			"bridges"
			{
				"jackIn_00"
				{
					"iTarget_node"		"90"
					"iTarget_jack"		"0"
				}
			}
			"swizzleString"		"w"
		}
		"Node_076"
		{
			"iType"		"4"
			"pos_x"		"1162.152466"
			"pos_y"		"-1984.264282"
			"size_x"		"55.000000"
			"size_y"		"-28.000000"
			"iPreview"		"0"
			"bridges"
			{
				"jackIn_00"
				{
					"iTarget_node"		"5"
					"iTarget_jack"		"0"
				}
				"jackIn_01"
				{
					"iTarget_node"		"77"
					"iTarget_jack"		"0"
				}
			}
			"numColors"		"1"
			"enable_Depth"		"1"
		}
		"Node_077"
		{
			"iType"		"60"
			"pos_x"		"998.196960"
			"pos_y"		"-1996.091309"
			"size_x"		"93.000000"
			"size_y"		"-80.000000"
			"iPreview"		"1"
			"bridges"
			{
				"jackIn_00"
				{
					"iTarget_node"		"89"
					"iTarget_jack"		"0"
				}
			}
		}
		"Node_078"
		{
			"iType"		"19"
			"pos_x"		"-951.207275"
			"pos_y"		"-1046.062744"
			"size_x"		"91.000000"
			"size_y"		"-80.000000"
			"iPreview"		"1"
			"bridges"
			{
				"jackIn_00"
				{
					"iTarget_node"		"58"
					"iTarget_jack"		"0"
				}
				"jackIn_01"
				{
					"iTarget_node"		"70"
					"iTarget_jack"		"0"
				}
			}
			"i_mat_rotation"		"0"
		}
		"Node_079"
		{
			"iType"		"17"
			"pos_x"		"-2154.526367"
			"pos_y"		"-1511.363892"
			"size_x"		"91.000000"
			"size_y"		"-80.000000"
			"iPreview"		"1"
			"bridges"
			{
				"jackIn_00"
				{
					"iTarget_node"		"73"
					"iTarget_jack"		"0"
				}
				"jackIn_01"
				{
					"iTarget_node"		"72"
					"iTarget_jack"		"0"
				}
			}
		}
		"Node_080"
		{
			"iType"		"17"
			"pos_x"		"-2163.355469"
			"pos_y"		"-1667.053955"
			"size_x"		"91.000000"
			"size_y"		"-80.000000"
			"iPreview"		"1"
			"bridges"
			{
				"jackIn_00"
				{
					"iTarget_node"		"79"
					"iTarget_jack"		"0"
				}
				"jackIn_01"
				{
					"iTarget_node"		"83"
					"iTarget_jack"		"0"
				}
			}
		}
		"Node_081"
		{
			"iType"		"90"
			"pos_x"		"-1702.652710"
			"pos_y"		"-1691.203491"
			"size_x"		"80.000000"
			"size_y"		"-17.000000"
			"iPreview"		"0"
			"i_c_matrix"		"2"
		}
		"Node_082"
		{
			"iType"		"29"
			"pos_x"		"-383.250671"
			"pos_y"		"-1906.867676"
			"size_x"		"122.000000"
			"size_y"		"-80.000000"
			"iPreview"		"1"
			"bridges"
			{
				"jackIn_00"
				{
					"iTarget_node"		"114"
					"iTarget_jack"		"0"
				}
			}
			"szParamname"		"albedo"
			"iSRGB"		"1"
			"iTextureType"		"1"
			"IsCubemap"		"0"
			"iLookupoverride"		"0"
			"szDemoTexturePath"		"texture_samples\grass_color"
			"szFallbackTexturePath"		"Dev\bump"
			"iFallbackMode"		"2"
		}
		"Node_083"
		{
			"iType"		"19"
			"pos_x"		"-2311.552246"
			"pos_y"		"-1727.441650"
			"size_x"		"91.000000"
			"size_y"		"-80.000000"
			"iPreview"		"1"
			"bridges"
			{
				"jackIn_00"
				{
					"iTarget_node"		"85"
					"iTarget_jack"		"0"
				}
				"jackIn_01"
				{
					"iTarget_node"		"103"
					"iTarget_jack"		"2"
				}
			}
			"i_mat_rotation"		"0"
		}
		"Node_084"
		{
			"iType"		"27"
			"pos_x"		"-2613.898926"
			"pos_y"		"-1735.171997"
			"size_x"		"103.000000"
			"size_y"		"-80.000000"
			"iPreview"		"1"
			"bridges"
			{
				"jackIn_00"
				{
					"iTarget_node"		"115"
					"iTarget_jack"		"0"
				}
			}
			"swizzleString"		"z"
		}
		"Node_085"
		{
			"iType"		"19"
			"pos_x"		"-2456.119141"
			"pos_y"		"-1745.289795"
			"size_x"		"91.000000"
			"size_y"		"-80.000000"
			"iPreview"		"1"
			"bridges"
			{
				"jackIn_00"
				{
					"iTarget_node"		"84"
					"iTarget_jack"		"0"
				}
				"jackIn_01"
				{
					"iTarget_node"		"92"
					"iTarget_jack"		"0"
				}
			}
			"i_mat_rotation"		"0"
		}
		"Node_086"
		{
			"iType"		"61"
			"pos_x"		"-358.207275"
			"pos_y"		"-2057.225098"
			"size_x"		"93.000000"
			"size_y"		"-80.000000"
			"iPreview"		"1"
			"bridges"
			{
				"jackIn_00"
				{
					"iTarget_node"		"84"
					"iTarget_jack"		"0"
				}
			}
		}
		"Node_087"
		{
			"iType"		"19"
			"pos_x"		"-165.058868"
			"pos_y"		"-2058.266113"
			"size_x"		"91.000000"
			"size_y"		"-80.000000"
			"iPreview"		"1"
			"bridges"
			{
				"jackIn_00"
				{
					"iTarget_node"		"86"
					"iTarget_jack"		"0"
				}
				"jackIn_01"
				{
					"iTarget_node"		"86"
					"iTarget_jack"		"0"
				}
			}
			"i_mat_rotation"		"0"
		}
		"Node_088"
		{
			"iType"		"27"
			"pos_x"		"-1363.537354"
			"pos_y"		"-1738.334473"
			"size_x"		"103.000000"
			"size_y"		"-80.000000"
			"iPreview"		"1"
			"bridges"
			{
				"jackIn_00"
				{
					"iTarget_node"		"90"
					"iTarget_jack"		"0"
				}
			}
			"swizzleString"		"z"
		}
		"Node_089"
		{
			"iType"		"20"
			"pos_x"		"-1190.612915"
			"pos_y"		"-1787.352051"
			"size_x"		"91.000000"
			"size_y"		"-80.000000"
			"iPreview"		"1"
			"bridges"
			{
				"jackIn_00"
				{
					"iTarget_node"		"88"
					"iTarget_jack"		"0"
				}
				"jackIn_01"
				{
					"iTarget_node"		"75"
					"iTarget_jack"		"0"
				}
			}
		}
		"Node_090"
		{
			"iType"		"19"
			"szName"		"Proj pos"
			"pos_x"		"-1535.178101"
			"pos_y"		"-1643.949585"
			"size_x"		"91.000000"
			"size_y"		"-80.000000"
			"iPreview"		"1"
			"bridges"
			{
				"jackIn_00"
				{
					"iTarget_node"		"104"
					"iTarget_jack"		"0"
				}
				"jackIn_01"
				{
					"iTarget_node"		"81"
					"iTarget_jack"		"0"
				}
			}
			"i_mat_rotation"		"0"
		}
		"Node_091"
		{
			"iType"		"79"
			"pos_x"		"-87.515335"
			"pos_y"		"555.068115"
			"size_x"		"74.000000"
			"size_y"		"-17.000000"
			"iPreview"		"1"
			"i_vp_static_name"		"parallax_geo_height"
			"i_vp_static_nc"		"0"
			"szConstantString"		"20"
		}
		"Node_092"
		{
			"iType"		"79"
			"pos_x"		"-2909.488770"
			"pos_y"		"-1538.401367"
			"size_x"		"124.000000"
			"size_y"		"-50.000000"
			"iPreview"		"1"
			"i_vp_static_name"		"parallax_geo_height"
			"i_vp_static_nc"		"0"
			"szConstantString"		"20"
		}
		"Node_093"
		{
			"iType"		"5"
			"pos_x"		"-440.065643"
			"pos_y"		"-1060.233765"
			"size_x"		"50.000000"
			"size_y"		"-50.000000"
			"iPreview"		"1"
			"szConstantString"		"0.5"
		}
		"Node_094"
		{
			"iType"		"19"
			"pos_x"		"1.480953"
			"pos_y"		"-1982.012207"
			"size_x"		"91.000000"
			"size_y"		"-80.000000"
			"iPreview"		"1"
			"bridges"
			{
				"jackIn_00"
				{
					"iTarget_node"		"82"
					"iTarget_jack"		"1"
				}
				"jackIn_01"
				{
					"iTarget_node"		"87"
					"iTarget_jack"		"0"
				}
			}
			"i_mat_rotation"		"0"
		}
		"Node_095"
		{
			"iType"		"76"
			"pos_x"		"-71.402504"
			"pos_y"		"-1159.996460"
			"size_x"		"163.000000"
			"size_y"		"-80.000000"
			"iPreview"		"1"
			"bridges"
			{
				"jackIn_00"
				{
					"iTarget_node"		"104"
					"iTarget_jack"		"0"
				}
				"jackIn_01"
				{
					"iTarget_node"		"56"
					"iTarget_jack"		"0"
				}
				"jackIn_02"
				{
					"iTarget_node"		"1"
					"iTarget_jack"		"0"
				}
				"jackIn_03"
				{
					"iTarget_node"		"47"
					"iTarget_jack"		"0"
				}
			}
			"i_flashlight_Spec"		"0"
		}
		"Node_096"
		{
			"iType"		"18"
			"pos_x"		"-696.153564"
			"pos_y"		"-1541.703247"
			"size_x"		"91.000000"
			"size_y"		"-80.000000"
			"iPreview"		"1"
			"bridges"
			{
				"jackIn_00"
				{
					"iTarget_node"		"104"
					"iTarget_jack"		"0"
				}
				"jackIn_01"
				{
					"iTarget_node"		"101"
					"iTarget_jack"		"0"
				}
			}
		}
		"Node_097"
		{
			"iType"		"19"
			"pos_x"		"-468.979584"
			"pos_y"		"-1162.267212"
			"size_x"		"91.000000"
			"size_y"		"-80.000000"
			"iPreview"		"1"
			"bridges"
			{
				"jackIn_00"
				{
					"iTarget_node"		"46"
					"iTarget_jack"		"0"
				}
				"jackIn_01"
				{
					"iTarget_node"		"93"
					"iTarget_jack"		"0"
				}
			}
			"i_mat_rotation"		"0"
		}
		"Node_098"
		{
			"iType"		"19"
			"pos_x"		"-536.150208"
			"pos_y"		"-1539.743286"
			"size_x"		"91.000000"
			"size_y"		"-80.000000"
			"iPreview"		"1"
			"bridges"
			{
				"jackIn_00"
				{
					"iTarget_node"		"70"
					"iTarget_jack"		"0"
				}
				"jackIn_01"
				{
					"iTarget_node"		"96"
					"iTarget_jack"		"0"
				}
			}
			"i_mat_rotation"		"0"
		}
		"Node_099"
		{
			"iType"		"71"
			"pos_x"		"927.323792"
			"pos_y"		"-1705.073853"
			"size_x"		"169.000000"
			"size_y"		"-80.000000"
			"iPreview"		"1"
			"bridges"
			{
				"jackIn_00"
				{
					"iTarget_node"		"2"
					"iTarget_jack"		"0"
				}
				"jackIn_01"
				{
					"iTarget_node"		"3"
					"iTarget_jack"		"0"
				}
				"jackIn_02"
				{
					"iTarget_node"		"104"
					"iTarget_jack"		"0"
				}
				"jackIn_03"
				{
					"iTarget_node"		"6"
					"iTarget_jack"		"0"
				}
			}
		}
		"Node_100"
		{
			"iType"		"25"
			"pos_x"		"-381.552979"
			"pos_y"		"-1545.974731"
			"size_x"		"93.000000"
			"size_y"		"-80.000000"
			"iPreview"		"1"
			"bridges"
			{
				"jackIn_00"
				{
					"iTarget_node"		"98"
					"iTarget_jack"		"0"
				}
			}
		}
		"Node_101"
		{
			"iType"		"97"
			"pos_x"		"-798.133545"
			"pos_y"		"-1621.602661"
			"size_x"		"68.000000"
			"size_y"		"-50.000000"
			"iPreview"		"1"
		}
		"Node_102"
		{
			"iType"		"5"
			"pos_x"		"-411.761017"
			"pos_y"		"-1651.956421"
			"size_x"		"50.000000"
			"size_y"		"-50.000000"
			"iPreview"		"1"
			"szConstantString"		"1"
		}
		"Node_103"
		{
			"iType"		"3"
			"pos_x"		"-2113.470703"
			"pos_y"		"-510.755493"
			"size_x"		"58.000000"
			"size_y"		"-83.000000"
			"iPreview"		"0"
			"numTexcoords"		"7"
			"numColor"		"0"
			"numTexcoord_Flag_0"		"2"
			"numTexcoord_Name_0"		"UV"
			"numTexcoord_Flag_1"		"8"
			"numTexcoord_Name_1"		"Lightmap1and2"
			"numTexcoord_Flag_2"		"4"
			"numTexcoord_Name_2"		"Wnormal"
			"numTexcoord_Flag_3"		"4"
			"numTexcoord_Name_3"		"WPos"
			"numTexcoord_Flag_4"		"2"
			"numTexcoord_Name_4"		"Lightmap3"
			"numTexcoord_Flag_5"		"4"
			"numTexcoord_Name_5"		"tan s"
			"numTexcoord_Flag_6"		"4"
			"numTexcoord_Name_6"		"tan t"
			"numTexcoord_Flag_7"		"1"
			"numTexcoord_Name_7"		"view vec"
			"numColor_Flag_0"		"8"
			"numColor_Name_0"		"Proj pos"
			"numColor_Flag_1"		"2"
			"numColor_Name_1"		"parallax uv"
		}
		"Node_104"
		{
			"iType"		"18"
			"szName"		"worldpos"
			"pos_x"		"-1980.675903"
			"pos_y"		"-1636.844849"
			"size_x"		"91.000000"
			"size_y"		"-80.000000"
			"iPreview"		"1"
			"bridges"
			{
				"jackIn_00"
				{
					"iTarget_node"		"103"
					"iTarget_jack"		"3"
				}
				"jackIn_01"
				{
					"iTarget_node"		"80"
					"iTarget_jack"		"0"
				}
			}
		}
		"Node_105"
		{
			"iType"		"5"
			"pos_x"		"-2034.864746"
			"pos_y"		"-671.338745"
			"size_x"		"50.000000"
			"size_y"		"-50.000000"
			"iPreview"		"1"
			"szConstantString"		"0 0"
		}
		"Node_106"
		{
			"iType"		"32"
			"pos_x"		"-1951.772461"
			"pos_y"		"-671.430359"
			"size_x"		"50.000000"
			"size_y"		"-50.000000"
			"iPreview"		"1"
			"bridges"
			{
				"jackIn_00"
				{
					"iTarget_node"		"105"
					"iTarget_jack"		"0"
				}
			}
		}
		"Node_107"
		{
			"iType"		"5"
			"pos_x"		"-2036.767334"
			"pos_y"		"-746.184998"
			"size_x"		"50.000000"
			"size_y"		"-50.000000"
			"iPreview"		"1"
			"szConstantString"		"0 0 0"
		}
		"Node_108"
		{
			"iType"		"32"
			"pos_x"		"-1947.676147"
			"pos_y"		"-746.184998"
			"size_x"		"50.000000"
			"size_y"		"-50.000000"
			"iPreview"		"1"
			"bridges"
			{
				"jackIn_00"
				{
					"iTarget_node"		"107"
					"iTarget_jack"		"0"
				}
			}
		}
		"Node_109"
		{
			"iType"		"33"
			"pos_x"		"-1733.652710"
			"pos_y"		"-1156.823486"
			"size_x"		"50.000000"
			"size_y"		"-50.000000"
			"iPreview"		"1"
			"bridges"
			{
				"jackIn_00"
				{
					"iTarget_node"		"106"
					"iTarget_jack"		"0"
				}
				"jackIn_01"
				{
					"iTarget_node"		"133"
					"iTarget_jack"		"0"
				}
			}
		}
		"Node_110"
		{
			"iType"		"33"
			"pos_x"		"-1733.652710"
			"pos_y"		"-1232.602173"
			"size_x"		"50.000000"
			"size_y"		"-50.000000"
			"iPreview"		"1"
			"bridges"
			{
				"jackIn_00"
				{
					"iTarget_node"		"108"
					"iTarget_jack"		"0"
				}
				"jackIn_01"
				{
					"iTarget_node"		"117"
					"iTarget_jack"		"0"
				}
			}
		}
		"Node_111"
		{
			"iType"		"18"
			"szName"		"view vec"
			"pos_x"		"-2584.543213"
			"pos_y"		"-1283.304443"
			"size_x"		"91.000000"
			"size_y"		"-80.000000"
			"iPreview"		"1"
			"bridges"
			{
				"jackIn_00"
				{
					"iTarget_node"		"69"
					"iTarget_jack"		"0"
				}
				"jackIn_01"
				{
					"iTarget_node"		"103"
					"iTarget_jack"		"3"
				}
			}
		}
		"Node_112"
		{
			"iType"		"33"
			"pos_x"		"-1738.851685"
			"pos_y"		"-1004.842529"
			"size_x"		"50.000000"
			"size_y"		"-50.000000"
			"iPreview"		"1"
			"bridges"
			{
				"jackIn_00"
				{
					"iTarget_node"		"108"
					"iTarget_jack"		"0"
				}
				"jackIn_01"
				{
					"iTarget_node"		"134"
					"iTarget_jack"		"1"
				}
			}
		}
		"Node_113"
		{
			"iType"		"33"
			"pos_x"		"-1738.851685"
			"pos_y"		"-929.063904"
			"size_x"		"50.000000"
			"size_y"		"-50.000000"
			"iPreview"		"1"
			"bridges"
			{
				"jackIn_00"
				{
					"iTarget_node"		"106"
					"iTarget_jack"		"0"
				}
				"jackIn_01"
				{
					"iTarget_node"		"134"
					"iTarget_jack"		"0"
				}
			}
		}
		"Node_114"
		{
			"iType"		"33"
			"szName"		"UV"
			"pos_x"		"-1577.166504"
			"pos_y"		"-1015.541138"
			"size_x"		"50.000000"
			"size_y"		"-50.000000"
			"iPreview"		"1"
			"bridges"
			{
				"jackIn_00"
				{
					"iTarget_node"		"113"
					"iTarget_jack"		"0"
				}
				"jackIn_01"
				{
					"iTarget_node"		"109"
					"iTarget_jack"		"0"
				}
			}
		}
		"Node_115"
		{
			"iType"		"33"
			"szName"		"Tan offset"
			"pos_x"		"-1579.332031"
			"pos_y"		"-1138.959229"
			"size_x"		"50.000000"
			"size_y"		"-50.000000"
			"iPreview"		"1"
			"bridges"
			{
				"jackIn_00"
				{
					"iTarget_node"		"112"
					"iTarget_jack"		"0"
				}
				"jackIn_01"
				{
					"iTarget_node"		"110"
					"iTarget_jack"		"0"
				}
			}
		}
		"Node_116"
		{
			"iType"		"29"
			"pos_x"		"-1419.363281"
			"pos_y"		"-1172.393799"
			"size_x"		"122.000000"
			"size_y"		"-80.000000"
			"iPreview"		"1"
			"bridges"
			{
				"jackIn_00"
				{
					"iTarget_node"		"114"
					"iTarget_jack"		"0"
				}
			}
			"szParamname"		"bm"
			"iSRGB"		"0"
			"iTextureType"		"2"
			"IsCubemap"		"0"
			"iLookupoverride"		"0"
			"szDemoTexturePath"		"texture_samples\grass_normal"
			"szFallbackTexturePath"		"dev\flat_normal"
			"iFallbackMode"		"3"
		}
		"Node_117"
		{
			"iType"		"19"
			"pos_x"		"-1868.161499"
			"pos_y"		"-1225.338989"
			"size_x"		"80.000000"
			"size_y"		"-28.000000"
			"iPreview"		"0"
			"bridges"
			{
				"jackIn_00"
				{
					"iTarget_node"		"133"
					"iTarget_jack"		"1"
				}
				"jackIn_01"
				{
					"iTarget_node"		"131"
					"iTarget_jack"		"0"
				}
			}
			"i_mat_rotation"		"0"
		}
		"Node_118"
		{
			"iType"		"31"
			"szName"		"On"
			"pos_x"		"-1108.683105"
			"pos_y"		"-1388.545898"
			"size_x"		"50.000000"
			"size_y"		"-30.000000"
			"iPreview"		"0"
			"container_extents_x"		"413.423889"
			"container_extents_y"		"1469.025513"
			"container_extents_z"		"-413.423889"
			"i_combo_condition"		"4"
			"i_combo_value"		"1"
			"i_combo_static"		"0"
			"sz_cname"		"FLASHLIGHT"
		}
		"Node_119"
		{
			"iType"		"19"
			"pos_x"		"70.658966"
			"pos_y"		"-1533.324707"
			"size_x"		"91.000000"
			"size_y"		"-80.000000"
			"iPreview"		"1"
			"bridges"
			{
				"jackIn_00"
				{
					"iTarget_node"		"121"
					"iTarget_jack"		"0"
				}
				"jackIn_01"
				{
					"iTarget_node"		"132"
					"iTarget_jack"		"0"
				}
			}
			"i_mat_rotation"		"0"
		}
		"Node_120"
		{
			"iType"		"92"
			"pos_x"		"-895.288208"
			"pos_y"		"-1581.739258"
			"size_x"		"50.000000"
			"size_y"		"-30.000000"
			"iPreview"		"0"
			"bridges"
			{
				"jackIn_00"
				{
					"iTarget_node"		"124"
					"iTarget_jack"		"0"
				}
				"jackIn_01"
				{
					"iTarget_node"		"122"
					"iTarget_jack"		"0"
				}
			}
			"container_extents_x"		"143.460693"
			"container_extents_y"		"1053.137939"
			"container_extents_z"		"-143.460693"
			"i_combo_condition"		"1"
		}
		"Node_121"
		{
			"iType"		"32"
			"pos_x"		"137.100784"
			"pos_y"		"-1208.368652"
			"size_x"		"50.000000"
			"size_y"		"-50.000000"
			"iPreview"		"1"
			"bridges"
			{
				"jackIn_00"
				{
					"iTarget_node"		"95"
					"iTarget_jack"		"0"
				}
			}
		}
		"Node_122"
		{
			"iType"		"5"
			"pos_x"		"-941.400452"
			"pos_y"		"-1651.138184"
			"size_x"		"50.000000"
			"size_y"		"-50.000000"
			"iPreview"		"1"
			"szConstantString"		"0.01"
		}
		"Node_123"
		{
			"iType"		"5"
			"pos_x"		"-937.632019"
			"pos_y"		"-1364.398804"
			"size_x"		"50.000000"
			"size_y"		"-50.000000"
			"iPreview"		"1"
			"szConstantString"		"1"
		}
		"Node_124"
		{
			"iType"		"23"
			"pos_x"		"-858.575806"
			"pos_y"		"-1337.272095"
			"size_x"		"80.000000"
			"size_y"		"-28.000000"
			"iPreview"		"0"
			"bridges"
			{
				"jackIn_00"
				{
					"iTarget_node"		"95"
					"iTarget_jack"		"0"
				}
				"jackIn_01"
				{
					"iTarget_node"		"123"
					"iTarget_jack"		"0"
				}
			}
		}
		"Node_125"
		{
			"iType"		"31"
			"szName"		"Off"
			"pos_x"		"-2235.203125"
			"pos_y"		"-977.922729"
			"size_x"		"50.000000"
			"size_y"		"-30.000000"
			"iPreview"		"0"
			"container_extents_x"		"101.288597"
			"container_extents_y"		"566.823730"
			"container_extents_z"		"-101.288597"
			"i_combo_condition"		"4"
			"i_combo_value"		"0"
			"i_combo_static"		"0"
			"sz_cname"		"FLASHLIGHT"
		}
		"Node_126"
		{
			"iType"		"31"
			"szName"		"On"
			"pos_x"		"-2227.527344"
			"pos_y"		"-1211.360718"
			"size_x"		"50.000000"
			"size_y"		"-30.000000"
			"iPreview"		"0"
			"container_extents_x"		"101.288597"
			"container_extents_y"		"543.557251"
			"container_extents_z"		"-101.288597"
			"i_combo_condition"		"4"
			"i_combo_value"		"1"
			"i_combo_static"		"0"
			"sz_cname"		"FLASHLIGHT"
		}
		"Node_127"
		{
			"iType"		"31"
			"szName"		"On"
			"pos_x"		"-1024.437256"
			"pos_y"		"-1525.820313"
			"size_x"		"50.000000"
			"size_y"		"-30.000000"
			"iPreview"		"0"
			"container_extents_x"		"248.715515"
			"container_extents_y"		"1236.277344"
			"container_extents_z"		"-248.715515"
			"i_combo_condition"		"4"
			"i_combo_value"		"1"
			"i_combo_static"		"0"
			"sz_cname"		"FLASHLIGHTSHADOWS"
		}
		"Node_128"
		{
			"iType"		"33"
			"pos_x"		"305.748413"
			"pos_y"		"-738.557129"
			"size_x"		"50.000000"
			"size_y"		"-50.000000"
			"iPreview"		"1"
			"bridges"
			{
				"jackIn_00"
				{
					"iTarget_node"		"38"
					"iTarget_jack"		"0"
				}
				"jackIn_01"
				{
					"iTarget_node"		"34"
					"iTarget_jack"		"0"
				}
			}
		}
		"Node_129"
		{
			"iType"		"5"
			"pos_x"		"27.518646"
			"pos_y"		"-76.322235"
			"size_x"		"50.000000"
			"size_y"		"-50.000000"
			"iPreview"		"1"
			"szConstantString"		"0 0 0"
		}
		"Node_130"
		{
			"iType"		"94"
			"szName"		"heightmap"
			"pos_x"		"-2298.809570"
			"pos_y"		"-1363.049683"
			"size_x"		"84.000000"
			"size_y"		"-50.000000"
			"iPreview"		"1"
			"szParamname"		"heightmap"
			"iTextureType"		"0"
			"IsCubemap"		"0"
			"szDemoTexturePath"		"texture_samples\grass_height"
			"szFallbackTexturePath"		"Lights\White"
			"iFallbackMode"		"0"
		}
		"Node_131"
		{
			"iType"		"5"
			"pos_x"		"-1938.670654"
			"pos_y"		"-1132.127930"
			"size_x"		"50.000000"
			"size_y"		"-50.000000"
			"iPreview"		"1"
			"szConstantString"		"0.9"
		}
		"Node_132"
		{
			"iType"		"96"
			"pos_x"		"-182.564484"
			"pos_y"		"-1529.073975"
			"size_x"		"154.000000"
			"size_y"		"-83.000000"
			"iPreview"		"1"
			"bridges"
			{
				"jackIn_00"
				{
					"iTarget_node"		"103"
					"iTarget_jack"		"0"
				}
				"jackIn_01"
				{
					"iTarget_node"		"114"
					"iTarget_jack"		"0"
				}
				"jackIn_02"
				{
					"iTarget_node"		"100"
					"iTarget_jack"		"0"
				}
				"jackIn_03"
				{
					"iTarget_node"		"92"
					"iTarget_jack"		"0"
				}
				"jackIn_04"
				{
					"iTarget_node"		"103"
					"iTarget_jack"		"3"
				}
				"jackIn_05"
				{
					"iTarget_node"		"102"
					"iTarget_jack"		"0"
				}
				"jackIn_06"
				{
					"iTarget_node"		"130"
					"iTarget_jack"		"0"
				}
			}
		}
		"Node_133"
		{
			"iType"		"95"
			"szName"		"faster"
			"pos_x"		"-2126.414063"
			"pos_y"		"-1178.743774"
			"size_x"		"176.000000"
			"size_y"		"-83.000000"
			"iPreview"		"1"
			"bridges"
			{
				"jackIn_00"
				{
					"iTarget_node"		"103"
					"iTarget_jack"		"0"
				}
				"jackIn_01"
				{
					"iTarget_node"		"67"
					"iTarget_jack"		"0"
				}
				"jackIn_02"
				{
					"iTarget_node"		"92"
					"iTarget_jack"		"0"
				}
				"jackIn_03"
				{
					"iTarget_node"		"103"
					"iTarget_jack"		"3"
				}
				"jackIn_04"
				{
					"iTarget_node"		"103"
					"iTarget_jack"		"2"
				}
				"jackIn_05"
				{
					"iTarget_node"		"111"
					"iTarget_jack"		"0"
				}
				"jackIn_06"
				{
					"iTarget_node"		"130"
					"iTarget_jack"		"0"
				}
			}
			"i_samples_min"		"8"
			"i_samples_max"		"15"
			"i_samples_binary"		"5"
			"i_dtest"		"1"
			"i_gradient"		"0"
			"i_prlx_mode"		"1"
		}
		"Node_134"
		{
			"iType"		"95"
			"pos_x"		"-2099.908691"
			"pos_y"		"-946.600525"
			"size_x"		"176.000000"
			"size_y"		"-83.000000"
			"iPreview"		"1"
			"bridges"
			{
				"jackIn_00"
				{
					"iTarget_node"		"103"
					"iTarget_jack"		"0"
				}
				"jackIn_01"
				{
					"iTarget_node"		"67"
					"iTarget_jack"		"0"
				}
				"jackIn_02"
				{
					"iTarget_node"		"92"
					"iTarget_jack"		"0"
				}
				"jackIn_03"
				{
					"iTarget_node"		"103"
					"iTarget_jack"		"3"
				}
				"jackIn_04"
				{
					"iTarget_node"		"103"
					"iTarget_jack"		"2"
				}
				"jackIn_05"
				{
					"iTarget_node"		"111"
					"iTarget_jack"		"0"
				}
				"jackIn_06"
				{
					"iTarget_node"		"130"
					"iTarget_jack"		"0"
				}
			}
			"i_samples_min"		"10"
			"i_samples_max"		"30"
			"i_samples_binary"		"5"
			"i_dtest"		"1"
			"i_gradient"		"1"
			"i_prlx_mode"		"1"
		}
	}
}
