"Refract"
{
	"$normalmap" "particle/Liquids/waterleak_round_refract_256"
 	"$refractamount" ".15"
	"$vertexalpha" "1"
	"$vertexcolor" "1"
	"$translucent" "1"
//$alphatest 1
	"$forcerefract" 1
 	"$bluramount" "1"
	"$nofog" "1"
	$refracttint "[1.3 1.3 1.3]"
	"$vertexcolormodulate" "1"
"$refracttinttexture" "particle\liquids\waterflow_mask_001"
}
