"Refract"
{
	"$normalmap" "particle/Liquids/water_puddle_ripple"
 	"$refractamount" "-.25"
	"$vertexalpha" "1"
	"$vertexcolor" "1"
	"$translucent" "1"
//$alphatest 1
$chromatic 1
$chromaticscale 0.8
	"$forcerefract" 1
 	"$bluramount" "2"
	"$nofog" "1"
	$refracttint "[1.3 1.3 1.3]"
	"$vertexcolormodulate" "1"

}
