"Refract"
{
 	"$normalmap" "particle/water_ring_c17_normal"
 	"$refractamount" "-0.3"
	$refracttint "[2.1 2.1 2.1]"
	//"$envmaptint" "[.4 .4 .4]"
	"$vertexalpha" "1"
	"$vertexcolor" "1"
	"$translucent" "1"
	"$forcerefract" 1
 	"$bluramount" "1"
	"$nofog" "1"
	"$vertexcolormodulate" "1"
//	$NoCull 1
"$refracttinttexture" "particle\liquids\waterripple_mask_impact_001"
}
