// Created by Crowbar 0.62
version 1
nodes
  0 "ValveBiped.Bip01_R_Hand" -1
  1 "w_rpg" 0
  2 "rocket" 1
end
skeleton
  time 0
    0 5.511719 3.853516 -1.616211 -1.559315 0.023022 -1.539991
    1 3.644481 -1.765212 -5.611297 1.559315 0.030540 -0.023374
    2 15.707637 0.000001 0.000000 0.000000 0.000000 0.000000
end
