version 1
nodes
  0 "Bip01" -1
  1 "Bip01 Pelvis" 0
  2 "Bip01 L Leg" 1
  3 "Bip01 L Leg1" 2
  4 "Bip01 L Foot" 3
  5 "Bip01 L Toe0" 4
  6 "Bip01 L Toe01" 5
  7 "Bip01 L Toe02" 6
  8 "Bip01 L Toe1" 4
  9 "Bip01 L Toe11" 8
  10 "Bip01 L Toe12" 9
  11 "Bip01 R Leg" 1
  12 "Bip01 R Leg1" 11
  13 "Bip01 R Foot" 12
  14 "Bip01 R Toe0" 13
  15 "Bip01 R Toe01" 14
  16 "Bip01 R Toe02" 15
  17 "Bip01 R Toe1" 13
  18 "Bip01 R Toe11" 17
  19 "Bip01 R Toe12" 18
  20 "Bip01 Spine" 1
  21 "Bip01 Neck" 20
  22 "Bone04" 21
  23 "Bone05" 22
  24 "Bone06" 23
  25 "Bone01" 21
  26 "Bone02" 25
  27 "Bone03" 26
  28 "Bone08" 27
end
skeleton
  time 0
    0 0.093326 8.370518 11.773529 0.000000 0.000000 -1.570939
    1 0.000000 0.000000 0.000000 -1.570795 -1.570796 0.000000
    2 -0.000008 0.000009 5.704314 0.000001 -2.967150 -0.091278
    3 5.820532 0.000000 0.000000 0.000000 0.000000 -0.400611
    4 5.877043 0.000000 0.000000 0.016063 -0.173711 0.307935
    5 0.508590 1.638791 -0.536845 0.000000 0.000000 1.570796
    6 0.169530 0.000000 0.000001 0.000000 0.000000 0.000000
    7 0.169530 0.000000 -0.000001 0.000000 0.000000 0.000000
    8 0.508590 1.638791 0.536846 0.000000 0.000000 1.570796
    9 0.180832 0.000000 0.000000 0.000000 0.000000 0.000000
    10 0.180832 0.000000 0.000000 0.000000 0.000000 0.000000
    11 0.000008 -0.000006 -5.704314 0.000001 2.967147 -0.091278
    12 5.820532 0.000000 0.000000 0.000000 0.000000 -0.400611
    13 5.877043 0.000000 0.000000 -0.016063 0.173711 0.307935
    14 0.508590 1.638790 0.536845 0.000000 0.000000 1.570796
    15 0.169531 0.000000 0.000001 0.000000 0.000000 0.000000
    16 0.169530 0.000000 -0.000001 0.000000 0.000000 0.000000
    17 0.508590 1.638791 -0.536845 0.000000 0.000000 1.570796
    18 0.180832 0.000000 0.000000 0.000000 0.000000 0.000000
    19 0.180832 0.000000 0.000000 0.000000 0.000000 0.000000
    20 0.403871 0.006247 0.000001 -0.000004 0.000002 2.216241
    21 13.047035 -0.000450 0.000000 0.000000 0.000000 0.000000
    22 -1.703965 0.198453 -4.655851 0.925352 -1.570796 0.000000
    23 -0.974781 -2.069797 0.000000 0.000000 0.000000 0.000000
    24 -0.446564 -7.063140 0.000000 0.000000 0.000000 0.000000
    25 -1.848851 0.220504 4.241694 0.925352 -1.570796 0.000000
    26 0.000000 0.000000 0.000000 0.000000 0.000000 0.000000
    27 0.953910 -2.089518 0.000000 0.000000 0.000000 0.000000
    28 0.863062 -7.358735 0.000000 0.000000 0.000000 0.000000
  time 1
    0 0.093326 8.370518 11.773529 0.000000 -0.069753 -1.570939
    1 0.000000 0.000000 0.000000 -1.570795 -1.570796 0.000000
    2 -0.000008 0.000009 5.704314 -0.011497 -2.964898 -0.021529
    3 5.820532 0.000000 0.000000 0.000000 0.000000 -0.400611
    4 5.877043 0.000000 0.000000 0.027944 -0.174946 0.305965
    5 0.508590 1.638791 -0.536845 0.000000 0.000000 1.570796
    6 0.169530 0.000000 0.000001 0.000000 0.000000 0.000000
    7 0.169530 0.000000 -0.000001 0.000000 0.000000 0.000000
    8 0.508590 1.638791 0.536846 0.000000 0.000000 1.570796
    9 0.180832 0.000000 0.000000 0.000000 0.000000 0.000000
    10 0.180832 0.000000 0.000000 0.000000 0.000000 0.000000
    11 0.000008 -0.000006 -5.704314 0.011515 2.964798 -0.021500
    12 5.820532 0.000000 0.000000 0.000000 0.000000 -0.400611
    13 5.877043 0.000000 0.000000 -0.027940 0.174949 0.305986
    14 0.508590 1.638790 0.536845 0.000000 0.000000 1.570796
    15 0.169531 0.000000 0.000001 0.000000 0.000000 0.000000
    16 0.169530 0.000000 -0.000001 0.000000 0.000000 0.000000
    17 0.508590 1.638791 -0.536845 0.000000 0.000000 1.570796
    18 0.180832 0.000000 0.000000 0.000000 0.000000 0.000000
    19 0.180832 0.000000 0.000000 0.000000 0.000000 0.000000
    20 0.403871 0.006247 0.000001 -0.000004 0.000002 2.216241
    21 13.047035 -0.000450 0.000000 0.000000 0.000000 0.000000
    22 -1.703965 0.198453 -4.655851 -0.164357 -1.586846 0.786447
    23 -0.974781 -2.069797 0.000000 0.000000 0.000000 0.000000
    24 -0.446564 -7.063140 0.000000 0.000000 0.000000 0.000000
    25 -1.848851 0.220504 4.241694 0.407961 -1.570796 0.000000
    26 0.000000 0.000000 0.000000 0.201089 0.003495 -0.001678
    27 0.953910 -2.089518 0.000000 0.000000 0.000000 0.000000
    28 0.863062 -7.358735 0.000000 0.000000 0.000000 0.000000
  time 2
    0 0.093326 8.370518 11.773529 0.000000 -0.219484 -1.570939
    1 0.000000 0.000000 0.000000 -1.570795 -1.570796 0.000000
    2 -0.000008 0.000009 5.704314 -0.035855 -2.959962 0.128481
    3 5.820532 0.000000 0.000000 0.000000 0.000000 -0.400611
    4 5.877043 0.000000 0.000000 0.053066 -0.177556 0.301614
    5 0.508590 1.638791 -0.536845 0.000000 0.000000 1.570796
    6 0.169530 0.000000 0.000001 0.000000 0.000000 0.000000
    7 0.169530 0.000000 -0.000001 0.000000 0.000000 0.000000
    8 0.508590 1.638791 0.536846 0.000000 0.000000 1.570796
    9 0.180832 0.000000 0.000000 0.000000 0.000000 0.000000
    10 0.180832 0.000000 0.000000 0.000000 0.000000 0.000000
    11 0.000008 -0.000006 -5.704314 0.035936 2.959837 0.128444
    12 5.820532 0.000000 0.000000 0.000000 0.000000 -0.400611
    13 5.877043 0.000000 0.000000 -0.053069 0.177547 0.301530
    14 0.508590 1.638790 0.536845 0.000000 0.000000 1.570796
    15 0.169531 0.000000 0.000001 0.000000 0.000000 0.000000
    16 0.169530 0.000000 -0.000001 0.000000 0.000000 0.000000
    17 0.508590 1.638791 -0.536845 0.000000 0.000000 1.570796
    18 0.180832 0.000000 0.000000 0.000000 0.000000 0.000000
    19 0.180832 0.000000 0.000000 0.000000 0.000000 0.000000
    20 0.403871 0.006247 0.000001 -0.000004 0.000002 2.216241
    21 13.047035 -0.000450 0.000000 0.000000 0.000000 0.000000
    22 -1.703965 0.198453 -4.655851 -0.315946 -1.602612 0.634621
    23 -0.974781 -2.069797 0.000000 0.000000 0.000000 0.000000
    24 -0.446564 -7.063140 0.000000 0.000000 0.000000 0.000000
    25 -1.848851 0.220504 4.241694 -0.109353 -1.570796 0.000000
    26 0.000000 0.000000 0.000000 0.422294 0.013268 -0.004614
    27 0.953910 -2.089518 0.000000 0.000000 0.000000 0.000000
    28 0.863062 -7.358735 0.000000 0.000000 0.000000 0.000000
  time 3
    0 0.093326 8.370518 11.773529 0.000000 -0.372867 -1.570939
    1 0.000000 0.000000 0.000000 -1.570795 -1.570796 0.000000
    2 -0.000008 0.000009 5.704314 -0.060468 -2.954853 0.281928
    3 5.820532 0.000000 0.000000 0.000000 0.000000 -0.400611
    4 5.877043 0.000000 0.000000 0.078480 -0.180044 0.297099
    5 0.508590 1.638791 -0.536845 0.000000 0.000000 1.570796
    6 0.169530 0.000000 0.000001 0.000000 0.000000 0.000000
    7 0.169530 0.000000 -0.000001 0.000000 0.000000 0.000000
    8 0.508590 1.638791 0.536846 0.000000 0.000000 1.570796
    9 0.180832 0.000000 0.000000 0.000000 0.000000 0.000000
    10 0.180832 0.000000 0.000000 0.000000 0.000000 0.000000
    11 0.000008 -0.000006 -5.704314 0.060578 2.954815 0.281931
    12 5.820532 0.000000 0.000000 0.000000 0.000000 -0.400611
    13 5.877043 0.000000 0.000000 -0.078474 0.180058 0.296982
    14 0.508590 1.638790 0.536845 0.000000 0.000000 1.570796
    15 0.169531 0.000000 0.000001 0.000000 0.000000 0.000000
    16 0.169530 0.000000 -0.000001 0.000000 0.000000 0.000000
    17 0.508590 1.638791 -0.536845 0.000000 0.000000 1.570796
    18 0.180832 0.000000 0.000000 0.000000 0.000000 0.000000
    19 0.180832 0.000000 0.000000 0.000000 0.000000 0.000000
    20 0.403871 0.006247 0.000001 -0.000004 0.000002 2.216241
    21 13.047035 -0.000450 0.000000 0.000000 0.000000 0.000000
    22 -1.703965 0.198453 -4.655851 -0.328196 -1.611577 0.622346
    23 -0.974781 -2.069797 0.000000 0.000000 0.000000 0.000000
    24 -0.446564 -7.063140 0.000000 0.000000 0.000000 0.000000
    25 -1.848851 0.220504 4.241694 -0.348067 -1.570796 0.000000
    26 0.000000 0.000000 0.000000 0.656910 0.027374 -0.006064
    27 0.953910 -2.089518 0.000000 0.000000 0.000000 0.000000
    28 0.863062 -7.358735 0.000000 0.000000 0.000000 0.000000
  time 4
    0 0.093326 8.370518 11.773529 0.000000 -0.525611 -1.570939
    1 0.000000 0.000000 0.000000 -1.570795 -1.570796 0.000000
    2 -0.000008 0.000009 5.704314 -0.084826 -2.950004 0.435173
    3 5.820532 0.000000 0.000000 0.000000 0.000000 -0.400611
    4 5.877043 0.000000 0.000000 0.103544 -0.182425 0.292584
    5 0.508590 1.638791 -0.536845 0.000000 0.000000 1.570796
    6 0.169530 0.000000 0.000001 0.000000 0.000000 0.000000
    7 0.169530 0.000000 -0.000001 0.000000 0.000000 0.000000
    8 0.508590 1.638791 0.536846 0.000000 0.000000 1.570796
    9 0.180832 0.000000 0.000000 0.000000 0.000000 0.000000
    10 0.180832 0.000000 0.000000 0.000000 0.000000 0.000000
    11 0.000008 -0.000006 -5.704314 0.084952 2.949865 0.435180
    12 5.820532 0.000000 0.000000 0.000000 0.000000 -0.400611
    13 5.877043 0.000000 0.000000 -0.103551 0.182429 0.292434
    14 0.508590 1.638790 0.536845 0.000000 0.000000 1.570796
    15 0.169531 0.000000 0.000001 0.000000 0.000000 0.000000
    16 0.169530 0.000000 -0.000001 0.000000 0.000000 0.000000
    17 0.508590 1.638791 -0.536845 0.000000 0.000000 1.570796
    18 0.180832 0.000000 0.000000 0.000000 0.000000 0.000000
    19 0.180832 0.000000 0.000000 0.000000 0.000000 0.000000
    20 0.403871 0.006247 0.000001 -0.000004 0.000002 2.216241
    21 13.047035 -0.000450 0.000000 0.000000 0.000000 0.000000
    22 -1.703965 0.198453 -4.655851 0.004400 -1.632882 0.552571
    23 -0.974781 -2.069797 0.000000 0.000000 0.000000 0.000000
    24 -0.446564 -7.063140 0.000000 0.000000 0.000000 0.000000
    25 -1.848851 0.220504 4.241694 -0.306353 -1.570796 0.000000
    26 0.000000 0.000000 0.000000 0.898231 0.043245 -0.004243
    27 0.953910 -2.089518 0.000000 0.000000 0.000000 0.000000
    28 0.863062 -7.358735 0.000000 0.000000 0.000000 0.000000
  time 5
    0 0.093326 8.370518 11.773529 0.000000 -0.677990 -1.570939
    1 0.000000 0.000000 0.000000 -1.570795 -1.570796 0.000000
    2 -0.000008 0.000009 5.704314 -0.108929 -2.945154 0.587912
    3 5.820532 0.000000 0.000000 0.000000 0.000000 -0.400611
    4 5.877043 0.000000 0.000000 0.128277 -0.184630 0.288069
    5 0.508590 1.638791 -0.536845 0.000000 0.000000 1.570796
    6 0.169530 0.000000 0.000001 0.000000 0.000000 0.000000
    7 0.169530 0.000000 -0.000001 0.000000 0.000000 0.000000
    8 0.508590 1.638791 0.536846 0.000000 0.000000 1.570796
    9 0.180832 0.000000 0.000000 0.000000 0.000000 0.000000
    10 0.180832 0.000000 0.000000 0.000000 0.000000 0.000000
    11 0.000008 -0.000006 -5.704314 0.108945 2.945024 0.587910
    12 5.820532 0.000000 0.000000 0.000000 0.000000 -0.400611
    13 5.877043 0.000000 0.000000 -0.128301 0.184626 0.288072
    14 0.508590 1.638790 0.536845 0.000000 0.000000 1.570796
    15 0.169531 0.000000 0.000001 0.000000 0.000000 0.000000
    16 0.169530 0.000000 -0.000001 0.000000 0.000000 0.000000
    17 0.508590 1.638791 -0.536845 0.000000 0.000000 1.570796
    18 0.180832 0.000000 0.000000 0.000000 0.000000 0.000000
    19 0.180832 0.000000 0.000000 0.000000 0.000000 0.000000
    20 0.403871 0.006247 0.000001 -0.000004 0.000002 2.216241
    21 13.047035 -0.000450 0.000000 0.000000 0.000000 0.000000
    22 -1.703965 0.198453 -4.655851 0.366914 -1.681108 0.544449
    23 -0.974781 -2.069797 0.000000 0.000000 0.000000 0.000000
    24 -0.446564 -7.063140 0.000000 0.000000 0.000000 0.000000
    25 -1.848851 0.220504 4.241694 -0.184712 -1.570796 0.000000
    26 0.000000 0.000000 0.000000 1.139980 0.057850 0.001306
    27 0.953910 -2.089518 0.000000 0.000000 0.000000 0.000000
    28 0.863062 -7.358735 0.000000 0.000000 0.000000 0.000000
  time 6
    0 0.093326 8.370518 11.773529 0.000000 -0.829364 -1.570939
    1 0.000000 0.000000 0.000000 -1.570795 -1.570796 0.000000
    2 -0.000008 0.000009 5.704314 -0.132606 -2.940391 0.740045
    3 5.820532 0.000000 0.000000 0.000000 0.000000 -0.400611
    4 5.877043 0.000000 0.000000 0.152680 -0.186711 0.283554
    5 0.508590 1.638791 -0.536845 0.000000 0.000000 1.570796
    6 0.169530 0.000000 0.000001 0.000000 0.000000 0.000000
    7 0.169530 0.000000 -0.000001 0.000000 0.000000 0.000000
    8 0.508590 1.638791 0.536846 0.000000 0.000000 1.570796
    9 0.180832 0.000000 0.000000 0.000000 0.000000 0.000000
    10 0.180832 0.000000 0.000000 0.000000 0.000000 0.000000
    11 0.000008 -0.000006 -5.704314 0.132654 2.940242 0.740004
    12 5.820532 0.000000 0.000000 0.000000 0.000000 -0.400611
    13 5.877043 0.000000 0.000000 -0.152696 0.186718 0.283523
    14 0.508590 1.638790 0.536845 0.000000 0.000000 1.570796
    15 0.169531 0.000000 0.000001 0.000000 0.000000 0.000000
    16 0.169530 0.000000 -0.000001 0.000000 0.000000 0.000000
    17 0.508590 1.638791 -0.536845 0.000000 0.000000 1.570796
    18 0.180832 0.000000 0.000000 0.000000 0.000000 0.000000
    19 0.180832 0.000000 0.000000 0.000000 0.000000 0.000000
    20 0.403871 0.006247 0.000001 -0.000004 0.000002 2.216241
    21 13.047035 -0.000450 0.000000 0.000000 0.000000 0.000000
    22 -1.703965 0.198453 -4.655851 0.663175 -1.735181 0.666094
    23 -0.974781 -2.069797 0.000000 0.000000 0.000000 0.000000
    24 -0.446564 -7.063140 0.000000 0.000000 0.000000 0.000000
    25 -1.848851 0.220504 4.241694 -0.007732 -1.570796 0.000000
    26 0.000000 0.000000 0.000000 1.375309 0.068461 0.009696
    27 0.953910 -2.089518 0.000000 0.000000 0.000000 0.000000
    28 0.863062 -7.358735 0.000000 0.000000 0.000000 0.000000
  time 7
    0 0.093326 8.370518 11.773529 0.000000 -0.980008 -1.570939
    1 0.000000 0.000000 0.000000 -1.570795 -1.570796 0.000000
    2 -0.000008 0.000009 5.704314 -0.156027 -2.935628 0.891319
    3 5.820532 0.000000 0.000000 0.000000 0.000000 -0.400611
    4 5.877043 0.000000 0.000000 0.176772 -0.188652 0.279039
    5 0.508590 1.638791 -0.536845 0.000000 0.000000 1.570796
    6 0.169530 0.000000 0.000001 0.000000 0.000000 0.000000
    7 0.169530 0.000000 -0.000001 0.000000 0.000000 0.000000
    8 0.508590 1.638791 0.536846 0.000000 0.000000 1.570796
    9 0.180832 0.000000 0.000000 0.000000 0.000000 0.000000
    10 0.180832 0.000000 0.000000 0.000000 0.000000 0.000000
    11 0.000008 -0.000006 -5.704314 0.156077 2.935544 0.891302
    12 5.820532 0.000000 0.000000 0.000000 0.000000 -0.400611
    13 5.877043 0.000000 0.000000 -0.176790 0.188636 0.278975
    14 0.508590 1.638790 0.536845 0.000000 0.000000 1.570796
    15 0.169531 0.000000 0.000001 0.000000 0.000000 0.000000
    16 0.169530 0.000000 -0.000001 0.000000 0.000000 0.000000
    17 0.508590 1.638791 -0.536845 0.000000 0.000000 1.570796
    18 0.180832 0.000000 0.000000 0.000000 0.000000 0.000000
    19 0.180832 0.000000 0.000000 0.000000 0.000000 0.000000
    20 0.403871 0.006247 0.000001 -0.000004 0.000002 2.216241
    21 13.047035 -0.000450 0.000000 0.000000 0.000000 0.000000
    22 -1.703965 0.198453 -4.655851 0.934936 -1.774519 0.846346
    23 -0.974781 -2.069797 0.000000 0.000000 0.000000 0.000000
    24 -0.446564 -7.063140 0.000000 0.000000 0.000000 0.000000
    25 -1.848851 0.220504 4.241694 0.200381 -1.570796 0.000000
    26 0.000000 0.000000 0.000000 1.597370 0.073061 0.018792
    27 0.953910 -2.089518 0.000000 0.000000 0.000000 0.000000
    28 0.863062 -7.358735 0.000000 0.000000 0.000000 0.000000
  time 8
    0 0.093326 8.370518 11.898533 0.136140 -1.078155 -1.696346
    1 -0.136723 0.000000 0.000000 -1.570795 -1.570796 0.000000
    2 -0.000008 0.000009 5.704314 -0.106800 -2.899864 0.653264
    3 5.820532 0.000000 0.000000 0.000000 0.000000 -0.466479
    4 5.877043 0.000000 0.000000 0.207941 -0.163815 -0.038246
    5 0.508590 1.638791 -0.536845 0.000000 0.000000 1.570796
    6 0.169530 0.000000 0.000001 0.000000 0.000000 0.000000
    7 0.169530 0.000000 -0.000001 0.000000 0.000000 0.000000
    8 0.508590 1.638791 0.536846 0.000000 0.000000 1.570796
    9 0.180832 0.000000 0.000000 0.000000 0.000000 0.000000
    10 0.180832 0.000000 0.000000 0.000000 0.000000 0.000000
    11 0.000008 -0.000006 -5.704314 0.081594 2.888576 0.554634
    12 5.820532 0.000000 0.000000 0.000000 0.000000 -0.540754
    13 5.877043 0.000000 0.000000 -0.222736 0.145849 -0.153938
    14 0.508590 1.638790 0.536845 0.000000 0.000000 1.570796
    15 0.169531 0.000000 0.000001 0.000000 0.000000 0.000000
    16 0.169530 0.000000 -0.000001 0.000000 0.000000 0.000000
    17 0.508590 1.638791 -0.536845 0.000000 0.000000 1.570796
    18 0.180832 0.000000 0.000000 0.000000 0.000000 0.000000
    19 0.180832 0.000000 0.000000 0.000000 0.000000 0.000000
    20 0.403871 0.006247 0.000001 -0.000004 0.000002 2.189907
    21 13.047035 -0.000450 0.000000 0.000000 0.000000 0.000000
    22 -1.703965 0.198453 -4.655851 1.190779 -1.784850 1.045150
    23 -0.974781 -2.069797 0.000000 0.000000 0.000000 0.000000
    24 -0.446564 -7.063140 0.000000 0.000000 0.000000 0.000000
    25 -1.848851 0.220504 4.241694 0.415117 -1.570504 0.000000
    26 0.000000 0.000000 0.000000 1.799315 0.070725 0.026043
    27 0.953910 -2.089518 0.000000 0.000000 0.000000 0.000000
    28 0.863062 -7.358735 0.000000 0.000000 0.000000 0.000000
  time 9
    0 0.093326 8.370518 12.054788 0.392219 -1.184154 -1.939298
    1 -0.304697 0.000000 0.000000 -1.570795 -1.570796 0.000000
    2 -0.000008 0.000009 5.704314 -0.045053 -2.876396 0.390645
    3 5.820532 0.000000 0.000000 0.000000 0.000000 -0.528379
    4 5.877043 0.000000 0.000000 0.234697 -0.132523 -0.372852
    5 0.508590 1.638791 -0.536845 0.000000 0.000000 1.570796
    6 0.169530 0.000000 0.000001 0.000000 0.000000 0.000000
    7 0.169530 0.000000 -0.000001 0.000000 0.000000 0.000000
    8 0.508590 1.638791 0.536846 0.000000 0.000000 1.570796
    9 0.180832 0.000000 0.000000 0.000000 0.000000 0.000000
    10 0.180832 0.000000 0.000000 0.000000 0.000000 0.000000
    11 0.000008 -0.000006 -5.704314 -0.013049 2.869449 0.180748
    12 5.820532 0.000000 0.000000 0.000000 0.000000 -0.689142
    13 5.877043 0.000000 0.000000 -0.259559 0.083848 -0.622772
    14 0.508590 1.638790 0.536845 0.000000 0.000000 1.570796
    15 0.169531 0.000000 0.000001 0.000000 0.000000 0.000000
    16 0.169530 0.000000 -0.000001 0.000000 0.000000 0.000000
    17 0.508590 1.638791 -0.536845 0.000000 0.000000 1.570796
    18 0.180832 0.000000 0.000000 0.000000 0.000000 0.000000
    19 0.180832 0.000000 0.000000 0.000000 0.000000 0.000000
    20 0.403871 0.006247 0.000001 -0.000004 0.000002 2.157548
    21 13.047035 -0.000450 0.000000 0.000000 0.000000 0.000000
    22 -1.703965 0.198453 -4.655851 1.423371 -1.760763 1.236293
    23 -0.974781 -2.069797 0.000000 0.000000 0.000000 0.000000
    24 -0.446564 -7.063140 0.000000 0.000000 0.000000 0.000000
    25 -1.848851 0.220504 4.241694 0.612116 -1.570796 0.000000
    26 0.000000 0.000000 0.000000 1.974082 0.061452 0.028943
    27 0.953910 -2.089518 0.000000 0.000000 0.000000 0.000000
    28 0.863062 -7.358735 0.000000 0.000000 0.000000 0.000000
  time 10
    0 0.093326 8.370518 12.218855 0.786451 -1.250620 -2.320503
    1 -0.472671 0.000000 0.000000 -1.570795 -1.570796 0.000000
    2 -0.000008 0.000009 5.704314 0.010562 -2.869814 0.165882
    3 5.820532 0.000000 0.000000 0.000000 0.000000 -0.582125
    4 5.877043 0.000000 0.000000 0.252761 -0.101618 -0.652292
    5 0.508590 1.638791 -0.536845 0.000000 0.000000 1.570796
    6 0.169530 0.000000 0.000001 0.000000 0.000000 0.000000
    7 0.169530 0.000000 -0.000001 0.000000 0.000000 0.000000
    8 0.508590 1.638791 0.536846 0.000000 0.000000 1.570796
    9 0.180832 0.000000 0.000000 0.000000 0.000000 0.000000
    10 0.180832 0.000000 0.000000 0.000000 0.000000 0.000000
    11 0.000008 -0.000006 -5.704314 -0.093565 2.880762 -0.135183
    12 5.820532 0.000000 0.000000 0.000000 0.000000 -0.813692
    13 5.877043 0.000000 0.000000 -0.275748 0.023748 -1.010110
    14 0.508590 1.638790 0.536845 0.000000 0.000000 1.570796
    15 0.169531 0.000000 0.000001 0.000000 0.000000 0.000000
    16 0.169530 0.000000 -0.000001 0.000000 0.000000 0.000000
    17 0.508590 1.638791 -0.536845 0.000000 0.000000 1.570796
    18 0.180832 0.000000 0.000000 0.000000 0.000000 0.000000
    19 0.180832 0.000000 0.000000 0.000000 0.000000 0.000000
    20 0.403871 0.006247 0.000001 -0.000004 0.000002 2.124015
    21 13.047035 -0.000450 0.000000 0.000000 0.000000 0.000000
    22 -1.703965 0.198453 -4.655851 -1.520743 -1.434774 -1.742901
    23 -0.974781 -2.069797 0.000000 0.000000 0.000000 0.000000
    24 -0.446564 -7.063140 0.000000 0.000000 0.000000 0.000000
    25 -1.848851 0.220504 4.241694 0.767174 -1.570796 0.000000
    26 0.000000 0.000000 0.000000 2.114823 0.045973 0.025755
    27 0.953910 -2.089518 0.000000 0.000000 0.000000 0.000000
    28 0.863062 -7.358735 0.000000 0.000000 0.000000 0.000000
  time 11
    0 0.093326 8.370518 12.363391 1.225360 -1.255276 -2.747346
    1 -0.621113 0.000000 0.000000 -1.570795 -1.570796 0.000000
    2 -0.000008 0.000009 5.704314 0.057830 -2.873884 -0.024815
    3 5.820532 0.000000 0.000000 0.000000 0.000000 -0.630936
    4 5.877043 0.000000 0.000000 0.264233 -0.072478 -0.886336
    5 0.508590 1.638791 -0.536845 0.000000 0.000000 1.570796
    6 0.169530 0.000000 0.000001 0.000000 0.000000 0.000000
    7 0.169530 0.000000 -0.000001 0.000000 0.000000 0.000000
    8 0.508590 1.638791 0.536846 0.000000 0.000000 1.570796
    9 0.180832 0.000000 0.000000 0.000000 0.000000 0.000000
    10 0.180832 0.000000 0.000000 0.000000 0.000000 0.000000
    11 0.000008 -0.000006 -5.704314 -0.155014 2.908698 -0.397814
    12 5.820532 0.000000 0.000000 0.000000 0.000000 -0.918560
    13 5.877043 0.000000 0.000000 -0.277557 -0.028489 -1.328761
    14 0.508590 1.638790 0.536845 0.000000 0.000000 1.570796
    15 0.169531 0.000000 0.000001 0.000000 0.000000 0.000000
    16 0.169530 0.000000 -0.000001 0.000000 0.000000 0.000000
    17 0.508590 1.638791 -0.536845 0.000000 0.000000 1.570796
    18 0.180832 0.000000 0.000000 0.000000 0.000000 0.000000
    19 0.180832 0.000000 0.000000 0.000000 0.000000 0.000000
    20 0.403871 0.006247 0.000001 -0.000004 0.000002 2.091929
    21 13.047035 -0.000450 0.000000 0.000000 0.000000 0.000000
    22 -1.703965 0.198453 -4.655851 -1.371237 -1.505129 -1.629009
    23 -0.974781 -2.069797 0.000000 0.000000 0.000000 0.000000
    24 -0.446564 -7.063140 0.000000 0.000000 0.000000 0.000000
    25 -1.848851 0.220504 4.241694 0.855702 -1.570796 0.000000
    26 0.000000 0.000000 0.000000 2.214832 0.025234 0.015844
    27 0.953910 -2.089518 0.000000 0.000000 0.000000 0.000000
    28 0.863062 -7.358735 0.000000 0.000000 0.000000 0.000000
  time 12
    0 0.093326 8.370518 12.472769 1.561013 -1.213735 -3.072368
    1 -0.750023 0.000000 0.000000 -1.570795 -1.570796 0.000000
    2 -0.000008 0.000009 5.704314 0.101436 -2.885921 -0.206667
    3 5.820532 0.000000 0.000000 0.000000 0.000000 -0.682161
    4 5.877043 0.000000 0.000000 0.271486 -0.042262 -1.107737
    5 0.508590 1.638791 -0.536845 0.000000 0.000000 1.570796
    6 0.169530 0.000000 0.000001 0.000000 0.000000 0.000000
    7 0.169530 0.000000 -0.000001 0.000000 0.000000 0.000000
    8 0.508590 1.638791 0.536846 0.000000 0.000000 1.570796
    9 0.180832 0.000000 0.000000 0.000000 0.000000 0.000000
    10 0.180832 0.000000 0.000000 0.000000 0.000000 0.000000
    11 0.000008 -0.000006 -5.704314 -0.203697 2.948439 -0.642335
    12 5.820532 0.000000 0.000000 0.000000 0.000000 -1.018444
    13 5.877043 0.000000 0.000000 -0.269495 -0.076088 -1.623000
    14 0.508590 1.638790 0.536845 0.000000 0.000000 1.570796
    15 0.169531 0.000000 0.000001 0.000000 0.000000 0.000000
    16 0.169530 0.000000 -0.000001 0.000000 0.000000 0.000000
    17 0.508590 1.638791 -0.536845 0.000000 0.000000 1.570796
    18 0.180832 0.000000 0.000000 0.000000 0.000000 0.000000
    19 0.180832 0.000000 0.000000 0.000000 0.000000 0.000000
    20 0.403871 0.006247 0.000001 -0.000004 0.000002 2.062583
    21 13.047035 -0.000450 0.000000 0.000000 0.000000 0.000000
    22 -1.703965 0.198453 -4.655851 3.419782 -1.570461 0.000000
    23 -0.974781 -2.069797 0.000000 0.000000 0.000000 0.000000
    24 -0.446564 -7.063140 0.000000 0.000000 0.000000 0.000000
    25 -1.848851 0.220504 4.241694 0.898329 -1.570796 0.000000
    26 0.000000 0.000000 0.000000 2.267690 0.000000 0.000000
    27 0.953910 -2.089518 0.000000 0.000000 0.000000 0.000000
    28 0.863062 -7.358735 0.000000 0.000000 0.000000 0.000000
  time 13
    0 0.093326 8.370518 12.558709 -1.367157 -1.987589 -0.134707
    1 -0.863308 0.000000 0.000000 -1.570795 -1.570796 0.000000
    2 -0.000008 0.000009 5.704314 0.145468 -2.907831 -0.404894
    3 5.820532 0.000000 0.000000 0.000000 0.000000 -0.746474
    4 5.877043 0.000000 0.000000 0.274694 -0.006595 -1.347773
    5 0.508590 1.638791 -0.536845 0.000000 0.000000 1.570796
    6 0.169530 0.000000 0.000001 0.000000 0.000000 0.000000
    7 0.169530 0.000000 -0.000001 0.000000 0.000000 0.000000
    8 0.508590 1.638791 0.536846 0.000000 0.000000 1.570796
    9 0.180832 0.000000 0.000000 0.000000 0.000000 0.000000
    10 0.180832 0.000000 0.000000 0.000000 0.000000 0.000000
    11 0.000008 -0.000006 -5.704314 -0.242847 3.002598 -0.901145
    12 5.820532 0.000000 0.000000 0.000000 0.000000 -1.127274
    13 5.877043 0.000000 0.000000 -0.251694 -0.121926 -1.929214
    14 0.508590 1.638790 0.536845 0.000000 0.000000 1.570796
    15 0.169531 0.000000 0.000001 0.000000 0.000000 0.000000
    16 0.169530 0.000000 -0.000001 0.000000 0.000000 0.000000
    17 0.508590 1.638791 -0.536845 0.000000 0.000000 1.570796
    18 0.180832 0.000000 0.000000 0.000000 0.000000 0.000000
    19 0.180832 0.000000 0.000000 0.000000 0.000000 0.000000
    20 0.403871 0.006247 0.000001 -0.000004 0.000002 2.036249
    21 13.047035 -0.000450 0.000000 0.000000 0.000000 0.000000
    22 -1.703965 0.198453 -4.655851 1.815886 -1.434001 1.445249
    23 -0.974781 -2.069797 0.000000 0.000000 0.000000 0.000000
    24 -0.446564 -7.063140 0.000000 0.000000 0.000000 0.000000
    25 -1.848851 0.220504 4.241694 0.932431 -1.570796 0.000000
    26 0.000000 0.000000 0.000000 2.121457 -0.075505 -0.042617
    27 0.953910 -2.089518 0.000000 0.000000 0.000000 0.000000
    28 0.863062 -7.358735 0.000000 0.000000 0.000000 0.000000
  time 14
    0 0.093326 8.370518 12.617305 -1.233221 -2.050129 -0.260209
    1 -0.953154 0.000000 0.000000 -1.570795 -1.570796 0.000000
    2 -0.000008 0.000009 5.704314 0.188478 -2.942037 -0.626726
    3 5.820532 0.000000 0.000000 0.000000 0.000000 -0.838089
    4 5.877043 0.000000 0.000000 0.271233 0.037451 -1.613504
    5 0.508590 1.638791 -0.536845 0.000000 0.000000 1.570796
    6 0.169530 0.000000 0.000001 0.000000 0.000000 0.000000
    7 0.169530 0.000000 -0.000001 0.000000 0.000000 0.000000
    8 0.508590 1.638791 0.536846 0.000000 0.000000 1.570796
    9 0.180832 0.000000 0.000000 0.000000 0.000000 0.000000
    10 0.180832 0.000000 0.000000 0.000000 0.000000 0.000000
    11 0.000008 -0.000006 -5.704314 -0.267220 3.070143 -1.178027
    12 5.820532 0.000000 0.000000 0.000000 0.000000 -1.248885
    13 5.877043 0.000000 0.000000 -0.226066 -0.160406 -2.234963
    14 0.508590 1.638790 0.536845 0.000000 0.000000 1.570796
    15 0.169531 0.000000 0.000001 0.000000 0.000000 0.000000
    16 0.169530 0.000000 -0.000001 0.000000 0.000000 0.000000
    17 0.508590 1.638791 -0.536845 0.000000 0.000000 1.570796
    18 0.180832 0.000000 0.000000 0.000000 0.000000 0.000000
    19 0.180832 0.000000 0.000000 0.000000 0.000000 0.000000
    20 0.403871 0.006247 0.000001 -0.000004 0.000002 2.012811
    21 13.047035 -0.000450 0.000000 0.000000 0.000000 0.000000
    22 -1.703965 0.198453 -4.655851 1.576127 -1.222498 1.188669
    23 -0.974781 -2.069797 0.000000 0.000000 0.000000 0.000000
    24 -0.446564 -7.063140 0.000000 0.000000 0.000000 0.000000
    25 -1.848851 0.220504 4.241694 0.958997 -1.570796 0.000000
    26 0.000000 0.000000 0.000000 1.723345 -0.223072 -0.072866
    27 0.953910 -2.089518 0.000000 0.000000 0.000000 0.000000
    28 0.863062 -7.358735 0.000000 0.000000 0.000000 0.000000
  time 15
    0 0.093326 8.370518 12.660275 -1.145689 -2.109930 -0.340362
    1 -1.035188 0.000000 0.000000 -1.570795 -1.570796 0.000000
    2 -0.000008 0.000009 5.704314 0.219564 -2.980140 -0.826874
    3 5.820532 0.000000 0.000000 0.000000 0.000000 -0.976960
    4 5.877043 0.000000 0.000000 0.257836 0.086807 -1.840570
    5 0.508590 1.638791 -0.536845 0.000000 0.000000 1.570796
    6 0.169530 0.000000 0.000001 0.000000 0.000000 0.000000
    7 0.169530 0.000000 -0.000001 0.000000 0.000000 0.000000
    8 0.508590 1.638791 0.536846 0.000000 0.000000 1.570796
    9 0.180832 0.000000 0.000000 0.000000 0.000000 0.000000
    10 0.180832 0.000000 0.000000 0.000000 0.000000 0.000000
    11 0.000008 -0.000006 -5.704314 -0.271877 3.125859 -1.395600
    12 5.820532 0.000000 0.000000 0.000000 0.000000 -1.355798
    13 5.877043 0.000000 0.000000 -0.213416 -0.170449 -2.391365
    14 0.508590 1.638790 0.536845 0.000000 0.000000 1.570796
    15 0.169531 0.000000 0.000001 0.000000 0.000000 0.000000
    16 0.169530 0.000000 -0.000001 0.000000 0.000000 0.000000
    17 0.508590 1.638791 -0.536845 0.000000 0.000000 1.570796
    18 0.180832 0.000000 0.000000 0.000000 0.000000 0.000000
    19 0.180832 0.000000 0.000000 0.000000 0.000000 0.000000
    20 0.403871 0.006247 0.000001 -0.000004 0.000002 1.991682
    21 13.047035 -0.000450 0.000000 0.000000 0.000000 0.000000
    22 -1.703965 0.198453 -4.655851 1.249198 -1.052960 0.851238
    23 -0.974781 -2.069797 0.000000 0.000000 0.000000 0.000000
    24 -0.446564 -7.063140 0.000000 0.000000 0.000000 0.000000
    25 -1.848851 0.220504 4.241694 0.978560 -1.570796 0.000000
    26 0.000000 0.000000 0.000000 1.197332 -0.376150 -0.019691
    27 0.953910 -2.089518 0.000000 0.000000 0.000000 0.000000
    28 0.863062 -7.358735 0.000000 0.000000 0.000000 0.000000
  time 16
    0 0.093326 8.370518 12.687619 -1.086439 -2.165623 -0.392615
    1 -1.109409 0.000000 0.000000 -1.570795 -1.570796 0.000000
    2 -0.000008 0.000009 5.704314 0.211388 -2.969402 -0.790231
    3 5.820532 0.000000 0.000000 0.000000 0.000000 -1.637843
    4 5.877043 0.000000 0.000000 0.177297 0.207090 -1.665797
    5 0.508590 1.638791 -0.536845 0.000000 0.000000 1.570796
    6 0.169530 0.000000 0.000001 0.000000 0.000000 0.000000
    7 0.169530 0.000000 -0.000001 0.000000 0.000000 0.000000
    8 0.508590 1.638791 0.536846 0.000000 0.000000 1.570796
    9 0.180832 0.000000 0.000000 0.000000 0.000000 0.000000
    10 0.180832 0.000000 0.000000 0.000000 0.000000 0.000000
    11 0.000008 -0.000006 -5.704314 -0.241580 3.016200 -0.995881
    12 5.820532 0.000000 0.000000 0.000000 0.000000 -1.341163
    13 5.877043 0.000000 0.000000 -0.257920 0.086115 -1.000363
    14 0.508590 1.638790 0.536845 0.000000 0.000000 1.613641
    15 0.169531 0.000000 0.000001 0.000000 0.000000 0.042845
    16 0.169530 0.000000 -0.000001 0.000000 0.000000 0.042845
    17 0.508590 1.638791 -0.536845 0.000000 0.000000 1.613641
    18 0.180832 0.000000 0.000000 0.000000 0.000000 0.042845
    19 0.180832 0.000000 0.000000 0.000000 0.000000 0.042845
    20 0.403871 0.006247 0.000001 -0.000004 0.000002 1.972313
    21 13.047035 -0.000450 0.000000 0.000000 0.000000 0.000000
    22 -1.703965 0.198453 -4.655851 0.939936 -0.989587 0.533835
    23 -0.974781 -2.069797 0.000000 0.000000 0.000000 0.000000
    24 -0.446564 -7.063140 0.000000 0.000000 0.000000 0.000000
    25 -1.848851 0.220504 4.241694 0.991881 -1.570796 0.000000
    26 0.000000 0.000000 0.000000 0.683232 -0.453919 0.096116
    27 0.953910 -2.089518 0.000000 0.000000 0.000000 0.000000
    28 0.863062 -7.358735 0.000000 0.000000 0.000000 0.000000
  time 17
    0 0.093326 8.370518 12.707151 -1.047322 -2.216020 -0.425117
    1 -1.171911 0.000000 0.000000 -1.570795 -1.570796 0.000000
    2 -0.000008 0.000009 5.704314 0.175958 -2.939958 -0.634155
    3 5.820532 0.000000 0.000000 0.000000 0.000000 -2.110078
    4 5.877043 0.000000 0.000000 0.128258 0.234802 -1.233337
    5 0.508590 1.638791 -0.536845 0.000000 0.000000 1.570796
    6 0.169530 0.000000 0.000001 0.000000 0.000000 0.000000
    7 0.169530 0.000000 -0.000001 0.000000 0.000000 0.000000
    8 0.508590 1.638791 0.536846 0.000000 0.000000 1.570796
    9 0.180832 0.000000 0.000000 0.000000 0.000000 0.000000
    10 0.180832 0.000000 0.000000 0.000000 0.000000 0.000000
    11 0.000008 -0.000006 -5.704314 -0.119681 2.902370 -0.377793
    12 5.820532 0.000000 0.000000 0.000000 0.000000 -1.141972
    13 5.877043 0.000000 0.000000 -0.002128 0.266974 0.678565
    14 0.508590 1.638790 0.536845 0.000000 0.000000 1.658008
    15 0.169531 0.000000 0.000001 0.000000 0.000000 0.087212
    16 0.169530 0.000000 -0.000001 0.000000 0.000000 0.087212
    17 0.508590 1.638791 -0.536845 0.000000 0.000000 1.658008
    18 0.180832 0.000000 0.000000 0.000000 0.000000 0.087212
    19 0.180832 0.000000 0.000000 0.000000 0.000000 0.087212
    20 0.403871 0.006247 0.000001 -0.000004 0.000002 1.954040
    21 13.047035 -0.000450 0.000000 0.000000 0.000000 0.000000
    22 -1.703965 0.198453 -4.655851 0.764179 -0.999273 0.353952
    23 -0.974781 -2.069797 0.000000 0.000000 0.000000 0.000000
    24 -0.446564 -7.063140 0.000000 0.000000 0.000000 0.000000
    25 -1.848851 0.220504 4.241694 0.999722 -1.570796 0.000000
    26 0.000000 0.000000 0.000000 0.377782 -0.453830 0.172362
    27 0.953910 -2.089518 0.000000 0.000000 0.000000 0.000000
    28 0.863062 -7.358735 0.000000 0.000000 0.000000 0.000000
  time 18
    0 0.093326 8.370518 12.718870 -1.026326 -2.258657 -0.439978
    1 -1.226600 0.000000 0.000000 -1.570795 -1.570796 0.000000
    2 -0.000008 0.000009 5.704314 0.189670 -2.964119 -0.761118
    3 5.820532 0.000000 0.000000 0.000000 0.000000 -2.031498
    4 5.877043 0.000000 0.000000 0.163083 0.202257 -1.234076
    5 0.508590 1.638791 -0.536845 0.000000 0.000000 1.570796
    6 0.169530 0.000000 0.000001 0.000000 0.000000 0.000000
    7 0.169530 0.000000 -0.000001 0.000000 0.000000 0.000000
    8 0.508590 1.638791 0.536846 0.000000 0.000000 1.570796
    9 0.180832 0.000000 0.000000 0.000000 0.000000 0.000000
    10 0.180832 0.000000 0.000000 0.000000 0.000000 0.000000
    11 0.000008 -0.000006 -5.704314 -0.125937 2.913792 -0.447650
    12 5.820532 0.000000 0.000000 0.000000 0.000000 -1.057490
    13 5.877043 0.000000 0.000000 0.035835 0.257332 0.700749
    14 0.508590 1.638790 0.536845 0.000000 0.000000 1.652279
    15 0.169531 0.000000 0.000001 0.000000 0.000000 0.081483
    16 0.169530 0.000000 -0.000001 0.000000 0.000000 0.081483
    17 0.508590 1.638791 -0.536845 0.000000 0.000000 1.652279
    18 0.180832 0.000000 0.000000 0.000000 0.000000 0.081483
    19 0.180832 0.000000 0.000000 0.000000 0.000000 0.081483
    20 0.403871 0.006247 0.000001 -0.000004 0.000002 1.936119
    21 13.047035 -0.000450 0.000000 0.000000 0.000000 0.000000
    22 -1.703965 0.198453 -4.655851 0.700927 -1.020552 0.290730
    23 -0.974781 -2.069797 0.000000 0.000000 0.000000 0.000000
    24 -0.446564 -7.063140 0.000000 0.000000 0.000000 0.000000
    25 -1.848851 0.220504 4.241694 1.002614 -1.570796 0.000000
    26 0.000000 0.000000 0.000000 0.258798 -0.431218 0.193767
    27 0.953910 -2.089518 0.000000 0.000000 0.000000 0.000000
    28 0.863062 -7.358735 0.000000 0.000000 0.000000 0.000000
  time 19
    0 0.093326 8.370518 12.742309 -1.027285 -2.287325 -0.434225
    1 -1.289102 0.000000 0.000000 -1.570795 -1.570796 0.000000
    2 -0.000008 0.000009 5.704314 0.205426 -2.998845 -0.931042
    3 5.820532 0.000000 0.000000 0.000000 0.000000 -1.869348
    4 5.877043 0.000000 0.000000 0.200922 0.149162 -1.289242
    5 0.508590 1.638791 -0.536845 0.000000 0.000000 1.570796
    6 0.169530 0.000000 0.000001 0.000000 0.000000 0.000000
    7 0.169530 0.000000 -0.000001 0.000000 0.000000 0.000000
    8 0.508590 1.638791 0.536846 0.000000 0.000000 1.570796
    9 0.180832 0.000000 0.000000 0.000000 0.000000 0.000000
    10 0.180832 0.000000 0.000000 0.000000 0.000000 0.000000
    11 0.000008 -0.000006 -5.704314 -0.148790 2.938863 -0.605277
    12 5.820532 0.000000 0.000000 0.000000 0.000000 -0.973966
    13 5.877043 0.000000 0.000000 0.040790 0.247603 0.514088
    14 0.508590 1.638790 0.536845 0.000000 0.000000 1.640582
    15 0.169531 0.000000 0.000001 0.000000 0.000000 0.069786
    16 0.169530 0.000000 -0.000001 0.000000 0.000000 0.069786
    17 0.508590 1.638791 -0.536845 0.000000 0.000000 1.640582
    18 0.180832 0.000000 0.000000 0.000000 0.000000 0.069786
    19 0.180832 0.000000 0.000000 0.000000 0.000000 0.069786
    20 0.403871 0.006247 0.000001 -0.000004 0.000002 1.918002
    21 13.047035 -0.000450 0.000000 0.000000 0.000000 0.000000
    22 -1.703965 0.198453 -4.655851 0.655592 -1.051028 0.245413
    23 -0.974781 -2.069797 0.000000 0.000000 0.000000 0.000000
    24 -0.446564 -7.063140 0.000000 0.000000 0.000000 0.000000
    25 -1.848851 0.220504 4.241694 1.001549 -1.570796 0.000000
    26 0.000000 0.000000 0.000000 0.170059 -0.402721 0.202600
    27 0.953910 -2.089518 0.000000 0.000000 0.000000 0.000000
    28 0.863062 -7.358735 0.000000 0.000000 0.000000 0.000000
  time 20
    0 0.093326 8.370518 12.781372 -1.061416 -2.291342 -0.397409
    1 -1.343791 0.000000 0.000000 -1.570795 -1.570796 0.000000
    2 -0.000008 0.000009 5.704314 0.214454 -3.033570 -1.087977
    3 5.820532 0.000000 0.000000 0.000000 0.000000 -1.692072
    4 5.877043 0.000000 0.000000 0.223205 0.088571 -1.350236
    5 0.508590 1.638791 -0.536845 0.000000 0.000000 1.570796
    6 0.169530 0.000000 0.000001 0.000000 0.000000 0.000000
    7 0.169530 0.000000 -0.000001 0.000000 0.000000 0.000000
    8 0.508590 1.638791 0.536846 0.000000 0.000000 1.570796
    9 0.180832 0.000000 0.000000 0.000000 0.000000 0.000000
    10 0.180832 0.000000 0.000000 0.000000 0.000000 0.000000
    11 0.000008 -0.000006 -5.704314 -0.169299 2.968633 -0.768357
    12 5.820532 0.000000 0.000000 0.000000 0.000000 -0.898942
    13 5.877043 0.000000 0.000000 0.035114 0.238885 0.279161
    14 0.508590 1.638790 0.536845 0.000000 0.000000 1.628166
    15 0.169531 0.000000 0.000001 0.000000 0.000000 0.057370
    16 0.169530 0.000000 -0.000001 0.000000 0.000000 0.057370
    17 0.508590 1.638791 -0.536845 0.000000 0.000000 1.628166
    18 0.180832 0.000000 0.000000 0.000000 0.000000 0.057370
    19 0.180832 0.000000 0.000000 0.000000 0.000000 0.057370
    20 0.403871 0.006247 0.000001 -0.000004 0.000002 1.899338
    21 13.047035 -0.000450 0.000000 0.000000 0.000000 0.000000
    22 -1.703965 0.198453 -4.655851 0.625840 -1.088074 0.215509
    23 -0.974781 -2.069797 0.000000 0.000000 0.000000 0.000000
    24 -0.446564 -7.063140 0.000000 0.000000 0.000000 0.000000
    25 -1.848851 0.220504 4.241694 0.996905 -1.570796 0.000000
    26 0.000000 0.000000 0.000000 0.107357 -0.370728 0.200970
    27 0.953910 -2.089518 0.000000 0.000000 0.000000 0.000000
    28 0.863062 -7.358735 0.000000 0.000000 0.000000 0.000000
  time 21
    0 0.093326 8.370518 12.855593 -1.157673 -2.259478 -0.302011
    1 -1.402387 0.000000 0.000000 -1.570795 -1.570796 0.000000
    2 -0.000008 0.000009 5.704314 0.217009 -3.063880 -1.218983
    3 5.820532 0.000000 0.000000 0.000000 0.000000 -1.520213
    4 5.877043 0.000000 0.000000 0.228533 0.029037 -1.398834
    5 0.508590 1.638791 -0.536845 0.000000 0.000000 1.570796
    6 0.169530 0.000000 0.000001 0.000000 0.000000 0.000000
    7 0.169530 0.000000 -0.000001 0.000000 0.000000 0.000000
    8 0.508590 1.638791 0.536846 0.000000 0.000000 1.570796
    9 0.180832 0.000000 0.000000 0.000000 0.000000 0.000000
    10 0.180832 0.000000 0.000000 0.000000 0.000000 0.000000
    11 0.000008 -0.000006 -5.704314 -0.183125 2.998211 -0.912729
    12 5.820532 0.000000 0.000000 0.000000 0.000000 -0.831841
    13 5.877043 0.000000 0.000000 0.027196 0.230481 0.050174
    14 0.508590 1.638790 0.536845 0.000000 0.000000 1.617069
    15 0.169531 0.000000 0.000001 0.000000 0.000000 0.046273
    16 0.169530 0.000000 -0.000001 0.000000 0.000000 0.046273
    17 0.508590 1.638791 -0.536845 0.000000 0.000000 1.617069
    18 0.180832 0.000000 0.000000 0.000000 0.000000 0.046273
    19 0.180832 0.000000 0.000000 0.000000 0.000000 0.046273
    20 0.403871 0.006247 0.000001 -0.000004 0.000002 1.879656
    21 13.047035 -0.000450 0.000000 0.000000 0.000000 0.000000
    22 -1.703965 0.198453 -4.655851 0.609340 -1.129911 0.199081
    23 -0.974781 -2.069797 0.000000 0.000000 0.000000 0.000000
    24 -0.446564 -7.063140 0.000000 0.000000 0.000000 0.000000
    25 -1.848851 0.220504 4.241694 0.989826 -1.570796 0.000000
    26 0.000000 0.000000 0.000000 0.066269 -0.336561 0.191178
    27 0.953910 -2.089518 0.000000 0.000000 0.000000 0.000000
    28 0.863062 -7.358735 0.000000 0.000000 0.000000 0.000000
  time 22
    0 0.093326 8.370518 12.949346 -1.346064 -2.202964 -0.118216
    1 -1.457076 0.000000 0.000000 -1.570795 -1.570796 0.000000
    2 -0.000008 0.000009 5.704314 0.214795 -3.088560 -1.322898
    3 5.820532 0.000000 0.000000 0.000000 0.000000 -1.354791
    4 5.877043 0.000000 0.000000 0.219608 -0.026157 -1.426335
    5 0.508590 1.638791 -0.536845 0.000000 0.000000 1.570796
    6 0.169530 0.000000 0.000001 0.000000 0.000000 0.000000
    7 0.169530 0.000000 -0.000001 0.000000 0.000000 0.000000
    8 0.508590 1.638791 0.536846 0.000000 0.000000 1.570796
    9 0.180832 0.000000 0.000000 0.000000 0.000000 0.000000
    10 0.180832 0.000000 0.000000 0.000000 0.000000 0.000000
    11 0.000008 -0.000006 -5.704314 -0.190457 3.025117 -1.033417
    12 5.820532 0.000000 0.000000 0.000000 0.000000 -0.769598
    13 5.877043 0.000000 0.000000 0.019908 0.222025 -0.157372
    14 0.508590 1.638790 0.536845 0.000000 0.000000 1.607780
    15 0.169531 0.000000 0.000001 0.000000 0.000000 0.036984
    16 0.169530 0.000000 -0.000001 0.000000 0.000000 0.036984
    17 0.508590 1.638791 -0.536845 0.000000 0.000000 1.607780
    18 0.180832 0.000000 0.000000 0.000000 0.000000 0.036984
    19 0.180832 0.000000 0.000000 0.000000 0.000000 0.036984
    20 0.403871 0.006247 0.000001 -0.000004 0.000002 1.859231
    21 13.047035 -0.000450 0.000000 0.000000 0.000000 0.000000
    22 -1.703965 0.198453 -4.655851 0.603673 -1.175251 0.193451
    23 -0.974781 -2.069797 0.000000 0.000000 0.000000 0.000000
    24 -0.446564 -7.063140 0.000000 0.000000 0.000000 0.000000
    25 -1.848851 0.220504 4.241694 0.980768 -1.570796 0.000000
    26 0.000000 0.000000 0.000000 0.042301 -0.300806 0.175430
    27 0.953910 -2.089518 0.000000 0.000000 0.000000 0.000000
    28 0.863062 -7.358735 0.000000 0.000000 0.000000 0.000000
  time 23
    0 0.093326 8.370518 13.027474 1.488628 -0.985395 -2.960960
    1 -1.507859 0.000000 0.000000 -1.570795 -1.570796 0.000000
    2 -0.000008 0.000009 5.704314 0.208918 -3.105880 -1.393152
    3 5.820532 0.000000 0.000000 0.000000 0.000000 -1.194036
    4 5.877043 0.000000 0.000000 0.198472 -0.075142 -1.420014
    5 0.508590 1.638791 -0.536845 0.000000 0.000000 1.570796
    6 0.169530 0.000000 0.000001 0.000000 0.000000 0.000000
    7 0.169530 0.000000 -0.000001 0.000000 0.000000 0.000000
    8 0.508590 1.638791 0.536846 0.000000 0.000000 1.570796
    9 0.180832 0.000000 0.000000 0.000000 0.000000 0.000000
    10 0.180832 0.000000 0.000000 0.000000 0.000000 0.000000
    11 0.000008 -0.000006 -5.704314 -0.191899 3.046677 -1.122659
    12 5.820532 0.000000 0.000000 0.000000 0.000000 -0.708760
    13 5.877043 0.000000 0.000000 0.014546 0.213342 -0.330296
    14 0.508590 1.638790 0.536845 0.000000 0.000000 1.600913
    15 0.169531 0.000000 0.000001 0.000000 0.000000 0.030117
    16 0.169530 0.000000 -0.000001 0.000000 0.000000 0.030117
    17 0.508590 1.638791 -0.536845 0.000000 0.000000 1.600913
    18 0.180832 0.000000 0.000000 0.000000 0.000000 0.030117
    19 0.180832 0.000000 0.000000 0.000000 0.000000 0.030117
    20 0.403871 0.006247 0.000001 -0.000004 0.000002 1.838689
    21 13.047035 -0.000450 0.000000 0.000000 0.000000 0.000000
    22 -1.703965 0.198453 -4.655851 0.606506 -1.223297 0.196127
    23 -0.974781 -2.069797 0.000000 0.000000 0.000000 0.000000
    24 -0.446564 -7.063140 0.000000 0.000000 0.000000 0.000000
    25 -1.848851 0.220504 4.241694 0.970339 -1.570796 0.000000
    26 0.000000 0.000000 0.000000 0.031387 -0.263767 0.155608
    27 0.953910 -2.089518 0.000000 0.000000 0.000000 0.000000
    28 0.863062 -7.358735 0.000000 0.000000 0.000000 0.000000
  time 24
    0 0.093326 8.370518 13.054818 1.087685 -0.972613 -2.570646
    1 -1.550829 0.000000 0.000000 -1.570795 -1.570796 0.000000
    2 -0.000008 0.000009 5.704314 0.200827 -3.109950 -1.402250
    3 5.820532 0.000000 0.000000 0.000000 0.000000 -1.046744
    4 5.877043 0.000000 0.000000 0.168858 -0.113896 -1.349990
    5 0.508590 1.638791 -0.536845 0.000000 0.000000 1.570796
    6 0.169530 0.000000 0.000001 0.000000 0.000000 0.000000
    7 0.169530 0.000000 -0.000001 0.000000 0.000000 0.000000
    8 0.508590 1.638791 0.536846 0.000000 0.000000 1.570796
    9 0.180832 0.000000 0.000000 0.000000 0.000000 0.000000
    10 0.180832 0.000000 0.000000 0.000000 0.000000 0.000000
    11 0.000008 -0.000006 -5.704314 -0.186878 3.056288 -1.151318
    12 5.820532 0.000000 0.000000 0.000000 0.000000 -0.649585
    13 5.877043 0.000000 0.000000 0.012947 0.204816 -0.426272
    14 0.508590 1.638790 0.536845 0.000000 0.000000 1.598013
    15 0.169531 0.000000 0.000001 0.000000 0.000000 0.027229
    16 0.169530 0.000000 -0.000001 0.000000 0.000000 0.027229
    17 0.508590 1.638791 -0.536845 0.000000 0.000000 1.598013
    18 0.180832 0.000000 0.000000 0.000000 0.000000 0.027229
    19 0.180832 0.000000 0.000000 0.000000 0.000000 0.027229
    20 0.403871 0.006247 0.000001 -0.000004 0.000002 1.819359
    21 13.047035 -0.000450 0.000000 0.000000 0.000000 0.000000
    22 -1.703965 0.198453 -4.655851 0.615340 -1.273171 0.205080
    23 -0.974781 -2.069797 0.000000 0.000000 0.000000 0.000000
    24 -0.446564 -7.063140 0.000000 0.000000 0.000000 0.000000
    25 -1.848851 0.220504 4.241694 0.959606 -1.570796 0.000000
    26 0.000000 0.000000 0.000000 0.029318 -0.225675 0.133317
    27 0.953910 -2.089518 0.000000 0.000000 0.000000 0.000000
    28 0.863062 -7.358735 0.000000 0.000000 0.000000 0.000000
  time 25
    0 0.093326 8.370518 12.984504 0.707451 -0.869536 -2.203246
    1 -1.585986 0.000000 0.000000 -1.570795 -1.570796 0.000000
    2 -0.000008 0.000009 5.704314 0.188648 -3.091851 -1.300306
    3 5.820532 0.000000 0.000000 0.000000 0.000000 -0.914739
    4 5.877043 0.000000 0.000000 0.135627 -0.140655 -1.169470
    5 0.508590 1.638791 -0.536845 0.000000 0.000000 1.570796
    6 0.169530 0.000000 0.000001 0.000000 0.000000 0.000000
    7 0.169530 0.000000 -0.000001 0.000000 0.000000 0.000000
    8 0.508590 1.638791 0.536846 0.000000 0.000000 1.570796
    9 0.180832 0.000000 0.000000 0.000000 0.000000 0.000000
    10 0.180832 0.000000 0.000000 0.000000 0.000000 0.000000
    11 0.000008 -0.000006 -5.704314 -0.172989 3.046473 -1.076764
    12 5.820532 0.000000 0.000000 0.000000 0.000000 -0.593987
    13 5.877043 0.000000 0.000000 0.012776 0.196761 -0.405201
    14 0.508590 1.638790 0.536845 0.000000 0.000000 1.596371
    15 0.169531 0.000000 0.000001 0.000000 0.000000 0.025575
    16 0.169530 0.000000 -0.000001 0.000000 0.000000 0.025575
    17 0.508590 1.638791 -0.536845 0.000000 0.000000 1.596371
    18 0.180832 0.000000 0.000000 0.000000 0.000000 0.025575
    19 0.180832 0.000000 0.000000 0.000000 0.000000 0.025575
    20 0.403871 0.006247 0.000001 -0.000004 0.000002 1.804138
    21 13.047035 -0.000450 0.000000 0.000000 0.000000 0.000000
    22 -1.703965 0.198453 -4.655851 0.628007 -1.324282 0.217632
    23 -0.974781 -2.069797 0.000000 0.000000 0.000000 0.000000
    24 -0.446564 -7.063140 0.000000 0.000000 0.000000 0.000000
    25 -1.848851 0.220504 4.241694 0.949102 -1.570796 0.000000
    26 0.000000 0.000000 0.000000 0.032457 -0.186800 0.109863
    27 0.953910 -2.089518 0.000000 0.000000 0.000000 0.000000
    28 0.863062 -7.358735 0.000000 0.000000 0.000000 0.000000
  time 26
    0 0.093326 8.370518 12.796998 0.429513 -0.695519 -1.940352
    1 -1.597705 0.000000 0.000000 -1.570795 -1.570796 0.000000
    2 -0.000008 0.000009 5.704314 0.166675 -3.056346 -1.093334
    3 5.820532 0.000000 0.000000 0.000000 0.000000 -0.785201
    4 5.877043 0.000000 0.000000 0.101619 -0.157306 -0.887567
    5 0.508590 1.638791 -0.536845 0.000000 0.000000 1.570796
    6 0.169530 0.000000 0.000001 0.000000 0.000000 0.000000
    7 0.169530 0.000000 -0.000001 0.000000 0.000000 0.000000
    8 0.508590 1.638791 0.536846 0.000000 0.000000 1.570796
    9 0.180832 0.000000 0.000000 0.000000 0.000000 0.000000
    10 0.180832 0.000000 0.000000 0.000000 0.000000 0.000000
    11 0.000008 -0.000006 -5.704314 -0.148299 3.023199 -0.911534
    12 5.820532 0.000000 0.000000 0.000000 0.000000 -0.542672
    13 5.877043 0.000000 0.000000 0.009565 0.189229 -0.299479
    14 0.508590 1.638790 0.536845 0.000000 0.000000 1.591613
    15 0.169531 0.000000 0.000001 0.000000 0.000000 0.020817
    16 0.169530 0.000000 -0.000001 0.000000 0.000000 0.020817
    17 0.508590 1.638791 -0.536845 0.000000 0.000000 1.591613
    18 0.180832 0.000000 0.000000 0.000000 0.000000 0.020817
    19 0.180832 0.000000 0.000000 0.000000 0.000000 0.020817
    20 0.403871 0.006247 0.000001 -0.000004 0.000002 1.797643
    21 13.047035 -0.000450 0.000000 0.000000 0.000000 0.000000
    22 -1.703965 0.198453 -4.655851 0.642091 -1.375754 0.231753
    23 -0.974781 -2.069797 0.000000 0.000000 0.000000 0.000000
    24 -0.446564 -7.063140 0.000000 0.000000 0.000000 0.000000
    25 -1.848851 0.220504 4.241694 0.939434 -1.570796 0.000000
    26 0.000000 0.000000 0.000000 0.036951 -0.147514 0.086229
    27 0.953910 -2.089518 0.000000 0.000000 0.000000 0.000000
    28 0.863062 -7.358735 0.000000 0.000000 0.000000 0.000000
  time 27
    0 0.093326 8.370518 12.500114 0.245340 -0.491191 -1.772472
    1 -1.543016 0.000000 0.000000 -1.570795 -1.570796 0.000000
    2 -0.000008 0.000009 5.704314 0.130138 -3.016078 -0.818332
    3 5.820532 0.000000 0.000000 0.000000 0.000000 -0.663763
    4 5.877043 0.000000 0.000000 0.071752 -0.165826 -0.546558
    5 0.508590 1.638791 -0.536845 0.000000 0.000000 1.570796
    6 0.169530 0.000000 0.000001 0.000000 0.000000 0.000000
    7 0.169530 0.000000 -0.000001 0.000000 0.000000 0.000000
    8 0.508590 1.638791 0.536846 0.000000 0.000000 1.570796
    9 0.180832 0.000000 0.000000 0.000000 0.000000 0.000000
    10 0.180832 0.000000 0.000000 0.000000 0.000000 0.000000
    11 0.000008 -0.000006 -5.704314 -0.112142 2.996605 -0.687275
    12 5.820532 0.000000 0.000000 0.000000 0.000000 -0.496724
    13 5.877043 0.000000 0.000000 0.003574 0.182987 -0.137601
    14 0.508590 1.638790 0.536845 0.000000 0.000000 1.584818
    15 0.169531 0.000000 0.000001 0.000000 0.000000 0.014022
    16 0.169530 0.000000 -0.000001 0.000000 0.000000 0.014022
    17 0.508590 1.638791 -0.536845 0.000000 0.000000 1.584818
    18 0.180832 0.000000 0.000000 0.000000 0.000000 0.014022
    19 0.180832 0.000000 0.000000 0.000000 0.000000 0.014022
    20 0.403871 0.006247 0.000001 -0.000004 0.000002 1.821355
    21 13.047035 -0.000450 0.000000 0.000000 0.000000 0.000000
    22 -1.703965 0.198453 -4.655851 0.655342 -1.426969 0.245136
    23 -0.974781 -2.069797 0.000000 0.000000 0.000000 0.000000
    24 -0.446564 -7.063140 0.000000 0.000000 0.000000 0.000000
    25 -1.848851 0.220504 4.241694 0.931670 -1.570796 0.000000
    26 0.000000 0.000000 0.000000 0.039305 -0.108371 0.063159
    27 0.953910 -2.089518 0.000000 0.000000 0.000000 0.000000
    28 0.863062 -7.358735 0.000000 0.000000 0.000000 0.000000
  time 28
    0 0.093326 8.370518 12.121196 0.124156 -0.290880 -1.668063
    1 -1.234413 0.000000 0.000000 -1.570795 -1.570796 0.000000
    2 -0.000008 0.000009 5.704314 0.081677 -2.984816 -0.523265
    3 5.820532 0.000000 0.000000 0.000000 0.000000 -0.555949
    4 5.877043 0.000000 0.000000 0.047991 -0.170060 -0.197586
    5 0.508590 1.638791 -0.536845 0.000000 0.000000 1.570796
    6 0.169530 0.000000 0.000001 0.000000 0.000000 0.000000
    7 0.169530 0.000000 -0.000001 0.000000 0.000000 0.000000
    8 0.508590 1.638791 0.536846 0.000000 0.000000 1.570796
    9 0.180832 0.000000 0.000000 0.000000 0.000000 0.000000
    10 0.180832 0.000000 0.000000 0.000000 0.000000 0.000000
    11 0.000008 -0.000006 -5.704314 -0.068733 2.976663 -0.444903
    12 5.820532 0.000000 0.000000 0.000000 0.000000 -0.457295
    13 5.877043 0.000000 0.000000 -0.003898 0.178506 0.044140
    14 0.508590 1.638790 0.536845 0.000000 0.000000 1.577795
    15 0.169531 0.000000 0.000001 0.000000 0.000000 0.007011
    16 0.169530 0.000000 -0.000001 0.000000 0.000000 0.007011
    17 0.508590 1.638791 -0.536845 0.000000 0.000000 1.577795
    18 0.180832 0.000000 0.000000 0.000000 0.000000 0.007011
    19 0.180832 0.000000 0.000000 0.000000 0.000000 0.007011
    20 0.403871 0.006247 0.000001 -0.000004 0.000002 1.934906
    21 13.047035 -0.000450 0.000000 0.000000 0.000000 0.000000
    22 -1.703965 0.198453 -4.655851 0.665592 -1.477023 0.255196
    23 -0.974781 -2.069797 0.000000 0.000000 0.000000 0.000000
    24 -0.446564 -7.063140 0.000000 0.000000 0.000000 0.000000
    25 -1.848851 0.220504 4.241694 0.926113 -1.570504 0.000000
    26 0.000000 0.000000 0.000000 0.036166 -0.070155 0.040999
    27 0.953910 -2.089518 0.000000 0.000000 0.000000 0.000000
    28 0.863062 -7.358735 0.000000 0.000000 0.000000 0.000000
  time 29
    0 0.093326 8.370518 11.836031 0.045732 -0.120698 -1.605072
    1 -0.558611 0.000000 0.000000 -1.570795 -1.570796 0.000000
    2 -0.000008 0.000009 5.704314 0.033387 -2.969575 -0.262769
    3 5.820532 0.000000 0.000000 0.000000 0.000000 -0.466909
    4 5.877043 0.000000 0.000000 0.029713 -0.172564 0.104676
    5 0.508590 1.638791 -0.536845 0.000000 0.000000 1.570796
    6 0.169530 0.000000 0.000001 0.000000 0.000000 0.000000
    7 0.169530 0.000000 -0.000001 0.000000 0.000000 0.000000
    8 0.508590 1.638791 0.536846 0.000000 0.000000 1.570796
    9 0.180832 0.000000 0.000000 0.000000 0.000000 0.000000
    10 0.180832 0.000000 0.000000 0.000000 0.000000 0.000000
    11 0.000008 -0.000006 -5.704314 -0.027730 2.967758 -0.231032
    12 5.820532 0.000000 0.000000 0.000000 0.000000 -0.425150
    13 5.877043 0.000000 0.000000 -0.011029 0.175629 0.205647
    14 0.508590 1.638790 0.536845 0.000000 0.000000 1.572654
    15 0.169531 0.000000 0.000001 0.000000 0.000000 0.001858
    16 0.169530 0.000000 -0.000001 0.000000 0.000000 0.001858
    17 0.508590 1.638791 -0.536845 0.000000 0.000000 1.572654
    18 0.180832 0.000000 0.000000 0.000000 0.000000 0.001858
    19 0.180832 0.000000 0.000000 0.000000 0.000000 0.001858
    20 0.403871 0.006247 0.000001 -0.000004 0.000002 2.105507
    21 13.047035 -0.000450 0.000000 0.000000 0.000000 0.000000
    22 -1.703965 0.198453 -4.655851 0.670509 -1.525249 0.260180
    23 -0.974781 -2.069797 0.000000 0.000000 0.000000 0.000000
    24 -0.446564 -7.063140 0.000000 0.000000 0.000000 0.000000
    25 -1.848851 0.220504 4.241694 0.923982 -1.570796 0.000000
    26 0.000000 0.000000 0.000000 0.024182 -0.033686 0.019954
    27 0.953910 -2.089518 0.000000 0.000000 0.000000 0.000000
    28 0.863062 -7.358735 0.000000 0.000000 0.000000 0.000000
  time 30
    0 0.093326 8.370518 11.773529 0.000000 0.000000 -1.570939
    1 0.000000 0.000000 0.000000 -1.570795 -1.570796 0.000000
    2 -0.000008 0.000009 5.704314 0.000001 -2.967150 -0.091278
    3 5.820532 0.000000 0.000000 0.000000 0.000000 -0.400611
    4 5.877043 0.000000 0.000000 0.016063 -0.173711 0.307935
    5 0.508590 1.638791 -0.536845 0.000000 0.000000 1.570796
    6 0.169530 0.000000 0.000001 0.000000 0.000000 0.000000
    7 0.169530 0.000000 -0.000001 0.000000 0.000000 0.000000
    8 0.508590 1.638791 0.536846 0.000000 0.000000 1.570796
    9 0.180832 0.000000 0.000000 0.000000 0.000000 0.000000
    10 0.180832 0.000000 0.000000 0.000000 0.000000 0.000000
    11 0.000008 -0.000006 -5.704314 0.000001 2.967147 -0.091278
    12 5.820532 0.000000 0.000000 0.000000 0.000000 -0.400611
    13 5.877043 0.000000 0.000000 -0.016063 0.173711 0.307935
    14 0.508590 1.638790 0.536845 0.000000 0.000000 1.570796
    15 0.169531 0.000000 0.000001 0.000000 0.000000 0.000000
    16 0.169530 0.000000 -0.000001 0.000000 0.000000 0.000000
    17 0.508590 1.638791 -0.536845 0.000000 0.000000 1.570796
    18 0.180832 0.000000 0.000000 0.000000 0.000000 0.000000
    19 0.180832 0.000000 0.000000 0.000000 0.000000 0.000000
    20 0.403871 0.006247 0.000001 -0.000004 0.000002 2.216241
    21 13.047035 -0.000450 0.000000 0.000000 0.000000 0.000000
    22 -1.703965 0.198453 -4.655851 0.925352 -1.570796 0.000000
    23 -0.974781 -2.069797 0.000000 0.000000 0.000000 0.000000
    24 -0.446564 -7.063140 0.000000 0.000000 0.000000 0.000000
    25 -1.848851 0.220504 4.241694 0.925352 -1.570504 0.000000
    26 0.000000 0.000000 0.000000 0.000000 0.000000 0.000000
    27 0.953910 -2.089518 0.000000 0.000000 0.000000 0.000000
    28 0.863062 -7.358735 0.000000 0.000000 0.000000 0.000000
end
