// Created by Crowbar 0.63
version 1
nodes
  0 "ValveBiped.Bip01_Spine4" -1
  1 "ValveBiped.Bip01_L_Clavicle" 0
  2 "ValveBiped.Bip01_L_UpperArm" 1
  3 "ValveBiped.Bip01_L_Forearm" 2
  4 "ValveBiped.Bip01_L_Hand" 3
  5 "ValveBiped.Bip01_L_Finger4" 4
  6 "ValveBiped.Bip01_L_Finger41" 5
  7 "ValveBiped.Bip01_L_Finger42" 6
  8 "ValveBiped.Bip01_L_Finger3" 4
  9 "ValveBiped.Bip01_L_Finger31" 8
  10 "ValveBiped.Bip01_L_Finger32" 9
  11 "ValveBiped.Bip01_L_Finger2" 4
  12 "ValveBiped.Bip01_L_Finger21" 11
  13 "ValveBiped.Bip01_L_Finger22" 12
  14 "ValveBiped.Bip01_L_Finger1" 4
  15 "ValveBiped.Bip01_L_Finger11" 14
  16 "ValveBiped.Bip01_L_Finger12" 15
  17 "ValveBiped.Bip01_L_Finger0" 4
  18 "ValveBiped.Bip01_L_Finger01" 17
  19 "ValveBiped.Bip01_L_Finger02" 18
  20 "ValveBiped.Bip01_R_Clavicle" 0
  21 "ValveBiped.Bip01_R_UpperArm" 20
  22 "ValveBiped.Bip01_R_Forearm" 21
  23 "ValveBiped.Bip01_R_Hand" 22
  24 "ValveBiped.Bip01_R_Finger4" 23
  25 "ValveBiped.Bip01_R_Finger41" 24
  26 "ValveBiped.Bip01_R_Finger42" 25
  27 "ValveBiped.Bip01_R_Finger3" 23
  28 "ValveBiped.Bip01_R_Finger31" 27
  29 "ValveBiped.Bip01_R_Finger32" 28
  30 "ValveBiped.Bip01_R_Finger2" 23
  31 "ValveBiped.Bip01_R_Finger21" 30
  32 "ValveBiped.Bip01_R_Finger22" 31
  33 "ValveBiped.Bip01_R_Finger1" 23
  34 "ValveBiped.Bip01_R_Finger11" 33
  35 "ValveBiped.Bip01_R_Finger12" 34
  36 "ValveBiped.Bip01_R_Finger0" 23
  37 "ValveBiped.Bip01_R_Finger01" 36
  38 "ValveBiped.Bip01_R_Finger02" 37
  39 "bone_shell" -1
  40 "bone_gun" -1
  41 "bone_pump" -1
  42 "bone_breach" 40
  43 "ShellEject" 40
  44 "ValveBiped.Gun" 40
end
skeleton
  time 0
    0 0.000000 -0.000006 0.000000 -1.570739 -1.391891 -1.570846
    1 2.033349 1.000767 1.937660 1.596637 -1.286515 2.942961
    2 14.911225 -13.934019 6.789270 -1.218713 -0.742969 -3.341414
    3 11.692551 0.000001 0.000002 0.000000 0.000000 -0.060372
    4 11.481672 0.000001 -0.000027 1.536763 -0.177910 0.248263
    5 3.859713 -0.142405 -1.191975 -0.498790 0.234766 -1.526885
    6 1.312551 -0.000002 0.000002 0.000000 0.000000 -0.121650
    7 0.729362 -0.000002 -0.000003 0.000000 0.000000 -0.169083
    8 3.942339 0.046767 -0.431443 -0.168738 0.216134 -1.074392
    9 1.539095 0.000000 0.000000 0.000000 0.000000 -0.551967
    10 1.196321 -0.000006 0.000000 0.000000 0.000000 -0.430802
    11 3.883699 -0.046763 0.431443 0.040600 0.178385 -0.842870
    12 1.719566 0.000000 -0.000001 0.000000 0.005516 -0.543007
    13 1.209171 -0.000002 0.000000 0.000000 0.003084 -0.560797
    14 3.859869 -0.137947 1.332466 0.296372 0.099974 -0.696278
    15 1.719429 0.000004 -0.000001 0.000000 0.004074 -0.608657
    16 1.099661 0.000002 -0.000001 0.000000 0.002596 -0.504814
    17 0.806057 -0.348926 1.321258 -0.745491 -0.558348 -0.909035
    18 1.789782 -0.000002 0.000002 -0.001426 0.000803 -0.036217
    19 1.207006 0.000000 0.000002 0.000000 0.000000 0.237419
    20 2.033356 1.000772 -1.937610 -1.668474 1.286518 2.942953
    21 22.684903 -17.426313 12.672262 -0.846486 0.781956 -3.675491
    22 11.692557 0.000001 0.000005 0.000000 0.000000 -0.060372
    23 11.481701 0.000001 0.000001 -1.397173 0.501640 0.569667
    24 3.859680 -0.132568 1.193109 0.051198 -0.147138 -1.073644
    25 1.312561 -0.000006 0.000001 0.000000 -0.051833 -0.968097
    26 0.729362 0.000000 -0.000003 0.000000 0.000000 -0.244271
    27 3.942307 0.050327 0.431044 -0.044372 -0.131588 -1.035827
    28 1.539099 0.000002 0.000001 0.000000 0.000000 -0.873596
    29 1.196323 0.000008 0.000000 -0.000001 0.000002 -1.170482
    30 3.883663 -0.050322 -0.431042 -0.080552 -0.178614 -0.792859
    31 1.719578 0.000004 0.000000 0.000000 -0.007969 -1.230378
    32 1.209185 -0.000002 0.000000 0.000000 -0.004459 -0.855816
    33 3.859844 -0.148935 -1.331282 -0.088307 -0.015288 -0.402906
    34 1.719421 0.000004 0.000000 0.000000 -0.006613 -0.633594
    35 1.070313 -0.010971 0.004841 0.035923 -0.018257 -0.517705
    36 0.801270 -0.354492 -1.315430 0.977333 0.368303 -0.948497
    37 1.789783 0.000002 -0.000002 -0.236051 -0.174683 0.578275
    38 1.206999 0.000003 0.000002 0.000000 0.000000 0.557159
    39 -6.037042 -6.927447 -5.193173 1.560096 -0.028054 -1.492443
    40 -5.938270 -9.313398 -4.097910 1.570797 -0.035696 -1.494316
    41 -5.118040 -19.993492 -5.837536 1.570797 -0.035696 -1.494316
    42 4.246094 -1.997070 0.140381 0.000000 0.000000 0.000000
    43 5.891673 0.198951 0.632648 1.563552 -1.555379 -3.126260
    44 30.703125 -0.012833 -0.337646 -1.570813 -0.018051 -0.000508
  time 1
    0 0.000000 -0.000006 0.000000 -1.570739 -1.391891 -1.570846
    1 2.033349 1.000767 1.937660 1.596637 -1.286515 2.942961
    2 19.641838 -16.336436 10.515946 -1.155546 -0.268883 -3.379559
    3 11.692551 0.000001 0.000002 0.000000 0.000000 -0.060372
    4 11.235571 -0.074220 0.078100 1.451971 -0.414391 -0.173027
    5 3.859713 -0.142405 -1.191975 -0.500024 0.235138 -1.537044
    6 1.312551 -0.000002 0.000002 0.000144 0.004734 -0.130387
    7 0.729362 -0.000002 -0.000003 -0.000899 0.005369 -0.179154
    8 3.942339 0.046767 -0.431443 -0.170176 0.216470 -1.084540
    9 1.539095 0.000000 0.000000 -0.000132 0.004566 -0.572744
    10 1.196321 -0.000006 0.000000 -0.003655 0.005860 -0.461854
    11 3.887606 -0.046763 0.431443 0.039438 0.179152 -0.852897
    12 1.719566 0.000000 -0.000001 0.000228 0.005959 -0.552954
    13 1.209171 -0.000002 0.000000 0.000000 0.004486 -0.586508
    14 3.859869 -0.134041 1.332466 0.295401 0.100981 -0.706255
    15 1.719429 0.000004 -0.000001 -0.002577 0.006171 -0.594288
    16 1.099661 0.000002 -0.000001 0.001654 0.001925 -0.514632
    17 0.806057 -0.348926 1.321258 -0.745491 -0.558348 -0.909035
    18 1.789782 -0.000002 0.000002 -0.001426 0.000791 -0.036217
    19 1.207006 0.000000 0.000002 0.000000 0.000000 0.237419
    20 2.033356 1.000772 -1.937610 -1.668474 1.286518 2.942953
    21 20.243422 -17.801325 20.012329 -1.029880 0.885789 2.472762
    22 11.692557 0.000001 0.000005 0.000000 0.000000 -0.060372
    23 11.505139 0.019533 0.019533 -1.370400 0.335867 0.600851
    24 3.859680 -0.132568 1.193109 0.051198 -0.147138 -1.073644
    25 1.312561 -0.000006 0.000001 0.000000 -0.051833 -0.968081
    26 0.729362 0.000000 -0.000003 0.000000 0.000000 -0.244271
    27 3.942307 0.050327 0.431044 -0.044372 -0.131588 -1.035839
    28 1.539099 0.000002 0.000001 0.000000 0.000000 -0.873596
    29 1.196323 0.000008 0.000000 -0.000001 0.000002 -1.170482
    30 3.883663 -0.050322 -0.431042 -0.080552 -0.178614 -0.792859
    31 1.719578 0.000004 0.000000 0.000000 -0.007969 -1.230378
    32 1.209185 -0.000002 0.000000 0.000000 -0.004459 -0.855816
    33 3.859844 -0.148935 -1.331282 -0.088307 -0.015288 -0.402906
    34 1.719421 0.000004 0.000000 0.000000 -0.006613 -0.633607
    35 1.070313 -0.010971 0.004841 0.035923 -0.018257 -0.517705
    36 0.801270 -0.354492 -1.315430 0.977333 0.368303 -0.948497
    37 1.789783 0.000002 -0.000002 -0.236051 -0.174683 0.578275
    38 1.206999 0.000003 0.000002 0.000000 0.000000 0.557159
    39 -6.372989 -1.466343 -4.681439 1.560176 0.026418 -1.492443
    40 -6.274218 -3.906983 -3.715086 1.570797 0.018706 -1.494316
    41 -5.461800 -14.473792 -6.032854 1.570797 0.018706 -1.494316
    42 4.246094 -1.997070 0.140381 0.000000 0.000000 0.000000
    43 5.895580 0.198951 0.632648 1.563552 -1.555379 -3.126260
    44 30.703125 -0.012833 -0.337646 -1.570813 -0.018051 -0.000508
  time 2
    0 0.000000 -0.000006 0.000000 -1.570739 -1.391891 -1.570846
    1 2.033349 1.000767 1.937660 1.596637 -1.286515 2.942961
    2 16.419083 -14.762169 7.359600 -1.209191 -0.653288 -3.350327
    3 11.692551 0.000001 0.000002 0.000000 0.000000 -0.060372
    4 11.395732 0.000001 0.039037 1.477572 -0.283402 0.178029
    5 3.863619 -0.142405 -1.191975 -0.502445 0.235857 -1.557333
    6 1.312551 -0.000002 0.000002 0.000324 0.014238 -0.147909
    7 0.725456 0.003904 -0.000003 -0.002900 0.016419 -0.199750
    8 3.954058 0.046767 -0.431443 -0.173089 0.217057 -1.104836
    9 1.539095 0.003906 0.000000 -0.000767 0.014897 -0.619072
    10 1.196321 -0.000006 0.000000 -0.012824 0.018984 -0.533342
    11 3.899325 -0.046763 0.431443 0.037029 0.180662 -0.873076
    12 1.723473 0.000000 -0.000001 0.000671 0.006894 -0.572849
    13 1.209171 -0.019534 0.000000 -0.000144 0.007710 -0.644783
    14 3.871588 -0.134041 1.332466 0.293459 0.102995 -0.726119
    15 1.719429 0.000004 -0.000001 -0.009480 0.012212 -0.555140
    16 1.103567 0.000002 -0.000001 0.005022 0.000583 -0.534216
    17 0.806057 -0.348926 1.321258 -0.745524 -0.558348 -0.909035
    18 1.789782 -0.000002 0.000002 -0.001426 0.000803 -0.036217
    19 1.207006 0.000000 0.000002 0.000000 0.000000 0.237419
    20 2.033356 1.000772 -1.937610 -1.668474 1.286518 2.942953
    21 23.388049 -18.016175 11.683950 -0.897174 0.660544 -3.701844
    22 11.692557 0.000001 0.000005 0.000000 0.000000 -0.060372
    23 11.469982 0.042971 -0.011718 -1.247505 0.528603 0.800231
    24 3.859680 -0.132568 1.193109 0.051198 -0.147138 -1.073644
    25 1.312561 -0.000006 0.000001 0.000000 -0.051833 -0.968081
    26 0.729362 0.000000 -0.000003 0.000000 0.000000 -0.244271
    27 3.942307 0.050327 0.431044 -0.044372 -0.131588 -1.035827
    28 1.539099 0.000002 0.000001 0.000000 0.000000 -0.873596
    29 1.196323 0.000008 0.000000 -0.000001 0.000002 -1.170482
    30 3.883663 -0.050322 -0.431042 -0.080552 -0.178614 -0.792859
    31 1.719578 0.000004 0.000000 0.000000 -0.007969 -1.230378
    32 1.209185 -0.000002 0.000000 0.000000 -0.004459 -0.855816
    33 3.859844 -0.148935 -1.331282 -0.088307 -0.015288 -0.402906
    34 1.719421 0.000004 0.000000 0.000000 -0.006613 -0.633607
    35 1.070313 -0.010971 0.004841 0.035923 -0.018257 -0.517705
    36 0.801270 -0.354492 -1.315430 0.977333 0.368303 -0.948497
    37 1.789783 0.000002 -0.000002 -0.236051 -0.174683 0.578275
    38 1.206999 0.000003 0.000002 0.000000 0.000000 0.557159
    39 -5.837817 -6.126642 -4.474401 1.596101 0.047147 -1.501550
    40 -5.789828 -8.590720 -3.566644 1.606567 0.039565 -1.503566
    41 -5.008662 -19.110652 -6.103169 1.606567 0.039565 -1.503566
    42 4.246094 -1.997070 0.140381 0.000000 0.000000 0.000000
    43 5.891673 0.198951 0.632648 1.563552 -1.555379 -3.126260
    44 30.703125 -0.012833 -0.337646 -1.570813 -0.018051 -0.000508
  time 3
    0 0.000000 -0.000006 0.000000 -1.570739 -1.391891 -1.570846
    1 2.033349 1.000767 1.937660 1.596637 -1.286515 2.942961
    2 18.208200 -15.797357 9.500290 -1.089174 -0.411418 -3.440611
    3 11.692551 0.000001 0.000002 0.000000 0.000000 -0.060372
    4 11.317605 -0.082033 0.050756 1.522044 -0.363897 0.026283
    5 3.871432 -0.142405 -1.191975 -0.504279 0.236432 -1.572557
    6 1.300832 0.003904 0.000002 0.000336 0.021357 -0.161063
    7 0.721550 0.007811 -0.000003 -0.004770 0.025467 -0.216778
    8 3.961871 0.046767 -0.431443 -0.175270 0.217476 -1.120058
    9 1.543001 0.011719 0.000000 -0.001858 0.025575 -0.667062
    10 1.196321 -0.003912 0.000000 -0.024017 0.032670 -0.612716
    11 3.911044 -0.046763 0.431443 0.035171 0.181728 -0.888179
    12 1.727379 0.000000 -0.000001 0.001043 0.007601 -0.587719
    13 1.197452 -0.042972 0.000000 -0.000479 0.011186 -0.707373
    14 3.883307 -0.130134 1.332466 0.291961 0.104457 -0.741076
    15 1.715523 -0.003903 -0.000001 -0.019235 0.021667 -0.497120
    16 1.099661 0.000002 -0.000001 0.007538 -0.000388 -0.548864
    17 0.806057 -0.348926 1.321258 -0.745491 -0.558348 -0.909035
    18 1.789782 -0.000002 0.000002 -0.001426 0.000791 -0.036217
    19 1.207006 0.000000 0.000002 0.000000 0.000000 0.237419
    20 2.033356 1.000772 -1.937610 -1.668474 1.286518 2.942953
    21 22.833345 -16.500504 16.770043 -0.641055 0.822458 -3.549472
    22 11.692557 0.000001 0.000005 0.000000 0.000000 -0.060372
    23 11.473888 -0.054688 0.000001 -1.523687 0.589073 0.325426
    24 3.859680 -0.132568 1.193109 0.051198 -0.147138 -1.073644
    25 1.312561 -0.000006 0.000001 0.000000 -0.051833 -0.968081
    26 0.729362 0.000000 -0.000003 0.000000 0.000000 -0.244271
    27 3.942307 0.050327 0.431044 -0.044360 -0.131588 -1.035827
    28 1.539099 0.000002 0.000001 0.000000 0.000000 -0.873596
    29 1.196323 0.000008 0.000000 -0.000001 0.000002 -1.170482
    30 3.883663 -0.050322 -0.431042 -0.080552 -0.178614 -0.792859
    31 1.719578 0.000004 0.000000 0.000000 -0.007969 -1.230378
    32 1.209185 -0.000002 0.000000 0.000000 -0.004459 -0.855816
    33 3.859844 -0.148935 -1.331282 -0.088307 -0.015288 -0.402906
    34 1.719421 0.000004 0.000000 0.000000 -0.006613 -0.633607
    35 1.070313 -0.010971 0.004841 0.035923 -0.018257 -0.517705
    36 0.801270 -0.354492 -1.315430 0.977333 0.368303 -0.948497
    37 1.789783 0.000002 -0.000002 -0.236051 -0.174683 0.578275
    38 1.206999 0.000003 0.000002 0.000000 0.000000 0.557159
    39 -5.853442 -3.153895 -5.658031 1.591117 -0.110827 -1.504197
    40 -5.828892 -5.442186 -4.371356 1.601989 -0.118399 -1.506364
    41 -5.059444 -16.231658 -5.224236 1.601989 -0.118399 -1.506364
    42 4.246094 -1.997070 0.140381 0.000000 0.000000 0.000000
    43 5.891673 0.198951 0.632648 1.563552 -1.555379 -3.126260
    44 30.703125 -0.012833 -0.337646 -1.570813 -0.018051 -0.000508
  time 4
    0 0.000000 -0.000006 0.000000 -1.570739 -1.391891 -1.570846
    1 2.033349 1.000767 1.937660 1.596637 -1.286515 2.942961
    2 19.126197 -16.250496 11.078463 -1.057119 -0.244894 -3.453358
    3 11.692551 0.000001 0.000002 0.000000 0.000000 -0.060372
    4 11.239477 -0.195318 0.031224 1.658981 -0.416702 -0.150396
    5 3.867525 -0.142405 -1.191975 -0.503655 0.236216 -1.567492
    6 1.308645 0.003904 0.000002 0.000348 0.018996 -0.156719
    7 0.721550 0.007811 -0.000003 -0.004686 0.025072 -0.216016
    8 3.961871 0.046767 -0.431443 -0.174551 0.217357 -1.115043
    9 1.543001 0.015625 0.000000 -0.002673 0.031328 -0.692728
    10 1.192415 -0.007818 0.000000 -0.032299 0.041503 -0.667090
    11 3.903231 -0.046763 0.431443 0.035782 0.181393 -0.883150
    12 1.727379 -0.003906 -0.000001 0.000923 0.007386 -0.582771
    13 1.193546 -0.054691 0.000000 -0.000839 0.013295 -0.745948
    14 3.879401 -0.134041 1.332466 0.292477 0.103953 -0.736078
    15 1.707710 -0.007809 -0.000001 -0.030465 0.034107 -0.426168
    16 1.103567 0.000002 -0.000001 0.006687 -0.000077 -0.543981
    17 0.806057 -0.348926 1.321258 -0.745491 -0.558348 -0.909035
    18 1.789782 -0.000002 0.000002 -0.001426 0.000791 -0.036217
    19 1.207006 0.000000 0.000002 0.000000 0.000000 0.237419
    20 2.033356 1.000772 -1.937610 -1.668474 1.286518 2.942953
    21 19.770751 -12.340221 22.340526 -0.034823 1.085533 -3.144489
    22 11.692557 0.000001 0.000005 0.000000 0.000000 -0.060372
    23 11.434824 -0.199224 0.093754 -1.911277 0.357108 -0.342127
    24 3.859680 -0.132568 1.193109 0.051198 -0.147138 -1.073644
    25 1.312561 -0.000006 0.000001 0.000000 -0.051833 -0.968097
    26 0.729362 0.000000 -0.000003 0.000000 0.000000 -0.244271
    27 3.942307 0.050327 0.431044 -0.044372 -0.131588 -1.035839
    28 1.539099 0.000002 0.000001 0.000000 0.000000 -0.873596
    29 1.196323 0.000008 0.000000 -0.000001 0.000002 -1.170482
    30 3.883663 -0.050322 -0.431042 -0.080552 -0.178614 -0.792859
    31 1.719578 0.000004 0.000000 0.000000 -0.007969 -1.230378
    32 1.209185 -0.000002 0.000000 0.000000 -0.004459 -0.855816
    33 3.859844 -0.148935 -1.331282 -0.088307 -0.015288 -0.402906
    34 1.719421 0.000004 0.000000 0.000000 -0.006613 -0.633607
    35 1.070313 -0.010971 0.004841 0.035923 -0.018257 -0.517705
    36 0.801270 -0.354492 -1.315430 0.977333 0.368303 -0.948497
    37 1.789783 0.000002 -0.000002 -0.236051 -0.174683 0.578275
    38 1.206999 0.000003 0.000002 0.000000 0.000000 0.557159
    39 -5.978446 -0.306151 -6.982291 1.585933 -0.312781 -1.504742
    40 -5.965615 -2.293653 -5.273727 1.597310 -0.320370 -1.506986
    41 -5.215699 -13.036248 -3.935134 1.597310 -0.320370 -1.506986
    42 4.246094 -1.997070 0.140381 0.000000 0.000000 0.000000
    43 5.891673 0.198951 0.632648 1.563552 -1.555379 -3.126260
    44 30.703125 -0.012833 -0.337646 -1.570813 -0.018051 -0.000508
  time 5
    0 0.000000 -0.000006 0.000000 -1.570739 -1.391891 -1.570846
    1 2.033349 1.000767 1.937660 1.596637 -1.286515 2.942961
    2 18.946504 -16.098148 9.730766 -1.129620 -0.365177 -3.405724
    3 11.692551 0.000001 0.000002 0.000000 0.000000 -0.060372
    4 11.286354 -0.246100 -0.000027 1.742137 -0.355914 -0.151215
    5 3.859713 -0.142405 -1.191975 -0.498790 0.234766 -1.526885
    6 1.312551 -0.000002 0.000002 0.000000 0.000000 -0.121650
    7 0.729362 -0.000002 -0.000003 -0.001246 0.007490 -0.183111
    8 3.942339 0.046767 -0.431443 -0.168738 0.216134 -1.074392
    9 1.543001 0.011719 0.003906 -0.002085 0.026606 -0.672123
    10 1.192415 -0.007818 0.000000 -0.031735 0.040915 -0.663483
    11 3.883699 -0.046763 0.431443 0.040600 0.178385 -0.842870
    12 1.719566 0.000000 -0.000001 0.000000 0.005516 -0.543007
    13 1.193546 -0.050785 0.000000 -0.000683 0.012552 -0.732228
    14 3.859869 -0.137947 1.332466 0.296372 0.099974 -0.696278
    15 1.695991 -0.019528 -0.000001 -0.041838 0.048621 -0.348153
    16 1.099661 0.000002 -0.000001 0.000000 0.002596 -0.504866
    17 0.806057 -0.348926 1.321258 -0.745491 -0.558348 -0.909035
    18 1.789782 -0.000002 0.000002 -0.001426 0.000791 -0.036217
    19 1.207006 0.000000 0.000002 0.000000 0.000000 0.237419
    20 2.033356 1.000772 -1.937610 -1.668474 1.286518 2.942953
    21 19.676998 -13.004303 21.973327 -0.098541 1.106534 -3.187326
    22 11.692557 0.000001 0.000005 0.000000 0.000000 -0.060372
    23 11.434824 -0.195317 0.093754 -1.880166 0.320191 -0.358481
    24 3.859680 -0.132568 1.193109 0.051198 -0.147138 -1.073644
    25 1.312561 -0.000006 0.000001 0.000000 -0.051821 -0.968081
    26 0.729362 0.000000 -0.000003 0.000000 0.000000 -0.244271
    27 3.942307 0.050327 0.431044 -0.044372 -0.131588 -1.035827
    28 1.539099 0.000002 0.000001 0.000000 0.000000 -0.873596
    29 1.196323 0.000008 0.000000 -0.000001 0.000002 -1.170482
    30 3.883663 -0.050322 -0.431042 -0.080552 -0.178614 -0.792859
    31 1.719578 0.000004 0.000000 0.000000 -0.007969 -1.230378
    32 1.209185 -0.000002 0.000000 0.000000 -0.004459 -0.855816
    33 3.859844 -0.148935 -1.331282 -0.088307 -0.015288 -0.402906
    34 1.719421 0.000004 0.000000 0.000000 -0.006613 -0.633607
    35 1.070313 -0.010971 0.004841 0.035923 -0.018257 -0.517705
    36 0.801270 -0.354492 -1.315430 0.977333 0.368303 -0.948497
    37 1.789783 0.000002 -0.000002 -0.236051 -0.174683 0.578275
    38 1.206999 0.000003 0.000002 0.000000 0.000000 0.557159
    39 -6.247986 -0.610848 -7.236205 1.592951 -0.363548 -1.496179
    40 -6.231248 -2.508503 -5.426076 1.604388 -0.371122 -1.498436
    41 -5.383673 -13.161252 -3.548404 1.604388 -0.371122 -1.498436
    42 4.246094 -1.997070 0.140381 0.000000 0.000000 0.000000
    43 5.891673 0.198951 0.632648 1.563552 -1.555379 -3.126260
    44 30.703125 -0.012833 -0.337646 -1.570813 -0.018051 -0.000508
  time 6
    0 0.000000 -0.000006 0.000000 -1.570739 -1.391891 -1.570846
    1 2.033349 1.000767 1.937660 1.596637 -1.286515 2.942961
    2 18.579305 -15.934080 9.746391 -1.111801 -0.377582 -3.419334
    3 11.692551 0.000001 0.000002 0.000000 0.000000 -0.060372
    4 11.294167 -0.242194 -0.000027 1.753837 -0.356319 -0.131237
    5 3.820649 -0.154124 -1.191975 -0.488207 0.231926 -1.435541
    6 1.355522 -0.019534 0.000002 -0.003212 -0.042521 -0.042800
    7 0.752801 -0.011721 -0.000003 0.004482 -0.034600 -0.105041
    8 3.899369 0.046767 -0.431443 -0.155951 0.212611 -0.983030
    9 1.539095 0.000000 0.000000 -0.000515 0.007910 -0.589320
    10 1.196321 -0.000006 0.000000 -0.019918 0.027900 -0.584528
    11 3.836823 -0.054576 0.431443 0.050979 0.170918 -0.752361
    12 1.715660 0.000000 -0.000001 -0.002373 0.001453 -0.453583
    13 1.205265 -0.023440 0.000000 -0.000168 0.007986 -0.649340
    14 3.805180 -0.137947 1.332466 0.304497 0.090531 -0.606807
    15 1.688178 -0.027341 -0.000001 -0.054482 0.067580 -0.251583
    16 1.099661 0.000002 -0.000001 -0.014705 0.009607 -0.416844
    17 0.806057 -0.348926 1.321258 -0.745491 -0.558348 -0.909035
    18 1.789782 -0.000002 0.000002 -0.001426 0.000803 -0.036217
    19 1.207006 0.000000 0.000002 0.000000 0.000000 0.237419
    20 2.033356 1.000772 -1.937610 -1.668474 1.286518 2.942953
    21 19.665279 -13.723075 21.477218 -0.214000 1.123363 -3.262266
    22 11.692557 0.000001 0.000005 0.000000 0.000000 -0.060372
    23 11.442637 -0.187505 0.089847 -1.808277 0.304319 -0.315062
    24 3.859680 -0.132568 1.193109 0.051198 -0.147138 -1.073644
    25 1.312561 -0.000006 0.000001 0.000000 -0.051833 -0.968097
    26 0.729362 0.000000 -0.000003 0.000000 0.000000 -0.244271
    27 3.942307 0.050327 0.431044 -0.044372 -0.131588 -1.035827
    28 1.539099 0.000002 0.000001 0.000000 0.000000 -0.873596
    29 1.196323 0.000008 0.000000 -0.000001 0.000002 -1.170482
    30 3.883663 -0.050322 -0.431042 -0.080552 -0.178614 -0.792859
    31 1.719578 0.000004 0.000000 0.000000 -0.007969 -1.230378
    32 1.209185 -0.000002 0.000000 0.000000 -0.004459 -0.855816
    33 3.859844 -0.148935 -1.331282 -0.088307 -0.015288 -0.402906
    34 1.719421 0.000004 0.000000 0.000000 -0.006613 -0.633607
    35 1.070313 -0.010971 0.004841 0.035923 -0.018257 -0.517705
    36 0.801270 -0.354492 -1.315430 0.977333 0.368303 -0.948497
    37 1.789783 0.000002 -0.000002 -0.236051 -0.174683 0.578275
    38 1.206999 0.000003 0.000002 0.000000 0.000000 0.557159
    39 -6.615184 -1.188991 -7.365115 1.605152 -0.372516 -1.482868
    40 -6.582821 -3.074927 -5.531548 1.616625 -0.380049 -1.485066
    41 -5.575085 -13.692518 -3.564029 1.616625 -0.380049 -1.485066
    42 4.246094 -1.997070 0.140381 0.000000 0.000000 0.000000
    43 5.891673 0.198951 0.632648 1.563540 -1.555379 -3.126260
    44 30.703125 -0.012833 -0.337646 -1.570813 -0.018051 -0.000508
  time 7
    0 0.000000 -0.000006 0.000000 -1.570739 -1.391891 -1.570846
    1 2.033349 1.000767 1.937660 1.596637 -1.286515 2.942961
    2 18.133979 -15.707511 9.914365 -1.095962 -0.377534 -3.430164
    3 11.692551 0.000001 0.000002 0.000000 0.000000 -0.060372
    4 11.301979 -0.234381 -0.000027 1.743772 -0.356509 -0.102012
    5 3.773772 -0.177562 -1.191975 -0.475072 0.229217 -1.318757
    6 1.410211 -0.039066 -0.007811 -0.012200 -0.096332 0.058523
    7 0.799677 -0.039066 -0.019535 0.007095 -0.089333 -0.004445
    8 3.836867 0.042861 -0.431443 -0.140215 0.206463 -0.866475
    9 1.539095 -0.007813 0.000000 -0.000563 -0.017222 -0.476192
    10 1.196321 -0.000006 0.000000 -0.004650 0.007383 -0.469896
    11 3.770415 -0.074108 0.431443 0.063107 0.160120 -0.637003
    12 1.692222 0.007813 -0.000001 -0.005884 -0.003401 -0.339367
    13 1.209171 0.003904 0.000000 -0.000024 0.001574 -0.533082
    14 3.734865 -0.165292 1.332466 0.313642 0.077407 -0.492708
    15 1.676459 -0.046873 -0.000001 -0.066083 0.090171 -0.144063
    16 1.084035 0.003908 -0.000001 -0.032490 0.020405 -0.304510
    17 0.786525 -0.348926 1.309539 -0.725604 -0.586729 -0.921053
    18 1.789782 -0.000002 0.000002 -0.001426 0.000791 -0.036217
    19 1.207006 0.000000 0.000002 0.000000 0.000000 0.237419
    20 2.033356 1.000772 -1.937610 -1.668474 1.286518 2.942953
    21 19.692624 -14.379345 20.906888 -0.348048 1.134613 -3.350814
    22 11.692557 0.000001 0.000005 0.000000 0.000000 -0.060372
    23 11.454356 -0.164066 0.074222 -1.726654 0.299812 -0.241695
    24 3.859680 -0.132568 1.193109 0.051198 -0.147138 -1.073644
    25 1.312561 -0.000006 0.000001 0.000000 -0.051833 -0.968097
    26 0.729362 0.000000 -0.000003 0.000000 0.000000 -0.244271
    27 3.942307 0.050327 0.431044 -0.044372 -0.131588 -1.035839
    28 1.539099 0.000002 0.000001 0.000000 0.000000 -0.873596
    29 1.196323 0.000008 0.000000 -0.000001 0.000002 -1.170482
    30 3.883663 -0.050322 -0.431042 -0.080552 -0.178614 -0.792859
    31 1.719578 0.000004 0.000000 0.000000 -0.007969 -1.230378
    32 1.209185 -0.000002 0.000000 0.000000 -0.004459 -0.855816
    33 3.859844 -0.148935 -1.331282 -0.088307 -0.015288 -0.402906
    34 1.719421 0.000004 0.000000 0.000000 -0.006613 -0.633607
    35 1.070313 -0.010971 0.004841 0.035923 -0.018257 -0.517705
    36 0.801270 -0.354492 -1.315430 0.977333 0.368303 -0.948497
    37 1.789783 0.000002 -0.000002 -0.236051 -0.174683 0.578275
    38 1.206999 0.000003 0.000002 0.000000 0.000000 0.557159
    39 -7.017540 -1.935107 -7.400272 1.616815 -0.353470 -1.473683
    40 -6.981271 -3.856200 -5.605769 1.628221 -0.360978 -1.476127
    41 -5.848531 -14.493324 -3.849194 1.628221 -0.360978 -1.476127
    42 4.246094 -1.997070 0.140381 0.000000 0.000000 0.000000
    43 5.891673 0.198951 0.632648 1.563552 -1.555379 -3.126260
    44 30.703125 -0.012833 -0.337646 -1.570813 -0.018051 -0.000508
  time 8
    0 0.000000 -0.000006 0.000000 -1.570739 -1.391891 -1.570846
    1 2.033349 1.000767 1.937660 1.596637 -1.286515 2.942961
    2 17.739436 -15.484848 9.972961 -1.096339 -0.383326 -3.427768
    3 11.692551 0.000001 0.000002 0.000000 0.000000 -0.060372
    4 11.313698 -0.207037 -0.000027 1.717354 -0.353936 -0.071733
    5 3.734709 -0.197094 -1.191975 -0.464478 0.227803 -1.222319
    6 1.457087 -0.054691 -0.015624 -0.023801 -0.139896 0.142955
    7 0.838741 -0.054691 -0.023441 0.005046 -0.134731 0.079220
    8 3.789991 0.023329 -0.431443 -0.127835 0.200051 -0.770481
    9 1.539095 -0.019532 0.000000 -0.002529 -0.037955 -0.380499
    10 1.196321 0.003901 0.000000 0.006532 -0.011565 -0.371418
    11 3.715726 -0.093640 0.431443 0.072144 0.150245 -0.542042
    12 1.676596 0.015625 -0.000001 -0.009216 -0.007104 -0.244892
    13 1.216984 0.039062 0.000000 -0.000491 -0.003915 -0.434034
    14 3.676270 -0.196543 1.332466 0.319981 0.065854 -0.398654
    15 1.668646 -0.054685 0.003905 -0.073310 0.108819 -0.059788
    16 1.072316 0.007815 -0.000001 -0.046237 0.030796 -0.211995
    17 0.739649 -0.325487 1.262663 -0.678082 -0.649786 -0.953588
    18 1.789782 -0.000002 0.000002 -0.001426 0.000791 -0.036217
    19 1.207006 0.000000 0.000002 0.000000 0.000000 0.237419
    20 2.033356 1.000772 -1.937610 -1.668474 1.286518 2.942953
    21 19.692624 -14.910612 20.426405 -0.486599 1.141504 -3.444537
    22 11.692557 0.000001 0.000005 0.000000 0.000000 -0.060372
    23 11.473888 -0.144535 0.062503 -1.637028 0.295658 -0.135867
    24 3.859680 -0.132568 1.193109 0.051198 -0.147138 -1.073644
    25 1.312561 -0.000006 0.000001 0.000000 -0.051833 -0.968097
    26 0.729362 0.000000 -0.000003 0.000000 0.000000 -0.244271
    27 3.942307 0.050327 0.431044 -0.044372 -0.131588 -1.035839
    28 1.539099 0.000002 0.000001 0.000000 0.000000 -0.873596
    29 1.196323 0.000008 0.000000 -0.000001 0.000002 -1.170482
    30 3.883663 -0.050322 -0.431042 -0.080552 -0.178614 -0.792859
    31 1.719578 0.000004 0.000000 0.000000 -0.007969 -1.230378
    32 1.209185 -0.000002 0.000000 0.000000 -0.004459 -0.855816
    33 3.859844 -0.148935 -1.331282 -0.088307 -0.015288 -0.402906
    34 1.719421 0.000004 0.000000 0.000000 -0.006613 -0.633607
    35 1.070313 -0.010971 0.004841 0.035923 -0.018257 -0.517705
    36 0.801270 -0.354492 -1.315430 0.977333 0.368303 -0.948497
    37 1.789783 0.000002 -0.000002 -0.236051 -0.174683 0.578275
    38 1.206999 0.000003 0.000002 0.000000 0.000000 0.557159
    39 -7.427709 -2.712475 -7.349489 1.629953 -0.301952 -1.465743
    40 -7.383627 -4.723414 -5.668271 1.641338 -0.309385 -1.468199
    41 -6.125883 -15.430853 -4.454681 1.641338 -0.309385 -1.468199
    42 4.246094 -1.997070 0.140381 0.000000 0.000000 0.000000
    43 5.891673 0.198951 0.632648 1.563552 -1.555379 -3.126260
    44 30.703125 -0.012833 -0.337646 -1.570813 -0.018051 -0.000508
  time 9
    0 0.000000 -0.000006 0.000000 -1.570739 -1.391891 -1.570846
    1 2.033349 1.000767 1.937660 1.596637 -1.286515 2.942961
    2 17.380050 -15.266091 9.832331 -1.111047 -0.403550 -3.414446
    3 11.692551 0.000001 0.000002 0.000000 0.000000 -0.060372
    4 11.329324 -0.187505 0.003879 1.687349 -0.344905 -0.041844
    5 3.715177 -0.212719 -1.195881 -0.459061 0.227348 -1.173194
    6 1.480525 -0.058597 -0.015624 -0.031172 -0.161636 0.186348
    7 0.858273 -0.062504 -0.031254 0.002493 -0.157933 0.122455
    8 3.762646 0.015516 -0.431443 -0.121795 0.196348 -0.721688
    9 1.539095 -0.039064 0.000000 -0.004326 -0.049125 -0.327793
    10 1.200228 0.007807 0.000000 0.012188 -0.023166 -0.313772
    11 3.688381 -0.113172 0.431443 0.076314 0.144888 -0.493828
    12 1.664877 0.015625 -0.000001 -0.011062 -0.008854 -0.196830
    13 1.220890 0.058594 0.000000 -0.001019 -0.006983 -0.377989
    14 3.648925 -0.208262 1.332466 0.322810 0.059766 -0.350835
    15 1.664740 -0.058592 0.003905 -0.075827 0.116490 -0.025462
    16 1.068410 0.011721 -0.000001 -0.052828 0.036524 -0.164906
    17 0.696679 -0.302049 1.219693 -0.622711 -0.714137 -0.997799
    18 1.789782 -0.000002 0.000002 -0.001426 0.000803 -0.036217
    19 1.207006 0.000000 0.000002 0.000000 0.000000 0.237419
    20 2.033356 1.000772 -1.937610 -1.668474 1.286518 2.942953
    21 19.704343 -15.352031 19.988891 -0.616910 1.141739 -3.534714
    22 11.692557 0.000001 0.000005 0.000000 0.000000 -0.060372
    23 11.481701 -0.113284 0.054690 -1.553652 0.285547 -0.022624
    24 3.859680 -0.132568 1.193109 0.051198 -0.147138 -1.073644
    25 1.312561 -0.000006 0.000001 0.000000 -0.051821 -0.968081
    26 0.729362 0.000000 -0.000003 0.000000 0.000000 -0.244271
    27 3.942307 0.050327 0.431044 -0.044372 -0.131588 -1.035839
    28 1.539099 0.000002 0.000001 0.000000 0.000000 -0.873596
    29 1.196323 0.000008 0.000000 -0.000001 0.000002 -1.170482
    30 3.883663 -0.050322 -0.431042 -0.080552 -0.178614 -0.792859
    31 1.719578 0.000004 0.000000 0.000000 -0.007969 -1.230378
    32 1.209185 -0.000002 0.000000 0.000000 -0.004459 -0.855816
    33 3.859844 -0.148935 -1.331282 -0.088307 -0.015288 -0.402906
    34 1.719421 0.000004 0.000000 0.000000 -0.006613 -0.633607
    35 1.070313 -0.010971 0.004841 0.035923 -0.018257 -0.517705
    36 0.801270 -0.354492 -1.315430 0.977333 0.368303 -0.948497
    37 1.789783 0.000002 -0.000002 -0.236051 -0.174683 0.578275
    38 1.206999 0.000003 0.000002 0.000000 0.000000 0.557159
    39 -7.798814 -3.435153 -7.251830 1.642512 -0.239550 -1.458971
    40 -7.735200 -5.551565 -5.699522 1.653835 -0.246952 -1.461436
    41 -6.375891 -16.301973 -5.161734 1.653835 -0.246952 -1.461436
    42 4.246094 -1.997070 0.140381 0.000000 0.000000 0.000000
    43 5.891673 0.198951 0.632648 1.563552 -1.555379 -3.126260
    44 30.703125 -0.012833 -0.337646 -1.570813 -0.018051 -0.000508
  time 10
    0 0.000000 -0.000006 0.000000 -1.570739 -1.391891 -1.570846
    1 2.033349 1.000767 1.937660 1.596637 -1.286515 2.942961
    2 17.106604 -15.090304 9.496384 -1.140556 -0.439558 -3.390102
    3 11.692551 0.000001 0.000002 0.000000 0.000000 -0.060372
    4 11.344949 -0.175786 0.003879 1.671498 -0.329678 -0.021437
    5 3.715177 -0.216626 -1.199788 -0.457922 0.227276 -1.162920
    6 1.484432 -0.058597 -0.015624 -0.032826 -0.166142 0.195473
    7 0.862179 -0.062504 -0.031254 0.001738 -0.163326 0.132607
    8 3.758740 0.015516 -0.431443 -0.120548 0.195545 -0.711540
    9 1.539095 -0.042970 0.000000 -0.005117 -0.053295 -0.307474
    10 1.200228 0.007807 0.000000 0.014885 -0.029314 -0.283871
    11 3.684475 -0.113172 0.431443 0.077165 0.143725 -0.483754
    12 1.664877 0.015625 -0.000001 -0.011433 -0.009189 -0.186805
    13 1.216984 0.066406 0.000000 -0.001282 -0.008313 -0.353086
    14 3.641112 -0.212168 1.332466 0.323337 0.058508 -0.340840
    15 1.664740 -0.058592 0.003905 -0.075299 0.113194 -0.038280
    16 1.068410 0.007815 -0.000001 -0.054158 0.037795 -0.155088
    17 0.681053 -0.290330 1.188442 -0.587726 -0.748588 -1.032144
    18 1.789782 -0.000002 0.000002 -0.001426 0.000815 -0.036217
    19 1.207006 0.000000 0.000002 0.000000 0.000000 0.237419
    20 2.033356 1.000772 -1.937610 -1.668474 1.286518 2.942953
    21 19.739500 -15.676260 19.602161 -0.716080 1.137567 -3.604000
    22 11.692557 0.000001 0.000005 0.000000 0.000000 -0.060372
    23 11.489514 -0.093752 0.042971 -1.491339 0.270890 0.067303
    24 3.859680 -0.132568 1.193109 0.051198 -0.147138 -1.073644
    25 1.312561 -0.000006 0.000001 0.000000 -0.051833 -0.968081
    26 0.729362 0.000000 -0.000003 0.000000 0.000000 -0.244271
    27 3.942307 0.050327 0.431044 -0.044360 -0.131588 -1.035839
    28 1.539099 0.000002 0.000001 0.000000 0.000000 -0.873596
    29 1.196323 0.000008 0.000000 -0.000001 0.000002 -1.170482
    30 3.883663 -0.050322 -0.431042 -0.080552 -0.178614 -0.792859
    31 1.719578 0.000004 0.000000 0.000000 -0.007969 -1.230378
    32 1.209185 -0.000002 0.000000 0.000000 -0.004459 -0.855816
    33 3.859844 -0.148935 -1.331282 -0.088307 -0.015288 -0.402906
    34 1.719421 0.000004 0.000000 0.000000 -0.006613 -0.633607
    35 1.070313 -0.010971 0.004841 0.035923 -0.018257 -0.517705
    36 0.801270 -0.354492 -1.315430 0.977333 0.368303 -0.948497
    37 1.789783 0.000002 -0.000002 -0.236051 -0.174683 0.578275
    38 1.206999 0.000003 0.000002 0.000000 0.000000 0.557159
    39 -8.083979 -4.017202 -7.173703 1.652760 -0.187925 -1.453055
    40 -8.004740 -6.207835 -5.734679 1.663932 -0.195377 -1.455684
    41 -6.559490 -16.958243 -5.747689 1.663932 -0.195377 -1.455684
    42 4.246094 -1.997070 0.140381 0.000000 0.000000 0.000000
    43 5.891673 0.198951 0.632648 1.563552 -1.555379 -3.126260
    44 30.703125 -0.012833 -0.337646 -1.570813 -0.018051 -0.000508
  time 11
    0 0.000000 -0.000006 0.000000 -1.570739 -1.391891 -1.570846
    1 2.033349 1.000767 1.937660 1.596637 -1.286515 2.942961
    2 16.911286 -14.957488 9.078402 -1.175251 -0.480682 -3.362307
    3 11.692551 0.000001 0.000002 0.000000 0.000000 -0.060372
    4 11.360575 -0.164067 0.003879 1.667347 -0.313117 -0.007781
    5 3.722990 -0.208813 -1.191975 -0.460199 0.227407 -1.183583
    6 1.476619 -0.058597 -0.011717 -0.029518 -0.157094 0.177150
    7 0.854366 -0.062504 -0.031254 0.002888 -0.154637 0.116325
    8 3.770459 0.015516 -0.431443 -0.123053 0.197151 -0.731954
    9 1.539095 -0.039064 0.000000 -0.004842 -0.052073 -0.313260
    10 1.200228 0.011713 0.000000 0.015496 -0.030812 -0.276620
    11 3.696194 -0.109265 0.431443 0.075451 0.146014 -0.504011
    12 1.668784 0.015625 -0.000001 -0.010654 -0.008470 -0.207035
    13 1.220890 0.066406 0.003906 -0.001270 -0.008301 -0.353312
    14 3.652831 -0.204355 1.332466 0.322234 0.061072 -0.360902
    15 1.672553 -0.050779 -0.000001 -0.072003 0.101509 -0.087967
    16 1.068410 0.007815 -0.000001 -0.051462 0.035314 -0.174775
    17 0.692772 -0.286424 1.180629 -0.578248 -0.755056 -1.050992
    18 1.789782 -0.000002 0.000002 -0.001426 0.000815 -0.036217
    19 1.207006 0.000000 0.000002 0.000000 0.000000 0.237419
    20 2.033356 1.000772 -1.937610 -1.668474 1.286518 2.942953
    21 19.817628 -15.910642 19.234962 -0.782002 1.129269 -3.650095
    22 11.692557 0.000001 0.000005 0.000000 0.000000 -0.060372
    23 11.501233 -0.074220 0.042971 -1.450876 0.259956 0.131484
    24 3.859680 -0.132568 1.193109 0.051198 -0.147138 -1.073644
    25 1.312561 -0.000006 0.000001 0.000000 -0.051833 -0.968097
    26 0.729362 0.000000 -0.000003 0.000000 0.000000 -0.244271
    27 3.942307 0.050327 0.431044 -0.044372 -0.131588 -1.035827
    28 1.539099 0.000002 0.000001 0.000000 0.000000 -0.873596
    29 1.196323 0.000008 0.000000 -0.000001 0.000002 -1.170482
    30 3.883663 -0.050322 -0.431042 -0.080552 -0.178614 -0.792859
    31 1.719578 0.000004 0.000000 0.000000 -0.007969 -1.230378
    32 1.209185 -0.000002 0.000000 0.000000 -0.004459 -0.855816
    33 3.859844 -0.148935 -1.331282 -0.088307 -0.015288 -0.402906
    34 1.719421 0.000004 0.000000 0.000000 -0.006613 -0.633607
    35 1.070313 -0.010971 0.004841 0.035923 -0.018257 -0.517705
    36 0.801270 -0.354492 -1.315430 0.977333 0.368303 -0.948497
    37 1.789783 0.000002 -0.000002 -0.236051 -0.174683 0.578275
    38 1.206999 0.000003 0.000002 0.000000 0.000000 0.557159
    39 -8.251953 -4.462528 -7.099482 1.659358 -0.151926 -1.448929
    40 -8.168807 -6.703944 -5.734679 1.670410 -0.159437 -1.451409
    41 -6.664962 -17.442633 -6.138326 1.670410 -0.159437 -1.451409
    42 4.246094 -1.997070 0.140381 0.000000 0.000000 0.000000
    43 5.891673 0.198951 0.632648 1.563552 -1.555379 -3.126260
    44 30.703125 -0.012833 -0.337646 -1.570813 -0.018051 -0.000508
  time 12
    0 0.000000 -0.000006 0.000000 -1.570739 -1.391891 -1.570846
    1 2.033349 1.000767 1.937660 1.596637 -1.286515 2.942961
    2 16.696435 -14.828578 8.711203 -1.203440 -0.517414 -3.339593
    3 11.692551 0.000001 0.000002 0.000000 0.000000 -0.060372
    4 11.372294 -0.160160 0.003879 1.660553 -0.298557 0.009622
    5 3.742522 -0.197094 -1.191975 -0.464993 0.227863 -1.227154
    6 1.453181 -0.050785 -0.011717 -0.023118 -0.137739 0.138708
    7 0.838741 -0.054691 -0.023441 0.004986 -0.135366 0.080403
    8 3.793897 0.023329 -0.431443 -0.128422 0.200386 -0.775319
    9 1.539095 -0.035157 0.000000 -0.003775 -0.046656 -0.338754
    10 1.200228 0.011713 0.000000 0.014609 -0.028691 -0.286867
    11 3.723538 -0.097546 0.431443 0.071688 0.150736 -0.546837
    12 1.676596 0.011719 -0.000001 -0.009036 -0.006912 -0.249608
    13 1.220890 0.058594 0.000000 -0.001079 -0.007271 -0.372737
    14 3.680176 -0.188730 1.332466 0.319706 0.066478 -0.403363
    15 1.676459 -0.039060 -0.000001 -0.065520 0.084251 -0.164225
    16 1.072316 0.007815 -0.000001 -0.045553 0.030245 -0.216644
    17 0.712304 -0.282517 1.184535 -0.573526 -0.755653 -1.068414
    18 1.789782 -0.000002 0.000002 -0.001426 0.000815 -0.036217
    19 1.207006 0.000000 0.000002 0.000000 0.000000 0.237419
    20 2.033356 1.000772 -1.937610 -1.668474 1.286518 2.942953
    21 19.969976 -16.129399 18.805261 -0.830677 1.113566 -3.683540
    22 11.692557 0.000001 0.000005 0.000000 0.000000 -0.060372
    23 11.501233 -0.058594 0.042971 -1.421428 0.256429 0.189444
    24 3.859680 -0.132568 1.193109 0.051198 -0.147138 -1.073644
    25 1.312561 -0.000006 0.000001 0.000000 -0.051833 -0.968097
    26 0.729362 0.000000 -0.000003 0.000000 0.000000 -0.244271
    27 3.942307 0.050327 0.431044 -0.044372 -0.131588 -1.035827
    28 1.539099 0.000002 0.000001 0.000000 0.000000 -0.873596
    29 1.196323 0.000008 0.000000 -0.000001 0.000002 -1.170482
    30 3.883663 -0.050322 -0.431042 -0.080552 -0.178614 -0.792859
    31 1.719578 0.000004 0.000000 0.000000 -0.007969 -1.230378
    32 1.209185 -0.000002 0.000000 0.000000 -0.004459 -0.855816
    33 3.859844 -0.148935 -1.331282 -0.088307 -0.015288 -0.402906
    34 1.719421 0.000004 0.000000 0.000000 -0.006613 -0.633607
    35 1.070313 -0.010971 0.004841 0.035923 -0.018257 -0.517705
    36 0.801270 -0.354492 -1.315430 0.977333 0.368303 -0.948497
    37 1.789783 0.000002 -0.000002 -0.236051 -0.174683 0.578275
    38 1.206999 0.000003 0.000002 0.000000 0.000000 0.557159
    39 -8.330080 -4.864884 -6.990103 1.662768 -0.121477 -1.446438
    40 -8.243028 -7.149270 -5.699522 1.673689 -0.128918 -1.449077
    41 -6.707932 -17.864521 -6.435210 1.673689 -0.128918 -1.449077
    42 4.246094 -1.997070 0.140381 0.000000 0.000000 0.000000
    43 5.891673 0.198951 0.632648 1.563552 -1.555379 -3.126260
    44 30.703125 -0.012833 -0.337646 -1.570813 -0.018051 -0.000508
  time 13
    0 0.000000 -0.000006 0.000000 -1.570739 -1.391891 -1.570846
    1 2.033349 1.000767 1.937660 1.596637 -1.286515 2.942961
    2 16.473772 -14.699668 8.390881 -1.225501 -0.550574 -3.321957
    3 11.692551 0.000001 0.000002 0.000000 0.000000 -0.060372
    4 11.391826 -0.152348 -0.000027 1.652376 -0.285499 0.029717
    5 3.758147 -0.185375 -1.191975 -0.471453 0.228666 -1.285719
    6 1.425836 -0.042972 -0.011717 -0.015760 -0.111361 0.087282
    7 0.815303 -0.046878 -0.019535 0.006663 -0.109060 0.031768
    8 3.821241 0.038954 -0.431443 -0.135888 0.204377 -0.833553
    9 1.539095 -0.027345 0.000000 -0.002433 -0.038315 -0.377635
    10 1.200228 0.007807 0.000000 0.012608 -0.024029 -0.309566
    11 3.754789 -0.081921 0.431443 0.066295 0.156836 -0.604501
    12 1.688315 0.015625 -0.000001 -0.006987 -0.004707 -0.307025
    13 1.220890 0.046875 0.000000 -0.000719 -0.005485 -0.405478
    14 3.715333 -0.177011 1.332466 0.315943 0.073524 -0.460512
    15 1.688178 -0.027341 -0.000001 -0.055513 0.064416 -0.256909
    16 1.080129 0.003908 -0.000001 -0.037308 0.023821 -0.272797
    17 0.724023 -0.286424 1.188442 -0.571032 -0.752046 -1.082600
    18 1.789782 -0.000002 0.000002 -0.001426 0.000791 -0.036217
    19 1.207006 0.000000 0.000002 0.000000 0.000000 0.237419
    20 2.033356 1.000772 -1.937610 -1.668474 1.286518 2.942953
    21 20.180920 -16.332530 18.332591 -0.864500 1.092190 -3.706252
    22 11.692557 0.000001 0.000005 0.000000 0.000000 -0.060372
    23 11.509045 -0.042969 0.031252 -1.400365 0.259956 0.242255
    24 3.859680 -0.132568 1.193109 0.051198 -0.147138 -1.073644
    25 1.312561 -0.000006 0.000001 0.000000 -0.051833 -0.968097
    26 0.729362 0.000000 -0.000003 0.000000 0.000000 -0.244271
    27 3.942307 0.050327 0.431044 -0.044372 -0.131588 -1.035827
    28 1.539099 0.000002 0.000001 0.000000 0.000000 -0.873596
    29 1.196323 0.000008 0.000000 -0.000001 0.000002 -1.170482
    30 3.883663 -0.050322 -0.431042 -0.080552 -0.178614 -0.792859
    31 1.719578 0.000004 0.000000 0.000000 -0.007969 -1.230378
    32 1.209185 -0.000002 0.000000 0.000000 -0.004459 -0.855816
    33 3.859844 -0.148935 -1.331282 -0.088307 -0.015288 -0.402906
    34 1.719421 0.000004 0.000000 0.000000 -0.006613 -0.633594
    35 1.070313 -0.010971 0.004841 0.035923 -0.018257 -0.517705
    36 0.801270 -0.354492 -1.315430 0.977333 0.368303 -0.948497
    37 1.789783 0.000002 -0.000002 -0.236051 -0.174683 0.578275
    38 1.206999 0.000003 0.000002 0.000000 0.000000 0.557159
    39 -8.326174 -5.220364 -6.876819 1.663146 -0.096184 -1.445971
    40 -8.235215 -7.536000 -5.637020 1.674049 -0.103533 -1.448533
    41 -6.700119 -18.231719 -6.646154 1.674049 -0.103533 -1.448533
    42 4.246094 -1.997070 0.140381 0.000000 0.000000 0.000000
    43 5.891673 0.198951 0.632648 1.563552 -1.555379 -3.126260
    44 30.703125 -0.012833 -0.337646 -1.570813 -0.018051 -0.000508
  time 14
    0 0.000000 -0.000006 0.000000 -1.570739 -1.391891 -1.570846
    1 2.033349 1.000767 1.937660 1.596637 -1.286515 2.942961
    2 16.262828 -14.582476 8.117435 -1.242000 -0.580645 -3.309306
    3 11.692551 0.000001 0.000002 0.000000 0.000000 -0.060372
    4 11.399639 -0.132816 -0.000027 1.642941 -0.273870 0.051373
    5 3.785492 -0.169749 -1.191975 -0.478727 0.229852 -1.351421
    6 1.394585 -0.031253 -0.011717 -0.009120 -0.081351 0.030007
    7 0.787958 -0.035159 -0.011722 0.007035 -0.079350 -0.022820
    8 3.856399 0.046767 -0.431443 -0.144529 0.208332 -0.899043
    9 1.539095 -0.011719 0.000000 -0.001198 -0.028368 -0.423619
    10 1.200228 0.003901 0.000000 0.009743 -0.017929 -0.339575
    11 3.789947 -0.070202 0.431443 0.059847 0.163284 -0.669255
    12 1.700034 0.003906 -0.000001 -0.004866 -0.002070 -0.371297
    13 1.216984 0.035155 0.000000 -0.000407 -0.003280 -0.445572
    14 3.754397 -0.157479 1.332466 0.311245 0.081195 -0.524671
    15 1.699897 -0.015622 -0.000001 -0.042497 0.044894 -0.355871
    16 1.087942 0.000002 -0.000001 -0.027624 0.017157 -0.336016
    17 0.735742 -0.286424 1.207973 -0.567440 -0.745504 -1.091967
    18 1.789782 -0.000002 0.000002 -0.001426 0.000803 -0.036217
    19 1.207006 0.000000 0.000002 0.000000 0.000000 0.237419
    20 2.033356 1.000772 -1.937610 -1.668474 1.286518 2.942953
    21 20.427021 -16.520036 17.820856 -0.885580 1.066548 -3.719381
    22 11.692557 0.000001 0.000005 0.000000 0.000000 -0.060372
    23 11.509045 -0.031250 0.031252 -1.385933 0.269832 0.290411
    24 3.859680 -0.132568 1.193109 0.051198 -0.147138 -1.073644
    25 1.312561 -0.000006 0.000001 0.000000 -0.051833 -0.968081
    26 0.729362 0.000000 -0.000003 0.000000 0.000000 -0.244271
    27 3.942307 0.050327 0.431044 -0.044360 -0.131588 -1.035839
    28 1.539099 0.000002 0.000001 0.000000 0.000000 -0.873596
    29 1.196323 0.000008 0.000000 -0.000001 0.000002 -1.170482
    30 3.883663 -0.050322 -0.431042 -0.080552 -0.178614 -0.792859
    31 1.719578 0.000004 0.000000 0.000000 -0.007969 -1.230378
    32 1.209185 -0.000002 0.000000 0.000000 -0.004459 -0.855816
    33 3.859844 -0.148935 -1.331282 -0.088307 -0.015288 -0.402906
    34 1.719421 0.000004 0.000000 0.000000 -0.006613 -0.633607
    35 1.070313 -0.010971 0.004841 0.035923 -0.018257 -0.517705
    36 0.801270 -0.354492 -1.315430 0.977333 0.368303 -0.948497
    37 1.789783 0.000002 -0.000002 -0.236051 -0.174683 0.578275
    38 1.206999 0.000003 0.000002 0.000000 0.000000 0.557159
    39 -8.255859 -5.540686 -6.724470 1.661033 -0.075473 -1.446905
    40 -8.160994 -7.879761 -5.531548 1.671910 -0.082817 -1.449466
    41 -6.645430 -18.552042 -6.771158 1.671910 -0.082817 -1.449466
    42 4.246094 -1.997070 0.140381 0.000000 0.000000 0.000000
    43 5.891673 0.198951 0.632648 1.563564 -1.555379 -3.126260
    44 30.703125 -0.012833 -0.337646 -1.570813 -0.018051 -0.000508
  time 15
    0 0.000000 -0.000006 0.000000 -1.570739 -1.391891 -1.570846
    1 2.033349 1.000767 1.937660 1.596637 -1.286515 2.942961
    2 16.063604 -14.477005 7.875240 -1.253125 -0.607385 -3.301160
    3 11.692551 0.000001 0.000002 0.000000 0.000000 -0.060372
    4 11.415264 -0.121097 -0.000027 1.632499 -0.263266 0.074277
    5 3.816743 -0.154124 -1.191975 -0.486050 0.231374 -1.416317
    6 1.363334 -0.023440 -0.007811 -0.004290 -0.051462 -0.026200
    7 0.764520 -0.019534 -0.007816 0.005789 -0.049928 -0.076839
    8 3.891556 0.046767 -0.431443 -0.153302 0.211724 -0.963796
    9 1.539095 -0.007813 0.000000 -0.000384 -0.018133 -0.470310
    10 1.196321 0.003901 0.000000 0.006496 -0.011481 -0.371826
    11 3.825104 -0.054576 0.431443 0.053040 0.169240 -0.733384
    12 1.711754 0.000000 -0.000001 -0.002888 0.000626 -0.434796
    13 1.213078 0.019530 0.000000 -0.000192 -0.000991 -0.487105
    14 3.793461 -0.141853 1.332466 0.306103 0.088421 -0.588039
    15 1.711616 -0.007809 -0.000001 -0.027996 0.027887 -0.450834
    16 1.095755 0.000002 -0.000001 -0.017701 0.011249 -0.398429
    17 0.747461 -0.302049 1.223599 -0.597736 -0.714535 -1.060801
    18 1.789782 -0.000002 0.000002 -0.001426 0.000803 -0.036217
    19 1.207006 0.000000 0.000002 0.000000 0.000000 0.237419
    20 2.033356 1.000772 -1.937610 -1.668474 1.286518 2.942953
    21 20.688748 -16.691916 17.285684 -0.896599 1.037953 -3.725323
    22 11.692557 0.000001 0.000005 0.000000 0.000000 -0.060372
    23 11.509045 -0.019531 0.031252 -1.376402 0.285077 0.334324
    24 3.859680 -0.132568 1.193109 0.051198 -0.147138 -1.073644
    25 1.312561 -0.000006 0.000001 0.000000 -0.051833 -0.968081
    26 0.729362 0.000000 -0.000003 0.000000 0.000000 -0.244271
    27 3.942307 0.050327 0.431044 -0.044348 -0.131588 -1.035839
    28 1.539099 0.000002 0.000001 0.000000 0.000000 -0.873596
    29 1.196323 0.000008 0.000000 -0.000001 0.000002 -1.170482
    30 3.883663 -0.050322 -0.431042 -0.080552 -0.178614 -0.792859
    31 1.719578 0.000004 0.000000 0.000000 -0.007969 -1.230378
    32 1.209185 -0.000002 0.000000 0.000000 -0.004459 -0.855816
    33 3.859844 -0.148935 -1.331282 -0.088307 -0.015288 -0.402906
    34 1.719421 0.000004 0.000000 0.000000 -0.006613 -0.633607
    35 1.070313 -0.010971 0.004841 0.035923 -0.018257 -0.517705
    36 0.801270 -0.354492 -1.315430 0.977333 0.368303 -0.948497
    37 1.789783 0.000002 -0.000002 -0.236051 -0.174683 0.578275
    38 1.206999 0.000003 0.000002 0.000000 0.000000 0.557159
    39 -8.126949 -5.814132 -6.564309 1.656607 -0.058933 -1.449396
    40 -8.032084 -8.172738 -5.418263 1.667471 -0.066323 -1.451953
    41 -6.543865 -18.829394 -6.825847 1.667471 -0.066323 -1.451953
    42 4.246094 -1.997070 0.140381 0.000000 0.000000 0.000000
    43 5.891673 0.198951 0.632648 1.563552 -1.555379 -3.126260
    44 30.703125 -0.012833 -0.337646 -1.570813 -0.018051 -0.000508
  time 16
    0 0.000000 -0.000006 0.000000 -1.570739 -1.391891 -1.570846
    1 2.033349 1.000767 1.937660 1.596637 -1.286515 2.942961
    2 15.876098 -14.379345 7.668203 -1.259159 -0.631519 -3.296847
    3 11.692551 0.000001 0.000002 0.000000 0.000000 -0.060372
    4 11.423077 -0.109378 -0.000027 1.621554 -0.253425 0.097532
    5 3.840181 -0.142405 -1.191975 -0.492462 0.232980 -1.472493
    6 1.339896 -0.011721 0.000002 -0.001510 -0.025347 -0.074738
    7 0.744988 -0.007815 -0.000003 0.003428 -0.024509 -0.123626
    8 3.918901 0.046767 -0.431443 -0.161092 0.214181 -1.019935
    9 1.539095 -0.003906 0.000000 -0.000036 -0.008988 -0.511482
    10 1.196321 -0.000006 0.000000 0.003344 -0.005729 -0.401164
    11 3.860261 -0.050670 0.431443 0.046856 0.174034 -0.788955
    12 1.719566 0.000000 -0.000001 -0.001342 0.003071 -0.489713
    13 1.209171 0.007811 0.000000 -0.000048 0.001083 -0.524064
    14 3.828618 -0.137947 1.332466 0.301309 0.094450 -0.642958
    15 1.719429 0.000004 -0.000001 -0.014226 0.014992 -0.531540
    16 1.099661 0.000002 -0.000001 -0.008845 0.006623 -0.452427
    17 0.770900 -0.325487 1.270475 -0.663449 -0.652722 -0.992595
    18 1.789782 -0.000002 0.000002 -0.001426 0.000815 -0.036217
    19 1.207006 0.000000 0.000002 0.000000 0.000000 0.237419
    20 2.033356 1.000772 -1.937610 -1.668474 1.286518 2.942953
    21 20.973913 -16.844264 16.727073 -0.900240 1.007342 -3.725514
    22 11.692557 0.000001 0.000005 0.000000 0.000000 -0.060372
    23 11.501233 -0.015624 0.023439 -1.370580 0.304868 0.374365
    24 3.859680 -0.132568 1.193109 0.051198 -0.147138 -1.073644
    25 1.312561 -0.000006 0.000001 0.000000 -0.051833 -0.968097
    26 0.729362 0.000000 -0.000003 0.000000 0.000000 -0.244271
    27 3.942307 0.050327 0.431044 -0.044372 -0.131588 -1.035827
    28 1.539099 0.000002 0.000001 0.000000 0.000000 -0.873596
    29 1.196323 0.000008 0.000000 -0.000001 0.000002 -1.170482
    30 3.883663 -0.050322 -0.431042 -0.080552 -0.178614 -0.792859
    31 1.719578 0.000004 0.000000 0.000000 -0.007969 -1.230378
    32 1.209185 -0.000002 0.000000 0.000000 -0.004459 -0.855816
    33 3.859844 -0.148935 -1.331282 -0.088307 -0.015288 -0.402906
    34 1.719421 0.000004 0.000000 0.000000 -0.006613 -0.633607
    35 1.070313 -0.010971 0.004841 0.035923 -0.018257 -0.517705
    36 0.801270 -0.354492 -1.315430 0.977333 0.368303 -0.948497
    37 1.789783 0.000002 -0.000002 -0.236051 -0.174683 0.578275
    38 1.206999 0.000003 0.000002 0.000000 0.000000 0.557159
    39 -7.947256 -6.052420 -6.396335 1.650307 -0.046152 -1.452821
    40 -7.848485 -8.422746 -5.285446 1.661153 -0.053657 -1.455140
    41 -6.418861 -19.071589 -6.821941 1.661153 -0.053657 -1.455140
    42 4.246094 -1.997070 0.140381 0.000000 0.000000 0.000000
    43 5.891673 0.198951 0.632648 1.563552 -1.555379 -3.126260
    44 30.703125 -0.012833 -0.337646 -1.570813 -0.018051 -0.000508
  time 17
    0 0.000000 -0.000006 0.000000 -1.570739 -1.391891 -1.570846
    1 2.033349 1.000767 1.937660 1.596637 -1.286515 2.942961
    2 15.700311 -14.293405 7.488510 -1.261516 -0.652950 -3.295984
    3 11.692551 0.000001 0.000002 0.000000 0.000000 -0.060372
    4 11.430889 -0.093752 -0.000027 1.610484 -0.244322 0.120866
    5 3.855806 -0.142405 -1.191975 -0.497064 0.234263 -1.511949
    6 1.312551 -0.000002 0.000002 -0.000288 -0.006927 -0.108836
    7 0.733269 -0.000002 -0.000003 0.001043 -0.006675 -0.156612
    8 3.942339 0.046767 -0.431443 -0.166653 0.215655 -1.059465
    9 1.539095 0.000000 0.000000 0.000024 -0.002481 -0.540834
    10 1.196321 -0.000006 0.000000 0.000947 -0.001570 -0.422569
    11 3.883699 -0.046763 0.431443 0.042338 0.177210 -0.828048
    12 1.719566 0.000000 -0.000001 -0.000360 0.004869 -0.528395
    13 1.209171 -0.000002 0.000000 0.000000 0.002545 -0.550632
    14 3.855963 -0.137947 1.332466 0.297738 0.098476 -0.681626
    15 1.719429 0.000004 -0.000001 -0.003955 0.006878 -0.587635
    16 1.099661 0.000002 -0.000001 -0.002445 0.003651 -0.490425
    17 0.798244 -0.348926 1.313445 -0.721547 -0.588396 -0.933229
    18 1.789782 -0.000002 0.000002 -0.001426 0.000803 -0.036217
    19 1.207006 0.000000 0.000002 0.000000 0.000000 0.237419
    20 2.033356 1.000772 -1.937610 -1.668474 1.286518 2.942953
    21 21.255172 -16.977081 16.156743 -0.898515 0.975372 -3.722065
    22 11.692557 0.000001 0.000005 0.000000 0.000000 -0.060372
    23 11.501233 -0.003905 0.019533 -1.367770 0.328029 0.410451
    24 3.859680 -0.132568 1.193109 0.051198 -0.147138 -1.073644
    25 1.312561 -0.000006 0.000001 0.000000 -0.051833 -0.968081
    26 0.729362 0.000000 -0.000003 0.000000 0.000000 -0.244271
    27 3.942307 0.050327 0.431044 -0.044360 -0.131588 -1.035839
    28 1.539099 0.000002 0.000001 0.000000 0.000000 -0.873596
    29 1.196323 0.000008 0.000000 -0.000001 0.000002 -1.170482
    30 3.883663 -0.050322 -0.431042 -0.080552 -0.178614 -0.792859
    31 1.719578 0.000004 0.000000 0.000000 -0.007969 -1.230378
    32 1.209185 -0.000002 0.000000 0.000000 -0.004459 -0.855816
    33 3.859844 -0.148935 -1.331282 -0.088307 -0.015288 -0.402906
    34 1.719421 0.000004 0.000000 0.000000 -0.006613 -0.633607
    35 1.070313 -0.010971 0.004841 0.035923 -0.018257 -0.517705
    36 0.801270 -0.354492 -1.315430 0.977333 0.368303 -0.948497
    37 1.789783 0.000002 -0.000002 -0.236051 -0.174683 0.578275
    38 1.206999 0.000003 0.000002 0.000000 0.000000 0.557159
    39 -7.732406 -6.255552 -6.240080 1.642472 -0.036772 -1.456947
    40 -7.633635 -8.637596 -5.137004 1.653295 -0.044176 -1.459415
    41 -6.266513 -19.274720 -6.782877 1.653295 -0.044176 -1.459415
    42 4.246094 -1.997070 0.140381 0.000000 0.000000 0.000000
    43 5.891673 0.198951 0.632648 1.563552 -1.555379 -3.126260
    44 30.703125 -0.012833 -0.337646 -1.570813 -0.018051 -0.000508
  time 18
    0 0.000000 -0.000006 0.000000 -1.570739 -1.391891 -1.570846
    1 2.033349 1.000767 1.937660 1.596637 -1.286515 2.942961
    2 15.551869 -14.219184 7.332255 -1.260102 -0.672209 -3.298572
    3 11.692551 0.000001 0.000002 0.000000 0.000000 -0.060372
    4 11.442609 -0.078127 -0.000027 1.599161 -0.235648 0.143536
    5 3.859713 -0.142405 -1.191975 -0.498790 0.234766 -1.526885
    6 1.312551 -0.000002 0.000002 0.000000 0.000000 -0.121650
    7 0.729362 -0.000002 -0.000003 0.000000 0.000000 -0.169083
    8 3.942339 0.046767 -0.431443 -0.168738 0.216134 -1.074392
    9 1.539095 0.000000 0.000000 0.000000 0.000000 -0.551967
    10 1.196321 -0.000006 0.000000 0.000000 0.000000 -0.430802
    11 3.883699 -0.046763 0.431443 0.040600 0.178385 -0.842870
    12 1.719566 0.000000 -0.000001 0.000000 0.005516 -0.543007
    13 1.209171 -0.000002 0.000000 0.000000 0.003084 -0.560797
    14 3.859869 -0.137947 1.332466 0.296372 0.099974 -0.696278
    15 1.719429 0.000004 -0.000001 0.000000 0.004074 -0.608657
    16 1.099661 0.000002 -0.000001 0.000000 0.002596 -0.504840
    17 0.806057 -0.348926 1.321258 -0.745491 -0.558348 -0.909035
    18 1.789782 -0.000002 0.000002 -0.001426 0.000803 -0.036217
    19 1.207006 0.000000 0.000002 0.000000 0.000000 0.237419
    20 2.033356 1.000772 -1.937610 -1.668474 1.286518 2.942953
    21 21.528617 -17.094272 15.586413 -0.892862 0.943308 -3.716411
    22 11.692557 0.000001 0.000005 0.000000 0.000000 -0.060372
    23 11.501233 -0.003905 0.019533 -1.367163 0.353659 0.442871
    24 3.859680 -0.132568 1.193109 0.051198 -0.147138 -1.073644
    25 1.312561 -0.000006 0.000001 0.000000 -0.051833 -0.968081
    26 0.729362 0.000000 -0.000003 0.000000 0.000000 -0.244271
    27 3.942307 0.050327 0.431044 -0.044372 -0.131588 -1.035839
    28 1.539099 0.000002 0.000001 0.000000 0.000000 -0.873596
    29 1.196323 0.000008 0.000000 -0.000001 0.000002 -1.170482
    30 3.883663 -0.050322 -0.431042 -0.080552 -0.178614 -0.792859
    31 1.719578 0.000004 0.000000 0.000000 -0.007969 -1.230378
    32 1.209185 -0.000002 0.000000 0.000000 -0.004459 -0.855816
    33 3.859844 -0.148935 -1.331282 -0.088307 -0.015288 -0.402906
    34 1.719421 0.000004 0.000000 0.000000 -0.006613 -0.633607
    35 1.070313 -0.010971 0.004841 0.035923 -0.018257 -0.517705
    36 0.801270 -0.354492 -1.315430 0.977333 0.368303 -0.948497
    37 1.789783 0.000002 -0.000002 -0.236051 -0.174683 0.578275
    38 1.206999 0.000003 0.000002 0.000000 0.000000 0.557159
    39 -7.490211 -6.427432 -6.068200 1.633541 -0.030220 -1.461773
    40 -7.399252 -8.813383 -4.976843 1.644237 -0.037700 -1.464079
    41 -6.098539 -19.450506 -6.685218 1.644237 -0.037700 -1.464079
    42 4.246094 -1.997070 0.140381 0.000000 0.000000 0.000000
    43 5.891673 0.198951 0.632648 1.563540 -1.555379 -3.126260
    44 30.703125 -0.012833 -0.337646 -1.570813 -0.018051 -0.000508
  time 19
    0 0.000000 -0.000006 0.000000 -1.570739 -1.391891 -1.570846
    1 2.033349 1.000767 1.937660 1.596637 -1.286515 2.942961
    2 15.415146 -14.152776 7.195532 -1.256048 -0.688861 -3.303172
    3 11.692551 0.000001 0.000002 0.000000 0.000000 -0.060372
    4 11.450421 -0.058595 -0.000027 1.588154 -0.227308 0.165153
    5 3.859713 -0.142405 -1.191975 -0.498790 0.234766 -1.526885
    6 1.312551 -0.000002 0.000002 0.000000 0.000000 -0.121650
    7 0.729362 -0.000002 -0.000003 0.000000 0.000000 -0.169083
    8 3.942339 0.046767 -0.431443 -0.168738 0.216134 -1.074392
    9 1.539095 0.000000 0.000000 0.000000 0.000000 -0.551967
    10 1.196321 -0.000006 0.000000 0.000000 0.000000 -0.430802
    11 3.883699 -0.046763 0.431443 0.040600 0.178385 -0.842870
    12 1.719566 0.000000 -0.000001 0.000000 0.005516 -0.543007
    13 1.209171 -0.000002 0.000000 0.000000 0.003084 -0.560797
    14 3.859869 -0.137947 1.332466 0.296372 0.099974 -0.696278
    15 1.719429 0.000004 -0.000001 0.000000 0.004074 -0.608657
    16 1.099661 0.000002 -0.000001 0.000000 0.002596 -0.504866
    17 0.806057 -0.348926 1.321258 -0.745524 -0.558348 -0.909035
    18 1.789782 -0.000002 0.000002 -0.001426 0.000815 -0.036217
    19 1.207006 0.000000 0.000002 0.000000 0.000000 0.237419
    20 2.033356 1.000772 -1.937610 -1.668474 1.286518 2.942953
    21 21.786438 -17.184118 15.023896 -0.884909 0.911712 -3.709032
    22 11.692557 0.000001 0.000005 0.000000 0.000000 -0.060372
    23 11.493420 -0.003905 0.007814 -1.368152 0.380622 0.471707
    24 3.859680 -0.132568 1.193109 0.051198 -0.147138 -1.073644
    25 1.312561 -0.000006 0.000001 0.000000 -0.051833 -0.968097
    26 0.729362 0.000000 -0.000003 0.000000 0.000000 -0.244271
    27 3.942307 0.050327 0.431044 -0.044372 -0.131588 -1.035839
    28 1.539099 0.000002 0.000001 0.000000 0.000000 -0.873596
    29 1.196323 0.000008 0.000000 -0.000001 0.000002 -1.170482
    30 3.883663 -0.050322 -0.431042 -0.080552 -0.178614 -0.792859
    31 1.719578 0.000004 0.000000 0.000000 -0.007969 -1.230378
    32 1.209185 -0.000002 0.000000 0.000000 -0.004459 -0.855816
    33 3.859844 -0.148935 -1.331282 -0.088307 -0.015288 -0.402906
    34 1.719421 0.000004 0.000000 0.000000 -0.006613 -0.633607
    35 1.070313 -0.010971 0.004841 0.035923 -0.018257 -0.517705
    36 0.801270 -0.354492 -1.315430 0.977333 0.368303 -0.948497
    37 1.789783 0.000002 -0.000002 -0.236051 -0.174683 0.578275
    38 1.206999 0.000003 0.000002 0.000000 0.000000 0.557159
    39 -7.240203 -6.568061 -5.892413 1.623673 -0.026174 -1.466911
    40 -7.145338 -8.957919 -4.816682 1.634380 -0.033692 -1.469209
    41 -5.926658 -19.595042 -6.571933 1.634380 -0.033692 -1.469209
    42 4.246094 -1.997070 0.140381 0.000000 0.000000 0.000000
    43 5.891673 0.198951 0.632648 1.563552 -1.555379 -3.126260
    44 30.703125 -0.012833 -0.337646 -1.570813 -0.018051 -0.000508
  time 20
    0 0.000000 -0.000006 0.000000 -1.570739 -1.391891 -1.570846
    1 2.033349 1.000767 1.937660 1.596637 -1.286515 2.942961
    2 15.286236 -14.098087 7.086154 -1.250014 -0.703438 -3.309690
    3 11.692551 0.000001 0.000002 0.000000 0.000000 -0.060372
    4 11.458234 -0.050782 -0.000027 1.577838 -0.219325 0.185208
    5 3.859713 -0.142405 -1.191975 -0.498790 0.234754 -1.526885
    6 1.312551 -0.000002 0.000002 0.000000 0.000000 -0.121650
    7 0.729362 -0.000002 -0.000003 0.000000 0.000000 -0.169083
    8 3.942339 0.046767 -0.431443 -0.168738 0.216134 -1.074392
    9 1.539095 0.000000 0.000000 0.000000 0.000000 -0.551967
    10 1.196321 -0.000006 0.000000 0.000000 0.000000 -0.430802
    11 3.883699 -0.046763 0.431443 0.040600 0.178385 -0.842870
    12 1.719566 0.000000 -0.000001 0.000000 0.005516 -0.543007
    13 1.209171 -0.000002 0.000000 0.000000 0.003084 -0.560797
    14 3.859869 -0.137947 1.332466 0.296372 0.099974 -0.696278
    15 1.719429 0.000004 -0.000001 0.000000 0.004074 -0.608657
    16 1.099661 0.000002 -0.000001 0.000000 0.002596 -0.504814
    17 0.806057 -0.348926 1.321258 -0.745524 -0.558348 -0.909035
    18 1.789782 -0.000002 0.000002 -0.001426 0.000815 -0.036217
    19 1.207006 0.000000 0.000002 0.000000 0.000000 0.237419
    20 2.033356 1.000772 -1.937610 -1.668474 1.286518 2.942953
    21 22.016914 -17.258339 14.488723 -0.876094 0.881758 -3.701078
    22 11.692557 0.000001 0.000005 0.000000 0.000000 -0.060372
    23 11.493420 0.000001 0.003907 -1.370490 0.407506 0.496959
    24 3.859680 -0.132568 1.193109 0.051198 -0.147138 -1.073644
    25 1.312561 -0.000006 0.000001 0.000000 -0.051833 -0.968097
    26 0.729362 0.000000 -0.000003 0.000000 0.000000 -0.244271
    27 3.942307 0.050327 0.431044 -0.044372 -0.131588 -1.035827
    28 1.539099 0.000002 0.000001 0.000000 0.000000 -0.873596
    29 1.196323 0.000008 0.000000 -0.000001 0.000002 -1.170482
    30 3.883663 -0.050322 -0.431042 -0.080552 -0.178614 -0.792859
    31 1.719578 0.000004 0.000000 0.000000 -0.007969 -1.230378
    32 1.209185 -0.000002 0.000000 0.000000 -0.004459 -0.855816
    33 3.859844 -0.148935 -1.331282 -0.088307 -0.015288 -0.402906
    34 1.719421 0.000004 0.000000 0.000000 -0.006613 -0.633607
    35 1.070313 -0.010971 0.004841 0.035923 -0.018257 -0.517705
    36 0.801270 -0.354492 -1.315430 0.977333 0.368303 -0.948497
    37 1.789783 0.000002 -0.000002 -0.236051 -0.174683 0.578275
    38 1.206999 0.000003 0.000002 0.000000 0.000000 0.557159
    39 -6.982383 -6.677440 -5.732252 1.613306 -0.024008 -1.472204
    40 -6.891424 -9.071203 -4.656521 1.624003 -0.031581 -1.474417
    41 -5.746965 -19.716140 -6.435210 1.624003 -0.031581 -1.474417
    42 4.246094 -1.997070 0.140381 0.000000 0.000000 0.000000
    43 5.891673 0.198951 0.632648 1.563552 -1.555379 -3.126260
    44 30.703125 -0.012833 -0.337646 -1.570813 -0.018051 -0.000508
  time 21
    0 0.000000 -0.000006 0.000000 -1.570739 -1.391891 -1.570846
    1 2.033349 1.000767 1.937660 1.596637 -1.286515 2.942961
    2 15.184670 -14.055117 6.992401 -1.242754 -0.715505 -3.317453
    3 11.692551 0.000001 0.000002 0.000000 0.000000 -0.060372
    4 11.469953 -0.031250 -0.000027 1.568214 -0.211557 0.203430
    5 3.859713 -0.142405 -1.191975 -0.498790 0.234754 -1.526885
    6 1.312551 -0.000002 0.000002 0.000000 0.000000 -0.121650
    7 0.729362 -0.000002 -0.000003 0.000000 0.000000 -0.169083
    8 3.942339 0.046767 -0.431443 -0.168738 0.216134 -1.074392
    9 1.539095 0.000000 0.000000 0.000000 0.000000 -0.551967
    10 1.196321 -0.000006 0.000000 0.000000 0.000000 -0.430802
    11 3.883699 -0.046763 0.431443 0.040600 0.178385 -0.842870
    12 1.719566 0.000000 -0.000001 0.000000 0.005516 -0.543007
    13 1.209171 -0.000002 0.000000 0.000000 0.003084 -0.560797
    14 3.859869 -0.137947 1.332466 0.296372 0.099974 -0.696278
    15 1.719429 0.000004 -0.000001 0.000000 0.004074 -0.608657
    16 1.099661 0.000002 -0.000001 0.000000 0.002596 -0.504840
    17 0.806057 -0.348926 1.321258 -0.745491 -0.558348 -0.909035
    18 1.789782 -0.000002 0.000002 -0.001426 0.000815 -0.036217
    19 1.207006 0.000000 0.000002 0.000000 0.000000 0.237419
    20 2.033356 1.000772 -1.937610 -1.668474 1.286518 2.942953
    21 22.220045 -17.316935 13.988708 -0.867183 0.854100 -3.693603
    22 11.692557 0.000001 0.000005 0.000000 0.000000 -0.060372
    23 11.485607 0.000001 0.000001 -1.373772 0.433136 0.518586
    24 3.859680 -0.132568 1.193109 0.051198 -0.147138 -1.073644
    25 1.312561 -0.000006 0.000001 0.000012 -0.051833 -0.968097
    26 0.729362 0.000000 -0.000003 0.000000 0.000000 -0.244271
    27 3.942307 0.050327 0.431044 -0.044348 -0.131588 -1.035827
    28 1.539099 0.000002 0.000001 0.000000 0.000000 -0.873596
    29 1.196323 0.000008 0.000000 -0.000001 0.000002 -1.170482
    30 3.883663 -0.050322 -0.431042 -0.080552 -0.178614 -0.792859
    31 1.719578 0.000004 0.000000 0.000000 -0.007969 -1.230378
    32 1.209185 -0.000002 0.000000 0.000000 -0.004459 -0.855816
    33 3.859844 -0.148935 -1.331282 -0.088307 -0.015288 -0.402906
    34 1.719421 0.000004 0.000000 0.000000 -0.006613 -0.633594
    35 1.070313 -0.010971 0.004841 0.035923 -0.018257 -0.517705
    36 0.801270 -0.354492 -1.315430 0.977333 0.368303 -0.948497
    37 1.789783 0.000002 -0.000002 -0.236051 -0.174683 0.578275
    38 1.206999 0.000003 0.000002 0.000000 0.000000 0.557159
    39 -6.736282 -6.763380 -5.583810 1.602760 -0.023454 -1.477419
    40 -6.645323 -9.157143 -4.511985 1.613405 -0.030937 -1.479625
    41 -5.578992 -19.805986 -6.302394 1.613405 -0.030937 -1.479625
    42 4.246094 -1.997070 0.140381 0.000000 0.000000 0.000000
    43 5.891673 0.198951 0.632648 1.563552 -1.555379 -3.126260
    44 30.703125 -0.012833 -0.337646 -1.570813 -0.018051 -0.000508
  time 22
    0 0.000000 -0.000006 0.000000 -1.570739 -1.391891 -1.570846
    1 2.033349 1.000767 1.937660 1.596637 -1.286515 2.942961
    2 15.087011 -14.012147 6.918180 -1.235212 -0.725400 -3.324929
    3 11.692551 0.000001 0.000002 0.000000 0.000000 -0.060372
    4 11.473860 -0.027344 -0.000027 1.558778 -0.203884 0.219155
    5 3.859713 -0.142405 -1.191975 -0.498790 0.234754 -1.526885
    6 1.312551 -0.000002 0.000002 0.000000 0.000000 -0.121650
    7 0.729362 -0.000002 -0.000003 0.000000 0.000000 -0.169083
    8 3.942339 0.046767 -0.431443 -0.168738 0.216134 -1.074392
    9 1.539095 0.000000 0.000000 0.000000 0.000000 -0.551967
    10 1.196321 -0.000006 0.000000 0.000000 0.000000 -0.430802
    11 3.883699 -0.046763 0.431443 0.040600 0.178385 -0.842870
    12 1.719566 0.000000 -0.000001 0.000000 0.005516 -0.543007
    13 1.209171 -0.000002 0.000000 0.000000 0.003084 -0.560797
    14 3.859869 -0.137947 1.332466 0.296372 0.099974 -0.696278
    15 1.719429 0.000004 -0.000001 0.000000 0.004074 -0.608657
    16 1.099661 0.000002 -0.000001 0.000000 0.002596 -0.504840
    17 0.806057 -0.348926 1.321258 -0.745491 -0.558348 -0.909035
    18 1.789782 -0.000002 0.000002 -0.001426 0.000815 -0.036217
    19 1.207006 0.000000 0.000002 0.000000 0.000000 0.237419
    20 2.033356 1.000772 -1.937610 -1.668474 1.286518 2.942953
    21 22.388019 -17.359905 13.547288 -0.858943 0.829630 -3.686415
    22 11.692557 0.000001 0.000005 0.000000 0.000000 -0.060372
    23 11.481701 0.000001 0.000001 -1.377773 0.456572 0.536670
    24 3.859680 -0.132568 1.193109 0.051198 -0.147138 -1.073644
    25 1.312561 -0.000006 0.000001 0.000000 -0.051833 -0.968097
    26 0.729362 0.000000 -0.000003 0.000000 0.000000 -0.244271
    27 3.942307 0.050327 0.431044 -0.044360 -0.131588 -1.035839
    28 1.539099 0.000002 0.000001 0.000000 0.000000 -0.873596
    29 1.196323 0.000008 0.000000 -0.000001 0.000002 -1.170482
    30 3.883663 -0.050322 -0.431042 -0.080552 -0.178614 -0.792859
    31 1.719578 0.000004 0.000000 0.000000 -0.007969 -1.230378
    32 1.209185 -0.000002 0.000000 0.000000 -0.004459 -0.855816
    33 3.859844 -0.148935 -1.331282 -0.088307 -0.015288 -0.402906
    34 1.719421 0.000004 0.000000 0.000000 -0.006613 -0.633607
    35 1.070313 -0.010971 0.004841 0.035923 -0.018257 -0.517705
    36 0.801270 -0.354492 -1.315430 0.977333 0.368303 -0.948497
    37 1.789783 0.000002 -0.000002 -0.236051 -0.174683 0.578275
    38 1.206999 0.000003 0.000002 0.000000 0.000000 0.557159
    39 -6.509712 -6.829788 -5.454900 1.592453 -0.023901 -1.482090
    40 -6.422660 -9.223552 -4.371356 1.603068 -0.031474 -1.484211
    41 -5.426643 -19.880207 -6.157858 1.603068 -0.031474 -1.484211
    42 4.246094 -1.997070 0.140381 0.000000 0.000000 0.000000
    43 5.891673 0.198951 0.632648 1.563552 -1.555379 -3.126260
    44 30.703125 -0.012833 -0.337646 -1.570813 -0.018051 -0.000508
  time 23
    0 0.000000 -0.000006 0.000000 -1.570739 -1.391891 -1.570846
    1 2.033349 1.000767 1.937660 1.596637 -1.286515 2.942961
    2 15.020603 -13.980896 6.863491 -1.227858 -0.733171 -3.332117
    3 11.692551 0.000001 0.000002 0.000000 0.000000 -0.060372
    4 11.477766 -0.015625 -0.000027 1.551042 -0.196640 0.231953
    5 3.859713 -0.142405 -1.191975 -0.498790 0.234766 -1.526885
    6 1.312551 -0.000002 0.000002 0.000000 0.000000 -0.121650
    7 0.729362 -0.000002 -0.000003 0.000000 0.000000 -0.169083
    8 3.942339 0.046767 -0.431443 -0.168738 0.216134 -1.074392
    9 1.539095 0.000000 0.000000 0.000000 0.000000 -0.551967
    10 1.196321 -0.000006 0.000000 0.000000 0.000000 -0.430802
    11 3.883699 -0.046763 0.431443 0.040600 0.178385 -0.842870
    12 1.719566 0.000000 -0.000001 0.000000 0.005516 -0.543007
    13 1.209171 -0.000002 0.000000 0.000000 0.003084 -0.560797
    14 3.859869 -0.137947 1.332466 0.296372 0.099974 -0.696278
    15 1.719429 0.000004 -0.000001 0.000000 0.004074 -0.608657
    16 1.099661 0.000002 -0.000001 0.000000 0.002596 -0.504840
    17 0.806057 -0.348926 1.321258 -0.745491 -0.558348 -0.909035
    18 1.789782 -0.000002 0.000002 -0.001426 0.000803 -0.036217
    19 1.207006 0.000000 0.000002 0.000000 0.000000 0.237419
    20 2.033356 1.000772 -1.937610 -1.668474 1.286518 2.942953
    21 22.524742 -17.387250 13.172277 -0.852140 0.809333 -3.680857
    22 11.692557 0.000001 0.000005 0.000000 0.000000 -0.060372
    23 11.481701 0.000001 0.000001 -1.382179 0.476284 0.550841
    24 3.859680 -0.132568 1.193109 0.051198 -0.147138 -1.073644
    25 1.312561 -0.000006 0.000001 0.000000 -0.051833 -0.968081
    26 0.729362 0.000000 -0.000003 0.000000 0.000000 -0.244271
    27 3.942307 0.050327 0.431044 -0.044360 -0.131588 -1.035827
    28 1.539099 0.000002 0.000001 0.000000 0.000000 -0.873596
    29 1.196323 0.000008 0.000000 -0.000001 0.000002 -1.170482
    30 3.883663 -0.050322 -0.431042 -0.080552 -0.178614 -0.792859
    31 1.719578 0.000004 0.000000 0.000000 -0.007969 -1.230378
    32 1.209185 -0.000002 0.000000 0.000000 -0.004459 -0.855816
    33 3.859844 -0.148935 -1.331282 -0.088307 -0.015288 -0.402906
    34 1.719421 0.000004 0.000000 0.000000 -0.006613 -0.633607
    35 1.070313 -0.010971 0.004841 0.035923 -0.018257 -0.517705
    36 0.801270 -0.354492 -1.315430 0.977333 0.368303 -0.948497
    37 1.789783 0.000002 -0.000002 -0.236051 -0.174683 0.578275
    38 1.206999 0.000003 0.000002 0.000000 0.000000 0.557159
    39 -6.314394 -6.876664 -5.349428 1.582684 -0.025082 -1.486293
    40 -6.223435 -9.266522 -4.258071 1.593371 -0.032708 -1.488253
    41 -5.293827 -19.930990 -6.032854 1.593371 -0.032708 -1.488253
    42 4.246094 -1.997070 0.140381 0.000000 0.000000 0.000000
    43 5.891673 0.198951 0.632648 1.563552 -1.555379 -3.126260
    44 30.703125 -0.012833 -0.337646 -1.570813 -0.018051 -0.000508
  time 24
    0 0.000000 -0.000006 0.000000 -1.570739 -1.391891 -1.570846
    1 2.033349 1.000767 1.937660 1.596637 -1.286515 2.942961
    2 14.969820 -13.957457 6.824427 -1.222390 -0.738384 -3.337772
    3 11.692551 0.000001 0.000002 0.000000 0.000000 -0.060372
    4 11.481672 0.000001 -0.000027 1.544311 -0.189920 0.241513
    5 3.859713 -0.142405 -1.191975 -0.498790 0.234754 -1.526885
    6 1.312551 -0.000002 0.000002 0.000000 0.000000 -0.121650
    7 0.729362 -0.000002 -0.000003 0.000000 0.000000 -0.169083
    8 3.942339 0.046767 -0.431443 -0.168738 0.216134 -1.074333
    9 1.539095 0.000000 0.000000 0.000000 0.000000 -0.551967
    10 1.196321 -0.000006 0.000000 0.000000 0.000000 -0.430802
    11 3.883699 -0.046763 0.431443 0.040600 0.178385 -0.842870
    12 1.719566 0.000000 -0.000001 0.000000 0.005516 -0.543007
    13 1.209171 -0.000002 0.000000 0.000000 0.003084 -0.560797
    14 3.859869 -0.137947 1.332466 0.296372 0.099974 -0.696278
    15 1.719429 0.000004 -0.000001 0.000000 0.004074 -0.608657
    16 1.099661 0.000002 -0.000001 0.000000 0.002596 -0.504840
    17 0.806057 -0.348926 1.321258 -0.745491 -0.558348 -0.909035
    18 1.789782 -0.000002 0.000002 -0.001426 0.000803 -0.036217
    19 1.207006 0.000000 0.000002 0.000000 0.000000 0.237419
    20 2.033356 1.000772 -1.937610 -1.668474 1.286518 2.942953
    21 22.622401 -17.406781 12.891018 -0.847349 0.793957 -3.676736
    22 11.692557 0.000001 0.000005 0.000000 0.000000 -0.060372
    23 11.481701 0.000001 0.000001 -1.387057 0.491255 0.561222
    24 3.859680 -0.132568 1.193109 0.051198 -0.147138 -1.073644
    25 1.312561 -0.000006 0.000001 0.000000 -0.051833 -0.968081
    26 0.729362 0.000000 -0.000003 0.000000 0.000000 -0.244271
    27 3.942307 0.050327 0.431044 -0.044360 -0.131588 -1.035839
    28 1.539099 0.000002 0.000001 0.000000 0.000000 -0.873596
    29 1.196323 0.000008 0.000000 -0.000001 0.000002 -1.170482
    30 3.883663 -0.050322 -0.431042 -0.080552 -0.178614 -0.792859
    31 1.719578 0.000004 0.000000 0.000000 -0.007969 -1.230378
    32 1.209185 -0.000002 0.000000 0.000000 -0.004459 -0.855816
    33 3.859844 -0.148935 -1.331282 -0.088307 -0.015288 -0.402906
    34 1.719421 0.000004 0.000000 0.000000 -0.006613 -0.633607
    35 1.070313 -0.010971 0.004841 0.035923 -0.018257 -0.517705
    36 0.801270 -0.354492 -1.315430 0.977333 0.368303 -0.948497
    37 1.789783 0.000002 -0.000002 -0.236051 -0.174683 0.578275
    38 1.206999 0.000003 0.000002 0.000000 0.000000 0.557159
    39 -6.162045 -6.904009 -5.263488 1.573712 -0.026515 -1.489485
    40 -6.074993 -9.293866 -4.172131 1.584413 -0.034050 -1.491440
    41 -5.196167 -19.966147 -5.927382 1.584413 -0.034050 -1.491440
    42 4.246094 -1.997070 0.140381 0.000000 0.000000 0.000000
    43 5.891673 0.198951 0.632648 1.563552 -1.555379 -3.126260
    44 30.703125 -0.012833 -0.337646 -1.570813 -0.018051 -0.000508
  time 25
    0 0.000000 -0.000006 0.000000 -1.570739 -1.391891 -1.570846
    1 2.033349 1.000767 1.937660 1.596637 -1.286515 2.942961
    2 14.930756 -13.941832 6.800989 -1.218996 -0.741666 -3.341318
    3 11.692551 0.000001 0.000002 0.000000 0.000000 -0.060372
    4 11.481672 0.000001 -0.000027 1.539593 -0.183653 0.247093
    5 3.859713 -0.142405 -1.191975 -0.498790 0.234754 -1.526885
    6 1.312551 -0.000002 0.000002 0.000000 0.000000 -0.121650
    7 0.729362 -0.000002 -0.000003 0.000000 0.000000 -0.169083
    8 3.942339 0.046767 -0.431443 -0.168738 0.216134 -1.074392
    9 1.539095 0.000000 0.000000 0.000000 0.000000 -0.551967
    10 1.196321 -0.000006 0.000000 0.000000 0.000000 -0.430802
    11 3.883699 -0.046763 0.431443 0.040600 0.178385 -0.842870
    12 1.719566 0.000000 -0.000001 0.000000 0.005516 -0.543007
    13 1.209171 -0.000002 0.000000 0.000000 0.003084 -0.560797
    14 3.859869 -0.137947 1.332466 0.296372 0.099974 -0.696278
    15 1.719429 0.000004 -0.000001 0.000000 0.004074 -0.608657
    16 1.099661 0.000002 -0.000001 0.000000 0.002596 -0.504866
    17 0.806057 -0.348926 1.321258 -0.745524 -0.558348 -0.909035
    18 1.789782 -0.000002 0.000002 -0.001426 0.000815 -0.036217
    19 1.207006 0.000000 0.000002 0.000000 0.000000 0.237419
    20 2.033356 1.000772 -1.937610 -1.668474 1.286518 2.942953
    21 22.677090 -17.418501 12.719138 -0.845337 0.784535 -3.674820
    22 11.692557 0.000001 0.000005 0.000000 0.000000 -0.060372
    23 11.481701 0.000001 0.000001 -1.392250 0.500151 0.567566
    24 3.859680 -0.132568 1.193109 0.051198 -0.147138 -1.073644
    25 1.312561 -0.000006 0.000001 0.000000 -0.051833 -0.968081
    26 0.729362 0.000000 -0.000003 0.000000 0.000000 -0.244271
    27 3.942307 0.050327 0.431044 -0.044348 -0.131588 -1.035827
    28 1.539099 0.000002 0.000001 0.000000 0.000000 -0.873596
    29 1.196323 0.000008 0.000000 -0.000001 0.000002 -1.170482
    30 3.883663 -0.050322 -0.431042 -0.080552 -0.178614 -0.792859
    31 1.719578 0.000004 0.000000 0.000000 -0.007969 -1.230378
    32 1.209185 -0.000002 0.000000 0.000000 -0.004459 -0.855816
    33 3.859844 -0.148935 -1.331282 -0.088307 -0.015288 -0.402906
    34 1.719421 0.000004 0.000000 0.000000 -0.006613 -0.633607
    35 1.070313 -0.010971 0.004841 0.035923 -0.018257 -0.517705
    36 0.801270 -0.354492 -1.315430 0.977333 0.368303 -0.948497
    37 1.789783 0.000002 -0.000002 -0.236051 -0.174683 0.578275
    38 1.206999 0.000003 0.000002 0.000000 0.000000 0.557159
    39 -6.064386 -6.923541 -5.208799 1.566137 -0.027606 -1.491742
    40 -5.973428 -9.309492 -4.121348 1.576775 -0.035285 -1.493461
    41 -5.133665 -19.985679 -5.860974 1.576775 -0.035285 -1.493461
    42 4.246094 -1.997070 0.140381 0.000000 0.000000 0.000000
    43 5.891673 0.198951 0.632648 1.563552 -1.555379 -3.126260
    44 30.703125 -0.012833 -0.337646 -1.570813 -0.018051 -0.000508
  time 26
    0 0.000000 -0.000006 0.000000 -1.570739 -1.391891 -1.570846
    1 2.033349 1.000767 1.937660 1.596637 -1.286515 2.942961
    2 14.911225 -13.934019 6.789270 -1.218713 -0.742969 -3.341414
    3 11.692551 0.000001 0.000002 0.000000 0.000000 -0.060372
    4 11.481672 0.000001 -0.000027 1.536763 -0.177934 0.248302
    5 3.859713 -0.142405 -1.191975 -0.498790 0.234766 -1.526885
    6 1.312551 -0.000002 0.000002 0.000000 0.000000 -0.121650
    7 0.729362 -0.000002 -0.000003 0.000000 0.000000 -0.169083
    8 3.942339 0.046767 -0.431443 -0.168738 0.216134 -1.074392
    9 1.539095 0.000000 0.000000 0.000000 0.000000 -0.551967
    10 1.196321 -0.000006 0.000000 0.000000 0.000000 -0.430802
    11 3.883699 -0.046763 0.431443 0.040600 0.178385 -0.842870
    12 1.719566 0.000000 -0.000001 0.000000 0.005516 -0.543007
    13 1.209171 -0.000002 0.000000 0.000000 0.003084 -0.560797
    14 3.859869 -0.137947 1.332466 0.296372 0.099974 -0.696278
    15 1.719429 0.000004 -0.000001 0.000000 0.004074 -0.608657
    16 1.099661 0.000002 -0.000001 0.000000 0.002596 -0.504866
    17 0.806057 -0.348926 1.321258 -0.745491 -0.558348 -0.909035
    18 1.789782 -0.000002 0.000002 -0.001426 0.000803 -0.036217
    19 1.207006 0.000000 0.000002 0.000000 0.000000 0.237419
    20 2.033356 1.000772 -1.937610 -1.668474 1.286518 2.942953
    21 22.684903 -17.426313 12.672262 -0.846486 0.781956 -3.675491
    22 11.692557 0.000001 0.000005 0.000000 0.000000 -0.060372
    23 11.481701 0.000001 0.000001 -1.397173 0.501640 0.569667
    24 3.859680 -0.132568 1.193109 0.051198 -0.147138 -1.073644
    25 1.312561 -0.000006 0.000001 0.000000 -0.051833 -0.968097
    26 0.729362 0.000000 -0.000003 0.000000 0.000000 -0.244271
    27 3.942307 0.050327 0.431044 -0.044372 -0.131588 -1.035827
    28 1.539099 0.000002 0.000001 0.000000 0.000000 -0.873596
    29 1.196323 0.000008 0.000000 -0.000001 0.000002 -1.170482
    30 3.883663 -0.050322 -0.431042 -0.080552 -0.178614 -0.792859
    31 1.719578 0.000004 0.000000 0.000000 -0.007969 -1.230378
    32 1.209185 -0.000002 0.000000 0.000000 -0.004459 -0.855816
    33 3.859844 -0.148935 -1.331282 -0.088307 -0.015288 -0.402906
    34 1.719421 0.000004 0.000000 0.000000 -0.006613 -0.633594
    35 1.070313 -0.010971 0.004841 0.035923 -0.018257 -0.517705
    36 0.801270 -0.354492 -1.315430 0.977333 0.368303 -0.948497
    37 1.789783 0.000002 -0.000002 -0.236051 -0.174683 0.578275
    38 1.206999 0.000003 0.000002 0.000000 0.000000 0.557159
    39 -6.037042 -6.927447 -5.193173 1.560096 -0.028054 -1.492443
    40 -5.938270 -9.313398 -4.097910 1.570797 -0.035696 -1.494316
    41 -5.118040 -19.993492 -5.837536 1.570797 -0.035696 -1.494316
    42 4.246094 -1.997070 0.140381 0.000000 0.000000 0.000000
    43 5.891673 0.198951 0.632648 1.563552 -1.555379 -3.126260
    44 30.703125 -0.012833 -0.337646 -1.570813 -0.018051 -0.000508
end
