// Created by Crowbar 0.63
version 1
nodes
  0 "ValveBiped.Bip01_Spine4" -1
  1 "ValveBiped.Bip01_L_Clavicle" 0
  2 "ValveBiped.Bip01_L_UpperArm" 1
  3 "ValveBiped.Bip01_L_Forearm" 2
  4 "ValveBiped.Bip01_L_Hand" 3
  5 "ValveBiped.Bip01_L_Finger4" 4
  6 "ValveBiped.Bip01_L_Finger41" 5
  7 "ValveBiped.Bip01_L_Finger42" 6
  8 "ValveBiped.Bip01_L_Finger3" 4
  9 "ValveBiped.Bip01_L_Finger31" 8
  10 "ValveBiped.Bip01_L_Finger32" 9
  11 "ValveBiped.Bip01_L_Finger2" 4
  12 "ValveBiped.Bip01_L_Finger21" 11
  13 "ValveBiped.Bip01_L_Finger22" 12
  14 "ValveBiped.Bip01_L_Finger1" 4
  15 "ValveBiped.Bip01_L_Finger11" 14
  16 "ValveBiped.Bip01_L_Finger12" 15
  17 "ValveBiped.Bip01_L_Finger0" 4
  18 "ValveBiped.Bip01_L_Finger01" 17
  19 "ValveBiped.Bip01_L_Finger02" 18
  20 "ValveBiped.Bip01_R_Clavicle" 0
  21 "ValveBiped.Bip01_R_UpperArm" 20
  22 "ValveBiped.Bip01_R_Forearm" 21
  23 "ValveBiped.Bip01_R_Hand" 22
  24 "ValveBiped.Bip01_R_Finger4" 23
  25 "ValveBiped.Bip01_R_Finger41" 24
  26 "ValveBiped.Bip01_R_Finger42" 25
  27 "ValveBiped.Bip01_R_Finger3" 23
  28 "ValveBiped.Bip01_R_Finger31" 27
  29 "ValveBiped.Bip01_R_Finger32" 28
  30 "ValveBiped.Bip01_R_Finger2" 23
  31 "ValveBiped.Bip01_R_Finger21" 30
  32 "ValveBiped.Bip01_R_Finger22" 31
  33 "ValveBiped.Bip01_R_Finger1" 23
  34 "ValveBiped.Bip01_R_Finger11" 33
  35 "ValveBiped.Bip01_R_Finger12" 34
  36 "ValveBiped.Bip01_R_Finger0" 23
  37 "ValveBiped.Bip01_R_Finger01" 36
  38 "ValveBiped.Bip01_R_Finger02" 37
  39 "bone_shell" -1
  40 "bone_gun" -1
  41 "bone_pump" -1
  42 "bone_breach" 40
  43 "ShellEject" 40
  44 "ValveBiped.Gun" 40
end
skeleton
  time 0
    0 0.000000 -0.000006 0.000000 -1.570739 -1.391891 -1.570846
    1 2.033349 1.000767 1.937660 1.596637 -1.286515 2.942961
    2 14.782314 -13.863705 6.761925 -1.212208 -0.747603 -3.347356
    3 11.692551 0.000001 0.000002 0.000000 0.000000 -0.060372
    4 11.485579 0.000001 -0.003934 1.545380 -0.172501 0.256106
    5 3.855806 -0.142405 -1.191975 -0.498814 0.234766 -1.526885
    6 1.312551 -0.000002 0.000002 0.000000 0.000000 -0.121607
    7 0.729362 -0.000002 -0.000003 0.000000 0.000000 -0.169064
    8 3.942339 0.046767 -0.431443 -0.168757 0.216159 -1.074427
    9 1.539095 0.000000 0.000000 -0.000001 0.000002 -0.552012
    10 1.196321 -0.000006 0.000000 0.000000 0.000000 -0.430802
    11 3.883699 -0.046763 0.431443 0.040592 0.178391 -0.842882
    12 1.719566 0.000000 -0.000001 -0.000003 0.005515 -0.543056
    13 1.209171 -0.000002 0.000000 -0.000002 0.003082 -0.560820
    14 3.859869 -0.137947 1.332466 0.296339 0.100015 -0.696305
    15 1.719429 0.000004 -0.000001 -0.000003 0.004070 -0.608697
    16 1.099661 0.000002 -0.000001 -0.000005 0.002591 -0.504910
    17 0.806057 -0.348926 1.321258 -0.745476 -0.558297 -0.909057
    18 1.789782 -0.000002 0.000002 -0.001438 0.000803 -0.036217
    19 1.207006 0.000000 0.000002 0.000000 0.000000 0.237421
    20 2.033356 1.000772 -1.937610 -1.668474 1.286518 2.942953
    21 22.634120 -17.352092 12.773827 -0.833360 0.793160 -3.667345
    22 11.692557 0.000001 0.000005 0.000000 0.000000 -0.060372
    23 11.481701 -0.003905 0.000001 -1.413156 0.504109 0.537288
    24 3.859680 -0.132568 1.193109 0.051232 -0.147160 -1.073647
    25 1.312561 -0.000006 0.000001 0.000000 -0.051833 -0.968081
    26 0.729362 0.000000 -0.000003 0.000000 0.000000 -0.244271
    27 3.942307 0.050327 0.431044 -0.044360 -0.131588 -1.035839
    28 1.539099 0.000002 0.000001 -0.000002 -0.000001 -0.873594
    29 1.196323 0.000008 0.000000 0.000002 0.000001 -1.170482
    30 3.883663 -0.050322 -0.431042 -0.080552 -0.178614 -0.792859
    31 1.719578 0.000004 0.000000 0.000000 -0.007974 -1.230356
    32 1.209185 -0.000002 0.000000 0.000004 -0.004457 -0.855818
    33 3.859844 -0.148935 -1.331282 -0.088307 -0.015288 -0.402906
    34 1.719421 0.000004 0.000000 0.000003 -0.006609 -0.633605
    35 1.070313 -0.010963 0.004845 0.035923 -0.018257 -0.517705
    36 0.801270 -0.354736 -1.314453 0.977333 0.368301 -0.948497
    37 1.789783 0.000002 -0.000002 -0.236052 -0.174685 0.578274
    38 1.206999 0.000003 0.000002 0.000000 0.000000 0.557159
    39 -6.033135 -6.946979 -5.275207 1.560076 -0.042196 -1.492443
    40 -5.938270 -9.317305 -4.152599 1.570797 -0.049829 -1.494316
    41 -5.118040 -20.020836 -5.743783 1.570797 -0.049829 -1.494316
    42 4.242188 -2.000000 0.140381 0.000000 0.000000 0.000000
    43 5.891673 0.198951 0.632648 1.563552 -1.555379 -3.126260
    44 30.703125 -0.012848 -0.337402 -1.570813 -0.018051 -0.000508
  time 1
    0 0.000000 -0.000006 0.000000 -1.570739 -1.391891 -1.570846
    1 2.033349 1.000767 1.937660 1.596637 -1.286515 2.942961
    2 15.407333 -14.230903 6.761925 -1.207871 -0.737274 -3.354161
    3 11.692551 0.000001 0.000002 0.000000 0.000000 -0.060372
    4 11.466047 -0.007812 -0.000027 1.540789 -0.207363 0.221847
    5 3.855806 -0.142405 -1.191975 -0.498814 0.234754 -1.526885
    6 1.312551 -0.000002 0.000002 0.000000 0.000000 -0.121607
    7 0.729362 -0.000002 -0.000003 0.000000 0.000000 -0.169064
    8 3.942339 0.046767 -0.431443 -0.168757 0.216159 -1.074427
    9 1.539095 0.000000 0.000000 -0.000001 0.000002 -0.552012
    10 1.196321 -0.000006 0.000000 0.000000 0.000000 -0.430802
    11 3.883699 -0.046763 0.431443 0.040592 0.178391 -0.842882
    12 1.719566 0.000000 -0.000001 -0.000003 0.005515 -0.543056
    13 1.209171 -0.000002 0.000000 -0.000002 0.003082 -0.560820
    14 3.859869 -0.137947 1.332466 0.296339 0.100015 -0.696305
    15 1.719429 0.000004 -0.000001 -0.000003 0.004070 -0.608697
    16 1.099661 0.000002 -0.000001 -0.000005 0.002591 -0.504910
    17 0.806057 -0.348926 1.321258 -0.745476 -0.558297 -0.909057
    18 1.789782 -0.000002 0.000002 -0.001438 0.000803 -0.036217
    19 1.207006 0.000000 0.000002 0.000000 0.000000 0.237421
    20 2.033356 1.000772 -1.937610 -1.668474 1.286518 2.942953
    21 22.622401 -17.410688 12.828516 -0.848978 0.792082 -3.677695
    22 11.692557 0.000001 0.000005 0.000000 0.000000 -0.060372
    23 11.481701 0.000001 0.000001 -1.381662 0.467584 0.569255
    24 3.859680 -0.132568 1.193109 0.051232 -0.147160 -1.073647
    25 1.312561 -0.000006 0.000001 0.000000 -0.051833 -0.968097
    26 0.729362 0.000000 -0.000003 0.000000 0.000000 -0.244271
    27 3.942307 0.050327 0.431044 -0.044372 -0.131588 -1.035827
    28 1.539099 0.000002 0.000001 -0.000002 -0.000001 -0.873594
    29 1.196323 0.000008 0.000000 0.000002 0.000001 -1.170482
    30 3.883663 -0.050322 -0.431042 -0.080552 -0.178614 -0.792859
    31 1.719578 0.000004 0.000000 0.000000 -0.007974 -1.230356
    32 1.209185 -0.000002 0.000000 0.000004 -0.004457 -0.855818
    33 3.859844 -0.148935 -1.331282 -0.088307 -0.015288 -0.402906
    34 1.719421 0.000004 0.000000 0.000003 -0.006609 -0.633605
    35 1.070313 -0.010963 0.004845 0.035923 -0.018257 -0.517705
    36 0.801270 -0.354736 -1.314453 0.977333 0.368301 -0.948497
    37 1.789783 0.000002 -0.000002 -0.236052 -0.174685 0.578274
    38 1.206999 0.000003 0.000002 0.000000 0.000000 0.557159
    39 -6.083918 -6.939166 -5.263488 1.574789 -0.018602 -1.466599
    40 -5.938270 -9.332930 -4.191663 1.585453 -0.026250 -1.468432
    41 -4.813343 -19.966147 -6.032854 1.585453 -0.026250 -1.468432
    42 4.242188 -2.000000 0.140381 0.000000 0.000000 0.000000
    43 5.891673 0.198951 0.632648 1.563552 -1.555379 -3.126260
    44 30.703125 -0.012848 -0.337402 -1.570813 -0.018051 -0.000508
  time 2
    0 0.000000 -0.000006 0.000000 -1.570739 -1.391891 -1.570846
    1 2.033349 1.000767 1.937660 1.596637 -1.286515 2.942961
    2 16.688623 -14.965301 6.578326 -1.209568 -0.719463 -3.359240
    3 11.692551 0.000001 0.000002 0.000000 0.000000 -0.060372
    4 11.403545 -0.039063 0.027317 1.524937 -0.279756 0.149545
    5 3.855806 -0.142405 -1.191975 -0.498814 0.234742 -1.526885
    6 1.312551 -0.000002 0.000002 0.000000 0.000000 -0.121607
    7 0.729362 -0.000002 -0.000003 0.000000 0.000000 -0.169064
    8 3.942339 0.046767 -0.431443 -0.168757 0.216159 -1.074427
    9 1.539095 0.000000 0.000000 -0.000001 0.000002 -0.552012
    10 1.196321 -0.000006 0.000000 0.000000 0.000000 -0.430802
    11 3.883699 -0.046763 0.431443 0.040592 0.178391 -0.842882
    12 1.719566 0.000000 -0.000001 -0.000003 0.005515 -0.543056
    13 1.209171 -0.000002 0.000000 -0.000002 0.003082 -0.560820
    14 3.859869 -0.137947 1.332466 0.296339 0.100015 -0.696305
    15 1.719429 0.000004 -0.000001 -0.000003 0.004070 -0.608697
    16 1.099661 0.000002 -0.000001 -0.000005 0.002591 -0.504910
    17 0.806057 -0.348926 1.321258 -0.745476 -0.558297 -0.909057
    18 1.789782 -0.000002 0.000002 -0.001438 0.000803 -0.036217
    19 1.207006 0.000000 0.000002 0.000000 0.000000 0.237421
    20 2.033356 1.000772 -1.937610 -1.668474 1.286518 2.942953
    21 22.641933 -17.633351 12.805078 -0.901198 0.777550 -3.711523
    22 11.692557 0.000001 0.000005 0.000000 0.000000 -0.060372
    23 11.489514 0.031252 0.007814 -1.307121 0.382150 0.666350
    24 3.859680 -0.132568 1.193109 0.051232 -0.147160 -1.073647
    25 1.312561 -0.000006 0.000001 0.000000 -0.051833 -0.968097
    26 0.729362 0.000000 -0.000003 0.000000 0.000000 -0.244271
    27 3.942307 0.050327 0.431044 -0.044348 -0.131588 -1.035839
    28 1.539099 0.000002 0.000001 -0.000002 -0.000001 -0.873594
    29 1.196323 0.000008 0.000000 0.000002 0.000001 -1.170482
    30 3.883663 -0.050322 -0.431042 -0.080552 -0.178614 -0.792859
    31 1.719578 0.000004 0.000000 0.000000 -0.007974 -1.230356
    32 1.209185 -0.000002 0.000000 0.000004 -0.004457 -0.855818
    33 3.859844 -0.148935 -1.331282 -0.088307 -0.015288 -0.402906
    34 1.719421 0.000004 0.000000 0.000003 -0.006609 -0.633605
    35 1.070313 -0.010963 0.004845 0.035923 -0.018257 -0.517705
    36 0.801270 -0.354736 -1.314453 0.977333 0.368301 -0.948497
    37 1.789783 0.000002 -0.000002 -0.236052 -0.174685 0.578274
    38 1.206999 0.000003 0.000002 0.000000 0.000000 0.557159
    39 -6.189390 -6.907915 -5.126765 1.605451 0.045518 -1.412577
    40 -5.938270 -9.360275 -4.215101 1.616005 0.037955 -1.414798
    41 -4.203950 -19.766922 -6.739907 1.616005 0.037955 -1.414798
    42 4.242188 -2.000000 0.140381 0.000000 0.000000 0.000000
    43 5.891673 0.198951 0.632648 1.563552 -1.555379 -3.126260
    44 30.703125 -0.012848 -0.337402 -1.570813 -0.018051 -0.000508
  time 3
    0 0.000000 -0.000006 0.000000 -1.570739 -1.391891 -1.570846
    1 2.033349 1.000767 1.937660 1.596637 -1.286515 2.942961
    2 18.141792 -15.781732 5.992370 -1.224370 -0.707058 -3.355886
    3 11.692551 0.000001 0.000002 0.000000 0.000000 -0.060372
    4 11.325418 -0.058595 0.054662 1.507639 -0.363182 0.062571
    5 3.855806 -0.142405 -1.191975 -0.498814 0.234766 -1.526885
    6 1.312551 -0.000002 0.000002 0.000000 0.000000 -0.121607
    7 0.729362 -0.000002 -0.000003 0.000000 0.000000 -0.169064
    8 3.942339 0.046767 -0.431443 -0.168757 0.216159 -1.074427
    9 1.539095 0.000000 0.000000 -0.000001 0.000002 -0.552012
    10 1.196321 -0.000006 0.000000 0.000000 0.000000 -0.430802
    11 3.883699 -0.046763 0.431443 0.040592 0.178391 -0.842882
    12 1.719566 0.000000 -0.000001 -0.000003 0.005515 -0.543056
    13 1.209171 -0.000002 0.000000 -0.000002 0.003082 -0.560820
    14 3.859869 -0.137947 1.332466 0.296339 0.100015 -0.696305
    15 1.719429 0.000004 -0.000001 -0.000003 0.004070 -0.608697
    16 1.099661 0.000002 -0.000001 -0.000005 0.002591 -0.504910
    17 0.806057 -0.348926 1.321258 -0.745476 -0.558297 -0.909057
    18 1.789782 -0.000002 0.000002 -0.001438 0.000791 -0.036217
    19 1.207006 0.000000 0.000002 0.000000 0.000000 0.237421
    20 2.033356 1.000772 -1.937610 -1.668474 1.286518 2.942953
    21 22.634120 -17.984924 12.668355 -0.981301 0.753267 2.519911
    22 11.692557 0.000001 0.000005 0.000000 0.000000 -0.060372
    23 11.497326 0.082035 0.015626 -1.225475 0.257017 0.794711
    24 3.859680 -0.132568 1.193109 0.051232 -0.147160 -1.073647
    25 1.312561 -0.000006 0.000001 0.000000 -0.051833 -0.968081
    26 0.729362 0.000000 -0.000003 0.000000 0.000000 -0.244271
    27 3.942307 0.050327 0.431044 -0.044348 -0.131588 -1.035839
    28 1.539099 0.000002 0.000001 -0.000002 -0.000001 -0.873594
    29 1.196323 0.000008 0.000000 0.000002 0.000001 -1.170482
    30 3.883663 -0.050322 -0.431042 -0.080552 -0.178614 -0.792859
    31 1.719578 0.000004 0.000000 0.000000 -0.007974 -1.230356
    32 1.209185 -0.000002 0.000000 0.000004 -0.004457 -0.855818
    33 3.859844 -0.148935 -1.331282 -0.088307 -0.015288 -0.402906
    34 1.719421 0.000004 0.000000 0.000003 -0.006609 -0.633605
    35 1.070313 -0.010963 0.004845 0.035923 -0.018257 -0.517705
    36 0.801270 -0.354736 -1.314453 0.977333 0.368301 -0.948497
    37 1.789783 0.000002 -0.000002 -0.236052 -0.174685 0.578274
    38 1.206999 0.000003 0.000002 0.000000 0.000000 0.557159
    39 -6.333926 -6.888384 -4.915821 1.644984 0.133983 -1.343064
    40 -5.938270 -9.395432 -4.234633 1.655314 0.126561 -1.345541
    41 -3.465646 -19.384098 -7.677436 1.655314 0.126561 -1.345541
    42 4.242188 -2.000000 0.140381 0.000000 0.000000 0.000000
    43 5.891673 0.198951 0.632648 1.563552 -1.555379 -3.126260
    44 30.703125 -0.012848 -0.337402 -1.570813 -0.018051 -0.000508
  time 4
    0 0.000000 -0.000006 0.000000 -1.570739 -1.391891 -1.570846
    1 2.033349 1.000767 1.937660 1.596637 -1.286515 2.942961
    2 19.419175 -16.477066 5.015778 -1.255859 -0.703921 -3.341893
    3 11.692551 0.000001 0.000002 0.000000 0.000000 -0.060372
    4 11.255103 -0.066407 0.074194 1.494116 -0.436123 -0.023193
    5 3.855806 -0.142405 -1.191975 -0.498814 0.234778 -1.526885
    6 1.312551 -0.000002 0.000002 0.000000 0.000000 -0.121607
    7 0.729362 -0.000002 -0.000003 0.000000 0.000000 -0.169064
    8 3.942339 0.046767 -0.431443 -0.168757 0.216159 -1.074427
    9 1.539095 0.000000 0.000000 -0.000001 0.000002 -0.552012
    10 1.196321 -0.000006 0.000000 0.000000 0.000000 -0.430802
    11 3.883699 -0.046763 0.431443 0.040592 0.178391 -0.842882
    12 1.719566 0.000000 -0.000001 -0.000003 0.005515 -0.543056
    13 1.209171 -0.000002 0.000000 -0.000002 0.003082 -0.560820
    14 3.859869 -0.137947 1.332466 0.296339 0.100015 -0.696305
    15 1.719429 0.000004 -0.000001 -0.000003 0.004070 -0.608697
    16 1.099661 0.000002 -0.000001 -0.000005 0.002591 -0.504910
    17 0.806057 -0.348926 1.321258 -0.745476 -0.558297 -0.909057
    18 1.789782 -0.000002 0.000002 -0.001438 0.000803 -0.036217
    19 1.207006 0.000000 0.000002 0.000000 0.000000 0.237421
    20 2.033356 1.000772 -1.937610 -1.668474 1.286518 2.942953
    21 22.575524 -18.387280 12.383190 -1.074626 0.723219 2.460783
    22 11.692557 0.000001 0.000005 0.000000 0.000000 -0.060372
    23 11.493420 0.136724 0.042971 -1.163859 0.111740 0.927892
    24 3.859680 -0.132568 1.193109 0.051232 -0.147148 -1.073647
    25 1.312561 -0.000006 0.000001 0.000000 -0.051833 -0.968097
    26 0.729362 0.000000 -0.000003 0.000000 0.000000 -0.244271
    27 3.942307 0.050327 0.431044 -0.044348 -0.131588 -1.035827
    28 1.539099 0.000002 0.000001 -0.000002 -0.000001 -0.873594
    29 1.196323 0.000008 0.000000 0.000002 0.000001 -1.170482
    30 3.883663 -0.050322 -0.431042 -0.080552 -0.178614 -0.792859
    31 1.719578 0.000004 0.000000 0.000000 -0.007974 -1.230356
    32 1.209185 -0.000002 0.000000 0.000004 -0.004457 -0.855818
    33 3.859844 -0.148935 -1.331282 -0.088307 -0.015288 -0.402906
    34 1.719421 0.000004 0.000000 0.000003 -0.006609 -0.633605
    35 1.070313 -0.010963 0.004845 0.035923 -0.018257 -0.517705
    36 0.801270 -0.354736 -1.314453 0.977333 0.368301 -0.948497
    37 1.789783 0.000002 -0.000002 -0.236052 -0.174685 0.578274
    38 1.206999 0.000003 0.000002 0.000000 0.000000 0.557159
    39 -6.494087 -6.907915 -4.693158 1.686532 0.230897 -1.270282
    40 -5.938270 -9.438402 -4.265884 1.696583 0.223539 -1.273174
    41 -2.774218 -18.837206 -8.669654 1.696583 0.223539 -1.273174
    42 4.242188 -2.000000 0.140381 0.000000 0.000000 0.000000
    43 5.891673 0.198951 0.632648 1.563552 -1.555379 -3.126260
    44 30.703125 -0.012848 -0.337402 -1.570813 -0.018051 -0.000508
  time 5
    0 0.000000 -0.000006 0.000000 -1.570739 -1.391891 -1.570846
    1 2.033349 1.000767 1.937660 1.596637 -1.286515 2.942961
    2 20.341078 -16.934111 3.882931 -1.303470 -0.708844 -3.317549
    3 11.692551 0.000001 0.000002 0.000000 0.000000 -0.060372
    4 11.204320 -0.078127 0.082007 1.486504 -0.484520 -0.096276
    5 3.855806 -0.142405 -1.191975 -0.498814 0.234742 -1.526885
    6 1.312551 -0.000002 0.000002 0.000000 0.000000 -0.121607
    7 0.729362 -0.000002 -0.000003 0.000000 0.000000 -0.169064
    8 3.942339 0.046767 -0.431443 -0.168757 0.216159 -1.074427
    9 1.539095 0.000000 0.000000 -0.000001 0.000002 -0.552012
    10 1.196321 -0.000006 0.000000 0.000000 0.000000 -0.430802
    11 3.883699 -0.046763 0.431443 0.040592 0.178391 -0.842882
    12 1.719566 0.000000 -0.000001 -0.000003 0.005515 -0.543056
    13 1.209171 -0.000002 0.000000 -0.000002 0.003082 -0.560820
    14 3.859869 -0.137947 1.332466 0.296339 0.100015 -0.696305
    15 1.719429 0.000004 -0.000001 -0.000003 0.004070 -0.608697
    16 1.099661 0.000002 -0.000001 -0.000005 0.002591 -0.504910
    17 0.806057 -0.348926 1.321258 -0.745476 -0.558297 -0.909057
    18 1.789782 -0.000002 0.000002 -0.001438 0.000791 -0.036217
    19 1.207006 0.000000 0.000002 0.000000 0.000000 0.237421
    20 2.033356 1.000772 -1.937610 -1.668474 1.286518 2.942953
    21 22.493491 -18.734947 12.000366 -1.158274 0.693218 2.407980
    22 11.692557 0.000001 0.000005 0.000000 0.000000 -0.060372
    23 11.481701 0.183600 0.070316 -1.133467 -0.021741 1.046408
    24 3.859680 -0.132568 1.193109 0.051232 -0.147172 -1.073647
    25 1.312561 -0.000006 0.000001 0.000000 -0.051833 -0.968097
    26 0.729362 0.000000 -0.000003 0.000000 0.000000 -0.244271
    27 3.942307 0.050327 0.431044 -0.044372 -0.131588 -1.035827
    28 1.539099 0.000002 0.000001 -0.000002 -0.000001 -0.873594
    29 1.196323 0.000008 0.000000 0.000002 0.000001 -1.170482
    30 3.883663 -0.050322 -0.431042 -0.080552 -0.178614 -0.792859
    31 1.719578 0.000004 0.000000 0.000000 -0.007974 -1.230382
    32 1.209185 -0.000002 0.000000 0.000004 -0.004457 -0.855818
    33 3.859844 -0.148935 -1.331282 -0.088307 -0.015288 -0.402906
    34 1.719421 0.000004 0.000000 0.000003 -0.006609 -0.633605
    35 1.070313 -0.010963 0.004845 0.035923 -0.018257 -0.517705
    36 0.801270 -0.354736 -1.314453 0.977333 0.368301 -0.948497
    37 1.789783 0.000002 -0.000002 -0.236052 -0.174685 0.578274
    38 1.206999 0.000003 0.000002 0.000000 0.000000 0.557159
    39 -6.626903 -6.958698 -4.513465 1.723035 0.320060 -1.206452
    40 -5.938270 -9.473559 -4.320573 1.732613 0.312861 -1.209824
    41 -2.266390 -18.231719 -9.583744 1.732613 0.312861 -1.209824
    42 4.242188 -2.000000 0.140381 0.000000 0.000000 0.000000
    43 5.891673 0.198951 0.632648 1.563552 -1.555379 -3.126260
    44 30.703125 -0.012848 -0.337402 -1.570813 -0.018051 -0.000508
  time 6
    0 0.000000 -0.000006 0.000000 -1.570739 -1.391891 -1.570846
    1 2.033349 1.000767 1.937660 1.596637 -1.286515 2.942961
    2 20.837187 -17.129429 2.941496 -1.356926 -0.716760 -3.288413
    3 11.692551 0.000001 0.000002 0.000000 0.000000 -0.060372
    4 11.176975 -0.082033 0.082007 1.485246 -0.503488 -0.145011
    5 3.855806 -0.142405 -1.191975 -0.498814 0.234766 -1.526885
    6 1.312551 -0.000002 0.000002 0.000000 0.000000 -0.121607
    7 0.729362 -0.000002 -0.000003 0.000000 0.000000 -0.169064
    8 3.942339 0.046767 -0.431443 -0.168757 0.216159 -1.074427
    9 1.539095 0.000000 0.000000 -0.000001 0.000002 -0.552012
    10 1.196321 -0.000006 0.000000 0.000000 0.000000 -0.430802
    11 3.883699 -0.046763 0.431443 0.040592 0.178391 -0.842882
    12 1.719566 0.000000 -0.000001 -0.000003 0.005515 -0.543056
    13 1.209171 -0.000002 0.000000 -0.000002 0.003082 -0.560820
    14 3.859869 -0.137947 1.332466 0.296339 0.100015 -0.696305
    15 1.719429 0.000004 -0.000001 -0.000003 0.004070 -0.608697
    16 1.099661 0.000002 -0.000001 -0.000005 0.002591 -0.504910
    17 0.806057 -0.348926 1.321258 -0.745476 -0.558297 -0.909057
    18 1.789782 -0.000002 0.000002 -0.001438 0.000791 -0.036217
    19 1.207006 0.000000 0.000002 0.000000 0.000000 0.237421
    20 2.033356 1.000772 -1.937610 -1.668474 1.286518 2.942953
    21 22.423176 -18.941985 11.703482 -1.211836 0.673107 2.374343
    22 11.692557 0.000001 0.000005 0.000000 0.000000 -0.060372
    23 11.481701 0.210945 0.085941 -1.127892 -0.111133 1.130238
    24 3.859680 -0.132568 1.193109 0.051232 -0.147172 -1.073647
    25 1.312561 -0.000006 0.000001 0.000000 -0.051833 -0.968097
    26 0.729362 0.000000 -0.000003 0.000000 0.000000 -0.244271
    27 3.942307 0.050327 0.431044 -0.044360 -0.131588 -1.035827
    28 1.539099 0.000002 0.000001 -0.000002 -0.000001 -0.873594
    29 1.196323 0.000008 0.000000 0.000002 0.000001 -1.170482
    30 3.883663 -0.050322 -0.431042 -0.080552 -0.178614 -0.792859
    31 1.719578 0.000004 0.000000 0.000000 -0.007974 -1.230356
    32 1.209185 -0.000002 0.000000 0.000004 -0.004457 -0.855818
    33 3.859844 -0.148935 -1.331282 -0.088307 -0.015288 -0.402906
    34 1.719421 0.000004 0.000000 0.000003 -0.006609 -0.633605
    35 1.070313 -0.010963 0.004845 0.035923 -0.018257 -0.517705
    36 0.801270 -0.354736 -1.314453 0.977333 0.368301 -0.948497
    37 1.789783 0.000002 -0.000002 -0.236052 -0.174685 0.578274
    38 1.206999 0.000003 0.000002 0.000000 0.000000 0.557159
    39 -6.712844 -7.025106 -4.431431 1.747177 0.385612 -1.164184
    40 -5.938270 -9.536061 -4.418232 1.756607 0.378354 -1.167772
    41 -2.000757 -17.766861 -10.275171 1.756607 0.378354 -1.167772
    42 4.242188 -2.000000 0.140381 0.000000 0.000000 0.000000
    43 5.895580 0.198951 0.632648 1.563552 -1.555379 -3.126260
    44 30.703125 -0.012848 -0.337402 -1.570813 -0.018051 -0.000508
  time 7
    0 0.000000 -0.000006 0.000000 -1.570739 -1.391891 -1.570846
    1 2.033349 1.000767 1.937660 1.596637 -1.286515 2.942961
    2 21.020786 -17.152867 2.390698 -1.410005 -0.723952 -3.257264
    3 11.692551 0.000001 0.000002 0.000000 0.000000 -0.060372
    4 11.173069 -0.085939 0.082007 1.486630 -0.498198 -0.168071
    5 3.855806 -0.142405 -1.191975 -0.498814 0.234766 -1.526885
    6 1.312551 -0.000002 0.000002 0.000000 0.000000 -0.121607
    7 0.729362 -0.000002 -0.000003 0.000000 0.000000 -0.169064
    8 3.942339 0.046767 -0.431443 -0.168757 0.216159 -1.074427
    9 1.539095 0.000000 0.000000 -0.000001 0.000002 -0.552012
    10 1.196321 -0.000006 0.000000 0.000000 0.000000 -0.430802
    11 3.883699 -0.046763 0.431443 0.040592 0.178391 -0.842882
    12 1.719566 0.000000 -0.000001 -0.000003 0.005515 -0.543056
    13 1.209171 -0.000002 0.000000 -0.000002 0.003082 -0.560820
    14 3.859869 -0.137947 1.332466 0.296339 0.100015 -0.696305
    15 1.719429 0.000004 -0.000001 -0.000003 0.004070 -0.608697
    16 1.099661 0.000002 -0.000001 -0.000005 0.002591 -0.504910
    17 0.806057 -0.348926 1.321258 -0.745476 -0.558297 -0.909057
    18 1.789782 -0.000002 0.000002 -0.001438 0.000803 -0.036217
    19 1.207006 0.000000 0.000002 0.000000 0.000000 0.237421
    20 2.033356 1.000772 -1.937610 -1.668474 1.286518 2.942953
    21 22.384112 -19.016206 11.590197 -1.233299 0.666170 2.360639
    22 11.692557 0.000001 0.000005 0.000000 0.000000 -0.060372
    23 11.481701 0.218758 0.097660 -1.132411 -0.149500 1.178065
    24 3.859680 -0.132568 1.193109 0.051232 -0.147160 -1.073647
    25 1.312561 -0.000006 0.000001 0.000000 -0.051821 -0.968097
    26 0.729362 0.000000 -0.000003 0.000000 0.000000 -0.244271
    27 3.942307 0.050327 0.431044 -0.044360 -0.131588 -1.035839
    28 1.539099 0.000002 0.000001 -0.000002 -0.000001 -0.873594
    29 1.196323 0.000008 0.000000 0.000002 0.000001 -1.170482
    30 3.883663 -0.050322 -0.431042 -0.080552 -0.178614 -0.792859
    31 1.719578 0.000004 0.000000 0.000000 -0.007974 -1.230356
    32 1.209185 -0.000002 0.000000 0.000004 -0.004457 -0.855818
    33 3.859844 -0.148935 -1.331282 -0.088307 -0.015288 -0.402906
    34 1.719421 0.000004 0.000000 0.000003 -0.006609 -0.633605
    35 1.070313 -0.010963 0.004845 0.035923 -0.018257 -0.517705
    36 0.801270 -0.354736 -1.314453 0.977333 0.368301 -0.948497
    37 1.789783 0.000002 -0.000002 -0.236052 -0.174685 0.578274
    38 1.206999 0.000003 0.000002 0.000000 0.000000 0.557159
    39 -6.744094 -7.083702 -4.474401 1.756767 0.426479 -1.147681
    40 -5.938270 -9.582938 -4.574487 1.765864 0.419266 -1.151138
    41 -1.946068 -17.512947 -10.802531 1.765864 0.419266 -1.151138
    42 4.242188 -2.000000 0.140381 0.000000 0.000000 0.000000
    43 5.891673 0.198951 0.632648 1.563552 -1.555379 -3.126260
    44 30.703125 -0.012848 -0.337402 -1.570813 -0.018051 -0.000508
  time 8
    0 0.000000 -0.000006 0.000000 -1.570739 -1.391891 -1.570846
    1 2.033349 1.000767 1.937660 1.596637 -1.286515 2.942961
    2 21.024692 -17.082553 2.105533 -1.467421 -0.729551 -3.220844
    3 11.692551 0.000001 0.000002 0.000000 0.000000 -0.060372
    4 11.188695 -0.089846 0.078100 1.489712 -0.476418 -0.173573
    5 3.855806 -0.142405 -1.191975 -0.498814 0.234742 -1.526885
    6 1.312551 -0.000002 0.000002 0.000000 0.000000 -0.121607
    7 0.729362 -0.000002 -0.000003 0.000000 0.000000 -0.169064
    8 3.942339 0.046767 -0.431443 -0.168757 0.216159 -1.074427
    9 1.539095 0.000000 0.000000 -0.000001 0.000002 -0.552012
    10 1.196321 -0.000006 0.000000 0.000000 0.000000 -0.430802
    11 3.883699 -0.046763 0.431443 0.040592 0.178391 -0.842882
    12 1.719566 0.000000 -0.000001 -0.000003 0.005515 -0.543056
    13 1.209171 -0.000002 0.000000 -0.000002 0.003082 -0.560820
    14 3.859869 -0.137947 1.332466 0.296339 0.100015 -0.696305
    15 1.719429 0.000004 -0.000001 -0.000003 0.004070 -0.608697
    16 1.099661 0.000002 -0.000001 -0.000005 0.002591 -0.504910
    17 0.806057 -0.348926 1.321258 -0.745476 -0.558297 -0.909057
    18 1.789782 -0.000002 0.000002 -0.001438 0.000791 -0.036217
    19 1.207006 0.000000 0.000002 0.000000 0.000000 0.237421
    20 2.033356 1.000772 -1.937610 -1.668474 1.286518 2.942953
    21 22.376300 -19.012299 11.648793 -1.233394 0.668701 2.360256
    22 11.692557 0.000001 0.000005 0.000000 0.000000 -0.060372
    23 11.477795 0.226570 0.101567 -1.139064 -0.152753 1.203358
    24 3.859680 -0.132568 1.193109 0.051219 -0.147172 -1.073647
    25 1.312561 -0.000006 0.000001 0.000000 -0.051833 -0.968097
    26 0.729362 0.000000 -0.000003 0.000000 0.000000 -0.244271
    27 3.942307 0.050327 0.431044 -0.044372 -0.131588 -1.035839
    28 1.539099 0.000002 0.000001 -0.000002 -0.000001 -0.873594
    29 1.196323 0.000008 0.000000 0.000002 0.000001 -1.170482
    30 3.883663 -0.050322 -0.431042 -0.080552 -0.178614 -0.792859
    31 1.719578 0.000004 0.000000 0.000000 -0.007974 -1.230356
    32 1.209185 -0.000002 0.000000 0.000004 -0.004457 -0.855818
    33 3.859844 -0.148935 -1.331282 -0.088307 -0.015288 -0.402906
    34 1.719421 0.000004 0.000000 0.000003 -0.006609 -0.633605
    35 1.070313 -0.010963 0.004845 0.035923 -0.018257 -0.517705
    36 0.801270 -0.354736 -1.314453 0.977333 0.368301 -0.948497
    37 1.789783 0.000002 -0.000002 -0.236052 -0.174685 0.578274
    38 1.206999 0.000003 0.000002 0.000000 0.000000 0.557159
    39 -6.740188 -7.126672 -4.630656 1.755252 0.453741 -1.150406
    40 -5.938270 -9.618095 -4.797150 1.764345 0.446601 -1.154014
    41 -2.043727 -17.411382 -11.267389 1.764345 0.446601 -1.154014
    42 4.242188 -2.000000 0.140381 0.000000 0.000000 0.000000
    43 5.891673 0.198951 0.632648 1.563552 -1.555379 -3.126260
    44 30.703125 -0.012848 -0.337402 -1.570813 -0.018051 -0.000508
  time 9
    0 0.000000 -0.000006 0.000000 -1.570739 -1.391891 -1.570846
    1 2.033349 1.000767 1.937660 1.596637 -1.286515 2.942961
    2 20.884063 -16.949736 2.043031 -1.527665 -0.734233 -3.179919
    3 11.692551 0.000001 0.000002 0.000000 0.000000 -0.060372
    4 11.216039 -0.093752 0.074194 1.494178 -0.441842 -0.163662
    5 3.855806 -0.142405 -1.191975 -0.498814 0.234778 -1.526885
    6 1.312551 -0.000002 0.000002 0.000000 0.000000 -0.121607
    7 0.729362 -0.000002 -0.000003 0.000000 0.000000 -0.169064
    8 3.942339 0.046767 -0.431443 -0.168757 0.216159 -1.074427
    9 1.539095 0.000000 0.000000 -0.000001 0.000002 -0.552012
    10 1.196321 -0.000006 0.000000 0.000000 0.000000 -0.430802
    11 3.883699 -0.046763 0.431443 0.040592 0.178391 -0.842882
    12 1.719566 0.000000 -0.000001 -0.000003 0.005515 -0.543056
    13 1.209171 -0.000002 0.000000 -0.000002 0.003082 -0.560820
    14 3.859869 -0.137947 1.332466 0.296339 0.100015 -0.696305
    15 1.719429 0.000004 -0.000001 -0.000003 0.004070 -0.608697
    16 1.099661 0.000002 -0.000001 -0.000005 0.002591 -0.504910
    17 0.806057 -0.348926 1.321258 -0.745476 -0.558297 -0.909057
    18 1.789782 -0.000002 0.000002 -0.001438 0.000803 -0.036217
    19 1.207006 0.000000 0.000002 0.000000 0.000000 0.237421
    20 2.033356 1.000772 -1.937610 -1.668474 1.286518 2.942953
    21 22.384112 -18.938078 11.906613 -1.213752 0.681873 2.372810
    22 11.692557 0.000001 0.000005 0.000000 0.000000 -0.060372
    23 11.477795 0.218758 0.097660 -1.145561 -0.126417 1.206489
    24 3.859680 -0.132568 1.193109 0.051232 -0.147148 -1.073647
    25 1.312561 -0.000006 0.000001 0.000012 -0.051833 -0.968097
    26 0.729362 0.000000 -0.000003 0.000000 0.000000 -0.244271
    27 3.942307 0.050327 0.431044 -0.044348 -0.131588 -1.035839
    28 1.539099 0.000002 0.000001 -0.000002 -0.000001 -0.873594
    29 1.196323 0.000008 0.000000 0.000002 0.000001 -1.170482
    30 3.883663 -0.050322 -0.431042 -0.080552 -0.178614 -0.792859
    31 1.719578 0.000004 0.000000 0.000000 -0.007974 -1.230356
    32 1.209185 -0.000002 0.000000 0.000004 -0.004457 -0.855818
    33 3.859844 -0.148935 -1.331282 -0.088307 -0.015288 -0.402906
    34 1.719421 0.000004 0.000000 0.000003 -0.006609 -0.633605
    35 1.070313 -0.010963 0.004845 0.035923 -0.018257 -0.517705
    36 0.801270 -0.354736 -1.314453 0.977333 0.368301 -0.948497
    37 1.789783 0.000002 -0.000002 -0.236052 -0.174685 0.578274
    38 1.206999 0.000003 0.000002 0.000000 0.000000 0.557159
    39 -6.701124 -7.150110 -4.904102 1.744646 0.469566 -1.169399
    40 -5.938270 -9.657159 -5.113566 1.753688 0.462362 -1.172747
    41 -2.250765 -17.427007 -11.716622 1.753688 0.462362 -1.172747
    42 4.242188 -2.000000 0.140381 0.000000 0.000000 0.000000
    43 5.891673 0.198951 0.632648 1.563552 -1.555379 -3.126260
    44 30.703125 -0.012848 -0.337402 -1.570813 -0.018051 -0.000508
  time 10
    0 0.000000 -0.000006 0.000000 -1.570739 -1.391891 -1.570846
    1 2.033349 1.000767 1.937660 1.596637 -1.286515 2.942961
    2 20.594992 -16.758324 2.105533 -1.597149 -0.740990 -3.129122
    3 11.692551 0.000001 0.000002 0.000000 0.000000 -0.060372
    4 11.259009 -0.101565 0.058568 1.504431 -0.392897 -0.138924
    5 3.855806 -0.142405 -1.191975 -0.498814 0.234766 -1.526885
    6 1.312551 -0.000002 0.000002 0.000000 0.000000 -0.121607
    7 0.729362 -0.000002 -0.000003 0.000000 0.000000 -0.169064
    8 3.942339 0.046767 -0.431443 -0.168757 0.216159 -1.074427
    9 1.539095 0.000000 0.000000 -0.000001 0.000002 -0.552012
    10 1.196321 -0.000006 0.000000 0.000000 0.000000 -0.430802
    11 3.883699 -0.046763 0.431443 0.040592 0.178391 -0.842882
    12 1.719566 0.000000 -0.000001 -0.000003 0.005515 -0.543056
    13 1.209171 -0.000002 0.000000 -0.000002 0.003082 -0.560820
    14 3.859869 -0.137947 1.332466 0.296339 0.100015 -0.696305
    15 1.719429 0.000004 -0.000001 -0.000003 0.004070 -0.608697
    16 1.099661 0.000002 -0.000001 -0.000005 0.002591 -0.504910
    17 0.806057 -0.348926 1.321258 -0.745476 -0.558297 -0.909057
    18 1.789782 -0.000002 0.000002 -0.001438 0.000791 -0.036217
    19 1.207006 0.000000 0.000002 0.000000 0.000000 0.237421
    20 2.033356 1.000772 -1.937610 -1.668474 1.286518 2.942953
    21 22.384112 -18.742760 12.469131 -1.169101 0.712766 2.400217
    22 11.692557 0.000001 0.000005 0.000000 0.000000 -0.060372
    23 11.477795 0.207039 0.082035 -1.154823 -0.072688 1.181978
    24 3.859680 -0.132568 1.193109 0.051232 -0.147160 -1.073647
    25 1.312561 -0.000006 0.000001 0.000000 -0.051833 -0.968081
    26 0.729362 0.000000 -0.000003 0.000000 0.000000 -0.244271
    27 3.942307 0.050327 0.431044 -0.044348 -0.131588 -1.035839
    28 1.539099 0.000002 0.000001 -0.000002 -0.000001 -0.873594
    29 1.196323 0.000008 0.000000 0.000002 0.000001 -1.170482
    30 3.883663 -0.050322 -0.431042 -0.080552 -0.178614 -0.792859
    31 1.719578 0.000004 0.000000 0.000000 -0.007974 -1.230356
    32 1.209185 -0.000002 0.000000 0.000004 -0.004457 -0.855818
    33 3.859844 -0.148935 -1.331282 -0.088307 -0.015288 -0.402906
    34 1.719421 0.000004 0.000000 0.000003 -0.006609 -0.633605
    35 1.070313 -0.010963 0.004845 0.035923 -0.018257 -0.517705
    36 0.801270 -0.354736 -1.314453 0.977333 0.368301 -0.948497
    37 1.789783 0.000002 -0.000002 -0.236052 -0.174685 0.578274
    38 1.206999 0.000003 0.000002 0.000000 0.000000 0.557159
    39 -6.638623 -7.161829 -5.368960 1.726843 0.475706 -1.200536
    40 -5.938270 -9.684503 -5.574518 1.735872 0.468409 -1.204072
    41 -2.543743 -17.540292 -12.247888 1.735872 0.468409 -1.204072
    42 4.242188 -2.000000 0.140381 0.000000 0.000000 0.000000
    43 5.891673 0.198951 0.632648 1.563552 -1.555379 -3.126260
    44 30.703125 -0.012848 -0.337402 -1.570813 -0.018051 -0.000508
  time 11
    0 0.000000 -0.000006 0.000000 -1.570739 -1.391891 -1.570846
    1 2.033349 1.000767 1.937660 1.596637 -1.286515 2.942961
    2 20.137947 -16.496597 2.222724 -1.678889 -0.751368 -3.066250
    3 11.692551 0.000001 0.000002 0.000000 0.000000 -0.060372
    4 11.313698 -0.109378 0.046849 1.522170 -0.331227 -0.099632
    5 3.855806 -0.142405 -1.191975 -0.498814 0.234778 -1.526885
    6 1.312551 -0.000002 0.000002 0.000000 0.000000 -0.121607
    7 0.729362 -0.000002 -0.000003 0.000000 0.000000 -0.169064
    8 3.942339 0.046767 -0.431443 -0.168757 0.216159 -1.074427
    9 1.539095 0.000000 0.000000 -0.000001 0.000002 -0.552012
    10 1.196321 -0.000006 0.000000 0.000000 0.000000 -0.430802
    11 3.883699 -0.046763 0.431443 0.040592 0.178391 -0.842882
    12 1.719566 0.000000 -0.000001 -0.000003 0.005515 -0.543056
    13 1.209171 -0.000002 0.000000 -0.000002 0.003082 -0.560820
    14 3.859869 -0.137947 1.332466 0.296339 0.100015 -0.696305
    15 1.719429 0.000004 -0.000001 -0.000003 0.004070 -0.608697
    16 1.099661 0.000002 -0.000001 -0.000005 0.002591 -0.504910
    17 0.806057 -0.348926 1.321258 -0.745476 -0.558297 -0.909057
    18 1.789782 -0.000002 0.000002 -0.001438 0.000815 -0.036217
    19 1.207006 0.000000 0.000002 0.000000 0.000000 0.237421
    20 2.033356 1.000772 -1.937610 -1.668474 1.286518 2.942953
    21 22.333329 -18.391186 13.328532 -1.095610 0.762080 2.445450
    22 11.692557 0.000001 0.000005 0.000000 0.000000 -0.060372
    23 11.481701 0.191413 0.066409 -1.171457 0.005496 1.129126
    24 3.859680 -0.132568 1.193109 0.051232 -0.147172 -1.073647
    25 1.312561 -0.000006 0.000001 0.000000 -0.051821 -0.968081
    26 0.729362 0.000000 -0.000003 0.000000 0.000000 -0.244271
    27 3.942307 0.050327 0.431044 -0.044360 -0.131588 -1.035827
    28 1.539099 0.000002 0.000001 -0.000002 -0.000001 -0.873594
    29 1.196323 0.000008 0.000000 0.000002 0.000001 -1.170482
    30 3.883663 -0.050322 -0.431042 -0.080552 -0.178614 -0.792859
    31 1.719578 0.000004 0.000000 0.000000 -0.007974 -1.230356
    32 1.209185 -0.000002 0.000000 0.000004 -0.004457 -0.855818
    33 3.859844 -0.148935 -1.331282 -0.088307 -0.015288 -0.402906
    34 1.719421 0.000004 0.000000 0.000003 -0.006609 -0.633605
    35 1.070313 -0.010963 0.004845 0.035923 -0.018257 -0.517705
    36 0.801270 -0.354736 -1.314453 0.977333 0.368301 -0.948497
    37 1.789783 0.000002 -0.000002 -0.236052 -0.174685 0.578274
    38 1.206999 0.000003 0.000002 0.000000 0.000000 0.557159
    39 -6.556589 -7.173548 -6.036949 1.703776 0.474094 -1.240936
    40 -5.938270 -9.715754 -6.230788 1.713039 0.466799 -1.244181
    41 -2.907035 -17.723891 -12.904158 1.713039 0.466799 -1.244181
    42 4.242188 -2.000000 0.140381 0.000000 0.000000 0.000000
    43 5.891673 0.198951 0.632648 1.563552 -1.555379 -3.126260
    44 30.703125 -0.012848 -0.337402 -1.570813 -0.018051 -0.000508
  time 12
    0 0.000000 -0.000006 0.000000 -1.570739 -1.391891 -1.570846
    1 2.033349 1.000767 1.937660 1.596637 -1.286515 2.942961
    2 19.540272 -16.172369 2.398511 -1.768454 -0.762614 -2.992642
    3 11.692551 0.000001 0.000002 0.000000 0.000000 -0.060372
    4 11.380107 -0.109378 0.015598 1.545380 -0.262360 -0.048165
    5 3.855806 -0.142405 -1.191975 -0.498814 0.234766 -1.526885
    6 1.312551 -0.000002 0.000002 0.000000 0.000000 -0.121607
    7 0.729362 -0.000002 -0.000003 0.000000 0.000000 -0.169064
    8 3.942339 0.046767 -0.431443 -0.168757 0.216159 -1.074427
    9 1.539095 0.000000 0.000000 -0.000001 0.000002 -0.552012
    10 1.196321 -0.000006 0.000000 0.000000 0.000000 -0.430802
    11 3.883699 -0.046763 0.431443 0.040592 0.178391 -0.842882
    12 1.719566 0.000000 -0.000001 -0.000003 0.005515 -0.543056
    13 1.209171 -0.000002 0.000000 -0.000002 0.003082 -0.560820
    14 3.859869 -0.137947 1.332466 0.296339 0.100015 -0.696305
    15 1.719429 0.000004 -0.000001 -0.000003 0.004070 -0.608697
    16 1.099661 0.000002 -0.000001 -0.000005 0.002591 -0.504910
    17 0.806057 -0.348926 1.321258 -0.745476 -0.558297 -0.909057
    18 1.789782 -0.000002 0.000002 -0.001438 0.000815 -0.036217
    19 1.207006 0.000000 0.000002 0.000000 0.000000 0.237421
    20 2.033356 1.000772 -1.937610 -1.668474 1.286518 2.942953
    21 22.212232 -17.887265 14.309030 -0.994236 0.822224 2.507548
    22 11.692557 0.000001 0.000005 0.000000 0.000000 -0.060372
    23 11.481701 0.160162 0.046877 -1.199489 0.100218 1.055347
    24 3.859680 -0.132568 1.193109 0.051232 -0.147160 -1.073647
    25 1.312561 -0.000006 0.000001 0.000000 -0.051833 -0.968081
    26 0.729362 0.000000 -0.000003 0.000000 0.000000 -0.244271
    27 3.942307 0.050327 0.431044 -0.044348 -0.131588 -1.035827
    28 1.539099 0.000002 0.000001 -0.000002 -0.000001 -0.873594
    29 1.196323 0.000008 0.000000 0.000002 0.000001 -1.170482
    30 3.883663 -0.050322 -0.431042 -0.080552 -0.178614 -0.792859
    31 1.719578 0.000004 0.000000 0.000000 -0.007974 -1.230356
    32 1.209185 -0.000002 0.000000 0.000004 -0.004457 -0.855818
    33 3.859844 -0.148935 -1.331282 -0.088307 -0.015288 -0.402906
    34 1.719421 0.000004 0.000000 0.000003 -0.006609 -0.633605
    35 1.070313 -0.010963 0.004845 0.035923 -0.018257 -0.517705
    36 0.801270 -0.354736 -1.314453 0.977333 0.368301 -0.948497
    37 1.789783 0.000002 -0.000002 -0.236052 -0.174685 0.578274
    38 1.206999 0.000003 0.000002 0.000000 0.000000 0.557159
    39 -6.466742 -7.177455 -6.822129 1.677520 0.466881 -1.287096
    40 -5.938270 -9.743099 -7.012062 1.686926 0.459518 -1.290119
    41 -3.317204 -17.938742 -13.630743 1.686926 0.459518 -1.290119
    42 4.242188 -2.000000 0.140381 0.000000 0.000000 0.000000
    43 5.891673 0.198951 0.632648 1.563552 -1.555379 -3.126260
    44 30.703125 -0.012848 -0.337402 -1.570813 -0.018051 -0.000508
  time 13
    0 0.000000 -0.000006 0.000000 -1.570739 -1.391891 -1.570846
    1 2.033349 1.000767 1.937660 1.596637 -1.286515 2.942961
    2 18.801968 -15.793451 2.609455 -1.861224 -0.772847 -2.911751
    3 11.692551 0.000001 0.000002 0.000000 0.000000 -0.060372
    4 11.442609 -0.109378 -0.000027 1.572365 -0.191707 0.012119
    5 3.855806 -0.142405 -1.191975 -0.498814 0.234766 -1.526885
    6 1.312551 -0.000002 0.000002 0.000000 0.000000 -0.121607
    7 0.729362 -0.000002 -0.000003 0.000000 0.000000 -0.169064
    8 3.942339 0.046767 -0.431443 -0.168757 0.216159 -1.074427
    9 1.539095 0.000000 0.000000 -0.000001 0.000002 -0.552012
    10 1.196321 -0.000006 0.000000 0.000000 0.000000 -0.430802
    11 3.883699 -0.046763 0.431443 0.040592 0.178391 -0.842882
    12 1.719566 0.000000 -0.000001 -0.000003 0.005515 -0.543056
    13 1.209171 -0.000002 0.000000 -0.000002 0.003082 -0.560820
    14 3.859869 -0.137947 1.332466 0.296339 0.100015 -0.696305
    15 1.719429 0.000004 -0.000001 -0.000003 0.004070 -0.608697
    16 1.099661 0.000002 -0.000001 -0.000005 0.002591 -0.504910
    17 0.806057 -0.348926 1.321258 -0.745476 -0.558297 -0.909057
    18 1.789782 -0.000002 0.000002 -0.001438 0.000791 -0.036217
    19 1.207006 0.000000 0.000002 0.000000 0.000000 0.237421
    20 2.033356 1.000772 -1.937610 -1.668474 1.286518 2.942953
    21 22.028633 -17.289590 15.250465 -0.869962 0.884102 -3.697436
    22 11.692557 0.000001 0.000005 0.000000 0.000000 -0.060372
    23 11.489514 0.125005 0.031252 -1.240941 0.200544 0.967727
    24 3.859680 -0.132568 1.193109 0.051232 -0.147172 -1.073647
    25 1.312561 -0.000006 0.000001 0.000000 -0.051821 -0.968081
    26 0.729362 0.000000 -0.000003 0.000000 0.000000 -0.244271
    27 3.942307 0.050327 0.431044 -0.044348 -0.131588 -1.035839
    28 1.539099 0.000002 0.000001 -0.000002 -0.000001 -0.873594
    29 1.196323 0.000008 0.000000 0.000002 0.000001 -1.170482
    30 3.883663 -0.050322 -0.431042 -0.080552 -0.178614 -0.792859
    31 1.719578 0.000004 0.000000 0.000000 -0.007974 -1.230356
    32 1.209185 -0.000002 0.000000 0.000004 -0.004457 -0.855818
    33 3.859844 -0.148935 -1.331282 -0.088307 -0.015288 -0.402906
    34 1.719421 0.000004 0.000000 0.000003 -0.006609 -0.633605
    35 1.070313 -0.010963 0.004845 0.035923 -0.018257 -0.517705
    36 0.801270 -0.354736 -1.314453 0.977333 0.368301 -0.948497
    37 1.789783 0.000002 -0.000002 -0.236052 -0.174685 0.578274
    38 1.206999 0.000003 0.000002 0.000000 0.000000 0.557159
    39 -6.372989 -7.185268 -7.697156 1.649968 0.455890 -1.335747
    40 -5.938270 -9.770443 -7.851931 1.659453 0.448498 -1.338312
    41 -3.754717 -18.165311 -14.372953 1.659453 0.448498 -1.338312
    42 4.242188 -2.000000 0.140381 0.000000 0.000000 0.000000
    43 5.891673 0.198951 0.632648 1.563552 -1.555379 -3.126260
    44 30.703125 -0.012848 -0.337402 -1.570813 -0.018051 -0.000508
  time 14
    0 0.000000 -0.000006 0.000000 -1.570739 -1.391891 -1.570846
    1 2.033349 1.000767 1.937660 1.596637 -1.286515 2.942961
    2 17.973818 -15.367657 2.847743 -1.952769 -0.780618 -2.827506
    3 11.692551 0.000001 0.000002 0.000000 0.000000 -0.060372
    4 11.489485 -0.093752 -0.035185 1.601740 -0.123484 0.077437
    5 3.855806 -0.142405 -1.191975 -0.498814 0.234778 -1.526885
    6 1.312551 -0.000002 0.000002 0.000000 0.000000 -0.121607
    7 0.729362 -0.000002 -0.000003 0.000000 0.000000 -0.169064
    8 3.942339 0.046767 -0.431443 -0.168757 0.216159 -1.074427
    9 1.539095 0.000000 0.000000 -0.000001 0.000002 -0.552012
    10 1.196321 -0.000006 0.000000 0.000000 0.000000 -0.430802
    11 3.883699 -0.046763 0.431443 0.040592 0.178391 -0.842882
    12 1.719566 0.000000 -0.000001 -0.000003 0.005515 -0.543056
    13 1.209171 -0.000002 0.000000 -0.000002 0.003082 -0.560820
    14 3.859869 -0.137947 1.332466 0.296339 0.100015 -0.696305
    15 1.719429 0.000004 -0.000001 -0.000003 0.004070 -0.608697
    16 1.099661 0.000002 -0.000001 -0.000005 0.002591 -0.504910
    17 0.806057 -0.348926 1.321258 -0.745476 -0.558297 -0.909057
    18 1.789782 -0.000002 0.000002 -0.001438 0.000803 -0.036217
    19 1.207006 0.000000 0.000002 0.000000 0.000000 0.237421
    20 2.033356 1.000772 -1.937610 -1.668474 1.286518 2.942953
    21 21.790344 -16.684103 16.043458 -0.732944 0.940261 -3.609079
    22 11.692557 0.000001 0.000005 0.000000 0.000000 -0.060372
    23 11.493420 0.089848 0.015626 -1.293880 0.295423 0.873516
    24 3.859680 -0.132568 1.193109 0.051232 -0.147172 -1.073647
    25 1.312561 -0.000006 0.000001 0.000000 -0.051821 -0.968097
    26 0.729362 0.000000 -0.000003 0.000000 0.000000 -0.244271
    27 3.942307 0.050327 0.431044 -0.044348 -0.131588 -1.035827
    28 1.539099 0.000002 0.000001 -0.000002 -0.000001 -0.873594
    29 1.196323 0.000008 0.000000 0.000002 0.000001 -1.170482
    30 3.883663 -0.050322 -0.431042 -0.080552 -0.178614 -0.792859
    31 1.719578 0.000004 0.000000 0.000000 -0.007974 -1.230356
    32 1.209185 -0.000002 0.000000 0.000004 -0.004457 -0.855818
    33 3.859844 -0.148935 -1.331282 -0.088307 -0.015288 -0.402906
    34 1.719421 0.000004 0.000000 0.000003 -0.006609 -0.633605
    35 1.070313 -0.010963 0.004845 0.035923 -0.018257 -0.517705
    36 0.801270 -0.354736 -1.314453 0.977333 0.368301 -0.948497
    37 1.789783 0.000002 -0.000002 -0.236052 -0.174685 0.578274
    38 1.206999 0.000003 0.000002 0.000000 0.000000 0.557159
    39 -6.275330 -7.189174 -8.572183 1.623075 0.443109 -1.382919
    40 -5.938270 -9.793882 -8.683988 1.632640 0.435599 -1.385416
    41 -4.196137 -18.372349 -15.091725 1.632640 0.435599 -1.385416
    42 4.242188 -2.000000 0.140381 0.000000 0.000000 0.000000
    43 5.891673 0.198951 0.632648 1.563552 -1.555379 -3.126260
    44 30.703125 -0.012848 -0.337402 -1.570813 -0.018051 -0.000508
  time 15
    0 0.000000 -0.000006 0.000000 -1.570739 -1.391891 -1.570846
    1 2.033349 1.000767 1.937660 1.596637 -1.286515 2.942961
    2 17.110510 -14.918424 3.082125 -2.038280 -0.785445 -2.744794
    3 11.692551 0.000001 0.000002 0.000000 0.000000 -0.060372
    4 11.544174 -0.085939 -0.070342 1.631619 -0.062029 0.142834
    5 3.855806 -0.142405 -1.191975 -0.498814 0.234766 -1.526885
    6 1.312551 -0.000002 0.000002 0.000000 0.000000 -0.121607
    7 0.729362 -0.000002 -0.000003 0.000000 0.000000 -0.169064
    8 3.942339 0.046767 -0.431443 -0.168757 0.216159 -1.074427
    9 1.539095 0.000000 0.000000 -0.000001 0.000002 -0.552012
    10 1.196321 -0.000006 0.000000 0.000000 0.000000 -0.430802
    11 3.883699 -0.046763 0.431443 0.040592 0.178391 -0.842882
    12 1.719566 0.000000 -0.000001 -0.000003 0.005515 -0.543056
    13 1.209171 -0.000002 0.000000 -0.000002 0.003082 -0.560820
    14 3.859869 -0.137947 1.332466 0.296339 0.100015 -0.696305
    15 1.719429 0.000004 -0.000001 -0.000003 0.004070 -0.608697
    16 1.099661 0.000002 -0.000001 -0.000005 0.002591 -0.504910
    17 0.806057 -0.348926 1.321258 -0.745476 -0.558297 -0.909057
    18 1.789782 -0.000002 0.000002 -0.001438 0.000791 -0.036217
    19 1.207006 0.000000 0.000002 0.000000 0.000000 0.237421
    20 2.033356 1.000772 -1.937610 -1.668474 1.286518 2.942953
    21 21.532524 -16.141118 16.641133 -0.598417 0.985919 -3.519765
    22 11.692557 0.000001 0.000005 0.000000 0.000000 -0.060372
    23 11.489514 0.050784 0.007814 -1.352304 0.374900 0.781488
    24 3.859680 -0.132568 1.193109 0.051232 -0.147172 -1.073647
    25 1.312561 -0.000006 0.000001 0.000012 -0.051833 -0.968081
    26 0.729362 0.000000 -0.000003 0.000000 0.000000 -0.244271
    27 3.942307 0.050327 0.431044 -0.044372 -0.131588 -1.035827
    28 1.539099 0.000002 0.000001 -0.000002 -0.000001 -0.873594
    29 1.196323 0.000008 0.000000 0.000002 0.000001 -1.170482
    30 3.883663 -0.050322 -0.431042 -0.080552 -0.178614 -0.792859
    31 1.719578 0.000004 0.000000 0.000000 -0.007974 -1.230356
    32 1.209185 -0.000002 0.000000 0.000004 -0.004457 -0.855818
    33 3.859844 -0.148935 -1.331282 -0.088307 -0.015288 -0.402906
    34 1.719421 0.000004 0.000000 0.000003 -0.006609 -0.633605
    35 1.070313 -0.010963 0.004845 0.035923 -0.018257 -0.517705
    36 0.801270 -0.354736 -1.314453 0.977333 0.368301 -0.948497
    37 1.789783 0.000002 -0.000002 -0.236052 -0.174685 0.578274
    38 1.206999 0.000003 0.000002 0.000000 0.000000 0.557159
    39 -6.185484 -7.196987 -9.353457 1.598832 0.430524 -1.425810
    40 -5.938270 -9.813414 -9.441823 1.608527 0.422970 -1.428090
    41 -4.602399 -18.544229 -15.744088 1.608527 0.422970 -1.428090
    42 4.242188 -2.000000 0.140381 0.000000 0.000000 0.000000
    43 5.895580 0.198951 0.632648 1.563552 -1.555379 -3.126260
    44 30.703125 -0.012848 -0.337402 -1.570813 -0.018051 -0.000508
  time 16
    0 0.000000 -0.000006 0.000000 -1.570739 -1.391891 -1.570846
    1 2.033349 1.000767 1.937660 1.596637 -1.286515 2.942961
    2 16.301892 -14.492630 3.289163 -2.111346 -0.787424 -2.671091
    3 11.692551 0.000001 0.000002 0.000000 0.000000 -0.060372
    4 11.591051 -0.058595 -0.097686 1.658478 -0.011678 0.201167
    5 3.855806 -0.142405 -1.191975 -0.498814 0.234778 -1.526885
    6 1.312551 -0.000002 0.000002 0.000000 0.000000 -0.121607
    7 0.729362 -0.000002 -0.000003 0.000000 0.000000 -0.169064
    8 3.942339 0.046767 -0.431443 -0.168757 0.216159 -1.074427
    9 1.539095 0.000000 0.000000 -0.000001 0.000002 -0.552012
    10 1.196321 -0.000006 0.000000 0.000000 0.000000 -0.430802
    11 3.883699 -0.046763 0.431443 0.040592 0.178391 -0.842882
    12 1.719566 0.000000 -0.000001 -0.000003 0.005515 -0.543056
    13 1.209171 -0.000002 0.000000 -0.000002 0.003082 -0.560820
    14 3.859869 -0.137947 1.332466 0.296339 0.100015 -0.696305
    15 1.719429 0.000004 -0.000001 -0.000003 0.004070 -0.608697
    16 1.099661 0.000002 -0.000001 -0.000005 0.002591 -0.504910
    17 0.806057 -0.348926 1.321258 -0.745476 -0.558297 -0.909057
    18 1.789782 -0.000002 0.000002 -0.001438 0.000803 -0.036217
    19 1.207006 0.000000 0.000002 0.000000 0.000000 0.237421
    20 2.033356 1.000772 -1.937610 -1.668474 1.286518 2.942953
    21 21.286422 -15.723136 17.047395 -0.482383 1.018780 -3.440225
    22 11.692557 0.000001 0.000005 0.000000 0.000000 -0.060372
    23 11.493420 0.027346 0.007814 -1.406412 0.433528 0.702601
    24 3.859680 -0.132568 1.193109 0.051232 -0.147172 -1.073647
    25 1.312561 -0.000006 0.000001 0.000000 -0.051833 -0.968097
    26 0.729362 0.000000 -0.000003 0.000000 0.000000 -0.244271
    27 3.942307 0.050327 0.431044 -0.044360 -0.131588 -1.035827
    28 1.539099 0.000002 0.000001 -0.000002 -0.000001 -0.873594
    29 1.196323 0.000008 0.000000 0.000002 0.000001 -1.170482
    30 3.883663 -0.050322 -0.431042 -0.080552 -0.178614 -0.792859
    31 1.719578 0.000004 0.000000 0.000000 -0.007974 -1.230356
    32 1.209185 -0.000002 0.000000 0.000004 -0.004457 -0.855818
    33 3.859844 -0.148935 -1.331282 -0.088307 -0.015288 -0.402906
    34 1.719421 0.000004 0.000000 0.000003 -0.006609 -0.633605
    35 1.070313 -0.010963 0.004845 0.035923 -0.018257 -0.517705
    36 0.801270 -0.354736 -1.314453 0.977333 0.368301 -0.948497
    37 1.789783 0.000002 -0.000002 -0.236052 -0.174685 0.578274
    38 1.206999 0.000003 0.000002 0.000000 0.000000 0.557159
    39 -6.119075 -7.208706 -10.009727 1.578996 0.420178 -1.460372
    40 -5.938270 -9.829039 -10.062936 1.588772 0.412486 -1.462602
    41 -4.938347 -18.669233 -16.271448 1.588772 0.412486 -1.462602
    42 4.242188 -2.000000 0.140381 0.000000 0.000000 0.000000
    43 5.891673 0.202857 0.632648 1.563552 -1.555379 -3.126260
    44 30.703125 -0.012848 -0.337402 -1.570813 -0.018051 -0.000508
  time 17
    0 0.000000 -0.000006 0.000000 -1.570739 -1.391891 -1.570846
    1 2.033349 1.000767 1.937660 1.596637 -1.286515 2.942961
    2 15.696405 -14.172308 3.433699 -2.163671 -0.787231 -2.617515
    3 11.692551 0.000001 0.000002 0.000000 0.000000 -0.060372
    4 11.614489 -0.039063 -0.121125 1.678355 0.022469 0.243698
    5 3.855806 -0.142405 -1.191975 -0.498814 0.234778 -1.526885
    6 1.312551 -0.000002 0.000002 0.000000 0.000000 -0.121607
    7 0.729362 -0.000002 -0.000003 0.000000 0.000000 -0.169064
    8 3.942339 0.046767 -0.431443 -0.168757 0.216159 -1.074427
    9 1.539095 0.000000 0.000000 -0.000001 0.000002 -0.552012
    10 1.196321 -0.000006 0.000000 0.000000 0.000000 -0.430802
    11 3.883699 -0.046763 0.431443 0.040592 0.178391 -0.842882
    12 1.719566 0.000000 -0.000001 -0.000003 0.005515 -0.543056
    13 1.209171 -0.000002 0.000000 -0.000002 0.003082 -0.560820
    14 3.859869 -0.137947 1.332466 0.296339 0.100015 -0.696305
    15 1.719429 0.000004 -0.000001 -0.000003 0.004070 -0.608697
    16 1.099661 0.000002 -0.000001 -0.000005 0.002591 -0.504910
    17 0.806057 -0.348926 1.321258 -0.745476 -0.558297 -0.909057
    18 1.789782 -0.000002 0.000002 -0.001438 0.000815 -0.036217
    19 1.207006 0.000000 0.000002 0.000000 0.000000 0.237421
    20 2.033356 1.000772 -1.937610 -1.668474 1.286518 2.942953
    21 21.114542 -15.461410 17.281777 -0.402759 1.038421 -3.384547
    22 11.692557 0.000001 0.000005 0.000000 0.000000 -0.060372
    23 11.493420 0.007814 0.007814 -1.444964 0.469230 0.648925
    24 3.859680 -0.132568 1.193109 0.051232 -0.147160 -1.073647
    25 1.312561 -0.000006 0.000001 0.000000 -0.051833 -0.968081
    26 0.729362 0.000000 -0.000003 0.000000 0.000000 -0.244271
    27 3.942307 0.050327 0.431044 -0.044348 -0.131588 -1.035839
    28 1.539099 0.000002 0.000001 -0.000002 -0.000001 -0.873594
    29 1.196323 0.000008 0.000000 0.000002 0.000001 -1.170482
    30 3.883663 -0.050322 -0.431042 -0.080552 -0.178614 -0.792859
    31 1.719578 0.000004 0.000000 0.000000 -0.007974 -1.230356
    32 1.209185 -0.000002 0.000000 0.000004 -0.004457 -0.855818
    33 3.859844 -0.148935 -1.331282 -0.088307 -0.015288 -0.402906
    34 1.719421 0.000004 0.000000 0.000003 -0.006609 -0.633605
    35 1.070313 -0.010963 0.004845 0.035923 -0.018257 -0.517705
    36 0.801270 -0.354736 -1.314453 0.977333 0.368301 -0.948497
    37 1.789783 0.000002 -0.000002 -0.236052 -0.174685 0.578274
    38 1.206999 0.000003 0.000002 0.000000 0.000000 0.557159
    39 -6.072199 -7.212612 -10.451146 1.565778 0.413859 -1.483880
    40 -5.938270 -9.836852 -10.473105 1.575616 0.406154 -1.485766
    41 -5.168823 -18.739547 -16.634740 1.575616 0.406154 -1.485766
    42 4.242188 -2.000000 0.140381 0.000000 0.000000 0.000000
    43 5.891673 0.198951 0.632648 1.563552 -1.555379 -3.126260
    44 30.703125 -0.012848 -0.337402 -1.570813 -0.018051 -0.000508
  time 18
    0 0.000000 -0.000006 0.000000 -1.570739 -1.391891 -1.570846
    1 2.033349 1.000767 1.937660 1.596637 -1.286515 2.942961
    2 15.469835 -14.047304 3.480575 -2.185449 -0.786217 -2.595663
    3 11.692551 0.000001 0.000002 0.000000 0.000000 -0.060372
    4 11.626208 -0.035156 -0.132844 1.685588 0.034765 0.259657
    5 3.859713 -0.142405 -1.191975 -0.498814 0.234766 -1.526885
    6 1.312551 -0.000002 0.000002 0.000000 0.000000 -0.121607
    7 0.729362 -0.000002 -0.000003 0.000000 0.000000 -0.169064
    8 3.942339 0.046767 -0.431443 -0.168757 0.216159 -1.074427
    9 1.539095 0.000000 0.000000 -0.000001 0.000002 -0.552012
    10 1.196321 -0.000006 0.000000 0.000000 0.000000 -0.430802
    11 3.883699 -0.046763 0.431443 0.040592 0.178391 -0.842882
    12 1.719566 0.000000 -0.000001 -0.000003 0.005515 -0.543056
    13 1.209171 -0.000002 0.000000 -0.000002 0.003082 -0.560820
    14 3.859869 -0.137947 1.332466 0.296339 0.100015 -0.696305
    15 1.719429 0.000004 -0.000001 -0.000003 0.004070 -0.608697
    16 1.099661 0.000002 -0.000001 -0.000005 0.002591 -0.504910
    17 0.806057 -0.348926 1.321258 -0.745476 -0.558297 -0.909057
    18 1.789782 -0.000002 0.000002 -0.001438 0.000791 -0.036217
    19 1.207006 0.000000 0.000002 0.000000 0.000000 0.237421
    20 2.033356 1.000772 -1.937610 -1.668474 1.286518 2.942953
    21 21.055947 -15.371563 17.352092 -0.375068 1.044469 -3.364709
    22 11.692557 0.000001 0.000005 0.000000 0.000000 -0.060372
    23 11.489514 0.007814 0.003907 -1.457665 0.481418 0.632735
    24 3.859680 -0.132568 1.193109 0.051232 -0.147172 -1.073647
    25 1.312561 -0.000006 0.000001 0.000000 -0.051833 -0.968097
    26 0.729362 0.000000 -0.000003 0.000000 0.000000 -0.244271
    27 3.942307 0.050327 0.431044 -0.044360 -0.131588 -1.035839
    28 1.539099 0.000002 0.000001 -0.000002 -0.000001 -0.873594
    29 1.196323 0.000008 0.000000 0.000002 0.000001 -1.170482
    30 3.883663 -0.050322 -0.431042 -0.080552 -0.178614 -0.792859
    31 1.719578 0.000004 0.000000 0.000000 -0.007974 -1.230356
    32 1.209185 -0.000002 0.000000 0.000004 -0.004457 -0.855818
    33 3.859844 -0.148935 -1.331282 -0.088307 -0.015288 -0.402906
    34 1.719421 0.000004 0.000000 0.000003 -0.006609 -0.633605
    35 1.070313 -0.010963 0.004845 0.035923 -0.018257 -0.517705
    36 0.801270 -0.354736 -1.314453 0.977333 0.368301 -0.948497
    37 1.789783 0.000002 -0.000002 -0.236052 -0.174685 0.578274
    38 1.206999 0.000003 0.000002 0.000000 0.000000 0.557159
    39 -6.052667 -7.216519 -10.603495 1.560874 0.413555 -1.492287
    40 -5.938270 -9.840758 -10.633266 1.570797 0.405975 -1.494316
    41 -5.254763 -18.751266 -16.787089 1.570797 0.405975 -1.494316
    42 4.242188 -2.000000 0.140381 0.000000 0.000000 0.000000
    43 5.891673 0.198951 0.632648 1.563552 -1.555379 -3.126260
    44 30.703125 -0.012848 -0.337402 -1.570813 -0.018051 -0.000508
  time 19
    0 0.000000 -0.000006 0.000000 -1.570739 -1.391891 -1.570846
    1 2.033349 1.000767 1.937660 1.596637 -1.286515 2.942961
    2 18.516803 -15.488754 -4.527482 -2.215713 -1.014524 -2.691218
    3 11.692551 0.000001 0.000002 0.000000 0.000000 -0.060372
    4 11.305886 -0.289070 -0.035185 1.837622 -0.346811 -0.126789
    5 3.855806 -0.142405 -1.191975 -0.498814 0.234778 -1.526885
    6 1.312551 -0.000002 0.000002 0.000000 0.000000 -0.121607
    7 0.729362 -0.000002 -0.000003 0.000000 0.000000 -0.169064
    8 3.942339 0.046767 -0.431443 -0.168757 0.216159 -1.074427
    9 1.539095 0.000000 0.000000 -0.000001 0.000002 -0.552012
    10 1.196321 -0.000006 0.000000 0.000000 0.000000 -0.430802
    11 3.883699 -0.046763 0.431443 0.040592 0.178391 -0.842882
    12 1.719566 0.000000 -0.000001 -0.000003 0.005515 -0.543056
    13 1.209171 -0.000002 0.000000 -0.000002 0.003082 -0.560820
    14 3.859869 -0.137947 1.332466 0.296339 0.100015 -0.696305
    15 1.719429 0.000004 -0.000001 -0.000003 0.004070 -0.608697
    16 1.099661 0.000002 -0.000001 -0.000005 0.002591 -0.504910
    17 0.806057 -0.348926 1.321258 -0.745476 -0.558297 -0.909057
    18 1.789782 -0.000002 0.000002 -0.001438 0.000815 -0.036217
    19 1.207006 0.000000 0.000002 0.000000 0.000000 0.237421
    20 2.033356 1.000772 -1.937610 -1.668474 1.286518 2.942953
    21 20.036384 -15.977050 17.848201 -0.771654 1.131051 -3.640608
    22 11.692557 0.000001 0.000005 0.000000 0.000000 -0.060372
    23 11.540296 0.144537 0.125005 -1.223452 -0.216985 0.849335
    24 3.859680 -0.132568 1.193109 0.051232 -0.147148 -1.073647
    25 1.312561 -0.000006 0.000001 0.000000 -0.051833 -0.968097
    26 0.729362 0.000000 -0.000003 0.000000 0.000000 -0.244271
    27 3.942307 0.050327 0.431044 -0.044372 -0.131588 -1.035827
    28 1.539099 0.000002 0.000001 -0.000002 -0.000001 -0.873594
    29 1.196323 0.000008 0.000000 0.000002 0.000001 -1.170482
    30 3.883663 -0.050322 -0.431042 -0.080552 -0.178614 -0.792859
    31 1.719578 0.000004 0.000000 0.000000 -0.007974 -1.230356
    32 1.209185 -0.000002 0.000000 0.000004 -0.004457 -0.855818
    33 3.859844 -0.148935 -1.331282 -0.088307 -0.015288 -0.402906
    34 1.719421 0.000004 0.000000 0.000003 -0.006609 -0.633605
    35 1.070313 -0.010963 0.004845 0.035923 -0.018257 -0.517705
    36 0.801270 -0.354736 -1.314453 0.977333 0.368301 -0.948497
    37 1.789783 0.000002 -0.000002 -0.236052 -0.174685 0.578274
    38 1.206999 0.000003 0.000002 0.000000 0.000000 0.557159
    39 -7.025353 -7.497777 -10.150356 2.010734 0.541097 -0.929958
    40 -5.938270 -9.840758 -10.633266 2.018516 0.535047 -0.935670
    41 -0.348363 -15.880085 -17.708992 2.018516 0.535047 -0.935670
    42 4.242188 -2.000000 0.140381 0.000000 0.000000 0.000000
    43 5.891673 0.198951 0.632648 1.563552 -1.555379 -3.126260
    44 30.703125 -0.012848 -0.337402 -1.570813 -0.018051 -0.000508
end
