// Created by Crowbar 0.58
version 1
nodes
  0 "Bip01" -1
  1 "Bip01 Pelvis" 0
  2 "Bip01 L Leg" 1
  3 "Bip01 L Leg1" 2
  4 "Bip01 L Foot" 3
  5 "Bip01 L Toe0" 4
  6 "Bip01 L Toe01" 5
  7 "Bip01 L Toe02" 6
  8 "Bip01 L Toe1" 4
  9 "Bip01 L Toe11" 8
  10 "Bip01 L Toe12" 9
  11 "Bip01 R Leg" 1
  12 "Bip01 R Leg1" 11
  13 "Bip01 R Foot" 12
  14 "Bip01 R Toe0" 13
  15 "Bip01 R Toe01" 14
  16 "Bip01 R Toe02" 15
  17 "Bip01 R Toe1" 13
  18 "Bip01 R Toe11" 17
  19 "Bip01 R Toe12" 18
  20 "Bip01 Spine" 1
  21 "Bip01 Neck" 20
  22 "Bone04" 21
  23 "Bone05" 22
  24 "Bone06" 23
  25 "Bone01" 21
  26 "Bone02" 25
  27 "Bone03" 26
  28 "Bone08" 27
end
skeleton
  time 0
    0 0.585528 6.073573 11.011787 0.023393 0.000000 -1.570934
    1 -0.027345 1.054720 0.000000 3.141489 -1.522306 -4.712346
    2 -0.000007 0.000008 5.704314 -3.021253 -0.033136 2.413223
    3 5.820531 0.000000 -0.000001 0.000000 0.000000 -0.970255
    4 5.877041 -0.000001 -0.000001 -0.083979 0.092575 0.472857
    5 0.508590 1.638791 -0.536845 0.000000 0.000000 1.570796
    6 0.169529 0.000000 0.000002 0.000000 0.000000 0.000000
    7 0.169530 0.000000 -0.000001 0.000000 0.000000 0.000000
    8 0.508590 1.638790 0.536846 0.000000 0.000000 1.570796
    9 0.180832 0.000000 0.000000 0.000000 0.000000 0.000000
    10 0.180832 0.000000 0.000000 0.000000 0.000000 0.000000
    11 0.000009 -0.000006 -5.704314 -3.171572 0.300692 3.072645
    12 5.820531 0.000000 0.000000 0.000000 0.000000 -0.464580
    13 5.877041 0.000002 0.000000 0.010076 0.326987 0.401962
    14 0.508590 1.638788 0.536845 0.000000 0.000000 1.570796
    15 0.169530 0.000000 0.000001 0.000000 0.000000 0.000000
    16 0.169530 0.000000 0.000000 0.000000 0.000000 0.000000
    17 0.508590 1.638790 -0.536845 0.000000 0.000000 1.570796
    18 0.180832 0.000000 0.000000 0.000000 0.000000 0.000000
    19 0.180832 0.000000 0.000000 0.000000 0.000000 0.000000
    20 0.403871 0.006248 -0.019531 0.039377 0.087777 2.205402
    21 13.047035 -0.000450 0.000000 0.000000 0.000000 0.000000
    22 -1.703965 0.198453 -4.655851 -0.749372 -1.482640 1.613754
    23 -0.974781 -2.069797 0.000000 -0.053080 -0.109684 -0.031112
    24 -0.446564 -7.063139 0.000000 0.305543 -0.250654 -0.418174
    25 -1.848851 0.220504 4.241694 2.879683 -1.511930 -2.012527
    26 0.000000 0.000000 0.000000 0.088168 0.283294 -0.000096
    27 0.953910 -2.089517 0.000000 0.265169 -0.129183 0.012082
    28 0.863062 -7.358736 0.000000 -0.806870 -0.299382 0.085992
  time 1
    0 0.562090 5.764801 11.046944 0.021763 0.000000 -1.570934
    1 -0.031251 0.972686 0.000000 3.141489 -1.526309 -4.712346
    2 -0.000007 0.000008 5.704314 -3.023986 -0.035648 2.441227
    3 5.820531 0.000000 -0.000001 0.000000 0.000000 -0.867805
    4 5.877041 -0.000001 -0.000001 -0.084290 0.080880 0.395937
    5 0.508590 1.638791 -0.536845 0.000000 0.000000 1.570796
    6 0.169529 0.000000 0.000002 0.000000 0.000000 0.000000
    7 0.169530 0.000000 -0.000001 0.000000 0.000000 0.000000
    8 0.508590 1.638790 0.536846 0.000000 0.000000 1.570796
    9 0.180832 0.000000 0.000000 0.000000 0.000000 0.000000
    10 0.180832 0.000000 0.000000 0.000000 0.000000 0.000000
    11 0.000009 -0.000006 -5.704314 -3.157287 0.293777 3.117545
    12 5.820531 0.000000 0.000000 0.000000 0.000000 -0.434161
    13 5.877041 0.000002 0.000000 0.009198 0.316578 0.413935
    14 0.508590 1.638788 0.536845 0.000000 0.000000 1.570796
    15 0.169530 0.000000 0.000001 0.000000 0.000000 0.000000
    16 0.169530 0.000000 0.000000 0.000000 0.000000 0.000000
    17 0.508590 1.638790 -0.536845 0.000000 0.000000 1.570796
    18 0.180832 0.000000 0.000000 0.000000 0.000000 0.000000
    19 0.180832 0.000000 0.000000 0.000000 0.000000 0.000000
    20 0.403871 0.006248 -0.011718 0.036094 0.080491 2.205011
    21 13.047035 -0.000450 0.000000 0.000000 0.000000 0.000000
    22 -1.703965 0.198453 -4.655851 -0.705652 -1.482846 1.571255
    23 -0.974781 -2.069797 0.000000 -0.076359 -0.096993 -0.034869
    24 -0.446564 -7.063139 0.000000 0.344494 -0.245259 -0.432466
    25 -1.848851 0.220504 4.241694 2.861191 -1.529319 -1.989999
    26 0.000000 0.000000 0.000000 0.070977 0.245595 0.008593
    27 0.953910 -2.089517 0.000000 0.246765 -0.109589 -0.008345
    28 0.863062 -7.358736 0.000000 -0.688800 -0.287683 0.038248
  time 2
    0 0.519120 5.444311 11.121165 0.019750 0.000000 -1.570934
    1 -0.039064 0.843776 0.000000 3.141489 -1.532206 -4.712346
    2 -0.000007 0.000008 5.704314 -3.026620 -0.054269 2.483827
    3 5.820531 0.000000 -0.000001 0.000000 0.000000 -0.837338
    4 5.877041 -0.000001 -0.000001 -0.073479 0.023181 0.352100
    5 0.508590 1.638791 -0.536845 0.000000 0.000000 1.570796
    6 0.169529 0.000000 0.000002 0.000000 0.000000 0.000000
    7 0.169530 0.000000 -0.000001 0.000000 0.000000 0.000000
    8 0.508590 1.638790 0.536846 0.000000 0.000000 1.570796
    9 0.180832 0.000000 0.000000 0.000000 0.000000 0.000000
    10 0.180832 0.000000 0.000000 0.000000 0.000000 0.000000
    11 0.000009 -0.000006 -5.704314 -3.172079 0.274374 3.136651
    12 5.820531 0.000000 0.000000 0.000000 0.000000 -0.455186
    13 5.877041 0.000002 0.000000 0.025780 0.192681 0.442338
    14 0.508590 1.638788 0.536845 0.000000 0.000000 1.570796
    15 0.169530 0.000000 0.000001 0.000000 0.000000 0.002876
    16 0.169530 0.000000 0.000000 0.000000 0.000000 0.002876
    17 0.508590 1.638790 -0.536845 0.000000 0.000000 1.570796
    18 0.180832 0.000000 0.000000 0.000000 0.000000 0.002876
    19 0.180832 0.000000 0.000000 0.000000 0.000000 0.002876
    20 0.403871 0.006248 -0.007812 0.031300 0.069776 2.204659
    21 13.047035 -0.000450 0.000000 0.000000 0.000000 0.000000
    22 -1.703965 0.198453 -4.655851 -0.643045 -1.483206 1.511240
    23 -0.974781 -2.069797 0.000000 -0.109361 -0.078181 -0.040889
    24 -0.446564 -7.063139 0.000000 0.397570 -0.236259 -0.450160
    25 -1.848851 0.220504 4.241694 2.794598 -1.551626 -1.916879
    26 0.000000 0.000000 0.000000 0.045511 0.191294 0.018996
    27 0.953910 -2.089517 0.000000 0.179600 -0.088092 -0.032041
    28 0.863062 -7.358736 0.000000 -0.460973 -0.244892 -0.046179
  time 3
    0 0.456618 5.119914 11.211012 0.016970 0.000000 -1.570934
    1 -0.050783 0.683615 0.000000 3.141489 -1.539504 -4.712346
    2 -0.000007 0.000008 5.704314 -3.030963 -0.076338 2.534353
    3 5.820531 0.000000 -0.000001 0.000000 0.000000 -0.793837
    4 5.877041 -0.000001 -0.000001 -0.060665 -0.031219 0.310562
    5 0.508590 1.638791 -0.536845 0.000000 0.000000 1.570796
    6 0.169529 0.000000 0.000002 0.000000 0.000000 0.000000
    7 0.169530 0.000000 -0.000001 0.000000 0.000000 0.000000
    8 0.508590 1.638790 0.536846 0.000000 0.000000 1.570796
    9 0.180832 0.000000 0.000000 0.000000 0.000000 0.000000
    10 0.180832 0.000000 0.000000 0.000000 0.000000 0.000000
    11 0.000009 -0.000006 -5.704314 -3.193079 0.248379 3.159460
    12 5.820531 0.000000 0.000000 0.000000 0.000000 -0.469245
    13 5.877041 0.000002 0.000000 0.048786 0.055533 0.462666
    14 0.508590 1.638788 0.536845 0.000000 0.000000 1.570796
    15 0.169530 0.000000 0.000001 0.000000 0.000000 0.006184
    16 0.169530 0.000000 0.000000 0.000000 0.000000 0.006184
    17 0.508590 1.638790 -0.536845 0.000000 0.000000 1.570796
    18 0.180832 0.000000 0.000000 0.000000 0.000000 0.006184
    19 0.180832 0.000000 0.000000 0.000000 0.000000 0.006184
    20 0.403871 0.006248 -0.007812 0.025283 0.056581 2.204346
    21 13.047035 -0.000450 0.000000 0.000000 0.000000 0.000000
    22 -1.703965 0.198453 -4.655851 -0.569124 -1.483309 1.441175
    23 -0.974781 -2.069797 0.000000 -0.148686 -0.054583 -0.049317
    24 -0.446564 -7.063139 0.000000 0.458878 -0.224899 -0.469363
    25 -1.848851 0.220504 4.241694 2.564254 -1.564521 -1.681291
    26 0.000000 0.000000 0.000000 0.027107 0.153488 0.023981
    27 0.953910 -2.089517 0.000000 0.128180 -0.072587 -0.048980
    28 0.863062 -7.358736 0.000000 -0.292988 -0.197969 -0.099652
  time 4
    0 0.382397 4.791611 11.300858 0.013998 0.000000 -1.570934
    1 -0.058596 0.503922 0.000000 3.141489 -1.547810 -4.712346
    2 -0.000007 0.000008 5.704314 -3.035733 -0.100230 2.588710
    3 5.820531 0.000000 -0.000001 0.000000 0.000000 -0.743202
    4 5.877041 -0.000001 -0.000001 -0.047676 -0.082515 0.272143
    5 0.508590 1.638791 -0.536845 0.000000 0.000000 1.570796
    6 0.169529 0.000000 0.000002 0.000000 0.000000 0.000000
    7 0.169530 0.000000 -0.000001 0.000000 0.000000 0.000000
    8 0.508590 1.638790 0.536846 0.000000 0.000000 1.570796
    9 0.180832 0.000000 0.000000 0.000000 0.000000 0.000000
    10 0.180832 0.000000 0.000000 0.000000 0.000000 0.000000
    11 0.000009 -0.000006 -5.704314 -3.210072 0.231672 3.111972
    12 5.820531 0.000000 0.000000 0.000000 0.000000 -0.611945
    13 5.877041 0.000002 0.000000 0.020484 0.054731 0.420062
    14 0.508590 1.638788 0.536845 0.000000 0.000000 1.570796
    15 0.169530 0.000000 0.000001 0.000000 0.000000 0.022699
    16 0.169530 0.000000 0.000000 0.000000 0.000000 0.022699
    17 0.508590 1.638790 -0.536845 0.000000 0.000000 1.570796
    18 0.180832 0.000000 0.000000 0.000000 0.000000 0.022699
    19 0.180832 0.000000 0.000000 0.000000 0.000000 0.022699
    20 0.403871 0.006248 -0.007812 0.018584 0.041684 2.204228
    21 13.047035 -0.000450 0.000000 0.000000 0.000000 0.000000
    22 -1.703965 0.198453 -4.655851 -0.492135 -1.482846 1.369195
    23 -0.974781 -2.069797 0.000000 -0.191292 -0.027383 -0.060635
    24 -0.446564 -7.063139 0.000000 0.522742 -0.212579 -0.488358
    25 -1.848851 0.220504 4.241694 2.416504 -1.567233 -1.529896
    26 0.000000 0.000000 0.000000 0.017263 0.134692 0.021992
    27 0.953910 -2.089517 0.000000 0.098087 -0.062486 -0.057294
    28 0.863062 -7.358736 0.000000 -0.194262 -0.162179 -0.124187
  time 5
    0 0.304270 4.467214 11.371173 0.010738 0.000000 -1.570934
    1 -0.062502 0.304697 0.000000 3.141489 -1.556606 -4.712346
    2 -0.000007 0.000008 5.704314 -3.041100 -0.124836 2.646568
    3 5.820531 0.000000 -0.000001 0.000000 0.000000 -0.686237
    4 5.877041 -0.000001 -0.000001 -0.035193 -0.130918 0.235448
    5 0.508590 1.638791 -0.536845 0.000000 0.000000 1.570796
    6 0.169529 0.000000 0.000002 0.000000 0.000000 0.000000
    7 0.169530 0.000000 -0.000001 0.000000 0.000000 0.000000
    8 0.508590 1.638790 0.536846 0.000000 0.000000 1.570796
    9 0.180832 0.000000 0.000000 0.000000 0.000000 0.000000
    10 0.180832 0.000000 0.000000 0.000000 0.000000 0.000000
    11 0.000009 -0.000006 -5.704314 -3.216470 0.213180 3.093185
    12 5.820531 0.000000 0.000000 0.000000 0.000000 -0.697769
    13 5.877041 0.000002 0.000000 0.000480 0.045525 0.371702
    14 0.508590 1.638788 0.536845 0.000000 0.000000 1.570796
    15 0.169530 0.000000 0.000001 0.000000 0.000000 0.056100
    16 0.169530 0.000000 0.000000 0.000000 0.000000 0.056100
    17 0.508590 1.638790 -0.536845 0.000000 0.000000 1.570796
    18 0.180832 0.000000 0.000000 0.000000 0.000000 0.056100
    19 0.180832 0.000000 0.000000 0.000000 0.000000 0.056100
    20 0.403871 0.006248 0.000001 0.011477 0.025697 2.204346
    21 13.047035 -0.000450 0.000000 0.000000 0.000000 0.000000
    22 -1.703965 0.198453 -4.655851 -0.420803 -1.481712 1.304490
    23 -0.974781 -2.069797 0.000000 -0.234175 0.002085 -0.074795
    24 -0.446564 -7.063139 0.000000 0.583530 -0.201167 -0.506082
    25 -1.848851 0.220504 4.241694 2.210785 -1.568828 -1.320559
    26 0.000000 0.000000 0.000000 0.008061 0.117394 0.019283
    27 0.953910 -2.089517 0.000000 0.072137 -0.052082 -0.065390
    28 0.863062 -7.358736 0.000000 -0.106724 -0.128090 -0.141189
  time 6
    0 0.214423 4.142817 11.433675 0.007382 0.000000 -1.570934
    1 -0.062502 0.105472 0.000000 3.141585 -1.565619 1.570660
    2 -0.000007 0.000008 5.704314 -3.047920 -0.149417 2.708850
    3 5.820531 0.000000 -0.000001 0.000000 0.000000 -0.620691
    4 5.877041 -0.000001 -0.000001 -0.023176 -0.176674 0.197604
    5 0.508590 1.638791 -0.536845 0.000000 0.000000 1.570796
    6 0.169529 0.000000 0.000002 0.000000 0.000000 0.000000
    7 0.169530 0.000000 -0.000001 0.000000 0.000000 0.000000
    8 0.508590 1.638790 0.536846 0.000000 0.000000 1.570796
    9 0.180832 0.000000 0.000000 0.000000 0.000000 0.000000
    10 0.180832 0.000000 0.000000 0.000000 0.000000 0.000000
    11 0.000009 -0.000006 -5.704314 -3.216264 0.193981 3.089125
    12 5.820531 0.000000 0.000000 0.000000 0.000000 -0.754708
    13 5.877041 0.000002 0.000000 -0.012917 0.031001 0.325942
    14 0.508590 1.638788 0.536845 0.000000 0.000000 1.570796
    15 0.169530 0.000000 0.000001 0.000000 0.000000 0.090280
    16 0.169530 0.000000 0.000000 0.000000 0.000000 0.090280
    17 0.508590 1.638790 -0.536845 0.000000 0.000000 1.570796
    18 0.180832 0.000000 0.000000 0.000000 0.000000 0.090280
    19 0.180832 0.000000 0.000000 0.000000 0.000000 0.090280
    20 0.403871 0.006248 0.000001 0.004191 0.009278 2.204620
    21 13.047035 -0.000450 0.000000 0.000000 0.000000 0.000000
    22 -1.703965 0.198453 -4.655851 -0.363756 -1.480038 1.255674
    23 -0.974781 -2.069797 0.000000 -0.274291 0.032687 -0.091555
    24 -0.446564 -7.063139 0.000000 0.635999 -0.193048 -0.521557
    25 -1.848851 0.220504 4.241694 2.313309 -1.569307 -1.420121
    26 0.000000 0.000000 0.000000 0.000000 0.102700 0.015796
    27 0.953910 -2.089517 0.000000 0.051246 -0.041394 -0.072458
    28 0.863062 -7.358736 0.000000 -0.030847 -0.097471 -0.150764
  time 7
    0 0.128483 3.814513 11.492270 0.004027 0.000000 -1.570934
    1 -0.058596 -0.082034 0.000000 0.000000 -1.566901 -1.570795
    2 -0.000007 0.000008 5.704314 -3.056264 -0.172644 2.769548
    3 5.820531 0.000000 -0.000001 0.000000 0.000000 -0.560616
    4 5.877041 -0.000001 -0.000001 -0.017576 -0.199694 0.197932
    5 0.508590 1.638791 -0.536845 0.000000 0.000000 1.570796
    6 0.169529 0.000000 0.000002 0.000000 0.000000 0.000000
    7 0.169530 0.000000 -0.000001 0.000000 0.000000 0.000000
    8 0.508590 1.638790 0.536846 0.000000 0.000000 1.570796
    9 0.180832 0.000000 0.000000 0.000000 0.000000 0.000000
    10 0.180832 0.000000 0.000000 0.000000 0.000000 0.000000
    11 0.000009 -0.000006 -5.704314 -3.212574 0.174770 3.092627
    12 5.820531 0.000000 0.000000 0.000000 0.000000 -0.796566
    13 5.877041 0.000002 0.000000 -0.021595 0.014019 0.280924
    14 0.508590 1.638788 0.536845 0.000000 0.000000 1.570796
    15 0.169530 0.000000 0.000001 0.000000 0.000000 0.118779
    16 0.169530 0.000000 0.000000 0.000000 0.000000 0.118779
    17 0.508590 1.638790 -0.536845 0.000000 0.000000 1.570796
    18 0.180832 0.000000 0.000000 0.000000 0.000000 0.118779
    19 0.180832 0.000000 0.000000 0.000000 0.000000 0.118779
    20 0.403871 0.006248 0.000001 -0.003192 -0.007093 2.205324
    21 13.047035 -0.000450 0.000000 0.000000 0.000000 0.000000
    22 -1.703965 0.198453 -4.655851 -0.328473 -1.478002 1.230021
    23 -0.974781 -2.069797 0.000000 -0.308479 0.063489 -0.110434
    24 -0.446564 -7.063139 0.000000 0.674647 -0.190558 -0.534280
    25 -1.848851 0.220504 4.241694 2.611683 -1.569626 -1.715560
    26 0.000000 0.000000 0.000000 -0.007062 0.089896 0.012080
    27 0.953910 -2.089517 0.000000 0.034934 -0.029796 -0.078343
    28 0.863062 -7.358736 0.000000 0.039278 -0.070384 -0.154557
  time 8
    0 0.042543 3.494023 11.527428 0.000863 0.000000 -1.570934
    1 -0.050783 -0.273446 0.000000 0.000000 -1.558008 -1.570795
    2 -0.000007 0.000008 5.704314 -3.067071 -0.194959 2.835001
    3 5.820531 0.000000 -0.000001 0.000000 0.000000 -0.490671
    4 5.877041 -0.000001 -0.000001 -0.012968 -0.221884 0.193089
    5 0.508590 1.638791 -0.536845 0.000000 0.000000 1.570796
    6 0.169529 0.000000 0.000002 0.000000 0.000000 0.000000
    7 0.169530 0.000000 -0.000001 0.000000 0.000000 0.000000
    8 0.508590 1.638790 0.536846 0.000000 0.000000 1.570796
    9 0.180832 0.000000 0.000000 0.000000 0.000000 0.000000
    10 0.180832 0.000000 0.000000 0.000000 0.000000 0.000000
    11 0.000009 -0.000006 -5.704314 -3.207570 0.156014 3.097683
    12 5.820531 0.000000 0.000000 0.000000 0.000000 -0.833695
    13 5.877041 0.000002 0.000000 -0.027284 -0.002876 0.232565
    14 0.508590 1.638788 0.536845 0.000000 0.000000 1.570796
    15 0.169530 0.000000 0.000001 0.000000 0.000000 0.139189
    16 0.169530 0.000000 0.000000 0.000000 0.000000 0.139177
    17 0.508590 1.638790 -0.536845 0.000000 0.000000 1.570796
    18 0.180832 0.000000 0.000000 0.000000 0.000000 0.139189
    19 0.180832 0.000000 0.000000 0.000000 0.000000 0.139177
    20 0.403871 0.006248 0.000001 -0.010299 -0.022984 2.206263
    21 13.047035 -0.000450 0.000000 0.000000 0.000000 0.000000
    22 -1.703965 0.198453 -4.655851 -0.320899 -1.475838 1.234424
    23 -0.974781 -2.069797 0.000000 -0.333576 0.093491 -0.130758
    24 -0.446564 -7.063139 0.000000 0.694361 -0.196187 -0.543571
    25 -1.848851 0.220504 4.241694 2.974255 -1.569334 -2.075528
    26 0.000000 0.000000 0.000000 -0.014338 0.077698 0.008185
    27 0.953910 -2.089517 0.000000 0.019670 -0.017792 -0.084166
    28 0.863062 -7.358736 0.000000 0.106724 -0.045283 -0.154557
  time 9
    0 -0.039491 3.177439 11.550866 -0.002013 0.000000 -1.570934
    1 -0.042970 -0.460952 0.000000 0.000000 -1.549703 -1.570795
    2 -0.000007 0.000008 5.704314 -3.079856 -0.215748 2.902237
    3 5.820531 0.000000 -0.000001 0.000000 0.000000 -0.416864
    4 5.877041 -0.000001 -0.000001 -0.009565 -0.243087 0.185536
    5 0.508590 1.638791 -0.536845 0.000000 0.000000 1.570796
    6 0.169529 0.000000 0.000002 0.000000 0.000000 0.000000
    7 0.169530 0.000000 -0.000001 0.000000 0.000000 0.000000
    8 0.508590 1.638790 0.536846 0.000000 0.000000 1.570796
    9 0.180832 0.000000 0.000000 0.000000 0.000000 0.000000
    10 0.180832 0.000000 0.000000 0.000000 0.000000 0.000000
    11 0.000009 -0.000006 -5.704314 -3.202771 0.138097 3.097324
    12 5.820531 0.000000 0.000000 0.000000 0.000000 -0.877853
    13 5.877041 0.000002 0.000000 -0.031191 -0.017888 0.177244
    14 0.508590 1.638788 0.536845 0.000000 0.000000 1.570796
    15 0.169530 0.000000 0.000001 0.000000 0.000000 0.147578
    16 0.169530 0.000000 0.000000 0.000000 0.000000 0.147578
    17 0.508590 1.638790 -0.536845 0.000000 0.000000 1.570796
    18 0.180832 0.000000 0.000000 0.000000 0.000000 0.147578
    19 0.180832 0.000000 0.000000 0.000000 0.000000 0.147578
    20 0.403871 0.006248 0.007814 -0.017082 -0.038193 2.207320
    21 13.047035 -0.000450 0.000000 0.000000 0.000000 0.000000
    22 -1.703965 0.198453 -4.655851 -0.346115 -1.473443 1.273669
    23 -0.974781 -2.069797 0.000000 -0.346263 0.122091 -0.151323
    24 -0.446564 -7.063139 0.000000 0.689768 -0.212268 -0.548660
    25 -1.848851 0.220504 4.241694 -3.139730 -1.568536 4.041162
    26 0.000000 0.000000 0.000000 -0.021614 0.065375 0.003991
    27 0.953910 -2.089517 0.000000 0.003097 -0.005769 -0.090362
    28 0.863062 -7.358736 0.000000 0.174682 -0.021096 -0.151984
  time 10
    0 -0.113712 2.864761 11.461020 -0.004890 0.000000 -1.570934
    1 -0.031251 -0.625019 0.000000 0.000000 -1.541901 -1.570795
    2 -0.000007 0.000008 5.704314 -3.085053 -0.234097 2.931892
    3 5.820531 0.000000 -0.000001 0.000000 0.000000 -0.415415
    4 5.877041 -0.000001 -0.000001 -0.007368 -0.264590 0.213447
    5 0.508590 1.638791 -0.536845 0.000000 0.000000 1.570796
    6 0.169529 0.000000 0.000002 0.000000 0.000000 0.000000
    7 0.169530 0.000000 -0.000001 0.000000 0.000000 0.000000
    8 0.508590 1.638790 0.536846 0.000000 0.000000 1.570796
    9 0.180832 0.000000 0.000000 0.000000 0.000000 0.000000
    10 0.180832 0.000000 0.000000 0.000000 0.000000 0.000000
    11 0.000009 -0.000006 -5.704314 -3.211688 0.130498 3.028223
    12 5.820531 0.000000 0.000000 0.000000 0.000000 -0.919583
    13 5.877041 0.000002 0.000000 -0.020992 -0.020085 0.192652
    14 0.508590 1.638788 0.536845 0.000000 0.000000 1.570796
    15 0.169530 0.000000 0.000001 0.000000 0.000000 0.138386
    16 0.169530 0.000000 0.000000 0.000000 0.000000 0.138386
    17 0.508590 1.638790 -0.536845 0.000000 0.000000 1.570796
    18 0.180832 0.000000 0.000000 0.000000 0.000000 0.138386
    19 0.180832 0.000000 0.000000 0.000000 0.000000 0.138386
    20 0.403871 0.006248 0.007814 -0.023278 -0.052083 2.208650
    21 13.047035 -0.000450 0.000000 0.000000 0.000000 0.000000
    22 -1.703965 0.198453 -4.655851 -0.408147 -1.470429 1.351870
    23 -0.974781 -2.069797 0.000000 -0.343575 0.149391 -0.171358
    24 -0.446564 -7.063139 0.000000 0.655193 -0.241057 -0.547654
    25 -1.848851 0.220504 4.241694 -3.049950 -1.567845 3.953915
    26 0.000000 0.000000 0.000000 -0.029247 0.053392 0.000000
    27 0.953910 -2.089517 0.000000 -0.014829 0.006275 -0.096154
    28 0.863062 -7.358736 0.000000 0.240552 0.000694 -0.146096
  time 11
    0 -0.176214 2.559896 11.367267 -0.007382 0.000000 -1.570934
    1 -0.019532 -0.781274 0.000000 0.000000 -1.535118 -1.570795
    2 -0.000007 0.000008 5.704314 -3.090321 -0.250625 2.961151
    3 5.820531 0.000000 -0.000001 0.000000 0.000000 -0.413860
    4 5.877041 -0.000001 -0.000001 -0.006162 -0.283993 0.240866
    5 0.508590 1.638791 -0.536845 0.000000 0.000000 1.570796
    6 0.169529 0.000000 0.000002 0.000000 0.000000 0.000000
    7 0.169530 0.000000 -0.000001 0.000000 0.000000 0.000000
    8 0.508590 1.638790 0.536846 0.000000 0.000000 1.570796
    9 0.180832 0.000000 0.000000 0.000000 0.000000 0.000000
    10 0.180832 0.000000 0.000000 0.000000 0.000000 0.000000
    11 0.000009 -0.000006 -5.704314 -3.224167 0.125297 2.933926
    12 5.820531 0.000000 0.000000 0.000000 0.000000 -0.953964
    13 5.877041 0.000002 0.000000 -0.006310 -0.020172 0.234236
    14 0.508590 1.638788 0.536845 0.000000 0.000000 1.570796
    15 0.169530 0.000000 0.000001 0.000000 0.000000 0.113985
    16 0.169530 0.000000 0.000000 0.000000 0.000000 0.113985
    17 0.508590 1.638790 -0.536845 0.000000 0.000000 1.570796
    18 0.180832 0.000000 0.000000 0.000000 0.000000 0.113985
    19 0.180832 0.000000 0.000000 0.000000 0.000000 0.113985
    20 0.403871 0.006248 0.007814 -0.028899 -0.064487 2.209863
    21 13.047035 -0.000450 0.000000 0.000000 0.000000 0.000000
    22 -1.703965 0.198453 -4.655851 -0.502489 -1.466126 1.465774
    23 -0.974781 -2.069797 0.000000 -0.326580 0.178693 -0.192164
    24 -0.446564 -7.063139 0.000000 0.588599 -0.283179 -0.539754
    25 -1.848851 0.220504 4.241694 -2.978662 -1.567340 3.885090
    26 0.000000 0.000000 0.000000 -0.037022 0.041783 -0.003883
    27 0.953910 -2.089517 0.000000 -0.034062 0.018481 -0.101479
    28 0.863062 -7.358736 0.000000 0.304571 0.019898 -0.136998
  time 12
    0 -0.223090 2.262844 11.277420 -0.009492 0.000000 -1.570934
    1 -0.007813 -0.906278 0.000000 0.000000 -1.529305 -1.570795
    2 -0.000007 0.000008 5.704314 -3.095945 -0.264590 2.990278
    3 5.820531 0.000000 -0.000001 0.000000 0.000000 -0.411500
    4 5.877041 -0.000001 -0.000001 -0.005968 -0.300292 0.267218
    5 0.508590 1.638791 -0.536845 0.000000 0.000000 1.570796
    6 0.169529 0.000000 0.000002 0.000000 0.000000 0.000000
    7 0.169530 0.000000 -0.000001 0.000000 0.000000 0.000000
    8 0.508590 1.638790 0.536846 0.000000 0.000000 1.570796
    9 0.180832 0.000000 0.000000 0.000000 0.000000 0.000000
    10 0.180832 0.000000 0.000000 0.000000 0.000000 0.000000
    11 0.000009 -0.000006 -5.704314 -3.238674 0.120204 2.825896
    12 5.820531 0.000000 0.000000 0.000000 0.000000 -0.981698
    13 5.877041 0.000002 0.000000 0.010889 -0.020887 0.290763
    14 0.508590 1.638788 0.536845 0.000000 0.000000 1.570796
    15 0.169530 0.000000 0.000001 0.000000 0.000000 0.079985
    16 0.169530 0.000000 0.000000 0.000000 0.000000 0.079985
    17 0.508590 1.638790 -0.536845 0.000000 0.000000 1.570796
    18 0.180832 0.000000 0.000000 0.000000 0.000000 0.079985
    19 0.180832 0.000000 0.000000 0.000000 0.000000 0.079985
    20 0.403871 0.006248 0.011720 -0.033489 -0.074890 2.211076
    21 13.047035 -0.000450 0.000000 0.000000 0.000000 0.000000
    22 -1.703965 0.198453 -4.655851 -0.614569 -1.459531 1.600832
    23 -0.974781 -2.069797 0.000000 -0.297966 0.210379 -0.213114
    24 -0.446564 -7.063139 0.000000 0.493843 -0.335260 -0.522474
    25 -1.848851 0.220504 4.241694 -2.874317 -1.567127 3.782951
    26 0.000000 0.000000 0.000000 -0.044726 0.031297 -0.007478
    27 0.953910 -2.089517 0.000000 -0.051944 0.030686 -0.105994
    28 0.863062 -7.358736 0.000000 0.366580 0.035570 -0.124850
  time 13
    0 -0.262154 1.981417 11.199293 -0.011025 0.000000 -1.570934
    1 0.000000 -1.003937 0.000000 0.000000 -1.524811 -1.570795
    2 -0.000007 0.000008 5.704314 -3.101740 -0.275403 3.018744
    3 5.820531 0.000000 -0.000001 0.000000 0.000000 -0.408550
    4 5.877041 -0.000001 -0.000001 -0.006590 -0.312992 0.292502
    5 0.508590 1.638791 -0.536845 0.000000 0.000000 1.570796
    6 0.169529 0.000000 0.000002 0.000000 0.000000 0.000000
    7 0.169530 0.000000 -0.000001 0.000000 0.000000 0.000000
    8 0.508590 1.638790 0.536846 0.000000 0.000000 1.570796
    9 0.180832 0.000000 0.000000 0.000000 0.000000 0.000000
    10 0.180832 0.000000 0.000000 0.000000 0.000000 0.000000
    11 0.000009 -0.000006 -5.704314 -3.253466 0.113600 2.712850
    12 5.820531 0.000000 0.000000 0.000000 0.000000 -1.002595
    13 5.877041 0.000002 0.000000 0.029280 -0.023799 0.353974
    14 0.508590 1.638788 0.536845 0.000000 0.000000 1.570796
    15 0.169530 0.000000 0.000001 0.000000 0.000000 0.043384
    16 0.169530 0.000000 0.000000 0.000000 0.000000 0.043384
    17 0.508590 1.638790 -0.536845 0.000000 0.000000 1.570796
    18 0.180832 0.000000 0.000000 0.000000 0.000000 0.043384
    19 0.180832 0.000000 0.000000 0.000000 0.000000 0.043384
    20 0.403871 0.006248 0.011720 -0.037180 -0.082979 2.212015
    21 13.047035 -0.000450 0.000000 0.000000 0.000000 0.000000
    22 -1.703965 0.198453 -4.655851 -0.729621 -1.450231 1.741058
    23 -0.974781 -2.069797 0.000000 -0.260577 0.244483 -0.233679
    24 -0.446564 -7.063139 0.000000 0.375170 -0.393151 -0.493093
    25 -1.848851 0.220504 4.241694 -2.711429 -1.567233 3.622106
    26 0.000000 0.000000 0.000000 -0.052216 0.022095 -0.010582
    27 0.953910 -2.089517 0.000000 -0.069869 0.043196 -0.109170
    28 0.863062 -7.358736 0.000000 0.429377 0.047774 -0.110076
  time 14
    0 -0.281686 1.719522 11.128978 -0.012176 0.000000 -1.570934
    1 0.007813 -1.066439 0.000000 0.000000 -1.521923 -1.570795
    2 -0.000007 0.000008 5.704314 -3.107022 -0.282669 3.045758
    3 5.820531 0.000000 -0.000001 0.000000 0.000000 -0.406136
    4 5.877041 -0.000001 -0.000001 -0.008165 -0.321389 0.316637
    5 0.508590 1.638791 -0.536845 0.000000 0.000000 1.570796
    6 0.169529 0.000000 0.000002 0.000000 0.000000 0.000000
    7 0.169530 0.000000 -0.000001 0.000000 0.000000 0.000000
    8 0.508590 1.638790 0.536846 0.000000 0.000000 1.570796
    9 0.180832 0.000000 0.000000 0.000000 0.000000 0.000000
    10 0.180832 0.000000 0.000000 0.000000 0.000000 0.000000
    11 0.000009 -0.000006 -5.704314 -3.266674 0.105199 2.606014
    12 5.820531 0.000000 0.000000 0.000000 0.000000 -1.014673
    13 5.877041 0.000002 0.000000 0.046899 -0.029291 0.414028
    14 0.508590 1.638788 0.536845 0.000000 0.000000 1.570796
    15 0.169530 0.000000 0.000001 0.000000 0.000000 0.012979
    16 0.169530 0.000000 0.000000 0.000000 0.000000 0.012979
    17 0.508590 1.638790 -0.536845 0.000000 0.000000 1.570796
    18 0.180832 0.000000 0.000000 0.000000 0.000000 0.012979
    19 0.180832 0.000000 0.000000 0.000000 0.000000 0.012979
    20 0.403871 0.006248 0.019533 -0.039577 -0.088193 2.212719
    21 13.047035 -0.000450 0.000000 0.000000 0.000000 0.000000
    22 -1.703965 0.198453 -4.655851 -0.835757 -1.438123 1.874202
    23 -0.974781 -2.069797 0.000000 -0.217061 0.280388 -0.253136
    24 -0.446564 -7.063139 0.000000 0.235960 -0.452262 -0.449450
    25 -1.848851 0.220504 4.241694 -2.396478 -1.567632 3.309103
    26 0.000000 0.000000 0.000000 -0.059207 0.014569 -0.013183
    27 0.953910 -2.089517 0.000000 -0.090498 0.056292 -0.111038
    28 0.863062 -7.358736 0.000000 0.497493 0.056572 -0.092384
  time 15
    0 -0.285592 1.461533 11.082102 -0.012464 0.000000 -1.570934
    1 0.007813 -1.089877 0.000000 0.000000 -1.520808 -1.570795
    2 -0.000007 0.000008 5.704314 -3.110767 -0.285625 3.070129
    3 5.820531 0.000000 -0.000001 0.000000 0.000000 -0.405117
    4 5.877041 -0.000001 -0.000001 -0.011276 -0.324582 0.340197
    5 0.508590 1.638791 -0.536845 0.000000 0.000000 1.570796
    6 0.169529 0.000000 0.000002 0.000000 0.000000 0.000000
    7 0.169530 0.000000 -0.000001 0.000000 0.000000 0.000000
    8 0.508590 1.638790 0.536846 0.000000 0.000000 1.570796
    9 0.180832 0.000000 0.000000 0.000000 0.000000 0.000000
    10 0.180832 0.000000 0.000000 0.000000 0.000000 0.000000
    11 0.000009 -0.000006 -5.704314 -3.274973 0.095096 2.524932
    12 5.820531 0.000000 0.000000 0.000000 0.000000 -1.014482
    13 5.877041 0.000002 0.000000 0.060584 -0.036492 0.455055
    14 0.508590 1.638788 0.536845 0.000000 0.000000 1.570796
    15 0.169530 0.000000 0.000001 0.000000 0.000000 0.000000
    16 0.169530 0.000000 0.000000 0.000000 0.000000 0.000000
    17 0.508590 1.638790 -0.536845 0.000000 0.000000 1.570796
    18 0.180832 0.000000 0.000000 0.000000 0.000000 0.000000
    19 0.180832 0.000000 0.000000 0.000000 0.000000 0.000000
    20 0.403871 0.006248 0.019533 -0.040380 -0.090086 2.213032
    21 13.047035 -0.000450 0.000000 0.000000 0.000000 0.000000
    22 -1.703965 0.198453 -4.655851 -0.925785 -1.423645 1.992509
    23 -0.974781 -2.069797 0.000000 -0.169989 0.317878 -0.271293
    24 -0.446564 -7.063139 0.000000 0.080545 -0.507689 -0.390983
    25 -1.848851 0.220504 4.241694 -1.974404 -1.567632 2.888806
    26 0.000000 0.000000 0.000000 -0.063273 0.010700 -0.015796
    27 0.953910 -2.089517 0.000000 -0.113482 0.071089 -0.110664
    28 0.863062 -7.358736 0.000000 0.574079 0.060387 -0.072889
  time 16
    0 -0.281686 1.215264 11.109446 -0.012176 0.000000 -1.570934
    1 0.007813 -1.066439 0.000000 0.000000 -1.521815 -1.570795
    2 -0.000007 0.000008 5.704314 -3.111536 -0.281388 3.099718
    3 5.820531 0.000000 -0.000001 0.000000 0.000000 -0.392565
    4 5.877041 -0.000001 -0.000001 -0.018276 -0.275685 0.354645
    5 0.508590 1.638791 -0.536845 0.000000 0.000000 1.570796
    6 0.169529 0.000000 0.000002 0.000000 0.000000 0.000000
    7 0.169530 0.000000 -0.000001 0.000000 0.000000 0.000000
    8 0.508590 1.638790 0.536846 0.000000 0.000000 1.570796
    9 0.180832 0.000000 0.000000 0.000000 0.000000 0.000300
    10 0.180832 0.000000 0.000000 0.000000 0.000000 0.000000
    11 0.000009 -0.000006 -5.704314 -3.276873 0.083603 2.482102
    12 5.820531 0.000000 0.000000 0.000000 0.000000 -0.988153
    13 5.877041 0.000002 0.000000 0.070481 -0.048470 0.468606
    14 0.508590 1.638788 0.536845 0.000000 0.000000 1.570796
    15 0.169530 0.000000 0.000001 0.000000 0.000000 0.000000
    16 0.169530 0.000000 0.000000 0.000000 0.000000 0.000000
    17 0.508590 1.638790 -0.536845 0.000000 0.000000 1.570796
    18 0.180832 0.000000 0.000000 0.000000 0.000000 0.000000
    19 0.180832 0.000000 0.000000 0.000000 0.000000 0.000000
    20 0.403871 0.006248 0.019533 -0.039577 -0.088276 2.212719
    21 13.047035 -0.000450 0.000000 0.000000 0.000000 0.000000
    22 -1.703965 0.198453 -4.655851 -0.997692 -1.407415 2.093204
    23 -0.974781 -2.069797 0.000000 -0.121969 0.356285 -0.287668
    24 -0.446564 -7.063139 0.000000 -0.085398 -0.554894 -0.318846
    25 -1.848851 0.220504 4.241694 -1.552331 -1.567047 2.468318
    26 0.000000 0.000000 0.000000 -0.059421 0.010789 -0.018277
    27 0.953910 -2.089517 0.000000 -0.144971 0.087485 -0.108640
    28 0.863062 -7.358736 0.000000 0.665990 0.059473 -0.051086
  time 17
    0 -0.269967 0.965088 11.191480 -0.011025 0.000000 -1.570934
    1 0.000000 -1.003937 0.000000 0.000000 -1.524607 -1.570795
    2 -0.000007 0.000008 5.704314 -3.108475 -0.270723 3.144168
    3 5.820531 0.000000 -0.000001 0.000000 0.000000 -0.351317
    4 5.877041 -0.000001 -0.000001 -0.032568 -0.203398 0.354153
    5 0.508590 1.638791 -0.536845 0.000000 0.000000 1.570796
    6 0.169529 0.000000 0.000002 0.000000 0.000000 0.001378
    7 0.169530 0.000000 -0.000001 0.000000 0.000000 0.001378
    8 0.508590 1.638790 0.536846 0.000000 0.000000 1.570796
    9 0.180832 0.000000 0.000000 0.000000 0.000000 0.001378
    10 0.180832 0.000000 0.000000 0.000000 0.000000 0.001378
    11 0.000009 -0.000006 -5.704314 -3.273769 0.072913 2.474261
    12 5.820531 0.000000 0.000000 0.000000 0.000000 -0.928338
    13 5.877041 0.000002 0.000000 0.077390 -0.065086 0.460717
    14 0.508590 1.638788 0.536845 0.000000 0.000000 1.570796
    15 0.169530 0.000000 0.000001 0.000000 0.000000 0.000000
    16 0.169530 0.000000 0.000000 0.000000 0.000000 0.000000
    17 0.508590 1.638790 -0.536845 0.000000 0.000000 1.570796
    18 0.180832 0.000000 0.000000 0.000000 0.000000 0.000000
    19 0.180832 0.000000 0.000000 0.000000 0.000000 0.000000
    20 0.403871 0.006248 0.011720 -0.037276 -0.083291 2.212132
    21 13.047035 -0.000450 0.000000 0.000000 0.000000 0.000000
    22 -1.703965 0.198453 -4.655851 -1.052438 -1.390542 2.176574
    23 -0.974781 -2.069797 0.000000 -0.075885 0.394775 -0.302598
    24 -0.446564 -7.063139 0.000000 -0.254677 -0.590687 -0.236945
    25 -1.848851 0.220504 4.241694 -1.551085 -1.566914 2.472232
    26 0.000000 0.000000 0.000000 -0.080179 0.018689 -0.023082
    27 0.953910 -2.089517 0.000000 -0.135420 0.112989 -0.095967
    28 0.863062 -7.358736 0.000000 0.730796 0.041972 -0.035755
  time 18
    0 -0.238716 0.703193 11.289139 -0.009587 0.000000 -1.570934
    1 0.000000 -0.910184 0.000000 0.000000 -1.528922 -1.570795
    2 -0.000007 0.000008 5.704314 -3.104801 -0.257226 3.189807
    3 5.820531 0.000000 -0.000001 0.000000 0.000000 -0.307601
    4 5.877041 -0.000001 -0.000001 -0.046490 -0.125802 0.350212
    5 0.508590 1.638791 -0.536845 0.000000 0.000000 1.570796
    6 0.169529 0.000000 0.000002 0.000000 0.000000 0.002589
    7 0.169530 0.000000 -0.000001 0.000000 0.000000 0.002589
    8 0.508590 1.638790 0.536846 0.000000 0.000000 1.570796
    9 0.180832 0.000000 0.000000 0.000000 0.000000 0.002589
    10 0.180832 0.000000 0.000000 0.000000 0.000000 0.002589
    11 0.000009 -0.000006 -5.704314 -3.268274 0.067196 2.492730
    12 5.820531 0.000000 0.000000 0.000000 0.000000 -0.854016
    13 5.877041 0.000002 0.000000 0.080300 -0.073577 0.435098
    14 0.508590 1.638788 0.536845 0.000000 0.000000 1.570796
    15 0.169530 0.000000 0.000001 0.000000 0.000000 0.000000
    16 0.169530 0.000000 0.000000 0.000000 0.000000 0.000000
    17 0.508590 1.638790 -0.536845 0.000000 0.000000 1.570796
    18 0.180832 0.000000 0.000000 0.000000 0.000000 0.000000
    19 0.180832 0.000000 0.000000 0.000000 0.000000 0.000000
    20 0.403871 0.006248 0.011720 -0.033789 -0.075597 2.211115
    21 13.047035 -0.000450 0.000000 0.000000 0.000000 0.000000
    22 -1.703965 0.198453 -4.655851 -1.091747 -1.373616 2.243768
    23 -0.974781 -2.069797 0.000000 -0.034267 0.432882 -0.316227
    24 -0.446564 -7.063139 0.000000 -0.417630 -0.613978 -0.151256
    25 -1.848851 0.220504 4.241694 -2.066580 -1.566622 2.992091
    26 0.000000 0.000000 0.000000 -0.124834 0.034667 -0.031999
    27 0.953910 -2.089517 0.000000 -0.081513 0.149283 -0.068784
    28 0.863062 -7.358736 0.000000 0.767474 0.006780 -0.031193
  time 19
    0 -0.199652 0.429579 11.347735 -0.007766 0.000000 -1.570934
    1 -0.011719 -0.792993 0.000000 0.000000 -1.534423 -1.570795
    2 -0.000007 0.000008 5.704314 -3.105143 -0.243457 3.221113
    3 5.820531 0.000000 -0.000001 0.000000 0.000000 -0.293119
    4 5.877041 -0.000001 -0.000001 -0.052168 -0.060712 0.360802
    5 0.508590 1.638791 -0.536845 0.000000 0.000000 1.570796
    6 0.169529 0.000000 0.000002 0.000000 0.000000 0.002876
    7 0.169530 0.000000 -0.000001 0.000000 0.000000 0.002876
    8 0.508590 1.638790 0.536846 0.000000 0.000000 1.570796
    9 0.180832 0.000000 0.000000 0.000000 0.000000 0.002876
    10 0.180832 0.000000 0.000000 0.000000 0.000000 0.002876
    11 0.000009 -0.000006 -5.704314 -3.263364 0.069797 2.516613
    12 5.820531 0.000000 0.000000 0.000000 0.000000 -0.793435
    13 5.877041 0.000002 0.000000 0.079985 -0.060570 0.403168
    14 0.508590 1.638788 0.536845 0.000000 0.000000 1.570796
    15 0.169530 0.000000 0.000001 0.000000 0.000000 0.000000
    16 0.169530 0.000000 0.000000 0.000000 0.000000 0.000000
    17 0.508590 1.638790 -0.536845 0.000000 0.000000 1.570796
    18 0.180832 0.000000 0.000000 0.000000 0.000000 0.000000
    19 0.180832 0.000000 0.000000 0.000000 0.000000 0.000000
    20 0.403871 0.006248 0.007814 -0.029378 -0.065698 2.210019
    21 13.047035 -0.000450 0.000000 0.000000 0.000000 0.000000
    22 -1.703965 0.198453 -4.655851 -1.118113 -1.357824 2.296508
    23 -0.974781 -2.069797 0.000000 -0.000277 0.469571 -0.329472
    24 -0.446564 -7.063139 0.000000 -0.564076 -0.626376 -0.068557
    25 -1.848851 0.220504 4.241694 -2.611683 -1.551945 3.474816
    26 0.000000 0.000000 0.000000 -0.135605 0.067284 -0.058389
    27 0.953910 -2.089517 0.000000 -0.003882 0.224683 -0.006352
    28 0.863062 -7.358736 0.000000 0.827868 -0.067072 -0.077955
  time 20
    0 -0.144963 0.159871 11.375079 -0.005561 0.000000 -1.570934
    1 -0.027345 -0.656270 0.000000 0.000000 -1.540823 -1.570795
    2 -0.000007 0.000008 5.704314 -3.087516 -0.231856 3.158170
    3 5.820531 0.000000 -0.000001 0.000000 0.000000 -0.458916
    4 5.877041 -0.000001 -0.000001 -0.030565 -0.060219 0.373362
    5 0.508590 1.638791 -0.536845 0.000000 0.000000 1.570796
    6 0.169529 0.000000 0.000002 0.000000 0.000000 0.010582
    7 0.169530 0.000000 -0.000001 0.000000 0.000000 0.010582
    8 0.508590 1.638790 0.536846 0.000000 0.000000 1.570796
    9 0.180832 0.000000 0.000000 0.000000 0.000000 0.010582
    10 0.180832 0.000000 0.000000 0.000000 0.000000 0.010582
    11 0.000009 -0.000006 -5.704314 -3.260371 0.088504 2.550566
    12 5.820531 0.000000 0.000000 0.000000 0.000000 -0.768128
    13 5.877041 0.000002 0.000000 0.069000 -0.000993 0.354623
    14 0.508590 1.638788 0.536845 0.000000 0.000000 1.570796
    15 0.169530 0.000000 0.000001 0.000000 0.000000 0.000000
    16 0.169530 0.000000 0.000000 0.000000 0.000000 0.000000
    17 0.508590 1.638790 -0.536845 0.000000 0.000000 1.570796
    18 0.180832 0.000000 0.000000 0.000000 0.000000 0.000000
    19 0.180832 0.000000 0.000000 0.000000 0.000000 0.000000
    20 0.403871 0.006248 0.007814 -0.024189 -0.054084 2.208846
    21 13.047035 -0.000450 0.000000 0.000000 0.000000 0.000000
    22 -1.703965 0.198453 -4.655851 -1.133453 -1.343604 2.336231
    23 -0.974781 -2.069797 0.000000 0.022963 0.504175 -0.343198
    24 -0.446564 -7.063139 0.000000 -0.683659 -0.631460 0.004675
    25 -1.848851 0.220504 4.241694 -2.687570 -1.534131 3.468898
    26 0.000000 0.000000 0.000000 -0.130683 0.102789 -0.086876
    27 0.953910 -2.089517 0.000000 0.077414 0.299476 0.068597
    28 0.863062 -7.358736 0.000000 0.902523 -0.140988 -0.143284
  time 21
    0 -0.090274 -0.125462 11.398518 -0.003068 0.000000 -1.570934
    1 -0.039064 -0.496109 0.000000 0.000000 -1.548001 -1.570795
    2 -0.000007 0.000008 5.704314 -3.080112 -0.218605 3.127987
    3 5.820531 0.000000 -0.000001 0.000000 0.000000 -0.562332
    4 5.877041 -0.000001 -0.000001 -0.013065 -0.053815 0.366384
    5 0.508590 1.638791 -0.536845 0.000000 0.000000 1.570796
    6 0.169529 0.000000 0.000002 0.000000 0.000000 0.028583
    7 0.169530 0.000000 -0.000001 0.000000 0.000000 0.028583
    8 0.508590 1.638790 0.536846 0.000000 0.000000 1.570796
    9 0.180832 0.000000 0.000000 0.000000 0.000000 0.028583
    10 0.180832 0.000000 0.000000 0.000000 0.000000 0.028583
    11 0.000009 -0.000006 -5.704314 -3.254781 0.109897 2.588898
    12 5.820531 0.000000 0.000000 0.000000 0.000000 -0.735792
    13 5.877041 0.000002 0.000000 0.053479 0.061827 0.299581
    14 0.508590 1.638788 0.536845 0.000000 0.000000 1.570796
    15 0.169530 0.000000 0.000001 0.000000 0.000000 0.000000
    16 0.169530 0.000000 0.000000 0.000000 0.000000 0.000000
    17 0.508590 1.638790 -0.536845 0.000000 0.000000 1.570796
    18 0.180832 0.000000 0.000000 0.000000 0.000000 0.000000
    19 0.180832 0.000000 0.000000 0.000000 0.000000 0.000000
    20 0.403871 0.006248 0.007814 -0.018376 -0.041177 2.207672
    21 13.047035 -0.000450 0.000000 0.000000 0.000000 0.000000
    22 -1.703965 0.198453 -4.655851 -1.095486 -1.343114 2.308186
    23 -0.974781 -2.069797 0.000000 -0.049167 0.514281 -0.372624
    24 -0.446564 -7.063139 0.000000 -0.552291 -0.654388 0.004261
    25 -1.848851 0.220504 4.241694 -2.591274 -1.535726 3.364373
    26 0.000000 0.000000 0.000000 -0.131539 0.111474 -0.084300
    27 0.953910 -2.089517 0.000000 0.085788 0.304982 0.086657
    28 0.863062 -7.358736 0.000000 0.995734 -0.140294 -0.141560
  time 22
    0 -0.019959 -0.410795 11.414143 -0.000288 0.000000 -1.570934
    1 -0.042970 -0.328135 0.000000 0.000000 -1.555707 -1.570795
    2 -0.000007 0.000008 5.704314 -3.078062 -0.203949 3.113588
    3 5.820531 0.000000 -0.000001 0.000000 0.000000 -0.636943
    4 5.877041 -0.000001 -0.000001 0.000507 -0.042808 0.354481
    5 0.508590 1.638791 -0.536845 0.000000 0.000000 1.570796
    6 0.169529 0.000000 0.000002 0.000000 0.000000 0.050791
    7 0.169530 0.000000 -0.000001 0.000000 0.000000 0.050791
    8 0.508590 1.638790 0.536846 0.000000 0.000000 1.570796
    9 0.180832 0.000000 0.000000 0.000000 0.000000 0.050791
    10 0.180832 0.000000 0.000000 0.000000 0.000000 0.050791
    11 0.000009 -0.000006 -5.704314 -3.248271 0.132500 2.631131
    12 5.820531 0.000000 0.000000 0.000000 0.000000 -0.697961
    13 5.877041 0.000002 0.000000 0.036477 0.121631 0.245467
    14 0.508590 1.638788 0.536845 0.000000 0.000000 1.570796
    15 0.169530 0.000000 0.000001 0.000000 0.000000 0.000000
    16 0.169530 0.000000 0.000000 0.000000 0.000000 0.000000
    17 0.508590 1.638790 -0.536845 0.000000 0.000000 1.570796
    18 0.180832 0.000000 0.000000 0.000000 0.000000 0.000000
    19 0.180832 0.000000 0.000000 0.000000 0.000000 0.000000
    20 0.403871 0.006248 0.000001 -0.012180 -0.027179 2.206576
    21 13.047035 -0.000450 0.000000 0.000000 0.000000 0.000000
    22 -1.703965 0.198453 -4.655851 -1.043809 -1.348730 2.262528
    23 -0.974781 -2.069797 0.000000 -0.157460 0.513081 -0.409468
    24 -0.446564 -7.063139 0.000000 -0.326340 -0.683359 -0.028583
    25 -1.848851 0.220504 4.241694 -2.421391 -1.540831 3.201141
    26 0.000000 0.000000 0.000000 -0.132181 0.109298 -0.080189
    27 0.953910 -2.089517 0.000000 0.074143 0.296683 0.082391
    28 0.863062 -7.358736 0.000000 0.990337 -0.136794 -0.136282
  time 23
    0 0.054262 -0.703941 11.429769 0.002493 0.000000 -1.570934
    1 -0.050783 -0.144536 0.000000 0.000000 -1.563917 -1.570795
    2 -0.000007 0.000008 5.704314 -3.079344 -0.188211 3.108437
    3 5.820531 0.000000 -0.000001 0.000000 0.000000 -0.695142
    4 5.877041 -0.000001 -0.000001 0.010910 -0.028714 0.339951
    5 0.508590 1.638791 -0.536845 0.000000 0.000000 1.570796
    6 0.169529 0.000000 0.000002 0.000000 0.000000 0.073993
    7 0.169530 0.000000 -0.000001 0.000000 0.000000 0.073993
    8 0.508590 1.638790 0.536846 0.000000 0.000000 1.570796
    9 0.180832 0.000000 0.000000 0.000000 0.000000 0.073993
    10 0.180832 0.000000 0.000000 0.000000 0.000000 0.073993
    11 0.000009 -0.000006 -5.704314 -3.242269 0.154803 2.676230
    12 5.820531 0.000000 0.000000 0.000000 0.000000 -0.656998
    13 5.877041 0.000002 0.000000 0.021389 0.173519 0.201842
    14 0.508590 1.638788 0.536845 0.000000 0.000000 1.570796
    15 0.169530 0.000000 0.000001 0.000000 0.000000 0.000000
    16 0.169530 0.000000 0.000000 0.000000 0.000000 0.000000
    17 0.508590 1.638790 -0.536845 0.000000 0.000000 1.570796
    18 0.180832 0.000000 0.000000 0.000000 0.000000 0.000000
    19 0.180832 0.000000 0.000000 0.000000 0.000000 0.000000
    20 0.403871 0.006248 0.000001 -0.005589 -0.012498 2.205637
    21 13.047035 -0.000450 0.000000 0.000000 0.000000 0.000000
    22 -1.703965 0.198453 -4.655851 -1.021853 -1.352414 2.253818
    23 -0.974781 -2.069797 0.000000 -0.236784 0.519768 -0.445059
    24 -0.446564 -7.063139 0.000000 -0.189600 -0.711579 -0.036779
    25 -1.848851 0.220504 4.241694 -2.253998 -1.543038 3.033137
    26 0.000000 0.000000 0.000000 -0.135177 0.102967 -0.084683
    27 0.953910 -2.089517 0.000000 0.066162 0.301176 0.076942
    28 0.863062 -7.358736 0.000000 0.912254 -0.148587 -0.149199
  time 24
    0 0.128483 -1.008806 11.429769 0.005465 0.000000 -1.570934
    1 -0.058596 0.031251 0.000000 3.141585 -1.569322 1.570564
    2 -0.000007 0.000008 5.704314 -3.082576 -0.171856 3.108899
    3 5.820531 0.000000 -0.000001 0.000000 0.000000 -0.743363
    4 5.877041 -0.000001 -0.000001 0.018669 -0.012610 0.321973
    5 0.508590 1.638791 -0.536845 0.000000 0.000000 1.570796
    6 0.169529 0.000000 0.000002 0.000000 0.000000 0.096596
    7 0.169530 0.000000 -0.000001 0.000000 0.000000 0.096596
    8 0.508590 1.638790 0.536846 0.000000 0.000000 1.570796
    9 0.180832 0.000000 0.000000 0.000000 0.000000 0.096596
    10 0.180832 0.000000 0.000000 0.000000 0.000000 0.096596
    11 0.000009 -0.000006 -5.704314 -3.236789 0.175872 2.716870
    12 5.820531 0.000000 0.000000 0.000000 0.000000 -0.630477
    13 5.877041 0.000002 0.000000 0.015097 0.195087 0.215672
    14 0.508590 1.638788 0.536845 0.000000 0.000000 1.570796
    15 0.169530 0.000000 0.000001 0.000000 0.000000 0.000000
    16 0.169530 0.000000 0.000000 0.000000 0.000000 0.000000
    17 0.508590 1.638790 -0.536845 0.000000 0.000000 1.570796
    18 0.180832 0.000000 0.000000 0.000000 0.000000 0.000000
    19 0.180832 0.000000 0.000000 0.000000 0.000000 0.000000
    20 0.403871 0.006248 0.000001 0.001099 0.002591 2.204972
    21 13.047035 -0.000450 0.000000 0.000000 0.000000 0.000000
    22 -1.703965 0.198453 -4.655851 -1.007472 -1.355531 2.250851
    23 -0.974781 -2.069797 0.000000 -0.297966 0.525071 -0.473185
    24 -0.446564 -7.063139 0.000000 -0.084488 -0.735466 -0.043081
    25 -1.848851 0.220504 4.241694 -2.078462 -1.544235 2.856828
    26 0.000000 0.000000 0.000000 -0.140313 0.093391 -0.090879
    27 0.953910 -2.089517 0.000000 0.055084 0.310184 0.069500
    28 0.863062 -7.358736 0.000000 0.825780 -0.162084 -0.164477
  time 25
    0 0.202704 -1.313671 11.433675 0.008437 0.000000 -1.570934
    1 -0.062502 0.210944 0.000000 3.141489 -1.561005 -4.712346
    2 -0.000007 0.000008 5.704314 -3.086833 -0.154885 3.112465
    3 5.820531 0.000000 -0.000001 0.000000 0.000000 -0.786113
    4 5.877041 -0.000001 -0.000001 0.024191 0.004077 0.298412
    5 0.508590 1.638791 -0.536845 0.000000 0.000000 1.570796
    6 0.169529 0.000000 0.000002 0.000000 0.000000 0.117185
    7 0.169530 0.000000 -0.000001 0.000000 0.000000 0.117185
    8 0.508590 1.638790 0.536846 0.000000 0.000000 1.570796
    9 0.180832 0.000000 0.000000 0.000000 0.000000 0.117185
    10 0.180832 0.000000 0.000000 0.000000 0.000000 0.117185
    11 0.000009 -0.000006 -5.704314 -3.229979 0.197073 2.761571
    12 5.820531 0.000000 0.000000 0.000000 0.000000 -0.597183
    13 5.877041 0.000002 0.000000 0.009788 0.216899 0.227182
    14 0.508590 1.638788 0.536845 0.000000 0.000000 1.570796
    15 0.169530 0.000000 0.000001 0.000000 0.000000 0.000000
    16 0.169530 0.000000 0.000000 0.000000 0.000000 0.000000
    17 0.508590 1.638790 -0.536845 0.000000 0.000000 1.570796
    18 0.180832 0.000000 0.000000 0.000000 0.000000 0.000000
    19 0.180832 0.000000 0.000000 0.000000 0.000000 0.000000
    20 0.403871 0.006248 0.000001 0.007894 0.017787 2.204424
    21 13.047035 -0.000450 0.000000 0.000000 0.000000 0.000000
    22 -1.703965 0.198453 -4.655851 -0.999706 -1.357824 2.251999
    23 -0.974781 -2.069797 0.000000 -0.341876 0.529891 -0.493750
    24 -0.446564 -7.063139 0.000000 -0.009142 -0.755178 -0.046484
    25 -1.848851 0.220504 4.241694 -1.907237 -1.544633 2.684624
    26 0.000000 0.000000 0.000000 -0.145663 0.082977 -0.097686
    27 0.953910 -2.089517 0.000000 0.043352 0.319576 0.060968
    28 0.863062 -7.358736 0.000000 0.729890 -0.178072 -0.179490
  time 26
    0 0.280831 -1.626349 11.429769 0.011505 0.000000 -1.570934
    1 -0.058596 0.390637 0.000000 3.141489 -1.552711 -4.712346
    2 -0.000007 0.000008 5.704314 -3.091261 -0.137644 3.116428
    3 5.820531 0.000000 -0.000001 0.000000 0.000000 -0.827897
    4 5.877041 -0.000001 -0.000001 0.027691 0.020288 0.267053
    5 0.508590 1.638791 -0.536845 0.000000 0.000000 1.570796
    6 0.169529 0.000000 0.000002 0.000000 0.000000 0.133197
    7 0.169530 0.000000 -0.000001 0.000000 0.000000 0.133197
    8 0.508590 1.638790 0.536846 0.000000 0.000000 1.570796
    9 0.180832 0.000000 0.000000 0.000000 0.000000 0.133197
    10 0.180832 0.000000 0.000000 0.000000 0.000000 0.133197
    11 0.000009 -0.000006 -5.704314 -3.221887 0.217878 2.810093
    12 5.820531 0.000000 0.000000 0.000000 0.000000 -0.557945
    13 5.877041 0.000002 0.000000 0.005881 0.238484 0.236092
    14 0.508590 1.638788 0.536845 0.000000 0.000000 1.570796
    15 0.169530 0.000000 0.000001 0.000000 0.000000 0.000000
    16 0.169530 0.000000 0.000000 0.000000 0.000000 0.000000
    17 0.508590 1.638790 -0.536845 0.000000 0.000000 1.570796
    18 0.180832 0.000000 0.000000 0.000000 0.000000 0.000000
    19 0.180832 0.000000 0.000000 0.000000 0.000000 0.000000
    20 0.403871 0.006248 0.000001 0.014581 0.032792 2.204228
    21 13.047035 -0.000450 0.000000 0.000000 0.000000 0.000000
    22 -1.703965 0.198453 -4.655851 -0.993186 -1.360735 2.254584
    23 -0.974781 -2.069797 0.000000 -0.387367 0.533476 -0.515904
    24 -0.446564 -7.063139 0.000000 0.070277 -0.773879 -0.053289
    25 -1.848851 0.220504 4.241694 -1.670281 -1.543836 2.446554
    26 0.000000 0.000000 0.000000 -0.148873 0.074577 -0.103799
    27 0.953910 -2.089517 0.000000 0.033670 0.325082 0.052499
    28 0.863062 -7.358736 0.000000 0.623639 -0.197465 -0.191372
  time 27
    0 0.362865 -1.950746 11.410237 0.014477 0.000000 -1.570934
    1 -0.050783 0.570330 0.000000 3.141489 -1.544706 -4.712346
    2 -0.000007 0.000008 5.704314 -3.095518 -0.120846 3.117881
    3 5.820531 0.000000 -0.000001 0.000000 0.000000 -0.873276
    4 5.877041 -0.000001 -0.000001 0.029869 0.034682 0.225515
    5 0.508590 1.638791 -0.536845 0.000000 0.000000 1.570796
    6 0.169529 0.000000 0.000002 0.000000 0.000000 0.140100
    7 0.169530 0.000000 -0.000001 0.000000 0.000000 0.140100
    8 0.508590 1.638790 0.536846 0.000000 0.000000 1.570796
    9 0.180832 0.000000 0.000000 0.000000 0.000000 0.140100
    10 0.180832 0.000000 0.000000 0.000000 0.000000 0.140100
    11 0.000009 -0.000006 -5.704314 -3.212464 0.237773 2.861322
    12 5.820531 0.000000 0.000000 0.000000 0.000000 -0.515320
    13 5.877041 0.000002 0.000000 0.003194 0.259372 0.244260
    14 0.508590 1.638788 0.536845 0.000000 0.000000 1.570796
    15 0.169530 0.000000 0.000001 0.000000 0.000000 0.000000
    16 0.169530 0.000000 0.000000 0.000000 0.000000 0.000000
    17 0.508590 1.638790 -0.536845 0.000000 0.000000 1.570796
    18 0.180832 0.000000 0.000000 0.000000 0.000000 0.000000
    19 0.180832 0.000000 0.000000 0.000000 0.000000 0.000000
    20 0.403871 0.006248 -0.007812 0.021089 0.047077 2.204228
    21 13.047035 -0.000450 0.000000 0.000000 0.000000 0.000000
    22 -1.703965 0.198453 -4.655851 -0.988488 -1.364007 2.258413
    23 -0.974781 -2.069797 0.000000 -0.433649 0.535578 -0.539551
    24 -0.446564 -7.063139 0.000000 0.151255 -0.790790 -0.062994
    25 -1.848851 0.220504 4.241694 -1.608671 -1.543331 2.384221
    26 0.000000 0.000000 0.000000 -0.148160 0.070797 -0.108197
    27 0.953910 -2.089517 0.000000 0.028785 0.322572 0.045150
    28 0.863062 -7.358736 0.000000 0.505845 -0.220075 -0.197367
  time 28
    0 0.425367 -2.275143 11.316484 0.017257 0.000000 -1.570934
    1 -0.050783 0.726585 0.000000 3.141489 -1.537407 -4.712346
    2 -0.000007 0.000008 5.704314 -3.087345 -0.112200 3.046154
    3 5.820531 0.000000 -0.000001 0.000000 0.000000 -0.925895
    4 5.877041 -0.000001 -0.000001 0.019894 0.036887 0.249157
    5 0.508590 1.638791 -0.536845 0.000000 0.000000 1.570796
    6 0.169529 0.000000 0.000002 0.000000 0.000000 0.131387
    7 0.169530 0.000000 -0.000001 0.000000 0.000000 0.131387
    8 0.508590 1.638790 0.536846 0.000000 0.000000 1.570796
    9 0.180832 0.000000 0.000000 0.000000 0.000000 0.131387
    10 0.180832 0.000000 0.000000 0.000000 0.000000 0.131387
    11 0.000009 -0.000006 -5.704314 -3.207792 0.256181 2.891932
    12 5.820531 0.000000 0.000000 0.000000 0.000000 -0.514490
    13 5.877041 0.000002 0.000000 0.001686 0.280469 0.273684
    14 0.508590 1.638788 0.536845 0.000000 0.000000 1.570796
    15 0.169530 0.000000 0.000001 0.000000 0.000000 0.000000
    16 0.169530 0.000000 0.000000 0.000000 0.000000 0.000000
    17 0.508590 1.638790 -0.536845 0.000000 0.000000 1.570796
    18 0.180832 0.000000 0.000000 0.000000 0.000000 0.000000
    19 0.180832 0.000000 0.000000 0.000000 0.000000 0.000000
    20 0.403871 0.006248 -0.007812 0.027081 0.060380 2.204424
    21 13.047035 -0.000450 0.000000 0.000000 0.000000 0.000000
    22 -1.703965 0.198453 -4.655851 -0.984653 -1.368000 2.263007
    23 -0.974781 -2.069797 0.000000 -0.483685 0.534877 -0.566040
    24 -0.446564 -7.063139 0.000000 0.234963 -0.804900 -0.076545
    25 -1.848851 0.220504 4.241694 -2.381914 -1.541336 3.158186
    26 0.000000 0.000000 0.000000 -0.141169 0.074185 -0.109791
    27 0.953910 -2.089517 0.000000 0.031271 0.307978 0.040293
    28 0.863062 -7.358736 0.000000 0.375129 -0.245365 -0.194184
  time 29
    0 0.491775 -2.611259 11.218825 0.020038 0.000000 -1.570934
    1 -0.039064 0.867214 0.000000 3.141489 -1.530911 -4.712346
    2 -0.000007 0.000008 5.704314 -3.074061 -0.105525 2.934666
    3 5.820531 0.000000 -0.000001 0.000000 0.000000 -0.970845
    4 5.877041 -0.000001 -0.000001 0.004221 0.035282 0.301450
    5 0.508590 1.638791 -0.536845 0.000000 0.000000 1.570796
    6 0.169529 0.000000 0.000002 0.000000 0.000000 0.103799
    7 0.169530 0.000000 -0.000001 0.000000 0.000000 0.103799
    8 0.508590 1.638790 0.536846 0.000000 0.000000 1.570796
    9 0.180832 0.000000 0.000000 0.000000 0.000000 0.103799
    10 0.180832 0.000000 0.000000 0.000000 0.000000 0.103799
    11 0.000009 -0.000006 -5.704314 -3.202676 0.272875 2.923855
    12 5.820531 0.000000 0.000000 0.000000 0.000000 -0.513275
    13 5.877041 0.000002 0.000000 0.001490 0.299282 0.304222
    14 0.508590 1.638788 0.536845 0.000000 0.000000 1.570796
    15 0.169530 0.000000 0.000001 0.000000 0.000000 0.000000
    16 0.169530 0.000000 0.000000 0.000000 0.000000 0.000000
    17 0.508590 1.638790 -0.536845 0.000000 0.000000 1.570796
    18 0.180832 0.000000 0.000000 0.000000 0.000000 0.000000
    19 0.180832 0.000000 0.000000 0.000000 0.000000 0.000000
    20 0.403871 0.006248 -0.011718 0.032282 0.072077 2.204737
    21 13.047035 -0.000450 0.000000 0.000000 0.000000 0.000000
    22 -1.703965 0.198453 -4.655851 -0.982256 -1.372405 2.268941
    23 -0.974781 -2.069797 0.000000 -0.534868 0.531292 -0.593974
    24 -0.446564 -7.063139 0.000000 0.321271 -0.815482 -0.093796
    25 -1.848851 0.220504 4.241694 -2.757612 -1.530542 3.535622
    26 0.000000 0.000000 0.000000 -0.125975 0.087881 -0.107082
    27 0.953910 -2.089517 0.000000 0.044050 0.276684 0.038580
    28 0.863062 -7.358736 0.000000 0.229167 -0.271790 -0.178482
  time 30
    0 0.534745 -2.955188 11.125072 0.022339 0.000000 -1.570934
    1 -0.031251 0.984405 0.000000 3.141489 -1.525710 -4.712346
    2 -0.000007 0.000008 5.704314 -3.057289 -0.099023 2.795571
    3 5.820531 0.000000 -0.000001 0.000000 0.000000 -1.003779
    4 5.877041 -0.000001 -0.000001 -0.016079 0.033482 0.373198
    5 0.508590 1.638791 -0.536845 0.000000 0.000000 1.570796
    6 0.169529 0.000000 0.000002 0.000000 0.000000 0.061493
    7 0.169530 0.000000 -0.000001 0.000000 0.000000 0.061493
    8 0.508590 1.638790 0.536846 0.000000 0.000000 1.570796
    9 0.180832 0.000000 0.000000 0.000000 0.000000 0.061493
    10 0.180832 0.000000 0.000000 0.000000 0.000000 0.061493
    11 0.000009 -0.000006 -5.704314 -3.197387 0.286778 2.957052
    12 5.820531 0.000000 0.000000 0.000000 0.000000 -0.511486
    13 5.877041 0.000002 0.000000 0.003089 0.314695 0.335503
    14 0.508590 1.638788 0.536845 0.000000 0.000000 1.570796
    15 0.169530 0.000000 0.000001 0.000000 0.000000 0.000000
    16 0.169530 0.000000 0.000000 0.000000 0.000000 0.000000
    17 0.508590 1.638790 -0.536845 0.000000 0.000000 1.570796
    18 0.180832 0.000000 0.000000 0.000000 0.000000 0.000000
    19 0.180832 0.000000 0.000000 0.000000 0.000000 0.000000
    20 0.403871 0.006248 -0.011718 0.036597 0.081581 2.205128
    21 13.047035 -0.000450 0.000000 0.000000 0.000000 0.000000
    22 -1.703965 0.198453 -4.655851 -0.981681 -1.377532 2.276407
    23 -0.974781 -2.069797 0.000000 -0.587157 0.524671 -0.622967
    24 -0.446564 -7.063139 0.000000 0.410741 -0.821862 -0.114567
    25 -1.848851 0.220504 4.241694 -2.689007 -1.531924 3.470043
    26 0.000000 0.000000 0.000000 -0.097085 0.117287 -0.097399
    27 0.953910 -2.089517 0.000000 0.072791 0.218489 0.040075
    28 0.863062 -7.358736 0.000000 0.050624 -0.297869 -0.143364
  time 31
    0 0.565996 -3.306929 11.046944 0.024160 0.000000 -1.570934
    1 -0.027345 1.058626 0.000000 3.141585 -1.522115 1.570660
    2 -0.000007 0.000008 5.704314 -3.040417 -0.090895 2.652974
    3 5.820531 0.000000 -0.000001 0.000000 0.000000 -1.019710
    4 5.877041 -0.000001 -0.000001 -0.038090 0.034788 0.447655
    5 0.508590 1.638791 -0.536845 0.000000 0.000000 1.570796
    6 0.169529 0.000000 0.000002 0.000000 0.000000 0.019283
    7 0.169530 0.000000 -0.000001 0.000000 0.000000 0.019283
    8 0.508590 1.638790 0.536846 0.000000 0.000000 1.570796
    9 0.180832 0.000000 0.000000 0.000000 0.000000 0.019283
    10 0.180832 0.000000 0.000000 0.000000 0.000000 0.019283
    11 0.000009 -0.000006 -5.704314 -3.193570 0.296269 2.991324
    12 5.820531 0.000000 0.000000 0.000000 0.000000 -0.509825
    13 5.877041 0.000002 0.000000 0.008097 0.324999 0.368546
    14 0.508590 1.638788 0.536845 0.000000 0.000000 1.570796
    15 0.169530 0.000000 0.000001 0.000000 0.000000 0.000000
    16 0.169530 0.000000 0.000000 0.000000 0.000000 0.000000
    17 0.508590 1.638790 -0.536845 0.000000 0.000000 1.570796
    18 0.180832 0.000000 0.000000 0.000000 0.000000 0.000000
    19 0.180832 0.000000 0.000000 0.000000 0.000000 0.000000
    20 0.403871 0.006248 -0.019531 0.039485 0.087993 2.205402
    21 13.047035 -0.000450 0.000000 0.000000 0.000000 0.000000
    22 -1.703965 0.198453 -4.655851 -0.983023 -1.380108 2.297848
    23 -0.974781 -2.069797 0.000000 -0.660551 0.526272 -0.675944
    24 -0.446564 -7.063139 0.000000 0.506277 -0.838981 -0.130900
    25 -1.848851 0.220504 4.241694 -2.189130 -1.541629 2.966031
    26 0.000000 0.000000 0.000000 -0.055783 0.159284 -0.080584
    27 0.953910 -2.089517 0.000000 0.113962 0.137887 0.041756
    28 0.863062 -7.358736 0.000000 -0.158254 -0.317577 -0.090050
  time 32
    0 0.573809 -3.658671 11.050851 0.025502 0.000000 -1.570934
    1 -0.027345 1.089877 0.000000 3.141489 -1.520808 -4.712346
    2 -0.000007 0.000008 5.704314 -3.029767 -0.080575 2.547629
    3 5.820531 0.000000 -0.000001 0.000000 0.000000 -1.012898
    4 5.877041 -0.000001 -0.000001 -0.055590 0.040485 0.494940
    5 0.508590 1.638791 -0.536845 0.000000 0.000000 1.570796
    6 0.169529 0.000000 0.000002 0.000000 0.000000 0.000000
    7 0.169530 0.000000 -0.000001 0.000000 0.000000 0.000000
    8 0.508590 1.638790 0.536846 0.000000 0.000000 1.570796
    9 0.180832 0.000000 0.000000 0.000000 0.000000 0.000000
    10 0.180832 0.000000 0.000000 0.000000 0.000000 0.000000
    11 0.000009 -0.000006 -5.704314 -3.213762 0.289774 3.026432
    12 5.820531 0.000000 0.000000 0.000000 0.000000 -0.508994
    13 5.877041 0.000002 0.000000 0.039794 0.215888 0.407067
    14 0.508590 1.638788 0.536845 0.000000 0.000000 1.570796
    15 0.169530 0.000000 0.000001 0.000000 0.000000 0.000000
    16 0.169530 0.000000 0.000000 0.000000 0.000000 0.000000
    17 0.508590 1.638790 -0.536845 0.000000 0.000000 1.570796
    18 0.180832 0.000000 0.000000 0.000000 0.000000 0.000000
    19 0.180832 0.000000 0.000000 0.000000 0.000000 0.000000
    20 0.403871 0.006248 -0.015624 0.040600 0.090390 2.205559
    21 13.047035 -0.000450 0.000000 0.000000 0.000000 0.000000
    22 -1.703965 0.198453 -4.655851 -0.986762 -1.383019 2.319863
    23 -0.974781 -2.069797 0.000000 -0.725646 0.523670 -0.724250
    24 -0.446564 -7.063139 0.000000 0.596918 -0.849900 -0.149747
    25 -1.848851 0.220504 4.241694 -1.227224 -1.535407 1.995234
    26 0.000000 0.000000 0.000000 -0.006777 0.207700 -0.058077
    27 0.953910 -2.089517 0.000000 0.161718 0.044694 0.040448
    28 0.863062 -7.358736 0.000000 -0.384978 -0.324862 -0.025596
  time 33
    0 0.554277 -4.029944 11.093821 0.026174 0.000000 -1.570934
    1 -0.027345 1.058626 0.000000 3.141489 -1.522210 -4.712346
    2 -0.000007 0.000008 5.704314 -3.029183 -0.067841 2.509718
    3 5.820531 0.000000 -0.000001 0.000000 0.000000 -0.950837
    4 5.877041 -0.000001 -0.000001 -0.066790 0.056079 0.490343
    5 0.508590 1.638791 -0.536845 0.000000 0.000000 1.570796
    6 0.169529 0.000000 0.000002 0.000000 0.000000 0.000000
    7 0.169530 0.000000 -0.000001 0.000000 0.000000 0.000000
    8 0.508590 1.638790 0.536846 0.000000 0.000000 1.570796
    9 0.180832 0.000000 0.000000 0.000000 0.000000 0.000000
    10 0.180832 0.000000 0.000000 0.000000 0.000000 0.000000
    11 0.000009 -0.000006 -5.704314 -3.235966 0.275572 3.066515
    12 5.820531 0.000000 0.000000 0.000000 0.000000 -0.500431
    13 5.877041 0.000002 0.000000 0.074086 0.092409 0.434913
    14 0.508590 1.638788 0.536845 0.000000 0.000000 1.570796
    15 0.169530 0.000000 0.000001 0.000000 0.000000 0.000000
    16 0.169530 0.000000 0.000000 0.000000 0.000000 0.000000
    17 0.508590 1.638790 -0.536845 0.000000 0.000000 1.570796
    18 0.180832 0.000000 0.000000 0.000000 0.000000 0.000000
    19 0.180832 0.000000 0.000000 0.000000 0.000000 0.000000
    20 0.403871 0.006248 -0.015624 0.039485 0.087897 2.205402
    21 13.047035 -0.000450 0.000000 0.000000 0.000000 0.000000
    22 -1.703965 0.198453 -4.655851 -0.976503 -1.424418 2.130438
    23 -0.974781 -2.069797 0.000000 -0.402386 0.334088 -0.392948
    24 -0.446564 -7.063139 0.000000 0.501382 -0.610477 -0.237182
    25 -1.848851 0.220504 4.241694 -2.246620 -1.552025 3.050987
    26 0.000000 0.000000 0.000000 0.045297 0.256188 -0.031999
    27 0.953910 -2.089517 0.000000 0.211132 -0.050888 0.034563
    28 0.863062 -7.358736 0.000000 -0.614853 -0.317672 0.040370
  time 34
    0 0.585528 -4.424655 11.011787 0.023393 0.000000 -1.570934
    1 -0.031251 1.054720 0.000000 3.141489 -1.522306 -4.712346
    2 -0.000007 0.000008 5.704314 -3.021253 -0.033136 2.413223
    3 5.820531 0.000000 -0.000001 0.000000 0.000000 -0.970255
    4 5.877041 -0.000001 -0.000001 -0.083979 0.092575 0.472857
    5 0.508590 1.638791 -0.536845 0.000000 0.000000 1.570796
    6 0.169529 0.000000 0.000002 0.000000 0.000000 0.000000
    7 0.169530 0.000000 -0.000001 0.000000 0.000000 0.000000
    8 0.508590 1.638790 0.536846 0.000000 0.000000 1.570796
    9 0.180832 0.000000 0.000000 0.000000 0.000000 0.000000
    10 0.180832 0.000000 0.000000 0.000000 0.000000 0.000000
    11 0.000009 -0.000006 -5.704314 -3.171572 0.300692 3.072645
    12 5.820531 0.000000 0.000000 0.000000 0.000000 -0.464580
    13 5.877041 0.000002 0.000000 0.010076 0.326987 0.401962
    14 0.508590 1.638788 0.536845 0.000000 0.000000 1.570796
    15 0.169530 0.000000 0.000001 0.000000 0.000000 0.000000
    16 0.169530 0.000000 0.000000 0.000000 0.000000 0.000000
    17 0.508590 1.638790 -0.536845 0.000000 0.000000 1.570796
    18 0.180832 0.000000 0.000000 0.000000 0.000000 0.000000
    19 0.180832 0.000000 0.000000 0.000000 0.000000 0.000000
    20 0.403871 0.006248 -0.019531 0.039377 0.087777 2.205402
    21 13.047035 -0.000450 0.000000 0.000000 0.000000 0.000000
    22 -1.703965 0.198453 -4.655851 -0.749372 -1.482640 1.613754
    23 -0.974781 -2.069797 0.000000 -0.053080 -0.109684 -0.031112
    24 -0.446564 -7.063139 0.000000 0.305543 -0.250654 -0.418174
    25 -1.848851 0.220504 4.241694 2.879683 -1.511930 -2.012527
    26 0.000000 0.000000 0.000000 0.088168 0.283294 -0.000096
    27 0.953910 -2.089517 0.000000 0.265169 -0.129183 0.012082
    28 0.863062 -7.358736 0.000000 -0.806870 -0.299382 0.085992
end
