// Created by Crowbar 0.58
version 1
nodes
  0 "Bip01" -1
  1 "Bip01 Pelvis" 0
  2 "Bip01 L Leg" 1
  3 "Bip01 L Leg1" 2
  4 "Bip01 L Foot" 3
  5 "Bip01 L Toe0" 4
  6 "Bip01 L Toe01" 5
  7 "Bip01 L Toe02" 6
  8 "Bip01 L Toe1" 4
  9 "Bip01 L Toe11" 8
  10 "Bip01 L Toe12" 9
  11 "Bip01 R Leg" 1
  12 "Bip01 R Leg1" 11
  13 "Bip01 R Foot" 12
  14 "Bip01 R Toe0" 13
  15 "Bip01 R Toe01" 14
  16 "Bip01 R Toe02" 15
  17 "Bip01 R Toe1" 13
  18 "Bip01 R Toe11" 17
  19 "Bip01 R Toe12" 18
  20 "Bip01 Spine" 1
  21 "Bip01 Neck" 20
  22 "Bone04" 21
  23 "Bone05" 22
  24 "Bone06" 23
  25 "Bone01" 21
  26 "Bone02" 25
  27 "Bone03" 26
  28 "Bone08" 27
end
skeleton
  time 0
    0 0.097232 2.436743 2.370898 -3.141593 -1.266351 -4.712344
    1 0.000000 0.000000 0.000000 0.000000 -1.570796 -1.570795
    2 -0.000007 0.000008 5.704314 -2.895204 -0.324935 2.602250
    3 5.820531 0.000000 -0.000001 0.000000 0.000000 -2.158246
    4 5.877041 -0.000001 -0.000001 0.394238 0.096279 -0.266297
    5 0.508590 1.638791 -0.536845 0.000000 0.000000 1.570796
    6 0.169529 0.000000 0.000002 0.000000 0.000000 0.000000
    7 0.169530 0.000000 -0.000001 0.000000 0.000000 0.000000
    8 0.508590 1.638790 0.536846 0.000000 0.000000 1.570796
    9 0.180832 0.000000 0.000000 0.000000 0.000000 0.000000
    10 0.180832 0.000000 0.000000 0.000000 0.000000 0.000000
    11 0.000009 -0.000006 -5.704314 -3.604165 0.231708 2.153235
    12 5.820531 0.000000 0.000000 0.000000 0.000000 -2.441287
    13 5.877041 0.000002 0.000000 -0.398132 -0.333523 -0.875149
    14 0.508590 1.638788 0.536845 0.000000 0.000000 1.570796
    15 0.169530 0.000000 0.000001 0.000000 0.000000 0.000000
    16 0.169530 0.000000 0.000000 0.000000 0.000000 0.000000
    17 0.508590 1.638790 -0.536845 0.000000 0.000000 1.570796
    18 0.180832 0.000000 0.000000 0.000000 0.000000 0.000000
    19 0.180832 0.000000 0.000000 0.000000 0.000000 0.000000
    20 0.403871 0.006248 0.000001 -0.000004 0.000002 2.216241
    21 13.047035 -0.000450 0.000000 0.000000 0.000000 0.000000
    22 -1.703965 0.198453 -4.655851 0.000000 -1.570796 0.925352
    23 -0.974781 -2.069797 0.000000 1.132459 -0.358920 -1.480479
    24 -0.446564 -7.063139 0.000000 0.872175 0.000000 0.000000
    25 -1.848851 0.220504 4.241694 0.000000 -1.570796 0.925352
    26 0.000000 0.000000 0.000000 0.000000 0.000000 0.000000
    27 0.953910 -2.089517 0.000000 1.002977 0.409915 0.828581
    28 0.863062 -7.358736 0.000000 0.580776 0.339840 -0.458737
  time 1
    0 0.097232 2.436743 2.370898 2.841603 -1.322041 -4.498653
    1 0.000000 0.000000 0.000000 0.000000 -1.570796 -1.570795
    2 -0.000007 0.000008 5.704314 -2.881493 -0.318704 2.570349
    3 5.820531 0.000000 -0.000001 0.000000 0.000000 -2.140438
    4 5.877041 -0.000001 -0.000001 0.397972 0.095115 -0.314567
    5 0.508590 1.638791 -0.536845 0.000000 0.000000 1.570796
    6 0.169529 0.000000 0.000002 0.000000 0.000000 0.000000
    7 0.169530 0.000000 -0.000001 0.000000 0.000000 0.000000
    8 0.508590 1.638790 0.536846 0.000000 0.000000 1.570796
    9 0.180832 0.000000 0.000000 0.000000 0.000000 0.000000
    10 0.180832 0.000000 0.000000 0.000000 0.000000 0.000000
    11 0.000009 -0.000006 -5.704314 -3.579079 0.233051 2.174730
    12 5.820531 0.000000 0.000000 0.000000 0.000000 -2.405692
    13 5.877041 0.000002 0.000000 -0.378587 -0.322347 -0.897612
    14 0.508590 1.638788 0.536845 0.000000 0.000000 1.570796
    15 0.169530 0.000000 0.000001 0.000000 0.000000 0.000000
    16 0.169530 0.000000 0.000000 0.000000 0.000000 0.000000
    17 0.508590 1.638790 -0.536845 0.000000 0.000000 1.570796
    18 0.180832 0.000000 0.000000 0.000000 0.000000 0.000000
    19 0.180832 0.000000 0.000000 0.000000 0.000000 0.000000
    20 0.403871 0.006248 0.000001 -0.000004 0.000002 2.216241
    21 13.047035 -0.000450 0.000000 0.000000 0.000000 0.000000
    22 -1.703965 0.198453 -4.655851 1.771225 -1.512729 -0.828005
    23 -0.974781 -2.069797 0.000000 1.062819 -0.349080 -1.495409
    24 -0.446564 -7.063139 0.000000 0.667108 0.066269 0.025920
    25 -1.848851 0.220504 4.241694 -0.564649 -1.543224 1.506303
    26 0.000000 0.000000 0.000000 0.060491 0.038555 0.045925
    27 0.953910 -2.089517 0.000000 1.107737 0.380423 0.942203
    28 0.863062 -7.358736 0.000000 0.284873 -0.094665 -0.380994
  time 2
    0 0.097232 2.436743 2.370898 2.977936 -1.296209 -4.606870
    1 0.000000 0.000000 0.000000 0.000000 -1.570796 -1.570795
    2 -0.000007 0.000008 5.704314 -2.859438 -0.309344 2.522069
    3 5.820531 0.000000 -0.000001 0.000000 0.000000 -2.115496
    4 5.877041 -0.000001 -0.000001 0.405633 0.093333 -0.385576
    5 0.508590 1.638791 -0.536845 0.000000 0.000000 1.570796
    6 0.169529 0.000000 0.000002 0.000000 0.000000 0.000000
    7 0.169530 0.000000 -0.000001 0.000000 0.000000 0.000000
    8 0.508590 1.638790 0.536846 0.000000 0.000000 1.570796
    9 0.180832 0.000000 0.000000 0.000000 0.000000 0.000000
    10 0.180832 0.000000 0.000000 0.000000 0.000000 0.000000
    11 0.000009 -0.000006 -5.704314 -3.542083 0.234009 2.206414
    12 5.820531 0.000000 0.000000 0.000000 0.000000 -2.353417
    13 5.877041 0.000002 0.000000 -0.349577 -0.306341 -0.930284
    14 0.508590 1.638788 0.536845 0.000000 0.000000 1.570796
    15 0.169530 0.000000 0.000001 0.000000 0.000000 0.000000
    16 0.169530 0.000000 0.000000 0.000000 0.000000 0.000000
    17 0.508590 1.638790 -0.536845 0.000000 0.000000 1.570796
    18 0.180832 0.000000 0.000000 0.000000 0.000000 0.000000
    19 0.180832 0.000000 0.000000 0.000000 0.000000 0.000000
    20 0.403871 0.006248 0.000001 -0.000004 0.000002 2.216241
    21 13.047035 -0.000450 0.000000 0.000000 0.000000 0.000000
    22 -1.703965 0.198453 -4.655851 1.825203 -1.463112 -0.859496
    23 -0.974781 -2.069797 0.000000 1.020252 -0.337773 -1.514818
    24 -0.446564 -7.063139 0.000000 0.490160 0.130903 0.036631
    25 -1.848851 0.220504 4.241694 -0.557080 -1.523735 1.510599
    26 0.000000 0.000000 0.000000 0.104218 0.063788 0.078655
    27 0.953910 -2.089517 0.000000 1.184322 0.352185 1.020297
    28 0.863062 -7.358736 0.000000 0.048615 -0.367306 -0.249116
  time 3
    0 0.097232 2.436743 2.370898 3.124335 -1.258443 -4.714425
    1 0.000000 0.000000 0.000000 0.000000 -1.570796 -1.570795
    2 -0.000007 0.000008 5.704314 -2.838565 -0.297226 2.471146
    3 5.820531 0.000000 -0.000001 0.000000 0.000000 -2.086585
    4 5.877041 -0.000001 -0.000001 0.411739 0.092028 -0.463809
    5 0.508590 1.638791 -0.536845 0.000000 0.000000 1.570796
    6 0.169529 0.000000 0.000002 0.000000 0.000000 0.000000
    7 0.169530 0.000000 -0.000001 0.000000 0.000000 0.000000
    8 0.508590 1.638790 0.536846 0.000000 0.000000 1.570796
    9 0.180832 0.000000 0.000000 0.000000 0.000000 0.000000
    10 0.180832 0.000000 0.000000 0.000000 0.000000 0.000000
    11 0.000009 -0.000006 -5.704314 -3.507622 0.233985 2.236188
    12 5.820531 0.000000 0.000000 0.000000 0.000000 -2.304147
    13 5.877041 0.000002 0.000000 -0.322507 -0.291922 -0.960729
    14 0.508590 1.638788 0.536845 0.000000 0.000000 1.570796
    15 0.169530 0.000000 0.000001 0.000000 0.000000 0.000000
    16 0.169530 0.000000 0.000000 0.000000 0.000000 0.000000
    17 0.508590 1.638790 -0.536845 0.000000 0.000000 1.570796
    18 0.180832 0.000000 0.000000 0.000000 0.000000 0.000000
    19 0.180832 0.000000 0.000000 0.000000 0.000000 0.000000
    20 0.403871 0.006248 0.000001 -0.000004 0.000002 2.216241
    21 13.047035 -0.000450 0.000000 0.000000 0.000000 0.000000
    22 -1.703965 0.198453 -4.655851 2.005739 -1.431400 -0.994075
    23 -0.974781 -2.069797 0.000000 1.070170 -0.314276 -1.551517
    24 -0.446564 -7.063139 0.000000 0.368194 0.189728 0.034530
    25 -1.848851 0.220504 4.241694 -0.548552 -1.528893 1.501148
    26 0.000000 0.000000 0.000000 0.090950 0.055371 0.063950
    27 0.953910 -2.089517 0.000000 1.132248 0.381981 0.928160
    28 0.863062 -7.358736 0.000000 0.169285 -0.246532 -0.321050
  time 4
    0 0.097232 2.436743 2.370898 -3.057032 -1.224032 -4.783006
    1 0.000000 0.000000 0.000000 0.000000 -1.570796 -1.570795
    2 -0.000007 0.000008 5.704314 -2.828357 -0.284073 2.431650
    3 5.820531 0.000000 -0.000001 0.000000 0.000000 -2.056869
    4 5.877041 -0.000001 -0.000001 0.410183 0.091710 -0.533834
    5 0.508590 1.638791 -0.536845 0.000000 0.000000 1.570796
    6 0.169529 0.000000 0.000002 0.000000 0.000000 0.000000
    7 0.169530 0.000000 -0.000001 0.000000 0.000000 0.000000
    8 0.508590 1.638790 0.536846 0.000000 0.000000 1.570796
    9 0.180832 0.000000 0.000000 0.000000 0.000000 0.000000
    10 0.180832 0.000000 0.000000 0.000000 0.000000 0.000000
    11 0.000009 -0.000006 -5.704314 -3.494952 0.233997 2.248209
    12 5.820531 0.000000 0.000000 0.000000 0.000000 -2.283889
    13 5.877041 0.000002 0.000000 -0.312807 -0.286674 -0.972889
    14 0.508590 1.638788 0.536845 0.000000 0.000000 1.570796
    15 0.169530 0.000000 0.000001 0.000000 0.000000 0.000000
    16 0.169530 0.000000 0.000000 0.000000 0.000000 0.000000
    17 0.508590 1.638790 -0.536845 0.000000 0.000000 1.570796
    18 0.180832 0.000000 0.000000 0.000000 0.000000 0.000000
    19 0.180832 0.000000 0.000000 0.000000 0.000000 0.000000
    20 0.403871 0.006248 0.000001 -0.000004 0.000002 2.216241
    21 13.047035 -0.000450 0.000000 0.000000 0.000000 0.000000
    22 -1.703965 0.198453 -4.655851 2.125777 -1.417153 -1.082327
    23 -0.974781 -2.069797 0.000000 1.121590 -0.295214 -1.578150
    24 -0.446564 -7.063139 0.000000 0.328333 0.223031 0.029648
    25 -1.848851 0.220504 4.241694 -0.535425 -1.540964 1.482821
    26 0.000000 0.000000 0.000000 0.063487 0.038127 0.037620
    27 0.953910 -2.089517 0.000000 1.143631 0.379026 0.936661
    28 0.863062 -7.358736 0.000000 0.349049 -0.015925 -0.408792
  time 5
    0 0.097232 2.436743 2.370898 -2.989249 -1.196187 -4.825574
    1 0.000000 0.000000 0.000000 0.000000 -1.570796 -1.570795
    2 -0.000007 0.000008 5.704314 -2.841043 -0.272546 2.421809
    3 5.820531 0.000000 -0.000001 0.000000 0.000000 -2.030425
    4 5.877041 -0.000001 -0.000001 0.392761 0.092786 -0.574387
    5 0.508590 1.638791 -0.536845 0.000000 0.000000 1.570796
    6 0.169529 0.000000 0.000002 0.000000 0.000000 0.000000
    7 0.169530 0.000000 -0.000001 0.000000 0.000000 0.000000
    8 0.508590 1.638790 0.536846 0.000000 0.000000 1.570796
    9 0.180832 0.000000 0.000000 0.000000 0.000000 0.000000
    10 0.180832 0.000000 0.000000 0.000000 0.000000 0.000000
    11 0.000009 -0.000006 -5.704314 -3.540911 0.235424 2.212425
    12 5.820531 0.000000 0.000000 0.000000 0.000000 -2.341723
    13 5.877041 0.000002 0.000000 -0.349944 -0.305417 -0.935946
    14 0.508590 1.638788 0.536845 0.000000 0.000000 1.570796
    15 0.169530 0.000000 0.000001 0.000000 0.000000 0.000000
    16 0.169530 0.000000 0.000000 0.000000 0.000000 0.000000
    17 0.508590 1.638790 -0.536845 0.000000 0.000000 1.570796
    18 0.180832 0.000000 0.000000 0.000000 0.000000 0.000000
    19 0.180832 0.000000 0.000000 0.000000 0.000000 0.000000
    20 0.403871 0.006248 0.000001 -0.000004 0.000002 2.216241
    21 13.047035 -0.000450 0.000000 0.000000 0.000000 0.000000
    22 -1.703965 0.198453 -4.655851 2.060197 -1.436835 -1.044614
    23 -0.974781 -2.069797 0.000000 1.086177 -0.305971 -1.568133
    24 -0.446564 -7.063139 0.000000 0.442110 0.200388 0.031748
    25 -1.848851 0.220504 4.241694 -0.532167 -1.546495 1.476139
    26 0.000000 0.000000 0.000000 0.055212 0.032902 0.027289
    27 0.953910 -2.089517 0.000000 1.147251 0.392305 0.915362
    28 0.863062 -7.358736 0.000000 0.376508 0.062942 -0.432027
  time 6
    0 0.097232 2.436743 2.370898 -2.943901 -1.175291 -4.853101
    1 0.000000 0.000000 0.000000 0.000000 -1.570796 -1.570795
    2 -0.000007 0.000008 5.704314 -2.902964 -0.256363 2.460645
    3 5.820531 0.000000 -0.000001 0.000000 0.000000 -2.014548
    4 5.877041 -0.000001 -0.000001 0.334972 0.098008 -0.563797
    5 0.508590 1.638791 -0.536845 0.000000 0.000000 1.570796
    6 0.169529 0.000000 0.000002 0.000000 0.000000 0.000000
    7 0.169530 0.000000 -0.000001 0.000000 0.000000 0.000000
    8 0.508590 1.638790 0.536846 0.000000 0.000000 1.570796
    9 0.180832 0.000000 0.000000 0.000000 0.000000 0.000000
    10 0.180832 0.000000 0.000000 0.000000 0.000000 0.000000
    11 0.000009 -0.000006 -5.704314 -3.624373 0.233482 2.146070
    12 5.820531 0.000000 0.000000 0.000000 0.000000 -2.449402
    13 5.877041 0.000002 0.000000 -0.416602 -0.341439 -0.866331
    14 0.508590 1.638788 0.536845 0.000000 0.000000 1.570796
    15 0.169530 0.000000 0.000001 0.000000 0.000000 0.000000
    16 0.169530 0.000000 0.000000 0.000000 0.000000 0.000000
    17 0.508590 1.638790 -0.536845 0.000000 0.000000 1.570796
    18 0.180832 0.000000 0.000000 0.000000 0.000000 0.000000
    19 0.180832 0.000000 0.000000 0.000000 0.000000 0.000000
    20 0.403871 0.006248 0.000001 -0.000004 0.000002 2.216241
    21 13.047035 -0.000450 0.000000 0.000000 0.000000 0.000000
    22 -1.703965 0.198453 -4.655851 1.903822 -1.467775 -0.933677
    23 -0.974781 -2.069797 0.000000 1.029659 -0.324899 -1.545449
    24 -0.446564 -7.063139 0.000000 0.606363 0.157593 0.030358
    25 -1.848851 0.220504 4.241694 -0.534180 -1.548967 1.476139
    26 0.000000 0.000000 0.000000 0.053215 0.031725 0.023646
    27 0.953910 -2.089517 0.000000 1.132248 0.397061 0.899762
    28 0.863062 -7.358736 0.000000 0.394118 0.095484 -0.442292
  time 7
    0 0.097232 2.436743 2.370898 -2.923384 -1.165754 -4.867007
    1 0.000000 0.000000 0.000000 0.000000 -1.570796 -1.570795
    2 -0.000007 0.000008 5.704314 -3.007029 -0.229171 2.539835
    3 5.820531 0.000000 -0.000001 0.000000 0.000000 -2.006448
    4 5.877041 -0.000001 -0.000001 0.241094 0.111484 -0.511176
    5 0.508590 1.638791 -0.536845 0.000000 0.000000 1.570796
    6 0.169529 0.000000 0.000002 0.000000 0.000000 0.000000
    7 0.169530 0.000000 -0.000001 0.000000 0.000000 0.000000
    8 0.508590 1.638790 0.536846 0.000000 0.000000 1.570796
    9 0.180832 0.000000 0.000000 0.000000 0.000000 0.000000
    10 0.180832 0.000000 0.000000 0.000000 0.000000 0.000000
    11 0.000009 -0.000006 -5.704314 -3.660546 0.231229 2.118167
    12 5.820531 0.000000 0.000000 0.000000 0.000000 -2.494647
    13 5.877041 0.000002 0.000000 -0.445599 -0.357706 -0.836258
    14 0.508590 1.638788 0.536845 0.000000 0.000000 1.570796
    15 0.169530 0.000000 0.000001 0.000000 0.000000 0.000000
    16 0.169530 0.000000 0.000000 0.000000 0.000000 0.000000
    17 0.508590 1.638790 -0.536845 0.000000 0.000000 1.570796
    18 0.180832 0.000000 0.000000 0.000000 0.000000 0.000000
    19 0.180832 0.000000 0.000000 0.000000 0.000000 0.000000
    20 0.403871 0.006248 0.000001 -0.000004 0.000002 2.216241
    21 13.047035 -0.000450 0.000000 0.000000 0.000000 0.000000
    22 -1.703965 0.198453 -4.655851 1.763842 -1.491450 -0.822741
    23 -0.974781 -2.069797 0.000000 1.003613 -0.336973 -1.528255
    24 -0.446564 -7.063139 0.000000 0.723173 0.123330 0.024618
    25 -1.848851 0.220504 4.241694 -0.535617 -1.541735 1.482439
    26 0.000000 0.000000 0.000000 0.060562 0.035434 0.028391
    27 0.953910 -2.089517 0.000000 1.085320 0.380767 0.904651
    28 0.863062 -7.358736 0.000000 0.469719 0.128753 -0.446642
  time 8
    0 0.097232 2.436743 2.370898 -2.942271 -1.177831 -4.861615
    1 0.000000 0.000000 0.000000 0.000000 -1.570796 -1.570795
    2 -0.000007 0.000008 5.704314 -3.102253 -0.203186 2.631113
    3 5.820531 0.000000 -0.000001 0.000000 0.000000 -1.989767
    4 5.877041 -0.000001 -0.000001 0.160283 0.131487 -0.451003
    5 0.508590 1.638791 -0.536845 0.000000 0.000000 1.570796
    6 0.169529 0.000000 0.000002 0.000000 0.000000 0.000000
    7 0.169530 0.000000 -0.000001 0.000000 0.000000 0.000000
    8 0.508590 1.638790 0.536846 0.000000 0.000000 1.570796
    9 0.180832 0.000000 0.000000 0.000000 0.000000 0.000000
    10 0.180832 0.000000 0.000000 0.000000 0.000000 0.000000
    11 0.000009 -0.000006 -5.704314 -3.633923 0.236682 2.146309
    12 5.820531 0.000000 0.000000 0.000000 0.000000 -2.458924
    13 5.877041 0.000002 0.000000 -0.426185 -0.345763 -0.851851
    14 0.508590 1.638788 0.536845 0.000000 0.000000 1.570796
    15 0.169530 0.000000 0.000001 0.000000 0.000000 0.000000
    16 0.169530 0.000000 0.000000 0.000000 0.000000 0.000000
    17 0.508590 1.638790 -0.536845 0.000000 0.000000 1.570796
    18 0.180832 0.000000 0.000000 0.000000 0.000000 0.000000
    19 0.180832 0.000000 0.000000 0.000000 0.000000 0.000000
    20 0.403871 0.006248 0.000001 -0.000004 0.000002 2.216241
    21 13.047035 -0.000450 0.000000 0.000000 0.000000 0.000000
    22 -1.703965 0.198453 -4.655851 1.836037 -1.514198 -0.893955
    23 -0.974781 -2.069797 0.000000 1.051357 -0.336689 -1.524884
    24 -0.446564 -7.063139 0.000000 0.764984 0.102477 0.020742
    25 -1.848851 0.220504 4.241694 -0.540024 -1.535221 1.487975
    26 0.000000 0.000000 0.000000 0.062845 0.037699 0.036673
    27 0.953910 -2.089517 0.000000 1.024828 0.358764 0.914615
    28 0.863062 -7.358736 0.000000 0.567736 0.166089 -0.446934
  time 9
    0 0.097232 2.436743 2.370898 -2.994618 -1.206300 -4.837399
    1 0.000000 0.000000 0.000000 0.000000 -1.570796 -1.570795
    2 -0.000007 0.000008 5.704314 -3.144909 -0.200058 2.707067
    3 5.820531 0.000000 -0.000001 0.000000 0.000000 -1.950986
    4 5.877041 -0.000001 -0.000001 0.136658 0.146640 -0.418823
    5 0.508590 1.638791 -0.536845 0.000000 0.000000 1.570796
    6 0.169529 0.000000 0.000002 0.000000 0.000000 0.000000
    7 0.169530 0.000000 -0.000001 0.000000 0.000000 0.000000
    8 0.508590 1.638790 0.536846 0.000000 0.000000 1.570796
    9 0.180832 0.000000 0.000000 0.000000 0.000000 0.000000
    10 0.180832 0.000000 0.000000 0.000000 0.000000 0.000000
    11 0.000009 -0.000006 -5.704314 -3.582785 0.243369 2.196742
    12 5.820531 0.000000 0.000000 0.000000 0.000000 -2.392463
    13 5.877041 0.000002 0.000000 -0.387815 -0.323916 -0.884153
    14 0.508590 1.638788 0.536845 0.000000 0.000000 1.570796
    15 0.169530 0.000000 0.000001 0.000000 0.000000 0.000000
    16 0.169530 0.000000 0.000000 0.000000 0.000000 0.000000
    17 0.508590 1.638790 -0.536845 0.000000 0.000000 1.570796
    18 0.180832 0.000000 0.000000 0.000000 0.000000 0.000000
    19 0.180832 0.000000 0.000000 0.000000 0.000000 0.000000
    20 0.403871 0.006248 0.000001 -0.000004 0.000002 2.216241
    21 13.047035 -0.000450 0.000000 0.000000 0.000000 0.000000
    22 -1.703965 0.198453 -4.655851 2.060964 -1.538620 -1.116403
    23 -0.974781 -2.069797 0.000000 1.109496 -0.335389 -1.522813
    24 -0.446564 -7.063139 0.000000 0.811777 0.081442 0.015327
    25 -1.848851 0.220504 4.241694 -0.543378 -1.528042 1.492271
    26 0.000000 0.000000 0.000000 0.045154 0.032135 0.044403
    27 0.953910 -2.089517 0.000000 0.961196 0.335263 0.928471
    28 0.863062 -7.358736 0.000000 0.670599 0.200051 -0.442637
  time 10
    0 0.097232 2.436743 2.370898 -3.076302 -1.243299 -4.792655
    1 0.000000 0.000000 0.000000 0.000000 -1.570796 -1.570795
    2 -0.000007 0.000008 5.704314 -3.132565 -0.234886 2.780842
    3 5.820531 0.000000 -0.000001 0.000000 0.000000 -1.870635
    4 5.877041 -0.000001 -0.000001 0.181769 0.149903 -0.420383
    5 0.508590 1.638791 -0.536845 0.000000 0.000000 1.570796
    6 0.169529 0.000000 0.000002 0.000000 0.000000 0.000000
    7 0.169530 0.000000 -0.000001 0.000000 0.000000 0.000000
    8 0.508590 1.638790 0.536846 0.000000 0.000000 1.570796
    9 0.180832 0.000000 0.000000 0.000000 0.000000 0.000000
    10 0.180832 0.000000 0.000000 0.000000 0.000000 0.000000
    11 0.000009 -0.000006 -5.704314 -3.521923 0.244352 2.249443
    12 5.820531 0.000000 0.000000 0.000000 0.000000 -2.310537
    13 5.877041 0.000002 0.000000 -0.340047 -0.298809 -0.933440
    14 0.508590 1.638788 0.536845 0.000000 0.000000 1.570796
    15 0.169530 0.000000 0.000001 0.000000 0.000000 0.000000
    16 0.169530 0.000000 0.000000 0.000000 0.000000 0.000000
    17 0.508590 1.638790 -0.536845 0.000000 0.000000 1.570796
    18 0.180832 0.000000 0.000000 0.000000 0.000000 0.000000
    19 0.180832 0.000000 0.000000 0.000000 0.000000 0.000000
    20 0.403871 0.006248 0.000001 -0.000004 0.000002 2.216241
    21 13.047035 -0.000450 0.000000 0.000000 0.000000 0.000000
    22 -1.703965 0.198453 -4.655851 2.933441 -1.553407 -1.983701
    23 -0.974781 -2.069797 0.000000 1.170322 -0.333321 -1.521368
    24 -0.446564 -7.063139 0.000000 0.846092 0.062378 0.010297
    25 -1.848851 0.220504 4.241694 -0.545965 -1.521395 1.495516
    26 0.000000 0.000000 0.000000 0.020116 0.023950 0.053032
    27 0.953910 -2.089517 0.000000 0.904586 0.314111 0.944134
    28 0.863062 -7.358736 0.000000 0.759949 0.223386 -0.435767
  time 11
    0 0.097232 2.436743 2.370898 3.096724 -1.282071 -4.723601
    1 0.000000 0.000000 0.000000 0.000000 -1.570796 -1.570795
    2 -0.000007 0.000008 5.704314 -3.093482 -0.297669 2.862014
    3 5.820531 0.000000 -0.000001 0.000000 0.000000 -1.760461
    4 5.877041 -0.000001 -0.000001 0.267597 0.140483 -0.437868
    5 0.508590 1.638791 -0.536845 0.000000 0.000000 1.570796
    6 0.169529 0.000000 0.000002 0.000000 0.000000 0.000000
    7 0.169530 0.000000 -0.000001 0.000000 0.000000 0.000000
    8 0.508590 1.638790 0.536846 0.000000 0.000000 1.570796
    9 0.180832 0.000000 0.000000 0.000000 0.000000 0.000000
    10 0.180832 0.000000 0.000000 0.000000 0.000000 0.000000
    11 0.000009 -0.000006 -5.704314 -3.462549 0.234549 2.284471
    12 5.820531 0.000000 0.000000 0.000000 0.000000 -2.221070
    13 5.877041 0.000002 0.000000 -0.289132 -0.273144 -1.008624
    14 0.508590 1.638788 0.536845 0.000000 0.000000 1.570796
    15 0.169530 0.000000 0.000001 0.000000 0.000000 0.000000
    16 0.169530 0.000000 0.000000 0.000000 0.000000 0.000000
    17 0.508590 1.638790 -0.536845 0.000000 0.000000 1.570796
    18 0.180832 0.000000 0.000000 0.000000 0.000000 0.000000
    19 0.180832 0.000000 0.000000 0.000000 0.000000 0.000000
    20 0.403871 0.006248 0.000001 -0.000004 0.000002 2.216241
    21 13.047035 -0.000450 0.000000 0.000000 0.000000 0.000000
    22 -1.703965 0.198453 -4.655851 -2.516857 -1.544468 3.476229
    23 -0.974781 -2.069797 0.000000 1.226050 -0.330802 -1.520164
    24 -0.446564 -7.063139 0.000000 0.850728 0.047231 0.008196
    25 -1.848851 0.220504 4.241694 -0.547786 -1.516423 1.497616
    26 0.000000 0.000000 0.000000 -0.001427 0.017155 0.060522
    27 0.953910 -2.089517 0.000000 0.865072 0.298606 0.958582
    28 0.863062 -7.358736 0.000000 0.816837 0.229629 -0.430542
  time 12
    0 0.097232 2.436743 2.370898 2.969211 -1.315283 -4.635343
    1 0.000000 0.000000 0.000000 0.000000 -1.570796 -1.570795
    2 -0.000007 0.000008 5.704314 -3.047322 -0.368507 2.930835
    3 5.820531 0.000000 -0.000001 0.000000 0.000000 -1.656241
    4 5.877041 -0.000001 -0.000001 0.361319 0.119845 -0.459869
    5 0.508590 1.638791 -0.536845 0.000000 0.000000 1.570796
    6 0.169529 0.000000 0.000002 0.000000 0.000000 0.000000
    7 0.169530 0.000000 -0.000001 0.000000 0.000000 0.000000
    8 0.508590 1.638790 0.536846 0.000000 0.000000 1.570796
    9 0.180832 0.000000 0.000000 0.000000 0.000000 0.000000
    10 0.180832 0.000000 0.000000 0.000000 0.000000 0.000000
    11 0.000009 -0.000006 -5.704314 -3.397775 0.200992 2.274839
    12 5.820531 0.000000 0.000000 0.000000 0.000000 -2.096456
    13 5.877041 0.000002 0.000000 -0.223667 -0.236756 -1.168368
    14 0.508590 1.638788 0.536845 0.000000 0.000000 1.570796
    15 0.169530 0.000000 0.000001 0.000000 0.000000 0.000000
    16 0.169530 0.000000 0.000000 0.000000 0.000000 0.000000
    17 0.508590 1.638790 -0.536845 0.000000 0.000000 1.570796
    18 0.180832 0.000000 0.000000 0.000000 0.000000 0.000000
    19 0.180832 0.000000 0.000000 0.000000 0.000000 0.000000
    20 0.403871 0.006248 0.000001 -0.000004 0.000002 2.216241
    21 13.047035 -0.000450 0.000000 0.000000 0.000000 0.000000
    22 -1.703965 0.198453 -4.655851 -2.444566 -1.532926 3.419468
    23 -0.974781 -2.069797 0.000000 1.268893 -0.328201 -1.518430
    24 -0.446564 -7.063139 0.000000 0.808181 0.037998 0.011895
    25 -1.848851 0.220504 4.241694 -0.549127 -1.514296 1.499048
    26 0.000000 0.000000 0.000000 -0.008774 0.015443 0.064669
    27 0.953910 -2.089517 0.000000 0.852904 0.291582 0.968608
    28 0.863062 -7.358736 0.000000 0.822195 0.212853 -0.430701
  time 13
    0 0.097232 2.436743 2.370898 2.868736 -1.333639 -4.563735
    1 0.000000 0.000000 0.000000 0.000000 -1.570796 -1.570795
    2 -0.000007 0.000008 5.704314 -3.005420 -0.428679 2.973766
    3 5.820531 0.000000 -0.000001 0.000000 0.000000 -1.585867
    4 5.877041 -0.000001 -0.000001 0.438786 0.096349 -0.475877
    5 0.508590 1.638791 -0.536845 0.000000 0.000000 1.570796
    6 0.169529 0.000000 0.000002 0.000000 0.000000 0.000000
    7 0.169530 0.000000 -0.000001 0.000000 0.000000 0.000000
    8 0.508590 1.638790 0.536846 0.000000 0.000000 1.570796
    9 0.180832 0.000000 0.000000 0.000000 0.000000 0.000000
    10 0.180832 0.000000 0.000000 0.000000 0.000000 0.000000
    11 0.000009 -0.000006 -5.704314 -3.327948 0.154827 2.233681
    12 5.820531 0.000000 0.000000 0.000000 0.000000 -1.948580
    13 5.877041 0.000002 0.000000 -0.151503 -0.189000 -1.381297
    14 0.508590 1.638788 0.536845 0.000000 0.000000 1.570796
    15 0.169530 0.000000 0.000001 0.000000 0.000000 0.000000
    16 0.169530 0.000000 0.000000 0.000000 0.000000 0.000000
    17 0.508590 1.638790 -0.536845 0.000000 0.000000 1.570796
    18 0.180832 0.000000 0.000000 0.000000 0.000000 0.000000
    19 0.180832 0.000000 0.000000 0.000000 0.000000 0.000000
    20 0.403871 0.006248 0.000001 -0.000004 0.000002 2.216241
    21 13.047035 -0.000450 0.000000 0.000000 0.000000 0.000000
    22 -1.703965 0.198453 -4.655851 -2.915704 -1.523884 3.920646
    23 -0.974781 -2.069797 0.000000 1.292607 -0.323798 -1.515781
    24 -0.446564 -7.063139 0.000000 0.625037 0.044171 0.031956
    25 -1.848851 0.220504 4.241694 -0.550468 -1.519800 1.499144
    26 0.000000 0.000000 0.000000 0.011485 0.023308 0.061565
    27 0.953910 -2.089517 0.000000 0.921595 0.306723 0.968266
    28 0.863062 -7.358736 0.000000 0.548550 0.052725 -0.436430
  time 14
    0 0.097232 2.436743 2.370898 2.846685 -1.332010 -4.557586
    1 0.000000 0.000000 0.000000 0.000000 -1.570796 -1.570795
    2 -0.000007 0.000008 5.704314 -2.974837 -0.461685 2.981560
    3 5.820531 0.000000 -0.000001 0.000000 0.000000 -1.570741
    4 5.877041 -0.000001 -0.000001 0.482672 0.080985 -0.475056
    5 0.508590 1.638791 -0.536845 0.000000 0.000000 1.570796
    6 0.169529 0.000000 0.000002 0.000000 0.000000 0.000000
    7 0.169530 0.000000 -0.000001 0.000000 0.000000 0.000000
    8 0.508590 1.638790 0.536846 0.000000 0.000000 1.570796
    9 0.180832 0.000000 0.000000 0.000000 0.000000 0.000000
    10 0.180832 0.000000 0.000000 0.000000 0.000000 0.000000
    11 0.000009 -0.000006 -5.704314 -3.294595 0.132524 2.209201
    12 5.820531 0.000000 0.000000 0.000000 0.000000 -1.877390
    13 5.877041 0.000002 0.000000 -0.118587 -0.163997 -1.485812
    14 0.508590 1.638788 0.536845 0.000000 0.000000 1.570796
    15 0.169530 0.000000 0.000001 0.000000 0.000000 0.000000
    16 0.169530 0.000000 0.000000 0.000000 0.000000 0.000000
    17 0.508590 1.638790 -0.536845 0.000000 0.000000 1.570796
    18 0.180832 0.000000 0.000000 0.000000 0.000000 0.000000
    19 0.180832 0.000000 0.000000 0.000000 0.000000 0.000000
    20 0.403871 0.006248 0.000001 -0.000004 0.000002 2.216241
    21 13.047035 -0.000450 0.000000 0.000000 0.000000 0.000000
    22 -1.703965 0.198453 -4.655851 2.840633 -1.495546 -1.792074
    23 -0.974781 -2.069797 0.000000 1.295018 -0.318245 -1.513277
    24 -0.446564 -7.063139 0.000000 0.343281 0.071015 0.058201
    25 -1.848851 0.220504 4.241694 -0.551714 -1.531100 1.498476
    26 0.000000 0.000000 0.000000 0.050647 0.037948 0.054039
    27 0.953910 -2.089517 0.000000 1.059806 0.341397 0.962723
    28 0.863062 -7.358736 0.000000 0.184334 -0.138560 -0.380411
  time 15
    0 0.097232 2.436743 2.370898 2.888486 -1.314037 -4.606303
    1 0.000000 0.000000 0.000000 0.000000 -1.570796 -1.570795
    2 -0.000007 0.000008 5.704314 -2.952099 -0.462547 2.945696
    3 5.820531 0.000000 -0.000001 0.000000 0.000000 -1.624379
    4 5.877041 -0.000001 -0.000001 0.491675 0.078040 -0.451988
    5 0.508590 1.638791 -0.536845 0.000000 0.000000 1.570796
    6 0.169529 0.000000 0.000002 0.000000 0.000000 0.000000
    7 0.169530 0.000000 -0.000001 0.000000 0.000000 0.000000
    8 0.508590 1.638790 0.536846 0.000000 0.000000 1.570796
    9 0.180832 0.000000 0.000000 0.000000 0.000000 0.000000
    10 0.180832 0.000000 0.000000 0.000000 0.000000 0.000000
    11 0.000009 -0.000006 -5.704314 -3.323308 0.152802 2.235034
    12 5.820531 0.000000 0.000000 0.000000 0.000000 -1.940528
    13 5.877041 0.000002 0.000000 -0.147518 -0.185984 -1.389187
    14 0.508590 1.638788 0.536845 0.000000 0.000000 1.570796
    15 0.169530 0.000000 0.000001 0.000000 0.000000 0.000000
    16 0.169530 0.000000 0.000000 0.000000 0.000000 0.000000
    17 0.508590 1.638790 -0.536845 0.000000 0.000000 1.570796
    18 0.180832 0.000000 0.000000 0.000000 0.000000 0.000000
    19 0.180832 0.000000 0.000000 0.000000 0.000000 0.000000
    20 0.403871 0.006248 0.000001 -0.000004 0.000002 2.216241
    21 13.047035 -0.000450 0.000000 0.000000 0.000000 0.000000
    22 -1.703965 0.198453 -4.655851 2.639483 -1.457445 -1.546271
    23 -0.974781 -2.069797 0.000000 1.274742 -0.315410 -1.513036
    24 -0.446564 -7.063139 0.000000 0.147789 0.100998 0.069415
    25 -1.848851 0.220504 4.241694 -0.552481 -1.539209 1.498666
    26 0.000000 0.000000 0.000000 0.086456 0.051929 0.049221
    27 0.953910 -2.089517 0.000000 1.178609 0.372508 0.960294
    28 0.863062 -7.358736 0.000000 0.212463 -0.110400 -0.390013
  time 16
    0 0.097232 2.436743 2.370898 2.957227 -1.286911 -4.672046
    1 0.000000 0.000000 0.000000 0.000000 -1.570796 -1.570795
    2 -0.000007 0.000008 5.704314 -2.931240 -0.442891 2.878064
    3 5.820531 0.000000 -0.000001 0.000000 0.000000 -1.726025
    4 5.877041 -0.000001 -0.000001 0.480961 0.081885 -0.414883
    5 0.508590 1.638791 -0.536845 0.000000 0.000000 1.570796
    6 0.169529 0.000000 0.000002 0.000000 0.000000 0.000000
    7 0.169530 0.000000 -0.000001 0.000000 0.000000 0.000000
    8 0.508590 1.638790 0.536846 0.000000 0.000000 1.570796
    9 0.180832 0.000000 0.000000 0.000000 0.000000 0.000000
    10 0.180832 0.000000 0.000000 0.000000 0.000000 0.000000
    11 0.000009 -0.000006 -5.704314 -3.387290 0.196486 2.278182
    12 5.820531 0.000000 0.000000 0.000000 0.000000 -2.078371
    13 5.877041 0.000002 0.000000 -0.214334 -0.230392 -1.186560
    14 0.508590 1.638788 0.536845 0.000000 0.000000 1.570796
    15 0.169530 0.000000 0.000001 0.000000 0.000000 0.000000
    16 0.169530 0.000000 0.000000 0.000000 0.000000 0.000000
    17 0.508590 1.638790 -0.536845 0.000000 0.000000 1.570796
    18 0.180832 0.000000 0.000000 0.000000 0.000000 0.000000
    19 0.180832 0.000000 0.000000 0.000000 0.000000 0.000000
    20 0.403871 0.006248 0.000001 -0.000004 0.000002 2.216241
    21 13.047035 -0.000450 0.000000 0.000000 0.000000 0.000000
    22 -1.703965 0.198453 -4.655851 2.558372 -1.421121 -1.419828
    23 -0.974781 -2.069797 0.000000 1.139929 -0.328251 -1.523872
    24 -0.446564 -7.063139 0.000000 0.444840 0.114278 0.043110
    25 -1.848851 0.220504 4.241694 -0.549319 -1.528574 1.502485
    26 0.000000 0.000000 0.000000 0.097798 0.058456 0.057430
    27 0.953910 -2.089517 0.000000 1.163126 0.375868 0.950392
    28 0.863062 -7.358736 0.000000 0.283218 -0.029200 -0.415158
  time 17
    0 0.097232 2.436743 2.370898 3.010821 -1.266351 -4.712344
    1 0.000000 0.000000 0.000000 0.000000 -1.570796 -1.570795
    2 -0.000007 0.000008 5.704314 -2.915223 -0.411709 2.797288
    3 5.820531 0.000000 -0.000001 0.000000 0.000000 -1.849609
    4 5.877041 -0.000001 -0.000001 0.459008 0.087883 -0.371620
    5 0.508590 1.638791 -0.536845 0.000000 0.000000 1.570796
    6 0.169529 0.000000 0.000002 0.000000 0.000000 0.000000
    7 0.169530 0.000000 -0.000001 0.000000 0.000000 0.000000
    8 0.508590 1.638790 0.536846 0.000000 0.000000 1.570796
    9 0.180832 0.000000 0.000000 0.000000 0.000000 0.000000
    10 0.180832 0.000000 0.000000 0.000000 0.000000 0.000000
    11 0.000009 -0.000006 -5.704314 -3.450164 0.232128 2.294423
    12 5.820531 0.000000 0.000000 0.000000 0.000000 -2.205925
    13 5.877041 0.000002 0.000000 -0.279209 -0.267024 -1.018092
    14 0.508590 1.638788 0.536845 0.000000 0.000000 1.570796
    15 0.169530 0.000000 0.000001 0.000000 0.000000 0.000000
    16 0.169530 0.000000 0.000000 0.000000 0.000000 0.000000
    17 0.508590 1.638790 -0.536845 0.000000 0.000000 1.570796
    18 0.180832 0.000000 0.000000 0.000000 0.000000 0.000000
    19 0.180832 0.000000 0.000000 0.000000 0.000000 0.000000
    20 0.403871 0.006248 0.000001 -0.000004 0.000002 2.216241
    21 13.047035 -0.000450 0.000000 0.000000 0.000000 0.000000
    22 -1.703965 0.198453 -4.655851 2.526349 -1.450051 -1.430165
    23 -0.974781 -2.069797 0.000000 1.123171 -0.336539 -1.515396
    24 -0.446564 -7.063139 0.000000 0.572958 0.089716 0.034767
    25 -1.848851 0.220504 4.241694 -0.548169 -1.525330 1.503535
    26 0.000000 0.000000 0.000000 0.077040 0.046704 0.045086
    27 0.953910 -2.089517 0.000000 1.126447 0.385301 0.922898
    28 0.863062 -7.358736 0.000000 0.357440 0.060671 -0.436059
  time 18
    0 0.097232 2.436743 2.370898 3.053868 -1.260983 -4.720479
    1 0.000000 0.000000 0.000000 0.000000 -1.570796 -1.570795
    2 -0.000007 0.000008 5.704314 -2.904829 -0.376807 2.716908
    3 5.820531 0.000000 -0.000001 0.000000 0.000000 -1.975070
    4 5.877041 -0.000001 -0.000001 0.432797 0.092892 -0.328686
    5 0.508590 1.638791 -0.536845 0.000000 0.000000 1.570796
    6 0.169529 0.000000 0.000002 0.000000 0.000000 0.000000
    7 0.169530 0.000000 -0.000001 0.000000 0.000000 0.000000
    8 0.508590 1.638790 0.536846 0.000000 0.000000 1.570796
    9 0.180832 0.000000 0.000000 0.000000 0.000000 0.000000
    10 0.180832 0.000000 0.000000 0.000000 0.000000 0.000000
    11 0.000009 -0.000006 -5.704314 -3.507337 0.241991 2.258121
    12 5.820531 0.000000 0.000000 0.000000 0.000000 -2.300057
    13 5.877041 0.000002 0.000000 -0.327607 -0.292323 -0.940587
    14 0.508590 1.638788 0.536845 0.000000 0.000000 1.570796
    15 0.169530 0.000000 0.000001 0.000000 0.000000 0.000000
    16 0.169530 0.000000 0.000000 0.000000 0.000000 0.000000
    17 0.508590 1.638790 -0.536845 0.000000 0.000000 1.570796
    18 0.180832 0.000000 0.000000 0.000000 0.000000 0.000000
    19 0.180832 0.000000 0.000000 0.000000 0.000000 0.000000
    20 0.403871 0.006248 0.000001 -0.000004 0.000002 2.216241
    21 13.047035 -0.000450 0.000000 0.000000 0.000000 0.000000
    22 -1.703965 0.198453 -4.655851 2.495956 -1.488410 -1.454286
    23 -0.974781 -2.069797 0.000000 1.123013 -0.344077 -1.504271
    24 -0.446564 -7.063139 0.000000 0.677290 0.059966 0.025683
    25 -1.848851 0.220504 4.241694 -0.552576 -1.538492 1.499239
    26 0.000000 0.000000 0.000000 0.052002 0.032064 0.030201
    27 0.953910 -2.089517 0.000000 1.086323 0.394551 0.892382
    28 0.863062 -7.358736 0.000000 0.431268 0.152908 -0.450488
  time 19
    0 0.097232 2.436743 2.370898 3.104873 -1.263475 -4.716317
    1 0.000000 0.000000 0.000000 0.000000 -1.570796 -1.570795
    2 -0.000007 0.000008 5.704314 -2.899034 -0.345453 2.648153
    3 5.820531 0.000000 -0.000001 0.000000 0.000000 -2.084332
    4 5.877041 -0.000001 -0.000001 0.408919 0.095644 -0.291663
    5 0.508590 1.638791 -0.536845 0.000000 0.000000 1.570796
    6 0.169529 0.000000 0.000002 0.000000 0.000000 0.000000
    7 0.169530 0.000000 -0.000001 0.000000 0.000000 0.000000
    8 0.508590 1.638790 0.536846 0.000000 0.000000 1.570796
    9 0.180832 0.000000 0.000000 0.000000 0.000000 0.000000
    10 0.180832 0.000000 0.000000 0.000000 0.000000 0.000000
    11 0.000009 -0.000006 -5.704314 -3.564493 0.237844 2.197657
    12 5.820531 0.000000 0.000000 0.000000 0.000000 -2.383772
    13 5.877041 0.000002 0.000000 -0.369738 -0.316105 -0.900211
    14 0.508590 1.638788 0.536845 0.000000 0.000000 1.570796
    15 0.169530 0.000000 0.000001 0.000000 0.000000 0.000000
    16 0.169530 0.000000 0.000000 0.000000 0.000000 0.000000
    17 0.508590 1.638790 -0.536845 0.000000 0.000000 1.570796
    18 0.180832 0.000000 0.000000 0.000000 0.000000 0.000000
    19 0.180832 0.000000 0.000000 0.000000 0.000000 0.000000
    20 0.403871 0.006248 0.000001 -0.000004 0.000002 2.216241
    21 13.047035 -0.000450 0.000000 0.000000 0.000000 0.000000
    22 -1.703965 0.198453 -4.655851 2.470069 -1.530531 -1.487787
    23 -0.974781 -2.069797 0.000000 1.129455 -0.351415 -1.492086
    24 -0.446564 -7.063139 0.000000 0.772176 0.028660 0.014558
    25 -1.848851 0.220504 4.241694 -0.557942 -1.554657 1.493894
    26 0.000000 0.000000 0.000000 0.025395 0.015943 0.014597
    27 0.953910 -2.089517 0.000000 1.044497 0.402931 0.860435
    28 0.863062 -7.358736 0.000000 0.505451 0.246342 -0.458180
  time 20
    0 0.097232 2.436743 2.370898 -3.141593 -1.266351 -4.712344
    1 0.000000 0.000000 0.000000 0.000000 -1.570796 -1.570795
    2 -0.000007 0.000008 5.704314 -2.895204 -0.324935 2.602250
    3 5.820531 0.000000 -0.000001 0.000000 0.000000 -2.158246
    4 5.877041 -0.000001 -0.000001 0.394238 0.096279 -0.266297
    5 0.508590 1.638791 -0.536845 0.000000 0.000000 1.570796
    6 0.169529 0.000000 0.000002 0.000000 0.000000 0.000000
    7 0.169530 0.000000 -0.000001 0.000000 0.000000 0.000000
    8 0.508590 1.638790 0.536846 0.000000 0.000000 1.570796
    9 0.180832 0.000000 0.000000 0.000000 0.000000 0.000000
    10 0.180832 0.000000 0.000000 0.000000 0.000000 0.000000
    11 0.000009 -0.000006 -5.704314 -3.604165 0.231708 2.153235
    12 5.820531 0.000000 0.000000 0.000000 0.000000 -2.441287
    13 5.877041 0.000002 0.000000 -0.398132 -0.333523 -0.875149
    14 0.508590 1.638788 0.536845 0.000000 0.000000 1.570796
    15 0.169530 0.000000 0.000001 0.000000 0.000000 0.000000
    16 0.169530 0.000000 0.000000 0.000000 0.000000 0.000000
    17 0.508590 1.638790 -0.536845 0.000000 0.000000 1.570796
    18 0.180832 0.000000 0.000000 0.000000 0.000000 0.000000
    19 0.180832 0.000000 0.000000 0.000000 0.000000 0.000000
    20 0.403871 0.006248 0.000001 -0.000004 0.000002 2.216241
    21 13.047035 -0.000450 0.000000 0.000000 0.000000 0.000000
    22 -1.703965 0.198453 -4.655851 0.000000 -1.570796 0.925352
    23 -0.974781 -2.069797 0.000000 1.132459 -0.358920 -1.480479
    24 -0.446564 -7.063139 0.000000 0.872175 0.000000 0.000000
    25 -1.848851 0.220504 4.241694 0.000000 -1.570796 0.925352
    26 0.000000 0.000000 0.000000 0.000000 0.000000 0.000000
    27 0.953910 -2.089517 0.000000 1.002977 0.409915 0.828581
    28 0.863062 -7.358736 0.000000 0.580776 0.339840 -0.458737
end
