// Created by Crowbar 0.64
version 1
nodes
  0 "usp" -1
  1 "l_wrist" -1
  2 "l_thumb_low" 1
  3 "l_thumb_mid" 2
  4 "l_thumb_tip" 3
  5 "l_index_low" 1
  6 "l_index_mid" 5
  7 "l_index_tip" 6
  8 "l_middle_low" 1
  9 "l_middle_mid" 8
  10 "l_middle_tip" 9
  11 "l_ring_low" 1
  12 "l_ring_mid" 11
  13 "l_ring_tip" 12
  14 "l_pinky_low" 1
  15 "l_pinky_mid" 14
  16 "l_pinky_tip" 15
  17 "l_upperarm" -1
  18 "l_forearm" 17
  19 "r_wrist" -1
  20 "r_thumb_low" 19
  21 "r_thumb_mid" 20
  22 "r_thumb_tip" 21
  23 "r_index_low" 19
  24 "r_index_mid" 23
  25 "r_index_tip" 24
  26 "r_middle_low" 19
  27 "r_middle_mid" 26
  28 "r_middle_tip" 27
  29 "r_ring_low" 19
  30 "r_ring_mid" 29
  31 "r_ring_tip" 30
  32 "r_pinky_low" 19
  33 "r_pinky_mid" 32
  34 "r_pinky_tip" 33
  35 "r_upperarm" -1
  36 "r_forearm" 35
  37 "usp_trigger" 0
  38 "usp_slide" 0
  39 "usp_slidelock" 0
  40 "usp_mag" 0
  41 "usp_magbullet" 40
  42 "usp_hammer" 0
end
skeleton
  time 0
    0 -4.962506 -24.282984 -4.001693 1.659787 -0.017816 1.569160
    1 4.468750 -15.335938 -23.640625 3.127097 0.888547 -2.406905
    2 1.473658 0.639411 -1.295237 1.484387 0.609550 -0.278032
    3 1.832611 0.000000 0.000003 3.078968 0.033266 0.475430
    4 1.003334 0.000000 -0.000001 -3.047670 0.020771 -0.198654
    5 3.823887 -0.419600 -1.411513 0.224049 0.061468 -0.020536
    6 2.187963 -0.000001 0.000001 0.013236 -0.021689 0.651993
    7 1.100958 0.000001 0.000000 0.058882 -0.043655 0.725339
    8 3.987879 -0.577446 -0.474705 0.214171 0.012365 0.029143
    9 1.890094 -0.000003 0.000000 0.030984 -0.035537 0.705321
    10 1.310922 0.000004 0.000000 0.006864 0.004896 0.834415
    11 4.117973 -0.654523 0.453703 0.128291 -0.031254 0.113600
    12 1.655280 0.000006 0.000000 -0.115955 0.103602 0.577996
    13 0.869585 0.000002 0.000000 0.044313 -0.036762 0.644244
    14 4.150646 -0.581573 1.354871 -0.291710 0.053086 0.380008
    15 1.157246 0.000002 0.000000 -0.000092 0.012613 0.471361
    16 1.019838 -0.000004 0.000000 -1.463294 -0.038071 0.263701
    17 8.000000 -0.999512 -4.820313 -1.538821 1.251957 -1.628770
    18 12.695415 0.000001 -0.000001 0.009139 0.191458 -0.685683
    19 -5.953405 -18.689904 -6.798142 2.982058 0.026081 -1.561874
    20 1.474217 -0.497159 -1.376391 1.089630 0.328102 -0.675753
    21 1.832171 0.000001 -0.000004 -2.324280 0.374115 0.717029
    22 1.042036 0.000001 0.000003 2.968432 -0.151393 -0.128848
    23 3.823316 0.665600 -1.331303 0.076112 0.146271 0.028070
    24 2.152369 0.000003 0.000001 0.039674 -0.005412 -1.342861
    25 1.056623 0.000002 0.000000 -0.023067 -0.002043 -0.673959
    26 3.985126 0.882023 -0.368497 0.178948 0.082219 -0.721011
    27 1.830180 0.000000 0.000000 0.424906 -0.123438 -1.610381
    28 1.561354 -0.000002 0.000000 -0.209758 -0.268815 -0.807401
    29 4.116523 0.710978 0.552260 0.101439 0.123991 -1.270559
    30 1.752720 0.000000 0.000000 0.037089 0.004400 -1.113459
    31 0.869359 0.000000 0.000000 0.011430 -0.043588 -0.781455
    32 4.118823 0.330451 1.420007 0.213176 0.196286 -1.126503
    33 1.176320 0.000004 0.000000 -0.041439 -0.020895 -1.011083
    34 0.970201 -0.000002 0.000000 1.698386 0.021997 -0.763847
    35 -7.008362 -0.998731 -4.819733 -2.360861 0.858550 -1.860184
    36 12.706345 0.000001 0.000000 -0.225294 0.298041 -1.597325
    37 -0.282337 -1.133394 0.022445 0.000000 0.000000 0.000000
    38 -3.817837 0.392731 -0.017613 0.000000 0.000000 0.000000
    39 -1.015219 -0.450641 0.659471 0.000000 0.000000 0.072209
    40 2.113039 -3.857967 -0.032198 0.000000 0.000000 1.806870
    41 3.850047 -0.721819 0.028026 -0.000002 0.000000 1.334723
    42 3.386322 -0.139487 -0.008962 0.000000 0.000000 1.547914
  time 1
    0 -4.825783 -23.384519 -3.673558 1.768859 0.198341 1.605112
    1 4.468750 -15.335938 -23.640625 3.127097 0.888547 -2.406905
    2 1.473658 0.639411 -1.295237 1.484387 0.609550 -0.278032
    3 1.832611 0.000000 0.000003 3.078968 0.033266 0.475430
    4 1.003334 0.000000 -0.000001 -3.047670 0.020771 -0.198654
    5 3.823887 -0.419600 -1.411513 0.224049 0.061468 -0.020536
    6 2.187963 -0.000001 0.000001 0.013236 -0.021689 0.651993
    7 1.100958 0.000001 0.000000 0.058882 -0.043655 0.725339
    8 3.987879 -0.577446 -0.474705 0.214171 0.012365 0.029143
    9 1.890094 -0.000003 0.000000 0.030984 -0.035537 0.705321
    10 1.310922 0.000004 0.000000 0.006864 0.004896 0.834415
    11 4.117973 -0.654523 0.453703 0.128291 -0.031254 0.113600
    12 1.655280 0.000006 0.000000 -0.115955 0.103602 0.577996
    13 0.869585 0.000002 0.000000 0.044313 -0.036762 0.644244
    14 4.150646 -0.581573 1.354871 -0.291710 0.053086 0.380008
    15 1.157246 0.000002 0.000000 -0.000092 0.012613 0.471361
    16 1.019838 -0.000004 0.000000 -1.463294 -0.038071 0.263701
    17 8.000000 -0.999512 -4.820313 -1.538821 1.251957 -1.628770
    18 12.695415 0.000001 -0.000001 0.009139 0.191458 -0.685683
    19 -6.297165 -18.549275 -7.481757 2.870886 -0.188961 -1.526695
    20 1.474217 -0.497159 -1.376391 1.089630 0.328102 -0.675753
    21 1.832171 0.000001 -0.000004 -2.324280 0.374115 0.717029
    22 1.042036 0.000001 0.000003 2.968432 -0.151393 -0.128848
    23 3.823316 0.665600 -1.331303 0.076112 0.146271 0.028070
    24 2.152369 0.000003 0.000001 0.039674 -0.005412 -1.342861
    25 1.056623 0.000002 0.000000 -0.023067 -0.002043 -0.673975
    26 3.985126 0.882023 -0.368497 0.178948 0.082219 -0.721011
    27 1.830180 0.000000 0.000000 0.424906 -0.123438 -1.610381
    28 1.561354 -0.000002 0.000000 -0.209758 -0.268815 -0.807401
    29 4.116523 0.710978 0.552260 0.101439 0.123991 -1.270559
    30 1.752720 0.000000 0.000000 0.037089 0.004400 -1.113459
    31 0.869359 0.000000 0.000000 0.011430 -0.043588 -0.781455
    32 4.118823 0.330451 1.420007 0.213176 0.196286 -1.126503
    33 1.176320 0.000004 0.000000 -0.041439 -0.020895 -1.011083
    34 0.970201 -0.000002 0.000000 1.698386 0.021997 -0.763847
    35 -7.008362 -0.998731 -4.819733 -2.398254 0.895367 -1.908112
    36 12.706345 0.000001 0.000000 -0.227603 0.297969 -1.605226
    37 -0.282337 -1.133394 0.022445 0.000000 0.000000 0.000000
    38 -1.821682 0.392731 -0.017613 0.000000 0.000000 0.000000
    39 -1.015219 -0.450641 0.659471 0.000000 0.000000 0.072209
    40 2.113039 -3.857967 -0.032198 0.000000 0.000000 1.806870
    41 3.850047 -0.721819 0.028026 -0.000002 0.000000 1.334723
    42 3.386322 -0.139487 -0.008962 0.000000 0.000000 0.762519
  time 2
    0 -4.853127 -22.947006 -3.392300 1.731529 0.082439 1.581516
    1 4.468750 -15.335938 -23.640625 3.127097 0.888547 -2.406905
    2 1.473658 0.639411 -1.295237 1.484387 0.609550 -0.278032
    3 1.832611 0.000000 0.000003 3.078968 0.033266 0.475430
    4 1.003334 0.000000 -0.000001 -3.047670 0.020771 -0.198654
    5 3.823887 -0.419600 -1.411513 0.224049 0.061468 -0.020536
    6 2.187963 -0.000001 0.000001 0.013236 -0.021689 0.651993
    7 1.100958 0.000001 0.000000 0.058882 -0.043655 0.725339
    8 3.987879 -0.577446 -0.474705 0.214171 0.012365 0.029143
    9 1.890094 -0.000003 0.000000 0.030984 -0.035537 0.705321
    10 1.310922 0.000004 0.000000 0.006864 0.004896 0.834415
    11 4.117973 -0.654523 0.453703 0.128291 -0.031254 0.113600
    12 1.655280 0.000006 0.000000 -0.115955 0.103602 0.577996
    13 0.869585 0.000002 0.000000 0.044313 -0.036762 0.644244
    14 4.150646 -0.581573 1.354871 -0.291710 0.053086 0.380008
    15 1.157246 0.000002 0.000000 -0.000092 0.012613 0.471361
    16 1.019838 -0.000004 0.000000 -1.463294 -0.038071 0.263701
    17 8.000000 -0.999512 -4.820313 -1.538821 1.251957 -1.628770
    18 12.695415 0.000001 -0.000001 0.009139 0.191458 -0.685683
    19 -6.113566 -17.670342 -6.653606 2.909306 -0.073469 -1.550104
    20 1.474217 -0.497159 -1.376391 1.089630 0.328102 -0.675753
    21 1.832171 0.000001 -0.000004 -2.324280 0.374115 0.717029
    22 1.042036 0.000001 0.000003 2.968432 -0.151393 -0.128848
    23 3.823316 0.665600 -1.331303 0.074494 0.145540 0.021898
    24 2.152369 0.000003 0.000001 0.039566 -0.006119 -1.313312
    25 1.056623 0.000002 0.000000 -0.023127 -0.001816 -0.653049
    26 3.985126 0.882023 -0.368497 0.178948 0.082219 -0.721011
    27 1.830180 0.000000 0.000000 0.424906 -0.123438 -1.610381
    28 1.561354 -0.000002 0.000000 -0.209758 -0.268815 -0.807401
    29 4.116523 0.710978 0.552260 0.101439 0.123991 -1.270559
    30 1.752720 0.000000 0.000000 0.037089 0.004400 -1.113459
    31 0.869359 0.000000 0.000000 0.011430 -0.043588 -0.781455
    32 4.118823 0.330451 1.420007 0.213176 0.196286 -1.126503
    33 1.176320 0.000004 0.000000 -0.041439 -0.020895 -1.011083
    34 0.970201 -0.000002 0.000000 1.698386 0.021997 -0.763847
    35 -7.008362 -0.998731 -4.819733 -2.386141 0.907365 -1.903349
    36 12.706345 0.000001 0.000000 -0.259038 0.295320 -1.712661
    37 -0.305775 -1.133394 0.022445 0.000000 0.000000 0.000000
    38 -2.821713 0.392731 -0.017613 0.000000 0.000000 0.000000
    39 -1.015219 -0.450641 0.659471 0.000000 0.000000 0.072209
    40 2.113039 -3.857967 -0.032198 0.000000 0.000000 1.806870
    41 3.850047 -0.721819 0.028026 -0.000002 0.000000 1.334723
    42 3.386322 -0.139487 -0.008962 0.000000 0.000000 0.762519
  time 3
    0 -4.896097 -22.849347 -3.263390 1.692843 0.040332 1.574878
    1 4.468750 -15.335938 -23.640625 3.127097 0.888547 -2.406905
    2 1.473658 0.639411 -1.295237 1.484387 0.609550 -0.278032
    3 1.832611 0.000000 0.000003 3.078968 0.033266 0.475430
    4 1.003334 0.000000 -0.000001 -3.047670 0.020771 -0.198654
    5 3.823887 -0.419600 -1.411513 0.224049 0.061468 -0.020536
    6 2.187963 -0.000001 0.000001 0.013236 -0.021689 0.651993
    7 1.100958 0.000001 0.000000 0.058882 -0.043655 0.725339
    8 3.987879 -0.577446 -0.474705 0.214171 0.012365 0.029143
    9 1.890094 -0.000003 0.000000 0.030984 -0.035537 0.705321
    10 1.310922 0.000004 0.000000 0.006864 0.004896 0.834415
    11 4.117973 -0.654523 0.453703 0.128291 -0.031254 0.113600
    12 1.655280 0.000006 0.000000 -0.115955 0.103602 0.577996
    13 0.869585 0.000002 0.000000 0.044313 -0.036762 0.644244
    14 4.150646 -0.581573 1.354871 -0.291710 0.053086 0.380008
    15 1.157246 0.000002 0.000000 -0.000092 0.012613 0.471361
    16 1.019838 -0.000004 0.000000 -1.463294 -0.038071 0.263701
    17 8.000000 -0.999512 -4.820313 -1.538821 1.251957 -1.628770
    18 12.695415 0.000001 -0.000001 0.009139 0.191458 -0.685683
    19 -6.012000 -17.432053 -6.345003 2.948418 -0.031747 -1.556381
    20 1.474217 -0.497159 -1.376391 1.089630 0.328102 -0.675753
    21 1.832171 0.000001 -0.000004 -2.324280 0.374115 0.717029
    22 1.042036 0.000001 0.000003 2.968432 -0.151393 -0.128848
    23 3.823316 0.665600 -1.331303 0.071594 0.144198 0.010777
    24 2.152369 0.000003 0.000001 0.039314 -0.007402 -1.259778
    25 1.056623 0.000002 0.000000 -0.023199 -0.001396 -0.615217
    26 3.985126 0.882023 -0.368497 0.178948 0.082219 -0.721011
    27 1.830180 0.000000 0.000000 0.424906 -0.123438 -1.610381
    28 1.561354 -0.000002 0.000000 -0.209758 -0.268815 -0.807401
    29 4.116523 0.710978 0.552260 0.101439 0.123991 -1.270559
    30 1.752720 0.000000 0.000000 0.037089 0.004400 -1.113482
    31 0.869359 0.000000 0.000000 0.011430 -0.043588 -0.781455
    32 4.118823 0.330451 1.420007 0.213176 0.196286 -1.126503
    33 1.176320 0.000004 0.000000 -0.041439 -0.020895 -1.011083
    34 0.970201 -0.000002 0.000000 1.698386 0.021997 -0.763847
    35 -7.008362 -0.998731 -4.819733 -2.377978 0.904976 -1.894518
    36 12.706345 0.000001 0.000000 -0.267212 0.294086 -1.740766
    37 -0.344839 -1.133394 0.022445 0.000000 0.000000 0.000000
    38 -3.817837 0.392731 -0.017613 0.000000 0.000000 0.000000
    39 -1.015219 -0.450641 0.659471 0.000000 0.000000 0.072209
    40 2.113039 -3.857967 -0.032198 0.000000 0.000000 1.806870
    41 3.850047 -0.721819 0.028026 -0.000002 0.000000 1.334723
    42 3.386322 -0.139487 -0.008962 0.000000 0.000000 0.762519
  time 4
    0 -4.915629 -22.896223 -3.306360 1.687033 0.009335 1.572315
    1 4.468750 -15.335938 -23.640625 3.127097 0.888547 -2.406905
    2 1.473658 0.639411 -1.295237 1.484387 0.609550 -0.278032
    3 1.832611 0.000000 0.000003 3.078968 0.033266 0.475430
    4 1.003334 0.000000 -0.000001 -3.047670 0.020771 -0.198654
    5 3.823887 -0.419600 -1.411513 0.224049 0.061468 -0.020536
    6 2.187963 -0.000001 0.000001 0.013236 -0.021689 0.651993
    7 1.100958 0.000001 0.000000 0.058882 -0.043655 0.725339
    8 3.987879 -0.577446 -0.474705 0.214171 0.012365 0.029143
    9 1.890094 -0.000003 0.000000 0.030984 -0.035537 0.705321
    10 1.310922 0.000004 0.000000 0.006864 0.004896 0.834415
    11 4.117973 -0.654523 0.453703 0.128291 -0.031254 0.113600
    12 1.655280 0.000006 0.000000 -0.115955 0.103602 0.577996
    13 0.869585 0.000002 0.000000 0.044313 -0.036762 0.644244
    14 4.150646 -0.581573 1.354871 -0.291710 0.053086 0.380008
    15 1.157246 0.000002 0.000000 -0.000092 0.012613 0.471361
    16 1.019838 -0.000004 0.000000 -1.463294 -0.038071 0.263701
    17 8.000000 -0.999512 -4.820313 -1.538821 1.251957 -1.628770
    18 12.695415 0.000001 -0.000001 0.009139 0.191458 -0.685683
    19 -6.000281 -17.381270 -6.223906 2.954521 -0.000783 -1.558931
    20 1.474217 -0.497159 -1.376391 1.089630 0.328102 -0.675753
    21 1.832171 0.000001 -0.000004 -2.324280 0.374115 0.717029
    22 1.042036 0.000001 0.000003 2.968432 -0.151393 -0.128848
    23 3.823316 0.665600 -1.331303 0.068310 0.142616 -0.001867
    24 2.152369 0.000003 0.000001 0.038931 -0.008852 -1.198426
    25 1.056623 0.000002 0.000000 -0.023283 -0.000917 -0.572035
    26 3.985126 0.882023 -0.368497 0.178948 0.082219 -0.721011
    27 1.830180 0.000000 0.000000 0.424906 -0.123438 -1.610381
    28 1.561354 -0.000002 0.000000 -0.209758 -0.268815 -0.807401
    29 4.116523 0.710978 0.552260 0.101439 0.123991 -1.270559
    30 1.752720 0.000000 0.000000 0.037089 0.004400 -1.113459
    31 0.869359 0.000000 0.000000 0.011430 -0.043588 -0.781455
    32 4.118823 0.330451 1.420007 0.213176 0.196286 -1.126503
    33 1.176320 0.000004 0.000000 -0.041439 -0.020895 -1.011083
    34 0.970201 -0.000002 0.000000 1.698386 0.021997 -0.763847
    35 -7.008362 -0.998731 -4.819733 -2.371658 0.902355 -1.889804
    36 12.706345 0.000001 0.000000 -0.269082 0.293774 -1.747242
    37 -0.387809 -1.133394 0.022445 0.000000 0.000000 0.000000
    38 -3.817837 0.392731 -0.017613 0.000000 0.000000 0.000000
    39 -1.015219 -0.450641 0.659471 0.000000 0.000000 0.072209
    40 2.113039 -3.857967 -0.032198 0.000000 0.000000 1.806870
    41 3.850047 -0.721819 0.028026 -0.000002 0.000000 1.334723
    42 3.386322 -0.139487 -0.008962 0.000000 0.000000 0.762519
  time 5
    0 -4.927348 -23.040759 -3.439176 1.684444 -0.019426 1.570211
    1 4.468750 -15.335938 -23.640625 3.127097 0.888547 -2.406905
    2 1.473658 0.639411 -1.295237 1.484387 0.609550 -0.278032
    3 1.832611 0.000000 0.000003 3.078968 0.033266 0.475430
    4 1.003334 0.000000 -0.000001 -3.047670 0.020771 -0.198654
    5 3.823887 -0.419600 -1.411513 0.224049 0.061468 -0.020536
    6 2.187963 -0.000001 0.000001 0.013236 -0.021689 0.651993
    7 1.100958 0.000001 0.000000 0.058882 -0.043655 0.725339
    8 3.987879 -0.577446 -0.474705 0.214171 0.012365 0.029143
    9 1.890094 -0.000003 0.000000 0.030984 -0.035537 0.705321
    10 1.310922 0.000004 0.000000 0.006864 0.004896 0.834415
    11 4.117973 -0.654523 0.453703 0.128291 -0.031254 0.113600
    12 1.655280 0.000006 0.000000 -0.115955 0.103602 0.577996
    13 0.869585 0.000002 0.000000 0.044313 -0.036762 0.644244
    14 4.150646 -0.581573 1.354871 -0.291710 0.053086 0.380008
    15 1.157246 0.000002 0.000000 -0.000092 0.012613 0.471361
    16 1.019838 -0.000004 0.000000 -1.463294 -0.038071 0.263701
    17 8.000000 -0.999512 -4.820313 -1.538821 1.251957 -1.628770
    18 12.695415 0.000001 -0.000001 0.009139 0.191458 -0.685683
    19 -5.992468 -17.443772 -6.200467 2.957437 0.027950 -1.561024
    20 1.474217 -0.497159 -1.376391 1.089630 0.328102 -0.675753
    21 1.832171 0.000001 -0.000004 -2.324280 0.374115 0.717029
    22 1.042036 0.000001 0.000003 2.968432 -0.151393 -0.128848
    23 3.823316 0.665600 -1.331303 0.064930 0.140950 -0.014978
    24 2.152369 0.000003 0.000001 0.038440 -0.010326 -1.134458
    25 1.056623 0.000002 0.000000 -0.023331 -0.000425 -0.527120
    26 3.985126 0.882023 -0.368497 0.178948 0.082219 -0.721011
    27 1.830180 0.000000 0.000000 0.424906 -0.123438 -1.610381
    28 1.561354 -0.000002 0.000000 -0.209758 -0.268815 -0.807417
    29 4.116523 0.710978 0.552260 0.101439 0.123991 -1.270559
    30 1.752720 0.000000 0.000000 0.037089 0.004400 -1.113459
    31 0.869359 0.000000 0.000000 0.011430 -0.043588 -0.781455
    32 4.118823 0.330451 1.420007 0.213176 0.196286 -1.126503
    33 1.176320 0.000004 0.000000 -0.041439 -0.020895 -1.011083
    34 0.970201 -0.000002 0.000000 1.698386 0.021997 -0.763847
    35 -7.008362 -0.998731 -4.819733 -2.367708 0.898219 -1.885537
    36 12.706345 0.000001 0.000000 -0.267212 0.294086 -1.740766
    37 -0.434685 -1.133394 0.022445 0.000000 0.000000 0.000000
    38 -3.817837 0.392731 -0.017613 0.000000 0.000000 0.000000
    39 -1.015219 -0.450641 0.659471 0.000000 0.000000 0.072209
    40 2.113039 -3.857967 -0.032198 0.000000 0.000000 1.806870
    41 3.850047 -0.721819 0.028026 -0.000002 0.000000 1.334723
    42 3.386322 -0.139487 -0.008962 0.000000 0.000000 0.762519
  time 6
    0 -4.931255 -23.282954 -3.626682 1.683631 -0.041713 1.568700
    1 4.468750 -15.335938 -23.640625 3.127097 0.888547 -2.406905
    2 1.473658 0.639411 -1.295237 1.484387 0.609550 -0.278032
    3 1.832611 0.000000 0.000003 3.078968 0.033266 0.475430
    4 1.003334 0.000000 -0.000001 -3.047670 0.020771 -0.198654
    5 3.823887 -0.419600 -1.411513 0.224049 0.061468 -0.020536
    6 2.187963 -0.000001 0.000001 0.013236 -0.021689 0.651993
    7 1.100958 0.000001 0.000000 0.058882 -0.043655 0.725339
    8 3.987879 -0.577446 -0.474705 0.214171 0.012365 0.029143
    9 1.890094 -0.000003 0.000000 0.030984 -0.035537 0.705321
    10 1.310922 0.000004 0.000000 0.006864 0.004896 0.834415
    11 4.117973 -0.654523 0.453703 0.128291 -0.031254 0.113600
    12 1.655280 0.000006 0.000000 -0.115955 0.103602 0.577996
    13 0.869585 0.000002 0.000000 0.044313 -0.036762 0.644244
    14 4.150646 -0.581573 1.354871 -0.291710 0.053086 0.380008
    15 1.157246 0.000002 0.000000 -0.000092 0.012613 0.471361
    16 1.019838 -0.000004 0.000000 -1.463294 -0.038071 0.263701
    17 8.000000 -0.999512 -4.820313 -1.538821 1.251957 -1.628770
    18 12.695415 0.000001 -0.000001 0.009139 0.191458 -0.685683
    19 -5.984655 -17.623465 -6.266876 2.958459 0.050222 -1.562527
    20 1.474217 -0.497159 -1.376391 1.089630 0.328102 -0.675753
    21 1.832171 0.000001 -0.000004 -2.324280 0.374115 0.717029
    22 1.042036 0.000001 0.000003 2.968432 -0.151393 -0.128848
    23 3.823316 0.665600 -1.331303 0.061587 0.139236 -0.028042
    24 2.152369 0.000003 0.000001 0.037864 -0.011776 -1.070490
    25 1.056623 0.000002 0.000000 -0.023367 0.000078 -0.482301
    26 3.985126 0.882023 -0.368497 0.178948 0.082219 -0.721011
    27 1.830180 0.000000 0.000000 0.424906 -0.123438 -1.610381
    28 1.561354 -0.000002 0.000000 -0.209758 -0.268815 -0.807401
    29 4.116523 0.710978 0.552260 0.101439 0.123991 -1.270559
    30 1.752720 0.000000 0.000000 0.037089 0.004400 -1.113459
    31 0.869359 0.000000 0.000000 0.011430 -0.043588 -0.781455
    32 4.118823 0.330451 1.420007 0.213176 0.196286 -1.126503
    33 1.176320 0.000004 0.000000 -0.041439 -0.020895 -1.011083
    34 0.970201 -0.000002 0.000000 1.698386 0.021997 -0.763847
    35 -7.008362 -0.998731 -4.819733 -2.365404 0.892027 -1.881122
    36 12.706345 0.000001 0.000000 -0.261461 0.294973 -1.720950
    37 -0.477655 -1.133394 0.022445 0.000000 0.000000 0.000000
    38 -3.817837 0.392731 -0.017613 0.000000 0.000000 0.000000
    39 -1.015219 -0.450641 0.659471 0.000000 0.000000 0.072209
    40 2.113039 -3.857967 -0.032198 0.000000 0.000000 1.806870
    41 3.850047 -0.721819 0.028026 -0.000002 0.000000 1.334723
    42 3.386322 -0.139487 -0.008962 0.000000 0.000000 0.762519
  time 7
    0 -4.935161 -23.572025 -3.806375 1.682216 -0.054466 1.567977
    1 4.468750 -15.335938 -23.640625 3.127097 0.888547 -2.406905
    2 1.473658 0.639411 -1.295237 1.484387 0.609550 -0.278032
    3 1.832611 0.000000 0.000003 3.078968 0.033266 0.475430
    4 1.003334 0.000000 -0.000001 -3.047670 0.020771 -0.198654
    5 3.823887 -0.419600 -1.411513 0.224049 0.061468 -0.020536
    6 2.187963 -0.000001 0.000001 0.013236 -0.021689 0.651993
    7 1.100958 0.000001 0.000000 0.058882 -0.043655 0.725339
    8 3.987879 -0.577446 -0.474705 0.214171 0.012365 0.029143
    9 1.890094 -0.000003 0.000000 0.030984 -0.035537 0.705321
    10 1.310922 0.000004 0.000000 0.006864 0.004896 0.834415
    11 4.117973 -0.654523 0.453703 0.128291 -0.031254 0.113600
    12 1.655280 0.000006 0.000000 -0.115955 0.103602 0.577996
    13 0.869585 0.000002 0.000000 0.044313 -0.036762 0.644244
    14 4.150646 -0.581573 1.354871 -0.291710 0.053086 0.380008
    15 1.157246 0.000002 0.000000 -0.000092 0.012613 0.471361
    16 1.019838 -0.000004 0.000000 -1.463294 -0.038071 0.263701
    17 8.000000 -0.999512 -4.820313 -1.538821 1.251957 -1.628770
    18 12.695415 0.000001 -0.000001 0.009139 0.191458 -0.685683
    19 -5.980749 -17.881286 -6.372348 2.959992 0.062982 -1.563247
    20 1.474217 -0.497159 -1.376391 1.089630 0.328102 -0.675753
    21 1.832171 0.000001 -0.000004 -2.324280 0.374115 0.717029
    22 1.042036 0.000001 0.000003 2.968432 -0.151393 -0.128848
    23 3.823316 0.665600 -1.331303 0.058351 0.137535 -0.040721
    24 2.152369 0.000003 0.000001 0.037205 -0.013142 -1.008331
    25 1.056623 0.000002 0.000000 -0.023379 0.000569 -0.438763
    26 3.985126 0.882023 -0.368497 0.178948 0.082219 -0.721011
    27 1.830180 0.000000 0.000000 0.424906 -0.123438 -1.610381
    28 1.561354 -0.000002 0.000000 -0.209758 -0.268815 -0.807401
    29 4.116523 0.710978 0.552260 0.101439 0.123991 -1.270559
    30 1.752720 0.000000 0.000000 0.037089 0.004400 -1.113459
    31 0.869359 0.000000 0.000000 0.011430 -0.043588 -0.781455
    32 4.118823 0.330451 1.420007 0.213176 0.196286 -1.126503
    33 1.176320 0.000004 0.000000 -0.041439 -0.020895 -1.011083
    34 0.970201 -0.000002 0.000000 1.698386 0.021997 -0.763847
    35 -7.008362 -0.998731 -4.819733 -2.363100 0.883703 -1.875614
    36 12.706345 0.000001 0.000000 -0.253046 0.296075 -1.692067
    37 -0.524532 -1.133394 0.022445 0.000000 0.000000 0.000000
    38 -3.817837 0.392731 -0.017613 0.000000 0.000000 0.000000
    39 -1.015219 -0.450641 0.659471 0.000000 0.000000 0.072209
    40 2.113039 -3.857967 -0.032198 0.000000 0.000000 1.806870
    41 3.850047 -0.721819 0.028026 -0.000002 0.000000 1.334723
    42 3.386322 -0.139487 -0.008962 0.000000 0.000000 0.762519
  time 8
    0 -4.939067 -23.865003 -3.931379 1.678543 -0.058247 1.567845
    1 4.468750 -15.335938 -23.640625 3.127097 0.888547 -2.406905
    2 1.473658 0.639411 -1.295237 1.484387 0.609550 -0.278032
    3 1.832611 0.000000 0.000003 3.078968 0.033266 0.475430
    4 1.003334 0.000000 -0.000001 -3.047670 0.020771 -0.198654
    5 3.823887 -0.419600 -1.411513 0.224049 0.061468 -0.020536
    6 2.187963 -0.000001 0.000001 0.013236 -0.021689 0.651993
    7 1.100958 0.000001 0.000000 0.058882 -0.043655 0.725339
    8 3.987879 -0.577446 -0.474705 0.214171 0.012365 0.029143
    9 1.890094 -0.000003 0.000000 0.030984 -0.035537 0.705321
    10 1.310922 0.000004 0.000000 0.006864 0.004896 0.834415
    11 4.117973 -0.654523 0.453703 0.128291 -0.031254 0.113600
    12 1.655280 0.000006 0.000000 -0.115955 0.103602 0.577996
    13 0.869585 0.000002 0.000000 0.044313 -0.036762 0.644244
    14 4.150646 -0.581573 1.354871 -0.291710 0.053086 0.380008
    15 1.157246 0.000002 0.000000 -0.000092 0.012613 0.471361
    16 1.019838 -0.000004 0.000000 -1.463294 -0.038071 0.263701
    17 8.000000 -0.999512 -4.820313 -1.538821 1.251957 -1.628770
    18 12.695415 0.000001 -0.000001 0.009139 0.191458 -0.685683
    19 -5.972936 -18.162544 -6.481726 2.963720 0.066688 -1.563312
    20 1.474217 -0.497159 -1.376391 1.089630 0.328102 -0.675753
    21 1.832171 0.000001 -0.000004 -2.324280 0.374115 0.717029
    22 1.042036 0.000001 0.000003 2.968432 -0.151393 -0.128848
    23 3.823316 0.665600 -1.331303 0.055307 0.135881 -0.052754
    24 2.152369 0.000003 0.000001 0.036510 -0.014401 -0.949260
    25 1.056623 0.000002 0.000000 -0.023367 0.001037 -0.397397
    26 3.985126 0.882023 -0.368497 0.178948 0.082219 -0.721011
    27 1.830180 0.000000 0.000000 0.424906 -0.123438 -1.610381
    28 1.561354 -0.000002 0.000000 -0.209758 -0.268815 -0.807401
    29 4.116523 0.710978 0.552260 0.101439 0.123991 -1.270559
    30 1.752720 0.000000 0.000000 0.037089 0.004400 -1.113459
    31 0.869359 0.000000 0.000000 0.011430 -0.043588 -0.781455
    32 4.118823 0.330451 1.420007 0.213176 0.196286 -1.126503
    33 1.176320 0.000004 0.000000 -0.041439 -0.020895 -1.011083
    34 0.970201 -0.000002 0.000000 1.698386 0.021997 -0.763847
    35 -7.008362 -0.998731 -4.819733 -2.359610 0.873786 -1.868668
    36 12.706345 0.000001 0.000000 -0.243710 0.297022 -1.660141
    37 -0.567502 -1.133394 0.022445 0.000000 0.000000 0.000000
    38 -3.817837 0.392731 -0.017613 0.000000 0.000000 0.000000
    39 -1.015219 -0.450641 0.659471 0.000000 0.000000 0.072209
    40 2.113039 -3.857967 -0.032198 0.000000 0.000000 1.806870
    41 3.850047 -0.721819 0.028026 -0.000002 0.000000 1.334723
    42 3.386322 -0.139487 -0.008962 0.000000 0.000000 0.762519
  time 9
    0 -4.946880 -24.189231 -4.017319 1.671709 -0.055420 1.568174
    1 4.468750 -15.335938 -23.640625 3.127097 0.888547 -2.406905
    2 1.473658 0.639411 -1.295237 1.484387 0.609550 -0.278032
    3 1.832611 0.000000 0.000003 3.078968 0.033266 0.475430
    4 1.003334 0.000000 -0.000001 -3.047670 0.020771 -0.198654
    5 3.823887 -0.419600 -1.411513 0.224049 0.061468 -0.020536
    6 2.187963 -0.000001 0.000001 0.013236 -0.021689 0.651993
    7 1.100958 0.000001 0.000000 0.058882 -0.043655 0.725339
    8 3.987879 -0.577446 -0.474705 0.214171 0.012365 0.029143
    9 1.890094 -0.000003 0.000000 0.030984 -0.035537 0.705321
    10 1.310922 0.000004 0.000000 0.006864 0.004896 0.834415
    11 4.117973 -0.654523 0.453703 0.128291 -0.031254 0.113600
    12 1.655280 0.000006 0.000000 -0.115955 0.103602 0.577996
    13 0.869585 0.000002 0.000000 0.044313 -0.036762 0.644244
    14 4.150646 -0.581573 1.354871 -0.291710 0.053086 0.380008
    15 1.157246 0.000002 0.000000 -0.000092 0.012613 0.471361
    16 1.019838 -0.000004 0.000000 -1.463294 -0.038071 0.263701
    17 8.000000 -0.999512 -4.820313 -1.538821 1.251957 -1.628770
    18 12.695415 0.000001 -0.000001 0.009139 0.191458 -0.685683
    19 -5.965124 -18.494586 -6.587198 2.970514 0.063802 -1.562920
    20 1.474217 -0.497159 -1.376391 1.089630 0.328102 -0.675753
    21 1.832171 0.000001 -0.000004 -2.324280 0.374115 0.717029
    22 1.042036 0.000001 0.000003 2.968432 -0.151393 -0.128848
    23 3.823316 0.665600 -1.331303 0.052490 0.134311 -0.063947
    24 2.152369 0.000003 0.000001 0.035791 -0.015527 -0.894419
    25 1.056623 0.000002 0.000000 -0.023343 0.001468 -0.358917
    26 3.985126 0.882023 -0.368497 0.178948 0.082219 -0.721011
    27 1.830180 0.000000 0.000000 0.424906 -0.123438 -1.610381
    28 1.561354 -0.000002 0.000000 -0.209758 -0.268815 -0.807401
    29 4.116523 0.710978 0.552260 0.101439 0.123991 -1.270559
    30 1.752720 0.000000 0.000000 0.037089 0.004400 -1.113459
    31 0.869359 0.000000 0.000000 0.011430 -0.043588 -0.781455
    32 4.118823 0.330451 1.420007 0.213176 0.196286 -1.126503
    33 1.176320 0.000004 0.000000 -0.041439 -0.020895 -1.011083
    34 0.970201 -0.000002 0.000000 1.698386 0.021997 -0.763847
    35 -7.008362 -0.998731 -4.819733 -2.354344 0.860940 -1.859390
    36 12.706345 0.000001 0.000000 -0.232561 0.297765 -1.622063
    37 -0.606565 -1.133394 0.022445 0.000000 0.000000 0.000000
    38 -3.817837 0.392731 -0.017613 0.000000 0.000000 0.000000
    39 -1.015219 -0.450641 0.659471 0.000000 0.000000 0.072209
    40 2.113039 -3.857967 -0.032198 0.000000 0.000000 1.806870
    41 3.850047 -0.721819 0.028026 -0.000002 0.000000 1.334723
    42 3.386322 -0.139487 -0.008962 0.000000 0.000000 0.762519
  time 10
    0 -4.950786 -24.587681 -4.083727 1.661985 -0.047136 1.568831
    1 4.468750 -15.335938 -23.640625 3.127097 0.888547 -2.406905
    2 1.473658 0.639411 -1.295237 1.484387 0.609550 -0.278032
    3 1.832611 0.000000 0.000003 3.078968 0.033266 0.475430
    4 1.003334 0.000000 -0.000001 -3.047670 0.020771 -0.198654
    5 3.823887 -0.419600 -1.411513 0.224049 0.061468 -0.020536
    6 2.187963 -0.000001 0.000001 0.013236 -0.021689 0.651993
    7 1.100958 0.000001 0.000000 0.058882 -0.043655 0.725339
    8 3.987879 -0.577446 -0.474705 0.214171 0.012365 0.029143
    9 1.890094 -0.000003 0.000000 0.030984 -0.035537 0.705321
    10 1.310922 0.000004 0.000000 0.006864 0.004896 0.834415
    11 4.117973 -0.654523 0.453703 0.128291 -0.031254 0.113600
    12 1.655280 0.000006 0.000000 -0.115955 0.103602 0.577996
    13 0.869585 0.000002 0.000000 0.044313 -0.036762 0.644244
    14 4.150646 -0.581573 1.354871 -0.291710 0.053086 0.380008
    15 1.157246 0.000002 0.000000 -0.000092 0.012613 0.471361
    16 1.019838 -0.000004 0.000000 -1.463294 -0.038071 0.263701
    17 8.000000 -0.999512 -4.820313 -1.538821 1.251957 -1.628770
    18 12.695415 0.000001 -0.000001 0.009139 0.191458 -0.685683
    19 -5.945592 -18.912567 -6.716108 2.980134 0.055405 -1.562200
    20 1.474217 -0.497159 -1.376391 1.089630 0.328102 -0.675753
    21 1.832171 0.000001 -0.000004 -2.324280 0.374115 0.717029
    22 1.042036 0.000001 0.000003 2.968432 -0.151393 -0.128848
    23 3.823316 0.665600 -1.331303 0.049950 0.132849 -0.074110
    24 2.152369 0.000003 0.000001 0.035096 -0.016522 -0.844752
    25 1.056623 0.000002 0.000000 -0.023295 0.001864 -0.324051
    26 3.985126 0.882023 -0.368497 0.178948 0.082219 -0.721011
    27 1.830180 0.000000 0.000000 0.424906 -0.123438 -1.610381
    28 1.561354 -0.000002 0.000000 -0.209758 -0.268815 -0.807401
    29 4.116523 0.710978 0.552260 0.101439 0.123991 -1.270559
    30 1.752720 0.000000 0.000000 0.037089 0.004400 -1.113459
    31 0.869359 0.000000 0.000000 0.011430 -0.043588 -0.781455
    32 4.118823 0.330451 1.420007 0.213176 0.196286 -1.126503
    33 1.176320 0.000004 0.000000 -0.041439 -0.020895 -1.011083
    34 0.970201 -0.000002 0.000000 1.698386 0.021997 -0.763847
    35 -7.008362 -0.998731 -4.819733 -2.346971 0.843520 -1.846788
    36 12.706345 0.000001 0.000000 -0.218069 0.298137 -1.572717
    37 -0.641723 -1.133394 0.022445 0.000000 0.000000 0.000000
    38 -3.817837 0.392731 -0.017613 0.000000 0.000000 0.000000
    39 -1.015219 -0.450641 0.659471 0.000000 0.000000 0.072209
    40 2.113039 -3.857967 -0.032198 0.000000 0.000000 1.806870
    41 3.850047 -0.721819 0.028026 -0.000002 0.000000 1.334723
    42 3.386322 -0.139487 -0.008962 0.000000 0.000000 0.762519
  time 11
    0 -4.958599 -25.009569 -4.130604 1.651930 -0.035467 1.569554
    1 4.468750 -15.335938 -23.640625 3.127097 0.888547 -2.406905
    2 1.473658 0.639411 -1.295237 1.484387 0.609550 -0.278032
    3 1.832611 0.000000 0.000003 3.078968 0.033266 0.475430
    4 1.003334 0.000000 -0.000001 -3.047670 0.020771 -0.198654
    5 3.823887 -0.419600 -1.411513 0.224049 0.061468 -0.020536
    6 2.187963 -0.000001 0.000001 0.013236 -0.021689 0.651993
    7 1.100958 0.000001 0.000000 0.058882 -0.043655 0.725339
    8 3.987879 -0.577446 -0.474705 0.214171 0.012365 0.029143
    9 1.890094 -0.000003 0.000000 0.030984 -0.035537 0.705321
    10 1.310922 0.000004 0.000000 0.006864 0.004896 0.834415
    11 4.117973 -0.654523 0.453703 0.128291 -0.031254 0.113600
    12 1.655280 0.000006 0.000000 -0.115955 0.103602 0.577996
    13 0.869585 0.000002 0.000000 0.044313 -0.036762 0.644244
    14 4.150646 -0.581573 1.354871 -0.291710 0.053086 0.380008
    15 1.157246 0.000002 0.000000 -0.000092 0.012613 0.471361
    16 1.019838 -0.000004 0.000000 -1.463294 -0.038071 0.263701
    17 8.000000 -0.999512 -4.820313 -1.538821 1.251957 -1.628770
    18 12.695415 0.000001 -0.000001 0.009139 0.191458 -0.685683
    19 -5.926060 -19.365706 -6.837206 2.990085 0.043629 -1.561416
    20 1.474217 -0.497159 -1.376391 1.089630 0.328102 -0.675753
    21 1.832171 0.000001 -0.000004 -2.324280 0.374115 0.717029
    22 1.042036 0.000001 0.000003 2.968432 -0.151393 -0.128848
    23 3.823316 0.665600 -1.331303 0.047733 0.131554 -0.083039
    24 2.152369 0.000003 0.000001 0.034449 -0.017349 -0.801319
    25 1.056623 0.000002 0.000000 -0.023259 0.002199 -0.293448
    26 3.985126 0.882023 -0.368497 0.178948 0.082219 -0.721011
    27 1.830180 0.000000 0.000000 0.424906 -0.123438 -1.610381
    28 1.561354 -0.000002 0.000000 -0.209758 -0.268815 -0.807401
    29 4.116523 0.710978 0.552260 0.101439 0.123991 -1.270559
    30 1.752720 0.000000 0.000000 0.037089 0.004400 -1.113459
    31 0.869359 0.000000 0.000000 0.011430 -0.043588 -0.781455
    32 4.118823 0.330451 1.420007 0.213176 0.196286 -1.126503
    33 1.176320 0.000004 0.000000 -0.041439 -0.020895 -1.011083
    34 0.970201 -0.000002 0.000000 1.698386 0.021997 -0.763847
    35 -7.008362 -0.998731 -4.819733 -2.338149 0.823275 -1.832400
    36 12.706345 0.000001 0.000000 -0.202061 0.297753 -1.518189
    37 -0.672974 -1.133394 0.022445 0.000000 0.000000 0.000000
    38 -3.817837 0.392731 -0.017613 0.000000 0.000000 0.000000
    39 -1.015219 -0.450641 0.659471 0.000000 0.000000 0.072209
    40 2.113039 -3.857967 -0.032198 0.000000 0.000000 1.806870
    41 3.850047 -0.721819 0.028026 -0.000002 0.000000 1.334723
    42 3.386322 -0.139487 -0.008962 0.000000 0.000000 0.762519
  time 12
    0 -4.962506 -25.376768 -4.154042 1.644825 -0.024423 1.570080
    1 4.468750 -15.335938 -23.640625 3.127097 0.888547 -2.406905
    2 1.473658 0.639411 -1.295237 1.484387 0.609550 -0.278032
    3 1.832611 0.000000 0.000003 3.078968 0.033266 0.475430
    4 1.003334 0.000000 -0.000001 -3.047670 0.020771 -0.198654
    5 3.823887 -0.419600 -1.411513 0.224049 0.061468 -0.020536
    6 2.187963 -0.000001 0.000001 0.013236 -0.021689 0.651993
    7 1.100958 0.000001 0.000000 0.058882 -0.043655 0.725339
    8 3.987879 -0.577446 -0.474705 0.214171 0.012365 0.029143
    9 1.890094 -0.000003 0.000000 0.030984 -0.035537 0.705321
    10 1.310922 0.000004 0.000000 0.006864 0.004896 0.834415
    11 4.117973 -0.654523 0.453703 0.128291 -0.031254 0.113600
    12 1.655280 0.000006 0.000000 -0.115955 0.103602 0.577996
    13 0.869585 0.000002 0.000000 0.044313 -0.036762 0.644244
    14 4.150646 -0.581573 1.354871 -0.291710 0.053086 0.380008
    15 1.157246 0.000002 0.000000 -0.000092 0.012613 0.471361
    16 1.019838 -0.000004 0.000000 -1.463294 -0.038071 0.263701
    17 8.000000 -0.999512 -4.820313 -1.538821 1.251957 -1.628770
    18 12.695415 0.000001 -0.000001 0.009139 0.191458 -0.685683
    19 -5.910434 -19.768062 -6.930958 2.997090 0.032510 -1.560827
    20 1.474217 -0.497159 -1.376391 1.089630 0.328102 -0.675753
    21 1.832171 0.000001 -0.000004 -2.324280 0.374115 0.717029
    22 1.042036 0.000001 0.000003 2.968432 -0.151393 -0.128848
    23 3.823316 0.665600 -1.331303 0.045875 0.130452 -0.090505
    24 2.152369 0.000003 0.000001 0.033873 -0.018032 -0.765092
    25 1.056623 0.000002 0.000000 -0.023211 0.002487 -0.267902
    26 3.985126 0.882023 -0.368497 0.178948 0.082219 -0.721011
    27 1.830180 0.000000 0.000000 0.424906 -0.123438 -1.610381
    28 1.561354 -0.000002 0.000000 -0.209758 -0.268815 -0.807401
    29 4.116523 0.710978 0.552260 0.101439 0.123991 -1.270559
    30 1.752720 0.000000 0.000000 0.037089 0.004400 -1.113459
    31 0.869359 0.000000 0.000000 0.011430 -0.043588 -0.781455
    32 4.118823 0.330451 1.420007 0.213176 0.196286 -1.126503
    33 1.176320 0.000004 0.000000 -0.041439 -0.020895 -1.011083
    34 0.970201 -0.000002 0.000000 1.698386 0.021997 -0.763847
    35 -7.008362 -0.998731 -4.819733 -2.329459 0.804211 -1.819103
    36 12.706345 0.000001 0.000000 -0.187682 0.296686 -1.469102
    37 -0.700318 -1.133394 0.022445 0.000000 0.000000 0.000000
    38 -3.817837 0.392731 -0.017613 0.000000 0.000000 0.000000
    39 -1.015219 -0.450641 0.659471 0.000000 0.000000 0.072209
    40 2.113039 -3.857967 -0.032198 0.000000 0.000000 1.806870
    41 3.850047 -0.721819 0.028026 -0.000002 0.000000 1.334723
    42 3.386322 -0.139487 -0.008962 0.000000 0.000000 0.762519
  time 13
    0 -4.962506 -25.654120 -4.161855 1.642417 -0.016895 1.570408
    1 4.468750 -15.335938 -23.640625 3.127097 0.888547 -2.406905
    2 1.473658 0.639411 -1.295237 1.484387 0.609550 -0.278032
    3 1.832611 0.000000 0.000003 3.078968 0.033266 0.475430
    4 1.003334 0.000000 -0.000001 -3.047670 0.020771 -0.198654
    5 3.823887 -0.419600 -1.411513 0.224049 0.061468 -0.020536
    6 2.187963 -0.000001 0.000001 0.013236 -0.021689 0.651993
    7 1.100958 0.000001 0.000000 0.058882 -0.043655 0.725339
    8 3.987879 -0.577446 -0.474705 0.214171 0.012365 0.029143
    9 1.890094 -0.000003 0.000000 0.030984 -0.035537 0.705321
    10 1.310922 0.000004 0.000000 0.006864 0.004896 0.834415
    11 4.117973 -0.654523 0.453703 0.128291 -0.031254 0.113600
    12 1.655280 0.000006 0.000000 -0.115955 0.103602 0.577996
    13 0.869585 0.000002 0.000000 0.044313 -0.036762 0.644244
    14 4.150646 -0.581573 1.354871 -0.291710 0.053086 0.380008
    15 1.157246 0.000002 0.000000 -0.000092 0.012613 0.471361
    16 1.019838 -0.000004 0.000000 -1.463294 -0.038071 0.263701
    17 8.000000 -0.999512 -4.820313 -1.538821 1.251957 -1.628770
    18 12.695415 0.000001 -0.000001 0.009139 0.191458 -0.685683
    19 -5.906528 -20.064946 -6.977835 2.999405 0.024966 -1.560500
    20 1.474217 -0.497159 -1.376391 1.089630 0.328102 -0.675753
    21 1.832171 0.000001 -0.000004 -2.324280 0.374115 0.717029
    22 1.042036 0.000001 0.000003 2.968432 -0.151393 -0.128848
    23 3.823316 0.665600 -1.331303 0.044461 0.129589 -0.096258
    24 2.152369 0.000003 0.000001 0.033418 -0.018535 -0.737267
    25 1.056623 0.000002 0.000000 -0.023163 0.002703 -0.248224
    26 3.985126 0.882023 -0.368497 0.178948 0.082219 -0.721011
    27 1.830180 0.000000 0.000000 0.424906 -0.123438 -1.610381
    28 1.561354 -0.000002 0.000000 -0.209758 -0.268815 -0.807417
    29 4.116523 0.710978 0.552260 0.101439 0.123991 -1.270559
    30 1.752720 0.000000 0.000000 0.037089 0.004400 -1.113459
    31 0.869359 0.000000 0.000000 0.011430 -0.043588 -0.781455
    32 4.118823 0.330451 1.420007 0.213176 0.196286 -1.126503
    33 1.176320 0.000004 0.000000 -0.041439 -0.020895 -1.011083
    34 0.970201 -0.000002 0.000000 1.698386 0.021997 -0.763847
    35 -7.008362 -0.998731 -4.819733 -2.321823 0.789156 -1.808932
    36 12.706345 0.000001 0.000000 -0.176972 0.295452 -1.432384
    37 -0.719850 -1.133394 0.022445 0.000000 0.000000 0.000000
    38 -3.817837 0.392731 -0.017613 0.000000 0.000000 0.000000
    39 -1.015219 -0.450641 0.659471 0.000000 0.000000 0.072209
    40 2.113039 -3.857967 -0.032198 0.000000 0.000000 1.806870
    41 3.850047 -0.721819 0.028026 -0.000002 0.000000 1.334723
    42 3.386322 -0.139487 -0.008962 0.000000 0.000000 0.762519
  time 14
    0 -4.962506 -25.861157 -4.154042 1.643199 -0.011866 1.570540
    1 4.468750 -15.335938 -23.640625 3.127097 0.888547 -2.406905
    2 1.473658 0.639411 -1.295237 1.484387 0.609550 -0.278032
    3 1.832611 0.000000 0.000003 3.078968 0.033266 0.475430
    4 1.003334 0.000000 -0.000001 -3.047670 0.020771 -0.198654
    5 3.823887 -0.419600 -1.411513 0.224049 0.061468 -0.020536
    6 2.187963 -0.000001 0.000001 0.013236 -0.021689 0.651993
    7 1.100958 0.000001 0.000000 0.058882 -0.043655 0.725339
    8 3.987879 -0.577446 -0.474705 0.214171 0.012365 0.029143
    9 1.890094 -0.000003 0.000000 0.030984 -0.035537 0.705321
    10 1.310922 0.000004 0.000000 0.006864 0.004896 0.834415
    11 4.117973 -0.654523 0.453703 0.128291 -0.031254 0.113600
    12 1.655280 0.000006 0.000000 -0.115955 0.103602 0.577996
    13 0.869585 0.000002 0.000000 0.044313 -0.036762 0.644244
    14 4.150646 -0.581573 1.354871 -0.291710 0.053086 0.380008
    15 1.157246 0.000002 0.000000 -0.000092 0.012613 0.471361
    16 1.019838 -0.000004 0.000000 -1.463294 -0.038071 0.263701
    17 8.000000 -0.999512 -4.820313 -1.538821 1.251957 -1.628770
    18 12.695415 0.000001 -0.000001 0.009139 0.191458 -0.685683
    19 -5.910434 -20.283703 -7.001273 2.998563 0.019947 -1.560304
    20 1.474217 -0.497159 -1.376391 1.089630 0.328102 -0.675753
    21 1.832171 0.000001 -0.000004 -2.324280 0.374115 0.717029
    22 1.042036 0.000001 0.000003 2.968432 -0.151393 -0.128848
    23 3.823316 0.665600 -1.331303 0.043538 0.129026 -0.100009
    24 2.152369 0.000003 0.000001 0.033118 -0.018847 -0.719210
    25 1.056623 0.000002 0.000000 -0.023139 0.002846 -0.235435
    26 3.985126 0.882023 -0.368497 0.178948 0.082219 -0.721011
    27 1.830180 0.000000 0.000000 0.424906 -0.123438 -1.610381
    28 1.561354 -0.000002 0.000000 -0.209758 -0.268815 -0.807401
    29 4.116523 0.710978 0.552260 0.101439 0.123991 -1.270559
    30 1.752720 0.000000 0.000000 0.037089 0.004400 -1.113459
    31 0.869359 0.000000 0.000000 0.011430 -0.043588 -0.781455
    32 4.118823 0.330451 1.420007 0.213176 0.196286 -1.126503
    33 1.176320 0.000004 0.000000 -0.041439 -0.020895 -1.011083
    34 0.970201 -0.000002 0.000000 1.698386 0.021997 -0.763847
    35 -7.008362 -0.998731 -4.819733 -2.315042 0.777003 -1.800944
    36 12.706345 0.000001 0.000000 -0.168897 0.294266 -1.404602
    37 -0.731569 -1.133394 0.022445 0.000000 0.000000 0.000000
    38 -3.817837 0.392731 -0.017613 0.000000 0.000000 0.000000
    39 -1.015219 -0.450641 0.659471 0.000000 0.000000 0.072209
    40 2.113039 -3.857967 -0.032198 0.000000 0.000000 1.806870
    41 3.850047 -0.721819 0.028026 -0.000002 0.000000 1.334723
    42 3.386322 -0.139487 -0.008962 0.000000 0.000000 0.762519
  time 15
    0 -4.962506 -26.029131 -4.134510 1.645518 -0.007560 1.570671
    1 4.468750 -15.335938 -23.640625 3.127097 0.888547 -2.406905
    2 1.473658 0.639411 -1.295237 1.484387 0.609550 -0.278032
    3 1.832611 0.000000 0.000003 3.078968 0.033266 0.475430
    4 1.003334 0.000000 -0.000001 -3.047670 0.020771 -0.198654
    5 3.823887 -0.419600 -1.411513 0.224049 0.061468 -0.020536
    6 2.187963 -0.000001 0.000001 0.013236 -0.021689 0.651993
    7 1.100958 0.000001 0.000000 0.058882 -0.043655 0.725339
    8 3.987879 -0.577446 -0.474705 0.214171 0.012365 0.029143
    9 1.890094 -0.000003 0.000000 0.030984 -0.035537 0.705321
    10 1.310922 0.000004 0.000000 0.006864 0.004896 0.834415
    11 4.117973 -0.654523 0.453703 0.128291 -0.031254 0.113600
    12 1.655280 0.000006 0.000000 -0.115955 0.103602 0.577996
    13 0.869585 0.000002 0.000000 0.044313 -0.036762 0.644244
    14 4.150646 -0.581573 1.354871 -0.291710 0.053086 0.380008
    15 1.157246 0.000002 0.000000 -0.000092 0.012613 0.471361
    16 1.019838 -0.000004 0.000000 -1.463294 -0.038071 0.263701
    17 8.000000 -0.999512 -4.820313 -1.538821 1.251957 -1.628770
    18 12.695415 0.000001 -0.000001 0.009139 0.191458 -0.685683
    19 -5.918247 -20.467302 -7.001273 2.996188 0.015683 -1.560239
    20 1.474217 -0.497159 -1.376391 1.089630 0.328102 -0.675753
    21 1.832171 0.000001 -0.000004 -2.324280 0.374115 0.717029
    22 1.042036 0.000001 0.000003 2.968432 -0.151393 -0.128848
    23 3.823316 0.665600 -1.331303 0.043202 0.128822 -0.101351
    24 2.152369 0.000003 0.000001 0.033011 -0.018967 -0.712727
    25 1.056623 0.000002 0.000000 -0.023127 0.002894 -0.230832
    26 3.985126 0.882023 -0.368497 0.178948 0.082219 -0.721011
    27 1.830180 0.000000 0.000000 0.424906 -0.123438 -1.610381
    28 1.561354 -0.000002 0.000000 -0.209758 -0.268815 -0.807401
    29 4.116523 0.710978 0.552260 0.101439 0.123991 -1.270559
    30 1.752720 0.000000 0.000000 0.037089 0.004400 -1.113459
    31 0.869359 0.000000 0.000000 0.011430 -0.043588 -0.781455
    32 4.118823 0.330451 1.420007 0.213176 0.196286 -1.126503
    33 1.176320 0.000004 0.000000 -0.041439 -0.020895 -1.011083
    34 0.970201 -0.000002 0.000000 1.698386 0.021997 -0.763847
    35 -7.008362 -0.998731 -4.819733 -2.308656 0.766367 -1.794147
    36 12.706345 0.000001 0.000000 -0.162295 0.293139 -1.381807
    37 -0.735476 -1.133394 0.022445 0.000000 0.000000 0.000000
    38 -3.817837 0.392731 -0.017613 0.000000 0.000000 0.000000
    39 -1.015219 -0.450641 0.659471 0.000000 0.000000 0.072209
    40 2.113039 -3.857967 -0.032198 0.000000 0.000000 1.806870
    41 3.850047 -0.721819 0.028026 -0.000002 0.000000 1.334723
    42 3.386322 -0.139487 -0.008962 0.000000 0.000000 0.762519
  time 16
    0 -4.962506 -26.154135 -4.099353 1.649070 -0.004240 1.570737
    1 4.468750 -15.335938 -23.640625 3.127097 0.888547 -2.406905
    2 1.473658 0.639411 -1.295237 1.484387 0.609550 -0.278032
    3 1.832611 0.000000 0.000003 3.078968 0.033266 0.475430
    4 1.003334 0.000000 -0.000001 -3.047670 0.020771 -0.198654
    5 3.823887 -0.419600 -1.411513 0.224049 0.061468 -0.020536
    6 2.187963 -0.000001 0.000001 0.013236 -0.021689 0.651993
    7 1.100958 0.000001 0.000000 0.058882 -0.043655 0.725339
    8 3.987879 -0.577446 -0.474705 0.214171 0.012365 0.029143
    9 1.890094 -0.000003 0.000000 0.030984 -0.035537 0.705321
    10 1.310922 0.000004 0.000000 0.006864 0.004896 0.834415
    11 4.117973 -0.654523 0.453703 0.128291 -0.031254 0.113600
    12 1.655280 0.000006 0.000000 -0.115955 0.103602 0.577996
    13 0.869585 0.000002 0.000000 0.044313 -0.036762 0.644244
    14 4.150646 -0.581573 1.354871 -0.291710 0.053086 0.380008
    15 1.157246 0.000002 0.000000 -0.000092 0.012613 0.471361
    16 1.019838 -0.000004 0.000000 -1.463294 -0.038071 0.263701
    17 8.000000 -0.999512 -4.820313 -1.538821 1.251957 -1.628770
    18 12.695415 0.000001 -0.000001 0.009139 0.191458 -0.685683
    19 -5.929966 -20.600119 -6.981741 2.992610 0.012370 -1.560173
    20 1.474217 -0.497159 -1.376391 1.089630 0.328102 -0.675753
    21 1.832171 0.000001 -0.000004 -2.324280 0.374115 0.717029
    22 1.042036 0.000001 0.000003 2.968432 -0.151393 -0.128848
    23 3.823316 0.665600 -1.331303 0.043202 0.128822 -0.101351
    24 2.152369 0.000003 0.000001 0.033011 -0.018967 -0.712727
    25 1.056623 0.000002 0.000000 -0.023127 0.002894 -0.230832
    26 3.985126 0.882023 -0.368497 0.178948 0.082219 -0.721011
    27 1.830180 0.000000 0.000000 0.424906 -0.123438 -1.610381
    28 1.561354 -0.000002 0.000000 -0.209758 -0.268815 -0.807401
    29 4.116523 0.710978 0.552260 0.101439 0.123991 -1.270559
    30 1.752720 0.000000 0.000000 0.037089 0.004400 -1.113459
    31 0.869359 0.000000 0.000000 0.011430 -0.043588 -0.781455
    32 4.118823 0.330451 1.420007 0.213176 0.196286 -1.126503
    33 1.176320 0.000004 0.000000 -0.041439 -0.020895 -1.011083
    34 0.970201 -0.000002 0.000000 1.698386 0.021997 -0.763847
    35 -7.008362 -0.998731 -4.819733 -2.302929 0.757888 -1.788838
    36 12.706345 0.000001 0.000000 -0.157507 0.292216 -1.365229
    37 -0.735476 -1.133394 0.022445 0.000000 0.000000 0.000000
    38 -3.817837 0.392731 -0.017613 0.000000 0.000000 0.000000
    39 -1.015219 -0.450641 0.659471 0.000000 0.000000 0.072209
    40 2.113039 -3.857967 -0.032198 0.000000 0.000000 1.806870
    41 3.850047 -0.721819 0.028026 -0.000002 0.000000 1.334723
    42 3.386322 -0.139487 -0.008962 0.000000 0.000000 0.762519
  time 17
    0 -4.962506 -26.228356 -4.064195 1.653104 -0.001972 1.570803
    1 4.468750 -15.335938 -23.640625 3.127097 0.888547 -2.406905
    2 1.473658 0.639411 -1.295237 1.484387 0.609550 -0.278032
    3 1.832611 0.000000 0.000003 3.078968 0.033266 0.475430
    4 1.003334 0.000000 -0.000001 -3.047670 0.020771 -0.198654
    5 3.823887 -0.419600 -1.411513 0.224049 0.061468 -0.020536
    6 2.187963 -0.000001 0.000001 0.013236 -0.021689 0.651993
    7 1.100958 0.000001 0.000000 0.058882 -0.043655 0.725339
    8 3.987879 -0.577446 -0.474705 0.214171 0.012365 0.029143
    9 1.890094 -0.000003 0.000000 0.030984 -0.035537 0.705321
    10 1.310922 0.000004 0.000000 0.006864 0.004896 0.834415
    11 4.117973 -0.654523 0.453703 0.128291 -0.031254 0.113600
    12 1.655280 0.000006 0.000000 -0.115955 0.103602 0.577996
    13 0.869585 0.000002 0.000000 0.044313 -0.036762 0.644244
    14 4.150646 -0.581573 1.354871 -0.291710 0.053086 0.380008
    15 1.157246 0.000002 0.000000 -0.000092 0.012613 0.471361
    16 1.019838 -0.000004 0.000000 -1.463294 -0.038071 0.263701
    17 8.000000 -0.999512 -4.820313 -1.538821 1.251957 -1.628770
    18 12.695415 0.000001 -0.000001 0.009139 0.191458 -0.685683
    19 -5.941685 -20.682152 -6.954397 2.988552 0.010172 -1.560173
    20 1.474217 -0.497159 -1.376391 1.089630 0.328102 -0.675753
    21 1.832171 0.000001 -0.000004 -2.324280 0.374115 0.717029
    22 1.042036 0.000001 0.000003 2.968432 -0.151393 -0.128848
    23 3.823316 0.665600 -1.331303 0.043202 0.128822 -0.101351
    24 2.152369 0.000003 0.000001 0.033011 -0.018967 -0.712727
    25 1.056623 0.000002 0.000000 -0.023127 0.002894 -0.230832
    26 3.985126 0.882023 -0.368497 0.178948 0.082219 -0.721011
    27 1.830180 0.000000 0.000000 0.424906 -0.123438 -1.610381
    28 1.561354 -0.000002 0.000000 -0.209758 -0.268815 -0.807401
    29 4.116523 0.710978 0.552260 0.101439 0.123991 -1.270559
    30 1.752720 0.000000 0.000000 0.037089 0.004400 -1.113459
    31 0.869359 0.000000 0.000000 0.011430 -0.043588 -0.781455
    32 4.118823 0.330451 1.420007 0.213176 0.196286 -1.126503
    33 1.176320 0.000004 0.000000 -0.041439 -0.020895 -1.011083
    34 0.970201 -0.000002 0.000000 1.698386 0.021997 -0.763847
    35 -7.008362 -0.998731 -4.819733 -2.298386 0.752031 -1.785216
    36 12.706345 0.000001 0.000000 -0.154589 0.291617 -1.355126
    37 -0.735476 -1.133394 0.022445 0.000000 0.000000 0.000000
    38 -3.817837 0.392731 -0.017613 0.000000 0.000000 0.000000
    39 -1.015219 -0.450641 0.659471 0.000000 0.000000 0.072209
    40 2.113039 -3.857967 -0.032198 0.000000 0.000000 1.806870
    41 3.850047 -0.721819 0.028026 -0.000002 0.000000 1.334723
    42 3.386322 -0.139487 -0.008962 0.000000 0.000000 0.762519
  time 18
    0 -4.962506 -26.267420 -4.029038 1.656657 -0.000690 1.570803
    1 4.468750 -15.335938 -23.640625 3.127097 0.888547 -2.406905
    2 1.473658 0.639411 -1.295237 1.484387 0.609550 -0.278032
    3 1.832611 0.000000 0.000003 3.078968 0.033266 0.475430
    4 1.003334 0.000000 -0.000001 -3.047670 0.020771 -0.198654
    5 3.823887 -0.419600 -1.411513 0.224049 0.061468 -0.020536
    6 2.187963 -0.000001 0.000001 0.013236 -0.021689 0.651993
    7 1.100958 0.000001 0.000000 0.058882 -0.043655 0.725339
    8 3.987879 -0.577446 -0.474705 0.214171 0.012365 0.029143
    9 1.890094 -0.000003 0.000000 0.030984 -0.035537 0.705321
    10 1.310922 0.000004 0.000000 0.006864 0.004896 0.834415
    11 4.117973 -0.654523 0.453703 0.128291 -0.031254 0.113600
    12 1.655280 0.000006 0.000000 -0.115955 0.103602 0.577996
    13 0.869585 0.000002 0.000000 0.044313 -0.036762 0.644244
    14 4.150646 -0.581573 1.354871 -0.291710 0.053086 0.380008
    15 1.157246 0.000002 0.000000 -0.000092 0.012613 0.471361
    16 1.019838 -0.000004 0.000000 -1.463294 -0.038071 0.263701
    17 8.000000 -0.999512 -4.820313 -1.538821 1.251957 -1.628770
    18 12.695415 0.000001 -0.000001 0.009139 0.191458 -0.685683
    19 -5.953405 -20.725122 -6.923146 2.985004 0.008926 -1.560239
    20 1.474217 -0.497159 -1.376391 1.089630 0.328102 -0.675753
    21 1.832171 0.000001 -0.000004 -2.324280 0.374115 0.717029
    22 1.042036 0.000001 0.000003 2.968432 -0.151393 -0.128848
    23 3.823316 0.665600 -1.331303 0.043202 0.128822 -0.101351
    24 2.152369 0.000003 0.000001 0.033011 -0.018967 -0.712727
    25 1.056623 0.000002 0.000000 -0.023127 0.002894 -0.230832
    26 3.985126 0.882023 -0.368497 0.178948 0.082219 -0.721011
    27 1.830180 0.000000 0.000000 0.424906 -0.123438 -1.610381
    28 1.561354 -0.000002 0.000000 -0.209758 -0.268815 -0.807401
    29 4.116523 0.710978 0.552260 0.101439 0.123991 -1.270559
    30 1.752720 0.000000 0.000000 0.037089 0.004400 -1.113459
    31 0.869359 0.000000 0.000000 0.011430 -0.043588 -0.781455
    32 4.118823 0.330451 1.420007 0.213176 0.196286 -1.126503
    33 1.176320 0.000004 0.000000 -0.041439 -0.020895 -1.011083
    34 0.970201 -0.000002 0.000000 1.698386 0.021997 -0.763847
    35 -7.008362 -0.998731 -4.819733 -2.295292 0.748588 -1.783182
    36 12.706345 0.000001 0.000000 -0.153200 0.291329 -1.350269
    37 -0.735476 -1.133394 0.022445 0.000000 0.000000 0.000000
    38 -3.817837 0.392731 -0.017613 0.000000 0.000000 0.000000
    39 -1.015219 -0.450641 0.659471 0.000000 0.000000 0.072209
    40 2.113039 -3.857967 -0.032198 0.000000 0.000000 1.806870
    41 3.850047 -0.721819 0.028026 -0.000002 0.000000 1.334723
    42 3.386322 -0.139487 -0.008962 0.000000 0.000000 0.762519
  time 19
    0 -4.962506 -26.283045 -4.009506 1.658975 -0.000131 1.570737
    1 4.468750 -15.335938 -23.640625 3.127097 0.888547 -2.406905
    2 1.473658 0.639411 -1.295237 1.484387 0.609550 -0.278032
    3 1.832611 0.000000 0.000003 3.078968 0.033266 0.475430
    4 1.003334 0.000000 -0.000001 -3.047670 0.020771 -0.198654
    5 3.823887 -0.419600 -1.411513 0.224049 0.061468 -0.020536
    6 2.187963 -0.000001 0.000001 0.013236 -0.021689 0.651993
    7 1.100958 0.000001 0.000000 0.058882 -0.043655 0.725339
    8 3.987879 -0.577446 -0.474705 0.214171 0.012365 0.029143
    9 1.890094 -0.000003 0.000000 0.030984 -0.035537 0.705321
    10 1.310922 0.000004 0.000000 0.006864 0.004896 0.834415
    11 4.117973 -0.654523 0.453703 0.128291 -0.031254 0.113600
    12 1.655280 0.000006 0.000000 -0.115955 0.103602 0.577996
    13 0.869585 0.000002 0.000000 0.044313 -0.036762 0.644244
    14 4.150646 -0.581573 1.354871 -0.291710 0.053086 0.380008
    15 1.157246 0.000002 0.000000 -0.000092 0.012613 0.471361
    16 1.019838 -0.000004 0.000000 -1.463294 -0.038071 0.263701
    17 8.000000 -0.999512 -4.820313 -1.538821 1.251957 -1.628770
    18 12.695415 0.000001 -0.000001 0.009139 0.191458 -0.685683
    19 -5.957311 -20.740748 -6.903614 2.982660 0.008368 -1.560239
    20 1.474217 -0.497159 -1.376391 1.089630 0.328102 -0.675753
    21 1.832171 0.000001 -0.000004 -2.324280 0.374115 0.717029
    22 1.042036 0.000001 0.000003 2.968432 -0.151393 -0.128848
    23 3.823316 0.665600 -1.331303 0.043202 0.128822 -0.101351
    24 2.152369 0.000003 0.000001 0.033011 -0.018967 -0.712727
    25 1.056623 0.000002 0.000000 -0.023127 0.002894 -0.230832
    26 3.985126 0.882023 -0.368497 0.178948 0.082219 -0.721011
    27 1.830180 0.000000 0.000000 0.424906 -0.123438 -1.610381
    28 1.561354 -0.000002 0.000000 -0.209758 -0.268815 -0.807401
    29 4.116523 0.710978 0.552260 0.101439 0.123991 -1.270559
    30 1.752720 0.000000 0.000000 0.037089 0.004400 -1.113459
    31 0.869359 0.000000 0.000000 0.011430 -0.043588 -0.781455
    32 4.118823 0.330451 1.420007 0.213176 0.196286 -1.126503
    33 1.176320 0.000004 0.000000 -0.041439 -0.020895 -1.011083
    34 0.970201 -0.000002 0.000000 1.698386 0.021997 -0.763847
    35 -7.008362 -0.998731 -4.819733 -2.293580 0.747021 -1.782239
    36 12.706345 0.000001 0.000000 -0.152733 0.291221 -1.348650
    37 -0.735476 -1.133394 0.022445 0.000000 0.000000 0.000000
    38 -3.817837 0.392731 -0.017613 0.000000 0.000000 0.000000
    39 -1.015219 -0.450641 0.659471 0.000000 0.000000 0.072209
    40 2.113039 -3.857967 -0.032198 0.000000 0.000000 1.806870
    41 3.850047 -0.721819 0.028026 -0.000002 0.000000 1.334723
    42 3.386322 -0.139487 -0.008962 0.000000 0.000000 0.762519
  time 20
    0 -4.962506 -26.283045 -4.001693 1.659757 0.000000 1.570737
    1 4.468750 -15.335938 -23.640625 3.127097 0.888547 -2.406905
    2 1.473658 0.639411 -1.295237 1.484387 0.609550 -0.278032
    3 1.832611 0.000000 0.000003 3.078968 0.033266 0.475430
    4 1.003334 0.000000 -0.000001 -3.047670 0.020771 -0.198654
    5 3.823887 -0.419600 -1.411513 0.224049 0.061468 -0.020536
    6 2.187963 -0.000001 0.000001 0.013236 -0.021689 0.651993
    7 1.100958 0.000001 0.000000 0.058882 -0.043655 0.725339
    8 3.987879 -0.577446 -0.474705 0.214171 0.012365 0.029143
    9 1.890094 -0.000003 0.000000 0.030984 -0.035537 0.705321
    10 1.310922 0.000004 0.000000 0.006864 0.004896 0.834415
    11 4.117973 -0.654523 0.453703 0.128291 -0.031254 0.113600
    12 1.655280 0.000006 0.000000 -0.115955 0.103602 0.577996
    13 0.869585 0.000002 0.000000 0.044313 -0.036762 0.644244
    14 4.150646 -0.581573 1.354871 -0.291710 0.053086 0.380008
    15 1.157246 0.000002 0.000000 -0.000092 0.012613 0.471361
    16 1.019838 -0.000004 0.000000 -1.463294 -0.038071 0.263701
    17 8.000000 -0.999512 -4.820313 -1.538821 1.251957 -1.628770
    18 12.695415 0.000001 -0.000001 0.009139 0.191458 -0.685683
    19 -5.961217 -20.740748 -6.895801 2.981878 0.008237 -1.560239
    20 1.474217 -0.497159 -1.376391 1.089630 0.328102 -0.675753
    21 1.832171 0.000001 -0.000004 -2.324280 0.374115 0.717029
    22 1.042036 0.000001 0.000003 2.968432 -0.151393 -0.128848
    23 3.823316 0.665600 -1.331303 0.043202 0.128822 -0.101351
    24 2.152369 0.000003 0.000001 0.033011 -0.018967 -0.712727
    25 1.056623 0.000002 0.000000 -0.023127 0.002894 -0.230832
    26 3.985126 0.882023 -0.368497 0.178948 0.082219 -0.721011
    27 1.830180 0.000000 0.000000 0.424906 -0.123438 -1.610381
    28 1.561354 -0.000002 0.000000 -0.209758 -0.268815 -0.807401
    29 4.116523 0.710978 0.552260 0.101439 0.123991 -1.270559
    30 1.752720 0.000000 0.000000 0.037089 0.004400 -1.113459
    31 0.869359 0.000000 0.000000 0.011430 -0.043588 -0.781455
    32 4.118823 0.330451 1.420007 0.213176 0.196286 -1.126503
    33 1.176320 0.000004 0.000000 -0.041439 -0.020895 -1.011083
    34 0.970201 -0.000002 0.000000 1.698386 0.021997 -0.763847
    35 -7.008362 -0.998731 -4.819733 -2.293054 0.746635 -1.781991
    36 12.706345 0.000001 0.000000 -0.152676 0.291209 -1.348456
    37 -0.735476 -1.133394 0.022445 0.000000 0.000000 0.000000
    38 -3.817837 0.392731 -0.017613 0.000000 0.000000 0.000000
    39 -1.015219 -0.450641 0.659471 0.000000 0.000000 0.072209
    40 2.113039 -3.857967 -0.032198 0.000000 0.000000 1.806870
    41 3.850047 -0.721819 0.028026 -0.000002 0.000000 1.334723
    42 3.386322 -0.139487 -0.008962 0.000000 0.000000 0.762519
end
