VertexLitGeneric
{
$baseTexture "models/props/portal2/metal_box_skin001"
	"$bumpmap" "models/props/portal2/metal_box_normal"
$envmap "paint/paint_envmap_hdr"
$envmaptint "[0.05 0.05 0.05]"
$normalmapalphaenvmapmask 1
$detail "paint/prop_paint_blue"
$detailScale 1
$detailblendmode 2
$phong 1
$phongexponent 50
$phongfresnelranges "[1 2 4]"
$phongboost 2
$selfillum 1
$nodecal 1
	"$phongexponenttexture" "models/props/portal2/metal_box_exponent"
}
