// Created by Crowbar 0.56
version 1
nodes
  0 "Bip01" -1
  1 "Bip01 Pelvis" 0
  2 "Bip01 L Thigh" 1
  3 "Bip01 L Calf" 2
  4 "Bip01 L Foot" 3
  5 "Bip01 L Toe0" 4
  6 "Bip01 R Thigh" 1
  7 "Bip01 R Calf" 6
  8 "Bip01 R Foot" 7
  9 "Bip01 R Toe0" 8
  10 "Bip01 Spine" 1
  11 "Bip01 Spine1" 10
  12 "Bip01 Spine2" 11
  13 "Bip01 Spine3" 12
  14 "Bip01 Neck" 13
  15 "Bip01 L Clavicle" 14
  16 "Bip01 L UpperArm" 15
  17 "Bip01 L Forearm" 16
  18 "Bip01 L Hand" 17
  19 "Bip01 L Finger0" 18
  20 "Bip01 L Finger01" 19
  21 "Bip01 L Finger02" 20
  22 "Bip01 L Finger1" 18
  23 "Bip01 L Finger11" 22
  24 "Bip01 L Finger12" 23
  25 "Bip01 L Finger2" 18
  26 "Bip01 L Finger21" 25
  27 "Bip01 L Finger22" 26
  28 "Bip01 L Finger3" 18
  29 "Bip01 L Finger31" 28
  30 "Bip01 L Finger32" 29
  31 "Bip01 L Finger4" 18
  32 "Bip01 L Finger41" 31
  33 "Bip01 L Finger42" 32
  34 "Bip01 R Clavicle" 14
  35 "Bip01 R UpperArm" 34
  36 "Bip01 R Forearm" 35
  37 "Bip01 R Hand" 36
  38 "Bip01 R Finger0" 37
  39 "Bip01 R Finger01" 38
  40 "Bip01 R Finger02" 39
  41 "Bip01 R Finger1" 37
  42 "Bip01 R Finger11" 41
  43 "Bip01 R Finger12" 42
  44 "Bip01 R Finger2" 37
  45 "Bip01 R Finger21" 44
  46 "Bip01 R Finger22" 45
  47 "Bip01 R Finger3" 37
  48 "Bip01 R Finger31" 47
  49 "Bip01 R Finger32" 48
  50 "Bip01 R Finger4" 37
  51 "Bip01 R Finger41" 50
  52 "Bip01 R Finger42" 51
  53 "Bip01 Head" 14
  54 "Bone05" 53
  55 "Dummy05" 53
  56 "L_eyebrow" 55
  57 "C_eyebrow" 55
  58 "R_eyebrow" 55
  59 "R_Eye" 55
  60 "Eyelids" 55
  61 "L_Eye" 55
  62 "m4" 37
  63 "SHOTGUN" 38
end
skeleton
  time 0
    0 0.054472 -0.018697 28.042271 0.000000 0.000000 -2.033579
    1 -0.526041 0.000001 9.745319 0.000000 -1.570451 -1.570795
    2 -0.000011 0.000010 5.615750 -3.374468 -0.330561 2.577826
    3 15.693466 0.000000 0.000000 0.000000 0.000000 -0.487181
    4 22.146629 -0.000001 0.000000 0.114934 -0.144014 -0.143107
    5 3.310129 5.734395 0.000000 0.000000 0.000000 1.570796
    6 0.000008 -0.000006 -5.615750 -2.929578 0.241847 3.195977
    7 15.693470 0.000000 0.000000 0.000000 0.000000 -0.482019
    8 22.146629 0.000000 0.000000 0.274770 0.248034 0.484898
    9 3.310129 5.734395 0.000000 0.000000 0.000000 1.570796
    10 1.384159 -0.004728 0.000002 -0.372545 -0.003436 0.086521
    11 5.939816 -0.004730 0.000000 0.000000 0.000000 0.000000
    12 5.939808 -0.003975 0.000000 0.000000 0.000000 0.000000
    13 4.991440 -0.003975 0.000000 0.000000 0.000000 0.000000
    14 4.991432 -0.001575 0.000000 0.000000 0.000000 0.000000
    15 0.000008 0.001564 3.638375 -0.000010 -1.284244 3.140806
    16 8.842831 0.000000 -0.000004 -0.414790 -0.110728 -0.914548
    17 9.341934 0.000000 0.000000 0.000000 0.000000 -0.852910
    18 11.168404 -0.000001 0.000004 -4.515699 0.471467 -0.520779
    19 1.364904 0.231174 -1.984411 2.565506 0.787623 1.289793
    20 1.748535 -0.000002 0.000000 0.000000 0.000000 -0.043596
    21 1.272493 0.000000 0.000000 0.000000 0.000000 0.253070
    22 4.525587 -0.000301 -1.850224 0.062816 0.072691 0.735167
    23 1.719875 -0.000004 0.000001 0.000000 0.000000 0.619507
    24 1.383650 0.000004 0.000000 0.000000 0.000000 0.741679
    25 4.525587 -0.000103 -0.616741 0.033512 0.040262 0.733557
    26 1.807671 0.000000 -0.000002 0.000000 0.000000 0.567166
    27 1.614256 0.000000 0.000001 0.000000 0.000000 0.741755
    28 4.525587 0.000103 0.616741 0.021811 0.027340 0.733211
    29 1.719870 0.000000 0.000000 0.000000 0.000000 0.366471
    30 1.383650 -0.000004 0.000000 0.000000 0.000000 0.741673
    31 4.525587 0.000301 1.850224 -0.024821 -0.024628 0.733269
    32 1.433229 0.000000 0.000001 0.000000 0.000000 0.366461
    33 1.153040 0.000000 0.000000 0.000000 0.000000 0.741669
    34 0.000000 0.001585 -3.638375 -0.000010 1.284244 3.140787
    35 8.842832 0.000000 0.000000 0.953726 -0.539146 -2.198029
    36 9.341938 0.000000 -0.000004 0.000000 0.000000 -0.994814
    37 11.168402 -0.000001 -0.000004 1.806677 0.075052 0.649563
    38 1.364901 0.231174 1.984410 3.141548 0.005165 1.002275
    39 1.748535 -0.000002 0.000000 0.000000 0.000000 0.436286
    40 1.272493 0.000000 0.000000 0.000000 0.000000 0.322857
    41 4.525583 -0.000301 1.850223 -0.016340 -0.094622 0.192574
    42 1.719875 0.000000 0.000000 0.000000 0.000000 0.034907
    43 1.383648 0.000000 0.000000 0.000000 0.000000 0.689338
    44 4.525581 -0.000103 0.616742 -0.040895 -0.032761 0.934331
    45 1.807673 0.000000 0.000000 0.000000 0.000000 0.907546
    46 1.614258 -0.000004 0.000000 0.000000 0.000000 1.151843
    47 4.525578 0.000099 -0.616741 -0.026857 -0.022390 0.933931
    48 1.719872 -0.000004 0.000000 0.000000 0.000000 0.907546
    49 1.383646 0.000004 0.000000 0.000000 0.000000 1.151843
    50 4.525581 0.000301 -1.850223 0.029256 0.019176 0.933935
    51 1.433226 0.000004 0.000000 0.000000 0.000000 0.907457
    52 1.153040 0.000000 0.000000 0.000000 0.000000 1.151882
    53 1.977379 0.000000 0.000000 0.835592 0.294277 0.196050
    54 3.723976 2.768054 -0.049087 -3.141592 -0.000002 1.570799
    55 11.781860 -0.001184 -0.000003 0.000000 0.000000 0.000000
    56 -3.887192 4.546144 1.934869 0.000000 -1.570796 -3.141591
    57 -4.205009 4.546216 -0.015855 0.000000 -1.570796 -3.141591
    58 -3.887192 4.546178 -1.987145 0.000000 -1.570796 -3.141591
    59 -4.881813 5.593821 -1.566820 1.047319 -1.487704 2.076220
    60 -4.886909 5.683144 -0.007570 0.000000 -1.570796 -3.132865
    61 -4.881798 5.609550 1.546659 1.047319 -1.487704 2.076220
    62 3.710045 1.760548 -0.059361 -0.091834 -0.075875 1.616828
    63 12.138049 14.189942 -4.062706 -0.883736 -1.446972 0.272608
  time 1
    0 -1.007007 -0.448991 28.042271 0.000000 0.000000 -2.065889
    1 -0.526041 0.000001 9.745319 0.000000 -1.570451 -1.570795
    2 -0.000011 0.000010 5.615750 -3.410796 -0.375630 2.607688
    3 15.693466 0.000000 0.000000 0.000000 0.000000 -0.502760
    4 22.146629 -0.000001 0.000000 0.108616 -0.169275 -0.117817
    5 3.310129 5.734395 0.000000 0.000000 0.000000 1.570796
    6 0.000008 -0.000006 -5.615750 -3.003878 0.305894 2.931210
    7 15.693470 0.000000 0.000000 0.000000 0.000000 -0.909475
    8 22.146629 0.000000 0.000000 0.214017 0.112782 0.366610
    9 3.310129 5.734395 0.000000 0.000000 0.000000 1.570796
    10 1.384159 -0.004728 0.000002 -0.372545 -0.003436 0.086521
    11 5.939816 -0.004730 0.000000 0.000000 0.000000 0.000000
    12 5.939808 -0.003975 0.000000 0.000000 0.000000 0.000000
    13 4.991440 -0.003975 0.000000 0.000000 0.000000 0.000000
    14 4.991432 -0.001575 0.000000 0.000000 0.000000 0.000000
    15 0.000008 0.001564 3.638375 -0.000010 -1.284244 3.140806
    16 8.842831 0.000000 -0.000004 -0.443686 -0.099112 -0.806403
    17 9.341934 0.000000 0.000000 0.000000 0.000000 -0.952297
    18 11.168404 -0.000001 0.000004 -4.530786 0.485824 -0.504940
    19 1.364904 0.231174 -1.984411 2.565506 0.787623 1.289793
    20 1.748535 -0.000002 0.000000 0.000000 0.000000 -0.043596
    21 1.272493 0.000000 0.000000 0.000000 0.000000 0.253070
    22 4.525587 -0.000301 -1.850224 0.062816 0.072691 0.735167
    23 1.719875 -0.000004 0.000001 0.000000 0.000000 0.619507
    24 1.383650 0.000004 0.000000 0.000000 0.000000 0.741679
    25 4.525587 -0.000103 -0.616741 0.033512 0.040262 0.733557
    26 1.807671 0.000000 -0.000002 0.000000 0.000000 0.567166
    27 1.614256 0.000000 0.000001 0.000000 0.000000 0.741755
    28 4.525587 0.000103 0.616741 0.021811 0.027340 0.733211
    29 1.719870 0.000000 0.000000 0.000000 0.000000 0.366471
    30 1.383650 -0.000004 0.000000 0.000000 0.000000 0.741673
    31 4.525587 0.000301 1.850224 -0.024821 -0.024628 0.733269
    32 1.433229 0.000000 0.000001 0.000000 0.000000 0.366461
    33 1.153040 0.000000 0.000000 0.000000 0.000000 0.741669
    34 0.000000 0.001585 -3.638375 -0.000010 1.284244 3.140787
    35 8.842832 0.000000 0.000000 0.969950 -0.508120 -2.264544
    36 9.341938 0.000000 -0.000004 0.000000 0.000000 -0.906081
    37 11.168402 -0.000001 -0.000004 1.810033 0.077876 0.609609
    38 1.364901 0.231174 1.984410 3.141548 0.005165 1.002275
    39 1.748535 -0.000002 0.000000 0.000000 0.000000 0.436286
    40 1.272493 0.000000 0.000000 0.000000 0.000000 0.322881
    41 4.525583 -0.000301 1.850223 -0.016340 -0.094622 0.192574
    42 1.719875 0.000000 0.000000 0.000000 0.000000 0.034907
    43 1.383648 0.000000 0.000000 0.000000 0.000000 0.689338
    44 4.525581 -0.000103 0.616742 -0.040895 -0.032761 0.934331
    45 1.807673 0.000000 0.000000 0.000000 0.000000 0.907546
    46 1.614258 -0.000004 0.000000 0.000000 0.000000 1.151843
    47 4.525578 0.000099 -0.616741 -0.026857 -0.022390 0.933931
    48 1.719872 -0.000004 0.000000 0.000000 0.000000 0.907546
    49 1.383646 0.000004 0.000000 0.000000 0.000000 1.151843
    50 4.525581 0.000301 -1.850223 0.029256 0.019176 0.933935
    51 1.433226 0.000004 0.000000 0.000000 0.000000 0.907457
    52 1.153040 0.000000 0.000000 0.000000 0.000000 1.151882
    53 1.977379 0.000000 0.000000 0.835592 0.294277 0.196050
    54 3.723976 2.768054 -0.049087 -3.141592 -0.000002 1.570799
    55 11.781860 -0.001184 -0.000003 0.000000 0.000000 0.000000
    56 -3.887192 4.546144 1.934869 0.000000 -1.570796 -3.141591
    57 -4.205009 4.546216 -0.015855 -3.128025 -1.565439 -0.000095
    58 -3.887192 4.546178 -1.987145 0.000000 -1.570796 -3.141591
    59 -4.881813 5.593821 -1.566820 1.241918 -1.437577 1.861435
    60 -4.886909 5.683144 -0.007570 0.000000 -1.570796 -3.132865
    61 -4.881798 5.609550 1.546659 1.241918 -1.437577 1.861435
    62 3.710045 1.760548 -0.059361 -0.091834 -0.075875 1.616828
    63 12.138049 14.189942 -4.062706 -0.883736 -1.447053 0.272608
  time 2
    0 -2.400199 -1.052912 28.042271 0.000000 0.000000 -2.051796
    1 -0.526041 0.000001 9.745319 0.000000 -1.570451 -1.570795
    2 -0.000011 0.000010 5.615750 -3.417684 -0.400071 2.637550
    3 15.693466 0.000000 0.000000 0.000000 0.000000 -0.494081
    4 22.146629 -0.000001 0.000000 0.082929 -0.196171 -0.105379
    5 3.310129 5.734395 0.000000 0.000000 0.000000 1.570796
    6 0.000008 -0.000006 -5.615750 -3.119898 0.295289 2.702026
    7 15.693470 0.000000 0.000000 0.000000 0.000000 -1.176905
    8 22.146629 0.000000 0.000000 0.158285 -0.008749 0.235727
    9 3.310129 5.734395 0.000000 0.000000 0.000000 1.570796
    10 1.384159 -0.004728 0.000002 -0.372545 -0.003436 0.086521
    11 5.939816 -0.004730 0.000000 0.000000 0.000000 0.000000
    12 5.939808 -0.003975 0.000000 0.000000 0.000000 0.000000
    13 4.991440 -0.003975 0.000000 0.000000 0.000000 0.000000
    14 4.991432 -0.001575 0.000000 0.000000 0.000000 0.000000
    15 0.000008 0.001564 3.638375 -0.000010 -1.284244 3.140806
    16 8.842831 0.000000 -0.000004 -0.449630 -0.093826 -0.780133
    17 9.341934 0.000000 0.000000 0.000000 0.000000 -0.983705
    18 11.168404 -0.000001 0.000004 -4.546925 0.493149 -0.518440
    19 1.364904 0.231174 -1.984411 2.565506 0.787623 1.289793
    20 1.748535 -0.000002 0.000000 0.000000 0.000000 -0.043596
    21 1.272493 0.000000 0.000000 0.000000 0.000000 0.253070
    22 4.525587 -0.000301 -1.850224 0.062816 0.072691 0.735167
    23 1.719875 -0.000004 0.000001 0.000000 0.000000 0.619507
    24 1.383650 0.000004 0.000000 0.000000 0.000000 0.741679
    25 4.525587 -0.000103 -0.616741 0.033512 0.040262 0.733557
    26 1.807671 0.000000 -0.000002 0.000000 0.000000 0.567166
    27 1.614256 0.000000 0.000001 0.000000 0.000000 0.741755
    28 4.525587 0.000103 0.616741 0.021811 0.027340 0.733211
    29 1.719870 0.000000 0.000000 0.000000 0.000000 0.366471
    30 1.383650 -0.000004 0.000000 0.000000 0.000000 0.741673
    31 4.525587 0.000301 1.850224 -0.024821 -0.024628 0.733269
    32 1.433229 0.000000 0.000001 0.000000 0.000000 0.366461
    33 1.153040 0.000000 0.000000 0.000000 0.000000 0.741669
    34 0.000000 0.001585 -3.638375 -0.000010 1.284244 3.140787
    35 8.842832 0.000000 0.000000 0.968347 -0.518836 -2.286652
    36 9.341938 0.000000 -0.000004 0.000000 0.000000 -0.917164
    37 11.168402 -0.000001 -0.000004 1.817304 0.115770 0.627847
    38 1.364901 0.231174 1.984410 3.141548 0.005165 1.002275
    39 1.748535 -0.000002 0.000000 0.000000 0.000000 0.436286
    40 1.272493 0.000000 0.000000 0.000000 0.000000 0.322881
    41 4.525583 -0.000301 1.850223 -0.016340 -0.094622 0.192574
    42 1.719875 0.000000 0.000000 0.000000 0.000000 0.034907
    43 1.383648 0.000000 0.000000 0.000000 0.000000 0.689338
    44 4.525581 -0.000103 0.616742 -0.040895 -0.032761 0.934331
    45 1.807673 0.000000 0.000000 0.000000 0.000000 0.907546
    46 1.614258 -0.000004 0.000000 0.000000 0.000000 1.151843
    47 4.525578 0.000099 -0.616741 -0.026857 -0.022390 0.933931
    48 1.719872 -0.000004 0.000000 0.000000 0.000000 0.907546
    49 1.383646 0.000004 0.000000 0.000000 0.000000 1.151843
    50 4.525581 0.000301 -1.850223 0.029256 0.019176 0.933935
    51 1.433226 0.000004 0.000000 0.000000 0.000000 0.907457
    52 1.153040 0.000000 0.000000 0.000000 0.000000 1.151882
    53 1.977379 0.000000 0.000000 0.835592 0.294277 0.196050
    54 3.723976 2.768054 -0.049087 -3.141592 -0.000002 1.570799
    55 11.781860 -0.001184 -0.000003 0.000000 0.000000 0.000000
    56 -3.887192 4.546144 1.934869 0.000000 -1.570796 -3.141591
    57 -4.205009 4.546216 -0.015855 -3.114564 -1.560034 -0.000095
    58 -3.887192 4.546178 -1.987145 0.000000 -1.570796 -3.141591
    59 -4.881813 5.593821 -1.566820 1.322911 -1.384959 1.760165
    60 -4.886909 5.683144 -0.007570 0.000000 -1.570796 -3.132865
    61 -4.881798 5.609550 1.546659 1.322911 -1.384959 1.760165
    62 3.710045 1.760548 -0.059361 -0.091834 -0.075875 1.616828
    63 12.138049 14.189942 -4.062706 -0.883736 -1.446972 0.272608
  time 3
    0 -3.743634 -1.656834 28.042271 0.000000 0.000000 -2.010762
    1 -0.526041 0.000001 9.745319 0.000000 -1.570451 -1.570795
    2 -0.000011 0.000010 5.615750 -3.405889 -0.409557 2.664072
    3 15.693466 0.000000 0.000000 0.000000 0.000000 -0.466409
    4 22.146629 -0.000001 0.000000 0.049466 -0.220887 -0.107528
    5 3.310129 5.734395 0.000000 0.000000 0.000000 1.570796
    6 0.000008 -0.000006 -5.615750 -3.186172 0.288095 2.764965
    7 15.693470 0.000000 0.000000 0.000000 0.000000 -1.030202
    8 22.146629 0.000000 0.000000 0.145593 0.093627 0.268756
    9 3.310129 5.734395 0.000000 0.000000 0.000000 1.570796
    10 1.384159 -0.004728 0.000002 -0.372545 -0.003436 0.086521
    11 5.939816 -0.004730 0.000000 0.000000 0.000000 0.000000
    12 5.939808 -0.003975 0.000000 0.000000 0.000000 0.000000
    13 4.991440 -0.003975 0.000000 0.000000 0.000000 0.000000
    14 4.991432 -0.001575 0.000000 0.000000 0.000000 0.000000
    15 0.000008 0.001564 3.638375 -0.000010 -1.284244 3.140806
    16 8.842831 0.000000 -0.000004 -0.438474 -0.098851 -0.822078
    17 9.341934 0.000000 0.000000 0.000000 0.000000 -0.945491
    18 11.168404 -0.000001 0.000004 -4.558193 0.494321 -0.554888
    19 1.364904 0.231174 -1.984411 2.565506 0.787623 1.289793
    20 1.748535 -0.000002 0.000000 0.000000 0.000000 -0.043596
    21 1.272493 0.000000 0.000000 0.000000 0.000000 0.253070
    22 4.525587 -0.000301 -1.850224 0.062816 0.072691 0.735167
    23 1.719875 -0.000004 0.000001 0.000000 0.000000 0.619507
    24 1.383650 0.000004 0.000000 0.000000 0.000000 0.741679
    25 4.525587 -0.000103 -0.616741 0.033512 0.040262 0.733557
    26 1.807671 0.000000 -0.000002 0.000000 0.000000 0.567166
    27 1.614256 0.000000 0.000001 0.000000 0.000000 0.741755
    28 4.525587 0.000103 0.616741 0.021811 0.027340 0.733211
    29 1.719870 0.000000 0.000000 0.000000 0.000000 0.366471
    30 1.383650 -0.000004 0.000000 0.000000 0.000000 0.741673
    31 4.525587 0.000301 1.850224 -0.024821 -0.024628 0.733269
    32 1.433229 0.000000 0.000001 0.000000 0.000000 0.366461
    33 1.153040 0.000000 0.000000 0.000000 0.000000 0.741669
    34 0.000000 0.001585 -3.638375 -0.000010 1.284244 3.140787
    35 8.842832 0.000000 0.000000 0.960046 -0.542158 -2.281125
    36 9.341938 0.000000 -0.000004 0.000000 0.000000 -0.964605
    37 11.168402 -0.000001 -0.000004 1.825414 0.164918 0.667236
    38 1.364901 0.231174 1.984410 3.141548 0.005165 1.002275
    39 1.748535 -0.000002 0.000000 0.000000 0.000000 0.436286
    40 1.272493 0.000000 0.000000 0.000000 0.000000 0.322857
    41 4.525583 -0.000301 1.850223 -0.016340 -0.094622 0.192574
    42 1.719875 0.000000 0.000000 0.000000 0.000000 0.034907
    43 1.383648 0.000000 0.000000 0.000000 0.000000 0.689298
    44 4.525581 -0.000103 0.616742 -0.040895 -0.032761 0.934300
    45 1.807673 0.000000 0.000000 0.000000 0.000000 0.907546
    46 1.614258 -0.000004 0.000000 0.000000 0.000000 1.151884
    47 4.525578 0.000099 -0.616741 -0.026857 -0.022390 0.933931
    48 1.719872 -0.000004 0.000000 0.000000 0.000000 0.907546
    49 1.383646 0.000004 0.000000 0.000000 0.000000 1.151884
    50 4.525581 0.000301 -1.850223 0.029256 0.019176 0.933935
    51 1.433226 0.000004 0.000000 0.000000 0.000000 0.907457
    52 1.153040 0.000000 0.000000 0.000000 0.000000 1.151882
    53 1.977379 0.000000 0.000000 0.835592 0.294277 0.196050
    54 3.723976 2.768054 -0.049087 -3.141592 -0.000002 1.570799
    55 11.781860 -0.001184 -0.000003 0.000000 0.000000 0.000000
    56 -3.887192 4.546144 1.934869 0.000000 -1.570796 -3.141591
    57 -4.205009 4.546216 -0.015855 1.756226 -1.554641 -4.857252
    58 -3.887192 4.546178 -1.987145 0.000000 -1.570796 -3.141591
    59 -4.881813 5.593821 -1.566820 1.363407 -1.331506 1.699172
    60 -4.886909 5.683144 -0.007570 0.000000 -1.570796 -3.132865
    61 -4.881798 5.609550 1.546659 1.363407 -1.331506 1.699172
    62 3.710045 1.760548 -0.059361 -0.091834 -0.075875 1.616828
    63 12.138049 14.189942 -4.062706 -0.883736 -1.446972 0.272608
  time 4
    0 -4.788528 -2.132422 28.042271 0.000000 0.000000 -1.963016
    1 -0.526041 0.000001 9.745319 0.000000 -1.570451 -1.570795
    2 -0.000011 0.000010 5.615750 -3.388622 -0.409639 2.683154
    3 15.693466 0.000000 0.000000 0.000000 0.000000 -0.431125
    4 22.146629 -0.000001 0.000000 0.022695 -0.238273 -0.122253
    5 3.310129 5.734395 0.000000 0.000000 0.000000 1.570796
    6 0.000008 -0.000006 -5.615750 -3.237110 0.285292 2.927001
    7 15.693470 0.000000 0.000000 0.000000 0.000000 -0.731660
    8 22.146629 0.000000 0.000000 0.192751 0.231519 0.367579
    9 3.310129 5.734395 0.000000 0.000000 0.000000 1.570796
    10 1.384159 -0.004728 0.000002 -0.372545 -0.003436 0.086521
    11 5.939816 -0.004730 0.000000 0.000000 0.000000 0.000000
    12 5.939808 -0.003975 0.000000 0.000000 0.000000 0.000000
    13 4.991440 -0.003975 0.000000 0.000000 0.000000 0.000000
    14 4.991432 -0.001575 0.000000 0.000000 0.000000 0.000000
    15 0.000008 0.001564 3.638375 -0.000010 -1.284244 3.140806
    16 8.842831 0.000000 -0.000004 -0.414424 -0.117515 -0.926107
    17 9.341934 0.000000 0.000000 0.000000 0.000000 -0.821502
    18 11.168404 -0.000001 0.000004 -4.560485 0.489145 -0.616355
    19 1.364904 0.231174 -1.984411 2.565506 0.787623 1.289793
    20 1.748535 -0.000002 0.000000 0.000000 0.000000 -0.043596
    21 1.272493 0.000000 0.000000 0.000000 0.000000 0.253070
    22 4.525587 -0.000301 -1.850224 0.062816 0.072691 0.735114
    23 1.719875 -0.000004 0.000001 0.000000 0.000000 0.619507
    24 1.383650 0.000004 0.000000 0.000000 0.000000 0.741679
    25 4.525587 -0.000103 -0.616741 0.033512 0.040262 0.733557
    26 1.807671 0.000000 -0.000002 0.000000 0.000000 0.567166
    27 1.614256 0.000000 0.000001 0.000000 0.000000 0.741755
    28 4.525587 0.000103 0.616741 0.021811 0.027340 0.733211
    29 1.719870 0.000000 0.000000 0.000000 0.000000 0.366471
    30 1.383650 -0.000004 0.000000 0.000000 0.000000 0.741673
    31 4.525587 0.000301 1.850224 -0.024821 -0.024628 0.733269
    32 1.433229 0.000000 0.000001 0.000000 0.000000 0.366461
    33 1.153040 0.000000 0.000000 0.000000 0.000000 0.741669
    34 0.000000 0.001585 -3.638375 -0.000010 1.284244 3.140787
    35 8.842832 0.000000 0.000000 0.953254 -0.555395 -2.257778
    36 9.341938 0.000000 -0.000004 0.000000 0.000000 -1.000220
    37 11.168402 -0.000001 -0.000004 1.829982 0.199946 0.695909
    38 1.364901 0.231174 1.984410 3.141548 0.005165 1.002275
    39 1.748535 -0.000002 0.000000 0.000000 0.000000 0.436286
    40 1.272493 0.000000 0.000000 0.000000 0.000000 0.322881
    41 4.525583 -0.000301 1.850223 -0.016340 -0.094622 0.192574
    42 1.719875 0.000000 0.000000 0.000000 0.000000 0.034907
    43 1.383648 0.000000 0.000000 0.000000 0.000000 0.689338
    44 4.525581 -0.000103 0.616742 -0.040895 -0.032761 0.934331
    45 1.807673 0.000000 0.000000 0.000000 0.000000 0.907546
    46 1.614258 -0.000004 0.000000 0.000000 0.000000 1.151843
    47 4.525578 0.000099 -0.616741 -0.026857 -0.022390 0.933931
    48 1.719872 -0.000004 0.000000 0.000000 0.000000 0.907546
    49 1.383646 0.000004 0.000000 0.000000 0.000000 1.151843
    50 4.525581 0.000301 -1.850223 0.029256 0.019176 0.933935
    51 1.433226 0.000004 0.000000 0.000000 0.000000 0.907457
    52 1.153040 0.000000 0.000000 0.000000 0.000000 1.151882
    53 1.977379 0.000000 0.000000 0.835592 0.294277 0.196050
    54 3.723976 2.768054 -0.049087 -3.141592 -0.000002 1.570799
    55 11.781860 -0.001184 -0.000003 0.000000 0.000000 0.000000
    56 -3.887192 4.546144 1.934869 0.000000 -1.570796 -3.141591
    57 -4.205009 4.546216 -0.015855 1.762909 -1.549260 -4.850541
    58 -3.887192 4.546178 -1.987145 0.000000 -1.570796 -3.141591
    59 -4.881813 5.593821 -1.566820 1.385278 -1.277688 1.656585
    60 -4.886909 5.683144 -0.007570 0.000000 -1.570796 -3.132865
    61 -4.881798 5.609550 1.546659 1.385278 -1.277688 1.656585
    62 3.710045 1.760548 -0.059361 -0.091834 -0.075875 1.616828
    63 12.138049 14.189942 -4.062706 -0.883736 -1.446972 0.272608
  time 5
    0 -5.186582 -2.313598 28.042271 0.000000 0.000000 -1.928789
    1 -0.526041 0.000001 9.745319 0.000000 -1.570741 -1.570795
    2 -0.000011 0.000010 5.615750 -3.380413 -0.405041 2.687447
    3 15.693466 0.000000 0.000000 0.000000 0.000000 -0.409499
    4 22.146629 -0.000001 0.000000 0.019031 -0.242607 -0.143518
    5 3.310129 5.734395 0.000000 0.000000 0.000000 1.570796
    6 0.000008 -0.000006 -5.615750 -3.238381 0.280994 3.064932
    7 15.693470 0.000000 0.000000 0.000000 0.000000 -0.510228
    8 22.146629 0.000000 0.000000 0.253278 0.286590 0.458827
    9 3.310129 5.734395 0.000000 0.000000 0.000000 1.570796
    10 1.384159 -0.004728 0.000002 -0.372545 -0.003436 0.086521
    11 5.939816 -0.004730 0.000000 0.000000 0.000000 0.000000
    12 5.939808 -0.003975 0.000000 0.000000 0.000000 0.000000
    13 4.991440 -0.003975 0.000000 0.000000 0.000000 0.000000
    14 4.991432 -0.001575 0.000000 0.000000 0.000000 0.000000
    15 0.000008 0.001564 3.638375 -0.000010 -1.284244 3.140806
    16 8.842831 0.000000 -0.000004 -0.376292 -0.160520 -1.109472
    17 9.341934 0.000000 0.000000 0.000000 0.000000 -0.551876
    18 11.168404 -0.000001 0.000004 -4.551413 0.477962 -0.725160
    19 1.364904 0.231174 -1.984411 2.565506 0.787623 1.289793
    20 1.748535 -0.000002 0.000000 0.000000 0.000000 -0.043596
    21 1.272493 0.000000 0.000000 0.000000 0.000000 0.253070
    22 4.525587 -0.000301 -1.850224 0.062816 0.072691 0.735167
    23 1.719875 -0.000004 0.000001 0.000000 0.000000 0.619507
    24 1.383650 0.000004 0.000000 0.000000 0.000000 0.741679
    25 4.525587 -0.000103 -0.616741 0.033512 0.040262 0.733557
    26 1.807671 0.000000 -0.000002 0.000000 0.000000 0.567166
    27 1.614256 0.000000 0.000001 0.000000 0.000000 0.741755
    28 4.525587 0.000103 0.616741 0.021811 0.027340 0.733211
    29 1.719870 0.000000 0.000000 0.000000 0.000000 0.366471
    30 1.383650 -0.000004 0.000000 0.000000 0.000000 0.741673
    31 4.525587 0.000301 1.850224 -0.024821 -0.024628 0.733269
    32 1.433229 0.000000 0.000001 0.000000 0.000000 0.366461
    33 1.153040 0.000000 0.000000 0.000000 0.000000 0.741669
    34 0.000000 0.001585 -3.638375 -0.000010 1.284244 3.140787
    35 8.842832 0.000000 0.000000 0.955235 -0.540897 -2.222138
    36 9.341938 0.000000 -0.000004 0.000000 0.000000 -0.987583
    37 11.168402 -0.000001 -0.000004 1.825321 0.194466 0.686978
    38 1.364901 0.231174 1.984410 3.141548 0.005165 1.002275
    39 1.748535 -0.000002 0.000000 0.000000 0.000000 0.436286
    40 1.272493 0.000000 0.000000 0.000000 0.000000 0.322881
    41 4.525583 -0.000301 1.850223 -0.016340 -0.094622 0.192574
    42 1.719875 0.000000 0.000000 0.000000 0.000000 0.034907
    43 1.383648 0.000000 0.000000 0.000000 0.000000 0.689338
    44 4.525581 -0.000103 0.616742 -0.040895 -0.032761 0.934331
    45 1.807673 0.000000 0.000000 0.000000 0.000000 0.907546
    46 1.614258 -0.000004 0.000000 0.000000 0.000000 1.151843
    47 4.525578 0.000099 -0.616741 -0.026857 -0.022390 0.933931
    48 1.719872 -0.000004 0.000000 0.000000 0.000000 0.907546
    49 1.383646 0.000004 0.000000 0.000000 0.000000 1.151843
    50 4.525581 0.000301 -1.850223 0.029256 0.019176 0.933935
    51 1.433226 0.000004 0.000000 0.000000 0.000000 0.907457
    52 1.153040 0.000000 0.000000 0.000000 0.000000 1.151882
    53 1.977379 0.000000 0.000000 0.835592 0.294277 0.196050
    54 3.723976 2.768054 -0.049087 -3.141592 -0.000002 1.570799
    55 11.781860 -0.001184 -0.000003 0.000000 0.000000 0.000000
    56 -3.887192 4.546144 1.934869 0.000000 -1.570796 -3.141591
    57 -4.205009 4.546216 -0.015855 1.769687 -1.543867 -4.843734
    58 -3.887192 4.546178 -1.987145 0.000000 -1.570796 -3.141591
    59 -4.881813 5.593821 -1.566820 1.397180 -1.223687 1.623932
    60 -4.886909 5.683144 -0.007570 0.000000 -1.570796 -3.132865
    61 -4.881798 5.609550 1.546659 1.397180 -1.223687 1.623932
    62 3.710045 1.760548 -0.059361 -0.091834 -0.075875 1.616828
    63 12.138049 14.189942 -4.062706 -0.883736 -1.446972 0.272608
  time 6
    0 -4.970969 -2.230559 28.042271 0.000000 0.000000 -1.928789
    1 -0.526041 0.000001 9.745319 0.000000 -1.570741 -1.570795
    2 -0.000011 0.000010 5.615750 -3.356917 -0.380974 2.585935
    3 15.693466 0.000000 0.000000 0.000000 0.000000 -0.612596
    4 22.146629 -0.000001 0.000000 0.022882 -0.202932 -0.045699
    5 3.310129 5.734395 0.000000 0.000000 0.000000 1.570796
    6 0.000008 -0.000006 -5.615750 -3.172743 0.259132 3.144516
    7 15.693470 0.000000 0.000000 0.000000 0.000000 -0.438849
    8 22.146629 0.000000 0.000000 0.268001 0.274249 0.493089
    9 3.310129 5.734395 0.000000 0.000000 0.000000 1.570796
    10 1.384159 -0.004728 0.000002 -0.372545 -0.003436 0.086521
    11 5.939816 -0.004730 0.000000 0.000000 0.000000 0.000000
    12 5.939808 -0.003975 0.000000 0.000000 0.000000 0.000000
    13 4.991440 -0.003975 0.000000 0.000000 0.000000 0.000000
    14 4.991432 -0.001575 0.000000 0.000000 0.000000 0.000000
    15 0.000008 0.001564 3.638375 -0.000010 -1.284244 3.140806
    16 8.842831 0.000000 -0.000004 -0.308349 -0.249467 -1.421298
    17 9.341934 0.000000 0.000000 0.000000 0.000000 -0.002536
    18 11.168404 -0.000001 0.000004 -4.533556 0.466095 -0.949431
    19 1.364904 0.231174 -1.984411 2.565506 0.787623 1.289793
    20 1.748535 -0.000002 0.000000 0.000000 0.000000 -0.043596
    21 1.272493 0.000000 0.000000 0.000000 0.000000 0.253070
    22 4.525587 -0.000301 -1.850224 0.062816 0.072691 0.735167
    23 1.719875 -0.000004 0.000001 0.000000 0.000000 0.619507
    24 1.383650 0.000004 0.000000 0.000000 0.000000 0.741679
    25 4.525587 -0.000103 -0.616741 0.033512 0.040262 0.733557
    26 1.807671 0.000000 -0.000002 0.000000 0.000000 0.567166
    27 1.614256 0.000000 0.000001 0.000000 0.000000 0.741755
    28 4.525587 0.000103 0.616741 0.021811 0.027340 0.733211
    29 1.719870 0.000000 0.000000 0.000000 0.000000 0.366471
    30 1.383650 -0.000004 0.000000 0.000000 0.000000 0.741673
    31 4.525587 0.000301 1.850224 -0.024821 -0.024628 0.733269
    32 1.433229 0.000000 0.000001 0.000000 0.000000 0.366461
    33 1.153040 0.000000 0.000000 0.000000 0.000000 0.741669
    34 0.000000 0.001585 -3.638375 -0.000010 1.284244 3.140787
    35 8.842832 0.000000 0.000000 0.972780 -0.480946 -2.202889
    36 9.341938 0.000000 -0.000004 0.000000 0.000000 -0.880468
    37 11.168402 -0.000001 -0.000004 1.812643 0.140724 0.617788
    38 1.364901 0.231174 1.984410 3.141548 0.005165 1.002275
    39 1.748535 -0.000002 0.000000 0.000000 0.000000 0.436286
    40 1.272493 0.000000 0.000000 0.000000 0.000000 0.322857
    41 4.525583 -0.000301 1.850223 -0.016340 -0.094622 0.192574
    42 1.719875 0.000000 0.000000 0.000000 0.000000 0.034907
    43 1.383648 0.000000 0.000000 0.000000 0.000000 0.689338
    44 4.525581 -0.000103 0.616742 -0.040895 -0.032761 0.934331
    45 1.807673 0.000000 0.000000 0.000000 0.000000 0.907546
    46 1.614258 -0.000004 0.000000 0.000000 0.000000 1.151843
    47 4.525578 0.000099 -0.616741 -0.026857 -0.022390 0.933931
    48 1.719872 -0.000004 0.000000 0.000000 0.000000 0.907546
    49 1.383646 0.000004 0.000000 0.000000 0.000000 1.151843
    50 4.525581 0.000301 -1.850223 0.029256 0.019176 0.933935
    51 1.433226 0.000004 0.000000 0.000000 0.000000 0.907457
    52 1.153040 0.000000 0.000000 0.000000 0.000000 1.151882
    53 1.977379 0.000000 0.000000 0.835592 0.294277 0.196050
    54 3.723976 2.768054 -0.049087 -3.141592 -0.000002 1.570799
    55 11.781860 -0.001184 -0.000003 0.000000 0.000000 0.000000
    56 -3.887192 4.546144 1.934869 0.000000 -1.570796 -3.141591
    57 -4.205009 4.546216 -0.015855 1.776464 -1.538474 -4.837023
    58 -3.887192 4.546178 -1.987145 0.000000 -1.570796 -3.141591
    59 -4.881813 5.593821 -1.566820 1.403208 -1.169608 1.597209
    60 -4.886909 5.683144 -0.007570 0.000000 -1.570796 -3.132865
    61 -4.881798 5.609550 1.546659 1.403208 -1.169608 1.597209
    62 3.710045 1.760548 -0.059361 -0.091834 -0.075875 1.616828
    63 12.138049 14.189942 -4.062706 -0.883736 -1.446972 0.272608
  time 7
    0 -4.440230 -1.996540 28.042271 0.000000 0.000000 -1.928789
    1 -0.526041 0.000001 9.745319 0.000000 -1.570741 -1.570795
    2 -0.000011 0.000010 5.615750 -3.367769 -0.300156 2.522300
    3 15.693466 0.000000 0.000000 0.000000 0.000000 -0.788234
    4 22.146629 -0.000001 0.000000 0.038174 -0.119694 0.060580
    5 3.310129 5.734395 0.000000 0.000000 0.000000 1.570796
    6 0.000008 -0.000006 -5.615750 -3.070470 0.222040 3.207838
    7 15.693470 0.000000 0.000000 0.000000 0.000000 -0.420018
    8 22.146629 0.000000 0.000000 0.264278 0.241158 0.508767
    9 3.310129 5.734395 0.000000 0.000000 0.000000 1.570796
    10 1.384159 -0.004728 0.000002 -0.372545 -0.003436 0.086521
    11 5.939816 -0.004730 0.000000 0.000000 0.000000 0.000000
    12 5.939808 -0.003975 0.000000 0.000000 0.000000 0.000000
    13 4.991440 -0.003975 0.000000 0.000000 0.000000 0.000000
    14 4.991432 -0.001575 0.000000 0.000000 0.000000 0.000000
    15 0.000008 0.001564 3.638375 -0.000010 -1.284244 3.140806
    16 8.842831 0.000000 -0.000004 -0.335965 -0.212792 -1.301769
    17 9.341934 0.000000 0.000000 0.000000 0.000000 -0.227717
    18 11.168404 -0.000001 0.000004 -4.535561 0.467316 -0.846745
    19 1.364904 0.231174 -1.984411 2.565506 0.787623 1.289793
    20 1.748535 -0.000002 0.000000 0.000000 0.000000 -0.043596
    21 1.272493 0.000000 0.000000 0.000000 0.000000 0.253070
    22 4.525587 -0.000301 -1.850224 0.062816 0.072691 0.735167
    23 1.719875 -0.000004 0.000001 0.000000 0.000000 0.619507
    24 1.383650 0.000004 0.000000 0.000000 0.000000 0.741679
    25 4.525587 -0.000103 -0.616741 0.033512 0.040262 0.733557
    26 1.807671 0.000000 -0.000002 0.000000 0.000000 0.567166
    27 1.614256 0.000000 0.000001 0.000000 0.000000 0.741755
    28 4.525587 0.000103 0.616741 0.021811 0.027340 0.733211
    29 1.719870 0.000000 0.000000 0.000000 0.000000 0.366471
    30 1.383650 -0.000004 0.000000 0.000000 0.000000 0.741673
    31 4.525587 0.000301 1.850224 -0.024821 -0.024628 0.733269
    32 1.433229 0.000000 0.000001 0.000000 0.000000 0.366461
    33 1.153040 0.000000 0.000000 0.000000 0.000000 0.741669
    34 0.000000 0.001585 -3.638375 -0.000010 1.284244 3.140787
    35 8.842832 0.000000 0.000000 0.961272 -0.515334 -2.192312
    36 9.341938 0.000000 -0.000004 0.000000 0.000000 -0.951157
    37 11.168402 -0.000001 -0.000004 1.815626 0.154001 0.655109
    38 1.364901 0.231174 1.984410 3.141548 0.005165 1.002275
    39 1.748535 -0.000002 0.000000 0.000000 0.000000 0.436286
    40 1.272493 0.000000 0.000000 0.000000 0.000000 0.322881
    41 4.525583 -0.000301 1.850223 -0.016340 -0.094622 0.192574
    42 1.719875 0.000000 0.000000 0.000000 0.000000 0.034907
    43 1.383648 0.000000 0.000000 0.000000 0.000000 0.689338
    44 4.525581 -0.000103 0.616742 -0.040895 -0.032761 0.934331
    45 1.807673 0.000000 0.000000 0.000000 0.000000 0.907546
    46 1.614258 -0.000004 0.000000 0.000000 0.000000 1.151843
    47 4.525578 0.000099 -0.616741 -0.026857 -0.022390 0.933931
    48 1.719872 -0.000004 0.000000 0.000000 0.000000 0.907546
    49 1.383646 0.000004 0.000000 0.000000 0.000000 1.151843
    50 4.525581 0.000301 -1.850223 0.029256 0.019176 0.933935
    51 1.433226 0.000004 0.000000 0.000000 0.000000 0.907457
    52 1.153040 0.000000 0.000000 0.000000 0.000000 1.151882
    53 1.977379 0.000000 0.000000 0.835592 0.294277 0.196050
    54 3.723976 2.768054 -0.049087 -3.141592 -0.000002 1.570799
    55 11.781860 -0.001184 -0.000003 0.000000 0.000000 0.000000
    56 -3.887192 4.546144 1.934869 0.000000 -1.570796 -3.141591
    57 -4.205009 4.546216 -0.015855 1.769687 -1.543867 -4.843734
    58 -3.887192 4.546178 -1.987145 0.000000 -1.570796 -3.141591
    59 -4.881813 5.593821 -1.566820 1.397180 -1.223687 1.623932
    60 -4.886909 5.683144 -0.007570 0.000000 -1.570796 -3.132865
    61 -4.881798 5.609550 1.546659 1.397180 -1.223687 1.623932
    62 3.710045 1.760548 -0.059361 -0.091834 -0.075875 1.616828
    63 12.138049 14.189942 -4.062706 -0.883736 -1.446972 0.272608
  time 8
    0 -3.644120 -1.649285 28.042271 0.000000 0.000000 -1.928789
    1 -0.526041 0.000001 9.745319 0.000000 -1.570741 -1.570795
    2 -0.000011 0.000010 5.615750 -3.395132 -0.198709 2.472402
    3 15.693466 0.000000 0.000000 0.000000 0.000000 -0.949573
    4 22.146629 -0.000001 0.000000 0.045727 -0.019268 0.171020
    5 3.310129 5.734395 0.000000 0.000000 0.000000 1.570796
    6 0.000008 -0.000006 -5.615750 -2.967324 0.182705 3.250594
    7 15.693470 0.000000 0.000000 0.000000 0.000000 -0.426642
    8 22.146629 0.000000 0.000000 0.256662 0.204689 0.517575
    9 3.310129 5.734395 0.000000 0.000000 0.000000 1.570796
    10 1.384159 -0.004728 0.000002 -0.372545 -0.003436 0.086521
    11 5.939816 -0.004730 0.000000 0.000000 0.000000 0.000000
    12 5.939808 -0.003975 0.000000 0.000000 0.000000 0.000000
    13 4.991440 -0.003975 0.000000 0.000000 0.000000 0.000000
    14 4.991432 -0.001575 0.000000 0.000000 0.000000 0.000000
    15 0.000008 0.001564 3.638375 -0.000010 -1.284244 3.140806
    16 8.842831 0.000000 -0.000004 -0.347487 -0.187733 -1.239509
    17 9.341934 0.000000 0.000000 0.000000 0.000000 -0.361136
    18 11.168404 -0.000001 0.000004 -4.532601 0.465021 -0.778078
    19 1.364904 0.231174 -1.984411 2.565506 0.787623 1.289793
    20 1.748535 -0.000002 0.000000 0.000000 0.000000 -0.043596
    21 1.272493 0.000000 0.000000 0.000000 0.000000 0.253070
    22 4.525587 -0.000301 -1.850224 0.062816 0.072691 0.735167
    23 1.719875 -0.000004 0.000001 0.000000 0.000000 0.619507
    24 1.383650 0.000004 0.000000 0.000000 0.000000 0.741679
    25 4.525587 -0.000103 -0.616741 0.033512 0.040262 0.733557
    26 1.807671 0.000000 -0.000002 0.000000 0.000000 0.567166
    27 1.614256 0.000000 0.000001 0.000000 0.000000 0.741755
    28 4.525587 0.000103 0.616741 0.021811 0.027340 0.733211
    29 1.719870 0.000000 0.000000 0.000000 0.000000 0.366471
    30 1.383650 -0.000004 0.000000 0.000000 0.000000 0.741673
    31 4.525587 0.000301 1.850224 -0.024821 -0.024628 0.733269
    32 1.433229 0.000000 0.000001 0.000000 0.000000 0.366461
    33 1.153040 0.000000 0.000000 0.000000 0.000000 0.741669
    34 0.000000 0.001585 -3.638375 -0.000010 1.284244 3.140787
    35 8.842832 0.000000 0.000000 0.951840 -0.538376 -2.173920
    36 9.341938 0.000000 -0.000004 0.000000 0.000000 -1.003735
    37 11.168402 -0.000001 -0.000004 1.815626 0.154170 0.679834
    38 1.364901 0.231174 1.984410 3.141548 0.005165 1.002275
    39 1.748535 -0.000002 0.000000 0.000000 0.000000 0.436286
    40 1.272493 0.000000 0.000000 0.000000 0.000000 0.322881
    41 4.525583 -0.000301 1.850223 -0.016340 -0.094622 0.192574
    42 1.719875 0.000000 0.000000 0.000000 0.000000 0.034907
    43 1.383648 0.000000 0.000000 0.000000 0.000000 0.689338
    44 4.525581 -0.000103 0.616742 -0.040895 -0.032761 0.934331
    45 1.807673 0.000000 0.000000 0.000000 0.000000 0.907546
    46 1.614258 -0.000004 0.000000 0.000000 0.000000 1.151843
    47 4.525578 0.000099 -0.616741 -0.026857 -0.022390 0.933931
    48 1.719872 -0.000004 0.000000 0.000000 0.000000 0.907546
    49 1.383646 0.000004 0.000000 0.000000 0.000000 1.151843
    50 4.525581 0.000301 -1.850223 0.029256 0.019176 0.933935
    51 1.433226 0.000004 0.000000 0.000000 0.000000 0.907457
    52 1.153040 0.000000 0.000000 0.000000 0.000000 1.151882
    53 1.977379 0.000000 0.000000 0.835592 0.294277 0.196050
    54 3.723976 2.768054 -0.049087 -3.141592 -0.000002 1.570799
    55 11.781860 -0.001184 -0.000003 0.000000 0.000000 0.000000
    56 -3.887192 4.546144 1.934869 0.000000 -1.570796 -3.141591
    57 -4.205009 4.546216 -0.015855 1.762909 -1.549260 -4.850541
    58 -3.887192 4.546178 -1.987145 0.000000 -1.570796 -3.141591
    59 -4.881813 5.593821 -1.566820 1.385278 -1.277688 1.656585
    60 -4.886909 5.683144 -0.007570 0.000000 -1.570796 -3.132865
    61 -4.881798 5.609550 1.546659 1.385278 -1.277688 1.656585
    62 3.710045 1.760548 -0.059361 -0.091846 -0.075875 1.616828
    63 12.138049 14.189942 -4.062706 -0.883736 -1.446972 0.272608
  time 9
    0 -2.698740 -1.234089 28.042271 0.000000 0.000000 -1.928789
    1 -0.526041 0.000001 9.745319 0.000000 -1.570741 -1.570795
    2 -0.000011 0.000010 5.615750 -3.407871 -0.150408 2.434145
    3 15.693466 0.000000 0.000000 0.000000 0.000000 -1.040273
    4 22.146629 -0.000001 0.000000 0.051971 0.031577 0.223977
    5 3.310129 5.734395 0.000000 0.000000 0.000000 1.570796
    6 0.000008 -0.000006 -5.615750 -2.897473 0.158927 3.273838
    7 15.693470 0.000000 0.000000 0.000000 0.000000 -0.431927
    8 22.146629 0.000000 0.000000 0.254519 0.185319 0.523828
    9 3.310129 5.734395 0.000000 0.000000 0.000000 1.570796
    10 1.384159 -0.004728 0.000002 -0.372545 -0.003436 0.086521
    11 5.939816 -0.004730 0.000000 0.000000 0.000000 0.000000
    12 5.939808 -0.003975 0.000000 0.000000 0.000000 0.000000
    13 4.991440 -0.003975 0.000000 0.000000 0.000000 0.000000
    14 4.991432 -0.001575 0.000000 0.000000 0.000000 0.000000
    15 0.000008 0.001564 3.638375 -0.000010 -1.284244 3.140806
    16 8.842831 0.000000 -0.000004 -0.346390 -0.178923 -1.234955
    17 9.341934 0.000000 0.000000 0.000000 0.000000 -0.393856
    18 11.168404 -0.000001 0.000004 -4.526776 0.460528 -0.750179
    19 1.364904 0.231174 -1.984411 2.565506 0.787623 1.289793
    20 1.748535 -0.000002 0.000000 0.000000 0.000000 -0.043596
    21 1.272493 0.000000 0.000000 0.000000 0.000000 0.253070
    22 4.525587 -0.000301 -1.850224 0.062816 0.072691 0.735167
    23 1.719875 -0.000004 0.000001 0.000000 0.000000 0.619507
    24 1.383650 0.000004 0.000000 0.000000 0.000000 0.741679
    25 4.525587 -0.000103 -0.616741 0.033512 0.040262 0.733557
    26 1.807671 0.000000 -0.000002 0.000000 0.000000 0.567166
    27 1.614256 0.000000 0.000001 0.000000 0.000000 0.741755
    28 4.525587 0.000103 0.616741 0.021811 0.027340 0.733211
    29 1.719870 0.000000 0.000000 0.000000 0.000000 0.366471
    30 1.383650 -0.000004 0.000000 0.000000 0.000000 0.741673
    31 4.525587 0.000301 1.850224 -0.024821 -0.024628 0.733269
    32 1.433229 0.000000 0.000001 0.000000 0.000000 0.366461
    33 1.153040 0.000000 0.000000 0.000000 0.000000 0.741669
    34 0.000000 0.001585 -3.638375 -0.000010 1.284244 3.140787
    35 8.842832 0.000000 0.000000 0.943916 -0.554484 -2.149811
    36 9.341938 0.000000 -0.000004 0.000000 0.000000 -1.045770
    37 11.168402 -0.000001 -0.000004 1.813482 0.145866 0.696191
    38 1.364901 0.231174 1.984410 3.141548 0.005165 1.002275
    39 1.748535 -0.000002 0.000000 0.000000 0.000000 0.436286
    40 1.272493 0.000000 0.000000 0.000000 0.000000 0.322857
    41 4.525583 -0.000301 1.850223 -0.016340 -0.094622 0.192574
    42 1.719875 0.000000 0.000000 0.000000 0.000000 0.034907
    43 1.383648 0.000000 0.000000 0.000000 0.000000 0.689338
    44 4.525581 -0.000103 0.616742 -0.040895 -0.032761 0.934331
    45 1.807673 0.000000 0.000000 0.000000 0.000000 0.907546
    46 1.614258 -0.000004 0.000000 0.000000 0.000000 1.151843
    47 4.525578 0.000099 -0.616741 -0.026857 -0.022390 0.933931
    48 1.719872 -0.000004 0.000000 0.000000 0.000000 0.907546
    49 1.383646 0.000004 0.000000 0.000000 0.000000 1.151843
    50 4.525581 0.000301 -1.850223 0.029256 0.019176 0.933935
    51 1.433226 0.000004 0.000000 0.000000 0.000000 0.907457
    52 1.153040 0.000000 0.000000 0.000000 0.000000 1.151882
    53 1.977379 0.000000 0.000000 0.835592 0.294277 0.196050
    54 3.723976 2.768054 -0.049087 -3.141592 -0.000002 1.570799
    55 11.781860 -0.001184 -0.000003 0.000000 0.000000 0.000000
    56 -3.887192 4.546144 1.934869 0.000000 -1.570796 -3.141591
    57 -4.205009 4.546216 -0.015855 1.756226 -1.554641 -4.857252
    58 -3.887192 4.546178 -1.987145 0.000000 -1.570796 -3.141591
    59 -4.881813 5.593821 -1.566820 1.363330 -1.331506 1.699172
    60 -4.886909 5.683144 -0.007570 0.000000 -1.570796 -3.132865
    61 -4.881798 5.609550 1.546659 1.363330 -1.331506 1.699172
    62 3.710045 1.760548 -0.059361 -0.091834 -0.075875 1.616828
    63 12.138049 14.189942 -4.062706 -0.883736 -1.446972 0.272608
  time 10
    0 -1.687017 -0.803795 28.042271 0.000000 0.000000 -1.928789
    1 -0.526041 0.000001 9.745319 0.000000 -1.570741 -1.570795
    2 -0.000011 0.000010 5.615750 -3.400605 -0.178701 2.454084
    3 15.693466 0.000000 0.000000 0.000000 0.000000 -0.942744
    4 22.146629 -0.000001 0.000000 0.072423 0.006910 0.156478
    5 3.310129 5.734395 0.000000 0.000000 0.000000 1.570796
    6 0.000008 -0.000006 -5.615750 -2.884044 0.170046 3.266760
    7 15.693470 0.000000 0.000000 0.000000 0.000000 -0.439370
    8 22.146629 0.000000 0.000000 0.260047 0.195603 0.519072
    9 3.310129 5.734395 0.000000 0.000000 0.000000 1.570796
    10 1.384159 -0.004728 0.000002 -0.372545 -0.003436 0.086521
    11 5.939816 -0.004730 0.000000 0.000000 0.000000 0.000000
    12 5.939808 -0.003975 0.000000 0.000000 0.000000 0.000000
    13 4.991440 -0.003975 0.000000 0.000000 0.000000 0.000000
    14 4.991432 -0.001575 0.000000 0.000000 0.000000 0.000000
    15 0.000008 0.001564 3.638375 -0.000010 -1.284244 3.140806
    16 8.842831 0.000000 -0.000004 -0.341452 -0.175138 -1.247828
    17 9.341934 0.000000 0.000000 0.000000 0.000000 -0.395906
    18 11.168404 -0.000001 0.000004 -4.519996 0.454912 -0.734160
    19 1.364904 0.231174 -1.984411 2.565506 0.787623 1.289793
    20 1.748535 -0.000002 0.000000 0.000000 0.000000 -0.043596
    21 1.272493 0.000000 0.000000 0.000000 0.000000 0.253070
    22 4.525587 -0.000301 -1.850224 0.062816 0.072691 0.735167
    23 1.719875 -0.000004 0.000001 0.000000 0.000000 0.619507
    24 1.383650 0.000004 0.000000 0.000000 0.000000 0.741679
    25 4.525587 -0.000103 -0.616741 0.033512 0.040262 0.733557
    26 1.807671 0.000000 -0.000002 0.000000 0.000000 0.567166
    27 1.614256 0.000000 0.000001 0.000000 0.000000 0.741716
    28 4.525587 0.000103 0.616741 0.021823 0.027340 0.733211
    29 1.719870 0.000000 0.000000 0.000000 0.000000 0.366471
    30 1.383650 -0.000004 0.000000 0.000000 0.000000 0.741673
    31 4.525587 0.000301 1.850224 -0.024821 -0.024628 0.733269
    32 1.433229 0.000000 0.000001 0.000000 0.000000 0.366461
    33 1.153040 0.000000 0.000000 0.000000 0.000000 0.741669
    34 0.000000 0.001585 -3.638375 -0.000010 1.284244 3.140787
    35 8.842832 0.000000 0.000000 0.936747 -0.567581 -2.123415
    36 9.341938 0.000000 -0.000004 0.000000 0.000000 -1.082736
    37 11.168402 -0.000001 -0.000004 1.810872 0.133895 0.709353
    38 1.364901 0.231174 1.984410 3.141548 0.005165 1.002275
    39 1.748535 -0.000002 0.000000 0.000000 0.000000 0.436286
    40 1.272493 0.000000 0.000000 0.000000 0.000000 0.322881
    41 4.525583 -0.000301 1.850223 -0.016340 -0.094622 0.192574
    42 1.719875 0.000000 0.000000 0.000000 0.000000 0.034907
    43 1.383648 0.000000 0.000000 0.000000 0.000000 0.689338
    44 4.525581 -0.000103 0.616742 -0.040895 -0.032761 0.934331
    45 1.807673 0.000000 0.000000 0.000000 0.000000 0.907546
    46 1.614258 -0.000004 0.000000 0.000000 0.000000 1.151843
    47 4.525578 0.000099 -0.616741 -0.026857 -0.022390 0.933931
    48 1.719872 -0.000004 0.000000 0.000000 0.000000 0.907546
    49 1.383646 0.000004 0.000000 0.000000 0.000000 1.151843
    50 4.525581 0.000301 -1.850223 0.029256 0.019176 0.933935
    51 1.433226 0.000004 0.000000 0.000000 0.000000 0.907457
    52 1.153040 0.000000 0.000000 0.000000 0.000000 1.151882
    53 1.977379 0.000000 0.000000 0.835592 0.294277 0.196050
    54 3.723976 2.768054 -0.049087 -3.141592 -0.000002 1.570799
    55 11.781860 -0.001184 -0.000003 0.000000 0.000000 0.000000
    56 -3.887192 4.546144 1.934869 0.000000 -1.570796 -3.141591
    57 -4.205009 4.546216 -0.015855 -3.114564 -1.560034 -0.000095
    58 -3.887192 4.546178 -1.987145 0.000000 -1.570796 -3.141591
    59 -4.881813 5.593821 -1.566820 1.322833 -1.384959 1.760165
    60 -4.886909 5.683144 -0.007570 0.000000 -1.570796 -3.132865
    61 -4.881798 5.609550 1.546659 1.322833 -1.384959 1.760165
    62 3.710045 1.760548 -0.059361 -0.091834 -0.075875 1.616828
    63 12.138049 14.189942 -4.062706 -0.883736 -1.447053 0.272608
  time 11
    0 -0.708466 -0.381050 28.042271 0.000000 0.000000 -1.928789
    1 -0.526041 0.000001 9.745319 0.000000 -1.570741 -1.570795
    2 -0.000011 0.000010 5.615750 -3.385130 -0.254341 2.515907
    3 15.693466 0.000000 0.000000 0.000000 0.000000 -0.715034
    4 22.146629 -0.000001 0.000000 0.098483 -0.066695 0.007669
    5 3.310129 5.734395 0.000000 0.000000 0.000000 1.570796
    6 0.000008 -0.000006 -5.615750 -2.906056 0.206297 3.231942
    7 15.693470 0.000000 0.000000 0.000000 0.000000 -0.460806
    8 22.146629 0.000000 0.000000 0.267888 0.221481 0.501897
    9 3.310129 5.734395 0.000000 0.000000 0.000000 1.570796
    10 1.384159 -0.004728 0.000002 -0.372545 -0.003436 0.086521
    11 5.939816 -0.004730 0.000000 0.000000 0.000000 0.000000
    12 5.939808 -0.003975 0.000000 0.000000 0.000000 0.000000
    13 4.991440 -0.003975 0.000000 0.000000 0.000000 0.000000
    14 4.991432 -0.001575 0.000000 0.000000 0.000000 0.000000
    15 0.000008 0.001564 3.638375 -0.000010 -1.284244 3.140806
    16 8.842831 0.000000 -0.000004 -0.337977 -0.169526 -1.254220
    17 9.341934 0.000000 0.000000 0.000000 0.000000 -0.409272
    18 11.168404 -0.000001 0.000004 -4.513789 0.449540 -0.714091
    19 1.364904 0.231174 -1.984411 2.565506 0.787623 1.289793
    20 1.748535 -0.000002 0.000000 0.000000 0.000000 -0.043596
    21 1.272493 0.000000 0.000000 0.000000 0.000000 0.253070
    22 4.525587 -0.000301 -1.850224 0.062816 0.072691 0.735167
    23 1.719875 -0.000004 0.000001 0.000000 0.000000 0.619507
    24 1.383650 0.000004 0.000000 0.000000 0.000000 0.741679
    25 4.525587 -0.000103 -0.616741 0.033512 0.040262 0.733557
    26 1.807671 0.000000 -0.000002 0.000000 0.000000 0.567166
    27 1.614256 0.000000 0.000001 0.000000 0.000000 0.741755
    28 4.525587 0.000103 0.616741 0.021811 0.027340 0.733211
    29 1.719870 0.000000 0.000000 0.000000 0.000000 0.366471
    30 1.383650 -0.000004 0.000000 0.000000 0.000000 0.741673
    31 4.525587 0.000301 1.850224 -0.024821 -0.024628 0.733269
    32 1.433229 0.000000 0.000001 0.000000 0.000000 0.366461
    33 1.153040 0.000000 0.000000 0.000000 0.000000 0.741669
    34 0.000000 0.001585 -3.638375 -0.000010 1.284244 3.140787
    35 8.842832 0.000000 0.000000 0.929107 -0.580958 -2.098543
    36 9.341938 0.000000 -0.000004 0.000000 0.000000 -1.119973
    37 11.168402 -0.000001 -0.000004 1.808821 0.123357 0.722984
    38 1.364901 0.231174 1.984410 3.141548 0.005165 1.002275
    39 1.748535 -0.000002 0.000000 0.000000 0.000000 0.436286
    40 1.272493 0.000000 0.000000 0.000000 0.000000 0.322857
    41 4.525583 -0.000301 1.850223 -0.016340 -0.094622 0.192574
    42 1.719875 0.000000 0.000000 0.000000 0.000000 0.034907
    43 1.383648 0.000000 0.000000 0.000000 0.000000 0.689338
    44 4.525581 -0.000103 0.616742 -0.040895 -0.032761 0.934331
    45 1.807673 0.000000 0.000000 0.000000 0.000000 0.907546
    46 1.614258 -0.000004 0.000000 0.000000 0.000000 1.151843
    47 4.525578 0.000099 -0.616741 -0.026857 -0.022390 0.933931
    48 1.719872 -0.000004 0.000000 0.000000 0.000000 0.907546
    49 1.383646 0.000004 0.000000 0.000000 0.000000 1.151843
    50 4.525581 0.000301 -1.850223 0.029256 0.019176 0.933935
    51 1.433226 0.000004 0.000000 0.000000 0.000000 0.907457
    52 1.153040 0.000000 0.000000 0.000000 0.000000 1.151882
    53 1.977379 0.000000 0.000000 0.835592 0.294277 0.196050
    54 3.723976 2.768054 -0.049087 -3.141592 -0.000002 1.570799
    55 11.781860 -0.001184 -0.000003 0.000000 0.000000 0.000000
    56 -3.887192 4.546144 1.934869 0.000000 -1.570796 -3.141591
    57 -4.205009 4.546216 -0.015855 -3.128120 -1.565427 -0.000095
    58 -3.887192 4.546178 -1.987145 0.000000 -1.570796 -3.141591
    59 -4.881813 5.593821 -1.566820 1.241841 -1.437577 1.861435
    60 -4.886909 5.683144 -0.007570 0.000000 -1.570796 -3.132865
    61 -4.881798 5.609550 1.546659 1.241841 -1.437577 1.861435
    62 3.710045 1.760548 -0.059361 -0.091834 -0.075875 1.616828
    63 12.138049 14.189942 -4.062706 -0.883736 -1.446972 0.272608
  time 12
    0 0.120815 -0.041344 28.042271 0.000000 0.000000 -1.928789
    1 -0.526041 0.000001 9.745319 0.000000 -1.570741 -1.570795
    2 -0.000011 0.000010 5.615750 -3.374468 -0.330561 2.577826
    3 15.693466 0.000000 0.000000 0.000000 0.000000 -0.487181
    4 22.146629 -0.000001 0.000000 0.114934 -0.144014 -0.143107
    5 3.310129 5.734395 0.000000 0.000000 0.000000 1.570796
    6 0.000008 -0.000006 -5.615750 -2.929578 0.241847 3.195977
    7 15.693470 0.000000 0.000000 0.000000 0.000000 -0.482093
    8 22.146629 0.000000 0.000000 0.274770 0.248034 0.484898
    9 3.310129 5.734395 0.000000 0.000000 0.000000 1.570796
    10 1.384159 -0.004728 0.000002 -0.372545 -0.003436 0.086521
    11 5.939816 -0.004730 0.000000 0.000000 0.000000 0.000000
    12 5.939808 -0.003975 0.000000 0.000000 0.000000 0.000000
    13 4.991440 -0.003975 0.000000 0.000000 0.000000 0.000000
    14 4.991432 -0.001575 0.000000 0.000000 0.000000 0.000000
    15 0.000008 0.001564 3.638375 -0.000010 -1.284244 3.140806
    16 8.842831 0.000000 -0.000004 -0.339806 -0.156735 -1.232066
    17 9.341934 0.000000 0.000000 0.000000 0.000000 -0.470611
    18 11.168404 -0.000001 0.000004 -4.509874 0.445926 -0.676113
    19 1.364904 0.231174 -1.984411 2.565506 0.787623 1.289793
    20 1.748535 -0.000002 0.000000 0.000000 0.000000 -0.043596
    21 1.272493 0.000000 0.000000 0.000000 0.000000 0.253070
    22 4.525587 -0.000301 -1.850224 0.062816 0.072691 0.735167
    23 1.719875 -0.000004 0.000001 0.000000 0.000000 0.619507
    24 1.383650 0.000004 0.000000 0.000000 0.000000 0.741679
    25 4.525587 -0.000103 -0.616741 0.033512 0.040262 0.733557
    26 1.807671 0.000000 -0.000002 0.000000 0.000000 0.567166
    27 1.614256 0.000000 0.000001 0.000000 0.000000 0.741755
    28 4.525587 0.000103 0.616741 0.021823 0.027340 0.733211
    29 1.719870 0.000000 0.000000 0.000000 0.000000 0.366471
    30 1.383650 -0.000004 0.000000 0.000000 0.000000 0.741673
    31 4.525587 0.000301 1.850224 -0.024821 -0.024628 0.733269
    32 1.433229 0.000000 0.000001 0.000000 0.000000 0.366461
    33 1.153040 0.000000 0.000000 0.000000 0.000000 0.741669
    34 0.000000 0.001585 -3.638375 -0.000010 1.284244 3.140787
    35 8.842832 0.000000 0.000000 0.920052 -0.598257 -2.078151
    36 9.341938 0.000000 -0.000004 0.000000 0.000000 -1.162278
    37 11.168402 -0.000001 -0.000004 1.807982 0.119606 0.741410
    38 1.364901 0.231174 1.984410 3.141548 0.005165 1.002275
    39 1.748535 -0.000002 0.000000 0.000000 0.000000 0.436286
    40 1.272493 0.000000 0.000000 0.000000 0.000000 0.322881
    41 4.525583 -0.000301 1.850223 -0.016340 -0.094622 0.192574
    42 1.719875 0.000000 0.000000 0.000000 0.000000 0.034907
    43 1.383648 0.000000 0.000000 0.000000 0.000000 0.689338
    44 4.525581 -0.000103 0.616742 -0.040895 -0.032761 0.934331
    45 1.807673 0.000000 0.000000 0.000000 0.000000 0.907546
    46 1.614258 -0.000004 0.000000 0.000000 0.000000 1.151843
    47 4.525578 0.000099 -0.616741 -0.026857 -0.022390 0.933931
    48 1.719872 -0.000004 0.000000 0.000000 0.000000 0.907546
    49 1.383646 0.000004 0.000000 0.000000 0.000000 1.151843
    50 4.525581 0.000301 -1.850223 0.029256 0.019176 0.933935
    51 1.433226 0.000004 0.000000 0.000000 0.000000 0.907457
    52 1.153040 0.000000 0.000000 0.000000 0.000000 1.151882
    53 1.977379 0.000000 0.000000 0.835592 0.294277 0.196050
    54 3.723976 2.768054 -0.049087 -3.141592 -0.000002 1.570799
    55 11.781860 -0.001184 -0.000003 0.000000 0.000000 0.000000
    56 -3.887192 4.546144 1.934869 0.000000 -1.570796 -3.141591
    57 -4.205009 4.546216 -0.015855 0.000000 -1.570796 -3.141591
    58 -3.887192 4.546178 -1.987145 0.000000 -1.570796 -3.141591
    59 -4.881813 5.593821 -1.566820 1.047319 -1.487704 2.076220
    60 -4.886909 5.683144 -0.007570 0.000000 -1.570796 -3.132865
    61 -4.881798 5.609550 1.546659 1.047319 -1.487704 2.076220
    62 3.710045 1.760548 -0.059361 -0.091834 -0.075875 1.616828
    63 12.138049 14.189942 -4.062706 -0.883736 -1.446972 0.272608
end
