// Created by Crowbar 0.56
version 1
nodes
  0 "Bip01" -1
  1 "Bip01 Pelvis" 0
  2 "Bip01 L Thigh" 1
  3 "Bip01 L Calf" 2
  4 "Bip01 L Foot" 3
  5 "Bip01 L Toe0" 4
  6 "Bip01 R Thigh" 1
  7 "Bip01 R Calf" 6
  8 "Bip01 R Foot" 7
  9 "Bip01 R Toe0" 8
  10 "Bip01 Spine" 1
  11 "Bip01 Spine1" 10
  12 "Bip01 Spine2" 11
  13 "Bip01 Spine3" 12
  14 "Bip01 Neck" 13
  15 "Bip01 L Clavicle" 14
  16 "Bip01 L UpperArm" 15
  17 "Bip01 L Forearm" 16
  18 "Bip01 L Hand" 17
  19 "Bip01 L Finger0" 18
  20 "Bip01 L Finger01" 19
  21 "Bip01 L Finger02" 20
  22 "Bip01 L Finger1" 18
  23 "Bip01 L Finger11" 22
  24 "Bip01 L Finger12" 23
  25 "Bip01 L Finger2" 18
  26 "Bip01 L Finger21" 25
  27 "Bip01 L Finger22" 26
  28 "Bip01 L Finger3" 18
  29 "Bip01 L Finger31" 28
  30 "Bip01 L Finger32" 29
  31 "Bip01 L Finger4" 18
  32 "Bip01 L Finger41" 31
  33 "Bip01 L Finger42" 32
  34 "Bip01 R Clavicle" 14
  35 "Bip01 R UpperArm" 34
  36 "Bip01 R Forearm" 35
  37 "Bip01 R Hand" 36
  38 "Bip01 R Finger0" 37
  39 "Bip01 R Finger01" 38
  40 "Bip01 R Finger02" 39
  41 "Bip01 R Finger1" 37
  42 "Bip01 R Finger11" 41
  43 "Bip01 R Finger12" 42
  44 "Bip01 R Finger2" 37
  45 "Bip01 R Finger21" 44
  46 "Bip01 R Finger22" 45
  47 "Bip01 R Finger3" 37
  48 "Bip01 R Finger31" 47
  49 "Bip01 R Finger32" 48
  50 "Bip01 R Finger4" 37
  51 "Bip01 R Finger41" 50
  52 "Bip01 R Finger42" 51
  53 "Bip01 Head" 14
  54 "Bone05" 53
  55 "Dummy05" 53
  56 "L_eyebrow" 55
  57 "C_eyebrow" 55
  58 "R_eyebrow" 55
  59 "R_Eye" 55
  60 "Eyelids" 55
  61 "L_Eye" 55
  62 "m4" 37
  63 "SHOTGUN" 38
end
skeleton
  time 0
    0 0.054472 5.378851 4.422343 -0.327707 0.329181 -2.048823
    1 -0.526041 0.000001 9.745319 0.000000 -1.570451 -1.570795
    2 -0.000011 0.000010 5.615750 -2.666876 -0.195188 0.091456
    3 15.693466 0.000000 0.000000 0.000000 0.000000 -2.276852
    4 22.146629 -0.000001 0.000000 -0.166831 0.232131 -0.235941
    5 3.310129 5.734395 0.000000 0.000000 0.000000 1.570796
    6 0.000008 -0.000006 -5.615750 -3.286696 0.352142 2.362075
    7 15.693470 0.000000 0.000000 0.000000 0.000000 -2.305128
    8 22.146629 0.000000 0.000000 -0.656041 0.599364 0.175130
    9 3.310129 5.734395 0.000000 0.000000 0.000000 2.146731
    10 1.384159 -0.004728 0.000002 -0.361773 0.294534 -0.084430
    11 5.939816 -0.004730 0.000000 0.000000 0.000000 0.000000
    12 5.939808 -0.003975 0.000000 0.000000 0.000000 0.165768
    13 4.991440 -0.003975 0.000000 0.000000 0.000000 0.000000
    14 4.991432 -0.001575 0.000000 0.000000 0.000000 0.000000
    15 0.000008 0.001564 3.638375 -0.000010 -1.284244 3.140806
    16 8.842831 0.000000 -0.000004 -0.862499 0.398482 -1.122870
    17 9.341934 0.000000 0.000000 0.000000 0.000000 -0.616166
    18 11.168404 -0.000001 0.000004 -4.229795 0.602343 -0.623375
    19 1.364904 0.231174 -1.984411 2.565506 0.787623 1.289793
    20 1.748535 -0.000002 0.000000 0.000000 0.000000 -0.043596
    21 1.272493 0.000000 0.000000 0.000000 0.000000 0.253070
    22 4.525587 -0.000301 -1.850224 0.062816 0.072691 0.735167
    23 1.719875 -0.000004 0.000001 0.000000 0.000000 0.619507
    24 1.383650 0.000004 0.000000 0.000000 0.000000 0.741679
    25 4.525587 -0.000103 -0.616741 0.033512 0.040262 0.733557
    26 1.807671 0.000000 -0.000002 0.000000 0.000000 0.567166
    27 1.614256 0.000000 0.000001 0.000000 0.000000 0.741753
    28 4.525587 0.000103 0.616741 0.021811 0.027340 0.733211
    29 1.719870 0.000000 0.000000 0.000000 0.000000 0.366471
    30 1.383650 -0.000004 0.000000 0.000000 0.000000 0.741673
    31 4.525587 0.000301 1.850224 -0.024821 -0.024628 0.733269
    32 1.433229 0.000000 0.000001 0.000000 0.000000 0.366461
    33 1.153040 0.000000 0.000000 0.000000 0.000000 0.741669
    34 0.000000 0.001585 -3.638375 -0.000010 1.284244 3.140787
    35 8.842832 0.000000 0.000000 0.717818 -0.540617 -2.070146
    36 9.341938 0.000000 -0.000004 0.000000 0.000000 -1.015494
    37 11.168402 -0.000001 -0.000004 1.833804 -0.006174 0.980663
    38 1.364901 0.231174 1.984410 3.141548 0.005165 1.002275
    39 1.748535 -0.000002 0.000000 0.000000 0.000000 0.436286
    40 1.272493 0.000000 0.000000 0.000000 0.000000 0.322881
    41 4.525583 -0.000301 1.850223 -0.016340 -0.094620 0.192574
    42 1.719875 0.000000 0.000000 0.000000 0.000000 0.034907
    43 1.383648 0.000000 0.000000 0.000000 0.000000 0.689298
    44 4.525581 -0.000103 0.616742 -0.040895 -0.032761 0.934330
    45 1.807673 0.000000 0.000000 0.000000 0.000000 0.907546
    46 1.614258 -0.000004 0.000000 0.000000 0.000000 1.151884
    47 4.525578 0.000099 -0.616741 -0.026857 -0.022390 0.933931
    48 1.719872 -0.000004 0.000000 0.000000 0.000000 0.907546
    49 1.383646 0.000004 0.000000 0.000000 0.000000 1.151882
    50 4.525581 0.000301 -1.850223 0.029256 0.019176 0.933935
    51 1.433226 0.000004 0.000000 0.000000 0.000000 0.907457
    52 1.153040 0.000000 0.000000 0.000000 0.000000 1.151882
    53 1.977379 0.000000 0.000000 0.756894 -0.083413 0.209215
    54 3.723976 2.768054 -0.049087 -3.140171 -0.001551 1.658058
    55 11.781860 -0.001184 -0.000003 0.000000 0.000000 0.000000
    56 -3.887192 4.546144 1.934869 0.000000 -1.570796 -3.141591
    57 -4.205009 4.546216 -0.015855 -3.054274 -1.570725 0.000000
    58 -3.887192 4.546178 -1.987145 0.000000 -1.570796 -3.141591
    59 -4.881813 5.593821 -1.566820 1.047319 -1.487704 2.076220
    60 -4.886909 5.683144 -0.007570 3.063127 -1.570751 0.000000
    61 -4.881798 5.609550 1.546659 1.047319 -1.487704 2.076220
    62 3.710045 1.760548 -0.059361 -0.091834 -0.075875 1.616828
    63 12.138049 14.189942 -4.062706 -0.883736 -1.446972 0.272608
  time 1
    0 0.054472 6.314929 4.265530 -0.378425 0.309383 -2.082379
    1 -0.526041 0.000001 9.745319 0.000000 -1.570741 -1.570795
    2 -0.000011 0.000010 5.615750 -2.653005 -0.179654 0.059209
    3 15.693466 0.000000 0.000000 0.000000 0.000000 -2.249464
    4 22.146629 -0.000001 0.000000 -0.173822 0.278666 -0.282861
    5 3.310129 5.734395 0.000000 0.000000 0.000000 1.570796
    6 0.000008 -0.000006 -5.615750 -3.319595 0.377134 2.271875
    7 15.693470 0.000000 0.000000 0.000000 0.000000 -2.351200
    8 22.146629 0.000000 0.000000 -0.742911 0.510557 -0.055809
    9 3.310129 5.734395 0.000000 0.000000 0.000000 2.203833
    10 1.384159 -0.004728 0.000002 -0.361773 0.294534 -0.084430
    11 5.939816 -0.004730 0.000000 0.000000 0.000000 0.000000
    12 5.939808 -0.003975 0.000000 0.000000 0.000000 0.165768
    13 4.991440 -0.003975 0.000000 0.000000 0.000000 0.000000
    14 4.991432 -0.001575 0.000000 0.000000 0.000000 0.000000
    15 0.000008 0.001564 3.638375 -0.000010 -1.284244 3.140806
    16 8.842831 0.000000 -0.000004 -0.801506 0.551121 -1.046161
    17 9.341934 0.000000 0.000000 0.000000 0.000000 -0.980917
    18 11.168404 -0.000001 0.000004 -4.110907 0.563813 -0.327738
    19 1.364904 0.231174 -1.984411 2.565506 0.787623 1.289793
    20 1.748535 -0.000002 0.000000 0.000000 0.000000 -0.043596
    21 1.272493 0.000000 0.000000 0.000000 0.000000 0.253070
    22 4.525587 -0.000301 -1.850224 0.062816 0.072691 0.735167
    23 1.719875 -0.000004 0.000001 0.000000 0.000000 0.619507
    24 1.383650 0.000004 0.000000 0.000000 0.000000 0.741679
    25 4.525587 -0.000103 -0.616741 0.033512 0.040262 0.733557
    26 1.807671 0.000000 -0.000002 0.000000 0.000000 0.567166
    27 1.614256 0.000000 0.000001 0.000000 0.000000 0.741753
    28 4.525587 0.000103 0.616741 0.021811 0.027340 0.733211
    29 1.719870 0.000000 0.000000 0.000000 0.000000 0.366471
    30 1.383650 -0.000004 0.000000 0.000000 0.000000 0.741673
    31 4.525587 0.000301 1.850224 -0.024821 -0.024628 0.733269
    32 1.433229 0.000000 0.000001 0.000000 0.000000 0.366461
    33 1.153040 0.000000 0.000000 0.000000 0.000000 0.741669
    34 0.000000 0.001585 -3.638375 -0.000010 1.284244 3.140787
    35 8.842832 0.000000 0.000000 0.628869 -0.632015 -1.851925
    36 9.341938 0.000000 -0.000004 0.000000 0.000000 -1.348665
    37 11.168402 -0.000001 -0.000004 1.839210 -0.088663 1.074672
    38 1.364901 0.231174 1.984410 3.141548 0.005165 1.002275
    39 1.748535 -0.000002 0.000000 0.000000 0.000000 0.436286
    40 1.272493 0.000000 0.000000 0.000000 0.000000 0.322857
    41 4.525583 -0.000301 1.850223 -0.016340 -0.094620 0.192574
    42 1.719875 0.000000 0.000000 0.000000 0.000000 0.034907
    43 1.383648 0.000000 0.000000 0.000000 0.000000 0.689338
    44 4.525581 -0.000103 0.616742 -0.040895 -0.032761 0.934330
    45 1.807673 0.000000 0.000000 0.000000 0.000000 0.907546
    46 1.614258 -0.000004 0.000000 0.000000 0.000000 1.151843
    47 4.525578 0.000099 -0.616741 -0.026857 -0.022390 0.933931
    48 1.719872 -0.000004 0.000000 0.000000 0.000000 0.907546
    49 1.383646 0.000004 0.000000 0.000000 0.000000 1.151882
    50 4.525581 0.000301 -1.850223 0.029256 0.019176 0.933935
    51 1.433226 0.000004 0.000000 0.000000 0.000000 0.907457
    52 1.153040 0.000000 0.000000 0.000000 0.000000 1.151882
    53 1.977379 0.000000 0.000000 0.756894 -0.083413 0.209215
    54 3.723976 2.768054 -0.049087 -3.140171 -0.001551 1.658058
    55 11.781860 -0.001184 -0.000003 0.000000 0.000000 0.000000
    56 -3.887192 4.546144 1.934869 0.000000 -1.570796 -3.141591
    57 -4.205009 4.546216 -0.015855 -3.054274 -1.570725 0.000000
    58 -3.887192 4.546178 -1.987145 0.000000 -1.570796 -3.141591
    59 -4.881813 5.593821 -1.566820 1.047319 -1.487704 2.076220
    60 -4.886909 5.683144 -0.007570 3.063127 -1.570751 0.000000
    61 -4.881798 5.609550 1.546659 1.047319 -1.487704 2.076220
    62 3.710045 1.760548 -0.059361 -0.091846 -0.075875 1.616828
    63 12.138049 14.189942 -4.062706 -0.883736 -1.447053 0.272608
  time 2
    0 0.054472 6.163949 3.853897 -0.355798 0.262980 -2.025430
    1 -0.526041 0.000001 9.745319 0.000000 -1.570451 -1.570795
    2 -0.000011 0.000010 5.615750 -2.713112 -0.207159 0.126852
    3 15.693466 0.000000 0.000000 0.000000 0.000000 -2.222005
    4 22.146629 -0.000001 0.000000 -0.181824 0.311654 -0.303943
    5 3.310129 5.734395 0.000000 0.000000 0.000000 1.570796
    6 0.000008 -0.000006 -5.615750 -3.312125 0.399791 2.346580
    7 15.693470 0.000000 0.000000 0.000000 0.000000 -2.361100
    8 22.146629 0.000000 0.000000 -0.747142 0.515499 -0.087517
    9 3.310129 5.734395 0.000000 0.000000 0.000000 2.219887
    10 1.384159 -0.004728 0.000002 -0.361773 0.294534 -0.084430
    11 5.939816 -0.004730 0.000000 0.000000 0.000000 0.000000
    12 5.939808 -0.003975 0.000000 0.000000 0.000000 0.165768
    13 4.991440 -0.003975 0.000000 0.000000 0.000000 0.000000
    14 4.991432 -0.001575 0.000000 0.000000 0.000000 0.000000
    15 0.000008 0.001564 3.638375 -0.000010 -1.284244 3.140806
    16 8.842831 0.000000 -0.000004 -0.788521 0.619903 -1.144324
    17 9.341934 0.000000 0.000000 0.000000 0.000000 -1.001581
    18 11.168404 -0.000001 0.000004 -4.050174 0.516639 -0.258081
    19 1.364904 0.231174 -1.984411 2.565506 0.787623 1.289793
    20 1.748535 -0.000002 0.000000 0.000000 0.000000 -0.043596
    21 1.272493 0.000000 0.000000 0.000000 0.000000 0.253070
    22 4.525587 -0.000301 -1.850224 0.062816 0.072691 0.735167
    23 1.719875 -0.000004 0.000001 0.000000 0.000000 0.619507
    24 1.383650 0.000004 0.000000 0.000000 0.000000 0.741679
    25 4.525587 -0.000103 -0.616741 0.033512 0.040262 0.733557
    26 1.807671 0.000000 -0.000002 0.000000 0.000000 0.567166
    27 1.614256 0.000000 0.000001 0.000000 0.000000 0.741753
    28 4.525587 0.000103 0.616741 0.021811 0.027340 0.733211
    29 1.719870 0.000000 0.000000 0.000000 0.000000 0.366471
    30 1.383650 -0.000004 0.000000 0.000000 0.000000 0.741673
    31 4.525587 0.000301 1.850224 -0.024821 -0.024628 0.733269
    32 1.433229 0.000000 0.000001 0.000000 0.000000 0.366461
    33 1.153040 0.000000 0.000000 0.000000 0.000000 0.741669
    34 0.000000 0.001585 -3.638375 -0.000010 1.284244 3.140787
    35 8.842832 0.000000 0.000000 0.528318 -0.703522 -1.638278
    36 9.341938 0.000000 -0.000004 0.000000 0.000000 -1.615203
    37 11.168402 -0.000001 -0.000004 1.848253 -0.104681 1.204310
    38 1.364901 0.231174 1.984410 3.141548 0.005165 1.002275
    39 1.748535 -0.000002 0.000000 0.000000 0.000000 0.436286
    40 1.272493 0.000000 0.000000 0.000000 0.000000 0.322857
    41 4.525583 -0.000301 1.850223 -0.016340 -0.094620 0.192574
    42 1.719875 0.000000 0.000000 0.000000 0.000000 0.034907
    43 1.383648 0.000000 0.000000 0.000000 0.000000 0.689338
    44 4.525581 -0.000103 0.616742 -0.040895 -0.032761 0.934330
    45 1.807673 0.000000 0.000000 0.000000 0.000000 0.907546
    46 1.614258 -0.000004 0.000000 0.000000 0.000000 1.151884
    47 4.525578 0.000099 -0.616741 -0.026857 -0.022390 0.933931
    48 1.719872 -0.000004 0.000000 0.000000 0.000000 0.907546
    49 1.383646 0.000004 0.000000 0.000000 0.000000 1.151882
    50 4.525581 0.000301 -1.850223 0.029256 0.019176 0.933935
    51 1.433226 0.000004 0.000000 0.000000 0.000000 0.907457
    52 1.153040 0.000000 0.000000 0.000000 0.000000 1.151882
    53 1.977379 0.000000 0.000000 0.756894 -0.083390 0.209215
    54 3.723976 2.768054 -0.049087 -3.140171 -0.001551 1.658058
    55 11.781860 -0.001184 -0.000003 0.000000 0.000000 0.000000
    56 -3.887192 4.546144 1.934869 0.000000 -1.570796 -3.141591
    57 -4.205009 4.546216 -0.015855 -3.054274 -1.570725 0.000000
    58 -3.887192 4.546178 -1.987145 0.000000 -1.570796 -3.141591
    59 -4.881813 5.593821 -1.566820 1.047319 -1.487704 2.076220
    60 -4.886909 5.683144 -0.007570 3.063127 -1.570751 0.000000
    61 -4.881798 5.609550 1.546659 1.047319 -1.487704 2.076220
    62 3.710045 1.760548 -0.059361 -0.091834 -0.075875 1.616828
    63 12.138049 14.189942 -4.062706 -0.883736 -1.446972 0.272608
  time 3
    0 0.054472 6.224341 3.893100 -0.355415 0.264274 -2.026101
    1 -0.526041 0.000001 9.745319 0.000000 -1.570741 -1.570795
    2 -0.000011 0.000010 5.615750 -2.713112 -0.208899 0.130477
    3 15.693466 0.000000 0.000000 0.000000 0.000000 -2.217381
    4 22.146629 -0.000001 0.000000 -0.181487 0.310094 -0.303394
    5 3.310129 5.734395 0.000000 0.000000 0.000000 1.570796
    6 0.000008 -0.000006 -5.615750 -3.306483 0.392877 2.352032
    7 15.693470 0.000000 0.000000 0.000000 0.000000 -2.350233
    8 22.146629 0.000000 0.000000 -0.738906 0.526673 -0.059156
    9 3.310129 5.734395 0.000000 0.000000 0.000000 2.208461
    10 1.384159 -0.004728 0.000002 -0.361773 0.294534 -0.084430
    11 5.939816 -0.004730 0.000000 0.000000 0.000000 0.000000
    12 5.939808 -0.003975 0.000000 0.000000 0.000000 0.165768
    13 4.991440 -0.003975 0.000000 0.000000 0.000000 0.000000
    14 4.991432 -0.001575 0.000000 0.000000 0.000000 0.000000
    15 0.000008 0.001564 3.638375 -0.000010 -1.284244 3.140806
    16 8.842831 0.000000 -0.000004 -0.791356 0.602675 -1.140909
    17 9.341934 0.000000 0.000000 0.000000 0.000000 -1.014866
    18 11.168404 -0.000001 0.000004 -4.041484 0.525917 -0.244942
    19 1.364904 0.231174 -1.984411 2.565506 0.787623 1.289793
    20 1.748535 -0.000002 0.000000 0.000000 0.000000 -0.043596
    21 1.272493 0.000000 0.000000 0.000000 0.000000 0.253070
    22 4.525587 -0.000301 -1.850224 0.062816 0.072691 0.735167
    23 1.719875 -0.000004 0.000001 0.000000 0.000000 0.619507
    24 1.383650 0.000004 0.000000 0.000000 0.000000 0.741679
    25 4.525587 -0.000103 -0.616741 0.033512 0.040262 0.733557
    26 1.807671 0.000000 -0.000002 0.000000 0.000000 0.567166
    27 1.614256 0.000000 0.000001 0.000000 0.000000 0.741753
    28 4.525587 0.000103 0.616741 0.021811 0.027340 0.733211
    29 1.719870 0.000000 0.000000 0.000000 0.000000 0.366471
    30 1.383650 -0.000004 0.000000 0.000000 0.000000 0.741673
    31 4.525587 0.000301 1.850224 -0.024821 -0.024628 0.733269
    32 1.433229 0.000000 0.000001 0.000000 0.000000 0.366461
    33 1.153040 0.000000 0.000000 0.000000 0.000000 0.741669
    34 0.000000 0.001585 -3.638375 -0.000010 1.284244 3.140787
    35 8.842832 0.000000 0.000000 0.530770 -0.702261 -1.643805
    36 9.341938 0.000000 -0.000004 0.000000 0.000000 -1.613783
    37 11.168402 -0.000001 -0.000004 1.850863 -0.095113 1.184192
    38 1.364901 0.231174 1.984410 3.141548 0.005165 1.002275
    39 1.748535 -0.000002 0.000000 0.000000 0.000000 0.436286
    40 1.272493 0.000000 0.000000 0.000000 0.000000 0.322881
    41 4.525583 -0.000301 1.850223 -0.016340 -0.094620 0.192574
    42 1.719875 0.000000 0.000000 0.000000 0.000000 0.034907
    43 1.383648 0.000000 0.000000 0.000000 0.000000 0.689338
    44 4.525581 -0.000103 0.616742 -0.040895 -0.032761 0.934330
    45 1.807673 0.000000 0.000000 0.000000 0.000000 0.907546
    46 1.614258 -0.000004 0.000000 0.000000 0.000000 1.151843
    47 4.525578 0.000099 -0.616741 -0.026857 -0.022390 0.933931
    48 1.719872 -0.000004 0.000000 0.000000 0.000000 0.907546
    49 1.383646 0.000004 0.000000 0.000000 0.000000 1.151882
    50 4.525581 0.000301 -1.850223 0.029256 0.019176 0.933935
    51 1.433226 0.000004 0.000000 0.000000 0.000000 0.907457
    52 1.153040 0.000000 0.000000 0.000000 0.000000 1.151882
    53 1.977379 0.000000 0.000000 0.756894 -0.083413 0.209215
    54 3.723976 2.768054 -0.049087 -3.140171 -0.001551 1.658058
    55 11.781860 -0.001184 -0.000003 0.000000 0.000000 0.000000
    56 -3.887192 4.546144 1.934869 0.000000 -1.570796 -3.141591
    57 -4.205009 4.546216 -0.015855 -3.054274 -1.570725 0.000000
    58 -3.887192 4.546178 -1.987145 0.000000 -1.570796 -3.141591
    59 -4.881813 5.593821 -1.566820 1.047319 -1.487704 2.076220
    60 -4.886909 5.683144 -0.007570 3.063127 -1.570751 0.000000
    61 -4.881798 5.609550 1.546659 1.047319 -1.487704 2.076220
    62 3.710045 1.760548 -0.059361 -0.091846 -0.075875 1.616828
    63 12.138049 14.189942 -4.062706 -0.883736 -1.446972 0.272608
  time 4
    0 0.054472 6.330027 3.991108 -0.353881 0.267774 -2.027348
    1 -0.526041 0.000001 9.745319 0.000000 -1.570451 -1.570795
    2 -0.000011 0.000010 5.615750 -2.712357 -0.211757 0.136201
    3 15.693466 0.000000 0.000000 0.000000 0.000000 -2.210196
    4 22.146629 -0.000001 0.000000 -0.180665 0.306057 -0.301702
    5 3.310129 5.734395 0.000000 0.000000 0.000000 1.570796
    6 0.000008 -0.000006 -5.615750 -3.297345 0.376667 2.358728
    7 15.693470 0.000000 0.000000 0.000000 0.000000 -2.341748
    8 22.146629 0.000000 0.000000 -0.719332 0.550709 0.016503
    9 3.310129 5.734395 0.000000 0.000000 0.000000 2.183237
    10 1.384159 -0.004728 0.000002 -0.361773 0.294534 -0.084430
    11 5.939816 -0.004730 0.000000 0.000000 0.000000 0.000000
    12 5.939808 -0.003975 0.000000 0.000000 0.000000 0.165768
    13 4.991440 -0.003975 0.000000 0.000000 0.000000 0.000000
    14 4.991432 -0.001575 0.000000 0.000000 0.000000 0.000000
    15 0.000008 0.001564 3.638375 -0.000010 -1.284244 3.140806
    16 8.842831 0.000000 -0.000004 -0.793459 0.587535 -1.131889
    17 9.341934 0.000000 0.000000 0.000000 0.000000 -1.034383
    18 11.168404 -0.000001 0.000004 -4.034131 0.536319 -0.232972
    19 1.364904 0.231174 -1.984411 2.565506 0.787623 1.289793
    20 1.748535 -0.000002 0.000000 0.000000 0.000000 -0.043596
    21 1.272493 0.000000 0.000000 0.000000 0.000000 0.253070
    22 4.525587 -0.000301 -1.850224 0.062816 0.072691 0.735114
    23 1.719875 -0.000004 0.000001 0.000000 0.000000 0.619507
    24 1.383650 0.000004 0.000000 0.000000 0.000000 0.741679
    25 4.525587 -0.000103 -0.616741 0.033512 0.040262 0.733557
    26 1.807671 0.000000 -0.000002 0.000000 0.000000 0.567166
    27 1.614256 0.000000 0.000001 0.000000 0.000000 0.741753
    28 4.525587 0.000103 0.616741 0.021811 0.027340 0.733211
    29 1.719870 0.000000 0.000000 0.000000 0.000000 0.366471
    30 1.383650 -0.000004 0.000000 0.000000 0.000000 0.741673
    31 4.525587 0.000301 1.850224 -0.024821 -0.024628 0.733269
    32 1.433229 0.000000 0.000001 0.000000 0.000000 0.366461
    33 1.153040 0.000000 0.000000 0.000000 0.000000 0.741669
    34 0.000000 0.001585 -3.638375 -0.000010 1.284244 3.140787
    35 8.842832 0.000000 0.000000 0.532845 -0.702471 -1.653525
    36 9.341938 0.000000 -0.000004 0.000000 0.000000 -1.610742
    37 11.168402 -0.000001 -0.000004 1.853287 -0.080486 1.162946
    38 1.364901 0.231174 1.984410 3.141548 0.005165 1.002275
    39 1.748535 -0.000002 0.000000 0.000000 0.000000 0.436286
    40 1.272493 0.000000 0.000000 0.000000 0.000000 0.322881
    41 4.525583 -0.000301 1.850223 -0.016340 -0.094620 0.192574
    42 1.719875 0.000000 0.000000 0.000000 0.000000 0.034907
    43 1.383648 0.000000 0.000000 0.000000 0.000000 0.689338
    44 4.525581 -0.000103 0.616742 -0.040895 -0.032761 0.934330
    45 1.807673 0.000000 0.000000 0.000000 0.000000 0.907546
    46 1.614258 -0.000004 0.000000 0.000000 0.000000 1.151843
    47 4.525578 0.000099 -0.616741 -0.026857 -0.022390 0.933931
    48 1.719872 -0.000004 0.000000 0.000000 0.000000 0.907546
    49 1.383646 0.000004 0.000000 0.000000 0.000000 1.151882
    50 4.525581 0.000301 -1.850223 0.029256 0.019176 0.933935
    51 1.433226 0.000004 0.000000 0.000000 0.000000 0.907457
    52 1.153040 0.000000 0.000000 0.000000 0.000000 1.151882
    53 1.977379 0.000000 0.000000 0.756894 -0.083390 0.209215
    54 3.723976 2.768054 -0.049087 -3.140171 -0.001551 1.658058
    55 11.781860 -0.001184 -0.000003 0.000000 0.000000 0.000000
    56 -3.887192 4.546144 1.934869 0.000000 -1.570796 -3.141591
    57 -4.205009 4.546216 -0.015855 -3.054274 -1.570725 0.000000
    58 -3.887192 4.546178 -1.987145 0.000000 -1.570796 -3.141591
    59 -4.881813 5.593821 -1.566820 1.047319 -1.487704 2.076220
    60 -4.886909 5.683144 -0.007570 3.063127 -1.570751 0.000000
    61 -4.881798 5.609550 1.546659 1.047319 -1.487704 2.076220
    62 3.710045 1.760548 -0.059361 -0.091846 -0.075875 1.616828
    63 12.138049 14.189942 -4.062706 -0.883736 -1.446972 0.272608
  time 5
    0 0.054472 6.420616 4.089116 -0.351580 0.273047 -2.029169
    1 -0.526041 0.000001 9.745319 0.000000 -1.570451 -1.570795
    2 -0.000011 0.000010 5.615750 -2.710469 -0.214077 0.140399
    3 15.693466 0.000000 0.000000 0.000000 0.000000 -2.204647
    4 22.146629 -0.000001 0.000000 -0.179543 0.299816 -0.298410
    5 3.310129 5.734395 0.000000 0.000000 0.000000 1.570796
    6 0.000008 -0.000006 -5.615750 -3.289319 0.360177 2.362745
    7 15.693470 0.000000 0.000000 0.000000 0.000000 -2.334305
    8 22.146629 0.000000 0.000000 -0.695866 0.572719 0.095244
    9 3.310129 5.734395 0.000000 0.000000 0.000000 2.158157
    10 1.384159 -0.004728 0.000002 -0.361773 0.294534 -0.084430
    11 5.939816 -0.004730 0.000000 0.000000 0.000000 0.000000
    12 5.939808 -0.003975 0.000000 0.000000 0.000000 0.165768
    13 4.991440 -0.003975 0.000000 0.000000 0.000000 0.000000
    14 4.991432 -0.001575 0.000000 0.000000 0.000000 0.000000
    15 0.000008 0.001564 3.638375 -0.000010 -1.284244 3.140806
    16 8.842831 0.000000 -0.000004 -0.792179 0.578464 -1.116127
    17 9.341934 0.000000 0.000000 0.000000 0.000000 -1.068660
    18 11.168404 -0.000001 0.000004 -4.025728 0.545695 -0.216143
    19 1.364904 0.231174 -1.984411 2.565506 0.787623 1.289793
    20 1.748535 -0.000002 0.000000 0.000000 0.000000 -0.043596
    21 1.272493 0.000000 0.000000 0.000000 0.000000 0.253070
    22 4.525587 -0.000301 -1.850224 0.062816 0.072691 0.735114
    23 1.719875 -0.000004 0.000001 0.000000 0.000000 0.619507
    24 1.383650 0.000004 0.000000 0.000000 0.000000 0.741679
    25 4.525587 -0.000103 -0.616741 0.033512 0.040262 0.733557
    26 1.807671 0.000000 -0.000002 0.000000 0.000000 0.567166
    27 1.614256 0.000000 0.000001 0.000000 0.000000 0.741753
    28 4.525587 0.000103 0.616741 0.021811 0.027340 0.733211
    29 1.719870 0.000000 0.000000 0.000000 0.000000 0.366471
    30 1.383650 -0.000004 0.000000 0.000000 0.000000 0.741673
    31 4.525587 0.000301 1.850224 -0.024821 -0.024628 0.733269
    32 1.433229 0.000000 0.000001 0.000000 0.000000 0.366461
    33 1.153040 0.000000 0.000000 0.000000 0.000000 0.741669
    34 0.000000 0.001585 -3.638375 -0.000010 1.284244 3.140787
    35 8.842832 0.000000 0.000000 0.531525 -0.705903 -1.662101
    36 9.341938 0.000000 -0.000004 0.000000 0.000000 -1.615135
    37 11.168402 -0.000001 -0.000004 1.854592 -0.061982 1.145272
    38 1.364901 0.231174 1.984410 3.141548 0.005165 1.002275
    39 1.748535 -0.000002 0.000000 0.000000 0.000000 0.436286
    40 1.272493 0.000000 0.000000 0.000000 0.000000 0.322857
    41 4.525583 -0.000301 1.850223 -0.016340 -0.094620 0.192574
    42 1.719875 0.000000 0.000000 0.000000 0.000000 0.034907
    43 1.383648 0.000000 0.000000 0.000000 0.000000 0.689338
    44 4.525581 -0.000103 0.616742 -0.040895 -0.032761 0.934330
    45 1.807673 0.000000 0.000000 0.000000 0.000000 0.907546
    46 1.614258 -0.000004 0.000000 0.000000 0.000000 1.151843
    47 4.525578 0.000099 -0.616741 -0.026857 -0.022390 0.933931
    48 1.719872 -0.000004 0.000000 0.000000 0.000000 0.907546
    49 1.383646 0.000004 0.000000 0.000000 0.000000 1.151882
    50 4.525581 0.000301 -1.850223 0.029256 0.019176 0.933935
    51 1.433226 0.000004 0.000000 0.000000 0.000000 0.907457
    52 1.153040 0.000000 0.000000 0.000000 0.000000 1.151882
    53 1.977379 0.000000 0.000000 0.756894 -0.083390 0.209215
    54 3.723976 2.768054 -0.049087 -3.140171 -0.001551 1.658058
    55 11.781860 -0.001184 -0.000003 0.000000 0.000000 0.000000
    56 -3.887192 4.546144 1.934869 0.000000 -1.570796 -3.141591
    57 -4.205009 4.546216 -0.015855 -3.054274 -1.570725 0.000000
    58 -3.887192 4.546178 -1.987145 0.000000 -1.570796 -3.141591
    59 -4.881813 5.593821 -1.566820 1.047319 -1.487704 2.076220
    60 -4.886909 5.683144 -0.007570 3.063127 -1.570751 0.000000
    61 -4.881798 5.609550 1.546659 1.047319 -1.487704 2.076220
    62 3.710045 1.760548 -0.059361 -0.091846 -0.075875 1.616828
    63 12.138049 14.189942 -4.062706 -0.883736 -1.446972 0.272608
  time 6
    0 0.054472 6.405518 4.167522 -0.348704 0.279902 -2.031566
    1 -0.526041 0.000001 9.745319 0.000000 -1.570451 -1.570795
    2 -0.000011 0.000010 5.615750 -2.706412 -0.214243 0.139350
    3 15.693466 0.000000 0.000000 0.000000 0.000000 -2.205785
    4 22.146629 -0.000001 0.000000 -0.178160 0.291817 -0.292922
    5 3.310129 5.734395 0.000000 0.000000 0.000000 1.570796
    6 0.000008 -0.000006 -5.615750 -3.283995 0.352796 2.366284
    7 15.693470 0.000000 0.000000 0.000000 0.000000 -2.326415
    8 22.146629 0.000000 0.000000 -0.681143 0.582358 0.134967
    9 3.310129 5.734395 0.000000 0.000000 0.000000 2.146731
    10 1.384159 -0.004728 0.000002 -0.361773 0.294534 -0.084430
    11 5.939816 -0.004730 0.000000 0.000000 0.000000 0.000000
    12 5.939808 -0.003975 0.000000 0.000000 0.000000 0.165768
    13 4.991440 -0.003975 0.000000 0.000000 0.000000 0.000000
    14 4.991432 -0.001575 0.000000 0.000000 0.000000 0.000000
    15 0.000008 0.001564 3.638375 -0.000010 -1.284244 3.140806
    16 8.842831 0.000000 -0.000004 -0.785869 0.579182 -1.093185
    17 9.341934 0.000000 0.000000 0.000000 0.000000 -1.124668
    18 11.168404 -0.000001 0.000004 -4.015033 0.552092 -0.188874
    19 1.364904 0.231174 -1.984411 2.565506 0.787623 1.289793
    20 1.748535 -0.000002 0.000000 0.000000 0.000000 -0.043596
    21 1.272493 0.000000 0.000000 0.000000 0.000000 0.253070
    22 4.525587 -0.000301 -1.850224 0.062816 0.072691 0.735167
    23 1.719875 -0.000004 0.000001 0.000000 0.000000 0.619507
    24 1.383650 0.000004 0.000000 0.000000 0.000000 0.741679
    25 4.525587 -0.000103 -0.616741 0.033512 0.040262 0.733557
    26 1.807671 0.000000 -0.000002 0.000000 0.000000 0.567166
    27 1.614256 0.000000 0.000001 0.000000 0.000000 0.741753
    28 4.525587 0.000103 0.616741 0.021823 0.027340 0.733211
    29 1.719870 0.000000 0.000000 0.000000 0.000000 0.366471
    30 1.383650 -0.000004 0.000000 0.000000 0.000000 0.741673
    31 4.525587 0.000301 1.850224 -0.024821 -0.024628 0.733269
    32 1.433229 0.000000 0.000001 0.000000 0.000000 0.366461
    33 1.153040 0.000000 0.000000 0.000000 0.000000 0.741669
    34 0.000000 0.001585 -3.638375 -0.000010 1.284244 3.140787
    35 8.842832 0.000000 0.000000 0.523507 -0.714237 -1.664102
    36 9.341938 0.000000 -0.000004 0.000000 0.000000 -1.635612
    37 11.168402 -0.000001 -0.000004 1.855338 -0.040527 1.136248
    38 1.364901 0.231174 1.984410 3.141548 0.005165 1.002275
    39 1.748535 -0.000002 0.000000 0.000000 0.000000 0.436286
    40 1.272493 0.000000 0.000000 0.000000 0.000000 0.322881
    41 4.525583 -0.000301 1.850223 -0.016340 -0.094620 0.192574
    42 1.719875 0.000000 0.000000 0.000000 0.000000 0.034907
    43 1.383648 0.000000 0.000000 0.000000 0.000000 0.689338
    44 4.525581 -0.000103 0.616742 -0.040895 -0.032761 0.934330
    45 1.807673 0.000000 0.000000 0.000000 0.000000 0.907546
    46 1.614258 -0.000004 0.000000 0.000000 0.000000 1.151843
    47 4.525578 0.000099 -0.616741 -0.026857 -0.022390 0.933931
    48 1.719872 -0.000004 0.000000 0.000000 0.000000 0.907546
    49 1.383646 0.000004 0.000000 0.000000 0.000000 1.151882
    50 4.525581 0.000301 -1.850223 0.029256 0.019176 0.933935
    51 1.433226 0.000004 0.000000 0.000000 0.000000 0.907457
    52 1.153040 0.000000 0.000000 0.000000 0.000000 1.151882
    53 1.977379 0.000000 0.000000 0.756894 -0.083390 0.209215
    54 3.723976 2.768054 -0.049087 -3.140171 -0.001551 1.658058
    55 11.781860 -0.001184 -0.000003 0.000000 0.000000 0.000000
    56 -3.887192 4.546144 1.934869 0.000000 -1.570796 -3.141591
    57 -4.205009 4.546216 -0.015855 -3.054274 -1.570725 0.000000
    58 -3.887192 4.546178 -1.987145 0.000000 -1.570796 -3.141591
    59 -4.881813 5.593821 -1.566820 1.047319 -1.487704 2.076220
    60 -4.886909 5.683144 -0.007570 3.063127 -1.570751 0.000000
    61 -4.881798 5.609550 1.546659 1.047319 -1.487704 2.076220
    62 3.710045 1.760548 -0.059361 -0.091834 -0.075875 1.616828
    63 12.138049 14.189942 -4.062706 -0.883736 -1.446972 0.272608
  time 7
    0 0.054472 6.292282 4.226327 -0.345060 0.287715 -2.034442
    1 -0.526041 0.000001 9.745319 0.000000 -1.570451 -1.570795
    2 -0.000011 0.000010 5.615750 -2.700845 -0.212130 0.133339
    3 15.693466 0.000000 0.000000 0.000000 0.000000 -2.213753
    4 22.146629 -0.000001 0.000000 -0.176552 0.282604 -0.285239
    5 3.310129 5.734395 0.000000 0.000000 0.000000 1.570796
    6 0.000008 -0.000006 -5.615750 -3.281690 0.352983 2.368771
    7 15.693470 0.000000 0.000000 0.000000 0.000000 -2.319493
    8 22.146629 0.000000 0.000000 -0.676066 0.583862 0.141308
    9 3.310129 5.734395 0.000000 0.000000 0.000000 2.146731
    10 1.384159 -0.004728 0.000002 -0.361773 0.294534 -0.084430
    11 5.939816 -0.004730 0.000000 0.000000 0.000000 0.000000
    12 5.939808 -0.003975 0.000000 0.000000 0.000000 0.165768
    13 4.991440 -0.003975 0.000000 0.000000 0.000000 0.000000
    14 4.991432 -0.001575 0.000000 0.000000 0.000000 0.000000
    15 0.000008 0.001564 3.638375 -0.000010 -1.284244 3.140806
    16 8.842831 0.000000 -0.000004 -0.800683 0.554645 -1.090470
    17 9.341934 0.000000 0.000000 0.000000 0.000000 -1.051275
    18 11.168404 -0.000001 0.000004 -4.051606 0.566205 -0.259161
    19 1.364904 0.231174 -1.984411 2.565506 0.787623 1.289793
    20 1.748535 -0.000002 0.000000 0.000000 0.000000 -0.043596
    21 1.272493 0.000000 0.000000 0.000000 0.000000 0.253070
    22 4.525587 -0.000301 -1.850224 0.062816 0.072691 0.735114
    23 1.719875 -0.000004 0.000001 0.000000 0.000000 0.619507
    24 1.383650 0.000004 0.000000 0.000000 0.000000 0.741679
    25 4.525587 -0.000103 -0.616741 0.033512 0.040262 0.733557
    26 1.807671 0.000000 -0.000002 0.000000 0.000000 0.567166
    27 1.614256 0.000000 0.000001 0.000000 0.000000 0.741753
    28 4.525587 0.000103 0.616741 0.021811 0.027340 0.733211
    29 1.719870 0.000000 0.000000 0.000000 0.000000 0.366471
    30 1.383650 -0.000004 0.000000 0.000000 0.000000 0.741673
    31 4.525587 0.000301 1.850224 -0.024821 -0.024628 0.733269
    32 1.433229 0.000000 0.000001 0.000000 0.000000 0.366461
    33 1.153040 0.000000 0.000000 0.000000 0.000000 0.741669
    34 0.000000 0.001585 -3.638375 -0.000010 1.284244 3.140787
    35 8.842832 0.000000 0.000000 0.559539 -0.691335 -1.735381
    36 9.341938 0.000000 -0.000004 0.000000 0.000000 -1.537755
    37 11.168402 -0.000001 -0.000004 1.851982 -0.033740 1.112933
    38 1.364901 0.231174 1.984410 3.141548 0.005165 1.002275
    39 1.748535 -0.000002 0.000000 0.000000 0.000000 0.436286
    40 1.272493 0.000000 0.000000 0.000000 0.000000 0.322857
    41 4.525583 -0.000301 1.850223 -0.016340 -0.094620 0.192574
    42 1.719875 0.000000 0.000000 0.000000 0.000000 0.034907
    43 1.383648 0.000000 0.000000 0.000000 0.000000 0.689338
    44 4.525581 -0.000103 0.616742 -0.040895 -0.032761 0.934330
    45 1.807673 0.000000 0.000000 0.000000 0.000000 0.907546
    46 1.614258 -0.000004 0.000000 0.000000 0.000000 1.151843
    47 4.525578 0.000099 -0.616741 -0.026857 -0.022390 0.933931
    48 1.719872 -0.000004 0.000000 0.000000 0.000000 0.907546
    49 1.383646 0.000004 0.000000 0.000000 0.000000 1.151882
    50 4.525581 0.000301 -1.850223 0.029256 0.019176 0.933935
    51 1.433226 0.000004 0.000000 0.000000 0.000000 0.907457
    52 1.153040 0.000000 0.000000 0.000000 0.000000 1.151882
    53 1.977379 0.000000 0.000000 0.756894 -0.083413 0.209215
    54 3.723976 2.768054 -0.049087 -3.140171 -0.001551 1.658058
    55 11.781860 -0.001184 -0.000003 0.000000 0.000000 0.000000
    56 -3.887192 4.546144 1.934869 0.000000 -1.570796 -3.141591
    57 -4.205009 4.546216 -0.015855 -3.054274 -1.570725 0.000000
    58 -3.887192 4.546178 -1.987145 0.000000 -1.570796 -3.141591
    59 -4.881813 5.593821 -1.566820 1.047319 -1.487704 2.076220
    60 -4.886909 5.683144 -0.007570 3.063127 -1.570751 0.000000
    61 -4.881798 5.609550 1.546659 1.047319 -1.487704 2.076220
    62 3.710045 1.760548 -0.059361 -0.091834 -0.075875 1.616828
    63 12.138049 14.189942 -4.062706 -0.883736 -1.446972 0.272608
  time 8
    0 0.054472 6.148851 4.265530 -0.341609 0.296248 -2.037510
    1 -0.526041 0.000001 9.745319 0.000000 -1.570451 -1.570795
    2 -0.000011 0.000010 5.615750 -2.694429 -0.209189 0.125325
    3 15.693466 0.000000 0.000000 0.000000 0.000000 -2.224779
    4 22.146629 -0.000001 0.000000 -0.174720 0.272450 -0.276276
    5 3.310129 5.734395 0.000000 0.000000 0.000000 1.570796
    6 0.000008 -0.000006 -5.615750 -3.281452 0.352983 2.369154
    7 15.693470 0.000000 0.000000 0.000000 0.000000 -2.314804
    8 22.146629 0.000000 0.000000 -0.671384 0.586410 0.148531
    9 3.310129 5.734395 0.000000 0.000000 0.000000 2.146731
    10 1.384159 -0.004728 0.000002 -0.361773 0.294534 -0.084430
    11 5.939816 -0.004730 0.000000 0.000000 0.000000 0.000000
    12 5.939808 -0.003975 0.000000 0.000000 0.000000 0.165768
    13 4.991440 -0.003975 0.000000 0.000000 0.000000 0.000000
    14 4.991432 -0.001575 0.000000 0.000000 0.000000 0.000000
    15 0.000008 0.001564 3.638375 -0.000010 -1.284244 3.140806
    16 8.842831 0.000000 -0.000004 -0.812571 0.531152 -1.087843
    17 9.341934 0.000000 0.000000 0.000000 0.000000 -0.981327
    18 11.168404 -0.000001 0.000004 -4.087416 0.576998 -0.327018
    19 1.364904 0.231174 -1.984411 2.565506 0.787623 1.289793
    20 1.748535 -0.000002 0.000000 0.000000 0.000000 -0.043596
    21 1.272493 0.000000 0.000000 0.000000 0.000000 0.253070
    22 4.525587 -0.000301 -1.850224 0.062816 0.072691 0.735167
    23 1.719875 -0.000004 0.000001 0.000000 0.000000 0.619507
    24 1.383650 0.000004 0.000000 0.000000 0.000000 0.741679
    25 4.525587 -0.000103 -0.616741 0.033512 0.040262 0.733557
    26 1.807671 0.000000 -0.000002 0.000000 0.000000 0.567166
    27 1.614256 0.000000 0.000001 0.000000 0.000000 0.741753
    28 4.525587 0.000103 0.616741 0.021811 0.027340 0.733211
    29 1.719870 0.000000 0.000000 0.000000 0.000000 0.366471
    30 1.383650 -0.000004 0.000000 0.000000 0.000000 0.741673
    31 4.525587 0.000301 1.850224 -0.024821 -0.024628 0.733269
    32 1.433229 0.000000 0.000001 0.000000 0.000000 0.366461
    33 1.153040 0.000000 0.000000 0.000000 0.000000 0.741669
    34 0.000000 0.001585 -3.638375 -0.000010 1.284244 3.140787
    35 8.842832 0.000000 0.000000 0.592459 -0.667803 -1.803325
    36 9.341938 0.000000 -0.000004 0.000000 0.000000 -1.443075
    37 11.168402 -0.000001 -0.000004 1.848253 -0.026533 1.091311
    38 1.364901 0.231174 1.984410 3.141548 0.005165 1.002275
    39 1.748535 -0.000002 0.000000 0.000000 0.000000 0.436286
    40 1.272493 0.000000 0.000000 0.000000 0.000000 0.322881
    41 4.525583 -0.000301 1.850223 -0.016340 -0.094620 0.192574
    42 1.719875 0.000000 0.000000 0.000000 0.000000 0.034907
    43 1.383648 0.000000 0.000000 0.000000 0.000000 0.689298
    44 4.525581 -0.000103 0.616742 -0.040895 -0.032761 0.934330
    45 1.807673 0.000000 0.000000 0.000000 0.000000 0.907546
    46 1.614258 -0.000004 0.000000 0.000000 0.000000 1.151843
    47 4.525578 0.000099 -0.616741 -0.026857 -0.022390 0.933931
    48 1.719872 -0.000004 0.000000 0.000000 0.000000 0.907546
    49 1.383646 0.000004 0.000000 0.000000 0.000000 1.151882
    50 4.525581 0.000301 -1.850223 0.029256 0.019176 0.933935
    51 1.433226 0.000004 0.000000 0.000000 0.000000 0.907457
    52 1.153040 0.000000 0.000000 0.000000 0.000000 1.151882
    53 1.977379 0.000000 0.000000 0.756894 -0.083413 0.209215
    54 3.723976 2.768054 -0.049087 -3.140171 -0.001551 1.658058
    55 11.781860 -0.001184 -0.000003 0.000000 0.000000 0.000000
    56 -3.887192 4.546144 1.934869 0.000000 -1.570796 -3.141591
    57 -4.205009 4.546216 -0.015855 -3.054274 -1.570725 0.000000
    58 -3.887192 4.546178 -1.987145 0.000000 -1.570796 -3.141591
    59 -4.881813 5.593821 -1.566820 1.047319 -1.487704 2.076220
    60 -4.886909 5.683144 -0.007570 3.063127 -1.570751 0.000000
    61 -4.881798 5.609550 1.546659 1.047319 -1.487704 2.076220
    62 3.710045 1.760548 -0.059361 -0.091846 -0.075875 1.616828
    63 12.138049 14.189942 -4.062706 -0.883736 -1.446972 0.272608
  time 9
    0 0.054472 5.952576 4.304733 -0.337774 0.305116 -2.040578
    1 -0.526041 0.000001 9.745319 0.000000 -1.570451 -1.570795
    2 -0.000011 0.000010 5.615750 -2.687163 -0.205544 0.116071
    3 15.693466 0.000000 0.000000 0.000000 0.000000 -2.237726
    4 22.146629 -0.000001 0.000000 -0.172738 0.261875 -0.266352
    5 3.310129 5.734395 0.000000 0.000000 0.000000 1.570796
    6 0.000008 -0.000006 -5.615750 -3.282405 0.352796 2.367623
    7 15.693470 0.000000 0.000000 0.000000 0.000000 -2.311752
    8 22.146629 0.000000 0.000000 -0.667097 0.589694 0.155665
    9 3.310129 5.734395 0.000000 0.000000 0.000000 2.146731
    10 1.384159 -0.004728 0.000002 -0.361773 0.294534 -0.084430
    11 5.939816 -0.004730 0.000000 0.000000 0.000000 0.000000
    12 5.939808 -0.003975 0.000000 0.000000 0.000000 0.165768
    13 4.991440 -0.003975 0.000000 0.000000 0.000000 0.000000
    14 4.991432 -0.001575 0.000000 0.000000 0.000000 0.000000
    15 0.000008 0.001564 3.638375 -0.000010 -1.284244 3.140806
    16 8.842831 0.000000 -0.000004 -0.823727 0.507137 -1.087055
    17 9.341934 0.000000 0.000000 0.000000 0.000000 -0.910558
    18 11.168404 -0.000001 0.000004 -4.123321 0.585397 -0.394155
    19 1.364904 0.231174 -1.984411 2.565506 0.787623 1.289793
    20 1.748535 -0.000002 0.000000 0.000000 0.000000 -0.043596
    21 1.272493 0.000000 0.000000 0.000000 0.000000 0.253070
    22 4.525587 -0.000301 -1.850224 0.062816 0.072691 0.735167
    23 1.719875 -0.000004 0.000001 0.000000 0.000000 0.619507
    24 1.383650 0.000004 0.000000 0.000000 0.000000 0.741679
    25 4.525587 -0.000103 -0.616741 0.033512 0.040262 0.733557
    26 1.807671 0.000000 -0.000002 0.000000 0.000000 0.567166
    27 1.614256 0.000000 0.000001 0.000000 0.000000 0.741753
    28 4.525587 0.000103 0.616741 0.021823 0.027340 0.733211
    29 1.719870 0.000000 0.000000 0.000000 0.000000 0.366471
    30 1.383650 -0.000004 0.000000 0.000000 0.000000 0.741673
    31 4.525587 0.000301 1.850224 -0.024821 -0.024628 0.733269
    32 1.433229 0.000000 0.000001 0.000000 0.000000 0.366461
    33 1.153040 0.000000 0.000000 0.000000 0.000000 0.741669
    34 0.000000 0.001585 -3.638375 -0.000010 1.284244 3.140787
    35 8.842832 0.000000 0.000000 0.623869 -0.642660 -1.869363
    36 9.341938 0.000000 -0.000004 0.000000 0.000000 -1.348125
    37 11.168402 -0.000001 -0.000004 1.844524 -0.019451 1.069689
    38 1.364901 0.231174 1.984410 3.141548 0.005165 1.002275
    39 1.748535 -0.000002 0.000000 0.000000 0.000000 0.436286
    40 1.272493 0.000000 0.000000 0.000000 0.000000 0.322881
    41 4.525583 -0.000301 1.850223 -0.016340 -0.094620 0.192574
    42 1.719875 0.000000 0.000000 0.000000 0.000000 0.034907
    43 1.383648 0.000000 0.000000 0.000000 0.000000 0.689338
    44 4.525581 -0.000103 0.616742 -0.040895 -0.032761 0.934330
    45 1.807673 0.000000 0.000000 0.000000 0.000000 0.907546
    46 1.614258 -0.000004 0.000000 0.000000 0.000000 1.151843
    47 4.525578 0.000099 -0.616741 -0.026857 -0.022390 0.933931
    48 1.719872 -0.000004 0.000000 0.000000 0.000000 0.907546
    49 1.383646 0.000004 0.000000 0.000000 0.000000 1.151882
    50 4.525581 0.000301 -1.850223 0.029256 0.019176 0.933935
    51 1.433226 0.000004 0.000000 0.000000 0.000000 0.907457
    52 1.153040 0.000000 0.000000 0.000000 0.000000 1.151882
    53 1.977379 0.000000 0.000000 0.756894 -0.083413 0.209215
    54 3.723976 2.768054 -0.049087 -3.140171 -0.001551 1.658058
    55 11.781860 -0.001184 -0.000003 0.000000 0.000000 0.000000
    56 -3.887192 4.546144 1.934869 0.000000 -1.570796 -3.141591
    57 -4.205009 4.546216 -0.015855 -3.054274 -1.570725 0.000000
    58 -3.887192 4.546178 -1.987145 0.000000 -1.570796 -3.141591
    59 -4.881813 5.593821 -1.566820 1.047319 -1.487704 2.076220
    60 -4.886909 5.683144 -0.007570 3.063127 -1.570751 0.000000
    61 -4.881798 5.609550 1.546659 1.047319 -1.487704 2.076220
    62 3.710045 1.760548 -0.059361 -0.091834 -0.075875 1.616828
    63 12.138049 14.189942 -4.062706 -0.883736 -1.446972 0.272608
  time 10
    0 0.054472 5.756302 4.343937 -0.334034 0.313793 -2.043550
    1 -0.526041 0.000001 9.745319 0.000000 -1.570451 -1.570795
    2 -0.000011 0.000010 5.615750 -2.679992 -0.201774 0.106912
    3 15.693466 0.000000 0.000000 0.000000 0.000000 -2.251527
    4 22.146629 -0.000001 0.000000 -0.170682 0.251300 -0.255971
    5 3.310129 5.734395 0.000000 0.000000 0.000000 1.570796
    6 0.000008 -0.000006 -5.615750 -3.283915 0.352609 2.365615
    7 15.693470 0.000000 0.000000 0.000000 0.000000 -2.309668
    8 22.146629 0.000000 0.000000 -0.663092 0.593194 0.162623
    9 3.310129 5.734395 0.000000 0.000000 0.000000 2.146731
    10 1.384159 -0.004728 0.000002 -0.361773 0.294534 -0.084430
    11 5.939816 -0.004730 0.000000 0.000000 0.000000 0.000000
    12 5.939808 -0.003975 0.000000 0.000000 0.000000 0.165768
    13 4.991440 -0.003975 0.000000 0.000000 0.000000 0.000000
    14 4.991432 -0.001575 0.000000 0.000000 0.000000 0.000000
    15 0.000008 0.001564 3.638375 -0.000010 -1.284244 3.140806
    16 8.842831 0.000000 -0.000004 -0.834700 0.479859 -1.090207
    17 9.341934 0.000000 0.000000 0.000000 0.000000 -0.832573
    18 11.168404 -0.000001 0.000004 -4.158749 0.592039 -0.463182
    19 1.364904 0.231174 -1.984411 2.565506 0.787623 1.289793
    20 1.748535 -0.000002 0.000000 0.000000 0.000000 -0.043596
    21 1.272493 0.000000 0.000000 0.000000 0.000000 0.253070
    22 4.525587 -0.000301 -1.850224 0.062816 0.072691 0.735167
    23 1.719875 -0.000004 0.000001 0.000000 0.000000 0.619507
    24 1.383650 0.000004 0.000000 0.000000 0.000000 0.741679
    25 4.525587 -0.000103 -0.616741 0.033512 0.040262 0.733557
    26 1.807671 0.000000 -0.000002 0.000000 0.000000 0.567166
    27 1.614256 0.000000 0.000001 0.000000 0.000000 0.741753
    28 4.525587 0.000103 0.616741 0.021811 0.027340 0.733211
    29 1.719870 0.000000 0.000000 0.000000 0.000000 0.366471
    30 1.383650 -0.000004 0.000000 0.000000 0.000000 0.741673
    31 4.525587 0.000301 1.850224 -0.024821 -0.024628 0.733269
    32 1.433229 0.000000 0.000001 0.000000 0.000000 0.366461
    33 1.153040 0.000000 0.000000 0.000000 0.000000 0.741669
    34 0.000000 0.001585 -3.638375 -0.000010 1.284244 3.140787
    35 8.842832 0.000000 0.000000 0.654525 -0.614646 -1.934544
    36 9.341938 0.000000 -0.000004 0.000000 0.000000 -1.248984
    37 11.168402 -0.000001 -0.000004 1.840982 -0.013339 1.045905
    38 1.364901 0.231174 1.984410 3.141548 0.005165 1.002275
    39 1.748535 -0.000002 0.000000 0.000000 0.000000 0.436286
    40 1.272493 0.000000 0.000000 0.000000 0.000000 0.322857
    41 4.525583 -0.000301 1.850223 -0.016340 -0.094620 0.192574
    42 1.719875 0.000000 0.000000 0.000000 0.000000 0.034907
    43 1.383648 0.000000 0.000000 0.000000 0.000000 0.689338
    44 4.525581 -0.000103 0.616742 -0.040895 -0.032761 0.934330
    45 1.807673 0.000000 0.000000 0.000000 0.000000 0.907546
    46 1.614258 -0.000004 0.000000 0.000000 0.000000 1.151843
    47 4.525578 0.000099 -0.616741 -0.026857 -0.022390 0.933931
    48 1.719872 -0.000004 0.000000 0.000000 0.000000 0.907546
    49 1.383646 0.000004 0.000000 0.000000 0.000000 1.151882
    50 4.525581 0.000301 -1.850223 0.029256 0.019176 0.933935
    51 1.433226 0.000004 0.000000 0.000000 0.000000 0.907457
    52 1.153040 0.000000 0.000000 0.000000 0.000000 1.151882
    53 1.977379 0.000000 0.000000 0.756894 -0.083390 0.209215
    54 3.723976 2.768054 -0.049087 -3.140171 -0.001551 1.658058
    55 11.781860 -0.001184 -0.000003 0.000000 0.000000 0.000000
    56 -3.887192 4.546144 1.934869 0.000000 -1.570796 -3.141591
    57 -4.205009 4.546216 -0.015855 -3.054274 -1.570725 0.000000
    58 -3.887192 4.546178 -1.987145 0.000000 -1.570796 -3.141591
    59 -4.881813 5.593821 -1.566820 1.047319 -1.487704 2.076220
    60 -4.886909 5.683144 -0.007570 3.063127 -1.570751 0.000000
    61 -4.881798 5.609550 1.546659 1.047319 -1.487704 2.076220
    62 3.710045 1.760548 -0.059361 -0.091834 -0.075875 1.616828
    63 12.138049 14.189942 -4.062706 -0.883736 -1.446972 0.272608
  time 11
    0 0.054472 5.552479 4.363538 -0.330871 0.321942 -2.046427
    1 -0.526041 0.000001 9.745319 0.000000 -1.570451 -1.570795
    2 -0.000011 0.000010 5.615750 -2.673104 -0.198129 0.098421
    3 15.693466 0.000000 0.000000 0.000000 0.000000 -2.264829
    4 22.146629 -0.000001 0.000000 -0.168700 0.241245 -0.245727
    5 3.310129 5.734395 0.000000 0.000000 0.000000 1.570796
    6 0.000008 -0.000006 -5.615750 -3.285425 0.352328 2.363319
    7 15.693470 0.000000 0.000000 0.000000 0.000000 -2.307733
    8 22.146629 0.000000 0.000000 -0.659482 0.596540 0.169317
    9 3.310129 5.734395 0.000000 0.000000 0.000000 2.146731
    10 1.384159 -0.004728 0.000002 -0.361773 0.294534 -0.084430
    11 5.939816 -0.004730 0.000000 0.000000 0.000000 0.000000
    12 5.939808 -0.003975 0.000000 0.000000 0.000000 0.165768
    13 4.991440 -0.003975 0.000000 0.000000 0.000000 0.000000
    14 4.991432 -0.001575 0.000000 0.000000 0.000000 0.000000
    15 0.000008 0.001564 3.638375 -0.000010 -1.284244 3.140806
    16 8.842831 0.000000 -0.000004 -0.847045 0.445729 -1.100453
    17 9.341934 0.000000 0.000000 0.000000 0.000000 -0.739089
    18 11.168404 -0.000001 0.000004 -4.194272 0.597459 -0.537519
    19 1.364904 0.231174 -1.984411 2.565506 0.787623 1.289793
    20 1.748535 -0.000002 0.000000 0.000000 0.000000 -0.043596
    21 1.272493 0.000000 0.000000 0.000000 0.000000 0.253070
    22 4.525587 -0.000301 -1.850224 0.062816 0.072691 0.735167
    23 1.719875 -0.000004 0.000001 0.000000 0.000000 0.619507
    24 1.383650 0.000004 0.000000 0.000000 0.000000 0.741679
    25 4.525587 -0.000103 -0.616741 0.033512 0.040262 0.733557
    26 1.807671 0.000000 -0.000002 0.000000 0.000000 0.567166
    27 1.614256 0.000000 0.000001 0.000000 0.000000 0.741753
    28 4.525587 0.000103 0.616741 0.021811 0.027340 0.733211
    29 1.719870 0.000000 0.000000 0.000000 0.000000 0.366471
    30 1.383650 -0.000004 0.000000 0.000000 0.000000 0.741673
    31 4.525587 0.000301 1.850224 -0.024821 -0.024628 0.733269
    32 1.433229 0.000000 0.000001 0.000000 0.000000 0.366461
    33 1.153040 0.000000 0.000000 0.000000 0.000000 0.741669
    34 0.000000 0.001585 -3.638375 -0.000010 1.284244 3.140787
    35 8.842832 0.000000 0.000000 0.685558 -0.581448 -2.000773
    36 9.341938 0.000000 -0.000004 0.000000 0.000000 -1.140517
    37 11.168402 -0.000001 -0.000004 1.837253 -0.008660 1.017138
    38 1.364901 0.231174 1.984410 3.141548 0.005165 1.002275
    39 1.748535 -0.000002 0.000000 0.000000 0.000000 0.436286
    40 1.272493 0.000000 0.000000 0.000000 0.000000 0.322857
    41 4.525583 -0.000301 1.850223 -0.016340 -0.094620 0.192574
    42 1.719875 0.000000 0.000000 0.000000 0.000000 0.034907
    43 1.383648 0.000000 0.000000 0.000000 0.000000 0.689338
    44 4.525581 -0.000103 0.616742 -0.040895 -0.032761 0.934330
    45 1.807673 0.000000 0.000000 0.000000 0.000000 0.907546
    46 1.614258 -0.000004 0.000000 0.000000 0.000000 1.151843
    47 4.525578 0.000099 -0.616741 -0.026857 -0.022390 0.933931
    48 1.719872 -0.000004 0.000000 0.000000 0.000000 0.907546
    49 1.383646 0.000004 0.000000 0.000000 0.000000 1.151882
    50 4.525581 0.000301 -1.850223 0.029256 0.019176 0.933935
    51 1.433226 0.000004 0.000000 0.000000 0.000000 0.907457
    52 1.153040 0.000000 0.000000 0.000000 0.000000 1.151882
    53 1.977379 0.000000 0.000000 0.756894 -0.083413 0.209215
    54 3.723976 2.768054 -0.049087 -3.140171 -0.001551 1.658058
    55 11.781860 -0.001184 -0.000003 0.000000 0.000000 0.000000
    56 -3.887192 4.546144 1.934869 0.000000 -1.570796 -3.141591
    57 -4.205009 4.546216 -0.015855 -3.054274 -1.570725 0.000000
    58 -3.887192 4.546178 -1.987145 0.000000 -1.570796 -3.141591
    59 -4.881813 5.593821 -1.566820 1.047319 -1.487704 2.076220
    60 -4.886909 5.683144 -0.007570 3.063127 -1.570751 0.000000
    61 -4.881798 5.609550 1.546659 1.047319 -1.487704 2.076220
    62 3.710045 1.760548 -0.059361 -0.091846 -0.075875 1.616828
    63 12.138049 14.189942 -4.062706 -0.883736 -1.447053 0.272608
  time 12
    0 0.054472 5.378851 4.422343 -0.327707 0.329181 -2.048823
    1 -0.526041 0.000001 9.745319 0.000000 -1.570451 -1.570795
    2 -0.000011 0.000010 5.615750 -2.666876 -0.195188 0.091456
    3 15.693466 0.000000 0.000000 0.000000 0.000000 -2.276852
    4 22.146629 -0.000001 0.000000 -0.166831 0.232131 -0.235941
    5 3.310129 5.734395 0.000000 0.000000 0.000000 1.570796
    6 0.000008 -0.000006 -5.615750 -3.286696 0.352142 2.362075
    7 15.693470 0.000000 0.000000 0.000000 0.000000 -2.305128
    8 22.146629 0.000000 0.000000 -0.656041 0.599364 0.175130
    9 3.310129 5.734395 0.000000 0.000000 0.000000 2.146731
    10 1.384159 -0.004728 0.000002 -0.361773 0.294534 -0.084430
    11 5.939816 -0.004730 0.000000 0.000000 0.000000 0.000000
    12 5.939808 -0.003975 0.000000 0.000000 0.000000 0.165768
    13 4.991440 -0.003975 0.000000 0.000000 0.000000 0.000000
    14 4.991432 -0.001575 0.000000 0.000000 0.000000 0.000000
    15 0.000008 0.001564 3.638375 -0.000010 -1.284244 3.140806
    16 8.842831 0.000000 -0.000004 -0.862499 0.398482 -1.122870
    17 9.341934 0.000000 0.000000 0.000000 0.000000 -0.616166
    18 11.168404 -0.000001 0.000004 -4.229795 0.602343 -0.623375
    19 1.364904 0.231174 -1.984411 2.565506 0.787623 1.289793
    20 1.748535 -0.000002 0.000000 0.000000 0.000000 -0.043596
    21 1.272493 0.000000 0.000000 0.000000 0.000000 0.253070
    22 4.525587 -0.000301 -1.850224 0.062816 0.072691 0.735167
    23 1.719875 -0.000004 0.000001 0.000000 0.000000 0.619507
    24 1.383650 0.000004 0.000000 0.000000 0.000000 0.741679
    25 4.525587 -0.000103 -0.616741 0.033512 0.040262 0.733557
    26 1.807671 0.000000 -0.000002 0.000000 0.000000 0.567166
    27 1.614256 0.000000 0.000001 0.000000 0.000000 0.741753
    28 4.525587 0.000103 0.616741 0.021811 0.027340 0.733211
    29 1.719870 0.000000 0.000000 0.000000 0.000000 0.366471
    30 1.383650 -0.000004 0.000000 0.000000 0.000000 0.741673
    31 4.525587 0.000301 1.850224 -0.024821 -0.024628 0.733269
    32 1.433229 0.000000 0.000001 0.000000 0.000000 0.366461
    33 1.153040 0.000000 0.000000 0.000000 0.000000 0.741669
    34 0.000000 0.001585 -3.638375 -0.000010 1.284244 3.140787
    35 8.842832 0.000000 0.000000 0.717818 -0.540617 -2.070146
    36 9.341938 0.000000 -0.000004 0.000000 0.000000 -1.015494
    37 11.168402 -0.000001 -0.000004 1.833804 -0.006174 0.980663
    38 1.364901 0.231174 1.984410 3.141548 0.005165 1.002275
    39 1.748535 -0.000002 0.000000 0.000000 0.000000 0.436286
    40 1.272493 0.000000 0.000000 0.000000 0.000000 0.322881
    41 4.525583 -0.000301 1.850223 -0.016340 -0.094620 0.192574
    42 1.719875 0.000000 0.000000 0.000000 0.000000 0.034907
    43 1.383648 0.000000 0.000000 0.000000 0.000000 0.689298
    44 4.525581 -0.000103 0.616742 -0.040895 -0.032761 0.934330
    45 1.807673 0.000000 0.000000 0.000000 0.000000 0.907546
    46 1.614258 -0.000004 0.000000 0.000000 0.000000 1.151884
    47 4.525578 0.000099 -0.616741 -0.026857 -0.022390 0.933931
    48 1.719872 -0.000004 0.000000 0.000000 0.000000 0.907546
    49 1.383646 0.000004 0.000000 0.000000 0.000000 1.151882
    50 4.525581 0.000301 -1.850223 0.029256 0.019176 0.933935
    51 1.433226 0.000004 0.000000 0.000000 0.000000 0.907457
    52 1.153040 0.000000 0.000000 0.000000 0.000000 1.151882
    53 1.977379 0.000000 0.000000 0.756894 -0.083413 0.209215
    54 3.723976 2.768054 -0.049087 -3.140171 -0.001551 1.658058
    55 11.781860 -0.001184 -0.000003 0.000000 0.000000 0.000000
    56 -3.887192 4.546144 1.934869 0.000000 -1.570796 -3.141591
    57 -4.205009 4.546216 -0.015855 -3.054274 -1.570725 0.000000
    58 -3.887192 4.546178 -1.987145 0.000000 -1.570796 -3.141591
    59 -4.881813 5.593821 -1.566820 1.047319 -1.487704 2.076220
    60 -4.886909 5.683144 -0.007570 3.063127 -1.570751 0.000000
    61 -4.881798 5.609550 1.546659 1.047319 -1.487704 2.076220
    62 3.710045 1.760548 -0.059361 -0.091834 -0.075875 1.616828
    63 12.138049 14.189942 -4.062706 -0.883736 -1.446972 0.272608
end
