// Created by Crowbar 0.56
version 1
nodes
  0 "Bip01" -1
  1 "Bip01 Pelvis" 0
  2 "Bip01 L Thigh" 1
  3 "Bip01 L Calf" 2
  4 "Bip01 L Foot" 3
  5 "Bip01 L Toe0" 4
  6 "Bip01 R Thigh" 1
  7 "Bip01 R Calf" 6
  8 "Bip01 R Foot" 7
  9 "Bip01 R Toe0" 8
  10 "Bip01 Spine" 1
  11 "Bip01 Spine1" 10
  12 "Bip01 Spine2" 11
  13 "Bip01 Spine3" 12
  14 "Bip01 Neck" 13
  15 "Bip01 L Clavicle" 14
  16 "Bip01 L UpperArm" 15
  17 "Bip01 L Forearm" 16
  18 "Bip01 L Hand" 17
  19 "Bip01 L Finger0" 18
  20 "Bip01 L Finger01" 19
  21 "Bip01 L Finger02" 20
  22 "Bip01 L Finger1" 18
  23 "Bip01 L Finger11" 22
  24 "Bip01 L Finger12" 23
  25 "Bip01 L Finger2" 18
  26 "Bip01 L Finger21" 25
  27 "Bip01 L Finger22" 26
  28 "Bip01 L Finger3" 18
  29 "Bip01 L Finger31" 28
  30 "Bip01 L Finger32" 29
  31 "Bip01 L Finger4" 18
  32 "Bip01 L Finger41" 31
  33 "Bip01 L Finger42" 32
  34 "Bip01 R Clavicle" 14
  35 "Bip01 R UpperArm" 34
  36 "Bip01 R Forearm" 35
  37 "Bip01 R Hand" 36
  38 "Bip01 R Finger0" 37
  39 "Bip01 R Finger01" 38
  40 "Bip01 R Finger02" 39
  41 "Bip01 R Finger1" 37
  42 "Bip01 R Finger11" 41
  43 "Bip01 R Finger12" 42
  44 "Bip01 R Finger2" 37
  45 "Bip01 R Finger21" 44
  46 "Bip01 R Finger22" 45
  47 "Bip01 R Finger3" 37
  48 "Bip01 R Finger31" 47
  49 "Bip01 R Finger32" 48
  50 "Bip01 R Finger4" 37
  51 "Bip01 R Finger41" 50
  52 "Bip01 R Finger42" 51
  53 "Bip01 Head" 14
  54 "Bone05" 53
  55 "Dummy05" 53
  56 "L_eyebrow" 55
  57 "C_eyebrow" 55
  58 "R_eyebrow" 55
  59 "R_Eye" 55
  60 "Eyelids" 55
  61 "L_Eye" 55
  62 "m4" 37
  63 "SHOTGUN" 38
end
skeleton
  time 0
    0 0.054472 -1.234089 7.382185 0.008341 -0.087101 -2.033579
    1 -0.526041 0.000001 9.745319 0.000000 -1.570451 -1.570795
    2 -0.000011 0.000010 5.615750 -2.834362 -0.614357 0.999242
    3 15.693466 0.000000 0.000000 0.000000 0.000000 -2.159973
    4 22.146629 -0.000001 0.000000 -0.113140 0.090495 0.057424
    5 3.310129 5.734395 0.000000 0.000000 0.000000 1.570796
    6 0.000008 -0.000006 -5.615750 -3.392624 0.512702 2.801313
    7 15.693470 0.000000 0.000000 0.000000 0.000000 -2.182317
    8 22.146629 0.000000 0.000000 -0.493300 0.575451 0.230883
    9 3.310129 5.734395 0.000000 0.000000 0.000000 2.146731
    10 1.384159 -0.004728 0.000002 -0.371368 0.119842 -0.101675
    11 5.939816 -0.004730 0.000000 0.000000 0.000000 0.000000
    12 5.939808 -0.003975 0.000000 0.000000 0.000000 0.000000
    13 4.991440 -0.003975 0.000000 0.000000 0.000000 0.000000
    14 4.991432 -0.001575 0.000000 0.000000 0.000000 0.000000
    15 0.000008 0.001564 3.638375 -0.000010 -1.284244 3.140806
    16 8.842831 0.000000 -0.000004 -0.721127 -0.103158 -1.067790
    17 9.341934 0.000000 0.000000 0.000000 0.000000 -0.949509
    18 11.168404 -0.000001 0.000004 -4.014651 0.766280 -0.209393
    19 1.364904 0.231174 -1.984411 2.565506 0.787623 1.289793
    20 1.748535 -0.000002 0.000000 0.000000 0.000000 -0.043596
    21 1.272493 0.000000 0.000000 0.000000 0.000000 0.253070
    22 4.525587 -0.000301 -1.850224 0.062816 0.072691 0.735167
    23 1.719875 -0.000004 0.000001 0.000000 0.000000 0.619507
    24 1.383650 0.000004 0.000000 0.000000 0.000000 0.741679
    25 4.525587 -0.000103 -0.616741 0.033512 0.040262 0.733557
    26 1.807671 0.000000 -0.000002 0.000000 0.000000 0.567166
    27 1.614256 0.000000 0.000001 0.000000 0.000000 0.741753
    28 4.525587 0.000103 0.616741 0.021823 0.027340 0.733211
    29 1.719870 0.000000 0.000000 0.000000 0.000000 0.366471
    30 1.383650 -0.000004 0.000000 0.000000 0.000000 0.741673
    31 4.525587 0.000301 1.850224 -0.024821 -0.024628 0.733269
    32 1.433229 0.000000 0.000001 0.000000 0.000000 0.366461
    33 1.153040 0.000000 0.000000 0.000000 0.000000 0.741669
    34 0.000000 0.001585 -3.638375 -0.000010 1.284244 3.140787
    35 8.842832 0.000000 0.000000 0.976081 -0.737559 -2.108454
    36 9.341938 0.000000 -0.000004 0.000000 0.000000 -1.188229
    37 11.168402 -0.000001 -0.000004 1.694720 0.156193 0.330872
    38 1.364901 0.231174 1.984410 3.141548 0.005165 1.002275
    39 1.748535 -0.000002 0.000000 0.000000 0.000000 0.436286
    40 1.272493 0.000000 0.000000 0.000000 0.000000 0.322881
    41 4.525583 -0.000301 1.850223 -0.016340 -0.094622 0.192574
    42 1.719875 0.000000 0.000000 0.000000 0.000000 0.034907
    43 1.383648 0.000000 0.000000 0.000000 0.000000 0.689338
    44 4.525581 -0.000103 0.616742 -0.040895 -0.032761 0.934330
    45 1.807673 0.000000 0.000000 0.000000 0.000000 0.907546
    46 1.614258 -0.000004 0.000000 0.000000 0.000000 1.151843
    47 4.525578 0.000099 -0.616741 -0.026857 -0.022390 0.933931
    48 1.719872 -0.000004 0.000000 0.000000 0.000000 0.907546
    49 1.383646 0.000004 0.000000 0.000000 0.000000 1.151882
    50 4.525581 0.000301 -1.850223 0.029256 0.019176 0.933935
    51 1.433226 0.000004 0.000000 0.000000 0.000000 0.907457
    52 1.153040 0.000000 0.000000 0.000000 0.000000 1.151882
    53 1.977379 0.000000 0.000000 0.774560 0.328248 0.199525
    54 3.723976 2.768054 -0.049087 -3.139451 -0.002338 1.658055
    55 11.781860 -0.001184 -0.000003 0.000000 0.000000 0.000000
    56 -3.887192 4.546144 1.934869 0.000000 -1.570796 -3.141591
    57 -4.205009 4.546216 -0.015855 -3.054274 -1.570725 0.000000
    58 -3.887192 4.546178 -1.987145 0.000000 -1.570796 -3.141591
    59 -4.881813 5.593821 -1.566820 1.047319 -1.487704 2.076220
    60 -4.886909 5.683144 -0.007570 3.063127 -1.570751 0.000000
    61 -4.881798 5.609550 1.546659 1.047319 -1.487704 2.076220
    62 3.710045 1.760548 -0.059361 -0.091834 -0.075875 1.616828
    63 12.138049 14.189942 -4.062706 -0.883759 -1.447051 0.272646
  time 1
    0 0.054472 -0.071540 6.127682 0.010451 -0.092518 -2.064738
    1 -0.526041 0.000001 9.745319 0.000000 -1.570451 -1.570795
    2 -0.000011 0.000010 5.615750 -2.763027 -0.628814 0.871971
    3 15.693466 0.000000 0.000000 0.000000 0.000000 -2.171284
    4 22.146629 -0.000001 0.000000 -0.126450 0.121279 -0.025349
    5 3.310129 5.734395 0.000000 0.000000 0.000000 1.570796
    6 0.000008 -0.000006 -5.615750 -3.476619 0.554045 2.700973
    7 15.693470 0.000000 0.000000 0.000000 0.000000 -2.276621
    8 22.146629 0.000000 0.000000 -0.584288 0.533672 0.033942
    9 3.310129 5.734395 0.000000 0.000000 0.000000 2.268311
    10 1.384159 -0.004728 0.000002 -0.395973 0.126014 -0.110964
    11 5.939816 -0.004730 0.000000 0.000000 0.000000 0.000000
    12 5.939808 -0.003975 0.000000 0.000000 0.000000 0.000000
    13 4.991440 -0.003975 0.000000 0.000000 0.000000 0.000000
    14 4.991432 -0.001575 0.000000 0.000000 0.000000 0.000000
    15 0.000008 0.001564 3.638375 -0.000010 -1.284244 3.140806
    16 8.842831 0.000000 -0.000004 -0.742525 -0.120843 -1.036617
    17 9.341934 0.000000 0.000000 0.000000 0.000000 -1.016588
    18 11.168404 -0.000001 0.000004 -3.983998 0.782932 -0.104188
    19 1.364904 0.231174 -1.984411 2.565506 0.787623 1.289793
    20 1.748535 -0.000002 0.000000 0.000000 0.000000 -0.043596
    21 1.272493 0.000000 0.000000 0.000000 0.000000 0.253070
    22 4.525587 -0.000301 -1.850224 0.062816 0.072691 0.735114
    23 1.719875 -0.000004 0.000001 0.000000 0.000000 0.619507
    24 1.383650 0.000004 0.000000 0.000000 0.000000 0.741679
    25 4.525587 -0.000103 -0.616741 0.033512 0.040262 0.733557
    26 1.807671 0.000000 -0.000002 0.000000 0.000000 0.567166
    27 1.614256 0.000000 0.000001 0.000000 0.000000 0.741753
    28 4.525587 0.000103 0.616741 0.021811 0.027340 0.733211
    29 1.719870 0.000000 0.000000 0.000000 0.000000 0.366471
    30 1.383650 -0.000004 0.000000 0.000000 0.000000 0.741673
    31 4.525587 0.000301 1.850224 -0.024821 -0.024628 0.733269
    32 1.433229 0.000000 0.000001 0.000000 0.000000 0.366461
    33 1.153040 0.000000 0.000000 0.000000 0.000000 0.741669
    34 0.000000 0.001585 -3.638375 -0.000010 1.284244 3.140787
    35 8.842832 0.000000 0.000000 0.991551 -0.708004 -2.114457
    36 9.341938 0.000000 -0.000004 0.000000 0.000000 -1.185458
    37 11.168402 -0.000001 -0.000004 1.717093 0.091617 0.339709
    38 1.364901 0.231174 1.984410 3.141548 0.005165 1.002275
    39 1.748535 -0.000002 0.000000 0.000000 0.000000 0.436286
    40 1.272493 0.000000 0.000000 0.000000 0.000000 0.322857
    41 4.525583 -0.000301 1.850223 -0.016340 -0.094622 0.192574
    42 1.719875 0.000000 0.000000 0.000000 0.000000 0.034907
    43 1.383648 0.000000 0.000000 0.000000 0.000000 0.689338
    44 4.525581 -0.000103 0.616742 -0.040895 -0.032761 0.934330
    45 1.807673 0.000000 0.000000 0.000000 0.000000 0.907546
    46 1.614258 -0.000004 0.000000 0.000000 0.000000 1.151843
    47 4.525578 0.000099 -0.616741 -0.026857 -0.022390 0.933931
    48 1.719872 -0.000004 0.000000 0.000000 0.000000 0.907546
    49 1.383646 0.000004 0.000000 0.000000 0.000000 1.151882
    50 4.525581 0.000301 -1.850223 0.029256 0.019176 0.933935
    51 1.433226 0.000004 0.000000 0.000000 0.000000 0.907457
    52 1.153040 0.000000 0.000000 0.000000 0.000000 1.151882
    53 1.977379 0.000000 0.000000 0.796896 0.314508 0.212793
    54 3.723976 2.768054 -0.049087 -3.139451 -0.002338 1.658055
    55 11.781860 -0.001184 -0.000003 0.000000 0.000000 0.000000
    56 -3.887192 4.546144 1.934869 0.000000 -1.570796 -3.141591
    57 -4.205009 4.546216 -0.015855 -3.054274 -1.570725 0.000000
    58 -3.887192 4.546178 -1.987145 0.000000 -1.570796 -3.141591
    59 -4.881813 5.593821 -1.566820 1.047319 -1.487704 2.076220
    60 -4.886909 5.683144 -0.007570 3.063127 -1.570751 0.000000
    61 -4.881798 5.609550 1.546659 1.047319 -1.487704 2.076220
    62 3.710045 1.760548 -0.059361 -0.091846 -0.075875 1.616828
    63 12.138049 14.189942 -4.062706 -0.883759 -1.447051 0.272646
  time 2
    0 0.054472 0.117185 6.519714 0.011985 -0.095873 -2.084872
    1 -0.526041 0.000001 9.745319 0.000000 -1.570741 -1.570795
    2 -0.000011 0.000010 5.615750 -2.763499 -0.669948 0.892483
    3 15.693466 0.000000 0.000000 0.000000 0.000000 -2.147168
    4 22.146629 -0.000001 0.000000 -0.127273 0.131111 -0.018261
    5 3.310129 5.734395 0.000000 0.000000 0.000000 1.570796
    6 0.000008 -0.000006 -5.615750 -3.490208 0.569835 2.661947
    7 15.693470 0.000000 0.000000 0.000000 0.000000 -2.265903
    8 22.146629 0.000000 0.000000 -0.602283 0.486521 -0.083201
    9 3.310129 5.734395 0.000000 0.000000 0.000000 2.363422
    10 1.384159 -0.004728 0.000002 -0.412197 0.129878 -0.117106
    11 5.939816 -0.004730 0.000000 0.000000 0.000000 0.000000
    12 5.939808 -0.003975 0.000000 0.000000 0.000000 0.000000
    13 4.991440 -0.003975 0.000000 0.000000 0.000000 0.000000
    14 4.991432 -0.001575 0.000000 0.000000 0.000000 0.000000
    15 0.000008 0.001564 3.638375 -0.000010 -1.284244 3.140806
    16 8.842831 0.000000 -0.000004 -0.717469 -0.015712 -0.973218
    17 9.341934 0.000000 0.000000 0.000000 0.000000 -1.303271
    18 11.168404 -0.000001 0.000004 -3.908750 0.731705 0.129802
    19 1.364904 0.231174 -1.984411 2.565506 0.787623 1.289793
    20 1.748535 -0.000002 0.000000 0.000000 0.000000 -0.043596
    21 1.272493 0.000000 0.000000 0.000000 0.000000 0.253070
    22 4.525587 -0.000301 -1.850224 0.062816 0.072691 0.735167
    23 1.719875 -0.000004 0.000001 0.000000 0.000000 0.619507
    24 1.383650 0.000004 0.000000 0.000000 0.000000 0.741679
    25 4.525587 -0.000103 -0.616741 0.033512 0.040262 0.733557
    26 1.807671 0.000000 -0.000002 0.000000 0.000000 0.567166
    27 1.614256 0.000000 0.000001 0.000000 0.000000 0.741753
    28 4.525587 0.000103 0.616741 0.021811 0.027340 0.733211
    29 1.719870 0.000000 0.000000 0.000000 0.000000 0.366471
    30 1.383650 -0.000004 0.000000 0.000000 0.000000 0.741673
    31 4.525587 0.000301 1.850224 -0.024821 -0.024628 0.733269
    32 1.433229 0.000000 0.000001 0.000000 0.000000 0.366461
    33 1.153040 0.000000 0.000000 0.000000 0.000000 0.741669
    34 0.000000 0.001585 -3.638375 -0.000010 1.284244 3.140787
    35 8.842832 0.000000 0.000000 0.873927 -0.858652 -1.939023
    36 9.341938 0.000000 -0.000004 0.000000 0.000000 -1.448549
    37 11.168402 -0.000001 -0.000004 1.736203 0.051616 0.389910
    38 1.364901 0.231174 1.984410 3.141548 0.005165 1.002275
    39 1.748535 -0.000002 0.000000 0.000000 0.000000 0.436286
    40 1.272493 0.000000 0.000000 0.000000 0.000000 0.322857
    41 4.525583 -0.000301 1.850223 -0.016340 -0.094622 0.192574
    42 1.719875 0.000000 0.000000 0.000000 0.000000 0.034907
    43 1.383648 0.000000 0.000000 0.000000 0.000000 0.689338
    44 4.525581 -0.000103 0.616742 -0.040895 -0.032761 0.934330
    45 1.807673 0.000000 0.000000 0.000000 0.000000 0.907546
    46 1.614258 -0.000004 0.000000 0.000000 0.000000 1.151884
    47 4.525578 0.000099 -0.616741 -0.026857 -0.022390 0.933931
    48 1.719872 -0.000004 0.000000 0.000000 0.000000 0.907546
    49 1.383646 0.000004 0.000000 0.000000 0.000000 1.151882
    50 4.525581 0.000301 -1.850223 0.029256 0.019176 0.933935
    51 1.433226 0.000004 0.000000 0.000000 0.000000 0.907457
    52 1.153040 0.000000 0.000000 0.000000 0.000000 1.151882
    53 1.977379 0.000000 0.000000 0.811243 0.305363 0.221242
    54 3.723976 2.768054 -0.049087 -3.139451 -0.002338 1.658055
    55 11.781860 -0.001184 -0.000003 0.000000 0.000000 0.000000
    56 -3.887192 4.546144 1.934869 0.000000 -1.570796 -3.141591
    57 -4.205009 4.546216 -0.015855 -3.054274 -1.570725 0.000000
    58 -3.887192 4.546178 -1.987145 0.000000 -1.570796 -3.141591
    59 -4.881813 5.593821 -1.566820 1.047319 -1.487704 2.076220
    60 -4.886909 5.683144 -0.007570 3.063127 -1.570751 0.000000
    61 -4.881798 5.609550 1.546659 1.047319 -1.487704 2.076220
    62 3.710045 1.760548 -0.059361 -0.091834 -0.075875 1.616828
    63 12.138049 14.189942 -4.062706 -0.883759 -1.447051 0.272646
  time 3
    0 0.054472 0.003950 6.617722 0.012752 -0.097743 -2.096089
    1 -0.526041 0.000001 9.745319 0.000000 -1.570451 -1.570795
    2 -0.000011 0.000010 5.615750 -2.756044 -0.688754 0.894296
    3 15.693466 0.000000 0.000000 0.000000 0.000000 -2.149089
    4 22.146629 -0.000001 0.000000 -0.126899 0.134083 -0.007560
    5 3.310129 5.734395 0.000000 0.000000 0.000000 1.570796
    6 0.000008 -0.000006 -5.615750 -3.488062 0.576281 2.672756
    7 15.693470 0.000000 0.000000 0.000000 0.000000 -2.239331
    8 22.146629 0.000000 0.000000 -0.613959 0.477220 -0.108215
    9 3.310129 5.734395 0.000000 0.000000 0.000000 2.434149
    10 1.384159 -0.004728 0.000002 -0.420982 0.131971 -0.120432
    11 5.939816 -0.004730 0.000000 0.000000 0.000000 0.000000
    12 5.939808 -0.003975 0.000000 0.000000 0.000000 0.000000
    13 4.991440 -0.003975 0.000000 0.000000 0.000000 0.000000
    14 4.991432 -0.001575 0.000000 0.000000 0.000000 0.000000
    15 0.000008 0.001564 3.638375 -0.000010 -1.284244 3.140806
    16 8.842831 0.000000 -0.000004 -0.716189 0.018679 -0.934601
    17 9.341934 0.000000 0.000000 0.000000 0.000000 -1.363872
    18 11.168404 -0.000001 0.000004 -3.875041 0.725210 0.161301
    19 1.364904 0.231174 -1.984411 2.565506 0.787623 1.289793
    20 1.748535 -0.000002 0.000000 0.000000 0.000000 -0.043596
    21 1.272493 0.000000 0.000000 0.000000 0.000000 0.253070
    22 4.525587 -0.000301 -1.850224 0.062816 0.072691 0.735167
    23 1.719875 -0.000004 0.000001 0.000000 0.000000 0.619507
    24 1.383650 0.000004 0.000000 0.000000 0.000000 0.741679
    25 4.525587 -0.000103 -0.616741 0.033512 0.040262 0.733557
    26 1.807671 0.000000 -0.000002 0.000000 0.000000 0.567166
    27 1.614256 0.000000 0.000001 0.000000 0.000000 0.741753
    28 4.525587 0.000103 0.616741 0.021811 0.027340 0.733211
    29 1.719870 0.000000 0.000000 0.000000 0.000000 0.366471
    30 1.383650 -0.000004 0.000000 0.000000 0.000000 0.741673
    31 4.525587 0.000301 1.850224 -0.024821 -0.024628 0.733269
    32 1.433229 0.000000 0.000001 0.000000 0.000000 0.366461
    33 1.153040 0.000000 0.000000 0.000000 0.000000 0.741669
    34 0.000000 0.001585 -3.638375 -0.000010 1.284244 3.140787
    35 8.842832 0.000000 0.000000 0.847327 -0.884426 -1.917677
    36 9.341938 0.000000 -0.000004 0.000000 0.000000 -1.431586
    37 11.168402 -0.000001 -0.000004 1.743847 0.050899 0.324480
    38 1.364901 0.231174 1.984410 3.141548 0.005165 1.002275
    39 1.748535 -0.000002 0.000000 0.000000 0.000000 0.436286
    40 1.272493 0.000000 0.000000 0.000000 0.000000 0.322857
    41 4.525583 -0.000301 1.850223 -0.016340 -0.094622 0.192574
    42 1.719875 0.000000 0.000000 0.000000 0.000000 0.034907
    43 1.383648 0.000000 0.000000 0.000000 0.000000 0.689338
    44 4.525581 -0.000103 0.616742 -0.040895 -0.032761 0.934330
    45 1.807673 0.000000 0.000000 0.000000 0.000000 0.907546
    46 1.614258 -0.000004 0.000000 0.000000 0.000000 1.151843
    47 4.525578 0.000099 -0.616741 -0.026857 -0.022390 0.933931
    48 1.719872 -0.000004 0.000000 0.000000 0.000000 0.907546
    49 1.383646 0.000004 0.000000 0.000000 0.000000 1.151882
    50 4.525581 0.000301 -1.850223 0.029256 0.019176 0.933935
    51 1.433226 0.000004 0.000000 0.000000 0.000000 0.907457
    52 1.153040 0.000000 0.000000 0.000000 0.000000 1.151882
    53 1.977379 0.000000 0.000000 0.818951 0.300328 0.225814
    54 3.723976 2.768054 -0.049087 -3.139451 -0.002338 1.658055
    55 11.781860 -0.001184 -0.000003 0.000000 0.000000 0.000000
    56 -3.887192 4.546144 1.934869 0.000000 -1.570796 -3.141591
    57 -4.205009 4.546216 -0.015855 -3.054274 -1.570725 0.000000
    58 -3.887192 4.546178 -1.987145 0.000000 -1.570796 -3.141591
    59 -4.881813 5.593821 -1.566820 1.047319 -1.487704 2.076220
    60 -4.886909 5.683144 -0.007570 3.063127 -1.570751 0.000000
    61 -4.881798 5.609550 1.546659 1.047319 -1.487704 2.076220
    62 3.710045 1.760548 -0.059361 -0.091834 -0.075875 1.616828
    63 12.138049 14.189942 -4.062706 -0.883759 -1.447051 0.272646
  time 4
    0 0.054472 -0.071540 6.735332 0.012847 -0.098270 -2.099541
    1 -0.526041 0.000001 9.745319 0.000000 -1.570451 -1.570795
    2 -0.000011 0.000010 5.615750 -2.755950 -0.695920 0.900783
    3 15.693466 0.000000 0.000000 0.000000 0.000000 -2.150583
    4 22.146629 -0.000001 0.000000 -0.126114 0.133340 0.001632
    5 3.310129 5.734395 0.000000 0.000000 0.000000 1.570796
    6 0.000008 -0.000006 -5.615750 -3.474633 0.572171 2.696478
    7 15.693470 0.000000 0.000000 0.000000 0.000000 -2.211791
    8 22.146629 0.000000 0.000000 -0.616103 0.485416 -0.085227
    9 3.310129 5.734395 0.000000 0.000000 0.000000 2.482399
    10 1.384159 -0.004728 0.000002 -0.423641 0.132642 -0.121480
    11 5.939816 -0.004730 0.000000 0.000000 0.000000 0.000000
    12 5.939808 -0.003975 0.000000 0.000000 0.000000 0.000000
    13 4.991440 -0.003975 0.000000 0.000000 0.000000 0.000000
    14 4.991432 -0.001575 0.000000 0.000000 0.000000 0.000000
    15 0.000008 0.001564 3.638375 -0.000010 -1.284244 3.140806
    16 8.842831 0.000000 -0.000004 -0.707502 0.044913 -0.916475
    17 9.341934 0.000000 0.000000 0.000000 0.000000 -1.413319
    18 11.168404 -0.000001 0.000004 -3.844388 0.714418 0.189019
    19 1.364904 0.231174 -1.984411 2.565506 0.787623 1.289793
    20 1.748535 -0.000002 0.000000 0.000000 0.000000 -0.043596
    21 1.272493 0.000000 0.000000 0.000000 0.000000 0.253070
    22 4.525587 -0.000301 -1.850224 0.062816 0.072691 0.735114
    23 1.719875 -0.000004 0.000001 0.000000 0.000000 0.619507
    24 1.383650 0.000004 0.000000 0.000000 0.000000 0.741679
    25 4.525587 -0.000103 -0.616741 0.033512 0.040262 0.733557
    26 1.807671 0.000000 -0.000002 0.000000 0.000000 0.567166
    27 1.614256 0.000000 0.000001 0.000000 0.000000 0.741753
    28 4.525587 0.000103 0.616741 0.021811 0.027340 0.733211
    29 1.719870 0.000000 0.000000 0.000000 0.000000 0.366471
    30 1.383650 -0.000004 0.000000 0.000000 0.000000 0.741673
    31 4.525587 0.000301 1.850224 -0.024821 -0.024628 0.733269
    32 1.433229 0.000000 0.000001 0.000000 0.000000 0.366461
    33 1.153040 0.000000 0.000000 0.000000 0.000000 0.741669
    34 0.000000 0.001585 -3.638375 -0.000010 1.284244 3.140787
    35 8.842832 0.000000 0.000000 0.807616 -0.918253 -1.877463
    36 9.341938 0.000000 -0.000004 0.000000 0.000000 -1.443075
    37 11.168402 -0.000001 -0.000004 1.745618 0.060046 0.272869
    38 1.364901 0.231174 1.984410 3.141548 0.005165 1.002275
    39 1.748535 -0.000002 0.000000 0.000000 0.000000 0.436286
    40 1.272493 0.000000 0.000000 0.000000 0.000000 0.322857
    41 4.525583 -0.000301 1.850223 -0.016340 -0.094622 0.192574
    42 1.719875 0.000000 0.000000 0.000000 0.000000 0.034907
    43 1.383648 0.000000 0.000000 0.000000 0.000000 0.689338
    44 4.525581 -0.000103 0.616742 -0.040895 -0.032761 0.934330
    45 1.807673 0.000000 0.000000 0.000000 0.000000 0.907546
    46 1.614258 -0.000004 0.000000 0.000000 0.000000 1.151843
    47 4.525578 0.000099 -0.616741 -0.026857 -0.022390 0.933931
    48 1.719872 -0.000004 0.000000 0.000000 0.000000 0.907546
    49 1.383646 0.000004 0.000000 0.000000 0.000000 1.151882
    50 4.525581 0.000301 -1.850223 0.029256 0.019176 0.933935
    51 1.433226 0.000004 0.000000 0.000000 0.000000 0.907457
    52 1.153040 0.000000 0.000000 0.000000 0.000000 1.151882
    53 1.977379 0.000000 0.000000 0.821370 0.298804 0.227156
    54 3.723976 2.768054 -0.049087 -3.139451 -0.002338 1.658055
    55 11.781860 -0.001184 -0.000003 0.000000 0.000000 0.000000
    56 -3.887192 4.546144 1.934869 0.000000 -1.570796 -3.141591
    57 -4.205009 4.546216 -0.015855 -3.054274 -1.570725 0.000000
    58 -3.887192 4.546178 -1.987145 0.000000 -1.570796 -3.141591
    59 -4.881813 5.593821 -1.566820 1.047319 -1.487704 2.076220
    60 -4.886909 5.683144 -0.007570 3.063127 -1.570751 0.000000
    61 -4.881798 5.609550 1.546659 1.047319 -1.487704 2.076220
    62 3.710045 1.760548 -0.059361 -0.091834 -0.075875 1.616828
    63 12.138049 14.189942 -4.062706 -0.883759 -1.447051 0.272646
  time 5
    0 0.054472 -0.222520 6.813738 0.012752 -0.097887 -2.096664
    1 -0.526041 0.000001 9.745319 0.000000 -1.570451 -1.570795
    2 -0.000011 0.000010 5.615750 -2.761517 -0.694098 0.911087
    3 15.693466 0.000000 0.000000 0.000000 0.000000 -2.151935
    4 22.146629 -0.000001 0.000000 -0.124843 0.130046 0.009498
    5 3.310129 5.734395 0.000000 0.000000 0.000000 1.570796
    6 0.000008 -0.000006 -5.615750 -3.456594 0.565257 2.724504
    7 15.693470 0.000000 0.000000 0.000000 0.000000 -2.187006
    8 22.146629 0.000000 0.000000 -0.612267 0.499444 -0.046737
    9 3.310129 5.734395 0.000000 0.000000 0.000000 2.509792
    10 1.384159 -0.004728 0.000002 -0.421386 0.132105 -0.120581
    11 5.939816 -0.004730 0.000000 0.000000 0.000000 0.000000
    12 5.939808 -0.003975 0.000000 0.000000 0.000000 0.000000
    13 4.991440 -0.003975 0.000000 0.000000 0.000000 0.000000
    14 4.991432 -0.001575 0.000000 0.000000 0.000000 0.000000
    15 0.000008 0.001564 3.638375 -0.000010 -1.284244 3.140806
    16 8.842831 0.000000 -0.000004 -0.693328 0.064229 -0.914373
    17 9.341934 0.000000 0.000000 0.000000 0.000000 -1.454567
    18 11.168404 -0.000001 0.000004 -3.816218 0.699865 0.214218
    19 1.364904 0.231174 -1.984411 2.565506 0.787623 1.289793
    20 1.748535 -0.000002 0.000000 0.000000 0.000000 -0.043596
    21 1.272493 0.000000 0.000000 0.000000 0.000000 0.253070
    22 4.525587 -0.000301 -1.850224 0.062816 0.072691 0.735167
    23 1.719875 -0.000004 0.000001 0.000000 0.000000 0.619507
    24 1.383650 0.000004 0.000000 0.000000 0.000000 0.741679
    25 4.525587 -0.000103 -0.616741 0.033512 0.040262 0.733557
    26 1.807671 0.000000 -0.000002 0.000000 0.000000 0.567166
    27 1.614256 0.000000 0.000001 0.000000 0.000000 0.741753
    28 4.525587 0.000103 0.616741 0.021811 0.027340 0.733211
    29 1.719870 0.000000 0.000000 0.000000 0.000000 0.366471
    30 1.383650 -0.000004 0.000000 0.000000 0.000000 0.741673
    31 4.525587 0.000301 1.850224 -0.024821 -0.024628 0.733269
    32 1.433229 0.000000 0.000001 0.000000 0.000000 0.366461
    33 1.153040 0.000000 0.000000 0.000000 0.000000 0.741669
    34 0.000000 0.001585 -3.638375 -0.000010 1.284244 3.140787
    35 8.842832 0.000000 0.000000 0.753662 -0.957684 -1.817905
    36 9.341938 0.000000 -0.000004 0.000000 0.000000 -1.476190
    37 11.168402 -0.000001 -0.000004 1.741796 0.076654 0.230659
    38 1.364901 0.231174 1.984410 3.141548 0.005165 1.002275
    39 1.748535 -0.000002 0.000000 0.000000 0.000000 0.436286
    40 1.272493 0.000000 0.000000 0.000000 0.000000 0.322881
    41 4.525583 -0.000301 1.850223 -0.016340 -0.094622 0.192574
    42 1.719875 0.000000 0.000000 0.000000 0.000000 0.034907
    43 1.383648 0.000000 0.000000 0.000000 0.000000 0.689338
    44 4.525581 -0.000103 0.616742 -0.040895 -0.032761 0.934330
    45 1.807673 0.000000 0.000000 0.000000 0.000000 0.907546
    46 1.614258 -0.000004 0.000000 0.000000 0.000000 1.151843
    47 4.525578 0.000099 -0.616741 -0.026857 -0.022390 0.933931
    48 1.719872 -0.000004 0.000000 0.000000 0.000000 0.907546
    49 1.383646 0.000004 0.000000 0.000000 0.000000 1.151882
    50 4.525581 0.000301 -1.850223 0.029256 0.019176 0.933935
    51 1.433226 0.000004 0.000000 0.000000 0.000000 0.907457
    52 1.153040 0.000000 0.000000 0.000000 0.000000 1.151882
    53 1.977379 0.000000 0.000000 0.819457 0.300074 0.226013
    54 3.723976 2.768054 -0.049087 -3.139451 -0.002338 1.658055
    55 11.781860 -0.001184 -0.000003 0.000000 0.000000 0.000000
    56 -3.887192 4.546144 1.934869 0.000000 -1.570796 -3.141591
    57 -4.205009 4.546216 -0.015855 -3.054274 -1.570725 0.000000
    58 -3.887192 4.546178 -1.987145 0.000000 -1.570796 -3.141591
    59 -4.881813 5.593821 -1.566820 1.047319 -1.487704 2.076220
    60 -4.886909 5.683144 -0.007570 3.063127 -1.570751 0.000000
    61 -4.881798 5.609550 1.546659 1.047319 -1.487704 2.076220
    62 3.710045 1.760548 -0.059361 -0.091834 -0.075875 1.616828
    63 12.138049 14.189942 -4.062706 -0.883759 -1.447051 0.272646
  time 6
    0 0.054472 -0.350854 6.911746 0.012176 -0.096688 -2.089090
    1 -0.526041 0.000001 9.745319 0.000000 -1.570451 -1.570795
    2 -0.000011 0.000010 5.615750 -2.771519 -0.685564 0.923681
    3 15.693466 0.000000 0.000000 0.000000 0.000000 -2.153002
    4 22.146629 -0.000001 0.000000 -0.123048 0.124870 0.016541
    5 3.310129 5.734395 0.000000 0.000000 0.000000 1.570796
    6 0.000008 -0.000006 -5.615750 -3.437999 0.563154 2.748608
    7 15.693470 0.000000 0.000000 0.000000 0.000000 -2.168473
    8 22.146629 0.000000 0.000000 -0.607021 0.508347 -0.026039
    9 3.310129 5.734395 0.000000 0.000000 0.000000 2.518644
    10 1.384159 -0.004728 0.000002 -0.415462 0.130656 -0.118334
    11 5.939816 -0.004730 0.000000 0.000000 0.000000 0.000000
    12 5.939808 -0.003975 0.000000 0.000000 0.000000 0.000000
    13 4.991440 -0.003975 0.000000 0.000000 0.000000 0.000000
    14 4.991432 -0.001575 0.000000 0.000000 0.000000 0.000000
    15 0.000008 0.001564 3.638375 -0.000010 -1.284244 3.140806
    16 8.842831 0.000000 -0.000004 -0.674765 0.078325 -0.924181
    17 9.341934 0.000000 0.000000 0.000000 0.000000 -1.489254
    18 11.168404 -0.000001 0.000004 -3.790148 0.682334 0.237707
    19 1.364904 0.231174 -1.984411 2.565506 0.787623 1.289793
    20 1.748535 -0.000002 0.000000 0.000000 0.000000 -0.043596
    21 1.272493 0.000000 0.000000 0.000000 0.000000 0.253070
    22 4.525587 -0.000301 -1.850224 0.062816 0.072691 0.735167
    23 1.719875 -0.000004 0.000001 0.000000 0.000000 0.619507
    24 1.383650 0.000004 0.000000 0.000000 0.000000 0.741679
    25 4.525587 -0.000103 -0.616741 0.033512 0.040262 0.733557
    26 1.807671 0.000000 -0.000002 0.000000 0.000000 0.567166
    27 1.614256 0.000000 0.000001 0.000000 0.000000 0.741753
    28 4.525587 0.000103 0.616741 0.021823 0.027340 0.733211
    29 1.719870 0.000000 0.000000 0.000000 0.000000 0.366471
    30 1.383650 -0.000004 0.000000 0.000000 0.000000 0.741673
    31 4.525587 0.000301 1.850224 -0.024821 -0.024628 0.733269
    32 1.433229 0.000000 0.000001 0.000000 0.000000 0.366461
    33 1.153040 0.000000 0.000000 0.000000 0.000000 0.741669
    34 0.000000 0.001585 -3.638375 -0.000010 1.284244 3.140787
    35 8.842832 0.000000 0.000000 0.683200 -1.000266 -1.738717
    36 9.341938 0.000000 -0.000004 0.000000 0.000000 -1.523428
    37 11.168402 -0.000001 -0.000004 1.732753 0.098910 0.193337
    38 1.364901 0.231174 1.984410 3.141548 0.005165 1.002275
    39 1.748535 -0.000002 0.000000 0.000000 0.000000 0.436286
    40 1.272493 0.000000 0.000000 0.000000 0.000000 0.322857
    41 4.525583 -0.000301 1.850223 -0.016340 -0.094622 0.192574
    42 1.719875 0.000000 0.000000 0.000000 0.000000 0.034907
    43 1.383648 0.000000 0.000000 0.000000 0.000000 0.689338
    44 4.525581 -0.000103 0.616742 -0.040895 -0.032761 0.934330
    45 1.807673 0.000000 0.000000 0.000000 0.000000 0.907546
    46 1.614258 -0.000004 0.000000 0.000000 0.000000 1.151884
    47 4.525578 0.000099 -0.616741 -0.026857 -0.022390 0.933931
    48 1.719872 -0.000004 0.000000 0.000000 0.000000 0.907546
    49 1.383646 0.000004 0.000000 0.000000 0.000000 1.151882
    50 4.525581 0.000301 -1.850223 0.029256 0.019176 0.933935
    51 1.433226 0.000004 0.000000 0.000000 0.000000 0.907457
    52 1.153040 0.000000 0.000000 0.000000 0.000000 1.151882
    53 1.977379 0.000000 0.000000 0.814169 0.303469 0.222981
    54 3.723976 2.768054 -0.049087 -3.139451 -0.002338 1.658055
    55 11.781860 -0.001184 -0.000003 0.000000 0.000000 0.000000
    56 -3.887192 4.546144 1.934869 0.000000 -1.570796 -3.141591
    57 -4.205009 4.546216 -0.015855 -3.054274 -1.570725 0.000000
    58 -3.887192 4.546178 -1.987145 0.000000 -1.570796 -3.141591
    59 -4.881813 5.593821 -1.566820 1.047319 -1.487704 2.076220
    60 -4.886909 5.683144 -0.007570 3.063127 -1.570751 0.000000
    61 -4.881798 5.609550 1.546659 1.047319 -1.487704 2.076220
    62 3.710045 1.760548 -0.059361 -0.091834 -0.075875 1.616828
    63 12.138049 14.189942 -4.062706 -0.883759 -1.447051 0.272646
  time 7
    0 0.054472 -0.501834 6.990153 0.011409 -0.094819 -2.078544
    1 -0.526041 0.000001 9.745319 0.000000 -1.570451 -1.570795
    2 -0.000011 0.000010 5.615750 -2.783975 -0.672143 0.937801
    3 15.693466 0.000000 0.000000 0.000000 0.000000 -2.153998
    4 22.146629 -0.000001 0.000000 -0.121178 0.118530 0.022943
    5 3.310129 5.734395 0.000000 0.000000 0.000000 1.570796
    6 0.000008 -0.000006 -5.615750 -3.421311 0.563061 2.766783
    7 15.693470 0.000000 0.000000 0.000000 0.000000 -2.158797
    8 22.146629 0.000000 0.000000 -0.599124 0.515039 -0.012651
    9 3.310129 5.734395 0.000000 0.000000 0.000000 2.499668
    10 1.384159 -0.004728 0.000002 -0.407047 0.128670 -0.115098
    11 5.939816 -0.004730 0.000000 0.000000 0.000000 0.000000
    12 5.939808 -0.003975 0.000000 0.000000 0.000000 0.000000
    13 4.991440 -0.003975 0.000000 0.000000 0.000000 0.000000
    14 4.991432 -0.001575 0.000000 0.000000 0.000000 0.000000
    15 0.000008 0.001564 3.638375 -0.000010 -1.284244 3.140806
    16 8.842831 0.000000 -0.000004 -0.652910 0.088636 -0.942307
    17 9.341934 0.000000 0.000000 0.000000 0.000000 -1.519350
    18 11.168404 -0.000001 0.000004 -3.765607 0.662556 0.259756
    19 1.364904 0.231174 -1.984411 2.565506 0.787623 1.289793
    20 1.748535 -0.000002 0.000000 0.000000 0.000000 -0.043596
    21 1.272493 0.000000 0.000000 0.000000 0.000000 0.253070
    22 4.525587 -0.000301 -1.850224 0.062816 0.072691 0.735167
    23 1.719875 -0.000004 0.000001 0.000000 0.000000 0.619507
    24 1.383650 0.000004 0.000000 0.000000 0.000000 0.741679
    25 4.525587 -0.000103 -0.616741 0.033512 0.040262 0.733557
    26 1.807671 0.000000 -0.000002 0.000000 0.000000 0.567166
    27 1.614256 0.000000 0.000001 0.000000 0.000000 0.741753
    28 4.525587 0.000103 0.616741 0.021811 0.027340 0.733211
    29 1.719870 0.000000 0.000000 0.000000 0.000000 0.366471
    30 1.383650 -0.000004 0.000000 0.000000 0.000000 0.741673
    31 4.525587 0.000301 1.850224 -0.024821 -0.024628 0.733269
    32 1.433229 0.000000 0.000001 0.000000 0.000000 0.366461
    33 1.153040 0.000000 0.000000 0.000000 0.000000 0.741669
    34 0.000000 0.001585 -3.638375 -0.000010 1.284244 3.140787
    35 8.842832 0.000000 0.000000 0.594817 -1.042848 -1.639707
    36 9.341938 0.000000 -0.000004 0.000000 0.000000 -1.578169
    37 11.168402 -0.000001 -0.000004 1.718864 0.124790 0.156579
    38 1.364901 0.231174 1.984410 3.141548 0.005165 1.002275
    39 1.748535 -0.000002 0.000000 0.000000 0.000000 0.436286
    40 1.272493 0.000000 0.000000 0.000000 0.000000 0.322857
    41 4.525583 -0.000301 1.850223 -0.016340 -0.094622 0.192574
    42 1.719875 0.000000 0.000000 0.000000 0.000000 0.034907
    43 1.383648 0.000000 0.000000 0.000000 0.000000 0.689338
    44 4.525581 -0.000103 0.616742 -0.040895 -0.032761 0.934330
    45 1.807673 0.000000 0.000000 0.000000 0.000000 0.907546
    46 1.614258 -0.000004 0.000000 0.000000 0.000000 1.151884
    47 4.525578 0.000099 -0.616741 -0.026857 -0.022390 0.933931
    48 1.719872 -0.000004 0.000000 0.000000 0.000000 0.907546
    49 1.383646 0.000004 0.000000 0.000000 0.000000 1.151882
    50 4.525581 0.000301 -1.850223 0.029256 0.019176 0.933935
    51 1.433226 0.000004 0.000000 0.000000 0.000000 0.907457
    52 1.153040 0.000000 0.000000 0.000000 0.000000 1.151882
    53 1.977379 0.000000 0.000000 0.806686 0.308226 0.218608
    54 3.723976 2.768054 -0.049087 -3.139451 -0.002338 1.658055
    55 11.781860 -0.001184 -0.000003 0.000000 0.000000 0.000000
    56 -3.887192 4.546144 1.934869 0.000000 -1.570796 -3.141591
    57 -4.205009 4.546216 -0.015855 -3.054274 -1.570725 0.000000
    58 -3.887192 4.546178 -1.987145 0.000000 -1.570796 -3.141591
    59 -4.881813 5.593821 -1.566820 1.047319 -1.487704 2.076220
    60 -4.886909 5.683144 -0.007570 3.063127 -1.570751 0.000000
    61 -4.881798 5.609550 1.546659 1.047319 -1.487704 2.076220
    62 3.710045 1.760548 -0.059361 -0.091846 -0.075875 1.616828
    63 12.138049 14.189942 -4.062706 -0.883759 -1.447051 0.272646
  time 8
    0 0.054472 -0.645265 7.068559 0.010546 -0.092757 -2.066368
    1 -0.526041 0.000001 9.745319 0.000000 -1.570451 -1.570795
    2 -0.000011 0.000010 5.615750 -2.797279 -0.656153 0.952207
    3 15.693466 0.000000 0.000000 0.000000 0.000000 -2.155136
    4 22.146629 -0.000001 0.000000 -0.119346 0.111447 0.029117
    5 3.310129 5.734395 0.000000 0.000000 0.000000 1.570796
    6 0.000008 -0.000006 -5.615750 -3.407723 0.556895 2.781417
    7 15.693470 0.000000 0.000000 0.000000 0.000000 -2.156713
    8 22.146629 0.000000 0.000000 -0.583611 0.527195 0.021963
    9 3.310129 5.734395 0.000000 0.000000 0.000000 2.449682
    10 1.384159 -0.004728 0.000002 -0.397454 0.126336 -0.111473
    11 5.939816 -0.004730 0.000000 0.000000 0.000000 0.000000
    12 5.939808 -0.003975 0.000000 0.000000 0.000000 0.000000
    13 4.991440 -0.003975 0.000000 0.000000 0.000000 0.000000
    14 4.991432 -0.001575 0.000000 0.000000 0.000000 0.000000
    15 0.000008 0.001564 3.638375 -0.000010 -1.284244 3.140806
    16 8.842831 0.000000 -0.000004 -0.672753 0.057834 -0.961572
    17 9.341934 0.000000 0.000000 0.000000 0.000000 -1.424554
    18 11.168404 -0.000001 0.000004 -3.814785 0.689024 0.171110
    19 1.364904 0.231174 -1.984411 2.565506 0.787623 1.289793
    20 1.748535 -0.000002 0.000000 0.000000 0.000000 -0.043596
    21 1.272493 0.000000 0.000000 0.000000 0.000000 0.253070
    22 4.525587 -0.000301 -1.850224 0.062816 0.072691 0.735167
    23 1.719875 -0.000004 0.000001 0.000000 0.000000 0.619507
    24 1.383650 0.000004 0.000000 0.000000 0.000000 0.741679
    25 4.525587 -0.000103 -0.616741 0.033512 0.040262 0.733557
    26 1.807671 0.000000 -0.000002 0.000000 0.000000 0.567166
    27 1.614256 0.000000 0.000001 0.000000 0.000000 0.741753
    28 4.525587 0.000103 0.616741 0.021811 0.027340 0.733211
    29 1.719870 0.000000 0.000000 0.000000 0.000000 0.366471
    30 1.383650 -0.000004 0.000000 0.000000 0.000000 0.741673
    31 4.525587 0.000301 1.850224 -0.024821 -0.024628 0.733269
    32 1.433229 0.000000 0.000001 0.000000 0.000000 0.366461
    33 1.153040 0.000000 0.000000 0.000000 0.000000 0.741669
    34 0.000000 0.001585 -3.638375 -0.000010 1.284244 3.140787
    35 8.842832 0.000000 0.000000 0.696689 -0.998515 -1.756918
    36 9.341938 0.000000 -0.000004 0.000000 0.000000 -1.525185
    37 11.168402 -0.000001 -0.000004 1.708330 0.135497 0.207062
    38 1.364901 0.231174 1.984410 3.141548 0.005165 1.002275
    39 1.748535 -0.000002 0.000000 0.000000 0.000000 0.436286
    40 1.272493 0.000000 0.000000 0.000000 0.000000 0.322881
    41 4.525583 -0.000301 1.850223 -0.016340 -0.094622 0.192574
    42 1.719875 0.000000 0.000000 0.000000 0.000000 0.034907
    43 1.383648 0.000000 0.000000 0.000000 0.000000 0.689338
    44 4.525581 -0.000103 0.616742 -0.040895 -0.032761 0.934330
    45 1.807673 0.000000 0.000000 0.000000 0.000000 0.907546
    46 1.614258 -0.000004 0.000000 0.000000 0.000000 1.151884
    47 4.525578 0.000099 -0.616741 -0.026857 -0.022390 0.933931
    48 1.719872 -0.000004 0.000000 0.000000 0.000000 0.907546
    49 1.383646 0.000004 0.000000 0.000000 0.000000 1.151882
    50 4.525581 0.000301 -1.850223 0.029256 0.019176 0.933935
    51 1.433226 0.000004 0.000000 0.000000 0.000000 0.907457
    52 1.153040 0.000000 0.000000 0.000000 0.000000 1.151882
    53 1.977379 0.000000 0.000000 0.798134 0.313676 0.213589
    54 3.723976 2.768054 -0.049087 -3.139451 -0.002338 1.658055
    55 11.781860 -0.001184 -0.000003 0.000000 0.000000 0.000000
    56 -3.887192 4.546144 1.934869 0.000000 -1.570796 -3.141591
    57 -4.205009 4.546216 -0.015855 -3.054274 -1.570725 0.000000
    58 -3.887192 4.546178 -1.987145 0.000000 -1.570796 -3.141591
    59 -4.881813 5.593821 -1.566820 1.047319 -1.487704 2.076220
    60 -4.886909 5.683144 -0.007570 3.063127 -1.570751 0.000000
    61 -4.881798 5.609550 1.546659 1.047319 -1.487704 2.076220
    62 3.710045 1.760548 -0.059361 -0.091834 -0.075875 1.616828
    63 12.138049 14.189942 -4.062706 -0.883759 -1.447051 0.272646
  time 9
    0 0.054472 -0.803795 7.127364 0.009684 -0.090696 -2.054288
    1 -0.526041 0.000001 9.745319 0.000000 -1.570741 -1.570795
    2 -0.000011 0.000010 5.615750 -2.810017 -0.639667 0.966136
    3 15.693466 0.000000 0.000000 0.000000 0.000000 -2.156203
    4 22.146629 -0.000001 0.000000 -0.117701 0.104339 0.035336
    5 3.310129 5.734395 0.000000 0.000000 0.000000 1.570796
    6 0.000008 -0.000006 -5.615750 -3.397472 0.546851 2.792131
    7 15.693470 0.000000 0.000000 0.000000 0.000000 -2.160062
    8 22.146629 0.000000 0.000000 -0.562232 0.541807 0.071375
    9 3.310129 5.734395 0.000000 0.000000 0.000000 2.379130
    10 1.384159 -0.004728 0.000002 -0.387861 0.124001 -0.107877
    11 5.939816 -0.004730 0.000000 0.000000 0.000000 0.000000
    12 5.939808 -0.003975 0.000000 0.000000 0.000000 0.000000
    13 4.991440 -0.003975 0.000000 0.000000 0.000000 0.000000
    14 4.991432 -0.001575 0.000000 0.000000 0.000000 0.000000
    15 0.000008 0.001564 3.638375 -0.000010 -1.284244 3.140806
    16 8.842831 0.000000 -0.000004 -0.688390 0.022268 -0.987316
    17 9.341934 0.000000 0.000000 0.000000 0.000000 -1.319590
    18 11.168404 -0.000001 0.000004 -3.865301 0.711537 0.079764
    19 1.364904 0.231174 -1.984411 2.565506 0.787623 1.289793
    20 1.748535 -0.000002 0.000000 0.000000 0.000000 -0.043596
    21 1.272493 0.000000 0.000000 0.000000 0.000000 0.253070
    22 4.525587 -0.000301 -1.850224 0.062816 0.072691 0.735167
    23 1.719875 -0.000004 0.000001 0.000000 0.000000 0.619507
    24 1.383650 0.000004 0.000000 0.000000 0.000000 0.741679
    25 4.525587 -0.000103 -0.616741 0.033512 0.040262 0.733557
    26 1.807671 0.000000 -0.000002 0.000000 0.000000 0.567166
    27 1.614256 0.000000 0.000001 0.000000 0.000000 0.741753
    28 4.525587 0.000103 0.616741 0.021823 0.027340 0.733211
    29 1.719870 0.000000 0.000000 0.000000 0.000000 0.366471
    30 1.383650 -0.000004 0.000000 0.000000 0.000000 0.741673
    31 4.525587 0.000301 1.850224 -0.024821 -0.024628 0.733269
    32 1.433229 0.000000 0.000001 0.000000 0.000000 0.366461
    33 1.153040 0.000000 0.000000 0.000000 0.000000 0.741669
    34 0.000000 0.001585 -3.638375 -0.000010 1.284244 3.140787
    35 8.842832 0.000000 0.000000 0.781865 -0.947108 -1.856880
    36 9.341938 0.000000 -0.000004 0.000000 0.000000 -1.466863
    37 11.168402 -0.000001 -0.000004 1.700220 0.146119 0.253409
    38 1.364901 0.231174 1.984410 3.141548 0.005165 1.002275
    39 1.748535 -0.000002 0.000000 0.000000 0.000000 0.436286
    40 1.272493 0.000000 0.000000 0.000000 0.000000 0.322857
    41 4.525583 -0.000301 1.850223 -0.016340 -0.094622 0.192574
    42 1.719875 0.000000 0.000000 0.000000 0.000000 0.034907
    43 1.383648 0.000000 0.000000 0.000000 0.000000 0.689338
    44 4.525581 -0.000103 0.616742 -0.040895 -0.032761 0.934330
    45 1.807673 0.000000 0.000000 0.000000 0.000000 0.907546
    46 1.614258 -0.000004 0.000000 0.000000 0.000000 1.151884
    47 4.525578 0.000099 -0.616741 -0.026857 -0.022390 0.933931
    48 1.719872 -0.000004 0.000000 0.000000 0.000000 0.907546
    49 1.383646 0.000004 0.000000 0.000000 0.000000 1.151882
    50 4.525581 0.000301 -1.850223 0.029256 0.019176 0.933935
    51 1.433226 0.000004 0.000000 0.000000 0.000000 0.907457
    52 1.153040 0.000000 0.000000 0.000000 0.000000 1.151882
    53 1.977379 0.000000 0.000000 0.789470 0.319057 0.208470
    54 3.723976 2.768054 -0.049087 -3.139451 -0.002338 1.658055
    55 11.781860 -0.001184 -0.000003 0.000000 0.000000 0.000000
    56 -3.887192 4.546144 1.934869 0.000000 -1.570796 -3.141591
    57 -4.205009 4.546216 -0.015855 -3.054274 -1.570725 0.000000
    58 -3.887192 4.546178 -1.987145 0.000000 -1.570796 -3.141591
    59 -4.881813 5.593821 -1.566820 1.047319 -1.487704 2.076220
    60 -4.886909 5.683144 -0.007570 3.063127 -1.570751 0.000000
    61 -4.881798 5.609550 1.546659 1.047319 -1.487704 2.076220
    62 3.710045 1.760548 -0.059361 -0.091834 -0.075875 1.616828
    63 12.138049 14.189942 -4.062706 -0.883759 -1.447051 0.272646
  time 10
    0 0.054472 -0.947226 7.225372 0.009108 -0.088826 -2.043646
    1 -0.526041 0.000001 9.745319 0.000000 -1.570451 -1.570795
    2 -0.000011 0.000010 5.615750 -2.821057 -0.625375 0.979111
    3 15.693466 0.000000 0.000000 0.000000 0.000000 -2.157270
    4 22.146629 -0.000001 0.000000 -0.116280 0.097875 0.041876
    5 3.310129 5.734395 0.000000 0.000000 0.000000 1.570796
    6 0.000008 -0.000006 -5.615750 -3.391512 0.534378 2.799113
    7 15.693470 0.000000 0.000000 0.000000 0.000000 -2.166910
    8 22.146629 0.000000 0.000000 -0.537412 0.556234 0.127656
    9 3.310129 5.734395 0.000000 0.000000 0.000000 2.298250
    10 1.384159 -0.004728 0.000002 -0.379480 0.121908 -0.104731
    11 5.939816 -0.004730 0.000000 0.000000 0.000000 0.000000
    12 5.939808 -0.003975 0.000000 0.000000 0.000000 0.000000
    13 4.991440 -0.003975 0.000000 0.000000 0.000000 0.000000
    14 4.991432 -0.001575 0.000000 0.000000 0.000000 0.000000
    15 0.000008 0.001564 3.638375 -0.000010 -1.284244 3.140806
    16 8.842831 0.000000 -0.000004 -0.700918 -0.016887 -1.015776
    17 9.341934 0.000000 0.000000 0.000000 0.000000 -1.205195
    18 11.168404 -0.000001 0.000004 -3.916103 0.731168 -0.013922
    19 1.364904 0.231174 -1.984411 2.565506 0.787623 1.289793
    20 1.748535 -0.000002 0.000000 0.000000 0.000000 -0.043596
    21 1.272493 0.000000 0.000000 0.000000 0.000000 0.253070
    22 4.525587 -0.000301 -1.850224 0.062816 0.072691 0.735114
    23 1.719875 -0.000004 0.000001 0.000000 0.000000 0.619507
    24 1.383650 0.000004 0.000000 0.000000 0.000000 0.741679
    25 4.525587 -0.000103 -0.616741 0.033512 0.040262 0.733557
    26 1.807671 0.000000 -0.000002 0.000000 0.000000 0.567166
    27 1.614256 0.000000 0.000001 0.000000 0.000000 0.741753
    28 4.525587 0.000103 0.616741 0.021811 0.027340 0.733211
    29 1.719870 0.000000 0.000000 0.000000 0.000000 0.366471
    30 1.383650 -0.000004 0.000000 0.000000 0.000000 0.741673
    31 4.525587 0.000301 1.850224 -0.024821 -0.024628 0.733269
    32 1.433229 0.000000 0.000001 0.000000 0.000000 0.366461
    33 1.153040 0.000000 0.000000 0.000000 0.000000 0.741669
    34 0.000000 0.001585 -3.638375 -0.000010 1.284244 3.140787
    35 8.842832 0.000000 0.000000 0.854779 -0.887648 -1.945407
    36 9.341938 0.000000 -0.000004 0.000000 0.000000 -1.396783
    37 11.168402 -0.000001 -0.000004 1.694720 0.154338 0.292140
    38 1.364901 0.231174 1.984410 3.141548 0.005165 1.002275
    39 1.748535 -0.000002 0.000000 0.000000 0.000000 0.436286
    40 1.272493 0.000000 0.000000 0.000000 0.000000 0.322881
    41 4.525583 -0.000301 1.850223 -0.016340 -0.094622 0.192574
    42 1.719875 0.000000 0.000000 0.000000 0.000000 0.034907
    43 1.383648 0.000000 0.000000 0.000000 0.000000 0.689338
    44 4.525581 -0.000103 0.616742 -0.040895 -0.032761 0.934330
    45 1.807673 0.000000 0.000000 0.000000 0.000000 0.907546
    46 1.614258 -0.000004 0.000000 0.000000 0.000000 1.151884
    47 4.525578 0.000099 -0.616741 -0.026857 -0.022390 0.933931
    48 1.719872 -0.000004 0.000000 0.000000 0.000000 0.907546
    49 1.383646 0.000004 0.000000 0.000000 0.000000 1.151882
    50 4.525581 0.000301 -1.850223 0.029256 0.019176 0.933935
    51 1.433226 0.000004 0.000000 0.000000 0.000000 0.907457
    52 1.153040 0.000000 0.000000 0.000000 0.000000 1.151882
    53 1.977379 0.000000 0.000000 0.781931 0.323745 0.203997
    54 3.723976 2.768054 -0.049087 -3.139451 -0.002338 1.658055
    55 11.781860 -0.001184 -0.000003 0.000000 0.000000 0.000000
    56 -3.887192 4.546144 1.934869 0.000000 -1.570796 -3.141591
    57 -4.205009 4.546216 -0.015855 -3.054274 -1.570725 0.000000
    58 -3.887192 4.546178 -1.987145 0.000000 -1.570796 -3.141591
    59 -4.881813 5.593821 -1.566820 1.047319 -1.487704 2.076220
    60 -4.886909 5.683144 -0.007570 3.063127 -1.570751 0.000000
    61 -4.881798 5.609550 1.546659 1.047319 -1.487704 2.076220
    62 3.710045 1.760548 -0.059361 -0.091834 -0.075875 1.616828
    63 12.138049 14.189942 -4.062706 -0.883759 -1.447051 0.272646
  time 11
    0 0.054472 -1.098206 7.303778 0.008821 -0.087580 -2.036264
    1 -0.526041 0.000001 9.745319 0.000000 -1.570451 -1.570795
    2 -0.000011 0.000010 5.615750 -2.829644 -0.615765 0.990178
    3 15.693466 0.000000 0.000000 0.000000 0.000000 -2.158621
    4 22.146629 -0.000001 0.000000 -0.114972 0.092823 0.049147
    5 3.310129 5.734395 0.000000 0.000000 0.000000 1.570796
    6 0.000008 -0.000006 -5.615750 -3.389604 0.521438 2.802270
    7 15.693470 0.000000 0.000000 0.000000 0.000000 -2.175023
    8 22.146629 0.000000 0.000000 -0.512084 0.568329 0.184290
    9 3.310129 5.734395 0.000000 0.000000 0.000000 2.217255
    10 1.384159 -0.004728 0.000002 -0.373623 0.120459 -0.102514
    11 5.939816 -0.004730 0.000000 0.000000 0.000000 0.000000
    12 5.939808 -0.003975 0.000000 0.000000 0.000000 0.000000
    13 4.991440 -0.003975 0.000000 0.000000 0.000000 0.000000
    14 4.991432 -0.001575 0.000000 0.000000 0.000000 0.000000
    15 0.000008 0.001564 3.638375 -0.000010 -1.284244 3.140806
    16 8.842831 0.000000 -0.000004 -0.711434 -0.058848 -1.043709
    17 9.341934 0.000000 0.000000 0.000000 0.000000 -1.082026
    18 11.168404 -0.000001 0.000004 -3.965950 0.749041 -0.110037
    19 1.364904 0.231174 -1.984411 2.565506 0.787623 1.289793
    20 1.748535 -0.000002 0.000000 0.000000 0.000000 -0.043596
    21 1.272493 0.000000 0.000000 0.000000 0.000000 0.253070
    22 4.525587 -0.000301 -1.850224 0.062816 0.072691 0.735167
    23 1.719875 -0.000004 0.000001 0.000000 0.000000 0.619507
    24 1.383650 0.000004 0.000000 0.000000 0.000000 0.741679
    25 4.525587 -0.000103 -0.616741 0.033512 0.040262 0.733557
    26 1.807671 0.000000 -0.000002 0.000000 0.000000 0.567166
    27 1.614256 0.000000 0.000001 0.000000 0.000000 0.741753
    28 4.525587 0.000103 0.616741 0.021811 0.027340 0.733211
    29 1.719870 0.000000 0.000000 0.000000 0.000000 0.366471
    30 1.383650 -0.000004 0.000000 0.000000 0.000000 0.741673
    31 4.525587 0.000301 1.850224 -0.024821 -0.024628 0.733269
    32 1.433229 0.000000 0.000001 0.000000 0.000000 0.366461
    33 1.153040 0.000000 0.000000 0.000000 0.000000 0.741669
    34 0.000000 0.001585 -3.638375 -0.000010 1.284244 3.140787
    35 8.842832 0.000000 0.000000 0.918637 -0.818732 -2.027740
    36 9.341938 0.000000 -0.000004 0.000000 0.000000 -1.307238
    37 11.168402 -0.000001 -0.000004 1.693042 0.158301 0.319779
    38 1.364901 0.231174 1.984410 3.141548 0.005165 1.002275
    39 1.748535 -0.000002 0.000000 0.000000 0.000000 0.436286
    40 1.272493 0.000000 0.000000 0.000000 0.000000 0.322881
    41 4.525583 -0.000301 1.850223 -0.016340 -0.094622 0.192574
    42 1.719875 0.000000 0.000000 0.000000 0.000000 0.034907
    43 1.383648 0.000000 0.000000 0.000000 0.000000 0.689298
    44 4.525581 -0.000103 0.616742 -0.040895 -0.032761 0.934330
    45 1.807673 0.000000 0.000000 0.000000 0.000000 0.907546
    46 1.614258 -0.000004 0.000000 0.000000 0.000000 1.151843
    47 4.525578 0.000099 -0.616741 -0.026857 -0.022390 0.933931
    48 1.719872 -0.000004 0.000000 0.000000 0.000000 0.907546
    49 1.383646 0.000004 0.000000 0.000000 0.000000 1.151882
    50 4.525581 0.000301 -1.850223 0.029256 0.019176 0.933935
    51 1.433226 0.000004 0.000000 0.000000 0.000000 0.907457
    52 1.153040 0.000000 0.000000 0.000000 0.000000 1.151882
    53 1.977379 0.000000 0.000000 0.776586 0.326978 0.200767
    54 3.723976 2.768054 -0.049087 -3.139451 -0.002338 1.658055
    55 11.781860 -0.001184 -0.000003 0.000000 0.000000 0.000000
    56 -3.887192 4.546144 1.934869 0.000000 -1.570796 -3.141591
    57 -4.205009 4.546216 -0.015855 -3.054274 -1.570725 0.000000
    58 -3.887192 4.546178 -1.987145 0.000000 -1.570796 -3.141591
    59 -4.881813 5.593821 -1.566820 1.047319 -1.487704 2.076220
    60 -4.886909 5.683144 -0.007570 3.063127 -1.570751 0.000000
    61 -4.881798 5.609550 1.546659 1.047319 -1.487704 2.076220
    62 3.710045 1.760548 -0.059361 -0.091846 -0.075875 1.616828
    63 12.138049 14.189942 -4.062706 -0.883759 -1.447051 0.272646
  time 12
    0 0.054472 -1.234089 7.382185 0.008341 -0.087101 -2.033579
    1 -0.526041 0.000001 9.745319 0.000000 -1.570451 -1.570795
    2 -0.000011 0.000010 5.615750 -2.834362 -0.614357 0.999242
    3 15.693466 0.000000 0.000000 0.000000 0.000000 -2.159973
    4 22.146629 -0.000001 0.000000 -0.113140 0.090495 0.057424
    5 3.310129 5.734395 0.000000 0.000000 0.000000 1.570796
    6 0.000008 -0.000006 -5.615750 -3.392624 0.512702 2.801313
    7 15.693470 0.000000 0.000000 0.000000 0.000000 -2.182317
    8 22.146629 0.000000 0.000000 -0.493300 0.575451 0.230883
    9 3.310129 5.734395 0.000000 0.000000 0.000000 2.146731
    10 1.384159 -0.004728 0.000002 -0.371368 0.119842 -0.101675
    11 5.939816 -0.004730 0.000000 0.000000 0.000000 0.000000
    12 5.939808 -0.003975 0.000000 0.000000 0.000000 0.000000
    13 4.991440 -0.003975 0.000000 0.000000 0.000000 0.000000
    14 4.991432 -0.001575 0.000000 0.000000 0.000000 0.000000
    15 0.000008 0.001564 3.638375 -0.000010 -1.284244 3.140806
    16 8.842831 0.000000 -0.000004 -0.721127 -0.103158 -1.067790
    17 9.341934 0.000000 0.000000 0.000000 0.000000 -0.949509
    18 11.168404 -0.000001 0.000004 -4.014651 0.766280 -0.209393
    19 1.364904 0.231174 -1.984411 2.565506 0.787623 1.289793
    20 1.748535 -0.000002 0.000000 0.000000 0.000000 -0.043596
    21 1.272493 0.000000 0.000000 0.000000 0.000000 0.253070
    22 4.525587 -0.000301 -1.850224 0.062816 0.072691 0.735167
    23 1.719875 -0.000004 0.000001 0.000000 0.000000 0.619507
    24 1.383650 0.000004 0.000000 0.000000 0.000000 0.741679
    25 4.525587 -0.000103 -0.616741 0.033512 0.040262 0.733557
    26 1.807671 0.000000 -0.000002 0.000000 0.000000 0.567166
    27 1.614256 0.000000 0.000001 0.000000 0.000000 0.741753
    28 4.525587 0.000103 0.616741 0.021823 0.027340 0.733211
    29 1.719870 0.000000 0.000000 0.000000 0.000000 0.366471
    30 1.383650 -0.000004 0.000000 0.000000 0.000000 0.741673
    31 4.525587 0.000301 1.850224 -0.024821 -0.024628 0.733269
    32 1.433229 0.000000 0.000001 0.000000 0.000000 0.366461
    33 1.153040 0.000000 0.000000 0.000000 0.000000 0.741669
    34 0.000000 0.001585 -3.638375 -0.000010 1.284244 3.140787
    35 8.842832 0.000000 0.000000 0.976081 -0.737559 -2.108454
    36 9.341938 0.000000 -0.000004 0.000000 0.000000 -1.188229
    37 11.168402 -0.000001 -0.000004 1.694720 0.156193 0.330872
    38 1.364901 0.231174 1.984410 3.141548 0.005165 1.002275
    39 1.748535 -0.000002 0.000000 0.000000 0.000000 0.436286
    40 1.272493 0.000000 0.000000 0.000000 0.000000 0.322881
    41 4.525583 -0.000301 1.850223 -0.016340 -0.094622 0.192574
    42 1.719875 0.000000 0.000000 0.000000 0.000000 0.034907
    43 1.383648 0.000000 0.000000 0.000000 0.000000 0.689338
    44 4.525581 -0.000103 0.616742 -0.040895 -0.032761 0.934330
    45 1.807673 0.000000 0.000000 0.000000 0.000000 0.907546
    46 1.614258 -0.000004 0.000000 0.000000 0.000000 1.151843
    47 4.525578 0.000099 -0.616741 -0.026857 -0.022390 0.933931
    48 1.719872 -0.000004 0.000000 0.000000 0.000000 0.907546
    49 1.383646 0.000004 0.000000 0.000000 0.000000 1.151882
    50 4.525581 0.000301 -1.850223 0.029256 0.019176 0.933935
    51 1.433226 0.000004 0.000000 0.000000 0.000000 0.907457
    52 1.153040 0.000000 0.000000 0.000000 0.000000 1.151882
    53 1.977379 0.000000 0.000000 0.774560 0.328248 0.199525
    54 3.723976 2.768054 -0.049087 -3.139451 -0.002338 1.658055
    55 11.781860 -0.001184 -0.000003 0.000000 0.000000 0.000000
    56 -3.887192 4.546144 1.934869 0.000000 -1.570796 -3.141591
    57 -4.205009 4.546216 -0.015855 -3.054274 -1.570725 0.000000
    58 -3.887192 4.546178 -1.987145 0.000000 -1.570796 -3.141591
    59 -4.881813 5.593821 -1.566820 1.047319 -1.487704 2.076220
    60 -4.886909 5.683144 -0.007570 3.063127 -1.570751 0.000000
    61 -4.881798 5.609550 1.546659 1.047319 -1.487704 2.076220
    62 3.710045 1.760548 -0.059361 -0.091834 -0.075875 1.616828
    63 12.138049 14.189942 -4.062706 -0.883759 -1.447051 0.272646
end
