// Created by Crowbar 0.56
version 1
nodes
  0 "Bip01" -1
  1 "Bip01 Pelvis" 0
  2 "Bip01 L Thigh" 1
  3 "Bip01 L Calf" 2
  4 "Bip01 L Foot" 3
  5 "Bip01 L Toe0" 4
  6 "Bip01 R Thigh" 1
  7 "Bip01 R Calf" 6
  8 "Bip01 R Foot" 7
  9 "Bip01 R Toe0" 8
  10 "Bip01 Spine" 1
  11 "Bip01 Spine1" 10
  12 "Bip01 Spine2" 11
  13 "Bip01 Spine3" 12
  14 "Bip01 Neck" 13
  15 "Bip01 L Clavicle" 14
  16 "Bip01 L UpperArm" 15
  17 "Bip01 L Forearm" 16
  18 "Bip01 L Hand" 17
  19 "Bip01 L Finger0" 18
  20 "Bip01 L Finger01" 19
  21 "Bip01 L Finger02" 20
  22 "Bip01 L Finger1" 18
  23 "Bip01 L Finger11" 22
  24 "Bip01 L Finger12" 23
  25 "Bip01 L Finger2" 18
  26 "Bip01 L Finger21" 25
  27 "Bip01 L Finger22" 26
  28 "Bip01 L Finger3" 18
  29 "Bip01 L Finger31" 28
  30 "Bip01 L Finger32" 29
  31 "Bip01 L Finger4" 18
  32 "Bip01 L Finger41" 31
  33 "Bip01 L Finger42" 32
  34 "Bip01 R Clavicle" 14
  35 "Bip01 R UpperArm" 34
  36 "Bip01 R Forearm" 35
  37 "Bip01 R Hand" 36
  38 "Bip01 R Finger0" 37
  39 "Bip01 R Finger01" 38
  40 "Bip01 R Finger02" 39
  41 "Bip01 R Finger1" 37
  42 "Bip01 R Finger11" 41
  43 "Bip01 R Finger12" 42
  44 "Bip01 R Finger2" 37
  45 "Bip01 R Finger21" 44
  46 "Bip01 R Finger22" 45
  47 "Bip01 R Finger3" 37
  48 "Bip01 R Finger31" 47
  49 "Bip01 R Finger32" 48
  50 "Bip01 R Finger4" 37
  51 "Bip01 R Finger41" 50
  52 "Bip01 R Finger42" 51
  53 "Bip01 Head" 14
  54 "Bone05" 53
  55 "Dummy05" 53
  56 "L_eyebrow" 55
  57 "C_eyebrow" 55
  58 "R_eyebrow" 55
  59 "R_Eye" 55
  60 "Eyelids" 55
  61 "L_Eye" 55
  62 "m4" 37
  63 "SHOTGUN" 38
end
skeleton
  time 0
    0 -0.005955 -0.268555 -2.576172 -3.141593 1.545413 -4.712389
    1 -9.710938 0.000001 -0.770508 0.000000 -1.570451 -1.570795
    2 -0.000011 0.000010 5.615750 3.141295 0.002282 2.881816
    3 15.693466 0.000000 0.000000 0.000000 0.000000 -0.226034
    4 22.146629 -0.000001 0.000000 0.000000 0.000000 -0.923204
    5 3.310129 5.734395 0.000000 0.000000 0.000000 1.570796
    6 0.000008 -0.000006 -5.615750 -1.911339 0.523967 2.863427
    7 15.693470 0.000000 0.000000 0.000000 0.000000 -1.357101
    8 22.146629 0.000000 0.000000 0.089183 -0.319280 -0.779010
    9 3.310129 5.734395 0.000000 0.000000 0.000000 1.570796
    10 1.384159 -0.004728 0.000002 -0.205830 -0.019670 0.009654
    11 5.939816 -0.004730 0.000000 0.000000 0.000000 0.000000
    12 5.939808 -0.003975 0.000000 0.000000 0.000000 0.000000
    13 4.991440 -0.003975 0.000000 0.000000 0.000000 0.000000
    14 4.991432 -0.001575 0.000000 0.000000 0.000000 0.000000
    15 0.000008 0.001564 3.638375 0.006283 -1.283547 3.132385
    16 8.842831 0.000000 -0.000004 -1.626143 0.837603 -0.078784
    17 9.341934 0.000000 0.000000 0.000000 0.000000 -1.869991
    18 11.168404 -0.000001 0.000004 -1.446957 -0.186767 0.081390
    19 1.364904 0.231174 -1.984411 1.631783 0.615387 0.174303
    20 1.748535 -0.000002 0.000000 0.000000 0.000000 0.000050
    21 1.272493 0.000000 0.000000 0.000000 0.000000 -0.000019
    22 4.525587 -0.000301 -1.850224 0.008623 0.392368 0.107460
    23 1.719875 -0.000004 0.000001 0.000000 0.000000 0.000013
    24 1.383650 0.000004 0.000000 0.000000 0.000000 0.000000
    25 4.525587 -0.000103 -0.616741 0.003540 0.209316 0.105292
    26 1.807671 0.000000 -0.000002 0.000000 0.000000 0.000021
    27 1.614256 0.000000 0.000001 0.000000 0.000000 0.000000
    28 4.525587 0.000103 0.616741 0.001641 0.034926 0.104713
    29 1.719870 0.000000 0.000000 0.000000 0.000000 0.000011
    30 1.383650 -0.000004 0.000000 0.000000 0.000000 0.000000
    31 4.525587 0.000301 1.850224 -0.005659 -0.034504 0.104853
    32 1.433229 0.000000 0.000001 0.000000 0.000000 0.000034
    33 1.153040 0.000000 0.000000 0.000000 0.000000 0.000000
    34 0.000000 0.001585 -3.638375 -0.823103 1.160932 2.360935
    35 8.842832 0.000000 0.000000 1.353518 -0.585018 -0.076713
    36 9.341938 0.000000 -0.000004 0.000000 0.000000 -0.742467
    37 11.168402 -0.000001 -0.000004 1.108272 0.330711 0.040761
    38 1.364901 0.231174 1.984410 -1.337141 -0.577529 -0.342367
    39 1.748535 -0.000002 0.000000 0.000000 0.000000 0.000000
    40 1.272493 0.000000 0.000000 0.000000 0.000000 -0.000021
    41 4.525583 -0.000301 1.850223 -0.008048 -0.095677 0.105008
    42 1.719875 0.000000 0.000000 0.000000 0.000000 0.000017
    43 1.383648 0.000000 0.000000 0.000000 0.000000 0.000000
    44 4.525581 -0.000103 0.616742 -0.010226 -0.051384 0.235804
    45 1.807673 0.000000 0.000000 0.000000 0.000000 0.130869
    46 1.614258 -0.000004 0.000000 0.000000 0.000000 0.130880
    47 4.525578 0.000099 -0.616741 -0.009117 -0.033762 0.322980
    48 1.719872 -0.000004 0.000000 0.000000 0.000000 0.218108
    49 1.383646 0.000004 0.000000 0.000000 0.000000 0.218133
    50 4.525581 0.000301 -1.850223 0.016276 0.030968 0.427753
    51 1.433226 0.000004 0.000000 0.000000 0.000000 0.322851
    52 1.153040 0.000000 0.000000 0.000000 0.000000 0.322848
    53 1.977379 0.000000 0.000000 -0.866465 0.041173 0.011427
    54 3.723976 2.768054 -0.049087 -3.054647 -0.007612 1.657710
    55 11.781860 -0.001184 -0.000003 0.000000 0.000000 0.000000
    56 -3.887192 4.546144 1.934869 0.000000 -1.570796 -3.141591
    57 -4.205009 4.546216 -0.015855 0.000000 -1.570796 -3.141591
    58 -3.887192 4.546178 -1.987145 0.000000 -1.570796 -3.141591
    59 -4.881813 5.593821 -1.566820 1.047344 -1.487696 1.727239
    60 -4.886909 5.683144 -0.007570 3.063127 -1.570751 0.000000
    61 -4.881798 5.609550 1.546659 1.047344 -1.487696 1.727239
    62 3.710045 1.760548 -0.059361 -0.091845 -0.075863 1.616826
    63 12.138049 14.189942 -4.062706 -0.883759 -1.447051 0.272646
  time 1
    0 -0.005955 -0.268555 -2.576172 -3.141593 1.545413 -4.712389
    1 -9.710938 0.000001 -0.770508 0.000000 -1.570451 -1.570795
    2 -0.000011 0.000010 5.615750 3.141295 0.002282 2.881816
    3 15.693466 0.000000 0.000000 0.000000 0.000000 -0.226034
    4 22.146629 -0.000001 0.000000 0.000000 0.000000 -0.923204
    5 3.310129 5.734395 0.000000 0.000000 0.000000 1.570796
    6 0.000008 -0.000006 -5.615750 -1.911339 0.523967 2.863427
    7 15.693470 0.000000 0.000000 0.000000 0.000000 -1.357101
    8 22.146629 0.000000 0.000000 0.089183 -0.319280 -0.779010
    9 3.310129 5.734395 0.000000 0.000000 0.000000 1.570796
    10 1.384159 -0.004728 0.000002 -0.205830 -0.019670 0.009654
    11 5.939816 -0.004730 0.000000 0.000000 0.000000 0.000000
    12 5.939808 -0.003975 0.000000 0.000000 0.000000 0.000000
    13 4.991440 -0.003975 0.000000 0.000000 0.000000 0.000000
    14 4.991432 -0.001575 0.000000 0.000000 0.000000 0.000000
    15 0.000008 0.001564 3.638375 0.006283 -1.283547 3.132385
    16 8.842831 0.000000 -0.000004 -1.626143 0.837603 -0.078784
    17 9.341934 0.000000 0.000000 0.000000 0.000000 -1.869991
    18 11.168404 -0.000001 0.000004 -1.446957 -0.186767 0.081390
    19 1.364904 0.231174 -1.984411 1.631783 0.615387 0.174303
    20 1.748535 -0.000002 0.000000 0.000000 0.000000 0.000050
    21 1.272493 0.000000 0.000000 0.000000 0.000000 -0.000019
    22 4.525587 -0.000301 -1.850224 0.008623 0.392368 0.107460
    23 1.719875 -0.000004 0.000001 0.000000 0.000000 0.000013
    24 1.383650 0.000004 0.000000 0.000000 0.000000 0.000000
    25 4.525587 -0.000103 -0.616741 0.003540 0.209316 0.105292
    26 1.807671 0.000000 -0.000002 0.000000 0.000000 0.000021
    27 1.614256 0.000000 0.000001 0.000000 0.000000 0.000000
    28 4.525587 0.000103 0.616741 0.001641 0.034926 0.104713
    29 1.719870 0.000000 0.000000 0.000000 0.000000 0.000011
    30 1.383650 -0.000004 0.000000 0.000000 0.000000 0.000000
    31 4.525587 0.000301 1.850224 -0.005659 -0.034504 0.104853
    32 1.433229 0.000000 0.000001 0.000000 0.000000 0.000034
    33 1.153040 0.000000 0.000000 0.000000 0.000000 0.000000
    34 0.000000 0.001585 -3.638375 -0.823103 1.160932 2.360935
    35 8.842832 0.000000 0.000000 1.353518 -0.585018 -0.076713
    36 9.341938 0.000000 -0.000004 0.000000 0.000000 -0.742467
    37 11.168402 -0.000001 -0.000004 1.108272 0.330711 0.040761
    38 1.364901 0.231174 1.984410 -1.337141 -0.577529 -0.342367
    39 1.748535 -0.000002 0.000000 0.000000 0.000000 0.000000
    40 1.272493 0.000000 0.000000 0.000000 0.000000 -0.000021
    41 4.525583 -0.000301 1.850223 -0.008048 -0.095677 0.105008
    42 1.719875 0.000000 0.000000 0.000000 0.000000 0.000017
    43 1.383648 0.000000 0.000000 0.000000 0.000000 0.000000
    44 4.525581 -0.000103 0.616742 -0.010226 -0.051384 0.235804
    45 1.807673 0.000000 0.000000 0.000000 0.000000 0.130869
    46 1.614258 -0.000004 0.000000 0.000000 0.000000 0.130880
    47 4.525578 0.000099 -0.616741 -0.009117 -0.033762 0.322980
    48 1.719872 -0.000004 0.000000 0.000000 0.000000 0.218108
    49 1.383646 0.000004 0.000000 0.000000 0.000000 0.218133
    50 4.525581 0.000301 -1.850223 0.016276 0.030968 0.427753
    51 1.433226 0.000004 0.000000 0.000000 0.000000 0.322851
    52 1.153040 0.000000 0.000000 0.000000 0.000000 0.322848
    53 1.977379 0.000000 0.000000 -0.866465 0.041173 0.011427
    54 3.723976 2.768054 -0.049087 -3.054647 -0.007612 1.657710
    55 11.781860 -0.001184 -0.000003 0.000000 0.000000 0.000000
    56 -3.887192 4.546144 1.934869 0.000000 -1.570796 -3.141591
    57 -4.205009 4.546216 -0.015855 0.000000 -1.570796 -3.141591
    58 -3.887192 4.546178 -1.987145 0.000000 -1.570796 -3.141591
    59 -4.881813 5.593821 -1.566820 1.047344 -1.487696 1.727239
    60 -4.886909 5.683144 -0.007570 3.063127 -1.570751 0.000000
    61 -4.881798 5.609550 1.546659 1.047344 -1.487696 1.727239
    62 3.710045 1.760548 -0.059361 -0.091845 -0.075863 1.616826
    63 12.138049 14.189942 -4.062706 -0.883759 -1.447051 0.272646
end
