// Created by Crowbar 0.56
version 1
nodes
  0 "Bip01" -1
  1 "Bip01 Pelvis" 0
  2 "Bip01 L Thigh" 1
  3 "Bip01 L Calf" 2
  4 "Bip01 L Foot" 3
  5 "Bip01 L Toe0" 4
  6 "Bip01 R Thigh" 1
  7 "Bip01 R Calf" 6
  8 "Bip01 R Foot" 7
  9 "Bip01 R Toe0" 8
  10 "Bip01 Spine" 1
  11 "Bip01 Spine1" 10
  12 "Bip01 Spine2" 11
  13 "Bip01 Spine3" 12
  14 "Bip01 Neck" 13
  15 "Bip01 L Clavicle" 14
  16 "Bip01 L UpperArm" 15
  17 "Bip01 L Forearm" 16
  18 "Bip01 L Hand" 17
  19 "Bip01 L Finger0" 18
  20 "Bip01 L Finger01" 19
  21 "Bip01 L Finger02" 20
  22 "Bip01 L Finger1" 18
  23 "Bip01 L Finger11" 22
  24 "Bip01 L Finger12" 23
  25 "Bip01 L Finger2" 18
  26 "Bip01 L Finger21" 25
  27 "Bip01 L Finger22" 26
  28 "Bip01 L Finger3" 18
  29 "Bip01 L Finger31" 28
  30 "Bip01 L Finger32" 29
  31 "Bip01 L Finger4" 18
  32 "Bip01 L Finger41" 31
  33 "Bip01 L Finger42" 32
  34 "Bip01 R Clavicle" 14
  35 "Bip01 R UpperArm" 34
  36 "Bip01 R Forearm" 35
  37 "Bip01 R Hand" 36
  38 "Bip01 R Finger0" 37
  39 "Bip01 R Finger01" 38
  40 "Bip01 R Finger02" 39
  41 "Bip01 R Finger1" 37
  42 "Bip01 R Finger11" 41
  43 "Bip01 R Finger12" 42
  44 "Bip01 R Finger2" 37
  45 "Bip01 R Finger21" 44
  46 "Bip01 R Finger22" 45
  47 "Bip01 R Finger3" 37
  48 "Bip01 R Finger31" 47
  49 "Bip01 R Finger32" 48
  50 "Bip01 R Finger4" 37
  51 "Bip01 R Finger41" 50
  52 "Bip01 R Finger42" 51
  53 "Bip01 Head" 14
  54 "Bone05" 53
  55 "Dummy05" 53
  56 "L_eyebrow" 55
  57 "C_eyebrow" 55
  58 "R_eyebrow" 55
  59 "R_Eye" 55
  60 "Eyelids" 55
  61 "L_Eye" 55
  62 "m4" 37
  63 "SHOTGUN" 38
end
skeleton
  time 0
    0 0.054472 -0.267814 30.355260 0.000000 0.000000 -2.033579
    1 -0.526041 0.000001 9.745319 0.000000 -1.570451 -1.570795
    2 -0.000011 0.000010 5.615750 -3.506475 -0.214160 2.794206
    3 15.693466 0.000000 0.000000 0.000000 0.000000 -0.404520
    4 22.146629 -0.000001 0.000000 -0.238543 -0.065110 0.003873
    5 3.310129 5.734395 0.000000 0.000000 0.000000 1.570796
    6 0.000008 -0.000006 -5.615750 -3.164240 0.133514 3.052402
    7 15.693470 0.000000 0.000000 0.000000 0.000000 -0.363748
    8 22.146629 0.000000 0.000000 0.202792 0.134884 0.276771
    9 3.310129 5.734395 0.000000 0.000000 0.000000 1.570796
    10 1.384159 -0.004728 0.000002 -0.372545 -0.003436 0.086521
    11 5.939816 -0.004730 0.000000 0.000000 0.000000 0.000000
    12 5.939808 -0.003975 0.000000 0.000000 0.000000 0.000000
    13 4.991440 -0.003975 0.000000 0.000000 0.000000 0.000000
    14 4.991432 -0.001575 0.000000 0.000000 0.000000 0.000000
    15 0.000008 0.001564 3.638375 -0.000010 -1.284244 3.140806
    16 8.842831 0.000000 -0.000004 0.526258 0.891898 -0.018138
    17 9.341934 0.000000 0.000000 0.000000 0.000000 -0.371879
    18 11.168404 -0.000001 0.000004 -2.138702 0.019059 -0.231265
    19 1.364904 0.231174 -1.984411 2.310871 0.500559 0.874018
    20 1.748535 -0.000002 0.000000 0.000000 0.000000 0.567192
    21 1.272493 0.000000 0.000000 0.000000 0.000000 0.462441
    22 4.525587 -0.000301 -1.850224 0.079942 0.053264 1.005562
    23 1.719875 -0.000004 0.000001 0.000000 0.000000 0.933662
    24 1.383650 0.000004 0.000000 0.000000 0.000000 0.741679
    25 4.525587 -0.000103 -0.616741 0.043040 0.029872 1.004047
    26 1.807671 0.000000 -0.000002 0.000000 0.000000 0.881282
    27 1.614256 0.000000 0.000001 0.000000 0.000000 0.741755
    28 4.525587 0.000103 0.616741 0.028354 0.020496 1.003706
    29 1.719870 0.000000 0.000000 0.000000 0.000000 0.680587
    30 1.383650 -0.000004 0.000000 0.000000 0.000000 0.741673
    31 4.525587 0.000301 1.850224 -0.030491 -0.017054 1.003725
    32 1.433229 0.000000 0.000001 0.000000 0.000000 0.680599
    33 1.153040 0.000000 0.000000 0.000000 0.000000 0.741671
    34 0.000000 0.001585 -3.638375 -0.000010 1.284244 3.140787
    35 8.842832 0.000000 0.000000 0.532940 -0.732517 -0.600060
    36 9.341938 0.000000 -0.000004 0.000000 0.000000 -2.135369
    37 11.168402 -0.000001 -0.000004 1.872397 0.353798 -0.209492
    38 1.364901 0.231174 1.984410 3.141548 0.005165 1.002275
    39 1.748535 -0.000002 0.000000 0.000000 0.000000 0.436286
    40 1.272493 0.000000 0.000000 0.000000 0.000000 0.322881
    41 4.525583 -0.000301 1.850223 -0.016340 -0.094622 0.192574
    42 1.719875 0.000000 0.000000 0.000000 0.000000 0.034907
    43 1.383648 0.000000 0.000000 0.000000 0.000000 0.689298
    44 4.525581 -0.000103 0.616742 -0.040895 -0.032773 0.934331
    45 1.807673 0.000000 0.000000 0.000000 0.000000 0.907546
    46 1.614258 -0.000004 0.000000 0.000000 0.000000 1.151843
    47 4.525578 0.000099 -0.616741 -0.026857 -0.022402 0.933908
    48 1.719872 -0.000004 0.000000 0.000000 0.000000 0.907546
    49 1.383646 0.000004 0.000000 0.000000 0.000000 1.151882
    50 4.525581 0.000301 -1.850223 0.029257 0.019188 0.933899
    51 1.433226 0.000004 0.000000 0.000000 0.000000 0.907457
    52 1.153040 0.000000 0.000000 0.000000 0.000000 1.151882
    53 1.977379 0.000000 0.000000 0.789814 0.034663 -0.079319
    54 3.723976 2.768054 -0.049087 -3.141592 -0.000002 1.570799
    55 11.781860 -0.001184 -0.000003 0.000000 0.000000 0.000000
    56 -3.887192 4.546144 1.934869 0.000000 -1.570796 -3.141591
    57 -4.205009 4.546216 -0.015855 0.000000 -1.570796 -3.141591
    58 -3.887192 4.546178 -1.987145 0.000000 -1.570796 -3.141591
    59 -4.881813 5.593821 -1.566820 1.047319 -1.487704 2.076220
    60 -4.886909 5.683144 -0.007570 0.000000 -1.570796 -3.132865
    61 -4.881798 5.609550 1.546659 1.047319 -1.487704 2.076220
    62 3.710045 1.760548 -0.059361 -0.091834 -0.075875 1.616828
    63 12.138049 14.189942 -4.062706 -0.883736 -1.447053 0.272608
  time 1
    0 0.054472 -0.267814 30.198447 0.000000 0.000000 -2.033579
    1 -0.526041 0.000001 9.745319 0.000000 -1.570451 -1.570795
    2 -0.000011 0.000010 5.615750 -3.501097 -0.223646 2.769400
    3 15.693466 0.000000 0.000000 0.000000 0.000000 -0.447131
    4 22.146629 -0.000001 0.000000 -0.238506 -0.065407 0.020702
    5 3.310129 5.734395 0.000000 0.000000 0.000000 1.570796
    6 0.000008 -0.000006 -5.615750 -3.167975 0.133421 3.025332
    7 15.693470 0.000000 0.000000 0.000000 0.000000 -0.410714
    8 22.146629 0.000000 0.000000 0.202848 0.135498 0.296853
    9 3.310129 5.734395 0.000000 0.000000 0.000000 1.570796
    10 1.384159 -0.004728 0.000002 -0.372545 -0.003436 0.086521
    11 5.939816 -0.004730 0.000000 0.000000 0.000000 0.000000
    12 5.939808 -0.003975 0.000000 0.000000 0.000000 0.000000
    13 4.991440 -0.003975 0.000000 0.000000 0.000000 0.000000
    14 4.991432 -0.001575 0.000000 0.000000 0.000000 0.000000
    15 0.000008 0.001564 3.638375 -0.000010 -1.284244 3.140806
    16 8.842831 0.000000 -0.000004 0.526258 0.891898 -0.018138
    17 9.341934 0.000000 0.000000 0.000000 0.000000 -0.371879
    18 11.168404 -0.000001 0.000004 -2.138702 0.019059 -0.231265
    19 1.364904 0.231174 -1.984411 2.310871 0.500559 0.874018
    20 1.748535 -0.000002 0.000000 0.000000 0.000000 0.567192
    21 1.272493 0.000000 0.000000 0.000000 0.000000 0.462441
    22 4.525587 -0.000301 -1.850224 0.079942 0.053264 1.005562
    23 1.719875 -0.000004 0.000001 0.000000 0.000000 0.933662
    24 1.383650 0.000004 0.000000 0.000000 0.000000 0.741679
    25 4.525587 -0.000103 -0.616741 0.043040 0.029872 1.004047
    26 1.807671 0.000000 -0.000002 0.000000 0.000000 0.881282
    27 1.614256 0.000000 0.000001 0.000000 0.000000 0.741755
    28 4.525587 0.000103 0.616741 0.028354 0.020496 1.003706
    29 1.719870 0.000000 0.000000 0.000000 0.000000 0.680587
    30 1.383650 -0.000004 0.000000 0.000000 0.000000 0.741673
    31 4.525587 0.000301 1.850224 -0.030491 -0.017054 1.003725
    32 1.433229 0.000000 0.000001 0.000000 0.000000 0.680599
    33 1.153040 0.000000 0.000000 0.000000 0.000000 0.741671
    34 0.000000 0.001585 -3.638375 -0.000010 1.284244 3.140787
    35 8.842832 0.000000 0.000000 0.536807 -0.730276 -0.603777
    36 9.341938 0.000000 -0.000004 0.000000 0.000000 -2.135099
    37 11.168402 -0.000001 -0.000004 1.874168 0.353081 -0.205543
    38 1.364901 0.231174 1.984410 3.141548 0.005165 1.002275
    39 1.748535 -0.000002 0.000000 0.000000 0.000000 0.436286
    40 1.272493 0.000000 0.000000 0.000000 0.000000 0.322881
    41 4.525583 -0.000301 1.850223 -0.016340 -0.094622 0.192574
    42 1.719875 0.000000 0.000000 0.000000 0.000000 0.034907
    43 1.383648 0.000000 0.000000 0.000000 0.000000 0.689338
    44 4.525581 -0.000103 0.616742 -0.040895 -0.032761 0.934331
    45 1.807673 0.000000 0.000000 0.000000 0.000000 0.907546
    46 1.614258 -0.000004 0.000000 0.000000 0.000000 1.151843
    47 4.525578 0.000099 -0.616741 -0.026857 -0.022390 0.933908
    48 1.719872 -0.000004 0.000000 0.000000 0.000000 0.907546
    49 1.383646 0.000004 0.000000 0.000000 0.000000 1.151882
    50 4.525581 0.000301 -1.850223 0.029257 0.019188 0.933899
    51 1.433226 0.000004 0.000000 0.000000 0.000000 0.907457
    52 1.153040 0.000000 0.000000 0.000000 0.000000 1.151882
    53 1.977379 0.000000 0.000000 0.789814 0.034663 -0.079319
    54 3.723976 2.768054 -0.049087 -3.141592 -0.000002 1.570799
    55 11.781860 -0.001184 -0.000003 0.000000 0.000000 0.000000
    56 -3.887192 4.546144 1.934869 0.000000 -1.570796 -3.141591
    57 -4.205009 4.546216 -0.015855 0.000000 -1.570796 -3.141591
    58 -3.887192 4.546178 -1.987145 0.000000 -1.570796 -3.141591
    59 -4.881813 5.593821 -1.566820 1.047319 -1.487704 2.076220
    60 -4.886909 5.683144 -0.007570 0.000000 -1.570796 -3.132865
    61 -4.881798 5.609550 1.546659 1.047319 -1.487704 2.076220
    62 3.710045 1.760548 -0.059361 -0.091834 -0.075875 1.616828
    63 12.138049 14.189942 -4.062706 -0.883736 -1.446972 0.272608
  time 2
    0 0.054472 -0.267814 30.041635 0.000000 0.000000 -2.033579
    1 -0.526041 0.000001 9.745319 0.000000 -1.570451 -1.570795
    2 -0.000011 0.000010 5.615750 -3.496568 -0.231061 2.749842
    3 15.693466 0.000000 0.000000 0.000000 0.000000 -0.480850
    4 22.146629 -0.000001 0.000000 -0.238468 -0.065704 0.033827
    5 3.310129 5.734395 0.000000 0.000000 0.000000 1.570796
    6 0.000008 -0.000006 -5.615750 -3.170756 0.133327 3.004193
    7 15.693470 0.000000 0.000000 0.000000 0.000000 -0.446962
    8 22.146629 0.000000 0.000000 0.202848 0.136020 0.312090
    9 3.310129 5.734395 0.000000 0.000000 0.000000 1.570796
    10 1.384159 -0.004728 0.000002 -0.372545 -0.003436 0.086521
    11 5.939816 -0.004730 0.000000 0.000000 0.000000 0.000000
    12 5.939808 -0.003975 0.000000 0.000000 0.000000 0.000000
    13 4.991440 -0.003975 0.000000 0.000000 0.000000 0.000000
    14 4.991432 -0.001575 0.000000 0.000000 0.000000 0.000000
    15 0.000008 0.001564 3.638375 -0.000010 -1.284244 3.140806
    16 8.842831 0.000000 -0.000004 0.526258 0.891898 -0.018138
    17 9.341934 0.000000 0.000000 0.000000 0.000000 -0.371879
    18 11.168404 -0.000001 0.000004 -2.138702 0.019059 -0.231265
    19 1.364904 0.231174 -1.984411 2.310871 0.500559 0.874018
    20 1.748535 -0.000002 0.000000 0.000000 0.000000 0.567192
    21 1.272493 0.000000 0.000000 0.000000 0.000000 0.462441
    22 4.525587 -0.000301 -1.850224 0.079942 0.053264 1.005562
    23 1.719875 -0.000004 0.000001 0.000000 0.000000 0.933662
    24 1.383650 0.000004 0.000000 0.000000 0.000000 0.741679
    25 4.525587 -0.000103 -0.616741 0.043040 0.029872 1.004047
    26 1.807671 0.000000 -0.000002 0.000000 0.000000 0.881282
    27 1.614256 0.000000 0.000001 0.000000 0.000000 0.741755
    28 4.525587 0.000103 0.616741 0.028354 0.020496 1.003706
    29 1.719870 0.000000 0.000000 0.000000 0.000000 0.680587
    30 1.383650 -0.000004 0.000000 0.000000 0.000000 0.741673
    31 4.525587 0.000301 1.850224 -0.030491 -0.017054 1.003725
    32 1.433229 0.000000 0.000001 0.000000 0.000000 0.680599
    33 1.153040 0.000000 0.000000 0.000000 0.000000 0.741671
    34 0.000000 0.001585 -3.638375 -0.000010 1.284244 3.140787
    35 8.842832 0.000000 0.000000 0.538222 -0.729435 -0.604825
    36 9.341938 0.000000 -0.000004 0.000000 0.000000 -2.135032
    37 11.168402 -0.000001 -0.000004 1.874541 0.352871 -0.204227
    38 1.364901 0.231174 1.984410 3.141548 0.005165 1.002275
    39 1.748535 -0.000002 0.000000 0.000000 0.000000 0.436286
    40 1.272493 0.000000 0.000000 0.000000 0.000000 0.322857
    41 4.525583 -0.000301 1.850223 -0.016340 -0.094622 0.192574
    42 1.719875 0.000000 0.000000 0.000000 0.000000 0.034907
    43 1.383648 0.000000 0.000000 0.000000 0.000000 0.689338
    44 4.525581 -0.000103 0.616742 -0.040895 -0.032761 0.934331
    45 1.807673 0.000000 0.000000 0.000000 0.000000 0.907546
    46 1.614258 -0.000004 0.000000 0.000000 0.000000 1.151843
    47 4.525578 0.000099 -0.616741 -0.026857 -0.022390 0.933908
    48 1.719872 -0.000004 0.000000 0.000000 0.000000 0.907546
    49 1.383646 0.000004 0.000000 0.000000 0.000000 1.151882
    50 4.525581 0.000301 -1.850223 0.029257 0.019188 0.933899
    51 1.433226 0.000004 0.000000 0.000000 0.000000 0.907457
    52 1.153040 0.000000 0.000000 0.000000 0.000000 1.151882
    53 1.977379 0.000000 0.000000 0.789814 0.034663 -0.079319
    54 3.723976 2.768054 -0.049087 -3.141592 -0.000002 1.570799
    55 11.781860 -0.001184 -0.000003 0.000000 0.000000 0.000000
    56 -3.887192 4.546144 1.934869 0.000000 -1.570796 -3.141591
    57 -4.205009 4.546216 -0.015855 0.000000 -1.570796 -3.141591
    58 -3.887192 4.546178 -1.987145 0.000000 -1.570796 -3.141591
    59 -4.881813 5.593821 -1.566820 1.047319 -1.487704 2.076220
    60 -4.886909 5.683144 -0.007570 0.000000 -1.570796 -3.132865
    61 -4.881798 5.609550 1.546659 1.047319 -1.487704 2.076220
    62 3.710045 1.760548 -0.059361 -0.091834 -0.075875 1.616828
    63 12.138049 14.189942 -4.062706 -0.883736 -1.446972 0.272608
  time 3
    0 0.054472 -0.267814 29.924025 0.000000 0.000000 -2.033579
    1 -0.526041 0.000001 9.745319 0.000000 -1.570451 -1.570795
    2 -0.000011 0.000010 5.615750 -3.492793 -0.236694 2.734577
    3 15.693466 0.000000 0.000000 0.000000 0.000000 -0.506886
    4 22.146629 -0.000001 0.000000 -0.238431 -0.065853 0.043979
    5 3.310129 5.734395 0.000000 0.000000 0.000000 1.570796
    6 0.000008 -0.000006 -5.615750 -3.173219 0.133327 2.988027
    7 15.693470 0.000000 0.000000 0.000000 0.000000 -0.474948
    8 22.146629 0.000000 0.000000 0.202961 0.136419 0.324157
    9 3.310129 5.734395 0.000000 0.000000 0.000000 1.570796
    10 1.384159 -0.004728 0.000002 -0.372545 -0.003436 0.086521
    11 5.939816 -0.004730 0.000000 0.000000 0.000000 0.000000
    12 5.939808 -0.003975 0.000000 0.000000 0.000000 0.000000
    13 4.991440 -0.003975 0.000000 0.000000 0.000000 0.000000
    14 4.991432 -0.001575 0.000000 0.000000 0.000000 0.000000
    15 0.000008 0.001564 3.638375 -0.000010 -1.284244 3.140806
    16 8.842831 0.000000 -0.000004 0.526258 0.891898 -0.018138
    17 9.341934 0.000000 0.000000 0.000000 0.000000 -0.371879
    18 11.168404 -0.000001 0.000004 -2.138702 0.019059 -0.231265
    19 1.364904 0.231174 -1.984411 2.310871 0.500559 0.874018
    20 1.748535 -0.000002 0.000000 0.000000 0.000000 0.567192
    21 1.272493 0.000000 0.000000 0.000000 0.000000 0.462441
    22 4.525587 -0.000301 -1.850224 0.079942 0.053264 1.005562
    23 1.719875 -0.000004 0.000001 0.000000 0.000000 0.933662
    24 1.383650 0.000004 0.000000 0.000000 0.000000 0.741679
    25 4.525587 -0.000103 -0.616741 0.043040 0.029872 1.004047
    26 1.807671 0.000000 -0.000002 0.000000 0.000000 0.881282
    27 1.614256 0.000000 0.000001 0.000000 0.000000 0.741755
    28 4.525587 0.000103 0.616741 0.028354 0.020496 1.003706
    29 1.719870 0.000000 0.000000 0.000000 0.000000 0.680587
    30 1.383650 -0.000004 0.000000 0.000000 0.000000 0.741673
    31 4.525587 0.000301 1.850224 -0.030491 -0.017054 1.003725
    32 1.433229 0.000000 0.000001 0.000000 0.000000 0.680599
    33 1.153040 0.000000 0.000000 0.000000 0.000000 0.741671
    34 0.000000 0.001585 -3.638375 -0.000010 1.284244 3.140787
    35 8.842832 0.000000 0.000000 0.536807 -0.730276 -0.603777
    36 9.341938 0.000000 -0.000004 0.000000 0.000000 -2.135099
    37 11.168402 -0.000001 -0.000004 1.874168 0.353081 -0.205449
    38 1.364901 0.231174 1.984410 3.141548 0.005165 1.002275
    39 1.748535 -0.000002 0.000000 0.000000 0.000000 0.436286
    40 1.272493 0.000000 0.000000 0.000000 0.000000 0.322881
    41 4.525583 -0.000301 1.850223 -0.016340 -0.094622 0.192574
    42 1.719875 0.000000 0.000000 0.000000 0.000000 0.034907
    43 1.383648 0.000000 0.000000 0.000000 0.000000 0.689338
    44 4.525581 -0.000103 0.616742 -0.040895 -0.032761 0.934331
    45 1.807673 0.000000 0.000000 0.000000 0.000000 0.907546
    46 1.614258 -0.000004 0.000000 0.000000 0.000000 1.151843
    47 4.525578 0.000099 -0.616741 -0.026857 -0.022402 0.933908
    48 1.719872 -0.000004 0.000000 0.000000 0.000000 0.907546
    49 1.383646 0.000004 0.000000 0.000000 0.000000 1.151882
    50 4.525581 0.000301 -1.850223 0.029257 0.019188 0.933899
    51 1.433226 0.000004 0.000000 0.000000 0.000000 0.907457
    52 1.153040 0.000000 0.000000 0.000000 0.000000 1.151882
    53 1.977379 0.000000 0.000000 0.789814 0.034663 -0.079319
    54 3.723976 2.768054 -0.049087 -3.141592 -0.000002 1.570799
    55 11.781860 -0.001184 -0.000003 0.000000 0.000000 0.000000
    56 -3.887192 4.546144 1.934869 0.000000 -1.570796 -3.141591
    57 -4.205009 4.546216 -0.015855 0.000000 -1.570796 -3.141591
    58 -3.887192 4.546178 -1.987145 0.000000 -1.570796 -3.141591
    59 -4.881813 5.593821 -1.566820 1.047319 -1.487704 2.076220
    60 -4.886909 5.683144 -0.007570 0.000000 -1.570796 -3.132865
    61 -4.881798 5.609550 1.546659 1.047319 -1.487704 2.076220
    62 3.710045 1.760548 -0.059361 -0.091834 -0.075875 1.616828
    63 12.138049 14.189942 -4.062706 -0.883736 -1.447053 0.272608
  time 4
    0 0.054472 -0.267814 29.826017 0.000000 0.000000 -2.033579
    1 -0.526041 0.000001 9.745319 0.000000 -1.570451 -1.570795
    2 -0.000011 0.000010 5.615750 -3.490057 -0.241003 2.722938
    3 15.693466 0.000000 0.000000 0.000000 0.000000 -0.526591
    4 22.146629 -0.000001 0.000000 -0.238394 -0.066051 0.051616
    5 3.310129 5.734395 0.000000 0.000000 0.000000 1.570796
    6 0.000008 -0.000006 -5.615750 -3.174888 0.133140 2.975975
    7 15.693470 0.000000 0.000000 0.000000 0.000000 -0.495863
    8 22.146629 0.000000 0.000000 0.202961 0.136818 0.333053
    9 3.310129 5.734395 0.000000 0.000000 0.000000 1.570796
    10 1.384159 -0.004728 0.000002 -0.372545 -0.003436 0.086521
    11 5.939816 -0.004730 0.000000 0.000000 0.000000 0.000000
    12 5.939808 -0.003975 0.000000 0.000000 0.000000 0.000000
    13 4.991440 -0.003975 0.000000 0.000000 0.000000 0.000000
    14 4.991432 -0.001575 0.000000 0.000000 0.000000 0.000000
    15 0.000008 0.001564 3.638375 -0.000010 -1.284244 3.140806
    16 8.842831 0.000000 -0.000004 0.526258 0.891898 -0.018138
    17 9.341934 0.000000 0.000000 0.000000 0.000000 -0.371879
    18 11.168404 -0.000001 0.000004 -2.138702 0.019059 -0.231265
    19 1.364904 0.231174 -1.984411 2.310871 0.500559 0.874018
    20 1.748535 -0.000002 0.000000 0.000000 0.000000 0.567192
    21 1.272493 0.000000 0.000000 0.000000 0.000000 0.462441
    22 4.525587 -0.000301 -1.850224 0.079942 0.053264 1.005562
    23 1.719875 -0.000004 0.000001 0.000000 0.000000 0.933662
    24 1.383650 0.000004 0.000000 0.000000 0.000000 0.741679
    25 4.525587 -0.000103 -0.616741 0.043040 0.029872 1.004047
    26 1.807671 0.000000 -0.000002 0.000000 0.000000 0.881282
    27 1.614256 0.000000 0.000001 0.000000 0.000000 0.741755
    28 4.525587 0.000103 0.616741 0.028354 0.020496 1.003706
    29 1.719870 0.000000 0.000000 0.000000 0.000000 0.680587
    30 1.383650 -0.000004 0.000000 0.000000 0.000000 0.741673
    31 4.525587 0.000301 1.850224 -0.030491 -0.017054 1.003725
    32 1.433229 0.000000 0.000001 0.000000 0.000000 0.680599
    33 1.153040 0.000000 0.000000 0.000000 0.000000 0.741671
    34 0.000000 0.001585 -3.638375 -0.000010 1.284244 3.140787
    35 8.842832 0.000000 0.000000 0.532845 -0.732587 -0.599965
    36 9.341938 0.000000 -0.000004 0.000000 0.000000 -2.135369
    37 11.168402 -0.000001 -0.000004 1.872397 0.353882 -0.209492
    38 1.364901 0.231174 1.984410 3.141548 0.005165 1.002275
    39 1.748535 -0.000002 0.000000 0.000000 0.000000 0.436286
    40 1.272493 0.000000 0.000000 0.000000 0.000000 0.322857
    41 4.525583 -0.000301 1.850223 -0.016340 -0.094622 0.192574
    42 1.719875 0.000000 0.000000 0.000000 0.000000 0.034907
    43 1.383648 0.000000 0.000000 0.000000 0.000000 0.689338
    44 4.525581 -0.000103 0.616742 -0.040895 -0.032773 0.934331
    45 1.807673 0.000000 0.000000 0.000000 0.000000 0.907546
    46 1.614258 -0.000004 0.000000 0.000000 0.000000 1.151884
    47 4.525578 0.000099 -0.616741 -0.026857 -0.022402 0.933908
    48 1.719872 -0.000004 0.000000 0.000000 0.000000 0.907546
    49 1.383646 0.000004 0.000000 0.000000 0.000000 1.151882
    50 4.525581 0.000301 -1.850223 0.029257 0.019176 0.933899
    51 1.433226 0.000004 0.000000 0.000000 0.000000 0.907457
    52 1.153040 0.000000 0.000000 0.000000 0.000000 1.151882
    53 1.977379 0.000000 0.000000 0.789814 0.034663 -0.079319
    54 3.723976 2.768054 -0.049087 -3.141592 -0.000002 1.570799
    55 11.781860 -0.001184 -0.000003 0.000000 0.000000 0.000000
    56 -3.887192 4.546144 1.934869 0.000000 -1.570796 -3.141591
    57 -4.205009 4.546216 -0.015855 0.000000 -1.570796 -3.141591
    58 -3.887192 4.546178 -1.987145 0.000000 -1.570796 -3.141591
    59 -4.881813 5.593821 -1.566820 1.047319 -1.487704 2.076220
    60 -4.886909 5.683144 -0.007570 0.000000 -1.570796 -3.132865
    61 -4.881798 5.609550 1.546659 1.047319 -1.487704 2.076220
    62 3.710045 1.760548 -0.059361 -0.091846 -0.075875 1.616828
    63 12.138049 14.189942 -4.062706 -0.883736 -1.447053 0.272608
  time 5
    0 0.054472 -0.267814 29.767212 0.000000 0.000000 -2.033579
    1 -0.526041 0.000001 9.745319 0.000000 -1.570451 -1.570795
    2 -0.000011 0.000010 5.615750 -3.488264 -0.243985 2.714733
    3 15.693466 0.000000 0.000000 0.000000 0.000000 -0.540392
    4 22.146629 -0.000001 0.000000 -0.238356 -0.066150 0.056876
    5 3.310129 5.734395 0.000000 0.000000 0.000000 1.570796
    6 0.000008 -0.000006 -5.615750 -3.176080 0.133047 2.967366
    7 15.693470 0.000000 0.000000 0.000000 0.000000 -0.510377
    8 22.146629 0.000000 0.000000 0.203074 0.137002 0.339042
    9 3.310129 5.734395 0.000000 0.000000 0.000000 1.570796
    10 1.384159 -0.004728 0.000002 -0.372545 -0.003436 0.086521
    11 5.939816 -0.004730 0.000000 0.000000 0.000000 0.000000
    12 5.939808 -0.003975 0.000000 0.000000 0.000000 0.000000
    13 4.991440 -0.003975 0.000000 0.000000 0.000000 0.000000
    14 4.991432 -0.001575 0.000000 0.000000 0.000000 0.000000
    15 0.000008 0.001564 3.638375 -0.000010 -1.284244 3.140806
    16 8.842831 0.000000 -0.000004 0.526258 0.891898 -0.018138
    17 9.341934 0.000000 0.000000 0.000000 0.000000 -0.371879
    18 11.168404 -0.000001 0.000004 -2.138702 0.019059 -0.231265
    19 1.364904 0.231174 -1.984411 2.310871 0.500559 0.874018
    20 1.748535 -0.000002 0.000000 0.000000 0.000000 0.567192
    21 1.272493 0.000000 0.000000 0.000000 0.000000 0.462441
    22 4.525587 -0.000301 -1.850224 0.079942 0.053264 1.005562
    23 1.719875 -0.000004 0.000001 0.000000 0.000000 0.933662
    24 1.383650 0.000004 0.000000 0.000000 0.000000 0.741679
    25 4.525587 -0.000103 -0.616741 0.043040 0.029872 1.004047
    26 1.807671 0.000000 -0.000002 0.000000 0.000000 0.881282
    27 1.614256 0.000000 0.000001 0.000000 0.000000 0.741755
    28 4.525587 0.000103 0.616741 0.028354 0.020496 1.003706
    29 1.719870 0.000000 0.000000 0.000000 0.000000 0.680587
    30 1.383650 -0.000004 0.000000 0.000000 0.000000 0.741673
    31 4.525587 0.000301 1.850224 -0.030491 -0.017054 1.003725
    32 1.433229 0.000000 0.000001 0.000000 0.000000 0.680599
    33 1.153040 0.000000 0.000000 0.000000 0.000000 0.741671
    34 0.000000 0.001585 -3.638375 -0.000010 1.284244 3.140787
    35 8.842832 0.000000 0.000000 0.525960 -0.736439 -0.593771
    36 9.341938 0.000000 -0.000004 0.000000 0.000000 -2.135572
    37 11.168402 -0.000001 -0.000004 1.869880 0.355105 -0.215978
    38 1.364901 0.231174 1.984410 3.141548 0.005165 1.002275
    39 1.748535 -0.000002 0.000000 0.000000 0.000000 0.436286
    40 1.272493 0.000000 0.000000 0.000000 0.000000 0.322857
    41 4.525583 -0.000301 1.850223 -0.016340 -0.094622 0.192574
    42 1.719875 0.000000 0.000000 0.000000 0.000000 0.034907
    43 1.383648 0.000000 0.000000 0.000000 0.000000 0.689338
    44 4.525581 -0.000103 0.616742 -0.040895 -0.032761 0.934331
    45 1.807673 0.000000 0.000000 0.000000 0.000000 0.907546
    46 1.614258 -0.000004 0.000000 0.000000 0.000000 1.151843
    47 4.525578 0.000099 -0.616741 -0.026857 -0.022402 0.933908
    48 1.719872 -0.000004 0.000000 0.000000 0.000000 0.907546
    49 1.383646 0.000004 0.000000 0.000000 0.000000 1.151882
    50 4.525581 0.000301 -1.850223 0.029257 0.019188 0.933899
    51 1.433226 0.000004 0.000000 0.000000 0.000000 0.907457
    52 1.153040 0.000000 0.000000 0.000000 0.000000 1.151882
    53 1.977379 0.000000 0.000000 0.789814 0.034663 -0.079319
    54 3.723976 2.768054 -0.049087 -3.141592 -0.000002 1.570799
    55 11.781860 -0.001184 -0.000003 0.000000 0.000000 0.000000
    56 -3.887192 4.546144 1.934869 0.000000 -1.570796 -3.141591
    57 -4.205009 4.546216 -0.015855 0.000000 -1.570796 -3.141591
    58 -3.887192 4.546178 -1.987145 0.000000 -1.570796 -3.141591
    59 -4.881813 5.593821 -1.566820 1.047319 -1.487704 2.076220
    60 -4.886909 5.683144 -0.007570 0.000000 -1.570796 -3.132865
    61 -4.881798 5.609550 1.546659 1.047319 -1.487704 2.076220
    62 3.710045 1.760548 -0.059361 -0.091846 -0.075875 1.616828
    63 12.138049 14.189942 -4.062706 -0.883736 -1.447053 0.272608
  time 6
    0 0.054472 -0.267814 29.728009 0.000000 0.000000 -2.033579
    1 -0.526041 0.000001 9.745319 0.000000 -1.570451 -1.570795
    2 -0.000011 0.000010 5.615750 -3.486943 -0.245808 2.709963
    3 15.693466 0.000000 0.000000 0.000000 0.000000 -0.548430
    4 22.146629 -0.000001 0.000000 -0.238356 -0.066274 0.060077
    5 3.310129 5.734395 0.000000 0.000000 0.000000 1.570796
    6 0.000008 -0.000006 -5.615750 -3.176716 0.133047 2.962393
    7 15.693470 0.000000 0.000000 0.000000 0.000000 -0.519011
    8 22.146629 0.000000 0.000000 0.203074 0.137217 0.342741
    9 3.310129 5.734395 0.000000 0.000000 0.000000 1.570796
    10 1.384159 -0.004728 0.000002 -0.372545 -0.003436 0.086521
    11 5.939816 -0.004730 0.000000 0.000000 0.000000 0.000000
    12 5.939808 -0.003975 0.000000 0.000000 0.000000 0.000000
    13 4.991440 -0.003975 0.000000 0.000000 0.000000 0.000000
    14 4.991432 -0.001575 0.000000 0.000000 0.000000 0.000000
    15 0.000008 0.001564 3.638375 -0.000010 -1.284244 3.140806
    16 8.842831 0.000000 -0.000004 0.526258 0.891898 -0.018138
    17 9.341934 0.000000 0.000000 0.000000 0.000000 -0.371879
    18 11.168404 -0.000001 0.000004 -2.138702 0.019059 -0.231265
    19 1.364904 0.231174 -1.984411 2.310871 0.500559 0.874018
    20 1.748535 -0.000002 0.000000 0.000000 0.000000 0.567192
    21 1.272493 0.000000 0.000000 0.000000 0.000000 0.462441
    22 4.525587 -0.000301 -1.850224 0.079942 0.053264 1.005562
    23 1.719875 -0.000004 0.000001 0.000000 0.000000 0.933662
    24 1.383650 0.000004 0.000000 0.000000 0.000000 0.741679
    25 4.525587 -0.000103 -0.616741 0.043040 0.029872 1.004047
    26 1.807671 0.000000 -0.000002 0.000000 0.000000 0.881282
    27 1.614256 0.000000 0.000001 0.000000 0.000000 0.741755
    28 4.525587 0.000103 0.616741 0.028354 0.020496 1.003706
    29 1.719870 0.000000 0.000000 0.000000 0.000000 0.680587
    30 1.383650 -0.000004 0.000000 0.000000 0.000000 0.741673
    31 4.525587 0.000301 1.850224 -0.030491 -0.017054 1.003725
    32 1.433229 0.000000 0.000001 0.000000 0.000000 0.680599
    33 1.153040 0.000000 0.000000 0.000000 0.000000 0.741671
    34 0.000000 0.001585 -3.638375 -0.000010 1.284244 3.140787
    35 8.842832 0.000000 0.000000 0.516150 -0.741762 -0.584813
    36 9.341938 0.000000 -0.000004 0.000000 0.000000 -2.135910
    37 11.168402 -0.000001 -0.000004 1.866058 0.356706 -0.225285
    38 1.364901 0.231174 1.984410 3.141548 0.005165 1.002275
    39 1.748535 -0.000002 0.000000 0.000000 0.000000 0.436286
    40 1.272493 0.000000 0.000000 0.000000 0.000000 0.322881
    41 4.525583 -0.000301 1.850223 -0.016340 -0.094622 0.192574
    42 1.719875 0.000000 0.000000 0.000000 0.000000 0.034907
    43 1.383648 0.000000 0.000000 0.000000 0.000000 0.689338
    44 4.525581 -0.000103 0.616742 -0.040895 -0.032773 0.934331
    45 1.807673 0.000000 0.000000 0.000000 0.000000 0.907546
    46 1.614258 -0.000004 0.000000 0.000000 0.000000 1.151843
    47 4.525578 0.000099 -0.616741 -0.026857 -0.022402 0.933908
    48 1.719872 -0.000004 0.000000 0.000000 0.000000 0.907546
    49 1.383646 0.000004 0.000000 0.000000 0.000000 1.151882
    50 4.525581 0.000301 -1.850223 0.029257 0.019188 0.933899
    51 1.433226 0.000004 0.000000 0.000000 0.000000 0.907457
    52 1.153040 0.000000 0.000000 0.000000 0.000000 1.151882
    53 1.977379 0.000000 0.000000 0.789814 0.034663 -0.079319
    54 3.723976 2.768054 -0.049087 -3.141592 -0.000002 1.570799
    55 11.781860 -0.001184 -0.000003 0.000000 0.000000 0.000000
    56 -3.887192 4.546144 1.934869 0.000000 -1.570796 -3.141591
    57 -4.205009 4.546216 -0.015855 0.000000 -1.570796 -3.141591
    58 -3.887192 4.546178 -1.987145 0.000000 -1.570796 -3.141591
    59 -4.881813 5.593821 -1.566820 1.047319 -1.487704 2.076220
    60 -4.886909 5.683144 -0.007570 0.000000 -1.570796 -3.132865
    61 -4.881798 5.609550 1.546659 1.047319 -1.487704 2.076220
    62 3.710045 1.760548 -0.059361 -0.091846 -0.075875 1.616828
    63 12.138049 14.189942 -4.062706 -0.883736 -1.447053 0.272608
  time 7
    0 0.054472 -0.267814 29.708407 0.000000 0.000000 -2.033579
    1 -0.526041 0.000001 9.745319 0.000000 -1.570451 -1.570795
    2 -0.000011 0.000010 5.615750 -3.486660 -0.246388 2.708341
    3 15.693466 0.000000 0.000000 0.000000 0.000000 -0.551418
    4 22.146629 -0.000001 0.000000 -0.238356 -0.066274 0.061129
    5 3.310129 5.734395 0.000000 0.000000 0.000000 1.570796
    6 0.000008 -0.000006 -5.615750 -3.176954 0.133047 2.960766
    7 15.693470 0.000000 0.000000 0.000000 0.000000 -0.521765
    8 22.146629 0.000000 0.000000 0.203074 0.137247 0.343886
    9 3.310129 5.734395 0.000000 0.000000 0.000000 1.570796
    10 1.384159 -0.004728 0.000002 -0.372545 -0.003436 0.086521
    11 5.939816 -0.004730 0.000000 0.000000 0.000000 0.000000
    12 5.939808 -0.003975 0.000000 0.000000 0.000000 0.000000
    13 4.991440 -0.003975 0.000000 0.000000 0.000000 0.000000
    14 4.991432 -0.001575 0.000000 0.000000 0.000000 0.000000
    15 0.000008 0.001564 3.638375 -0.000010 -1.284244 3.140806
    16 8.842831 0.000000 -0.000004 0.526258 0.891898 -0.018138
    17 9.341934 0.000000 0.000000 0.000000 0.000000 -0.371879
    18 11.168404 -0.000001 0.000004 -2.138702 0.019059 -0.231265
    19 1.364904 0.231174 -1.984411 2.310871 0.500559 0.874018
    20 1.748535 -0.000002 0.000000 0.000000 0.000000 0.567192
    21 1.272493 0.000000 0.000000 0.000000 0.000000 0.462441
    22 4.525587 -0.000301 -1.850224 0.079942 0.053264 1.005562
    23 1.719875 -0.000004 0.000001 0.000000 0.000000 0.933662
    24 1.383650 0.000004 0.000000 0.000000 0.000000 0.741679
    25 4.525587 -0.000103 -0.616741 0.043040 0.029872 1.004047
    26 1.807671 0.000000 -0.000002 0.000000 0.000000 0.881282
    27 1.614256 0.000000 0.000001 0.000000 0.000000 0.741755
    28 4.525587 0.000103 0.616741 0.028354 0.020496 1.003706
    29 1.719870 0.000000 0.000000 0.000000 0.000000 0.680587
    30 1.383650 -0.000004 0.000000 0.000000 0.000000 0.741673
    31 4.525587 0.000301 1.850224 -0.030491 -0.017054 1.003725
    32 1.433229 0.000000 0.000001 0.000000 0.000000 0.680599
    33 1.153040 0.000000 0.000000 0.000000 0.000000 0.741671
    34 0.000000 0.001585 -3.638375 -0.000010 1.284244 3.140787
    35 8.842832 0.000000 0.000000 0.503604 -0.748485 -0.573283
    36 9.341938 0.000000 -0.000004 0.000000 0.000000 -2.136248
    37 11.168402 -0.000001 -0.000004 1.860931 0.358772 -0.237600
    38 1.364901 0.231174 1.984410 3.141548 0.005165 1.002275
    39 1.748535 -0.000002 0.000000 0.000000 0.000000 0.436286
    40 1.272493 0.000000 0.000000 0.000000 0.000000 0.322881
    41 4.525583 -0.000301 1.850223 -0.016340 -0.094622 0.192574
    42 1.719875 0.000000 0.000000 0.000000 0.000000 0.034907
    43 1.383648 0.000000 0.000000 0.000000 0.000000 0.689338
    44 4.525581 -0.000103 0.616742 -0.040895 -0.032761 0.934331
    45 1.807673 0.000000 0.000000 0.000000 0.000000 0.907546
    46 1.614258 -0.000004 0.000000 0.000000 0.000000 1.151843
    47 4.525578 0.000099 -0.616741 -0.026857 -0.022402 0.933908
    48 1.719872 -0.000004 0.000000 0.000000 0.000000 0.907546
    49 1.383646 0.000004 0.000000 0.000000 0.000000 1.151882
    50 4.525581 0.000301 -1.850223 0.029257 0.019188 0.933899
    51 1.433226 0.000004 0.000000 0.000000 0.000000 0.907457
    52 1.153040 0.000000 0.000000 0.000000 0.000000 1.151882
    53 1.977379 0.000000 0.000000 0.789814 0.034663 -0.079319
    54 3.723976 2.768054 -0.049087 -3.141592 -0.000002 1.570799
    55 11.781860 -0.001184 -0.000003 0.000000 0.000000 0.000000
    56 -3.887192 4.546144 1.934869 0.000000 -1.570796 -3.141591
    57 -4.205009 4.546216 -0.015855 0.000000 -1.570796 -3.141591
    58 -3.887192 4.546178 -1.987145 0.000000 -1.570796 -3.141591
    59 -4.881813 5.593821 -1.566820 1.047319 -1.487704 2.076220
    60 -4.886909 5.683144 -0.007570 0.000000 -1.570796 -3.132865
    61 -4.881798 5.609550 1.546659 1.047319 -1.487704 2.076220
    62 3.710045 1.760548 -0.059361 -0.091834 -0.075875 1.616828
    63 12.138049 14.189942 -4.062706 -0.883736 -1.446972 0.272608
  time 8
    0 0.054472 -0.267814 29.728009 0.000000 0.000000 -2.033579
    1 -0.526041 0.000001 9.745319 0.000000 -1.570451 -1.570795
    2 -0.000011 0.000010 5.615750 -3.487320 -0.245311 2.711203
    3 15.693466 0.000000 0.000000 0.000000 0.000000 -0.546367
    4 22.146629 -0.000001 0.000000 -0.238356 -0.066249 0.059254
    5 3.310129 5.734395 0.000000 0.000000 0.000000 1.570796
    6 0.000008 -0.000006 -5.615750 -3.176636 0.133047 2.963732
    7 15.693470 0.000000 0.000000 0.000000 0.000000 -0.516629
    8 22.146629 0.000000 0.000000 0.203074 0.137155 0.341772
    9 3.310129 5.734395 0.000000 0.000000 0.000000 1.570796
    10 1.384159 -0.004728 0.000002 -0.372545 -0.003436 0.086521
    11 5.939816 -0.004730 0.000000 0.000000 0.000000 0.000000
    12 5.939808 -0.003975 0.000000 0.000000 0.000000 0.000000
    13 4.991440 -0.003975 0.000000 0.000000 0.000000 0.000000
    14 4.991432 -0.001575 0.000000 0.000000 0.000000 0.000000
    15 0.000008 0.001564 3.638375 -0.000010 -1.284244 3.140806
    16 8.842831 0.000000 -0.000004 0.526258 0.891898 -0.018138
    17 9.341934 0.000000 0.000000 0.000000 0.000000 -0.371879
    18 11.168404 -0.000001 0.000004 -2.138702 0.019059 -0.231265
    19 1.364904 0.231174 -1.984411 2.310871 0.500559 0.874018
    20 1.748535 -0.000002 0.000000 0.000000 0.000000 0.567192
    21 1.272493 0.000000 0.000000 0.000000 0.000000 0.462441
    22 4.525587 -0.000301 -1.850224 0.079942 0.053264 1.005562
    23 1.719875 -0.000004 0.000001 0.000000 0.000000 0.933662
    24 1.383650 0.000004 0.000000 0.000000 0.000000 0.741679
    25 4.525587 -0.000103 -0.616741 0.043040 0.029872 1.004047
    26 1.807671 0.000000 -0.000002 0.000000 0.000000 0.881282
    27 1.614256 0.000000 0.000001 0.000000 0.000000 0.741755
    28 4.525587 0.000103 0.616741 0.028354 0.020496 1.003706
    29 1.719870 0.000000 0.000000 0.000000 0.000000 0.680587
    30 1.383650 -0.000004 0.000000 0.000000 0.000000 0.741673
    31 4.525587 0.000301 1.850224 -0.030491 -0.017054 1.003725
    32 1.433229 0.000000 0.000001 0.000000 0.000000 0.680599
    33 1.153040 0.000000 0.000000 0.000000 0.000000 0.741671
    34 0.000000 0.001585 -3.638375 -0.000010 1.284244 3.140787
    35 8.842832 0.000000 0.000000 0.515112 -0.742392 -0.583765
    36 9.341938 0.000000 -0.000004 0.000000 0.000000 -2.135978
    37 11.168402 -0.000001 -0.000004 1.865685 0.356917 -0.226413
    38 1.364901 0.231174 1.984410 3.141548 0.005165 1.002275
    39 1.748535 -0.000002 0.000000 0.000000 0.000000 0.436286
    40 1.272493 0.000000 0.000000 0.000000 0.000000 0.322881
    41 4.525583 -0.000301 1.850223 -0.016340 -0.094622 0.192574
    42 1.719875 0.000000 0.000000 0.000000 0.000000 0.034907
    43 1.383648 0.000000 0.000000 0.000000 0.000000 0.689338
    44 4.525581 -0.000103 0.616742 -0.040895 -0.032761 0.934331
    45 1.807673 0.000000 0.000000 0.000000 0.000000 0.907546
    46 1.614258 -0.000004 0.000000 0.000000 0.000000 1.151843
    47 4.525578 0.000099 -0.616741 -0.026857 -0.022390 0.933908
    48 1.719872 -0.000004 0.000000 0.000000 0.000000 0.907546
    49 1.383646 0.000004 0.000000 0.000000 0.000000 1.151882
    50 4.525581 0.000301 -1.850223 0.029257 0.019188 0.933899
    51 1.433226 0.000004 0.000000 0.000000 0.000000 0.907457
    52 1.153040 0.000000 0.000000 0.000000 0.000000 1.151882
    53 1.977379 0.000000 0.000000 0.789814 0.034663 -0.079319
    54 3.723976 2.768054 -0.049087 -3.141592 -0.000002 1.570799
    55 11.781860 -0.001184 -0.000003 0.000000 0.000000 0.000000
    56 -3.887192 4.546144 1.934869 0.000000 -1.570796 -3.141591
    57 -4.205009 4.546216 -0.015855 0.000000 -1.570796 -3.141591
    58 -3.887192 4.546178 -1.987145 0.000000 -1.570796 -3.141591
    59 -4.881813 5.593821 -1.566820 1.047319 -1.487704 2.076220
    60 -4.886909 5.683144 -0.007570 0.000000 -1.570796 -3.132865
    61 -4.881798 5.609550 1.546659 1.047319 -1.487704 2.076220
    62 3.710045 1.760548 -0.059361 -0.091834 -0.075875 1.616828
    63 12.138049 14.189942 -4.062706 -0.883736 -1.446972 0.272608
  time 9
    0 0.054472 -0.267814 29.806415 0.000000 0.000000 -2.033579
    1 -0.526041 0.000001 9.745319 0.000000 -1.570451 -1.570795
    2 -0.000011 0.000010 5.615750 -3.489208 -0.242452 2.719026
    3 15.693466 0.000000 0.000000 0.000000 0.000000 -0.533065
    4 22.146629 -0.000001 0.000000 -0.238394 -0.066125 0.054132
    5 3.310129 5.734395 0.000000 0.000000 0.000000 1.570796
    6 0.000008 -0.000006 -5.615750 -3.175524 0.133140 2.971862
    7 15.693470 0.000000 0.000000 0.000000 0.000000 -0.502636
    8 22.146629 0.000000 0.000000 0.203074 0.136848 0.335783
    9 3.310129 5.734395 0.000000 0.000000 0.000000 1.570796
    10 1.384159 -0.004728 0.000002 -0.372545 -0.003436 0.086521
    11 5.939816 -0.004730 0.000000 0.000000 0.000000 0.000000
    12 5.939808 -0.003975 0.000000 0.000000 0.000000 0.000000
    13 4.991440 -0.003975 0.000000 0.000000 0.000000 0.000000
    14 4.991432 -0.001575 0.000000 0.000000 0.000000 0.000000
    15 0.000008 0.001564 3.638375 -0.000010 -1.284244 3.140806
    16 8.842831 0.000000 -0.000004 0.526258 0.891898 -0.018138
    17 9.341934 0.000000 0.000000 0.000000 0.000000 -0.371879
    18 11.168404 -0.000001 0.000004 -2.138702 0.019059 -0.231265
    19 1.364904 0.231174 -1.984411 2.310871 0.500559 0.874018
    20 1.748535 -0.000002 0.000000 0.000000 0.000000 0.567192
    21 1.272493 0.000000 0.000000 0.000000 0.000000 0.462441
    22 4.525587 -0.000301 -1.850224 0.079942 0.053264 1.005562
    23 1.719875 -0.000004 0.000001 0.000000 0.000000 0.933662
    24 1.383650 0.000004 0.000000 0.000000 0.000000 0.741679
    25 4.525587 -0.000103 -0.616741 0.043040 0.029872 1.004047
    26 1.807671 0.000000 -0.000002 0.000000 0.000000 0.881282
    27 1.614256 0.000000 0.000001 0.000000 0.000000 0.741755
    28 4.525587 0.000103 0.616741 0.028354 0.020496 1.003706
    29 1.719870 0.000000 0.000000 0.000000 0.000000 0.680587
    30 1.383650 -0.000004 0.000000 0.000000 0.000000 0.741673
    31 4.525587 0.000301 1.850224 -0.030491 -0.017054 1.003725
    32 1.433229 0.000000 0.000001 0.000000 0.000000 0.680599
    33 1.153040 0.000000 0.000000 0.000000 0.000000 0.741671
    34 0.000000 0.001585 -3.638375 -0.000010 1.284244 3.140787
    35 8.842832 0.000000 0.000000 0.522092 -0.738540 -0.590150
    36 9.341938 0.000000 -0.000004 0.000000 0.000000 -2.135707
    37 11.168402 -0.000001 -0.000004 1.868482 0.355695 -0.219833
    38 1.364901 0.231174 1.984410 3.141548 0.005165 1.002275
    39 1.748535 -0.000002 0.000000 0.000000 0.000000 0.436286
    40 1.272493 0.000000 0.000000 0.000000 0.000000 0.322857
    41 4.525583 -0.000301 1.850223 -0.016340 -0.094622 0.192574
    42 1.719875 0.000000 0.000000 0.000000 0.000000 0.034907
    43 1.383648 0.000000 0.000000 0.000000 0.000000 0.689338
    44 4.525581 -0.000103 0.616742 -0.040895 -0.032773 0.934331
    45 1.807673 0.000000 0.000000 0.000000 0.000000 0.907546
    46 1.614258 -0.000004 0.000000 0.000000 0.000000 1.151843
    47 4.525578 0.000099 -0.616741 -0.026857 -0.022402 0.933908
    48 1.719872 -0.000004 0.000000 0.000000 0.000000 0.907546
    49 1.383646 0.000004 0.000000 0.000000 0.000000 1.151882
    50 4.525581 0.000301 -1.850223 0.029257 0.019188 0.933899
    51 1.433226 0.000004 0.000000 0.000000 0.000000 0.907457
    52 1.153040 0.000000 0.000000 0.000000 0.000000 1.151882
    53 1.977379 0.000000 0.000000 0.789814 0.034663 -0.079319
    54 3.723976 2.768054 -0.049087 -3.141592 -0.000002 1.570799
    55 11.781860 -0.001184 -0.000003 0.000000 0.000000 0.000000
    56 -3.887192 4.546144 1.934869 0.000000 -1.570796 -3.141591
    57 -4.205009 4.546216 -0.015855 0.000000 -1.570796 -3.141591
    58 -3.887192 4.546178 -1.987145 0.000000 -1.570796 -3.141591
    59 -4.881813 5.593821 -1.566820 1.047319 -1.487704 2.076220
    60 -4.886909 5.683144 -0.007570 0.000000 -1.570796 -3.132865
    61 -4.881798 5.609550 1.546659 1.047319 -1.487704 2.076220
    62 3.710045 1.760548 -0.059361 -0.091846 -0.075875 1.616828
    63 12.138049 14.189942 -4.062706 -0.883736 -1.447053 0.272608
  time 10
    0 0.054472 -0.267814 29.904423 0.000000 0.000000 -2.033579
    1 -0.526041 0.000001 9.745319 0.000000 -1.570451 -1.570795
    2 -0.000011 0.000010 5.615750 -3.492038 -0.238020 2.730761
    3 15.693466 0.000000 0.000000 0.000000 0.000000 -0.513075
    4 22.146629 -0.000001 0.000000 -0.238431 -0.065952 0.046403
    5 3.310129 5.734395 0.000000 0.000000 0.000000 1.570796
    6 0.000008 -0.000006 -5.615750 -3.173696 0.133140 2.984201
    7 15.693470 0.000000 0.000000 0.000000 0.000000 -0.481349
    8 22.146629 0.000000 0.000000 0.202961 0.136541 0.326799
    9 3.310129 5.734395 0.000000 0.000000 0.000000 1.570796
    10 1.384159 -0.004728 0.000002 -0.372545 -0.003436 0.086521
    11 5.939816 -0.004730 0.000000 0.000000 0.000000 0.000000
    12 5.939808 -0.003975 0.000000 0.000000 0.000000 0.000000
    13 4.991440 -0.003975 0.000000 0.000000 0.000000 0.000000
    14 4.991432 -0.001575 0.000000 0.000000 0.000000 0.000000
    15 0.000008 0.001564 3.638375 -0.000010 -1.284244 3.140806
    16 8.842831 0.000000 -0.000004 0.526258 0.891898 -0.018138
    17 9.341934 0.000000 0.000000 0.000000 0.000000 -0.371879
    18 11.168404 -0.000001 0.000004 -2.138702 0.019059 -0.231265
    19 1.364904 0.231174 -1.984411 2.310871 0.500559 0.874018
    20 1.748535 -0.000002 0.000000 0.000000 0.000000 0.567192
    21 1.272493 0.000000 0.000000 0.000000 0.000000 0.462441
    22 4.525587 -0.000301 -1.850224 0.079942 0.053264 1.005562
    23 1.719875 -0.000004 0.000001 0.000000 0.000000 0.933662
    24 1.383650 0.000004 0.000000 0.000000 0.000000 0.741679
    25 4.525587 -0.000103 -0.616741 0.043040 0.029872 1.004047
    26 1.807671 0.000000 -0.000002 0.000000 0.000000 0.881282
    27 1.614256 0.000000 0.000001 0.000000 0.000000 0.741755
    28 4.525587 0.000103 0.616741 0.028354 0.020496 1.003706
    29 1.719870 0.000000 0.000000 0.000000 0.000000 0.680587
    30 1.383650 -0.000004 0.000000 0.000000 0.000000 0.741673
    31 4.525587 0.000301 1.850224 -0.030491 -0.017054 1.003725
    32 1.433229 0.000000 0.000001 0.000000 0.000000 0.680599
    33 1.153040 0.000000 0.000000 0.000000 0.000000 0.741671
    34 0.000000 0.001585 -3.638375 -0.000010 1.284244 3.140787
    35 8.842832 0.000000 0.000000 0.525865 -0.736439 -0.593676
    36 9.341938 0.000000 -0.000004 0.000000 0.000000 -2.135572
    37 11.168402 -0.000001 -0.000004 1.869880 0.355105 -0.215978
    38 1.364901 0.231174 1.984410 3.141548 0.005165 1.002275
    39 1.748535 -0.000002 0.000000 0.000000 0.000000 0.436286
    40 1.272493 0.000000 0.000000 0.000000 0.000000 0.322881
    41 4.525583 -0.000301 1.850223 -0.016340 -0.094622 0.192574
    42 1.719875 0.000000 0.000000 0.000000 0.000000 0.034907
    43 1.383648 0.000000 0.000000 0.000000 0.000000 0.689338
    44 4.525581 -0.000103 0.616742 -0.040895 -0.032773 0.934331
    45 1.807673 0.000000 0.000000 0.000000 0.000000 0.907546
    46 1.614258 -0.000004 0.000000 0.000000 0.000000 1.151843
    47 4.525578 0.000099 -0.616741 -0.026857 -0.022402 0.933908
    48 1.719872 -0.000004 0.000000 0.000000 0.000000 0.907546
    49 1.383646 0.000004 0.000000 0.000000 0.000000 1.151882
    50 4.525581 0.000301 -1.850223 0.029257 0.019188 0.933899
    51 1.433226 0.000004 0.000000 0.000000 0.000000 0.907457
    52 1.153040 0.000000 0.000000 0.000000 0.000000 1.151882
    53 1.977379 0.000000 0.000000 0.789814 0.034663 -0.079319
    54 3.723976 2.768054 -0.049087 -3.141592 -0.000002 1.570799
    55 11.781860 -0.001184 -0.000003 0.000000 0.000000 0.000000
    56 -3.887192 4.546144 1.934869 0.000000 -1.570796 -3.141591
    57 -4.205009 4.546216 -0.015855 0.000000 -1.570796 -3.141591
    58 -3.887192 4.546178 -1.987145 0.000000 -1.570796 -3.141591
    59 -4.881813 5.593821 -1.566820 1.047319 -1.487704 2.076220
    60 -4.886909 5.683144 -0.007570 0.000000 -1.570796 -3.132865
    61 -4.881798 5.609550 1.546659 1.047319 -1.487704 2.076220
    62 3.710045 1.760548 -0.059361 -0.091834 -0.075875 1.616828
    63 12.138049 14.189942 -4.062706 -0.883736 -1.447053 0.272608
  time 11
    0 0.054472 -0.267814 30.022033 0.000000 0.000000 -2.033579
    1 -0.526041 0.000001 9.745319 0.000000 -1.570451 -1.570795
    2 -0.000011 0.000010 5.615750 -3.495624 -0.232676 2.745454
    3 15.693466 0.000000 0.000000 0.000000 0.000000 -0.488177
    4 22.146629 -0.000001 0.000000 -0.238468 -0.065729 0.036708
    5 3.310129 5.734395 0.000000 0.000000 0.000000 1.570796
    6 0.000008 -0.000006 -5.615750 -3.171551 0.133327 2.999697
    7 15.693470 0.000000 0.000000 0.000000 0.000000 -0.454926
    8 22.146629 0.000000 0.000000 0.202961 0.136142 0.315437
    9 3.310129 5.734395 0.000000 0.000000 0.000000 1.570796
    10 1.384159 -0.004728 0.000002 -0.372545 -0.003436 0.086521
    11 5.939816 -0.004730 0.000000 0.000000 0.000000 0.000000
    12 5.939808 -0.003975 0.000000 0.000000 0.000000 0.000000
    13 4.991440 -0.003975 0.000000 0.000000 0.000000 0.000000
    14 4.991432 -0.001575 0.000000 0.000000 0.000000 0.000000
    15 0.000008 0.001564 3.638375 -0.000010 -1.284244 3.140806
    16 8.842831 0.000000 -0.000004 0.526258 0.891898 -0.018138
    17 9.341934 0.000000 0.000000 0.000000 0.000000 -0.371879
    18 11.168404 -0.000001 0.000004 -2.138702 0.019059 -0.231265
    19 1.364904 0.231174 -1.984411 2.310871 0.500559 0.874018
    20 1.748535 -0.000002 0.000000 0.000000 0.000000 0.567192
    21 1.272493 0.000000 0.000000 0.000000 0.000000 0.462441
    22 4.525587 -0.000301 -1.850224 0.079942 0.053264 1.005562
    23 1.719875 -0.000004 0.000001 0.000000 0.000000 0.933662
    24 1.383650 0.000004 0.000000 0.000000 0.000000 0.741679
    25 4.525587 -0.000103 -0.616741 0.043040 0.029872 1.004047
    26 1.807671 0.000000 -0.000002 0.000000 0.000000 0.881282
    27 1.614256 0.000000 0.000001 0.000000 0.000000 0.741755
    28 4.525587 0.000103 0.616741 0.028354 0.020496 1.003706
    29 1.719870 0.000000 0.000000 0.000000 0.000000 0.680587
    30 1.383650 -0.000004 0.000000 0.000000 0.000000 0.741673
    31 4.525587 0.000301 1.850224 -0.030491 -0.017054 1.003725
    32 1.433229 0.000000 0.000001 0.000000 0.000000 0.680599
    33 1.153040 0.000000 0.000000 0.000000 0.000000 0.741671
    34 0.000000 0.001585 -3.638375 -0.000010 1.284244 3.140787
    35 8.842832 0.000000 0.000000 0.527657 -0.735318 -0.595296
    36 9.341938 0.000000 -0.000004 0.000000 0.000000 -2.135572
    37 11.168402 -0.000001 -0.000004 1.870626 0.354767 -0.214286
    38 1.364901 0.231174 1.984410 3.141548 0.005165 1.002275
    39 1.748535 -0.000002 0.000000 0.000000 0.000000 0.436286
    40 1.272493 0.000000 0.000000 0.000000 0.000000 0.322857
    41 4.525583 -0.000301 1.850223 -0.016340 -0.094622 0.192574
    42 1.719875 0.000000 0.000000 0.000000 0.000000 0.034907
    43 1.383648 0.000000 0.000000 0.000000 0.000000 0.689338
    44 4.525581 -0.000103 0.616742 -0.040895 -0.032773 0.934331
    45 1.807673 0.000000 0.000000 0.000000 0.000000 0.907546
    46 1.614258 -0.000004 0.000000 0.000000 0.000000 1.151843
    47 4.525578 0.000099 -0.616741 -0.026857 -0.022402 0.933908
    48 1.719872 -0.000004 0.000000 0.000000 0.000000 0.907546
    49 1.383646 0.000004 0.000000 0.000000 0.000000 1.151882
    50 4.525581 0.000301 -1.850223 0.029257 0.019188 0.933899
    51 1.433226 0.000004 0.000000 0.000000 0.000000 0.907457
    52 1.153040 0.000000 0.000000 0.000000 0.000000 1.151882
    53 1.977379 0.000000 0.000000 0.789814 0.034663 -0.079319
    54 3.723976 2.768054 -0.049087 -3.141592 -0.000002 1.570799
    55 11.781860 -0.001184 -0.000003 0.000000 0.000000 0.000000
    56 -3.887192 4.546144 1.934869 0.000000 -1.570796 -3.141591
    57 -4.205009 4.546216 -0.015855 0.000000 -1.570796 -3.141591
    58 -3.887192 4.546178 -1.987145 0.000000 -1.570796 -3.141591
    59 -4.881813 5.593821 -1.566820 1.047319 -1.487704 2.076220
    60 -4.886909 5.683144 -0.007570 0.000000 -1.570796 -3.132865
    61 -4.881798 5.609550 1.546659 1.047319 -1.487704 2.076220
    62 3.710045 1.760548 -0.059361 -0.091834 -0.075875 1.616828
    63 12.138049 14.189942 -4.062706 -0.883736 -1.447053 0.272608
  time 12
    0 0.054472 -0.267814 30.139643 0.000000 0.000000 -2.033579
    1 -0.526041 0.000001 9.745319 0.000000 -1.570451 -1.570795
    2 -0.000011 0.000010 5.615750 -3.499210 -0.226421 2.761863
    3 15.693466 0.000000 0.000000 0.000000 0.000000 -0.460149
    4 22.146629 -0.000001 0.000000 -0.238506 -0.065531 0.025778
    5 3.310129 5.734395 0.000000 0.000000 0.000000 1.570796
    6 0.000008 -0.000006 -5.615750 -3.169087 0.133421 3.017106
    7 15.693470 0.000000 0.000000 0.000000 0.000000 -0.424707
    8 22.146629 0.000000 0.000000 0.202848 0.135713 0.302666
    9 3.310129 5.734395 0.000000 0.000000 0.000000 1.570796
    10 1.384159 -0.004728 0.000002 -0.372545 -0.003436 0.086521
    11 5.939816 -0.004730 0.000000 0.000000 0.000000 0.000000
    12 5.939808 -0.003975 0.000000 0.000000 0.000000 0.000000
    13 4.991440 -0.003975 0.000000 0.000000 0.000000 0.000000
    14 4.991432 -0.001575 0.000000 0.000000 0.000000 0.000000
    15 0.000008 0.001564 3.638375 -0.000010 -1.284244 3.140806
    16 8.842831 0.000000 -0.000004 0.526258 0.891898 -0.018138
    17 9.341934 0.000000 0.000000 0.000000 0.000000 -0.371879
    18 11.168404 -0.000001 0.000004 -2.138702 0.019059 -0.231265
    19 1.364904 0.231174 -1.984411 2.310871 0.500559 0.874018
    20 1.748535 -0.000002 0.000000 0.000000 0.000000 0.567192
    21 1.272493 0.000000 0.000000 0.000000 0.000000 0.462441
    22 4.525587 -0.000301 -1.850224 0.079942 0.053264 1.005562
    23 1.719875 -0.000004 0.000001 0.000000 0.000000 0.933662
    24 1.383650 0.000004 0.000000 0.000000 0.000000 0.741679
    25 4.525587 -0.000103 -0.616741 0.043040 0.029872 1.004047
    26 1.807671 0.000000 -0.000002 0.000000 0.000000 0.881282
    27 1.614256 0.000000 0.000001 0.000000 0.000000 0.741755
    28 4.525587 0.000103 0.616741 0.028354 0.020496 1.003706
    29 1.719870 0.000000 0.000000 0.000000 0.000000 0.680587
    30 1.383650 -0.000004 0.000000 0.000000 0.000000 0.741673
    31 4.525587 0.000301 1.850224 -0.030491 -0.017054 1.003725
    32 1.433229 0.000000 0.000001 0.000000 0.000000 0.680599
    33 1.153040 0.000000 0.000000 0.000000 0.000000 0.741671
    34 0.000000 0.001585 -3.638375 -0.000010 1.284244 3.140787
    35 8.842832 0.000000 0.000000 0.528789 -0.734758 -0.596058
    36 9.341938 0.000000 -0.000004 0.000000 0.000000 -2.135572
    37 11.168402 -0.000001 -0.000004 1.870719 0.354599 -0.213440
    38 1.364901 0.231174 1.984410 3.141548 0.005165 1.002275
    39 1.748535 -0.000002 0.000000 0.000000 0.000000 0.436286
    40 1.272493 0.000000 0.000000 0.000000 0.000000 0.322857
    41 4.525583 -0.000301 1.850223 -0.016340 -0.094622 0.192574
    42 1.719875 0.000000 0.000000 0.000000 0.000000 0.034907
    43 1.383648 0.000000 0.000000 0.000000 0.000000 0.689338
    44 4.525581 -0.000103 0.616742 -0.040895 -0.032773 0.934331
    45 1.807673 0.000000 0.000000 0.000000 0.000000 0.907546
    46 1.614258 -0.000004 0.000000 0.000000 0.000000 1.151843
    47 4.525578 0.000099 -0.616741 -0.026857 -0.022402 0.933908
    48 1.719872 -0.000004 0.000000 0.000000 0.000000 0.907546
    49 1.383646 0.000004 0.000000 0.000000 0.000000 1.151882
    50 4.525581 0.000301 -1.850223 0.029257 0.019188 0.933899
    51 1.433226 0.000004 0.000000 0.000000 0.000000 0.907457
    52 1.153040 0.000000 0.000000 0.000000 0.000000 1.151882
    53 1.977379 0.000000 0.000000 0.789814 0.034663 -0.079319
    54 3.723976 2.768054 -0.049087 -3.141592 -0.000002 1.570799
    55 11.781860 -0.001184 -0.000003 0.000000 0.000000 0.000000
    56 -3.887192 4.546144 1.934869 0.000000 -1.570796 -3.141591
    57 -4.205009 4.546216 -0.015855 0.000000 -1.570796 -3.141591
    58 -3.887192 4.546178 -1.987145 0.000000 -1.570796 -3.141591
    59 -4.881813 5.593821 -1.566820 1.047319 -1.487704 2.076220
    60 -4.886909 5.683144 -0.007570 0.000000 -1.570796 -3.132865
    61 -4.881798 5.609550 1.546659 1.047319 -1.487704 2.076220
    62 3.710045 1.760548 -0.059361 -0.091846 -0.075875 1.616828
    63 12.138049 14.189942 -4.062706 -0.883736 -1.447053 0.272608
  time 13
    0 0.054472 -0.267814 30.257252 0.000000 0.000000 -2.033579
    1 -0.526041 0.000001 9.745319 0.000000 -1.570451 -1.570795
    2 -0.000011 0.000010 5.615750 -3.502984 -0.220125 2.778655
    3 15.693466 0.000000 0.000000 0.000000 0.000000 -0.431267
    4 22.146629 -0.000001 0.000000 -0.238543 -0.065308 0.014437
    5 3.310129 5.734395 0.000000 0.000000 0.000000 1.570796
    6 0.000008 -0.000006 -5.615750 -3.166544 0.133421 3.035376
    7 15.693470 0.000000 0.000000 0.000000 0.000000 -0.393446
    8 22.146629 0.000000 0.000000 0.202792 0.135191 0.289278
    9 3.310129 5.734395 0.000000 0.000000 0.000000 1.570796
    10 1.384159 -0.004728 0.000002 -0.372545 -0.003436 0.086521
    11 5.939816 -0.004730 0.000000 0.000000 0.000000 0.000000
    12 5.939808 -0.003975 0.000000 0.000000 0.000000 0.000000
    13 4.991440 -0.003975 0.000000 0.000000 0.000000 0.000000
    14 4.991432 -0.001575 0.000000 0.000000 0.000000 0.000000
    15 0.000008 0.001564 3.638375 -0.000010 -1.284244 3.140806
    16 8.842831 0.000000 -0.000004 0.526258 0.891898 -0.018138
    17 9.341934 0.000000 0.000000 0.000000 0.000000 -0.371879
    18 11.168404 -0.000001 0.000004 -2.138702 0.019059 -0.231265
    19 1.364904 0.231174 -1.984411 2.310871 0.500559 0.874018
    20 1.748535 -0.000002 0.000000 0.000000 0.000000 0.567192
    21 1.272493 0.000000 0.000000 0.000000 0.000000 0.462441
    22 4.525587 -0.000301 -1.850224 0.079942 0.053264 1.005562
    23 1.719875 -0.000004 0.000001 0.000000 0.000000 0.933662
    24 1.383650 0.000004 0.000000 0.000000 0.000000 0.741679
    25 4.525587 -0.000103 -0.616741 0.043040 0.029872 1.004047
    26 1.807671 0.000000 -0.000002 0.000000 0.000000 0.881282
    27 1.614256 0.000000 0.000001 0.000000 0.000000 0.741755
    28 4.525587 0.000103 0.616741 0.028354 0.020496 1.003706
    29 1.719870 0.000000 0.000000 0.000000 0.000000 0.680587
    30 1.383650 -0.000004 0.000000 0.000000 0.000000 0.741673
    31 4.525587 0.000301 1.850224 -0.030491 -0.017054 1.003725
    32 1.433229 0.000000 0.000001 0.000000 0.000000 0.680599
    33 1.153040 0.000000 0.000000 0.000000 0.000000 0.741671
    34 0.000000 0.001585 -3.638375 -0.000010 1.284244 3.140787
    35 8.842832 0.000000 0.000000 0.529921 -0.734198 -0.597392
    36 9.341938 0.000000 -0.000004 0.000000 0.000000 -2.135437
    37 11.168402 -0.000001 -0.000004 1.871558 0.354346 -0.212124
    38 1.364901 0.231174 1.984410 3.141548 0.005165 1.002275
    39 1.748535 -0.000002 0.000000 0.000000 0.000000 0.436286
    40 1.272493 0.000000 0.000000 0.000000 0.000000 0.322881
    41 4.525583 -0.000301 1.850223 -0.016340 -0.094622 0.192574
    42 1.719875 0.000000 0.000000 0.000000 0.000000 0.034907
    43 1.383648 0.000000 0.000000 0.000000 0.000000 0.689338
    44 4.525581 -0.000103 0.616742 -0.040895 -0.032773 0.934331
    45 1.807673 0.000000 0.000000 0.000000 0.000000 0.907546
    46 1.614258 -0.000004 0.000000 0.000000 0.000000 1.151843
    47 4.525578 0.000099 -0.616741 -0.026857 -0.022402 0.933908
    48 1.719872 -0.000004 0.000000 0.000000 0.000000 0.907546
    49 1.383646 0.000004 0.000000 0.000000 0.000000 1.151882
    50 4.525581 0.000301 -1.850223 0.029257 0.019188 0.933899
    51 1.433226 0.000004 0.000000 0.000000 0.000000 0.907457
    52 1.153040 0.000000 0.000000 0.000000 0.000000 1.151882
    53 1.977379 0.000000 0.000000 0.789814 0.034663 -0.079319
    54 3.723976 2.768054 -0.049087 -3.141592 -0.000002 1.570799
    55 11.781860 -0.001184 -0.000003 0.000000 0.000000 0.000000
    56 -3.887192 4.546144 1.934869 0.000000 -1.570796 -3.141591
    57 -4.205009 4.546216 -0.015855 0.000000 -1.570796 -3.141591
    58 -3.887192 4.546178 -1.987145 0.000000 -1.570796 -3.141591
    59 -4.881813 5.593821 -1.566820 1.047319 -1.487704 2.076220
    60 -4.886909 5.683144 -0.007570 0.000000 -1.570796 -3.132865
    61 -4.881798 5.609550 1.546659 1.047319 -1.487704 2.076220
    62 3.710045 1.760548 -0.059361 -0.091834 -0.075875 1.616828
    63 12.138049 14.189942 -4.062706 -0.883736 -1.447053 0.272608
  time 14
    0 0.054472 -0.267814 30.355260 0.000000 0.000000 -2.033579
    1 -0.526041 0.000001 9.745319 0.000000 -1.570451 -1.570795
    2 -0.000011 0.000010 5.615750 -3.506475 -0.214160 2.794206
    3 15.693466 0.000000 0.000000 0.000000 0.000000 -0.404520
    4 22.146629 -0.000001 0.000000 -0.238543 -0.065110 0.003873
    5 3.310129 5.734395 0.000000 0.000000 0.000000 1.570796
    6 0.000008 -0.000006 -5.615750 -3.164240 0.133514 3.052402
    7 15.693470 0.000000 0.000000 0.000000 0.000000 -0.363748
    8 22.146629 0.000000 0.000000 0.202792 0.134884 0.276771
    9 3.310129 5.734395 0.000000 0.000000 0.000000 1.570796
    10 1.384159 -0.004728 0.000002 -0.372545 -0.003436 0.086521
    11 5.939816 -0.004730 0.000000 0.000000 0.000000 0.000000
    12 5.939808 -0.003975 0.000000 0.000000 0.000000 0.000000
    13 4.991440 -0.003975 0.000000 0.000000 0.000000 0.000000
    14 4.991432 -0.001575 0.000000 0.000000 0.000000 0.000000
    15 0.000008 0.001564 3.638375 -0.000010 -1.284244 3.140806
    16 8.842831 0.000000 -0.000004 0.526258 0.891898 -0.018138
    17 9.341934 0.000000 0.000000 0.000000 0.000000 -0.371879
    18 11.168404 -0.000001 0.000004 -2.138702 0.019059 -0.231265
    19 1.364904 0.231174 -1.984411 2.310871 0.500559 0.874018
    20 1.748535 -0.000002 0.000000 0.000000 0.000000 0.567192
    21 1.272493 0.000000 0.000000 0.000000 0.000000 0.462441
    22 4.525587 -0.000301 -1.850224 0.079942 0.053264 1.005562
    23 1.719875 -0.000004 0.000001 0.000000 0.000000 0.933662
    24 1.383650 0.000004 0.000000 0.000000 0.000000 0.741679
    25 4.525587 -0.000103 -0.616741 0.043040 0.029872 1.004047
    26 1.807671 0.000000 -0.000002 0.000000 0.000000 0.881282
    27 1.614256 0.000000 0.000001 0.000000 0.000000 0.741755
    28 4.525587 0.000103 0.616741 0.028354 0.020496 1.003706
    29 1.719870 0.000000 0.000000 0.000000 0.000000 0.680587
    30 1.383650 -0.000004 0.000000 0.000000 0.000000 0.741673
    31 4.525587 0.000301 1.850224 -0.030491 -0.017054 1.003725
    32 1.433229 0.000000 0.000001 0.000000 0.000000 0.680599
    33 1.153040 0.000000 0.000000 0.000000 0.000000 0.741671
    34 0.000000 0.001585 -3.638375 -0.000010 1.284244 3.140787
    35 8.842832 0.000000 0.000000 0.532940 -0.732517 -0.600060
    36 9.341938 0.000000 -0.000004 0.000000 0.000000 -2.135369
    37 11.168402 -0.000001 -0.000004 1.872397 0.353798 -0.209492
    38 1.364901 0.231174 1.984410 3.141548 0.005165 1.002275
    39 1.748535 -0.000002 0.000000 0.000000 0.000000 0.436286
    40 1.272493 0.000000 0.000000 0.000000 0.000000 0.322881
    41 4.525583 -0.000301 1.850223 -0.016340 -0.094622 0.192574
    42 1.719875 0.000000 0.000000 0.000000 0.000000 0.034907
    43 1.383648 0.000000 0.000000 0.000000 0.000000 0.689298
    44 4.525581 -0.000103 0.616742 -0.040895 -0.032773 0.934331
    45 1.807673 0.000000 0.000000 0.000000 0.000000 0.907546
    46 1.614258 -0.000004 0.000000 0.000000 0.000000 1.151843
    47 4.525578 0.000099 -0.616741 -0.026857 -0.022402 0.933908
    48 1.719872 -0.000004 0.000000 0.000000 0.000000 0.907546
    49 1.383646 0.000004 0.000000 0.000000 0.000000 1.151882
    50 4.525581 0.000301 -1.850223 0.029257 0.019188 0.933899
    51 1.433226 0.000004 0.000000 0.000000 0.000000 0.907457
    52 1.153040 0.000000 0.000000 0.000000 0.000000 1.151882
    53 1.977379 0.000000 0.000000 0.789814 0.034663 -0.079319
    54 3.723976 2.768054 -0.049087 -3.141592 -0.000002 1.570799
    55 11.781860 -0.001184 -0.000003 0.000000 0.000000 0.000000
    56 -3.887192 4.546144 1.934869 0.000000 -1.570796 -3.141591
    57 -4.205009 4.546216 -0.015855 0.000000 -1.570796 -3.141591
    58 -3.887192 4.546178 -1.987145 0.000000 -1.570796 -3.141591
    59 -4.881813 5.593821 -1.566820 1.047319 -1.487704 2.076220
    60 -4.886909 5.683144 -0.007570 0.000000 -1.570796 -3.132865
    61 -4.881798 5.609550 1.546659 1.047319 -1.487704 2.076220
    62 3.710045 1.760548 -0.059361 -0.091834 -0.075875 1.616828
    63 12.138049 14.189942 -4.062706 -0.883736 -1.447053 0.272608
end
