// Created by Crowbar 0.64
version 1
nodes
  0 "Rig_Buggy.Frame" -1
  1 "Rig_Buggy.Shock_RR_Sleeve" 0
  2 "Rig_Buggy.Shock_FR_Sleeve" 0
  3 "Rig_Buggy.Axel_RR" 0
  4 "Rig_Buggy.Wheel_RR" 3
  5 "Rig_Buggy.Shock_RR_Piston" 3
  6 "Rig_Buggy.Axel_RL" 0
  7 "Rig_Buggy.Wheel_RL" 6
  8 "Rig_Buggy.Shock_RL_Piston" 6
  9 "Rig_Buggy.Shock_RL_Sleeve" 0
  10 "Rig_Buggy.view" 0
  11 "Rig_Buggy.Speedo" 0
  12 "Rig_Buggy.Speedo2" 0
  13 "Rig_Buggy.Wheel_FR_Turn_parent" 0
  14 "Rig_Buggy.Wheel_FR_Turn" 13
  15 "Rig_Buggy.Wheel_FR_Rotate" 14
  16 "Rig_Buggy.Shock_FR_Piston" 13
  17 "Rig_Buggy.FR_Top_Strut" 13
  18 "Rig_Buggy.Wheel_FL_Turn_parent" 0
  19 "Rig_Buggy.Wheel_FL_Turn" 18
  20 "Rig_Buggy.Wheel_FL_Rotate" 19
  21 "Rig_Buggy.Shock_FL_Piston" 18
  22 "Rig_Buggy.FL_Top_Suspension" 18
  23 "Rig_Buggy.air_filter" 0
  24 "Rig_Buggy.Shock_FL_Sleeve" 0
  25 "Rig_Buggy.Steer_Wheel" 0
  26 "Rig_Buggy.FR_Top_Strut_Base" 0
  27 "Rig_Buggy.FL_Body_Top_Suspension" 0
end
skeleton
  time 0
    0 -35.468750 -0.000003 34.031250 1.570755 0.009055 1.561741
    1 -23.022341 8.405320 -65.041862 0.120270 -0.201462 -1.763966
    2 -21.389791 8.021282 83.477676 -0.221512 -0.049892 2.782876
    3 0.000008 -14.372050 -51.954159 3.141593 -0.000001 -3.141593
    4 38.362362 0.000018 0.339007 3.141593 0.000001 3.141593
    5 28.925760 -7.402312 6.807235 3.052291 -0.241637 1.772380
    6 0.000008 -14.372050 -52.293156 0.000000 0.000000 0.000000
    7 35.839706 0.000001 -0.000001 3.141593 -0.000001 -3.141593
    8 28.925745 -7.402332 -6.468227 -0.033641 0.241784 1.760030
    9 23.022341 8.405320 -65.041862 0.027720 -0.201461 -1.377627
    10 0.000139 100.950338 -9.509495 0.000000 -1.570796 -1.570796
    11 30.007692 16.053953 38.950901 -0.441243 0.419923 0.485674
    12 29.891632 12.032869 41.798649 -0.439428 0.294286 0.265484
    13 -38.465004 -17.402895 77.096237 0.000000 0.000000 0.000000
    14 0.500000 0.000000 0.000001 0.000000 0.000000 0.000000
    15 -0.500000 0.000000 0.000001 0.000000 0.000000 0.000000
    16 6.146599 -2.756694 -0.416732 0.233571 0.296338 -0.300251
    17 3.986370 7.728779 -0.008186 0.000112 -0.013257 0.479219
    18 38.465004 -17.402927 77.096237 3.141593 0.000001 3.141593
    19 0.500001 0.000000 0.000000 0.000000 0.000000 0.000000
    20 0.000001 0.000000 0.000000 0.000000 0.000000 0.000000
    21 6.146630 -2.756808 0.416379 -2.890300 0.224569 2.843418
    22 3.986371 7.728779 0.008185 2.812332 0.099986 0.479220
    23 0.243564 10.541042 72.466728 0.100053 0.000000 0.000000
    24 21.459555 8.754425 83.556168 -2.920017 0.149510 0.392799
    25 17.475136 6.636702 27.314850 -1.168280 0.000000 0.000000
    26 -18.317291 -1.276392 77.329521 0.051084 -0.013257 0.479219
    27 18.317289 -1.276392 78.915184 1.509612 0.099986 -0.479220
  time 1
    0 -35.468750 -0.000003 34.031250 1.570755 0.009055 1.561741
    1 -23.022341 8.405320 -65.041862 0.120270 -0.201462 -1.763966
    2 -21.389791 8.021282 83.477676 -0.221512 -0.049892 2.782876
    3 0.000008 -14.372050 -51.954159 3.141593 -0.000001 -3.141593
    4 38.362362 0.000018 0.339007 3.141593 0.000001 3.141593
    5 28.925760 -7.402312 6.807235 3.052291 -0.241637 1.772380
    6 0.000008 -14.372050 -52.293156 0.000000 0.000000 0.000000
    7 35.839706 0.000001 -0.000001 3.141593 -0.000001 -3.141593
    8 28.925745 -7.402332 -6.468227 -0.033641 0.241784 1.760030
    9 23.022341 8.405320 -65.041862 0.027720 -0.201461 -1.377627
    10 0.004045 100.899555 -9.338226 -0.781180 -1.569093 -0.789112
    11 30.007692 16.053953 38.950901 -0.441243 0.419923 0.485674
    12 29.891632 12.032869 41.798649 -0.439428 0.294286 0.265484
    13 -38.465004 -17.402895 77.096237 0.000000 0.000000 0.000000
    14 0.500000 0.000000 0.000001 0.000000 0.000000 0.000000
    15 -0.500000 0.000000 0.000001 0.000000 0.000000 0.000000
    16 6.146599 -2.756694 -0.416732 0.233571 0.296338 -0.300251
    17 3.986370 7.728779 -0.008186 0.000112 -0.013257 0.479219
    18 38.465004 -17.402927 77.096237 3.141593 0.000001 3.141593
    19 0.500001 0.000000 0.000000 0.000000 0.000000 0.000000
    20 0.000001 0.000000 0.000000 0.000000 0.000000 0.000000
    21 6.146630 -2.756808 0.416379 -2.890300 0.224569 2.843418
    22 3.986371 7.728779 0.008185 2.812332 0.099986 0.479220
    23 0.243564 10.541042 72.466728 0.100053 0.000000 0.000000
    24 21.459555 8.754425 83.556168 -2.920017 0.149510 0.392799
    25 17.475136 6.636702 27.314850 -1.168280 0.000000 0.000000
    26 -18.317291 -1.276392 77.329521 0.051084 -0.013257 0.479219
    27 18.317289 -1.276392 78.915184 1.509612 0.099986 -0.479220
  time 2
    0 -35.468750 -0.000003 34.031250 1.570755 0.009055 1.561741
    1 -23.022341 8.405320 -65.041862 0.120270 -0.201462 -1.763966
    2 -21.389791 8.021282 83.477676 -0.221512 -0.049892 2.782876
    3 0.000008 -14.372050 -51.954159 3.141593 -0.000001 -3.141593
    4 38.362362 0.000018 0.339007 3.141593 0.000001 3.141593
    5 28.925760 -7.402312 6.807235 3.052291 -0.241637 1.772380
    6 0.000008 -14.372050 -52.293156 0.000000 0.000000 0.000000
    7 35.839706 0.000001 -0.000001 3.141593 -0.000001 -3.141593
    8 28.925745 -7.402332 -6.468227 -0.033641 0.241784 1.760030
    9 23.022341 8.405320 -65.041862 0.027720 -0.201461 -1.377627
    10 0.015764 100.735487 -8.850369 -0.769004 -1.564078 -0.799663
    11 30.007692 16.053953 38.950901 -0.441243 0.419923 0.485674
    12 29.891632 12.032869 41.798649 -0.439428 0.294286 0.265484
    13 -38.465004 -17.402895 77.096237 0.000000 0.000000 0.000000
    14 0.500000 0.000000 0.000001 0.000000 0.000000 0.000000
    15 -0.500000 0.000000 0.000001 0.000000 0.000000 0.000000
    16 6.146599 -2.756694 -0.416732 0.233571 0.296338 -0.300251
    17 3.986370 7.728779 -0.008186 0.000112 -0.013257 0.479219
    18 38.465004 -17.402927 77.096237 3.141593 0.000001 3.141593
    19 0.500001 0.000000 0.000000 0.000000 0.000000 0.000000
    20 0.000001 0.000000 0.000000 0.000000 0.000000 0.000000
    21 6.146630 -2.756808 0.416379 -2.890300 0.224569 2.843418
    22 3.986371 7.728779 0.008185 2.812332 0.099986 0.479220
    23 0.243564 10.541042 72.466728 0.100053 0.000000 0.000000
    24 21.459555 8.754425 83.556168 -2.920017 0.149510 0.392799
    25 17.475136 6.636702 27.314850 -1.168280 0.000000 0.000000
    26 -18.317291 -1.276392 77.329521 0.051084 -0.013257 0.479219
    27 18.317289 -1.276392 78.915184 1.509612 0.099986 -0.479220
  time 3
    0 -35.468750 -0.000003 34.031250 1.570755 0.009055 1.561741
    1 -23.022341 8.405320 -65.041862 0.120270 -0.201462 -1.763966
    2 -21.389791 8.021282 83.477676 -0.221512 -0.049892 2.782876
    3 0.000008 -14.372050 -51.954159 3.141593 -0.000001 -3.141593
    4 38.362362 0.000018 0.339007 3.141593 0.000001 3.141593
    5 28.925760 -7.402312 6.807235 3.052291 -0.241637 1.772380
    6 0.000008 -14.372050 -52.293156 0.000000 0.000000 0.000000
    7 35.839706 0.000001 -0.000001 3.141593 -0.000001 -3.141593
    8 28.925745 -7.402332 -6.468227 -0.033641 0.241784 1.760030
    9 23.022341 8.405320 -65.041862 0.027720 -0.201461 -1.377627
    10 0.035296 100.454229 -8.103013 -0.749733 -1.555941 -0.816456
    11 30.007692 16.053953 38.950901 -0.441243 0.419923 0.485674
    12 29.891632 12.032869 41.798649 -0.439428 0.294286 0.265484
    13 -38.465004 -17.402895 77.096237 0.000000 0.000000 0.000000
    14 0.500000 0.000000 0.000001 0.000000 0.000000 0.000000
    15 -0.500000 0.000000 0.000001 0.000000 0.000000 0.000000
    16 6.146599 -2.756694 -0.416732 0.233571 0.296338 -0.300251
    17 3.986370 7.728779 -0.008186 0.000112 -0.013257 0.479219
    18 38.465004 -17.402927 77.096237 3.141593 0.000001 3.141593
    19 0.500001 0.000000 0.000000 0.000000 0.000000 0.000000
    20 0.000001 0.000000 0.000000 0.000000 0.000000 0.000000
    21 6.146630 -2.756808 0.416379 -2.890300 0.224569 2.843418
    22 3.986371 7.728779 0.008185 2.812332 0.099986 0.479220
    23 0.243564 10.541042 72.466728 0.100053 0.000000 0.000000
    24 21.459555 8.754425 83.556168 -2.920017 0.149510 0.392799
    25 17.475136 6.636702 27.314850 -1.168280 0.000000 0.000000
    26 -18.317291 -1.276392 77.329521 0.051084 -0.013257 0.479219
    27 18.317289 -1.276392 78.915184 1.509612 0.099986 -0.479220
  time 4
    0 -35.468750 -0.000003 34.031250 1.570755 0.009055 1.561741
    1 -23.022341 8.405320 -65.041862 0.120270 -0.201462 -1.763966
    2 -21.389791 8.021282 83.477676 -0.221512 -0.049892 2.782876
    3 0.000008 -14.372050 -51.954159 3.141593 -0.000001 -3.141593
    4 38.362362 0.000018 0.339007 3.141593 0.000001 3.141593
    5 28.925760 -7.402312 6.807235 3.052291 -0.241637 1.772380
    6 0.000008 -14.372050 -52.293156 0.000000 0.000000 0.000000
    7 35.839706 0.000001 -0.000001 3.141593 -0.000001 -3.141593
    8 28.925745 -7.402332 -6.468227 -0.033641 0.241784 1.760030
    9 23.022341 8.405320 -65.041862 0.027720 -0.201461 -1.377627
    10 0.066547 100.044060 -7.132488 -0.724039 -1.545154 -0.838747
    11 30.007692 16.053953 38.950901 -0.441243 0.419923 0.485674
    12 29.891632 12.032869 41.798649 -0.439428 0.294286 0.265484
    13 -38.465004 -17.402895 77.096237 0.000000 0.000000 0.000000
    14 0.500000 0.000000 0.000001 0.000000 0.000000 0.000000
    15 -0.500000 0.000000 0.000001 0.000000 0.000000 0.000000
    16 6.146599 -2.756694 -0.416732 0.233571 0.296338 -0.300251
    17 3.986370 7.728779 -0.008186 0.000112 -0.013257 0.479219
    18 38.465004 -17.402927 77.096237 3.141593 0.000001 3.141593
    19 0.500001 0.000000 0.000000 0.000000 0.000000 0.000000
    20 0.000001 0.000000 0.000000 0.000000 0.000000 0.000000
    21 6.146630 -2.756808 0.416379 -2.890300 0.224569 2.843418
    22 3.986371 7.728779 0.008185 2.812332 0.099986 0.479220
    23 0.243564 10.541042 72.466728 0.100053 0.000000 0.000000
    24 21.459555 8.754425 83.556168 -2.920017 0.149510 0.392799
    25 17.475136 6.636702 27.314850 -1.168280 0.000000 0.000000
    26 -18.317291 -1.276392 77.329521 0.051084 -0.013257 0.479219
    27 18.317289 -1.276392 78.915184 1.509612 0.099986 -0.479220
  time 5
    0 -35.468750 -0.000003 34.031250 1.570755 0.009055 1.561741
    1 -23.022341 8.405320 -65.041862 0.120270 -0.201462 -1.763966
    2 -21.389791 8.021282 83.477676 -0.221512 -0.049892 2.782876
    3 0.000008 -14.372050 -51.954159 3.141593 -0.000001 -3.141593
    4 38.362362 0.000018 0.339007 3.141593 0.000001 3.141593
    5 28.925760 -7.402312 6.807235 3.052291 -0.241637 1.772380
    6 0.000008 -14.372050 -52.293156 0.000000 0.000000 0.000000
    7 35.839706 0.000001 -0.000001 3.141593 -0.000001 -3.141593
    8 28.925745 -7.402332 -6.468227 -0.033641 0.241784 1.760030
    9 23.022341 8.405320 -65.041862 0.027720 -0.201461 -1.377627
    10 0.105610 99.497168 -5.975125 -0.692688 -1.532003 -0.865794
    11 30.007692 16.053953 38.950901 -0.441243 0.419923 0.485674
    12 29.891632 12.032869 41.798649 -0.439428 0.294286 0.265484
    13 -38.465004 -17.402895 77.096237 0.000000 0.000000 0.000000
    14 0.500000 0.000000 0.000001 0.000000 0.000000 0.000000
    15 -0.500000 0.000000 0.000001 0.000000 0.000000 0.000000
    16 6.146599 -2.756694 -0.416732 0.233571 0.296338 -0.300251
    17 3.986370 7.728779 -0.008186 0.000112 -0.013257 0.479219
    18 38.465004 -17.402927 77.096237 3.141593 0.000001 3.141593
    19 0.500001 0.000000 0.000000 0.000000 0.000000 0.000000
    20 0.000001 0.000000 0.000000 0.000000 0.000000 0.000000
    21 6.146630 -2.756808 0.416379 -2.890300 0.224569 2.843418
    22 3.986371 7.728779 0.008185 2.812332 0.099986 0.479220
    23 0.243564 10.541042 72.466728 0.100053 0.000000 0.000000
    24 21.459555 8.754425 83.556168 -2.920017 0.149510 0.392799
    25 17.475136 6.636702 27.314850 -1.168280 0.000000 0.000000
    26 -18.317291 -1.276392 77.329521 0.051084 -0.013257 0.479219
    27 18.317289 -1.276392 78.915184 1.509612 0.099986 -0.479220
  time 6
    0 -35.468750 -0.000003 34.031250 1.570755 0.009055 1.561741
    1 -23.022341 8.405320 -65.041862 0.120270 -0.201462 -1.763966
    2 -21.389791 8.021282 83.477676 -0.221512 -0.049892 2.782876
    3 0.000008 -14.372050 -51.954159 3.141593 -0.000001 -3.141593
    4 38.362362 0.000018 0.339007 3.141593 0.000001 3.141593
    5 28.925760 -7.402312 6.807235 3.052291 -0.241637 1.772380
    6 0.000008 -14.372050 -52.293156 0.000000 0.000000 0.000000
    7 35.839706 0.000001 -0.000001 3.141593 -0.000001 -3.141593
    8 28.925745 -7.402332 -6.468227 -0.033641 0.241784 1.760030
    9 23.022341 8.405320 -65.041862 0.027720 -0.201461 -1.377627
    10 0.156393 98.805741 -4.667252 -0.656352 -1.516674 -0.896928
    11 30.007692 16.053953 38.950901 -0.441243 0.419923 0.485674
    12 29.891632 12.032869 41.798649 -0.439428 0.294286 0.265484
    13 -38.465004 -17.402895 77.096237 0.000000 0.000000 0.000000
    14 0.500000 0.000000 0.000001 0.000000 0.000000 0.000000
    15 -0.500000 0.000000 0.000001 0.000000 0.000000 0.000000
    16 6.146599 -2.756694 -0.416732 0.233571 0.296338 -0.300251
    17 3.986370 7.728779 -0.008186 0.000112 -0.013257 0.479219
    18 38.465004 -17.402927 77.096237 3.141593 0.000001 3.141593
    19 0.500001 0.000000 0.000000 0.000000 0.000000 0.000000
    20 0.000001 0.000000 0.000000 0.000000 0.000000 0.000000
    21 6.146630 -2.756808 0.416379 -2.890300 0.224569 2.843418
    22 3.986371 7.728779 0.008185 2.812332 0.099986 0.479220
    23 0.243564 10.541042 72.466728 0.100053 0.000000 0.000000
    24 21.459555 8.754425 83.556168 -2.920017 0.149510 0.392799
    25 17.475136 6.636702 27.314850 -1.168280 0.000000 0.000000
    26 -18.317291 -1.276392 77.329521 0.051084 -0.013257 0.479219
    27 18.317289 -1.276392 78.915184 1.509612 0.099986 -0.479220
  time 7
    0 -35.468750 -0.000003 34.031250 1.570755 0.009055 1.561741
    1 -23.022341 8.405320 -65.041862 0.120270 -0.201462 -1.763966
    2 -21.389791 8.021282 83.477676 -0.221512 -0.049892 2.782876
    3 0.000008 -14.372050 -51.954159 3.141593 -0.000001 -3.141593
    4 38.362362 0.000018 0.339007 3.141593 0.000001 3.141593
    5 28.925760 -7.402312 6.807235 3.052291 -0.241637 1.772380
    6 0.000008 -14.372050 -52.293156 0.000000 0.000000 0.000000
    7 35.839706 0.000001 -0.000001 3.141593 -0.000001 -3.141593
    8 28.925745 -7.402332 -6.468227 -0.033641 0.241784 1.760030
    9 23.022341 8.405320 -65.041862 0.027720 -0.201461 -1.377627
    10 0.218895 97.954152 -3.229630 -0.615893 -1.499454 -0.931479
    11 30.007692 16.053953 38.950901 -0.441243 0.419923 0.485674
    12 29.891632 12.032869 41.798649 -0.439428 0.294286 0.265484
    13 -38.465004 -17.402895 77.096237 0.000000 0.000000 0.000000
    14 0.500000 0.000000 0.000001 0.000000 0.000000 0.000000
    15 -0.500000 0.000000 0.000001 0.000000 0.000000 0.000000
    16 6.146599 -2.756694 -0.416732 0.233571 0.296338 -0.300251
    17 3.986370 7.728779 -0.008186 0.000112 -0.013257 0.479219
    18 38.465004 -17.402927 77.096237 3.141593 0.000001 3.141593
    19 0.500001 0.000000 0.000000 0.000000 0.000000 0.000000
    20 0.000001 0.000000 0.000000 0.000000 0.000000 0.000000
    21 6.146630 -2.756808 0.416379 -2.890300 0.224569 2.843418
    22 3.986371 7.728779 0.008185 2.812332 0.099986 0.479220
    23 0.243564 10.541042 72.466728 0.100053 0.000000 0.000000
    24 21.459555 8.754425 83.556168 -2.920017 0.149510 0.392799
    25 17.475136 6.636702 27.314850 -1.168280 0.000000 0.000000
    26 -18.317291 -1.276392 77.329521 0.051084 -0.013257 0.479219
    27 18.317289 -1.276392 78.915184 1.509612 0.099986 -0.479220
  time 8
    0 -35.468750 -0.000003 34.031250 1.570755 0.009055 1.561741
    1 -23.022341 8.405320 -65.041862 0.120270 -0.201462 -1.763966
    2 -21.389791 8.021282 83.477676 -0.221512 -0.049892 2.782876
    3 0.000008 -14.372050 -51.954159 3.141593 -0.000001 -3.141593
    4 38.362362 0.000018 0.339007 3.141593 0.000001 3.141593
    5 28.925760 -7.402312 6.807235 3.052291 -0.241637 1.772380
    6 0.000008 -14.372050 -52.293156 0.000000 0.000000 0.000000
    7 35.839706 0.000001 -0.000001 3.141593 -0.000001 -3.141593
    8 28.925745 -7.402332 -6.468227 -0.033641 0.241784 1.760030
    9 23.022341 8.405320 -65.041862 0.027720 -0.201461 -1.377627
    10 0.297023 96.938496 -1.693399 -0.572079 -1.480814 -0.968780
    11 30.007692 16.053953 38.950901 -0.441243 0.419923 0.485674
    12 29.891632 12.032869 41.798649 -0.439428 0.294286 0.265484
    13 -38.465004 -17.402895 77.096237 0.000000 0.000000 0.000000
    14 0.500000 0.000000 0.000001 0.000000 0.000000 0.000000
    15 -0.500000 0.000000 0.000001 0.000000 0.000000 0.000000
    16 6.146599 -2.756694 -0.416732 0.233571 0.296338 -0.300251
    17 3.986370 7.728779 -0.008186 0.000112 -0.013257 0.479219
    18 38.465004 -17.402927 77.096237 3.141593 0.000001 3.141593
    19 0.500001 0.000000 0.000000 0.000000 0.000000 0.000000
    20 0.000001 0.000000 0.000000 0.000000 0.000000 0.000000
    21 6.146630 -2.756808 0.416379 -2.890300 0.224569 2.843418
    22 3.986371 7.728779 0.008185 2.812332 0.099986 0.479220
    23 0.243564 10.541042 72.466728 0.100053 0.000000 0.000000
    24 21.459555 8.754425 83.556168 -2.920017 0.149510 0.392799
    25 17.475136 6.636702 27.314850 -1.168280 0.000000 0.000000
    26 -18.317291 -1.276392 77.329521 0.051084 -0.013257 0.479219
    27 18.317289 -1.276392 78.915184 1.509612 0.099986 -0.479220
  time 9
    0 -35.468750 -0.000003 34.031250 1.570755 0.009055 1.561741
    1 -23.022341 8.405320 -65.041862 0.120270 -0.201462 -1.763966
    2 -21.389791 8.021282 83.477676 -0.221512 -0.049892 2.782876
    3 0.000008 -14.372050 -51.954159 3.141593 -0.000001 -3.141593
    4 38.362362 0.000018 0.339007 3.141593 0.000001 3.141593
    5 28.925760 -7.402312 6.807235 3.052291 -0.241637 1.772380
    6 0.000008 -14.372050 -52.293156 0.000000 0.000000 0.000000
    7 35.839706 0.000001 -0.000001 3.141593 -0.000001 -3.141593
    8 28.925745 -7.402332 -6.468227 -0.033641 0.241784 1.760030
    9 23.022341 8.405320 -65.041862 0.027720 -0.201461 -1.377627
    10 0.390775 95.750960 -0.084508 -0.525484 -1.460850 -1.008013
    11 30.007692 16.053953 38.950901 -0.441243 0.419923 0.485674
    12 29.891632 12.032869 41.798649 -0.439428 0.294286 0.265484
    13 -38.465004 -17.402895 77.096237 0.000000 0.000000 0.000000
    14 0.500000 0.000000 0.000001 0.000000 0.000000 0.000000
    15 -0.500000 0.000000 0.000001 0.000000 0.000000 0.000000
    16 6.146599 -2.756694 -0.416732 0.233571 0.296338 -0.300251
    17 3.986370 7.728779 -0.008186 0.000112 -0.013257 0.479219
    18 38.465004 -17.402927 77.096237 3.141593 0.000001 3.141593
    19 0.500001 0.000000 0.000000 0.000000 0.000000 0.000000
    20 0.000001 0.000000 0.000000 0.000000 0.000000 0.000000
    21 6.146630 -2.756808 0.416379 -2.890300 0.224569 2.843418
    22 3.986371 7.728779 0.008185 2.812332 0.099986 0.479220
    23 0.243564 10.541042 72.466728 0.100053 0.000000 0.000000
    24 21.459555 8.754425 83.556168 -2.920017 0.149510 0.392799
    25 17.475136 6.636702 27.314850 -1.168280 0.000000 0.000000
    26 -18.317291 -1.276392 77.329521 0.051084 -0.013257 0.479219
    27 18.317289 -1.276392 78.915184 1.509612 0.099986 -0.479220
  time 10
    0 -35.468750 -0.000003 34.031250 1.570755 0.009055 1.561741
    1 -23.022341 8.405320 -65.041862 0.120270 -0.201462 -1.763966
    2 -21.389791 8.021282 83.477676 -0.221512 -0.049892 2.782876
    3 0.000008 -14.372050 -51.954159 3.141593 -0.000001 -3.141593
    4 38.362362 0.000018 0.339007 3.141593 0.000001 3.141593
    5 28.925760 -7.402312 6.807235 3.052291 -0.241637 1.772380
    6 0.000008 -14.372050 -52.293156 0.000000 0.000000 0.000000
    7 35.839706 0.000001 -0.000001 3.141593 -0.000001 -3.141593
    8 28.925745 -7.402332 -6.468227 -0.033641 0.241784 1.760030
    9 23.022341 8.405320 -65.041862 0.027720 -0.201461 -1.377627
    10 0.496247 94.379825 1.565903 -0.477068 -1.440034 -1.048583
    11 30.007692 16.053953 38.950901 -0.441243 0.419923 0.485674
    12 29.891632 12.032869 41.798649 -0.439428 0.294286 0.265484
    13 -38.465004 -17.402895 77.096237 0.000000 0.000000 0.000000
    14 0.500000 0.000000 0.000001 0.000000 0.000000 0.000000
    15 -0.500000 0.000000 0.000001 0.000000 0.000000 0.000000
    16 6.146599 -2.756694 -0.416732 0.233571 0.296338 -0.300251
    17 3.986370 7.728779 -0.008186 0.000112 -0.013257 0.479219
    18 38.465004 -17.402927 77.096237 3.141593 0.000001 3.141593
    19 0.500001 0.000000 0.000000 0.000000 0.000000 0.000000
    20 0.000001 0.000000 0.000000 0.000000 0.000000 0.000000
    21 6.146630 -2.756808 0.416379 -2.890300 0.224569 2.843418
    22 3.986371 7.728779 0.008185 2.812332 0.099986 0.479220
    23 0.243564 10.541042 72.466728 0.100053 0.000000 0.000000
    24 21.459555 8.754425 83.556168 -2.920017 0.149510 0.392799
    25 17.475136 6.636702 27.314850 -1.168280 0.000000 0.000000
    26 -18.317291 -1.276392 77.329521 0.051084 -0.013257 0.479219
    27 18.317289 -1.276392 78.915184 1.509612 0.099986 -0.479220
  time 11
    0 -35.468750 -0.000003 34.031250 1.570755 0.009055 1.561741
    1 -23.022341 8.405320 -65.041862 0.120270 -0.201462 -1.763966
    2 -21.389791 8.021282 83.477676 -0.221512 -0.049892 2.782876
    3 0.000008 -14.372050 -51.954159 3.141593 -0.000001 -3.141593
    4 38.362362 0.000018 0.339007 3.141593 0.000001 3.141593
    5 28.925760 -7.402312 6.807235 3.052291 -0.241637 1.772380
    6 0.000008 -14.372050 -52.293156 0.000000 0.000000 0.000000
    7 35.839706 0.000001 -0.000001 3.141593 -0.000001 -3.141593
    8 28.925745 -7.402332 -6.468227 -0.033641 0.241784 1.760030
    9 23.022341 8.405320 -65.041862 0.027720 -0.201461 -1.377627
    10 0.621251 92.817277 3.242264 -0.427405 -1.418555 -1.089748
    11 30.007692 16.053953 38.950901 -0.441243 0.419923 0.485674
    12 29.891632 12.032869 41.798649 -0.439428 0.294286 0.265484
    13 -38.465004 -17.402895 77.096237 0.000000 0.000000 0.000000
    14 0.500000 0.000000 0.000001 0.000000 0.000000 0.000000
    15 -0.500000 0.000000 0.000001 0.000000 0.000000 0.000000
    16 6.146599 -2.756694 -0.416732 0.233571 0.296338 -0.300251
    17 3.986370 7.728779 -0.008186 0.000112 -0.013257 0.479219
    18 38.465004 -17.402927 77.096237 3.141593 0.000001 3.141593
    19 0.500001 0.000000 0.000000 0.000000 0.000000 0.000000
    20 0.000001 0.000000 0.000000 0.000000 0.000000 0.000000
    21 6.146630 -2.756808 0.416379 -2.890300 0.224569 2.843418
    22 3.986371 7.728779 0.008185 2.812332 0.099986 0.479220
    23 0.243564 10.541042 72.466728 0.100053 0.000000 0.000000
    24 21.459555 8.754425 83.556168 -2.920017 0.149510 0.392799
    25 17.475136 6.636702 27.314850 -1.168280 0.000000 0.000000
    26 -18.317291 -1.276392 77.329521 0.051084 -0.013257 0.479219
    27 18.317289 -1.276392 78.915184 1.509612 0.099986 -0.479220
  time 12
    0 -35.468750 -0.000003 34.031250 1.570755 0.009055 1.561741
    1 -23.022341 8.405320 -65.041862 0.120270 -0.201462 -1.763966
    2 -21.389791 8.021282 83.477676 -0.221512 -0.049892 2.782876
    3 0.000008 -14.372050 -51.954159 3.141593 -0.000001 -3.141593
    4 38.362362 0.000018 0.339007 3.141593 0.000001 3.141593
    5 28.925760 -7.402312 6.807235 3.052291 -0.241637 1.772380
    6 0.000008 -14.372050 -52.293156 0.000000 0.000000 0.000000
    7 35.839706 0.000001 -0.000001 3.141593 -0.000001 -3.141593
    8 28.925745 -7.402332 -6.468227 -0.033641 0.241784 1.760030
    9 23.022341 8.405320 -65.041862 0.027720 -0.201461 -1.377627
    10 0.761881 91.055504 4.903054 -0.377359 -1.396698 -1.130764
    11 30.007692 16.053953 38.950901 -0.441243 0.419923 0.485674
    12 29.891632 12.032869 41.798649 -0.439428 0.294286 0.265484
    13 -38.465004 -17.402895 77.096237 0.000000 0.000000 0.000000
    14 0.500000 0.000000 0.000001 0.000000 0.000000 0.000000
    15 -0.500000 0.000000 0.000001 0.000000 0.000000 0.000000
    16 6.146599 -2.756694 -0.416732 0.233571 0.296338 -0.300251
    17 3.986370 7.728779 -0.008186 0.000112 -0.013257 0.479219
    18 38.465004 -17.402927 77.096237 3.141593 0.000001 3.141593
    19 0.500001 0.000000 0.000000 0.000000 0.000000 0.000000
    20 0.000001 0.000000 0.000000 0.000000 0.000000 0.000000
    21 6.146630 -2.756808 0.416379 -2.890300 0.224569 2.843418
    22 3.986371 7.728779 0.008185 2.812332 0.099986 0.479220
    23 0.243564 10.541042 72.466728 0.100053 0.000000 0.000000
    24 21.459555 8.754425 83.556168 -2.920017 0.149510 0.392799
    25 17.475136 6.636702 27.314850 -1.168280 0.000000 0.000000
    26 -18.317291 -1.276392 77.329521 0.051084 -0.013257 0.479219
    27 18.317289 -1.276392 78.915184 1.509612 0.099986 -0.479220
  time 13
    0 -35.468750 -0.000003 34.031250 1.570755 0.009055 1.561741
    1 -23.022341 8.405320 -65.041862 0.120270 -0.201462 -1.763966
    2 -21.389791 8.021282 83.477676 -0.221512 -0.049892 2.782876
    3 0.000008 -14.372050 -51.954159 3.141593 -0.000001 -3.141593
    4 38.362362 0.000018 0.339007 3.141593 0.000001 3.141593
    5 28.925760 -7.402312 6.807235 3.052291 -0.241637 1.772380
    6 0.000008 -14.372050 -52.293156 0.000000 0.000000 0.000000
    7 35.839706 0.000001 -0.000001 3.141593 -0.000001 -3.141593
    8 28.925745 -7.402332 -6.468227 -0.033641 0.241784 1.760030
    9 23.022341 8.405320 -65.041862 0.027720 -0.201461 -1.377627
    10 0.922042 89.086694 6.527515 -0.327601 -1.374842 -1.171037
    11 30.007692 16.053953 38.950901 -0.441243 0.419923 0.485674
    12 29.891632 12.032869 41.798649 -0.439428 0.294286 0.265484
    13 -38.465004 -17.402895 77.096237 0.000000 0.000000 0.000000
    14 0.500000 0.000000 0.000001 0.000000 0.000000 0.000000
    15 -0.500000 0.000000 0.000001 0.000000 0.000000 0.000000
    16 6.146599 -2.756694 -0.416732 0.233571 0.296338 -0.300251
    17 3.986370 7.728779 -0.008186 0.000112 -0.013257 0.479219
    18 38.465004 -17.402927 77.096237 3.141593 0.000001 3.141593
    19 0.500001 0.000000 0.000000 0.000000 0.000000 0.000000
    20 0.000001 0.000000 0.000000 0.000000 0.000000 0.000000
    21 6.146630 -2.756808 0.416379 -2.890300 0.224569 2.843418
    22 3.986371 7.728779 0.008185 2.812332 0.099986 0.479220
    23 0.243564 10.541042 72.466728 0.100053 0.000000 0.000000
    24 21.459555 8.754425 83.556168 -2.920017 0.149510 0.392799
    25 17.475136 6.636702 27.314850 -1.168280 0.000000 0.000000
    26 -18.317291 -1.276392 77.329521 0.051084 -0.013257 0.479219
    27 18.317289 -1.276392 78.915184 1.509612 0.099986 -0.479220
  time 14
    0 -35.468750 -0.000003 34.031250 1.570755 0.009055 1.561741
    1 -23.022341 8.405320 -65.041862 0.120270 -0.201462 -1.763966
    2 -21.389791 8.021282 83.477676 -0.221512 -0.049892 2.782876
    3 0.000008 -14.372050 -51.954159 3.141593 -0.000001 -3.141593
    4 38.362362 0.000018 0.339007 3.141593 0.000001 3.141593
    5 28.925760 -7.402312 6.807235 3.052291 -0.241637 1.772380
    6 0.000008 -14.372050 -52.293156 0.000000 0.000000 0.000000
    7 35.839706 0.000001 -0.000001 3.141593 -0.000001 -3.141593
    8 28.925745 -7.402332 -6.468227 -0.033641 0.241784 1.760030
    9 23.022341 8.405320 -65.041862 0.027720 -0.201461 -1.377627
    10 1.097828 86.899127 8.079317 -0.278993 -1.353174 -1.209750
    11 30.007692 16.053953 38.950901 -0.441243 0.419923 0.485674
    12 29.891632 12.032869 41.798649 -0.439428 0.294286 0.265484
    13 -38.465004 -17.402895 77.096237 0.000000 0.000000 0.000000
    14 0.500000 0.000000 0.000001 0.000000 0.000000 0.000000
    15 -0.500000 0.000000 0.000001 0.000000 0.000000 0.000000
    16 6.146599 -2.756694 -0.416732 0.233571 0.296338 -0.300251
    17 3.986370 7.728779 -0.008186 0.000112 -0.013257 0.479219
    18 38.465004 -17.402927 77.096237 3.141593 0.000001 3.141593
    19 0.500001 0.000000 0.000000 0.000000 0.000000 0.000000
    20 0.000001 0.000000 0.000000 0.000000 0.000000 0.000000
    21 6.146630 -2.756808 0.416379 -2.890300 0.224569 2.843418
    22 3.986371 7.728779 0.008185 2.812332 0.099986 0.479220
    23 0.243564 10.541042 72.466728 0.100053 0.000000 0.000000
    24 21.459555 8.754425 83.556168 -2.920017 0.149510 0.392799
    25 17.475136 6.636702 27.314850 -1.168280 0.000000 0.000000
    26 -18.317291 -1.276392 77.329521 0.051084 -0.013257 0.479219
    27 18.317289 -1.276392 78.915184 1.509612 0.099986 -0.479220
  time 15
    0 -35.468750 -0.000003 34.031250 1.570755 0.009055 1.561741
    1 -23.022341 8.405320 -65.041862 0.120270 -0.201462 -1.763966
    2 -21.389791 8.021282 83.477676 -0.221512 -0.049892 2.782876
    3 0.000008 -14.372050 -51.954159 3.141593 -0.000001 -3.141593
    4 38.362362 0.000018 0.339007 3.141593 0.000001 3.141593
    5 28.925760 -7.402312 6.807235 3.052291 -0.241637 1.772380
    6 0.000008 -14.372050 -52.293156 0.000000 0.000000 0.000000
    7 35.839706 0.000001 -0.000001 3.141593 -0.000001 -3.141593
    8 28.925745 -7.402332 -6.468227 -0.033641 0.241784 1.760030
    9 23.022341 8.405320 -65.041862 0.027720 -0.201461 -1.377627
    10 1.297053 84.484991 9.522129 -0.232110 -1.332074 -1.246308
    11 30.007692 16.053953 38.950901 -0.441243 0.419923 0.485674
    12 29.891632 12.032869 41.798649 -0.439428 0.294286 0.265484
    13 -38.465004 -17.402895 77.096237 0.000000 0.000000 0.000000
    14 0.500000 0.000000 0.000001 0.000000 0.000000 0.000000
    15 -0.500000 0.000000 0.000001 0.000000 0.000000 0.000000
    16 6.146599 -2.756694 -0.416732 0.233571 0.296338 -0.300251
    17 3.986370 7.728779 -0.008186 0.000112 -0.013257 0.479219
    18 38.465004 -17.402927 77.096237 3.141593 0.000001 3.141593
    19 0.500001 0.000000 0.000000 0.000000 0.000000 0.000000
    20 0.000001 0.000000 0.000000 0.000000 0.000000 0.000000
    21 6.146630 -2.756808 0.416379 -2.890300 0.224569 2.843418
    22 3.986371 7.728779 0.008185 2.812332 0.099986 0.479220
    23 0.243564 10.541042 72.466728 0.100053 0.000000 0.000000
    24 21.459555 8.754425 83.556168 -2.920017 0.149510 0.392799
    25 17.475136 6.636702 27.314850 -1.168280 0.000000 0.000000
    26 -18.317291 -1.276392 77.329521 0.051084 -0.013257 0.479219
    27 18.317289 -1.276392 78.915184 1.509612 0.099986 -0.479220
  time 16
    0 -35.468750 -0.000003 34.031250 1.570755 0.009055 1.561741
    1 -23.022341 8.405320 -65.041862 0.120270 -0.201462 -1.763966
    2 -21.389791 8.021282 83.477676 -0.221512 -0.049892 2.782876
    3 0.000008 -14.372050 -51.954159 3.141593 -0.000001 -3.141593
    4 38.362362 0.000018 0.339007 3.141593 0.000001 3.141593
    5 28.925760 -7.402312 6.807235 3.052291 -0.241637 1.772380
    6 0.000008 -14.372050 -52.293156 0.000000 0.000000 0.000000
    7 35.839706 0.000001 -0.000001 3.141593 -0.000001 -3.141593
    8 28.925745 -7.402332 -6.468227 -0.033641 0.241784 1.760030
    9 23.022341 8.405320 -65.041862 0.027720 -0.201461 -1.377627
    10 1.519716 81.836473 10.798862 -0.187913 -1.311826 -1.279968
    11 30.007692 16.053953 38.950901 -0.441243 0.419923 0.485674
    12 29.891632 12.032869 41.798649 -0.439428 0.294286 0.265484
    13 -38.465004 -17.402895 77.096237 0.000000 0.000000 0.000000
    14 0.500000 0.000000 0.000001 0.000000 0.000000 0.000000
    15 -0.500000 0.000000 0.000001 0.000000 0.000000 0.000000
    16 6.146599 -2.756694 -0.416732 0.233571 0.296338 -0.300251
    17 3.986370 7.728779 -0.008186 0.000112 -0.013257 0.479219
    18 38.465004 -17.402927 77.096237 3.141593 0.000001 3.141593
    19 0.500001 0.000000 0.000000 0.000000 0.000000 0.000000
    20 0.000001 0.000000 0.000000 0.000000 0.000000 0.000000
    21 6.146630 -2.756808 0.416379 -2.890300 0.224569 2.843418
    22 3.986371 7.728779 0.008185 2.812332 0.099986 0.479220
    23 0.243564 10.541042 72.466728 0.100053 0.000000 0.000000
    24 21.459555 8.754425 83.556168 -2.920017 0.149510 0.392799
    25 17.475136 6.636702 27.314850 -1.168280 0.000000 0.000000
    26 -18.317291 -1.276392 77.329521 0.051084 -0.013257 0.479219
    27 18.317289 -1.276392 78.915184 1.509612 0.099986 -0.479220
  time 17
    0 -35.468750 -0.000003 34.031250 1.570755 0.009055 1.561741
    1 -23.022341 8.405320 -65.041862 0.120270 -0.201462 -1.763966
    2 -21.389791 8.021282 83.477676 -0.221512 -0.049892 2.782876
    3 0.000008 -14.372050 -51.954159 3.141593 -0.000001 -3.141593
    4 38.362362 0.000018 0.339007 3.141593 0.000001 3.141593
    5 28.925760 -7.402312 6.807235 3.052291 -0.241637 1.772380
    6 0.000008 -14.372050 -52.293156 0.000000 0.000000 0.000000
    7 35.839706 0.000001 -0.000001 3.141593 -0.000001 -3.141593
    8 28.925745 -7.402332 -6.468227 -0.033641 0.241784 1.760030
    9 23.022341 8.405320 -65.041862 0.027720 -0.201461 -1.377627
    10 1.761911 78.949666 11.847236 -0.146975 -1.292618 -1.309987
    11 30.007692 16.053953 38.950901 -0.441243 0.419923 0.485674
    12 29.891632 12.032869 41.798649 -0.439428 0.294286 0.265484
    13 -38.465004 -17.402895 77.096237 0.000000 0.000000 0.000000
    14 0.500000 0.000000 0.000001 0.000000 0.000000 0.000000
    15 -0.500000 0.000000 0.000001 0.000000 0.000000 0.000000
    16 6.146599 -2.756694 -0.416732 0.233571 0.296338 -0.300251
    17 3.986370 7.728779 -0.008186 0.000112 -0.013257 0.479219
    18 38.465004 -17.402927 77.096237 3.141593 0.000001 3.141593
    19 0.500001 0.000000 0.000000 0.000000 0.000000 0.000000
    20 0.000001 0.000000 0.000000 0.000000 0.000000 0.000000
    21 6.146630 -2.756808 0.416379 -2.890300 0.224569 2.843418
    22 3.986371 7.728779 0.008185 2.812332 0.099986 0.479220
    23 0.243564 10.541042 72.466728 0.100053 0.000000 0.000000
    24 21.459555 8.754425 83.556168 -2.920017 0.149510 0.392799
    25 17.475136 6.636702 27.314850 -1.168280 0.000000 0.000000
    26 -18.317291 -1.276392 77.329521 0.051084 -0.013257 0.479219
    27 18.317289 -1.276392 78.915184 1.509612 0.099986 -0.479220
  time 18
    0 -35.468750 -0.000003 34.031250 1.570755 0.009055 1.561741
    1 -23.022341 8.405320 -65.041862 0.120270 -0.201462 -1.763966
    2 -21.389791 8.021282 83.477676 -0.221512 -0.049892 2.782876
    3 0.000008 -14.372050 -51.954159 3.141593 -0.000001 -3.141593
    4 38.362362 0.000018 0.339007 3.141593 0.000001 3.141593
    5 28.925760 -7.402312 6.807235 3.052291 -0.241637 1.772380
    6 0.000008 -14.372050 -52.293156 0.000000 0.000000 0.000000
    7 35.839706 0.000001 -0.000001 3.141593 -0.000001 -3.141593
    8 28.925745 -7.402332 -6.468227 -0.033641 0.241784 1.760030
    9 23.022341 8.405320 -65.041862 0.027720 -0.201461 -1.377627
    10 2.027544 75.808945 12.589402 -0.110063 -1.275019 -1.335771
    11 30.007692 16.053953 38.950901 -0.441243 0.419923 0.485674
    12 29.891632 12.032869 41.798649 -0.439428 0.294286 0.265484
    13 -38.465004 -17.402895 77.096237 0.000000 0.000000 0.000000
    14 0.500000 0.000000 0.000001 0.000000 0.000000 0.000000
    15 -0.500000 0.000000 0.000001 0.000000 0.000000 0.000000
    16 6.146599 -2.756694 -0.416732 0.233571 0.296338 -0.300251
    17 3.986370 7.728779 -0.008186 0.000112 -0.013257 0.479219
    18 38.465004 -17.402927 77.096237 3.141593 0.000001 3.141593
    19 0.500001 0.000000 0.000000 0.000000 0.000000 0.000000
    20 0.000001 0.000000 0.000000 0.000000 0.000000 0.000000
    21 6.146630 -2.756808 0.416379 -2.890300 0.224569 2.843418
    22 3.986371 7.728779 0.008185 2.812332 0.099986 0.479220
    23 0.243564 10.541042 72.466728 0.100053 0.000000 0.000000
    24 21.459555 8.754425 83.556168 -2.920017 0.149510 0.392799
    25 17.475136 6.636702 27.314850 -1.168280 0.000000 0.000000
    26 -18.317291 -1.276392 77.329521 0.051084 -0.013257 0.479219
    27 18.317289 -1.276392 78.915184 1.509612 0.099986 -0.479220
  time 19
    0 -35.468750 -0.000003 34.031250 1.570755 0.009055 1.561741
    1 -23.022341 8.405320 -65.041862 0.120270 -0.201462 -1.763966
    2 -21.389791 8.021282 83.477676 -0.221512 -0.049892 2.782876
    3 0.000008 -14.372050 -51.954159 3.141593 -0.000001 -3.141593
    4 38.362362 0.000018 0.339007 3.141593 0.000001 3.141593
    5 28.925760 -7.402312 6.807235 3.052291 -0.241637 1.772380
    6 0.000008 -14.372050 -52.293156 0.000000 0.000000 0.000000
    7 35.839706 0.000001 -0.000001 3.141593 -0.000001 -3.141593
    8 28.925745 -7.402332 -6.468227 -0.033641 0.241784 1.760030
    9 23.022341 8.405320 -65.041862 0.027720 -0.201461 -1.377627
    10 2.320522 72.410404 12.905990 -0.078041 -1.259029 -1.356502
    11 30.007692 16.053953 38.950901 -0.441243 0.419923 0.485674
    12 29.891632 12.032869 41.798649 -0.439428 0.294286 0.265484
    13 -38.465004 -17.402895 77.096237 0.000000 0.000000 0.000000
    14 0.500000 0.000000 0.000001 0.000000 0.000000 0.000000
    15 -0.500000 0.000000 0.000001 0.000000 0.000000 0.000000
    16 6.146599 -2.756694 -0.416732 0.233571 0.296338 -0.300251
    17 3.986370 7.728779 -0.008186 0.000112 -0.013257 0.479219
    18 38.465004 -17.402927 77.096237 3.141593 0.000001 3.141593
    19 0.500001 0.000000 0.000000 0.000000 0.000000 0.000000
    20 0.000001 0.000000 0.000000 0.000000 0.000000 0.000000
    21 6.146630 -2.756808 0.416379 -2.890300 0.224569 2.843418
    22 3.986371 7.728779 0.008185 2.812332 0.099986 0.479220
    23 0.243564 10.541042 72.466728 0.100053 0.000000 0.000000
    24 21.459555 8.754425 83.556168 -2.920017 0.149510 0.392799
    25 17.475136 6.636702 27.314850 -1.168280 0.000000 0.000000
    26 -18.317291 -1.276392 77.329521 0.051084 -0.013257 0.479219
    27 18.317289 -1.276392 78.915184 1.509612 0.099986 -0.479220
  time 20
    0 -35.468750 -0.000003 34.031250 1.570755 0.009055 1.561741
    1 -23.022341 8.405320 -65.041862 0.120270 -0.201462 -1.763966
    2 -21.389791 8.021282 83.477676 -0.221512 -0.049892 2.782876
    3 0.000008 -14.372050 -51.954159 3.141593 -0.000001 -3.141593
    4 38.362362 0.000018 0.339007 3.141593 0.000001 3.141593
    5 28.925760 -7.402312 6.807235 3.052291 -0.241637 1.772380
    6 0.000008 -14.372050 -52.293156 0.000000 0.000000 0.000000
    7 35.839706 0.000001 -0.000001 3.141593 -0.000001 -3.141593
    8 28.925745 -7.402332 -6.468227 -0.033641 0.241784 1.760030
    9 23.022341 8.405320 -65.041862 0.027720 -0.201461 -1.377627
    10 2.633031 68.750136 12.859280 -0.051580 -1.245025 -1.371511
    11 30.007692 16.053953 38.950901 -0.441243 0.419923 0.485674
    12 29.891632 12.032869 41.798649 -0.439428 0.294286 0.265484
    13 -38.465004 -17.402895 77.096237 0.000000 0.000000 0.000000
    14 0.500000 0.000000 0.000001 0.000000 0.000000 0.000000
    15 -0.500000 0.000000 0.000001 0.000000 0.000000 0.000000
    16 6.146599 -2.756694 -0.416732 0.233571 0.296338 -0.300251
    17 3.986370 7.728779 -0.008186 0.000112 -0.013257 0.479219
    18 38.465004 -17.402927 77.096237 3.141593 0.000001 3.141593
    19 0.500001 0.000000 0.000000 0.000000 0.000000 0.000000
    20 0.000001 0.000000 0.000000 0.000000 0.000000 0.000000
    21 6.146630 -2.756808 0.416379 -2.890300 0.224569 2.843418
    22 3.986371 7.728779 0.008185 2.812332 0.099986 0.479220
    23 0.243564 10.541042 72.466728 0.100053 0.000000 0.000000
    24 21.459555 8.754425 83.556168 -2.920017 0.149510 0.392799
    25 17.475136 6.636702 27.314850 -1.168280 0.000000 0.000000
    26 -18.317291 -1.276392 77.329521 0.051084 -0.013257 0.479219
    27 18.317289 -1.276392 78.915184 1.509612 0.099986 -0.479220
  time 21
    0 -35.468750 -0.000003 34.031250 1.570755 0.009055 1.561741
    1 -23.022341 8.405320 -65.041862 0.120270 -0.201462 -1.763966
    2 -21.389791 8.021282 83.477676 -0.221512 -0.049892 2.782876
    3 0.000008 -14.372050 -51.954159 3.141593 -0.000001 -3.141593
    4 38.362362 0.000018 0.339007 3.141593 0.000001 3.141593
    5 28.925760 -7.402312 6.807235 3.052291 -0.241637 1.772380
    6 0.000008 -14.372050 -52.293156 0.000000 0.000000 0.000000
    7 35.839706 0.000001 -0.000001 3.141593 -0.000001 -3.141593
    8 28.925745 -7.402332 -6.468227 -0.033641 0.241784 1.760030
    9 23.022341 8.405320 -65.041862 0.027720 -0.201461 -1.377627
    10 2.976792 64.812516 12.625731 -0.031447 -1.233482 -1.380205
    11 30.007692 16.053953 38.950901 -0.441243 0.419923 0.485674
    12 29.891632 12.032869 41.798649 -0.439428 0.294286 0.265484
    13 -38.465004 -17.402895 77.096237 0.000000 0.000000 0.000000
    14 0.500000 0.000000 0.000001 0.000000 0.000000 0.000000
    15 -0.500000 0.000000 0.000001 0.000000 0.000000 0.000000
    16 6.146599 -2.756694 -0.416732 0.233571 0.296338 -0.300251
    17 3.986370 7.728779 -0.008186 0.000112 -0.013257 0.479219
    18 38.465004 -17.402927 77.096237 3.141593 0.000001 3.141593
    19 0.500001 0.000000 0.000000 0.000000 0.000000 0.000000
    20 0.000001 0.000000 0.000000 0.000000 0.000000 0.000000
    21 6.146630 -2.756808 0.416379 -2.890300 0.224569 2.843418
    22 3.986371 7.728779 0.008185 2.812332 0.099986 0.479220
    23 0.243564 10.541042 72.466728 0.100053 0.000000 0.000000
    24 21.459555 8.754425 83.556168 -2.920017 0.149510 0.392799
    25 17.475136 6.636702 27.314850 -1.168280 0.000000 0.000000
    26 -18.317291 -1.276392 77.329521 0.051084 -0.013257 0.479219
    27 18.317289 -1.276392 78.915184 1.509612 0.099986 -0.479220
  time 22
    0 -35.468750 -0.000003 34.031250 1.570755 0.009055 1.561741
    1 -23.022341 8.405320 -65.041862 0.120270 -0.201462 -1.763966
    2 -21.389791 8.021282 83.477676 -0.221512 -0.049892 2.782876
    3 0.000008 -14.372050 -51.954159 3.141593 -0.000001 -3.141593
    4 38.362362 0.000018 0.339007 3.141593 0.000001 3.141593
    5 28.925760 -7.402312 6.807235 3.052291 -0.241637 1.772380
    6 0.000008 -14.372050 -52.293156 0.000000 0.000000 0.000000
    7 35.839706 0.000001 -0.000001 3.141593 -0.000001 -3.141593
    8 28.925745 -7.402332 -6.468227 -0.033641 0.241784 1.760030
    9 23.022341 8.405320 -65.041862 0.027720 -0.201461 -1.377627
    10 3.347897 60.562386 12.231294 -0.018408 -1.224493 -1.381765
    11 30.007692 16.053953 38.950901 -0.441243 0.419923 0.485674
    12 29.891632 12.032869 41.798649 -0.439428 0.294286 0.265484
    13 -38.465004 -17.402895 77.096237 0.000000 0.000000 0.000000
    14 0.500000 0.000000 0.000001 0.000000 0.000000 0.000000
    15 -0.500000 0.000000 0.000001 0.000000 0.000000 0.000000
    16 6.146599 -2.756694 -0.416732 0.233571 0.296338 -0.300251
    17 3.986370 7.728779 -0.008186 0.000112 -0.013257 0.479219
    18 38.465004 -17.402927 77.096237 3.141593 0.000001 3.141593
    19 0.500001 0.000000 0.000000 0.000000 0.000000 0.000000
    20 0.000001 0.000000 0.000000 0.000000 0.000000 0.000000
    21 6.146630 -2.756808 0.416379 -2.890300 0.224569 2.843418
    22 3.986371 7.728779 0.008185 2.812332 0.099986 0.479220
    23 0.243564 10.541042 72.466728 0.100053 0.000000 0.000000
    24 21.459555 8.754425 83.556168 -2.920017 0.149510 0.392799
    25 17.475136 6.636702 27.314850 -1.168280 0.000000 0.000000
    26 -18.317291 -1.276392 77.329521 0.051084 -0.013257 0.479219
    27 18.317289 -1.276392 78.915184 1.509612 0.099986 -0.479220
  time 23
    0 -35.468750 -0.000003 34.031250 1.570755 0.009055 1.561741
    1 -23.022341 8.405320 -65.041862 0.120270 -0.201462 -1.763966
    2 -21.389791 8.021282 83.477676 -0.221512 -0.049892 2.782876
    3 0.000008 -14.372050 -51.954159 3.141593 -0.000001 -3.141593
    4 38.362362 0.000018 0.339007 3.141593 0.000001 3.141593
    5 28.925760 -7.402312 6.807235 3.052291 -0.241637 1.772380
    6 0.000008 -14.372050 -52.293156 0.000000 0.000000 0.000000
    7 35.839706 0.000001 -0.000001 3.141593 -0.000001 -3.141593
    8 28.925745 -7.402332 -6.468227 -0.033641 0.241784 1.760030
    9 23.022341 8.405320 -65.041862 0.027720 -0.201461 -1.377627
    10 3.742440 55.902088 11.712297 -0.013135 -1.218343 -1.375524
    11 30.007692 16.053953 38.950901 -0.441243 0.419923 0.485674
    12 29.891632 12.032869 41.798649 -0.439428 0.294286 0.265484
    13 -38.465004 -17.402895 77.096237 0.000000 0.000000 0.000000
    14 0.500000 0.000000 0.000001 0.000000 0.000000 0.000000
    15 -0.500000 0.000000 0.000001 0.000000 0.000000 0.000000
    16 6.146599 -2.756694 -0.416732 0.233571 0.296338 -0.300251
    17 3.986370 7.728779 -0.008186 0.000112 -0.013257 0.479219
    18 38.465004 -17.402927 77.096237 3.141593 0.000001 3.141593
    19 0.500001 0.000000 0.000000 0.000000 0.000000 0.000000
    20 0.000001 0.000000 0.000000 0.000000 0.000000 0.000000
    21 6.146630 -2.756808 0.416379 -2.890300 0.224569 2.843418
    22 3.986371 7.728779 0.008185 2.812332 0.099986 0.479220
    23 0.243564 10.541042 72.466728 0.100053 0.000000 0.000000
    24 21.459555 8.754425 83.556168 -2.920017 0.149510 0.392799
    25 17.475136 6.636702 27.314850 -1.168280 0.000000 0.000000
    26 -18.317291 -1.276392 77.329521 0.051084 -0.013257 0.479219
    27 18.317289 -1.276392 78.915184 1.509612 0.099986 -0.479220
  time 24
    0 -35.468750 -0.000003 34.031250 1.570755 0.009055 1.561741
    1 -23.022341 8.405320 -65.041862 0.120270 -0.201462 -1.763966
    2 -21.389791 8.021282 83.477676 -0.221512 -0.049892 2.782876
    3 0.000008 -14.372050 -51.954159 3.141593 -0.000001 -3.141593
    4 38.362362 0.000018 0.339007 3.141593 0.000001 3.141593
    5 28.925760 -7.402312 6.807235 3.052291 -0.241637 1.772380
    6 0.000008 -14.372050 -52.293156 0.000000 0.000000 0.000000
    7 35.839706 0.000001 -0.000001 3.141593 -0.000001 -3.141593
    8 28.925745 -7.402332 -6.468227 -0.033641 0.241784 1.760030
    9 23.022341 8.405320 -65.041862 0.027720 -0.201461 -1.377627
    10 4.172141 50.788651 11.110260 -0.016394 -1.215505 -1.360737
    11 30.007692 16.053953 38.950901 -0.441243 0.419923 0.485674
    12 29.891632 12.032869 41.798649 -0.439428 0.294286 0.265484
    13 -38.465004 -17.402895 77.096237 0.000000 0.000000 0.000000
    14 0.500000 0.000000 0.000001 0.000000 0.000000 0.000000
    15 -0.500000 0.000000 0.000001 0.000000 0.000000 0.000000
    16 6.146599 -2.756694 -0.416732 0.233571 0.296338 -0.300251
    17 3.986370 7.728779 -0.008186 0.000112 -0.013257 0.479219
    18 38.465004 -17.402927 77.096237 3.141593 0.000001 3.141593
    19 0.500001 0.000000 0.000000 0.000000 0.000000 0.000000
    20 0.000001 0.000000 0.000000 0.000000 0.000000 0.000000
    21 6.146630 -2.756808 0.416379 -2.890300 0.224569 2.843418
    22 3.986371 7.728779 0.008185 2.812332 0.099986 0.479220
    23 0.243564 10.541042 72.466728 0.100053 0.000000 0.000000
    24 21.459555 8.754425 83.556168 -2.920017 0.149510 0.392799
    25 17.475136 6.636702 27.314850 -1.168280 0.000000 0.000000
    26 -18.317291 -1.276392 77.329521 0.051084 -0.013257 0.479219
    27 18.317289 -1.276392 78.915184 1.509612 0.099986 -0.479220
  time 25
    0 -35.468750 -0.000003 34.031250 1.570755 0.009055 1.561741
    1 -23.022341 8.405320 -65.041862 0.120270 -0.201462 -1.763966
    2 -21.389791 8.021282 83.477676 -0.221512 -0.049892 2.782876
    3 0.000008 -14.372050 -51.954159 3.141593 -0.000001 -3.141593
    4 38.362362 0.000018 0.339007 3.141593 0.000001 3.141593
    5 28.925760 -7.402312 6.807235 3.052291 -0.241637 1.772380
    6 0.000008 -14.372050 -52.293156 0.000000 0.000000 0.000000
    7 35.839706 0.000001 -0.000001 3.141593 -0.000001 -3.141593
    8 28.925745 -7.402332 -6.468227 -0.033641 0.241784 1.760030
    9 23.022341 8.405320 -65.041862 0.027720 -0.201461 -1.377627
    10 4.629186 45.421299 10.487463 -0.086574 -1.233860 -1.269342
    11 30.007692 16.053953 38.950901 -0.441243 0.419923 0.485674
    12 29.891632 12.032869 41.798649 -0.439428 0.294286 0.265484
    13 -38.465004 -17.402895 77.096237 0.000000 0.000000 0.000000
    14 0.500000 0.000000 0.000001 0.000000 0.000000 0.000000
    15 -0.500000 0.000000 0.000001 0.000000 0.000000 0.000000
    16 6.146599 -2.756694 -0.416732 0.233571 0.296338 -0.300251
    17 3.986370 7.728779 -0.008186 0.000112 -0.013257 0.479219
    18 38.465004 -17.402927 77.096237 3.141593 0.000001 3.141593
    19 0.500001 0.000000 0.000000 0.000000 0.000000 0.000000
    20 0.000001 0.000000 0.000000 0.000000 0.000000 0.000000
    21 6.146630 -2.756808 0.416379 -2.890300 0.224569 2.843418
    22 3.986371 7.728779 0.008185 2.812332 0.099986 0.479220
    23 0.243564 10.541042 72.466728 0.100053 0.000000 0.000000
    24 21.459555 8.754425 83.556168 -2.920017 0.149510 0.392799
    25 17.475136 6.636702 27.314850 -1.168280 0.000000 0.000000
    26 -18.317291 -1.276392 77.329521 0.051084 -0.013257 0.479219
    27 18.317289 -1.276392 78.915184 1.509612 0.099986 -0.479220
  time 26
    0 -35.468750 -0.000003 34.031250 1.570755 0.009055 1.561741
    1 -23.022341 8.405320 -65.041862 0.120270 -0.201462 -1.763966
    2 -21.389791 8.021282 83.477676 -0.221512 -0.049892 2.782876
    3 0.000008 -14.372050 -51.954159 3.141593 -0.000001 -3.141593
    4 38.362362 0.000018 0.339007 3.141593 0.000001 3.141593
    5 28.925760 -7.402312 6.807235 3.052291 -0.241637 1.772380
    6 0.000008 -14.372050 -52.293156 0.000000 0.000000 0.000000
    7 35.839706 0.000001 -0.000001 3.141593 -0.000001 -3.141593
    8 28.925745 -7.402332 -6.468227 -0.033641 0.241784 1.760030
    9 23.022341 8.405320 -65.041862 0.027720 -0.201461 -1.377627
    10 5.117482 40.194577 9.885427 -0.252723 -1.283062 -1.068274
    11 30.007692 16.053953 38.950901 -0.441243 0.419923 0.485674
    12 29.891632 12.032869 41.798649 -0.439428 0.294286 0.265484
    13 -38.465004 -17.402895 77.096237 0.000000 0.000000 0.000000
    14 0.500000 0.000000 0.000001 0.000000 0.000000 0.000000
    15 -0.500000 0.000000 0.000001 0.000000 0.000000 0.000000
    16 6.146599 -2.756694 -0.416732 0.233571 0.296338 -0.300251
    17 3.986370 7.728779 -0.008186 0.000112 -0.013257 0.479219
    18 38.465004 -17.402927 77.096237 3.141593 0.000001 3.141593
    19 0.500001 0.000000 0.000000 0.000000 0.000000 0.000000
    20 0.000001 0.000000 0.000000 0.000000 0.000000 0.000000
    21 6.146630 -2.756808 0.416379 -2.890300 0.224569 2.843418
    22 3.986371 7.728779 0.008185 2.812332 0.099986 0.479220
    23 0.243564 10.541042 72.466728 0.100053 0.000000 0.000000
    24 21.459555 8.754425 83.556168 -2.920017 0.149510 0.392799
    25 17.475136 6.636702 27.314850 -1.168280 0.000000 0.000000
    26 -18.317291 -1.276392 77.329521 0.051084 -0.013257 0.479219
    27 18.317289 -1.276392 78.915184 1.509612 0.099986 -0.479220
  time 27
    0 -35.468750 -0.000003 34.031250 1.570755 0.009055 1.561741
    1 -23.022341 8.405320 -65.041862 0.120270 -0.201462 -1.763966
    2 -21.389791 8.021282 83.477676 -0.221512 -0.049892 2.782876
    3 0.000008 -14.372050 -51.954159 3.141593 -0.000001 -3.141593
    4 38.362362 0.000018 0.339007 3.141593 0.000001 3.141593
    5 28.925760 -7.402312 6.807235 3.052291 -0.241637 1.772380
    6 0.000008 -14.372050 -52.293156 0.000000 0.000000 0.000000
    7 35.839706 0.000001 -0.000001 3.141593 -0.000001 -3.141593
    8 28.925745 -7.402332 -6.468227 -0.033641 0.241784 1.760030
    9 23.022341 8.405320 -65.041862 0.027720 -0.201461 -1.377627
    10 5.945632 34.878009 9.247060 -0.471987 -1.350430 -0.809546
    11 30.007692 16.053953 38.950901 -0.441243 0.419923 0.485674
    12 29.891632 12.032869 41.798649 -0.439428 0.294286 0.265484
    13 -38.465004 -17.402895 77.096237 0.000000 0.000000 0.000000
    14 0.500000 0.000000 0.000001 0.000000 0.000000 0.000000
    15 -0.500000 0.000000 0.000001 0.000000 0.000000 0.000000
    16 6.146599 -2.756694 -0.416732 0.233571 0.296338 -0.300251
    17 3.986370 7.728779 -0.008186 0.000112 -0.013257 0.479219
    18 38.465004 -17.402927 77.096237 3.141593 0.000001 3.141593
    19 0.500001 0.000000 0.000000 0.000000 0.000000 0.000000
    20 0.000001 0.000000 0.000000 0.000000 0.000000 0.000000
    21 6.146630 -2.756808 0.416379 -2.890300 0.224569 2.843418
    22 3.986371 7.728779 0.008185 2.812332 0.099986 0.479220
    23 0.243564 10.541042 72.466728 0.100053 0.000000 0.000000
    24 21.459555 8.754425 83.556168 -2.920017 0.149510 0.392799
    25 17.475136 6.636702 27.314850 -1.168280 0.000000 0.000000
    26 -18.317291 -1.276392 77.329521 0.051084 -0.013257 0.479219
    27 18.317289 -1.276392 78.915184 1.509612 0.099986 -0.479220
  time 28
    0 -35.468750 -0.000003 34.031250 1.570755 0.009055 1.561741
    1 -23.022341 8.405320 -65.041862 0.120270 -0.201462 -1.763966
    2 -21.389791 8.021282 83.477676 -0.221512 -0.049892 2.782876
    3 0.000008 -14.372050 -51.954159 3.141593 -0.000001 -3.141593
    4 38.362362 0.000018 0.339007 3.141593 0.000001 3.141593
    5 28.925760 -7.402312 6.807235 3.052291 -0.241637 1.772380
    6 0.000008 -14.372050 -52.293156 0.000000 0.000000 0.000000
    7 35.839706 0.000001 -0.000001 3.141593 -0.000001 -3.141593
    8 28.925745 -7.402332 -6.468227 -0.033641 0.241784 1.760030
    9 23.022341 8.405320 -65.041862 0.027720 -0.201461 -1.377627
    10 7.308955 29.268463 8.510084 -0.701700 -1.423381 -0.545319
    11 30.007692 16.053953 38.950901 -0.441243 0.419923 0.485674
    12 29.891632 12.032869 41.798649 -0.439428 0.294286 0.265484
    13 -38.465004 -17.402895 77.096237 0.000000 0.000000 0.000000
    14 0.500000 0.000000 0.000001 0.000000 0.000000 0.000000
    15 -0.500000 0.000000 0.000001 0.000000 0.000000 0.000000
    16 6.146599 -2.756694 -0.416732 0.233571 0.296338 -0.300251
    17 3.986370 7.728779 -0.008186 0.000112 -0.013257 0.479219
    18 38.465004 -17.402927 77.096237 3.141593 0.000001 3.141593
    19 0.500001 0.000000 0.000000 0.000000 0.000000 0.000000
    20 0.000001 0.000000 0.000000 0.000000 0.000000 0.000000
    21 6.146630 -2.756808 0.416379 -2.890300 0.224569 2.843418
    22 3.986371 7.728779 0.008185 2.812332 0.099986 0.479220
    23 0.243564 10.541042 72.466728 0.100053 0.000000 0.000000
    24 21.459555 8.754425 83.556168 -2.920017 0.149510 0.392799
    25 17.475136 6.636702 27.314850 -1.168280 0.000000 0.000000
    26 -18.317291 -1.276392 77.329521 0.051084 -0.013257 0.479219
    27 18.317289 -1.276392 78.915184 1.509612 0.099986 -0.479220
  time 29
    0 -35.468750 -0.000003 34.031250 1.570755 0.009055 1.561741
    1 -23.022341 8.405320 -65.041862 0.120270 -0.201462 -1.763966
    2 -21.389791 8.021282 83.477676 -0.221512 -0.049892 2.782876
    3 0.000008 -14.372050 -51.954159 3.141593 -0.000001 -3.141593
    4 38.362362 0.000018 0.339007 3.141593 0.000001 3.141593
    5 28.925760 -7.402312 6.807235 3.052291 -0.241637 1.772380
    6 0.000008 -14.372050 -52.293156 0.000000 0.000000 0.000000
    7 35.839706 0.000001 -0.000001 3.141593 -0.000001 -3.141593
    8 28.925745 -7.402332 -6.468227 -0.033641 0.241784 1.760030
    9 23.022341 8.405320 -65.041862 0.027720 -0.201461 -1.377627
    10 9.039477 23.584695 7.721209 -0.898913 -1.489330 -0.327680
    11 30.007692 16.053953 38.950901 -0.441243 0.419923 0.485674
    12 29.891632 12.032869 41.798649 -0.439428 0.294286 0.265484
    13 -38.465004 -17.402895 77.096237 0.000000 0.000000 0.000000
    14 0.500000 0.000000 0.000001 0.000000 0.000000 0.000000
    15 -0.500000 0.000000 0.000001 0.000000 0.000000 0.000000
    16 6.146599 -2.756694 -0.416732 0.233571 0.296338 -0.300251
    17 3.986370 7.728779 -0.008186 0.000112 -0.013257 0.479219
    18 38.465004 -17.402927 77.096237 3.141593 0.000001 3.141593
    19 0.500001 0.000000 0.000000 0.000000 0.000000 0.000000
    20 0.000001 0.000000 0.000000 0.000000 0.000000 0.000000
    21 6.146630 -2.756808 0.416379 -2.890300 0.224569 2.843418
    22 3.986371 7.728779 0.008185 2.812332 0.099986 0.479220
    23 0.243564 10.541042 72.466728 0.100053 0.000000 0.000000
    24 21.459555 8.754425 83.556168 -2.920017 0.149510 0.392799
    25 17.475136 6.636702 27.314850 -1.168280 0.000000 0.000000
    26 -18.317291 -1.276392 77.329521 0.051084 -0.013257 0.479219
    27 18.317289 -1.276392 78.915184 1.509612 0.099986 -0.479220
  time 30
    0 -35.468750 -0.000003 34.031250 1.570755 0.009055 1.561741
    1 -23.022341 8.405320 -65.041862 0.120270 -0.201462 -1.763966
    2 -21.389791 8.021282 83.477676 -0.221512 -0.049892 2.782876
    3 0.000008 -14.372050 -51.954159 3.141593 -0.000001 -3.141593
    4 38.362362 0.000018 0.339007 3.141593 0.000001 3.141593
    5 28.925760 -7.402312 6.807235 3.052291 -0.241637 1.772380
    6 0.000008 -14.372050 -52.293156 0.000000 0.000000 0.000000
    7 35.839706 0.000001 -0.000001 3.141593 -0.000001 -3.141593
    8 28.925745 -7.402332 -6.468227 -0.033641 0.241784 1.760030
    9 23.022341 8.405320 -65.041862 0.027720 -0.201461 -1.377627
    10 10.965317 18.006400 6.916763 -1.020768 -1.535598 -0.208719
    11 30.007692 16.053953 38.950901 -0.441243 0.419923 0.485674
    12 29.891632 12.032869 41.798649 -0.439428 0.294286 0.265484
    13 -38.465004 -17.402895 77.096237 0.000000 0.000000 0.000000
    14 0.500000 0.000000 0.000001 0.000000 0.000000 0.000000
    15 -0.500000 0.000000 0.000001 0.000000 0.000000 0.000000
    16 6.146599 -2.756694 -0.416732 0.233571 0.296338 -0.300251
    17 3.986370 7.728779 -0.008186 0.000112 -0.013257 0.479219
    18 38.465004 -17.402927 77.096237 3.141593 0.000001 3.141593
    19 0.500001 0.000000 0.000000 0.000000 0.000000 0.000000
    20 0.000001 0.000000 0.000000 0.000000 0.000000 0.000000
    21 6.146630 -2.756808 0.416379 -2.890300 0.224569 2.843418
    22 3.986371 7.728779 0.008185 2.812332 0.099986 0.479220
    23 0.243564 10.541042 72.466728 0.100053 0.000000 0.000000
    24 21.459555 8.754425 83.556168 -2.920017 0.149510 0.392799
    25 17.475136 6.636702 27.314850 -1.168280 0.000000 0.000000
    26 -18.317291 -1.276392 77.329521 0.051084 -0.013257 0.479219
    27 18.317289 -1.276392 78.915184 1.509612 0.099986 -0.479220
  time 31
    0 -35.468750 -0.000003 34.031250 1.570755 0.009055 1.561741
    1 -23.022341 8.405320 -65.041862 0.120270 -0.201462 -1.763966
    2 -21.389791 8.021282 83.477676 -0.221512 -0.049892 2.782876
    3 0.000008 -14.372050 -51.954159 3.141593 -0.000001 -3.141593
    4 38.362362 0.000018 0.339007 3.141593 0.000001 3.141593
    5 28.925760 -7.402312 6.807235 3.052291 -0.241637 1.772380
    6 0.000008 -14.372050 -52.293156 0.000000 0.000000 0.000000
    7 35.839706 0.000001 -0.000001 3.141593 -0.000001 -3.141593
    8 28.925745 -7.402332 -6.468227 -0.033641 0.241784 1.760030
    9 23.022341 8.405320 -65.041862 0.027720 -0.201461 -1.377627
    10 12.922408 12.822648 6.138268 -1.030835 -1.560010 -0.235246
    11 30.007692 16.053953 38.950901 -0.441243 0.419923 0.485674
    12 29.891632 12.032869 41.798649 -0.439428 0.294286 0.265484
    13 -38.465004 -17.402895 77.096237 0.000000 0.000000 0.000000
    14 0.500000 0.000000 0.000001 0.000000 0.000000 0.000000
    15 -0.500000 0.000000 0.000001 0.000000 0.000000 0.000000
    16 6.146599 -2.756694 -0.416732 0.233571 0.296338 -0.300251
    17 3.986370 7.728779 -0.008186 0.000112 -0.013257 0.479219
    18 38.465004 -17.402927 77.096237 3.141593 0.000001 3.141593
    19 0.500001 0.000000 0.000000 0.000000 0.000000 0.000000
    20 0.000001 0.000000 0.000000 0.000000 0.000000 0.000000
    21 6.146630 -2.756808 0.416379 -2.890300 0.224569 2.843418
    22 3.986371 7.728779 0.008185 2.812332 0.099986 0.479220
    23 0.243564 10.541042 72.466728 0.100053 0.000000 0.000000
    24 21.459555 8.754425 83.556168 -2.920017 0.149510 0.392799
    25 17.475136 6.636702 27.314850 -1.168280 0.000000 0.000000
    26 -18.317291 -1.276392 77.329521 0.051084 -0.013257 0.479219
    27 18.317289 -1.276392 78.915184 1.509612 0.099986 -0.479220
  time 32
    0 -35.468750 -0.000003 34.031250 1.570755 0.009055 1.561741
    1 -23.022341 8.405320 -65.041862 0.120270 -0.201462 -1.763966
    2 -21.389791 8.021282 83.477676 -0.221512 -0.049892 2.782876
    3 0.000008 -14.372050 -51.954159 3.141593 -0.000001 -3.141593
    4 38.362362 0.000018 0.339007 3.141593 0.000001 3.141593
    5 28.925760 -7.402312 6.807235 3.052291 -0.241637 1.772380
    6 0.000008 -14.372050 -52.293156 0.000000 0.000000 0.000000
    7 35.839706 0.000001 -0.000001 3.141593 -0.000001 -3.141593
    8 28.925745 -7.402332 -6.468227 -0.033641 0.241784 1.760030
    9 23.022341 8.405320 -65.041862 0.027720 -0.201461 -1.377627
    10 14.738870 9.267852 5.437622 0.000000 -1.570418 -1.331312
    11 30.007692 16.053953 38.950901 -0.441243 0.419923 0.485674
    12 29.891632 12.032869 41.798649 -0.439428 0.294286 0.265484
    13 -38.465004 -17.402895 77.096237 0.000000 0.000000 0.000000
    14 0.500000 0.000000 0.000001 0.000000 0.000000 0.000000
    15 -0.500000 0.000000 0.000001 0.000000 0.000000 0.000000
    16 6.146599 -2.756694 -0.416732 0.233571 0.296338 -0.300251
    17 3.986370 7.728779 -0.008186 0.000112 -0.013257 0.479219
    18 38.465004 -17.402927 77.096237 3.141593 0.000001 3.141593
    19 0.500001 0.000000 0.000000 0.000000 0.000000 0.000000
    20 0.000001 0.000000 0.000000 0.000000 0.000000 0.000000
    21 6.146630 -2.756808 0.416379 -2.890300 0.224569 2.843418
    22 3.986371 7.728779 0.008185 2.812332 0.099986 0.479220
    23 0.243564 10.541042 72.466728 0.100053 0.000000 0.000000
    24 21.459555 8.754425 83.556168 -2.920017 0.149510 0.392799
    25 17.475136 6.636702 27.314850 -1.168280 0.000000 0.000000
    26 -18.317291 -1.276392 77.329521 0.051084 -0.013257 0.479219
    27 18.317289 -1.276392 78.915184 1.509612 0.099986 -0.479220
  time 33
    0 -35.468750 -0.000003 34.031250 1.570755 0.009055 1.561741
    1 -23.022341 8.405320 -65.041862 0.120270 -0.201462 -1.763966
    2 -21.389791 8.021282 83.477676 -0.221512 -0.049892 2.782876
    3 0.000008 -14.372050 -51.954159 3.141593 -0.000001 -3.141593
    4 38.362362 0.000018 0.339007 3.141593 0.000001 3.141593
    5 28.925760 -7.402312 6.807235 3.052291 -0.241637 1.772380
    6 0.000008 -14.372050 -52.293156 0.000000 0.000000 0.000000
    7 35.839706 0.000001 -0.000001 3.141593 -0.000001 -3.141593
    8 28.925745 -7.402332 -6.468227 -0.033641 0.241784 1.760030
    9 23.022341 8.405320 -65.041862 0.027720 -0.201461 -1.377627
    10 16.242822 10.185849 4.773305 2.286302 -1.567768 -3.698879
    11 30.007692 16.053953 38.950901 -0.441243 0.419923 0.485674
    12 29.891632 12.032869 41.798649 -0.439428 0.294286 0.265484
    13 -38.465004 -17.402895 77.096237 0.000000 0.000000 0.000000
    14 0.500000 0.000000 0.000001 0.000000 0.000000 0.000000
    15 -0.500000 0.000000 0.000001 0.000000 0.000000 0.000000
    16 6.146599 -2.756694 -0.416732 0.233571 0.296338 -0.300251
    17 3.986370 7.728779 -0.008186 0.000112 -0.013257 0.479219
    18 38.465004 -17.402927 77.096237 3.141593 0.000001 3.141593
    19 0.500001 0.000000 0.000000 0.000000 0.000000 0.000000
    20 0.000001 0.000000 0.000000 0.000000 0.000000 0.000000
    21 6.146630 -2.756808 0.416379 -2.890300 0.224569 2.843418
    22 3.986371 7.728779 0.008185 2.812332 0.099986 0.479220
    23 0.243564 10.541042 72.466728 0.100053 0.000000 0.000000
    24 21.459555 8.754425 83.556168 -2.920017 0.149510 0.392799
    25 17.475136 6.636702 27.314850 -1.168280 0.000000 0.000000
    26 -18.317291 -1.276392 77.329521 0.051084 -0.013257 0.479219
    27 18.317289 -1.276392 78.915184 1.509612 0.099986 -0.479220
  time 34
    0 -35.468750 -0.000003 34.031250 1.570755 0.009055 1.561741
    1 -23.022341 8.405320 -65.041862 0.120270 -0.201462 -1.763966
    2 -21.389791 8.021282 83.477676 -0.221512 -0.049892 2.782876
    3 0.000008 -14.372050 -51.954159 3.141593 -0.000001 -3.141593
    4 38.362362 0.000018 0.339007 3.141593 0.000001 3.141593
    5 28.925760 -7.402312 6.807235 3.052291 -0.241637 1.772380
    6 0.000008 -14.372050 -52.293156 0.000000 0.000000 0.000000
    7 35.839706 0.000001 -0.000001 3.141593 -0.000001 -3.141593
    8 28.925745 -7.402332 -6.468227 -0.033641 0.241784 1.760030
    9 23.022341 8.405320 -65.041862 0.027720 -0.201461 -1.377627
    10 17.270197 12.068719 4.223168 2.360988 -1.569377 -3.858634
    11 30.007692 16.053953 38.950901 -0.441243 0.419923 0.485674
    12 29.891632 12.032869 41.798649 -0.439428 0.294286 0.265484
    13 -38.465004 -17.402895 77.096237 0.000000 0.000000 0.000000
    14 0.500000 0.000000 0.000001 0.000000 0.000000 0.000000
    15 -0.500000 0.000000 0.000001 0.000000 0.000000 0.000000
    16 6.146599 -2.756694 -0.416732 0.233571 0.296338 -0.300251
    17 3.986370 7.728779 -0.008186 0.000112 -0.013257 0.479219
    18 38.465004 -17.402927 77.096237 3.141593 0.000001 3.141593
    19 0.500001 0.000000 0.000000 0.000000 0.000000 0.000000
    20 0.000001 0.000000 0.000000 0.000000 0.000000 0.000000
    21 6.146630 -2.756808 0.416379 -2.890300 0.224569 2.843418
    22 3.986371 7.728779 0.008185 2.812332 0.099986 0.479220
    23 0.243564 10.541042 72.466728 0.100053 0.000000 0.000000
    24 21.459555 8.754425 83.556168 -2.920017 0.149510 0.392799
    25 17.475136 6.636702 27.314850 -1.168280 0.000000 0.000000
    26 -18.317291 -1.276392 77.329521 0.051084 -0.013257 0.479219
    27 18.317289 -1.276392 78.915184 1.509612 0.099986 -0.479220
  time 35
    0 -35.468750 -0.000003 34.031250 1.570755 0.009055 1.561741
    1 -23.022341 8.405320 -65.041862 0.120270 -0.201462 -1.763966
    2 -21.389791 8.021282 83.477676 -0.221512 -0.049892 2.782876
    3 0.000008 -14.372050 -51.954159 3.141593 -0.000001 -3.141593
    4 38.362362 0.000018 0.339007 3.141593 0.000001 3.141593
    5 28.925760 -7.402312 6.807235 3.052291 -0.241637 1.772380
    6 0.000008 -14.372050 -52.293156 0.000000 0.000000 0.000000
    7 35.839706 0.000001 -0.000001 3.141593 -0.000001 -3.141593
    8 28.925745 -7.402332 -6.468227 -0.033641 0.241784 1.760030
    9 23.022341 8.405320 -65.041862 0.027720 -0.201461 -1.377627
    10 17.649115 13.100000 4.000000 0.000000 -1.570796 -1.570796
    11 30.007692 16.053953 38.950901 -0.441243 0.419923 0.485674
    12 29.891632 12.032869 41.798649 -0.439428 0.294286 0.265484
    13 -38.465004 -17.402895 77.096237 0.000000 0.000000 0.000000
    14 0.500000 0.000000 0.000001 0.000000 0.000000 0.000000
    15 -0.500000 0.000000 0.000001 0.000000 0.000000 0.000000
    16 6.146599 -2.756694 -0.416732 0.233571 0.296338 -0.300251
    17 3.986370 7.728779 -0.008186 0.000112 -0.013257 0.479219
    18 38.465004 -17.402927 77.096237 3.141593 0.000001 3.141593
    19 0.500001 0.000000 0.000000 0.000000 0.000000 0.000000
    20 0.000001 0.000000 0.000000 0.000000 0.000000 0.000000
    21 6.146630 -2.756808 0.416379 -2.890300 0.224569 2.843418
    22 3.986371 7.728779 0.008185 2.812332 0.099986 0.479220
    23 0.243564 10.541042 72.466728 0.100053 0.000000 0.000000
    24 21.459555 8.754425 83.556168 -2.920017 0.149510 0.392799
    25 17.475136 6.636702 27.314850 -1.168280 0.000000 0.000000
    26 -18.317291 -1.276392 77.329521 0.051084 -0.013257 0.479219
    27 18.317289 -1.276392 78.915184 1.509612 0.099986 -0.479220
end
