// Created by Crowbar 0.64
version 1
nodes
  0 "Rig_Buggy.Frame" -1
  1 "Rig_Buggy.Shock_RR_Sleeve" 0
  2 "Rig_Buggy.Shock_FR_Sleeve" 0
  3 "Rig_Buggy.Axel_RR" 0
  4 "Rig_Buggy.Wheel_RR" 3
  5 "Rig_Buggy.Shock_RR_Piston" 3
  6 "Rig_Buggy.Axel_RL" 0
  7 "Rig_Buggy.Wheel_RL" 6
  8 "Rig_Buggy.Shock_RL_Piston" 6
  9 "Rig_Buggy.Shock_RL_Sleeve" 0
  10 "Rig_Buggy.view" 0
  11 "Rig_Buggy.Speedo" 0
  12 "Rig_Buggy.Speedo2" 0
  13 "Rig_Buggy.Wheel_FR_Turn_parent" 0
  14 "Rig_Buggy.Wheel_FR_Turn" 13
  15 "Rig_Buggy.Wheel_FR_Rotate" 14
  16 "Rig_Buggy.Shock_FR_Piston" 13
  17 "Rig_Buggy.FR_Top_Strut" 13
  18 "Rig_Buggy.Wheel_FL_Turn_parent" 0
  19 "Rig_Buggy.Wheel_FL_Turn" 18
  20 "Rig_Buggy.Wheel_FL_Rotate" 19
  21 "Rig_Buggy.Shock_FL_Piston" 18
  22 "Rig_Buggy.FL_Top_Suspension" 18
  23 "Rig_Buggy.air_filter" 0
  24 "Rig_Buggy.Shock_FL_Sleeve" 0
  25 "Rig_Buggy.Steer_Wheel" 0
  26 "Rig_Buggy.FR_Top_Strut_Base" 0
  27 "Rig_Buggy.FL_Body_Top_Suspension" 0
end
skeleton
  time 0
    0 -35.468750 -0.000003 34.031250 1.570755 0.009055 1.561741
    1 -23.022341 8.405320 -65.041862 0.117492 -0.201402 -1.763926
    2 -21.389791 8.021282 83.477676 -0.223112 -0.048023 2.779811
    3 0.000008 -14.372050 -51.954159 3.141593 -0.000001 -3.141593
    4 38.362362 0.000018 0.339007 3.141593 0.000001 3.141593
    5 28.925760 -7.402312 6.807235 3.048668 -0.242291 1.772208
    6 0.000008 -14.372050 -52.293156 0.000000 0.000000 0.000000
    7 35.839706 0.000001 -0.000001 3.141593 -0.000001 -3.141593
    8 28.925745 -7.402332 -6.468227 -0.031699 0.241732 1.759800
    9 23.022341 8.405320 -65.041862 0.029136 -0.201417 -1.377526
    10 69.428038 19.951772 -1.978847 1.570796 -0.000039 -3.141520
    11 30.000000 16.078125 38.843750 -0.441243 0.419923 0.485674
    12 29.859375 11.976563 41.156250 -0.439428 0.294286 0.265484
    13 -38.437500 -17.093750 77.062500 0.000000 0.000000 0.000000
    14 0.500000 0.000000 0.000001 0.000000 0.000000 0.000000
    15 -0.500000 0.000000 0.000001 0.000000 0.000000 0.000000
    16 6.156250 -2.806641 -0.416260 0.233163 0.265194 -0.309990
    17 3.986370 7.728779 -0.008186 0.000302 -0.013305 0.464625
    18 38.465004 -17.402927 77.096237 3.141593 0.000001 3.141593
    19 0.500001 0.000000 0.000000 0.000000 0.000000 0.000000
    20 0.000001 0.000000 0.000000 0.000000 0.000000 0.000000
    21 6.146630 -2.756808 0.416379 -2.888240 0.256672 2.851494
    22 3.986371 7.728779 0.008185 2.810615 0.099884 0.479182
    23 0.243564 10.541042 72.466728 0.100053 0.000000 0.000000
    24 21.459555 8.754425 83.556168 -2.920415 0.132579 0.388955
    25 17.475136 6.636702 27.314850 -1.168280 0.000000 0.000000
    26 -18.317291 -1.276392 77.329521 0.051235 -0.013318 0.464692
    27 18.317289 -1.276392 78.915184 1.511158 0.099895 -0.479122
  time 1
    0 -35.468750 -0.000003 34.031250 1.570755 0.009055 1.561741
    1 -23.022341 8.405320 -65.041862 0.117492 -0.201402 -1.763926
    2 -21.389791 8.021282 83.477676 -0.223112 -0.048023 2.779811
    3 0.000008 -14.372050 -51.954159 3.141593 -0.000001 -3.141593
    4 38.362362 0.000018 0.339007 3.141593 0.000001 3.141593
    5 28.925760 -7.402312 6.807235 3.048668 -0.242291 1.772208
    6 0.000008 -14.372050 -52.293156 0.000000 0.000000 0.000000
    7 35.839706 0.000001 -0.000001 3.141593 -0.000001 -3.141593
    8 28.925745 -7.402332 -6.468227 -0.031699 0.241732 1.759800
    9 23.022341 8.405320 -65.041862 0.029136 -0.201417 -1.377526
    10 69.053027 19.900989 -1.937327 1.566194 -0.015178 -3.140554
    11 30.000000 16.078125 38.843750 -0.441243 0.419923 0.485674
    12 29.859375 11.976563 41.156250 -0.439428 0.294286 0.265484
    13 -38.437500 -17.093750 77.062500 0.000000 0.000000 0.000000
    14 0.500000 0.000000 0.000001 0.000000 0.000000 0.000000
    15 -0.500000 0.000000 0.000001 0.000000 0.000000 0.000000
    16 6.156250 -2.806641 -0.416260 0.233163 0.265194 -0.309990
    17 3.986370 7.728779 -0.008186 0.000302 -0.013305 0.464625
    18 38.465004 -17.402927 77.096237 3.141593 0.000001 3.141593
    19 0.500001 0.000000 0.000000 0.000000 0.000000 0.000000
    20 0.000001 0.000000 0.000000 0.000000 0.000000 0.000000
    21 6.146630 -2.756808 0.416379 -2.888240 0.256672 2.851494
    22 3.986371 7.728779 0.008185 2.810615 0.099884 0.479182
    23 0.243564 10.541042 72.466728 0.100053 0.000000 0.000000
    24 21.459555 8.754425 83.556168 -2.920415 0.132579 0.388955
    25 17.475136 6.636702 27.314850 -1.168280 0.000000 0.000000
    26 -18.317291 -1.276392 77.329521 0.051235 -0.013318 0.464692
    27 18.317289 -1.276392 78.915184 1.511158 0.099895 -0.479122
  time 2
    0 -35.468750 -0.000003 34.031250 1.570755 0.009055 1.561741
    1 -23.022341 8.405320 -65.041862 0.117492 -0.201402 -1.763926
    2 -21.389791 8.021282 83.477676 -0.223112 -0.048023 2.779811
    3 0.000008 -14.372050 -51.954159 3.141593 -0.000001 -3.141593
    4 38.362362 0.000018 0.339007 3.141593 0.000001 3.141593
    5 28.925760 -7.402312 6.807235 3.048668 -0.242291 1.772208
    6 0.000008 -14.372050 -52.293156 0.000000 0.000000 0.000000
    7 35.839706 0.000001 -0.000001 3.141593 -0.000001 -3.141593
    8 28.925745 -7.402332 -6.468227 -0.031699 0.241732 1.759800
    9 23.022341 8.405320 -65.041862 0.029136 -0.201417 -1.377526
    10 67.978776 19.760360 -1.812768 1.554594 -0.057188 -3.138474
    11 30.000000 16.078125 38.843750 -0.441243 0.419923 0.485674
    12 29.859375 11.976563 41.156250 -0.439428 0.294286 0.265484
    13 -38.437500 -17.093750 77.062500 0.000000 0.000000 0.000000
    14 0.500000 0.000000 0.000001 0.000000 0.000000 0.000000
    15 -0.500000 0.000000 0.000001 0.000000 0.000000 0.000000
    16 6.156250 -2.806641 -0.416260 0.233163 0.265194 -0.309990
    17 3.986370 7.728779 -0.008186 0.000302 -0.013305 0.464625
    18 38.465004 -17.402927 77.096237 3.141593 0.000001 3.141593
    19 0.500001 0.000000 0.000000 0.000000 0.000000 0.000000
    20 0.000001 0.000000 0.000000 0.000000 0.000000 0.000000
    21 6.146630 -2.756808 0.416379 -2.888240 0.256672 2.851494
    22 3.986371 7.728779 0.008185 2.810615 0.099884 0.479182
    23 0.243564 10.541042 72.466728 0.100053 0.000000 0.000000
    24 21.459555 8.754425 83.556168 -2.920415 0.132579 0.388955
    25 17.475136 6.636702 27.314850 -1.168280 0.000000 0.000000
    26 -18.317291 -1.276392 77.329521 0.051235 -0.013318 0.464692
    27 18.317289 -1.276392 78.915184 1.511158 0.099895 -0.479122
  time 3
    0 -35.468750 -0.000003 34.031250 1.570755 0.009055 1.561741
    1 -23.022341 8.405320 -65.041862 0.117492 -0.201402 -1.763926
    2 -21.389791 8.021282 83.477676 -0.223112 -0.048023 2.779811
    3 0.000008 -14.372050 -51.954159 3.141593 -0.000001 -3.141593
    4 38.362362 0.000018 0.339007 3.141593 0.000001 3.141593
    5 28.925760 -7.402312 6.807235 3.048668 -0.242291 1.772208
    6 0.000008 -14.372050 -52.293156 0.000000 0.000000 0.000000
    7 35.839706 0.000001 -0.000001 3.141593 -0.000001 -3.141593
    8 28.925745 -7.402332 -6.468227 -0.031699 0.241732 1.759800
    9 23.022341 8.405320 -65.041862 0.029136 -0.201417 -1.377526
    10 66.283411 19.533790 -1.615549 1.539254 -0.120866 -3.136988
    11 30.000000 16.078125 38.843750 -0.441243 0.419923 0.485674
    12 29.859375 11.976563 41.156250 -0.439428 0.294286 0.265484
    13 -38.437500 -17.093750 77.062500 0.000000 0.000000 0.000000
    14 0.500000 0.000000 0.000001 0.000000 0.000000 0.000000
    15 -0.500000 0.000000 0.000001 0.000000 0.000000 0.000000
    16 6.156250 -2.806641 -0.416260 0.233163 0.265194 -0.309990
    17 3.986370 7.728779 -0.008186 0.000302 -0.013305 0.464625
    18 38.465004 -17.402927 77.096237 3.141593 0.000001 3.141593
    19 0.500001 0.000000 0.000000 0.000000 0.000000 0.000000
    20 0.000001 0.000000 0.000000 0.000000 0.000000 0.000000
    21 6.146630 -2.756808 0.416379 -2.888240 0.256672 2.851494
    22 3.986371 7.728779 0.008185 2.810615 0.099884 0.479182
    23 0.243564 10.541042 72.466728 0.100053 0.000000 0.000000
    24 21.459555 8.754425 83.556168 -2.920415 0.132579 0.388955
    25 17.475136 6.636702 27.314850 -1.168280 0.000000 0.000000
    26 -18.317291 -1.276392 77.329521 0.051235 -0.013318 0.464692
    27 18.317289 -1.276392 78.915184 1.511158 0.099895 -0.479122
  time 4
    0 -35.468750 -0.000003 34.031250 1.570755 0.009055 1.561741
    1 -23.022341 8.405320 -65.041862 0.117492 -0.201402 -1.763926
    2 -21.389791 8.021282 83.477676 -0.223112 -0.048023 2.779811
    3 0.000008 -14.372050 -51.954159 3.141593 -0.000001 -3.141593
    4 38.362362 0.000018 0.339007 3.141593 0.000001 3.141593
    5 28.925760 -7.402312 6.807235 3.048668 -0.242291 1.772208
    6 0.000008 -14.372050 -52.293156 0.000000 0.000000 0.000000
    7 35.839706 0.000001 -0.000001 3.141593 -0.000001 -3.141593
    8 28.925745 -7.402332 -6.468227 -0.031699 0.241732 1.759800
    9 23.022341 8.405320 -65.041862 0.029136 -0.201417 -1.377526
    10 64.041155 19.236906 -1.356051 1.523435 -0.201008 -3.137508
    11 30.000000 16.078125 38.843750 -0.441243 0.419923 0.485674
    12 29.859375 11.976563 41.156250 -0.439428 0.294286 0.265484
    13 -38.437500 -17.093750 77.062500 0.000000 0.000000 0.000000
    14 0.500000 0.000000 0.000001 0.000000 0.000000 0.000000
    15 -0.500000 0.000000 0.000001 0.000000 0.000000 0.000000
    16 6.156250 -2.806641 -0.416260 0.233163 0.265194 -0.309990
    17 3.986370 7.728779 -0.008186 0.000302 -0.013305 0.464625
    18 38.465004 -17.402927 77.096237 3.141593 0.000001 3.141593
    19 0.500001 0.000000 0.000000 0.000000 0.000000 0.000000
    20 0.000001 0.000000 0.000000 0.000000 0.000000 0.000000
    21 6.146630 -2.756808 0.416379 -2.888240 0.256672 2.851494
    22 3.986371 7.728779 0.008185 2.810615 0.099884 0.479182
    23 0.243564 10.541042 72.466728 0.100053 0.000000 0.000000
    24 21.459555 8.754425 83.556168 -2.920415 0.132579 0.388955
    25 17.475136 6.636702 27.314850 -1.168280 0.000000 0.000000
    26 -18.317291 -1.276392 77.329521 0.051235 -0.013318 0.464692
    27 18.317289 -1.276392 78.915184 1.511158 0.099895 -0.479122
  time 5
    0 -35.468750 -0.000003 34.031250 1.570755 0.009055 1.561741
    1 -23.022341 8.405320 -65.041862 0.117492 -0.201402 -1.763926
    2 -21.389791 8.021282 83.477676 -0.223112 -0.048023 2.779811
    3 0.000008 -14.372050 -51.954159 3.141593 -0.000001 -3.141593
    4 38.362362 0.000018 0.339007 3.141593 0.000001 3.141593
    5 28.925760 -7.402312 6.807235 3.048668 -0.242291 1.772208
    6 0.000008 -14.372050 -52.293156 0.000000 0.000000 0.000000
    7 35.839706 0.000001 -0.000001 3.141593 -0.000001 -3.141593
    8 28.925745 -7.402332 -6.468227 -0.031699 0.241732 1.759800
    9 23.022341 8.405320 -65.041862 0.029136 -0.201417 -1.377526
    10 61.337948 18.881427 -1.044652 1.510300 -0.292504 -3.141669
    11 30.000000 16.078125 38.843750 -0.441243 0.419923 0.485674
    12 29.859375 11.976563 41.156250 -0.439428 0.294286 0.265484
    13 -38.437500 -17.093750 77.062500 0.000000 0.000000 0.000000
    14 0.500000 0.000000 0.000001 0.000000 0.000000 0.000000
    15 -0.500000 0.000000 0.000001 0.000000 0.000000 0.000000
    16 6.156250 -2.806641 -0.416260 0.233163 0.265194 -0.309990
    17 3.986370 7.728779 -0.008186 0.000302 -0.013305 0.464625
    18 38.465004 -17.402927 77.096237 3.141593 0.000001 3.141593
    19 0.500001 0.000000 0.000000 0.000000 0.000000 0.000000
    20 0.000001 0.000000 0.000000 0.000000 0.000000 0.000000
    21 6.146630 -2.756808 0.416379 -2.888240 0.256672 2.851494
    22 3.986371 7.728779 0.008185 2.810615 0.099884 0.479182
    23 0.243564 10.541042 72.466728 0.100053 0.000000 0.000000
    24 21.459555 8.754425 83.556168 -2.920415 0.132579 0.388955
    25 17.475136 6.636702 27.314850 -1.168280 0.000000 0.000000
    26 -18.317291 -1.276392 77.329521 0.051235 -0.013318 0.464692
    27 18.317289 -1.276392 78.915184 1.511158 0.099895 -0.479122
  time 6
    0 -35.468750 -0.000003 34.031250 1.570755 0.009055 1.561741
    1 -23.022341 8.405320 -65.041862 0.117492 -0.201402 -1.763926
    2 -21.389791 8.021282 83.477676 -0.223112 -0.048023 2.779811
    3 0.000008 -14.372050 -51.954159 3.141593 -0.000001 -3.141593
    4 38.362362 0.000018 0.339007 3.141593 0.000001 3.141593
    5 28.925760 -7.402312 6.807235 3.048668 -0.242291 1.772208
    6 0.000008 -14.372050 -52.293156 0.000000 0.000000 0.000000
    7 35.839706 0.000001 -0.000001 3.141593 -0.000001 -3.141593
    8 28.925745 -7.402332 -6.468227 -0.031699 0.241732 1.759800
    9 23.022341 8.405320 -65.041862 0.029136 -0.201417 -1.377526
    10 58.244103 18.471258 -0.686544 1.503205 -0.390150 -3.150883
    11 30.000000 16.078125 38.843750 -0.441243 0.419923 0.485674
    12 29.859375 11.976563 41.156250 -0.439428 0.294286 0.265484
    13 -38.437500 -17.093750 77.062500 0.000000 0.000000 0.000000
    14 0.500000 0.000000 0.000001 0.000000 0.000000 0.000000
    15 -0.500000 0.000000 0.000001 0.000000 0.000000 0.000000
    16 6.156250 -2.806641 -0.416260 0.233163 0.265194 -0.309990
    17 3.986370 7.728779 -0.008186 0.000302 -0.013305 0.464625
    18 38.465004 -17.402927 77.096237 3.141593 0.000001 3.141593
    19 0.500001 0.000000 0.000000 0.000000 0.000000 0.000000
    20 0.000001 0.000000 0.000000 0.000000 0.000000 0.000000
    21 6.146630 -2.756808 0.416379 -2.888240 0.256672 2.851494
    22 3.986371 7.728779 0.008185 2.810615 0.099884 0.479182
    23 0.243564 10.541042 72.466728 0.100053 0.000000 0.000000
    24 21.459555 8.754425 83.556168 -2.920415 0.132579 0.388955
    25 17.475136 6.636702 27.314850 -1.168280 0.000000 0.000000
    26 -18.317291 -1.276392 77.329521 0.051235 -0.013318 0.464692
    27 18.317289 -1.276392 78.915184 1.511158 0.099895 -0.479122
  time 7
    0 -35.468750 -0.000003 34.031250 1.570755 0.009055 1.561741
    1 -23.022341 8.405320 -65.041862 0.117492 -0.201402 -1.763926
    2 -21.389791 8.021282 83.477676 -0.223112 -0.048023 2.779811
    3 0.000008 -14.372050 -51.954159 3.141593 -0.000001 -3.141593
    4 38.362362 0.000018 0.339007 3.141593 0.000001 3.141593
    5 28.925760 -7.402312 6.807235 3.048668 -0.242291 1.772208
    6 0.000008 -14.372050 -52.293156 0.000000 0.000000 0.000000
    7 35.839706 0.000001 -0.000001 3.141593 -0.000001 -3.141593
    8 28.925745 -7.402332 -6.468227 -0.031699 0.241732 1.759800
    9 23.022341 8.405320 -65.041862 0.029136 -0.201417 -1.377526
    10 54.837749 18.022026 -0.292107 1.505314 -0.488742 -3.166858
    11 30.000000 16.078125 38.843750 -0.441243 0.419923 0.485674
    12 29.859375 11.976563 41.156250 -0.439428 0.294286 0.265484
    13 -38.437500 -17.093750 77.062500 0.000000 0.000000 0.000000
    14 0.500000 0.000000 0.000001 0.000000 0.000000 0.000000
    15 -0.500000 0.000000 0.000001 0.000000 0.000000 0.000000
    16 6.156250 -2.806641 -0.416260 0.233163 0.265194 -0.309990
    17 3.986370 7.728779 -0.008186 0.000302 -0.013305 0.464625
    18 38.465004 -17.402927 77.096237 3.141593 0.000001 3.141593
    19 0.500001 0.000000 0.000000 0.000000 0.000000 0.000000
    20 0.000001 0.000000 0.000000 0.000000 0.000000 0.000000
    21 6.146630 -2.756808 0.416379 -2.888240 0.256672 2.851494
    22 3.986371 7.728779 0.008185 2.810615 0.099884 0.479182
    23 0.243564 10.541042 72.466728 0.100053 0.000000 0.000000
    24 21.459555 8.754425 83.556168 -2.920415 0.132579 0.388955
    25 17.475136 6.636702 27.314850 -1.168280 0.000000 0.000000
    26 -18.317291 -1.276392 77.329521 0.051235 -0.013318 0.464692
    27 18.317289 -1.276392 78.915184 1.511158 0.099895 -0.479122
  time 8
    0 -35.468750 -0.000003 34.031250 1.570755 0.009055 1.561741
    1 -23.022341 8.405320 -65.041862 0.117492 -0.201402 -1.763926
    2 -21.389791 8.021282 83.477676 -0.223112 -0.048023 2.779811
    3 0.000008 -14.372050 -51.954159 3.141593 -0.000001 -3.141593
    4 38.362362 0.000018 0.339007 3.141593 0.000001 3.141593
    5 28.925760 -7.402312 6.807235 3.048668 -0.242291 1.772208
    6 0.000008 -14.372050 -52.293156 0.000000 0.000000 0.000000
    7 35.839706 0.000001 -0.000001 3.141593 -0.000001 -3.141593
    8 28.925745 -7.402332 -6.468227 -0.031699 0.241732 1.759800
    9 23.022341 8.405320 -65.041862 0.029136 -0.201417 -1.377526
    10 51.200920 17.537636 0.128281 1.519887 -0.583076 -3.191007
    11 30.000000 16.078125 38.843750 -0.441243 0.419923 0.485674
    12 29.859375 11.976563 41.156250 -0.439428 0.294286 0.265484
    13 -38.437500 -17.093750 77.062500 0.000000 0.000000 0.000000
    14 0.500000 0.000000 0.000001 0.000000 0.000000 0.000000
    15 -0.500000 0.000000 0.000001 0.000000 0.000000 0.000000
    16 6.156250 -2.806641 -0.416260 0.233163 0.265194 -0.309990
    17 3.986370 7.728779 -0.008186 0.000302 -0.013305 0.464625
    18 38.465004 -17.402927 77.096237 3.141593 0.000001 3.141593
    19 0.500001 0.000000 0.000000 0.000000 0.000000 0.000000
    20 0.000001 0.000000 0.000000 0.000000 0.000000 0.000000
    21 6.146630 -2.756808 0.416379 -2.888240 0.256672 2.851494
    22 3.986371 7.728779 0.008185 2.810615 0.099884 0.479182
    23 0.243564 10.541042 72.466728 0.100053 0.000000 0.000000
    24 21.459555 8.754425 83.556168 -2.920415 0.132579 0.388955
    25 17.475136 6.636702 27.314850 -1.168280 0.000000 0.000000
    26 -18.317291 -1.276392 77.329521 0.051235 -0.013318 0.464692
    27 18.317289 -1.276392 78.915184 1.511158 0.099895 -0.479122
  time 9
    0 -35.468750 -0.000003 34.031250 1.570755 0.009055 1.561741
    1 -23.022341 8.405320 -65.041862 0.117492 -0.201402 -1.763926
    2 -21.389791 8.021282 83.477676 -0.223112 -0.048023 2.779811
    3 0.000008 -14.372050 -51.954159 3.141593 -0.000001 -3.141593
    4 38.362362 0.000018 0.339007 3.141593 0.000001 3.141593
    5 28.925760 -7.402312 6.807235 3.048668 -0.242291 1.772208
    6 0.000008 -14.372050 -52.293156 0.000000 0.000000 0.000000
    7 35.839706 0.000001 -0.000001 3.141593 -0.000001 -3.141593
    8 28.925745 -7.402332 -6.468227 -0.031699 0.241732 1.759800
    9 23.022341 8.405320 -65.041862 0.029136 -0.201417 -1.377526
    10 47.407835 17.037621 0.564239 1.550279 -0.668043 -3.224890
    11 30.000000 16.078125 38.843750 -0.441243 0.419923 0.485674
    12 29.859375 11.976563 41.156250 -0.439428 0.294286 0.265484
    13 -38.437500 -17.093750 77.062500 0.000000 0.000000 0.000000
    14 0.500000 0.000000 0.000001 0.000000 0.000000 0.000000
    15 -0.500000 0.000000 0.000001 0.000000 0.000000 0.000000
    16 6.156250 -2.806641 -0.416260 0.233163 0.265194 -0.309990
    17 3.986370 7.728779 -0.008186 0.000302 -0.013305 0.464625
    18 38.465004 -17.402927 77.096237 3.141593 0.000001 3.141593
    19 0.500001 0.000000 0.000000 0.000000 0.000000 0.000000
    20 0.000001 0.000000 0.000000 0.000000 0.000000 0.000000
    21 6.146630 -2.756808 0.416379 -2.888240 0.256672 2.851494
    22 3.986371 7.728779 0.008185 2.810615 0.099884 0.479182
    23 0.243564 10.541042 72.466728 0.100053 0.000000 0.000000
    24 21.459555 8.754425 83.556168 -2.920415 0.132579 0.388955
    25 17.475136 6.636702 27.314850 -1.168280 0.000000 0.000000
    26 -18.317291 -1.276392 77.329521 0.051235 -0.013318 0.464692
    27 18.317289 -1.276392 78.915184 1.511158 0.099895 -0.479122
  time 10
    0 -35.468750 -0.000003 34.031250 1.570755 0.009055 1.561741
    1 -23.022341 8.405320 -65.041862 0.117492 -0.201402 -1.763926
    2 -21.389791 8.021282 83.477676 -0.223112 -0.048023 2.779811
    3 0.000008 -14.372050 -51.954159 3.141593 -0.000001 -3.141593
    4 38.362362 0.000018 0.339007 3.141593 0.000001 3.141593
    5 28.925760 -7.402312 6.807235 3.048668 -0.242291 1.772208
    6 0.000008 -14.372050 -52.293156 0.000000 0.000000 0.000000
    7 35.839706 0.000001 -0.000001 3.141593 -0.000001 -3.141593
    8 28.925745 -7.402332 -6.468227 -0.031699 0.241732 1.759800
    9 23.022341 8.405320 -65.041862 0.029136 -0.201417 -1.377526
    10 43.536623 16.525886 1.010576 1.601476 -0.753957 -3.273708
    11 30.000000 16.078125 38.843750 -0.441243 0.419923 0.485674
    12 29.859375 11.976563 41.156250 -0.439428 0.294286 0.265484
    13 -38.437500 -17.093750 77.062500 0.000000 0.000000 0.000000
    14 0.500000 0.000000 0.000001 0.000000 0.000000 0.000000
    15 -0.500000 0.000000 0.000001 0.000000 0.000000 0.000000
    16 6.156250 -2.806641 -0.416260 0.233163 0.265194 -0.309990
    17 3.986370 7.728779 -0.008186 0.000302 -0.013305 0.464625
    18 38.465004 -17.402927 77.096237 3.141593 0.000001 3.141593
    19 0.500001 0.000000 0.000000 0.000000 0.000000 0.000000
    20 0.000001 0.000000 0.000000 0.000000 0.000000 0.000000
    21 6.146630 -2.756808 0.416379 -2.888240 0.256672 2.851494
    22 3.986371 7.728779 0.008185 2.810615 0.099884 0.479182
    23 0.243564 10.541042 72.466728 0.100053 0.000000 0.000000
    24 21.459555 8.754425 83.556168 -2.920415 0.132579 0.388955
    25 17.475136 6.636702 27.314850 -1.168280 0.000000 0.000000
    26 -18.317291 -1.276392 77.329521 0.051235 -0.013318 0.464692
    27 18.317289 -1.276392 78.915184 1.511158 0.099895 -0.479122
  time 11
    0 -35.468750 -0.000003 34.031250 1.570755 0.009055 1.561741
    1 -23.022341 8.405320 -65.041862 0.117492 -0.201402 -1.763926
    2 -21.389791 8.021282 83.477676 -0.223112 -0.048023 2.779811
    3 0.000008 -14.372050 -51.954159 3.141593 -0.000001 -3.141593
    4 38.362362 0.000018 0.339007 3.141593 0.000001 3.141593
    5 28.925760 -7.402312 6.807235 3.048668 -0.242291 1.772208
    6 0.000008 -14.372050 -52.293156 0.000000 0.000000 0.000000
    7 35.839706 0.000001 -0.000001 3.141593 -0.000001 -3.141593
    8 28.925745 -7.402332 -6.468227 -0.031699 0.241732 1.759800
    9 23.022341 8.405320 -65.041862 0.029136 -0.201417 -1.377526
    10 39.665411 16.014152 1.456914 1.673094 -0.851887 -3.338650
    11 30.000000 16.078125 38.843750 -0.441243 0.419923 0.485674
    12 29.859375 11.976563 41.156250 -0.439428 0.294286 0.265484
    13 -38.437500 -17.093750 77.062500 0.000000 0.000000 0.000000
    14 0.500000 0.000000 0.000001 0.000000 0.000000 0.000000
    15 -0.500000 0.000000 0.000001 0.000000 0.000000 0.000000
    16 6.156250 -2.806641 -0.416260 0.233163 0.265194 -0.309990
    17 3.986370 7.728779 -0.008186 0.000302 -0.013305 0.464625
    18 38.465004 -17.402927 77.096237 3.141593 0.000001 3.141593
    19 0.500001 0.000000 0.000000 0.000000 0.000000 0.000000
    20 0.000001 0.000000 0.000000 0.000000 0.000000 0.000000
    21 6.146630 -2.756808 0.416379 -2.888240 0.256672 2.851494
    22 3.986371 7.728779 0.008185 2.810615 0.099884 0.479182
    23 0.243564 10.541042 72.466728 0.100053 0.000000 0.000000
    24 21.459555 8.754425 83.556168 -2.920415 0.132579 0.388955
    25 17.475136 6.636702 27.314850 -1.168280 0.000000 0.000000
    26 -18.317291 -1.276392 77.329521 0.051235 -0.013318 0.464692
    27 18.317289 -1.276392 78.915184 1.511158 0.099895 -0.479122
  time 12
    0 -35.468750 -0.000003 34.031250 1.570755 0.009055 1.561741
    1 -23.022341 8.405320 -65.041862 0.117492 -0.201402 -1.763926
    2 -21.389791 8.021282 83.477676 -0.223112 -0.048023 2.779811
    3 0.000008 -14.372050 -51.954159 3.141593 -0.000001 -3.141593
    4 38.362362 0.000018 0.339007 3.141593 0.000001 3.141593
    5 28.925760 -7.402312 6.807235 3.048668 -0.242291 1.772208
    6 0.000008 -14.372050 -52.293156 0.000000 0.000000 0.000000
    7 35.839706 0.000001 -0.000001 3.141593 -0.000001 -3.141593
    8 28.925745 -7.402332 -6.468227 -0.031699 0.241732 1.759800
    9 23.022341 8.405320 -65.041862 0.029136 -0.201417 -1.377526
    10 35.872327 15.510230 1.898061 1.759668 -0.957481 -3.415333
    11 30.000000 16.078125 38.843750 -0.441243 0.419923 0.485674
    12 29.859375 11.976563 41.156250 -0.439428 0.294286 0.265484
    13 -38.437500 -17.093750 77.062500 0.000000 0.000000 0.000000
    14 0.500000 0.000000 0.000001 0.000000 0.000000 0.000000
    15 -0.500000 0.000000 0.000001 0.000000 0.000000 0.000000
    16 6.156250 -2.806641 -0.416260 0.233163 0.265194 -0.309990
    17 3.986370 7.728779 -0.008186 0.000302 -0.013305 0.464625
    18 38.465004 -17.402927 77.096237 3.141593 0.000001 3.141593
    19 0.500001 0.000000 0.000000 0.000000 0.000000 0.000000
    20 0.000001 0.000000 0.000000 0.000000 0.000000 0.000000
    21 6.146630 -2.756808 0.416379 -2.888240 0.256672 2.851494
    22 3.986371 7.728779 0.008185 2.810615 0.099884 0.479182
    23 0.243564 10.541042 72.466728 0.100053 0.000000 0.000000
    24 21.459555 8.754425 83.556168 -2.920415 0.132579 0.388955
    25 17.475136 6.636702 27.314850 -1.168280 0.000000 0.000000
    26 -18.317291 -1.276392 77.329521 0.051235 -0.013318 0.464692
    27 18.317289 -1.276392 78.915184 1.511158 0.099895 -0.479122
  time 13
    0 -35.468750 -0.000003 34.031250 1.570755 0.009055 1.561741
    1 -23.022341 8.405320 -65.041862 0.117492 -0.201402 -1.763926
    2 -21.389791 8.021282 83.477676 -0.223112 -0.048023 2.779811
    3 0.000008 -14.372050 -51.954159 3.141593 -0.000001 -3.141593
    4 38.362362 0.000018 0.339007 3.141593 0.000001 3.141593
    5 28.925760 -7.402312 6.807235 3.048668 -0.242291 1.772208
    6 0.000008 -14.372050 -52.293156 0.000000 0.000000 0.000000
    7 35.839706 0.000001 -0.000001 3.141593 -0.000001 -3.141593
    8 28.925745 -7.402332 -6.468227 -0.031699 0.241732 1.759800
    9 23.022341 8.405320 -65.041862 0.029136 -0.201417 -1.377526
    10 32.235497 15.029747 2.318449 1.856021 -1.066575 -3.499446
    11 30.000000 16.078125 38.843750 -0.441243 0.419923 0.485674
    12 29.859375 11.976563 41.156250 -0.439428 0.294286 0.265484
    13 -38.437500 -17.093750 77.062500 0.000000 0.000000 0.000000
    14 0.500000 0.000000 0.000001 0.000000 0.000000 0.000000
    15 -0.500000 0.000000 0.000001 0.000000 0.000000 0.000000
    16 6.156250 -2.806641 -0.416260 0.233163 0.265194 -0.309990
    17 3.986370 7.728779 -0.008186 0.000302 -0.013305 0.464625
    18 38.465004 -17.402927 77.096237 3.141593 0.000001 3.141593
    19 0.500001 0.000000 0.000000 0.000000 0.000000 0.000000
    20 0.000001 0.000000 0.000000 0.000000 0.000000 0.000000
    21 6.146630 -2.756808 0.416379 -2.888240 0.256672 2.851494
    22 3.986371 7.728779 0.008185 2.810615 0.099884 0.479182
    23 0.243564 10.541042 72.466728 0.100053 0.000000 0.000000
    24 21.459555 8.754425 83.556168 -2.920415 0.132579 0.388955
    25 17.475136 6.636702 27.314850 -1.168280 0.000000 0.000000
    26 -18.317291 -1.276392 77.329521 0.051235 -0.013318 0.464692
    27 18.317289 -1.276392 78.915184 1.511158 0.099895 -0.479122
  time 14
    0 -35.468750 -0.000003 34.031250 1.570755 0.009055 1.561741
    1 -23.022341 8.405320 -65.041862 0.117492 -0.201402 -1.763926
    2 -21.389791 8.021282 83.477676 -0.223112 -0.048023 2.779811
    3 0.000008 -14.372050 -51.954159 3.141593 -0.000001 -3.141593
    4 38.362362 0.000018 0.339007 3.141593 0.000001 3.141593
    5 28.925760 -7.402312 6.807235 3.048668 -0.242291 1.772208
    6 0.000008 -14.372050 -52.293156 0.000000 0.000000 0.000000
    7 35.839706 0.000001 -0.000001 3.141593 -0.000001 -3.141593
    8 28.925745 -7.402332 -6.468227 -0.031699 0.241732 1.759800
    9 23.022341 8.405320 -65.041862 0.029136 -0.201417 -1.377526
    10 28.833050 14.576608 2.712887 1.956784 -1.174913 -3.586605
    11 30.000000 16.078125 38.843750 -0.441243 0.419923 0.485674
    12 29.859375 11.976563 41.156250 -0.439428 0.294286 0.265484
    13 -38.437500 -17.093750 77.062500 0.000000 0.000000 0.000000
    14 0.500000 0.000000 0.000001 0.000000 0.000000 0.000000
    15 -0.500000 0.000000 0.000001 0.000000 0.000000 0.000000
    16 6.156250 -2.806641 -0.416260 0.233163 0.265194 -0.309990
    17 3.986370 7.728779 -0.008186 0.000302 -0.013305 0.464625
    18 38.465004 -17.402927 77.096237 3.141593 0.000001 3.141593
    19 0.500001 0.000000 0.000000 0.000000 0.000000 0.000000
    20 0.000001 0.000000 0.000000 0.000000 0.000000 0.000000
    21 6.146630 -2.756808 0.416379 -2.888240 0.256672 2.851494
    22 3.986371 7.728779 0.008185 2.810615 0.099884 0.479182
    23 0.243564 10.541042 72.466728 0.100053 0.000000 0.000000
    24 21.459555 8.754425 83.556168 -2.920415 0.132579 0.388955
    25 17.475136 6.636702 27.314850 -1.168280 0.000000 0.000000
    26 -18.317291 -1.276392 77.329521 0.051235 -0.013318 0.464692
    27 18.317289 -1.276392 78.915184 1.511158 0.099895 -0.479122
  time 15
    0 -35.468750 -0.000003 34.031250 1.570755 0.009055 1.561741
    1 -23.022341 8.405320 -65.041862 0.117492 -0.201402 -1.763926
    2 -21.389791 8.021282 83.477676 -0.223112 -0.048023 2.779811
    3 0.000008 -14.372050 -51.954159 3.141593 -0.000001 -3.141593
    4 38.362362 0.000018 0.339007 3.141593 0.000001 3.141593
    5 28.925760 -7.402312 6.807235 3.048668 -0.242291 1.772208
    6 0.000008 -14.372050 -52.293156 0.000000 0.000000 0.000000
    7 35.839706 0.000001 -0.000001 3.141593 -0.000001 -3.141593
    8 28.925745 -7.402332 -6.468227 -0.031699 0.241732 1.759800
    9 23.022341 8.405320 -65.041862 0.029136 -0.201417 -1.377526
    10 25.739205 14.170346 3.065805 2.056685 -1.278142 -3.672352
    11 30.000000 16.078125 38.843750 -0.441243 0.419923 0.485674
    12 29.859375 11.976563 41.156250 -0.439428 0.294286 0.265484
    13 -38.437500 -17.093750 77.062500 0.000000 0.000000 0.000000
    14 0.500000 0.000000 0.000001 0.000000 0.000000 0.000000
    15 -0.500000 0.000000 0.000001 0.000000 0.000000 0.000000
    16 6.156250 -2.806641 -0.416260 0.233163 0.265194 -0.309990
    17 3.986370 7.728779 -0.008186 0.000302 -0.013305 0.464625
    18 38.465004 -17.402927 77.096237 3.141593 0.000001 3.141593
    19 0.500001 0.000000 0.000000 0.000000 0.000000 0.000000
    20 0.000001 0.000000 0.000000 0.000000 0.000000 0.000000
    21 6.146630 -2.756808 0.416379 -2.888240 0.256672 2.851494
    22 3.986371 7.728779 0.008185 2.810615 0.099884 0.479182
    23 0.243564 10.541042 72.466728 0.100053 0.000000 0.000000
    24 21.459555 8.754425 83.556168 -2.920415 0.132579 0.388955
    25 17.475136 6.636702 27.314850 -1.168280 0.000000 0.000000
    26 -18.317291 -1.276392 77.329521 0.051235 -0.013318 0.464692
    27 18.317289 -1.276392 78.915184 1.511158 0.099895 -0.479122
  time 16
    0 -35.468750 -0.000003 34.031250 1.570755 0.009055 1.561741
    1 -23.022341 8.405320 -65.041862 0.117492 -0.201402 -1.763926
    2 -21.389791 8.021282 83.477676 -0.223112 -0.048023 2.779811
    3 0.000008 -14.372050 -51.954159 3.141593 -0.000001 -3.141593
    4 38.362362 0.000018 0.339007 3.141593 0.000001 3.141593
    5 28.925760 -7.402312 6.807235 3.048668 -0.242291 1.772208
    6 0.000008 -14.372050 -52.293156 0.000000 0.000000 0.000000
    7 35.839706 0.000001 -0.000001 3.141593 -0.000001 -3.141593
    8 28.925745 -7.402332 -6.468227 -0.031699 0.241732 1.759800
    9 23.022341 8.405320 -65.041862 0.029136 -0.201417 -1.377526
    10 23.032091 13.810960 3.382393 2.150257 -1.372192 -3.752304
    11 30.000000 16.078125 38.843750 -0.441243 0.419923 0.485674
    12 29.859375 11.976563 41.156250 -0.439428 0.294286 0.265484
    13 -38.437500 -17.093750 77.062500 0.000000 0.000000 0.000000
    14 0.500000 0.000000 0.000001 0.000000 0.000000 0.000000
    15 -0.500000 0.000000 0.000001 0.000000 0.000000 0.000000
    16 6.156250 -2.806641 -0.416260 0.233163 0.265194 -0.309990
    17 3.986370 7.728779 -0.008186 0.000302 -0.013305 0.464625
    18 38.465004 -17.402927 77.096237 3.141593 0.000001 3.141593
    19 0.500001 0.000000 0.000000 0.000000 0.000000 0.000000
    20 0.000001 0.000000 0.000000 0.000000 0.000000 0.000000
    21 6.146630 -2.756808 0.416379 -2.888240 0.256672 2.851494
    22 3.986371 7.728779 0.008185 2.810615 0.099884 0.479182
    23 0.243564 10.541042 72.466728 0.100053 0.000000 0.000000
    24 21.459555 8.754425 83.556168 -2.920415 0.132579 0.388955
    25 17.475136 6.636702 27.314850 -1.168280 0.000000 0.000000
    26 -18.317291 -1.276392 77.329521 0.051235 -0.013318 0.464692
    27 18.317289 -1.276392 78.915184 1.511158 0.099895 -0.479122
  time 17
    0 -35.468750 -0.000003 34.031250 1.570755 0.009055 1.561741
    1 -23.022341 8.405320 -65.041862 0.117492 -0.201402 -1.763926
    2 -21.389791 8.021282 83.477676 -0.223112 -0.048023 2.779811
    3 0.000008 -14.372050 -51.954159 3.141593 -0.000001 -3.141593
    4 38.362362 0.000018 0.339007 3.141593 0.000001 3.141593
    5 28.925760 -7.402312 6.807235 3.048668 -0.242291 1.772208
    6 0.000008 -14.372050 -52.293156 0.000000 0.000000 0.000000
    7 35.839706 0.000001 -0.000001 3.141593 -0.000001 -3.141593
    8 28.925745 -7.402332 -6.468227 -0.031699 0.241732 1.759800
    9 23.022341 8.405320 -65.041862 0.029136 -0.201417 -1.377526
    10 20.793742 13.514076 3.636702 2.232421 -1.452712 -3.822150
    11 30.000000 16.078125 38.843750 -0.441243 0.419923 0.485674
    12 29.859375 11.976563 41.156250 -0.439428 0.294286 0.265484
    13 -38.437500 -17.093750 77.062500 0.000000 0.000000 0.000000
    14 0.500000 0.000000 0.000001 0.000000 0.000000 0.000000
    15 -0.500000 0.000000 0.000001 0.000000 0.000000 0.000000
    16 6.156250 -2.806641 -0.416260 0.233163 0.265194 -0.309990
    17 3.986370 7.728779 -0.008186 0.000302 -0.013305 0.464625
    18 38.465004 -17.402927 77.096237 3.141593 0.000001 3.141593
    19 0.500001 0.000000 0.000000 0.000000 0.000000 0.000000
    20 0.000001 0.000000 0.000000 0.000000 0.000000 0.000000
    21 6.146630 -2.756808 0.416379 -2.888240 0.256672 2.851494
    22 3.986371 7.728779 0.008185 2.810615 0.099884 0.479182
    23 0.243564 10.541042 72.466728 0.100053 0.000000 0.000000
    24 21.459555 8.754425 83.556168 -2.920415 0.132579 0.388955
    25 17.475136 6.636702 27.314850 -1.168280 0.000000 0.000000
    26 -18.317291 -1.276392 77.329521 0.051235 -0.013318 0.464692
    27 18.317289 -1.276392 78.915184 1.511158 0.099895 -0.479122
  time 18
    0 -35.468750 -0.000003 34.031250 1.570755 0.009055 1.561741
    1 -23.022341 8.405320 -65.041862 0.117492 -0.201402 -1.763926
    2 -21.389791 8.021282 83.477676 -0.223112 -0.048023 2.779811
    3 0.000008 -14.372050 -51.954159 3.141593 -0.000001 -3.141593
    4 38.362362 0.000018 0.339007 3.141593 0.000001 3.141593
    5 28.925760 -7.402312 6.807235 3.048668 -0.242291 1.772208
    6 0.000008 -14.372050 -52.293156 0.000000 0.000000 0.000000
    7 35.839706 0.000001 -0.000001 3.141593 -0.000001 -3.141593
    8 28.925745 -7.402332 -6.468227 -0.031699 0.241732 1.759800
    9 23.022341 8.405320 -65.041862 0.029136 -0.201417 -1.377526
    10 19.098378 13.291412 3.833920 2.297615 -1.515539 -3.877433
    11 30.000000 16.078125 38.843750 -0.441243 0.419923 0.485674
    12 29.859375 11.976563 41.156250 -0.439428 0.294286 0.265484
    13 -38.437500 -17.093750 77.062500 0.000000 0.000000 0.000000
    14 0.500000 0.000000 0.000001 0.000000 0.000000 0.000000
    15 -0.500000 0.000000 0.000001 0.000000 0.000000 0.000000
    16 6.156250 -2.806641 -0.416260 0.233163 0.265194 -0.309990
    17 3.986370 7.728779 -0.008186 0.000302 -0.013305 0.464625
    18 38.465004 -17.402927 77.096237 3.141593 0.000001 3.141593
    19 0.500001 0.000000 0.000000 0.000000 0.000000 0.000000
    20 0.000001 0.000000 0.000000 0.000000 0.000000 0.000000
    21 6.146630 -2.756808 0.416379 -2.888240 0.256672 2.851494
    22 3.986371 7.728779 0.008185 2.810615 0.099884 0.479182
    23 0.243564 10.541042 72.466728 0.100053 0.000000 0.000000
    24 21.459555 8.754425 83.556168 -2.920415 0.132579 0.388955
    25 17.475136 6.636702 27.314850 -1.168280 0.000000 0.000000
    26 -18.317291 -1.276392 77.329521 0.051235 -0.013318 0.464692
    27 18.317289 -1.276392 78.915184 1.511158 0.099895 -0.479122
  time 19
    0 -35.468750 -0.000003 34.031250 1.570755 0.009055 1.561741
    1 -23.022341 8.405320 -65.041862 0.117492 -0.201402 -1.763926
    2 -21.389791 8.021282 83.477676 -0.223112 -0.048023 2.779811
    3 0.000008 -14.372050 -51.954159 3.141593 -0.000001 -3.141593
    4 38.362362 0.000018 0.339007 3.141593 0.000001 3.141593
    5 28.925760 -7.402312 6.807235 3.048668 -0.242291 1.772208
    6 0.000008 -14.372050 -52.293156 0.000000 0.000000 0.000000
    7 35.839706 0.000001 -0.000001 3.141593 -0.000001 -3.141593
    8 28.925745 -7.402332 -6.468227 -0.031699 0.241732 1.759800
    9 23.022341 8.405320 -65.041862 0.029136 -0.201417 -1.377526
    10 18.024126 13.146877 3.958480 2.340663 -1.556319 -3.913842
    11 30.000000 16.078125 38.843750 -0.441243 0.419923 0.485674
    12 29.859375 11.976563 41.156250 -0.439428 0.294286 0.265484
    13 -38.437500 -17.093750 77.062500 0.000000 0.000000 0.000000
    14 0.500000 0.000000 0.000001 0.000000 0.000000 0.000000
    15 -0.500000 0.000000 0.000001 0.000000 0.000000 0.000000
    16 6.156250 -2.806641 -0.416260 0.233163 0.265194 -0.309990
    17 3.986370 7.728779 -0.008186 0.000302 -0.013305 0.464625
    18 38.465004 -17.402927 77.096237 3.141593 0.000001 3.141593
    19 0.500001 0.000000 0.000000 0.000000 0.000000 0.000000
    20 0.000001 0.000000 0.000000 0.000000 0.000000 0.000000
    21 6.146630 -2.756808 0.416379 -2.888240 0.256672 2.851494
    22 3.986371 7.728779 0.008185 2.810615 0.099884 0.479182
    23 0.243564 10.541042 72.466728 0.100053 0.000000 0.000000
    24 21.459555 8.754425 83.556168 -2.920415 0.132579 0.388955
    25 17.475136 6.636702 27.314850 -1.168280 0.000000 0.000000
    26 -18.317291 -1.276392 77.329521 0.051235 -0.013318 0.464692
    27 18.317289 -1.276392 78.915184 1.511158 0.099895 -0.479122
  time 20
    0 -35.468750 -0.000003 34.031250 1.570755 0.009055 1.561741
    1 -23.022341 8.405320 -65.041862 0.117492 -0.201402 -1.763926
    2 -21.389791 8.021282 83.477676 -0.223112 -0.048023 2.779811
    3 0.000008 -14.372050 -51.954159 3.141593 -0.000001 -3.141593
    4 38.362362 0.000018 0.339007 3.141593 0.000001 3.141593
    5 28.925760 -7.402312 6.807235 3.048668 -0.242291 1.772208
    6 0.000008 -14.372050 -52.293156 0.000000 0.000000 0.000000
    7 35.839706 0.000001 -0.000001 3.141593 -0.000001 -3.141593
    8 28.925745 -7.402332 -6.468227 -0.031699 0.241732 1.759800
    9 23.022341 8.405320 -65.041862 0.029136 -0.201417 -1.377526
    10 17.649115 13.100000 4.000000 0.000000 -1.570796 -1.570796
    11 30.000000 16.078125 38.843750 -0.441243 0.419923 0.485674
    12 29.859375 11.976563 41.156250 -0.439428 0.294286 0.265484
    13 -38.437500 -17.093750 77.062500 0.000000 0.000000 0.000000
    14 0.500000 0.000000 0.000001 0.000000 0.000000 0.000000
    15 -0.500000 0.000000 0.000001 0.000000 0.000000 0.000000
    16 6.156250 -2.806641 -0.416260 0.233163 0.265194 -0.309990
    17 3.986370 7.728779 -0.008186 0.000302 -0.013305 0.464625
    18 38.465004 -17.402927 77.096237 3.141593 0.000001 3.141593
    19 0.500001 0.000000 0.000000 0.000000 0.000000 0.000000
    20 0.000001 0.000000 0.000000 0.000000 0.000000 0.000000
    21 6.146630 -2.756808 0.416379 -2.888240 0.256672 2.851494
    22 3.986371 7.728779 0.008185 2.810615 0.099884 0.479182
    23 0.243564 10.541042 72.466728 0.100053 0.000000 0.000000
    24 21.459555 8.754425 83.556168 -2.920415 0.132579 0.388955
    25 17.475136 6.636702 27.314850 -1.168280 0.000000 0.000000
    26 -18.317291 -1.276392 77.329521 0.051235 -0.013318 0.464692
    27 18.317289 -1.276392 78.915184 1.511158 0.099895 -0.479122
end
