// Created by Crowbar 0.64
version 1
nodes
  0 "Rig_Buggy.Frame" -1
  1 "Rig_Buggy.Shock_RR_Sleeve" 0
  2 "Rig_Buggy.Shock_FR_Sleeve" 0
  3 "Rig_Buggy.Axel_RR" 0
  4 "Rig_Buggy.Wheel_RR" 3
  5 "Rig_Buggy.Shock_RR_Piston" 3
  6 "Rig_Buggy.Axel_RL" 0
  7 "Rig_Buggy.Wheel_RL" 6
  8 "Rig_Buggy.Shock_RL_Piston" 6
  9 "Rig_Buggy.Shock_RL_Sleeve" 0
  10 "Rig_Buggy.view" 0
  11 "Rig_Buggy.Speedo" 0
  12 "Rig_Buggy.Speedo2" 0
  13 "Rig_Buggy.Wheel_FR_Turn_parent" 0
  14 "Rig_Buggy.Wheel_FR_Turn" 13
  15 "Rig_Buggy.Wheel_FR_Rotate" 14
  16 "Rig_Buggy.Shock_FR_Piston" 13
  17 "Rig_Buggy.FR_Top_Strut" 13
  18 "Rig_Buggy.Wheel_FL_Turn_parent" 0
  19 "Rig_Buggy.Wheel_FL_Turn" 18
  20 "Rig_Buggy.Wheel_FL_Rotate" 19
  21 "Rig_Buggy.Shock_FL_Piston" 18
  22 "Rig_Buggy.FL_Top_Suspension" 18
  23 "Rig_Buggy.air_filter" 0
  24 "Rig_Buggy.Shock_FL_Sleeve" 0
  25 "Rig_Buggy.Steer_Wheel" 0
  26 "Rig_Buggy.FR_Top_Strut_Base" 0
  27 "Rig_Buggy.FL_Body_Top_Suspension" 0
end
skeleton
  time 0
    0 -35.468750 -0.000003 34.031250 1.570755 0.009055 1.561741
    1 -23.022341 8.405320 -65.041862 0.117492 -0.201402 -1.763926
    2 -21.389791 8.021282 83.477676 -0.223112 -0.048023 2.779811
    3 0.000008 -14.372050 -51.954159 3.141593 -0.000001 -3.141593
    4 38.362362 0.000018 0.339007 3.141593 0.000001 3.141593
    5 28.925760 -7.402312 6.807235 3.048668 -0.242291 1.772208
    6 0.000008 -14.372050 -52.293156 0.000000 0.000000 0.000000
    7 35.839706 0.000001 -0.000001 3.141593 -0.000001 -3.141593
    8 28.925745 -7.402332 -6.468227 -0.031699 0.241732 1.759800
    9 23.022341 8.405320 -65.041862 0.029136 -0.201417 -1.377526
    10 17.640625 19.390625 -1.904297 0.000000 -1.570796 -1.570796
    11 30.000000 16.078125 38.843750 -0.441243 0.419923 0.485674
    12 29.859375 11.976563 41.156250 -0.439428 0.294286 0.265484
    13 -38.437500 -17.093750 77.062500 0.000000 0.000000 0.000000
    14 0.500000 0.000000 0.000001 0.000000 0.523599 0.000000
    15 -0.500000 0.000000 0.000001 0.000000 0.000000 0.000000
    16 6.156250 -2.806641 -0.416260 0.233163 0.265194 -0.309990
    17 3.986370 7.728779 -0.008186 0.000302 -0.013305 0.464625
    18 38.465004 -17.402927 77.096237 3.141593 0.000001 3.141593
    19 0.500001 0.000000 0.000000 0.000000 0.523599 0.000000
    20 0.000001 0.000000 0.000000 0.000000 0.000000 0.000000
    21 6.146630 -2.756808 0.416379 -2.888240 0.256672 2.851494
    22 3.986371 7.728779 0.008185 2.810615 0.099884 0.479182
    23 0.243564 10.541042 72.466728 0.100053 0.000000 0.000000
    24 21.459555 8.754425 83.556168 -2.920415 0.132579 0.388955
    25 17.475136 6.636702 27.314850 -1.278358 0.280655 -0.743775
    26 -18.317291 -1.276392 77.329521 0.051235 -0.013318 0.464692
    27 18.317289 -1.276392 78.915184 1.511158 0.099895 -0.479122
  time 1
    0 -35.468750 -0.000003 34.031250 1.570755 0.009055 1.561741
    1 -23.022341 8.405320 -65.041862 0.117492 -0.201402 -1.763926
    2 -21.389791 8.021282 83.477676 -0.223112 -0.048023 2.779811
    3 0.000008 -14.372050 -51.954159 3.141593 -0.000001 -3.141593
    4 38.362362 0.000018 0.339007 3.141593 0.000001 3.141593
    5 28.925760 -7.402312 6.807235 3.048668 -0.242291 1.772208
    6 0.000008 -14.372050 -52.293156 0.000000 0.000000 0.000000
    7 35.839706 0.000001 -0.000001 3.141593 -0.000001 -3.141593
    8 28.925745 -7.402332 -6.468227 -0.031699 0.241732 1.759800
    9 23.022341 8.405320 -65.041862 0.029136 -0.201417 -1.377526
    10 17.640625 19.390625 -1.904297 0.000000 -1.570796 -1.570796
    11 30.000000 16.078125 38.843750 -0.441243 0.419923 0.485674
    12 29.859375 11.976563 41.156250 -0.439428 0.294286 0.265484
    13 -38.437500 -17.093750 77.062500 0.000000 0.000000 0.000000
    14 0.500000 0.000000 0.000001 0.000000 0.000000 0.000000
    15 -0.500000 0.000000 0.000001 0.000000 0.000000 0.000000
    16 6.156250 -2.806641 -0.416260 0.233163 0.265194 -0.309990
    17 3.986370 7.728779 -0.008186 0.000302 -0.013305 0.464625
    18 38.465004 -17.402927 77.096237 3.141593 0.000001 3.141593
    19 0.500001 0.000000 0.000000 0.000000 0.000000 0.000000
    20 0.000001 0.000000 0.000000 0.000000 0.000000 0.000000
    21 6.146630 -2.756808 0.416379 -2.888240 0.256672 2.851494
    22 3.986371 7.728779 0.008185 2.810615 0.099884 0.479182
    23 0.243564 10.541042 72.466728 0.100053 0.000000 0.000000
    24 21.459555 8.754425 83.556168 -2.920415 0.132579 0.388955
    25 17.475136 6.636702 27.314850 -1.168280 0.000000 0.000000
    26 -18.317291 -1.276392 77.329521 0.051235 -0.013318 0.464692
    27 18.317289 -1.276392 78.915184 1.511158 0.099895 -0.479122
  time 2
    0 -35.468750 -0.000003 34.031250 1.570755 0.009055 1.561741
    1 -23.022341 8.405320 -65.041862 0.117492 -0.201402 -1.763926
    2 -21.389791 8.021282 83.477676 -0.223112 -0.048023 2.779811
    3 0.000008 -14.372050 -51.954159 3.141593 -0.000001 -3.141593
    4 38.362362 0.000018 0.339007 3.141593 0.000001 3.141593
    5 28.925760 -7.402312 6.807235 3.048668 -0.242291 1.772208
    6 0.000008 -14.372050 -52.293156 0.000000 0.000000 0.000000
    7 35.839706 0.000001 -0.000001 3.141593 -0.000001 -3.141593
    8 28.925745 -7.402332 -6.468227 -0.031699 0.241732 1.759800
    9 23.022341 8.405320 -65.041862 0.029136 -0.201417 -1.377526
    10 17.640625 19.390625 -1.904297 0.000000 -1.570796 -1.570796
    11 30.000000 16.078125 38.843750 -0.441243 0.419923 0.485674
    12 29.859375 11.976563 41.156250 -0.439428 0.294286 0.265484
    13 -38.437500 -17.093750 77.062500 0.000000 0.000000 0.000000
    14 0.500000 0.000000 0.000001 0.000000 -0.523599 0.000000
    15 -0.500000 0.000000 0.000001 0.000000 0.000000 0.000000
    16 6.156250 -2.806641 -0.416260 0.233163 0.265194 -0.309990
    17 3.986370 7.728779 -0.008186 0.000302 -0.013305 0.464625
    18 38.465004 -17.402927 77.096237 3.141593 0.000001 3.141593
    19 0.500001 0.000000 0.000000 0.000000 -0.523599 0.000000
    20 0.000001 0.000000 0.000000 0.000000 0.000000 0.000000
    21 6.146630 -2.756808 0.416379 -2.888240 0.256672 2.851494
    22 3.986371 7.728779 0.008185 2.810615 0.099884 0.479182
    23 0.243564 10.541042 72.466728 0.100053 0.000000 0.000000
    24 21.459555 8.754425 83.556168 -2.920415 0.132579 0.388955
    25 17.475136 6.636702 27.314850 -1.278358 -0.280655 0.743775
    26 -18.317291 -1.276392 77.329521 0.051235 -0.013318 0.464692
    27 18.317289 -1.276392 78.915184 1.511158 0.099895 -0.479122
end
