// Created by Crowbar 0.63
version 1
nodes
  0 "ValveBiped.Bip01_Spine4" -1
  1 "ValveBiped.Bip01_L_Clavicle" 0
  2 "ValveBiped.Bip01_L_UpperArm" 1
  3 "ValveBiped.Bip01_L_Forearm" 2
  4 "ValveBiped.Bip01_L_Hand" 3
  5 "ValveBiped.Bip01_L_Finger4" 4
  6 "ValveBiped.Bip01_L_Finger41" 5
  7 "ValveBiped.Bip01_L_Finger42" 6
  8 "ValveBiped.Bip01_L_Finger3" 4
  9 "ValveBiped.Bip01_L_Finger31" 8
  10 "ValveBiped.Bip01_L_Finger32" 9
  11 "ValveBiped.Bip01_L_Finger2" 4
  12 "ValveBiped.Bip01_L_Finger21" 11
  13 "ValveBiped.Bip01_L_Finger22" 12
  14 "ValveBiped.Bip01_L_Finger1" 4
  15 "ValveBiped.Bip01_L_Finger11" 14
  16 "ValveBiped.Bip01_L_Finger12" 15
  17 "ValveBiped.Bip01_L_Finger0" 4
  18 "ValveBiped.Bip01_L_Finger01" 17
  19 "ValveBiped.Bip01_L_Finger02" 18
  20 "ValveBiped.Bip01_R_Clavicle" 0
  21 "ValveBiped.Bip01_R_UpperArm" 20
  22 "ValveBiped.Bip01_R_Forearm" 21
  23 "ValveBiped.Bip01_R_Hand" 22
  24 "ValveBiped.Bip01_R_Finger4" 23
  25 "ValveBiped.Bip01_R_Finger41" 24
  26 "ValveBiped.Bip01_R_Finger42" 25
  27 "ValveBiped.Bip01_R_Finger3" 23
  28 "ValveBiped.Bip01_R_Finger31" 27
  29 "ValveBiped.Bip01_R_Finger32" 28
  30 "ValveBiped.Bip01_R_Finger2" 23
  31 "ValveBiped.Bip01_R_Finger21" 30
  32 "ValveBiped.Bip01_R_Finger22" 31
  33 "ValveBiped.Bip01_R_Finger1" 23
  34 "ValveBiped.Bip01_R_Finger11" 33
  35 "ValveBiped.Bip01_R_Finger12" 34
  36 "ValveBiped.Bip01_R_Finger0" 23
  37 "ValveBiped.Bip01_R_Finger01" 36
  38 "ValveBiped.Bip01_R_Finger02" 37
  39 "357" -1
  40 "Bullet1" -1
  41 "Bullet2" -1
  42 "Bullet3" -1
  43 "Bullet4" -1
  44 "Bullet5" -1
  45 "Bullet6" -1
  46 "speed_loader" -1
  47 "Chamber" -1
  48 "push_rod" -1
  49 "ValveBiped.muzzle" 39
  50 "Hammer" 39
end
skeleton
  time 0
    0 0.000000 -0.000006 0.000000 -1.570739 -1.391891 -1.570846
    1 2.033349 1.000767 1.937660 1.596637 -1.286515 2.942961
    2 13.001010 -19.016206 -14.738731 0.616900 -0.853216 -3.680812
    3 11.692551 0.000001 0.000002 0.000000 0.000000 -0.060372
    4 11.458234 -0.023437 -0.023465 0.888210 -0.367554 0.531115
    5 3.859713 -0.142405 -1.191975 -0.052266 -0.074231 -0.781943
    6 1.312551 -0.000002 0.000002 0.000000 0.000000 -0.751557
    7 0.729362 -0.000002 -0.000003 0.000000 0.000000 -0.244299
    8 3.942339 0.046767 -0.431443 -0.108944 -0.049011 -0.741459
    9 1.539095 0.000000 0.000000 0.000000 0.000000 -0.505256
    10 1.196321 -0.000006 0.000000 0.000000 0.000000 -0.430802
    11 3.883699 -0.046763 0.431443 0.086347 -0.018818 -0.614160
    12 1.719566 0.000000 -0.000001 0.000001 0.005509 -0.498581
    13 1.209171 -0.000002 0.000000 -0.000001 0.003083 -0.308799
    14 3.859869 -0.137947 1.332466 0.225975 0.001315 -0.675324
    15 1.719429 0.000004 -0.000001 -0.000001 0.004072 -0.450355
    16 1.099661 0.000002 -0.000001 0.000000 0.002596 -0.244331
    17 0.806057 -0.348926 1.321258 -1.960493 -0.465537 -0.286121
    18 1.789782 -0.000002 0.000002 0.000000 0.000000 0.102622
    19 1.207006 0.000000 0.000002 0.000000 0.000000 0.470699
    20 2.033356 1.000772 -1.937610 -1.668474 1.286518 2.942953
    21 11.731443 -18.859951 15.184057 -1.419085 0.947178 2.152961
    22 11.692557 0.000001 0.000005 0.000000 0.000000 -0.060372
    23 11.493420 0.000001 0.011720 -1.316061 0.262174 0.551325
    24 3.853516 -0.130127 1.190430 -0.323131 0.043024 -1.213028
    25 1.312561 -0.000006 0.000001 0.000000 0.000000 -1.632688
    26 0.729362 0.000000 -0.000003 0.000000 0.000000 -0.244271
    27 3.942307 0.050327 0.431044 -0.268158 0.001265 -1.221340
    28 1.539099 0.000002 0.000001 0.000000 0.000000 -1.277005
    29 1.196323 0.000008 0.000000 0.000000 0.000000 -0.990128
    30 3.883663 -0.050322 -0.431042 -0.242893 -0.053154 -1.048196
    31 1.719578 0.000004 0.000000 -0.000001 -0.007972 -1.601619
    32 1.209185 -0.000002 0.000000 0.000002 -0.004458 -0.714074
    33 3.859844 -0.148935 -1.331282 -0.233460 -0.058748 -0.562100
    34 1.653013 -0.101562 0.000000 -0.006232 0.026093 -1.030129
    35 1.099672 0.000004 0.000000 0.000004 -0.004211 -1.214451
    36 0.806023 -0.359838 -1.318334 1.227329 0.211755 -0.852031
    37 1.789783 0.000002 -0.000002 0.010168 0.160868 0.291934
    38 1.206999 0.000003 0.000002 0.000000 0.000000 0.682629
    39 -2.773513 -7.332843 -5.328252 0.000000 -0.183684 -1.570820
    40 -2.351645 -9.588693 -2.396522 1.386169 -0.107020 0.019780
    41 -2.823201 -9.548314 -2.177653 1.386169 -0.107020 0.019824
    42 -3.250493 -9.608340 -2.481226 1.386169 -0.107020 0.019824
    43 -3.201813 -9.708100 -2.974957 1.386169 -0.107020 0.019965
    44 -2.730157 -9.750528 -3.204143 1.386169 -0.107020 0.019952
    45 -2.302970 -9.689921 -2.898577 1.386169 -0.107020 0.019824
    46 -2.253708 -8.681151 -11.208833 1.755259 0.106963 -3.121926
    47 -2.776641 -9.883713 -2.649537 1.386169 -0.106981 0.019772
    48 -2.744147 -10.722170 -2.480924 -0.183575 0.000000 -0.000001
    49 8.937500 -0.013550 2.835938 -0.000001 -0.043633 0.000000
    50 0.537697 -0.025481 2.174062 0.000000 -1.134464 0.000000
  time 1
    0 0.000000 -0.000006 0.000000 -1.570739 -1.391891 -1.570846
    1 2.033349 1.000767 1.937660 1.596637 -1.286515 2.942961
    2 11.981448 -16.574725 -15.078585 0.453915 -1.008227 -3.484668
    3 11.692551 0.000001 0.000002 0.000000 0.000000 -0.060372
    4 11.348856 0.000001 -0.046904 1.112793 -0.222251 -0.066133
    5 3.859713 -0.142405 -1.191975 -0.052266 -0.074231 -0.781943
    6 1.312551 -0.000002 0.000002 0.000000 0.000000 -0.751557
    7 0.729362 -0.000002 -0.000003 0.000000 0.000000 -0.244299
    8 3.942339 0.046767 -0.431443 -0.108944 -0.049011 -0.741459
    9 1.539095 0.000000 0.000000 0.000000 0.000000 -0.505256
    10 1.196321 -0.000006 0.000000 0.000000 0.000000 -0.430802
    11 3.883699 -0.046763 0.431443 0.086347 -0.018818 -0.614160
    12 1.719566 0.000000 -0.000001 0.000001 0.005509 -0.498581
    13 1.209171 -0.000002 0.000000 -0.000001 0.003083 -0.308799
    14 3.859869 -0.137947 1.332466 0.225975 0.001315 -0.675324
    15 1.719429 0.000004 -0.000001 -0.000001 0.004072 -0.450355
    16 1.099661 0.000002 -0.000001 0.000000 0.002596 -0.244331
    17 0.806057 -0.348926 1.321258 -1.960493 -0.465537 -0.286121
    18 1.789782 -0.000002 0.000002 0.000000 0.000000 0.102622
    19 1.207006 0.000000 0.000002 0.000000 0.000000 0.470699
    20 2.033356 1.000772 -1.937610 -1.668474 1.286518 2.942953
    21 12.180676 -19.215430 13.984802 -1.373834 0.969662 2.186309
    22 11.692557 0.000001 0.000005 0.000000 0.000000 -0.060372
    23 11.005124 -0.066407 0.125005 -1.404223 0.329923 0.099748
    24 3.853516 -0.130127 1.190430 -0.323131 0.043024 -1.213028
    25 1.312561 -0.000006 0.000001 0.000000 0.000000 -1.632688
    26 0.729362 0.000000 -0.000003 0.000000 0.000000 -0.244271
    27 3.942307 0.050327 0.431044 -0.268158 0.001265 -1.221340
    28 1.539099 0.000002 0.000001 0.000000 0.000000 -1.277005
    29 1.196323 0.000008 0.000000 0.000000 0.000000 -0.990128
    30 3.883663 -0.050322 -0.431042 -0.242893 -0.053154 -1.048196
    31 1.719578 0.000004 0.000000 -0.000001 -0.007972 -1.601619
    32 1.209185 -0.000002 0.000000 0.000002 -0.004458 -0.714074
    33 3.859844 -0.148935 -1.331282 -0.233460 -0.058748 -0.562100
    34 1.633481 -0.117187 -0.003906 -0.009372 0.032037 -1.129021
    35 1.099672 0.000004 0.000000 0.000004 -0.004211 -1.214451
    36 0.806023 -0.359838 -1.318334 1.227329 0.211755 -0.852031
    37 1.789783 0.000002 -0.000002 0.010168 0.160868 0.291934
    38 1.206999 0.000003 0.000002 0.000000 0.000000 0.682629
    39 -2.773513 -7.641446 -5.418098 0.000000 -0.593141 -1.570820
    40 -2.441492 -8.487097 -1.748065 0.945035 -0.303317 0.212582
    41 -2.956018 -8.431092 -1.658106 0.945035 -0.303363 0.212581
    42 -3.289556 -8.666905 -2.004649 0.945035 -0.303363 0.212581
    43 -3.111966 -8.934639 -2.389002 0.945035 -0.303363 0.212439
    44 -2.597341 -8.988786 -2.473652 0.945035 -0.303363 0.212513
    45 -2.263906 -8.760205 -2.140741 0.945035 -0.303363 0.212581
    46 -5.160047 -12.060160 -11.525249 2.196198 0.303260 -2.929243
    47 -2.776641 -8.907121 -1.938578 0.945226 -0.303229 0.212320
    48 -2.744147 -9.608855 -1.445736 -0.593029 0.000000 -0.000001
    49 8.937500 -0.013550 2.835938 -0.000001 -0.043633 0.000000
    50 0.537697 -0.025481 2.174062 0.000000 0.000001 0.000000
  time 2
    0 0.000000 -0.000006 0.000000 -1.570739 -1.391891 -1.570846
    1 2.033349 1.000767 1.937660 1.596637 -1.286515 2.942961
    2 10.692346 -12.930082 -14.277779 0.181795 -1.115491 -3.157570
    3 11.692551 0.000001 0.000002 0.000000 0.000000 -0.060372
    4 11.235571 0.097660 -0.054716 1.206492 -0.055758 -0.597581
    5 3.859713 -0.142405 -1.191975 -0.052266 -0.074231 -0.781943
    6 1.312551 -0.000002 0.000002 0.000000 0.000000 -0.751557
    7 0.729362 -0.000002 -0.000003 0.000000 0.000000 -0.244299
    8 3.942339 0.046767 -0.431443 -0.108944 -0.049011 -0.741459
    9 1.539095 0.000000 0.000000 0.000000 0.000000 -0.505256
    10 1.196321 -0.000006 0.000000 0.000000 0.000000 -0.430802
    11 3.883699 -0.046763 0.431443 0.086347 -0.018818 -0.614160
    12 1.719566 0.000000 -0.000001 0.000001 0.005509 -0.498581
    13 1.209171 -0.000002 0.000000 -0.000001 0.003083 -0.308799
    14 3.859869 -0.137947 1.332466 0.225975 0.001315 -0.675324
    15 1.719429 0.000004 -0.000001 -0.000001 0.004072 -0.450355
    16 1.099661 0.000002 -0.000001 0.000000 0.002596 -0.244331
    17 0.806057 -0.348926 1.321258 -1.960493 -0.465537 -0.286121
    18 1.789782 -0.000002 0.000002 0.000000 0.000000 0.102622
    19 1.207006 0.000000 0.000002 0.000000 0.000000 0.470699
    20 2.033356 1.000772 -1.937610 -1.668474 1.286518 2.942953
    21 11.731443 -18.527909 13.047273 -1.361946 1.027902 2.193814
    22 11.692557 0.000001 0.000005 0.000000 0.000000 -0.060372
    23 10.520734 0.082035 0.222664 -1.492153 0.332066 -0.356245
    24 3.853516 -0.130127 1.190430 -0.323131 0.043024 -1.213028
    25 1.312561 -0.000006 0.000001 0.000000 0.000000 -1.632688
    26 0.729362 0.000000 -0.000003 0.000000 0.000000 -0.244271
    27 3.942307 0.050327 0.431044 -0.268158 0.001265 -1.221340
    28 1.539099 0.000002 0.000001 0.000000 0.000000 -1.277005
    29 1.196323 0.000008 0.000000 0.000000 0.000000 -0.990128
    30 3.883663 -0.050322 -0.431042 -0.242893 -0.053154 -1.048196
    31 1.719578 0.000004 0.000000 -0.000001 -0.007972 -1.601619
    32 1.209185 -0.000002 0.000000 0.000002 -0.004458 -0.714074
    33 3.859844 -0.148935 -1.331282 -0.233460 -0.058748 -0.562100
    34 1.656919 -0.097655 0.000000 -0.006220 0.026117 -1.030129
    35 1.099672 0.000004 0.000000 0.000004 -0.004211 -1.214451
    36 0.806023 -0.359838 -1.318334 1.227329 0.211755 -0.852031
    37 1.789783 0.000002 -0.000002 0.010168 0.160868 0.291934
    38 1.206999 0.000003 0.000002 0.000000 0.000000 0.682629
    39 -2.773513 -7.946143 -5.359503 0.000000 -0.971039 -1.570820
    40 -2.578215 -7.307373 -1.591810 0.489161 -0.362070 0.587218
    41 -3.096647 -7.360747 -1.626855 0.489161 -0.362116 0.587234
    42 -3.289556 -7.772346 -1.903083 0.489161 -0.362116 0.587234
    43 -2.975243 -8.102582 -2.123369 0.489161 -0.361976 0.587265
    44 -2.456712 -8.051257 -2.090828 0.489161 -0.362116 0.587260
    45 -2.263906 -7.646890 -1.820419 0.489161 -0.362116 0.587234
    46 -6.246017 -17.302507 -11.454934 2.652359 0.362054 -2.554471
    47 -2.776641 -7.840682 -1.665132 0.489352 -0.361944 0.587048
    48 -2.744147 -8.311941 -0.945721 -0.970898 0.000000 -0.000001
    49 8.937500 -0.013550 2.835938 -0.000001 -0.043633 0.000000
    50 0.549417 -0.025481 2.170156 0.000000 0.000001 0.000000
  time 3
    0 0.000000 -0.000006 0.000000 -1.570739 -1.391891 -1.570846
    1 2.033349 1.000767 1.937660 1.596637 -1.286515 2.942961
    2 10.633750 -12.769921 -14.195746 0.183615 -1.116284 -3.155078
    3 11.692551 0.000001 0.000002 0.000000 0.000000 -0.060372
    4 11.227758 0.105473 -0.058623 1.213181 -0.042579 -0.635861
    5 3.859713 -0.142405 -1.191975 -0.052266 -0.074231 -0.781943
    6 1.312551 -0.000002 0.000002 0.000000 0.000000 -0.751557
    7 0.729362 -0.000002 -0.000003 0.000000 0.000000 -0.244299
    8 3.942339 0.046767 -0.431443 -0.108944 -0.049011 -0.741459
    9 1.539095 0.000000 0.000000 0.000000 0.000000 -0.505256
    10 1.196321 -0.000006 0.000000 0.000000 0.000000 -0.430802
    11 3.883699 -0.046763 0.431443 0.086347 -0.018818 -0.614160
    12 1.719566 0.000000 -0.000001 0.000001 0.005509 -0.498581
    13 1.209171 -0.000002 0.000000 -0.000001 0.003083 -0.308799
    14 3.859869 -0.137947 1.332466 0.225975 0.001315 -0.675324
    15 1.719429 0.000004 -0.000001 -0.000001 0.004072 -0.450355
    16 1.099661 0.000002 -0.000001 0.000000 0.002596 -0.244331
    17 0.806057 -0.348926 1.321258 -1.960493 -0.465537 -0.286121
    18 1.789782 -0.000002 0.000002 0.000000 0.000000 0.102622
    19 1.207006 0.000000 0.000002 0.000000 0.000000 0.470699
    20 2.033356 1.000772 -1.937610 -1.668474 1.286518 2.942953
    21 11.676754 -18.465407 12.992584 -1.367890 1.025981 2.189349
    22 11.692557 0.000001 0.000005 0.000000 0.000000 -0.060372
    23 10.481670 0.097660 0.234383 -1.498175 0.330593 -0.396020
    24 3.853516 -0.130127 1.190430 -0.323131 0.043024 -1.213028
    25 1.312561 -0.000006 0.000001 0.000000 0.000000 -1.632688
    26 0.729362 0.000000 -0.000003 0.000000 0.000000 -0.244271
    27 3.942307 0.050327 0.431044 -0.268158 0.001265 -1.221340
    28 1.539099 0.000002 0.000001 0.000000 0.000000 -1.277005
    29 1.196323 0.000008 0.000000 0.000000 0.000000 -0.990128
    30 3.883663 -0.050322 -0.431042 -0.242893 -0.053154 -1.048196
    31 1.719578 0.000004 0.000000 -0.000001 -0.007972 -1.601619
    32 1.209185 -0.000002 0.000000 0.000002 -0.004458 -0.714074
    33 3.859844 -0.148935 -1.331282 -0.233460 -0.058748 -0.562100
    34 1.684264 -0.070311 -0.003906 -0.002756 0.017033 -0.887402
    35 1.099672 0.000004 0.000000 0.000004 -0.004211 -1.214451
    36 0.806023 -0.359838 -1.318334 1.227329 0.211755 -0.852031
    37 1.789783 0.000002 -0.000002 0.010168 0.160868 0.291934
    38 1.206999 0.000003 0.000002 0.000000 0.000000 0.682629
    39 -2.773513 -7.840671 -5.214967 0.000000 -1.012150 -1.570820
    40 -2.711031 -7.026114 -1.455087 0.354112 -0.441656 0.857922
    41 -3.194306 -7.184960 -1.560447 0.354112 -0.441702 0.857959
    42 -3.254399 -7.635623 -1.836675 0.354112 -0.441702 0.857959
    43 -2.846333 -7.895545 -1.990552 0.354112 -0.441562 0.858009
    44 -2.362959 -7.730935 -1.883790 0.354112 -0.441702 0.857969
    45 -2.299064 -7.283598 -1.621194 0.354112 -0.441702 0.857959
    46 -5.867100 -21.478416 -13.451089 2.787542 0.441621 -2.283750
    47 -2.776641 -7.582862 -1.524503 0.354112 -0.441653 0.857922
    48 -2.744147 -8.026776 -0.785560 -1.012054 0.000000 -0.000001
    49 8.937500 -0.013550 2.835938 -0.000001 -0.043633 0.000000
    50 0.537697 -0.025481 2.166249 0.000000 0.000001 0.000000
  time 4
    0 0.000000 -0.000006 0.000000 -1.570739 -1.391891 -1.570846
    1 2.033349 1.000767 1.937660 1.596637 -1.286515 2.942961
    2 11.106421 -14.191840 -14.441847 0.318047 -1.082185 -3.306068
    3 11.692551 0.000001 0.000002 0.000000 0.000000 -0.060372
    4 11.251197 0.058596 -0.062529 1.205812 -0.079635 -0.502131
    5 3.859713 -0.142405 -1.191975 -0.052266 -0.074231 -0.781943
    6 1.312551 -0.000002 0.000002 0.000000 0.000000 -0.751557
    7 0.729362 -0.000002 -0.000003 0.000000 0.000000 -0.244299
    8 3.942339 0.046767 -0.431443 -0.108944 -0.049011 -0.741459
    9 1.539095 0.000000 0.000000 0.000000 0.000000 -0.505256
    10 1.196321 -0.000006 0.000000 0.000000 0.000000 -0.430802
    11 3.883699 -0.046763 0.431443 0.086347 -0.018818 -0.614160
    12 1.719566 0.000000 -0.000001 0.000001 0.005509 -0.498581
    13 1.209171 -0.000002 0.000000 -0.000001 0.003083 -0.308799
    14 3.859869 -0.137947 1.332466 0.225975 0.001315 -0.675324
    15 1.719429 0.000004 -0.000001 -0.000001 0.004072 -0.450355
    16 1.099661 0.000002 -0.000001 0.000000 0.002596 -0.244331
    17 0.806057 -0.348926 1.321258 -1.960493 -0.465537 -0.286121
    18 1.789782 -0.000002 0.000002 0.000000 0.000000 0.102622
    19 1.207006 0.000000 0.000002 0.000000 0.000000 0.470699
    20 2.033356 1.000772 -1.937610 -1.668474 1.286518 2.942953
    21 11.583001 -18.414625 13.488693 -1.379874 1.019694 2.180608
    22 11.692557 0.000001 0.000005 0.000000 0.000000 -0.060372
    23 10.551985 0.054690 0.210945 -1.478299 0.330057 -0.318313
    24 3.853516 -0.130127 1.190430 -0.323131 0.043024 -1.213028
    25 1.312561 -0.000006 0.000001 0.000000 0.000000 -1.632688
    26 0.729362 0.000000 -0.000003 0.000000 0.000000 -0.244271
    27 3.942307 0.050327 0.431044 -0.268158 0.001265 -1.221340
    28 1.539099 0.000002 0.000001 0.000000 0.000000 -1.277005
    29 1.196323 0.000008 0.000000 0.000000 0.000000 -0.990128
    30 3.883663 -0.050322 -0.431042 -0.242893 -0.053154 -1.048196
    31 1.719578 0.000004 0.000000 -0.000001 -0.007972 -1.601619
    32 1.209185 -0.000002 0.000000 0.000002 -0.004458 -0.714074
    33 3.859844 -0.148935 -1.331282 -0.233460 -0.058748 -0.562100
    34 1.711609 -0.027341 0.000000 -0.000120 0.003082 -0.678817
    35 1.099672 0.000004 0.000000 0.000004 -0.004211 -1.214451
    36 0.806023 -0.359838 -1.318334 1.227329 0.211755 -0.852031
    37 1.789783 0.000002 -0.000002 0.010168 0.160868 0.291934
    38 1.206999 0.000003 0.000002 0.000000 0.000000 0.682629
    39 -2.773513 -7.532068 -4.992304 0.000000 -0.946501 -1.570820
    40 -2.765720 -6.955800 -1.177735 0.345881 -0.530652 0.952278
    41 -3.229464 -7.149803 -1.318252 0.345881 -0.530698 0.952262
    42 -3.227054 -7.588747 -1.629637 0.345881 -0.530698 0.952262
    43 -2.791644 -7.797885 -1.775702 0.345881 -0.530698 0.952250
    44 -2.327801 -7.598118 -1.629876 0.345881 -0.530698 0.952203
    45 -2.326408 -7.174219 -1.324310 0.345881 -0.530698 0.952262
    46 -6.558527 -24.544916 -16.923851 2.795533 0.530669 -2.189348
    47 -2.776641 -7.516453 -1.286214 0.346072 -0.530592 0.952192
    48 -2.744147 -8.007244 -0.578522 -0.946396 0.000000 -0.000001
    49 8.937500 -0.013550 2.835938 -0.000001 -0.043633 0.000000
    50 0.537697 -0.025481 2.162343 0.000000 0.000001 0.000000
  time 5
    0 0.000000 -0.000006 0.000000 -1.570739 -1.391891 -1.570846
    1 2.033349 1.000767 1.937660 1.596637 -1.286515 2.942961
    2 11.360335 -14.937956 -14.539506 0.383586 -1.057894 -3.380652
    3 11.692551 0.000001 0.000002 0.000000 0.000000 -0.060372
    4 11.270728 0.039065 -0.062529 1.200597 -0.101988 -0.427903
    5 3.859713 -0.142405 -1.191975 -0.052266 -0.074231 -0.781943
    6 1.312551 -0.000002 0.000002 0.000000 0.000000 -0.751557
    7 0.729362 -0.000002 -0.000003 0.000000 0.000000 -0.244299
    8 3.942339 0.046767 -0.431443 -0.108944 -0.049011 -0.741459
    9 1.539095 0.000000 0.000000 0.000000 0.000000 -0.505256
    10 1.196321 -0.000006 0.000000 0.000000 0.000000 -0.430802
    11 3.883699 -0.046763 0.431443 0.086347 -0.018818 -0.614160
    12 1.719566 0.000000 -0.000001 0.000001 0.005509 -0.498581
    13 1.209171 -0.000002 0.000000 -0.000001 0.003083 -0.308799
    14 3.859869 -0.137947 1.332466 0.225975 0.001315 -0.675324
    15 1.719429 0.000004 -0.000001 -0.000001 0.004072 -0.450355
    16 1.099661 0.000002 -0.000001 0.000000 0.002596 -0.244331
    17 0.806057 -0.348926 1.321258 -1.960493 -0.465537 -0.286121
    18 1.789782 -0.000002 0.000002 0.000000 0.000000 0.102622
    19 1.207006 0.000000 0.000002 0.000000 0.000000 0.470699
    20 2.033356 1.000772 -1.937610 -1.668474 1.286518 2.942953
    21 11.102518 -17.883358 14.160588 -1.393296 1.047548 2.169017
    22 11.692557 0.000001 0.000005 0.000000 0.000000 -0.060372
    23 10.563704 0.046878 0.191413 -1.462817 0.321103 -0.304453
    24 3.853516 -0.130127 1.190430 -0.323131 0.043024 -1.213028
    25 1.312561 -0.000006 0.000001 0.000000 0.000000 -1.632688
    26 0.729362 0.000000 -0.000003 0.000000 0.000000 -0.244271
    27 3.942307 0.050327 0.431044 -0.268158 0.001265 -1.221340
    28 1.539099 0.000002 0.000001 0.000000 0.000000 -1.277005
    29 1.196323 0.000008 0.000000 0.000000 0.000000 -0.990128
    30 3.883663 -0.050322 -0.431042 -0.242893 -0.053154 -1.048196
    31 1.719578 0.000004 0.000000 -0.000001 -0.007972 -1.601619
    32 1.209185 -0.000002 0.000000 0.000002 -0.004458 -0.714074
    33 3.859844 -0.148935 -1.331282 -0.233460 -0.058748 -0.562100
    34 1.723328 0.000004 0.000000 0.000000 -0.006613 -0.536113
    35 1.099672 0.000004 0.000000 0.000004 -0.004211 -1.214451
    36 0.806023 -0.359838 -1.318334 1.227329 0.211755 -0.852031
    37 1.789783 0.000002 -0.000002 0.010168 0.160868 0.291934
    38 1.206999 0.000003 0.000002 0.000000 0.000000 0.682629
    39 -2.773513 -7.321124 -4.832143 0.000000 -0.910554 -1.570820
    40 -2.324301 -7.092523 -1.166016 0.660293 0.000000 -0.000021
    41 -2.760699 -6.876357 -0.990117 0.660293 0.000000 -0.000043
    42 -3.227054 -7.084825 -1.153060 0.660293 0.000000 -0.000043
    43 -3.229157 -7.489282 -1.459286 0.660293 0.000000 -0.000090
    44 -2.788753 -7.703590 -1.625970 0.660293 0.000000 -0.000037
    45 -2.326408 -7.502354 -1.472752 0.660293 0.000000 -0.000043
    46 -21.492576 -12.235947 -8.329839 2.481120 0.000000 -3.141790
    47 -2.776641 -7.438326 -1.126053 0.660293 0.000000 -0.000005
    48 -2.744147 -7.952555 -0.437893 -0.910504 0.000000 -0.000001
    49 8.937500 -0.013550 2.835938 -0.000001 -0.043633 0.000000
    50 0.537697 -0.025481 2.162343 0.000000 0.000001 0.000000
  time 6
    0 0.000000 -0.000006 0.000000 -1.570739 -1.391891 -1.570846
    1 2.033349 1.000767 1.937660 1.596637 -1.286515 2.942961
    2 11.516590 -15.352031 -14.609821 0.412714 -1.043954 -3.415740
    3 11.692551 0.000001 0.000002 0.000000 0.000000 -0.060372
    4 11.286354 0.027345 -0.062529 1.186199 -0.127958 -0.352435
    5 3.859713 -0.142405 -1.191975 -0.052266 -0.074231 -0.781943
    6 1.312551 -0.000002 0.000002 0.000000 0.000000 -0.751557
    7 0.729362 -0.000002 -0.000003 0.000000 0.000000 -0.244299
    8 3.942339 0.046767 -0.431443 -0.108944 -0.049011 -0.741459
    9 1.539095 0.000000 0.000000 0.000000 0.000000 -0.505256
    10 1.196321 -0.000006 0.000000 0.000000 0.000000 -0.430802
    11 3.883699 -0.046763 0.431443 0.086347 -0.018818 -0.614160
    12 1.719566 0.000000 -0.000001 0.000001 0.005509 -0.498581
    13 1.209171 -0.000002 0.000000 -0.000001 0.003083 -0.308799
    14 3.859869 -0.137947 1.332466 0.225975 0.001315 -0.675324
    15 1.719429 0.000004 -0.000001 -0.000001 0.004072 -0.450355
    16 1.099661 0.000002 -0.000001 0.000000 0.002596 -0.244331
    17 0.806057 -0.348926 1.321258 -1.960493 -0.465537 -0.286121
    18 1.789782 -0.000002 0.000002 0.000000 0.000000 0.102622
    19 1.207006 0.000000 0.000002 0.000000 0.000000 0.470699
    20 2.033356 1.000772 -1.937610 -1.668474 1.286518 2.942953
    21 10.457967 -17.125523 14.816858 -1.404992 1.093564 2.157996
    22 11.692557 0.000001 0.000005 0.000000 0.000000 -0.060372
    23 10.575423 0.039065 0.167975 -1.444311 0.308093 -0.285180
    24 3.853516 -0.130127 1.190430 -0.323131 0.043024 -1.213028
    25 1.312561 -0.000006 0.000001 0.000000 0.000000 -1.632688
    26 0.729362 0.000000 -0.000003 0.000000 0.000000 -0.244271
    27 3.942307 0.050327 0.431044 -0.268158 0.001265 -1.221340
    28 1.539099 0.000002 0.000001 0.000000 0.000000 -1.277005
    29 1.196323 0.000008 0.000000 0.000000 0.000000 -0.990128
    30 3.883663 -0.050322 -0.431042 -0.242893 -0.053154 -1.048196
    31 1.719578 0.000004 0.000000 -0.000001 -0.007972 -1.601619
    32 1.209185 -0.000002 0.000000 0.000002 -0.004458 -0.714074
    33 3.859844 -0.148935 -1.331282 -0.233460 -0.058748 -0.562100
    34 1.723328 0.000004 0.000000 -0.000060 -0.007716 -0.519678
    35 1.099672 0.000004 0.000000 0.000004 -0.004211 -1.214451
    36 0.806023 -0.359838 -1.318334 1.227329 0.211755 -0.852031
    37 1.789783 0.000002 -0.000002 0.010168 0.160868 0.291934
    38 1.206999 0.000003 0.000002 0.000000 0.000000 0.682629
    39 -2.773513 -7.364094 -4.812611 0.000000 -0.851385 -1.570820
    40 -2.324301 -7.358156 -1.146484 0.719443 0.000000 -0.000021
    41 -2.760699 -7.145897 -0.958866 0.719443 0.000000 -0.000043
    42 -3.227054 -7.342646 -1.137435 0.719443 0.000000 -0.000043
    43 -3.229157 -7.731477 -1.467099 0.719443 0.000000 -0.000090
    44 -2.788753 -7.937972 -1.645502 0.719443 0.000000 -0.000037
    45 -2.326408 -7.740643 -1.480565 0.719443 0.000000 -0.000043
    46 -18.429983 -12.064066 -8.599378 2.422043 0.000000 -3.141790
    47 -2.776641 -7.700053 -1.126053 0.719634 0.000000 -0.000005
    48 -2.744147 -8.253345 -0.469144 -0.851163 0.000000 -0.000001
    49 8.937500 -0.013550 2.835938 -0.000001 -0.043633 0.000000
    50 0.545510 -0.025481 2.174062 0.000000 0.000001 0.000000
  time 7
    0 0.000000 -0.000006 0.000000 -1.570739 -1.391891 -1.570846
    1 2.033349 1.000767 1.937660 1.596637 -1.286515 2.942961
    2 11.625968 -15.652822 -14.684042 0.429674 -1.034104 -3.437981
    3 11.692551 0.000001 0.000002 0.000000 0.000000 -0.060372
    4 11.301979 0.015626 -0.054716 1.163582 -0.157726 -0.266703
    5 3.859713 -0.142405 -1.191975 -0.052266 -0.074231 -0.781943
    6 1.312551 -0.000002 0.000002 0.000000 0.000000 -0.751557
    7 0.729362 -0.000002 -0.000003 0.000000 0.000000 -0.244299
    8 3.942339 0.046767 -0.431443 -0.108944 -0.049011 -0.741459
    9 1.539095 0.000000 0.000000 0.000000 0.000000 -0.505256
    10 1.196321 -0.000006 0.000000 0.000000 0.000000 -0.430802
    11 3.883699 -0.046763 0.431443 0.086347 -0.018818 -0.614160
    12 1.719566 0.000000 -0.000001 0.000001 0.005509 -0.498581
    13 1.209171 -0.000002 0.000000 -0.000001 0.003083 -0.308799
    14 3.859869 -0.137947 1.332466 0.225975 0.001315 -0.675324
    15 1.719429 0.000004 -0.000001 -0.000001 0.004072 -0.450355
    16 1.099661 0.000002 -0.000001 0.000000 0.002596 -0.244331
    17 0.806057 -0.348926 1.321258 -1.960493 -0.465537 -0.286121
    18 1.789782 -0.000002 0.000002 0.000000 0.000000 0.102622
    19 1.207006 0.000000 0.000002 0.000000 0.000000 0.470699
    20 2.033356 1.000772 -1.937610 -1.668474 1.286518 2.942953
    21 10.098581 -16.695822 15.172338 -1.411511 1.120108 2.151631
    22 11.692557 0.000001 0.000005 0.000000 0.000000 -0.060372
    23 10.626206 0.015627 0.148443 -1.426761 0.298354 -0.229280
    24 3.853516 -0.130127 1.190430 -0.323131 0.043024 -1.213028
    25 1.312561 -0.000006 0.000001 0.000000 0.000000 -1.632688
    26 0.729362 0.000000 -0.000003 0.000000 0.000000 -0.244271
    27 3.942307 0.050327 0.431044 -0.268158 0.001265 -1.221340
    28 1.539099 0.000002 0.000001 0.000000 0.000000 -1.277005
    29 1.196323 0.000008 0.000000 0.000000 0.000000 -0.990128
    30 3.883663 -0.050322 -0.431042 -0.242893 -0.053154 -1.048196
    31 1.719578 0.000004 0.000000 -0.000001 -0.007972 -1.601619
    32 1.209185 -0.000002 0.000000 0.000002 -0.004458 -0.714074
    33 3.859844 -0.148935 -1.331282 -0.233460 -0.058748 -0.562100
    34 1.719421 0.000004 0.000000 0.000000 -0.006613 -0.536113
    35 1.099672 0.000004 0.000000 0.000004 -0.004211 -1.214451
    36 0.806023 -0.359838 -1.318334 1.227329 0.211755 -0.852031
    37 1.789783 0.000002 -0.000002 0.010168 0.160868 0.291934
    38 1.206999 0.000003 0.000002 0.000000 0.000000 0.682629
    39 -2.773513 -7.543787 -4.890738 0.000000 -0.773753 -1.570820
    40 -2.324301 -7.815201 -1.228518 0.797065 0.000000 -0.000021
    41 -2.760699 -7.622474 -1.033087 0.797065 0.000000 -0.000043
    42 -3.227054 -7.811410 -1.215562 0.797065 0.000000 -0.000043
    43 -3.229157 -8.168990 -1.576477 0.797065 0.000000 -0.000090
    44 -2.784847 -8.359860 -1.770506 0.797065 0.000000 -0.000037
    45 -2.326408 -8.174250 -1.597756 0.797065 0.000000 -0.000043
    46 -15.363483 -11.935156 -9.032985 2.344415 0.000000 -3.141790
    47 -2.776641 -8.161004 -1.243244 0.797256 0.000000 -0.000005
    48 -2.744147 -8.768986 -0.629305 -0.773541 0.000000 -0.000001
    49 8.937500 -0.013550 2.835938 -0.000001 -0.043633 0.000000
    50 0.537697 -0.025481 2.166249 0.000000 0.000001 0.000000
  time 8
    0 0.000000 -0.000006 0.000000 -1.570739 -1.391891 -1.570846
    1 2.033349 1.000767 1.937660 1.596637 -1.286515 2.942961
    2 11.743159 -15.977050 -14.746544 0.449508 -1.022042 -3.462906
    3 11.692551 0.000001 0.000002 0.000000 0.000000 -0.060372
    4 11.325418 0.003907 -0.046904 1.133313 -0.191242 -0.164509
    5 3.859713 -0.142405 -1.191975 -0.052266 -0.074231 -0.781943
    6 1.312551 -0.000002 0.000002 0.000000 0.000000 -0.751557
    7 0.729362 -0.000002 -0.000003 0.000000 0.000000 -0.244299
    8 3.942339 0.046767 -0.431443 -0.108944 -0.049011 -0.741459
    9 1.539095 0.000000 0.000000 0.000000 0.000000 -0.505256
    10 1.196321 -0.000006 0.000000 0.000000 0.000000 -0.430802
    11 3.883699 -0.046763 0.431443 0.086347 -0.018818 -0.614160
    12 1.719566 0.000000 -0.000001 0.000001 0.005509 -0.498581
    13 1.209171 -0.000002 0.000000 -0.000001 0.003083 -0.308799
    14 3.859869 -0.137947 1.332466 0.225975 0.001315 -0.675324
    15 1.719429 0.000004 -0.000001 -0.000001 0.004072 -0.450355
    16 1.099661 0.000002 -0.000001 0.000000 0.002596 -0.244331
    17 0.806057 -0.348926 1.321258 -1.960493 -0.465537 -0.286121
    18 1.789782 -0.000002 0.000002 0.000000 0.000000 0.102622
    19 1.207006 0.000000 0.000002 0.000000 0.000000 0.470699
    20 2.033356 1.000772 -1.937610 -1.668474 1.286518 2.942953
    21 10.039986 -16.637227 15.297342 -1.413524 1.122684 2.149731
    22 11.692557 0.000001 0.000005 0.000000 0.000000 -0.060372
    23 10.723865 -0.007812 0.125005 -1.409703 0.291868 -0.136868
    24 3.853516 -0.130127 1.190430 -0.323131 0.043024 -1.213028
    25 1.312561 -0.000006 0.000001 0.000000 0.000000 -1.632688
    26 0.729362 0.000000 -0.000003 0.000000 0.000000 -0.244271
    27 3.942307 0.050327 0.431044 -0.268158 0.001265 -1.221340
    28 1.539099 0.000002 0.000001 0.000000 0.000000 -1.277005
    29 1.196323 0.000008 0.000000 0.000000 0.000000 -0.990128
    30 3.883663 -0.050322 -0.431042 -0.242893 -0.053154 -1.048196
    31 1.719578 0.000004 0.000000 -0.000001 -0.007972 -1.601619
    32 1.209185 -0.000002 0.000000 0.000002 -0.004458 -0.714074
    33 3.859844 -0.148935 -1.331282 -0.233460 -0.058748 -0.562100
    34 1.723328 0.000004 0.000000 0.000000 -0.006613 -0.536113
    35 1.099672 0.000004 0.000000 0.000004 -0.004211 -1.214451
    36 0.806023 -0.359838 -1.318334 1.227329 0.211755 -0.852031
    37 1.789783 0.000002 -0.000002 0.010168 0.160868 0.291934
    38 1.206999 0.000003 0.000002 0.000000 0.000000 0.682629
    39 -2.773513 -7.754731 -4.992304 0.000000 -0.682384 -1.570820
    40 -2.324301 -8.362093 -1.369147 0.888565 0.000000 -0.000021
    41 -2.760699 -8.184991 -1.158091 0.888565 0.000000 -0.000043
    42 -3.227054 -8.358302 -1.360098 0.888565 0.000000 -0.000043
    43 -3.229157 -8.680725 -1.744451 0.888565 0.000000 -0.000090
    44 -2.784847 -8.855969 -1.961918 0.888565 0.000000 -0.000037
    45 -2.326408 -8.689891 -1.765730 0.888565 0.000000 -0.000043
    46 -12.304796 -11.751557 -9.509562 2.253278 0.000000 -3.141790
    47 -2.776641 -8.707896 -1.411218 0.888565 0.000000 -0.000005
    48 -2.744147 -9.362754 -0.859781 -0.682232 0.000000 -0.000001
    49 8.937500 -0.013550 2.835938 -0.000001 -0.043633 0.000000
    50 0.537697 -0.025481 2.166249 0.000000 0.000001 0.000000
  time 9
    0 0.000000 -0.000006 0.000000 -1.570739 -1.391891 -1.570846
    1 2.033349 1.000767 1.937660 1.596637 -1.286515 2.942961
    2 11.918946 -16.445815 -14.777795 0.482661 -1.001090 -3.502787
    3 11.692551 0.000001 0.000002 0.000000 0.000000 -0.060372
    4 11.356668 0.000001 -0.042997 1.094994 -0.228608 -0.040746
    5 3.859713 -0.142405 -1.191975 -0.052266 -0.074231 -0.781943
    6 1.312551 -0.000002 0.000002 0.000000 0.000000 -0.751557
    7 0.729362 -0.000002 -0.000003 0.000000 0.000000 -0.244299
    8 3.942339 0.046767 -0.431443 -0.108944 -0.049011 -0.741459
    9 1.539095 0.000000 0.000000 0.000000 0.000000 -0.505256
    10 1.196321 -0.000006 0.000000 0.000000 0.000000 -0.430802
    11 3.883699 -0.046763 0.431443 0.086347 -0.018818 -0.614160
    12 1.719566 0.000000 -0.000001 0.000001 0.005509 -0.498581
    13 1.209171 -0.000002 0.000000 -0.000001 0.003083 -0.308799
    14 3.859869 -0.137947 1.332466 0.225975 0.001315 -0.675324
    15 1.719429 0.000004 -0.000001 -0.000001 0.004072 -0.450355
    16 1.099661 0.000002 -0.000001 0.000000 0.002596 -0.244331
    17 0.806057 -0.348926 1.321258 -1.960493 -0.465537 -0.286121
    18 1.789782 -0.000002 0.000002 0.000000 0.000000 0.102622
    19 1.207006 0.000000 0.000002 0.000000 0.000000 0.470699
    20 2.033356 1.000772 -1.937610 -1.668474 1.286518 2.942953
    21 9.993109 -16.598163 15.465316 -1.419277 1.120283 2.145076
    22 11.692557 0.000001 0.000005 0.000000 0.000000 -0.060372
    23 10.844963 -0.042969 0.101567 -1.390912 0.282895 -0.030366
    24 3.853516 -0.130127 1.190430 -0.323131 0.043024 -1.213028
    25 1.312561 -0.000006 0.000001 0.000000 0.000000 -1.632688
    26 0.729362 0.000000 -0.000003 0.000000 0.000000 -0.244271
    27 3.942307 0.050327 0.431044 -0.268158 0.001265 -1.221340
    28 1.539099 0.000002 0.000001 0.000000 0.000000 -1.277005
    29 1.196323 0.000008 0.000000 0.000000 0.000000 -0.990128
    30 3.883663 -0.050322 -0.431042 -0.242893 -0.053154 -1.048196
    31 1.719578 0.000004 0.000000 -0.000001 -0.007972 -1.601619
    32 1.209185 -0.000002 0.000000 0.000002 -0.004458 -0.714074
    33 3.859844 -0.148935 -1.331282 -0.233460 -0.058748 -0.562100
    34 1.723328 0.000004 0.000000 0.000000 -0.006613 -0.536113
    35 1.099672 0.000004 0.000000 0.000004 -0.004211 -1.214451
    36 0.806023 -0.359838 -1.318334 1.227329 0.211755 -0.852031
    37 1.789783 0.000002 -0.000002 0.010168 0.160868 0.291934
    38 1.206999 0.000003 0.000002 0.000000 0.000000 0.682629
    39 -2.773513 -7.895360 -5.035274 0.000000 -0.582374 -1.570820
    40 -2.324301 -8.862108 -1.505870 0.988488 0.000000 -0.000021
    41 -2.760699 -8.704538 -1.267469 0.988488 0.000000 -0.000043
    42 -3.227054 -8.858317 -1.489008 0.988488 0.000000 -0.000043
    43 -3.229157 -9.137770 -1.912425 0.988488 0.000000 -0.000090
    44 -2.784847 -9.293482 -2.137704 0.988488 0.000000 -0.000037
    45 -2.326408 -9.146936 -1.925891 0.988488 0.000000 -0.000043
    46 -9.246109 -11.415609 -9.943169 2.152913 0.000000 -3.141790
    47 -2.776641 -9.200098 -1.579192 0.988488 0.000000 -0.000005
    48 -2.744147 -9.909646 -1.094163 -0.582309 0.000000 -0.000001
    49 8.937500 -0.013550 2.835938 -0.000001 -0.043633 0.000000
    50 0.537697 -0.025481 2.170156 0.000000 0.000001 0.000000
  time 10
    0 0.000000 -0.000006 0.000000 -1.570739 -1.391891 -1.570846
    1 2.033349 1.000767 1.937660 1.596637 -1.286515 2.942961
    2 12.153328 -17.043489 -14.762169 0.526736 -0.969662 -3.554555
    3 11.692551 0.000001 0.000002 0.000000 0.000000 -0.060372
    4 11.387919 -0.003906 -0.039091 1.047833 -0.267705 0.101414
    5 3.859713 -0.142405 -1.191975 -0.052266 -0.074231 -0.781943
    6 1.312551 -0.000002 0.000002 0.000000 0.000000 -0.751557
    7 0.729362 -0.000002 -0.000003 0.000000 0.000000 -0.244299
    8 3.942339 0.046767 -0.431443 -0.108944 -0.049011 -0.741459
    9 1.539095 0.000000 0.000000 0.000000 0.000000 -0.505256
    10 1.196321 -0.000006 0.000000 0.000000 0.000000 -0.430802
    11 3.883699 -0.046763 0.431443 0.086347 -0.018818 -0.614160
    12 1.719566 0.000000 -0.000001 0.000001 0.005509 -0.498581
    13 1.209171 -0.000002 0.000000 -0.000001 0.003083 -0.308799
    14 3.859869 -0.137947 1.332466 0.225975 0.001315 -0.675324
    15 1.719429 0.000004 -0.000001 -0.000001 0.004072 -0.450355
    16 1.099661 0.000002 -0.000001 0.000000 0.002596 -0.244331
    17 0.806057 -0.348926 1.321258 -1.960493 -0.465537 -0.286121
    18 1.789782 -0.000002 0.000002 0.000000 0.000000 0.102622
    19 1.207006 0.000000 0.000002 0.000000 0.000000 0.470699
    20 2.033356 1.000772 -1.937610 -1.668474 1.286518 2.942953
    21 9.981390 -16.613788 15.648915 -1.428097 1.109892 2.138045
    22 11.692557 0.000001 0.000005 0.000000 0.000000 -0.060372
    23 10.977779 -0.062501 0.078128 -1.371863 0.271568 0.087846
    24 3.853516 -0.130127 1.190430 -0.323131 0.043024 -1.213028
    25 1.312561 -0.000006 0.000001 0.000000 0.000000 -1.632688
    26 0.729362 0.000000 -0.000003 0.000000 0.000000 -0.244271
    27 3.942307 0.050327 0.431044 -0.268158 0.001265 -1.221340
    28 1.539099 0.000002 0.000001 0.000000 0.000000 -1.277005
    29 1.196323 0.000008 0.000000 0.000000 0.000000 -0.990128
    30 3.883663 -0.050322 -0.431042 -0.242893 -0.053154 -1.048196
    31 1.719578 0.000004 0.000000 -0.000001 -0.007972 -1.601619
    32 1.209185 -0.000002 0.000000 0.000002 -0.004458 -0.714074
    33 3.859844 -0.148935 -1.331282 -0.233460 -0.058748 -0.562100
    34 1.719421 0.000004 0.000000 0.000000 -0.006613 -0.536113
    35 1.099672 0.000004 0.000000 0.000004 -0.004211 -1.214451
    36 0.806023 -0.359838 -1.318334 1.227329 0.211755 -0.852031
    37 1.789783 0.000002 -0.000002 0.010168 0.160868 0.291934
    38 1.206999 0.000003 0.000002 0.000000 0.000000 0.682629
    39 -2.773513 -7.938330 -5.023555 0.000000 -0.478246 -1.570820
    40 -2.324301 -9.268370 -1.611342 1.092622 0.000000 -0.000021
    41 -2.760699 -9.138145 -1.361222 1.092622 0.000000 -0.000043
    42 -3.227054 -9.264579 -1.606199 1.092622 0.000000 -0.000043
    43 -3.229157 -9.504969 -2.041335 1.092622 0.000000 -0.000090
    44 -2.784847 -9.633336 -2.290053 1.092622 0.000000 -0.000037
    45 -2.326408 -9.510228 -2.062614 1.092622 0.000000 -0.000043
    46 -6.199141 -10.935126 -10.267398 2.048743 0.000000 -3.141790
    47 -2.776641 -9.598548 -1.719821 1.092622 0.000000 -0.000005
    48 -2.744147 -10.347159 -1.309013 -0.478175 0.000000 -0.000001
    49 8.937500 -0.013550 2.835938 -0.000001 -0.043633 0.000000
    50 0.537697 -0.025481 2.166249 0.000000 0.000001 0.000000
  time 11
    0 0.000000 -0.000006 0.000000 -1.570739 -1.391891 -1.570846
    1 2.033349 1.000767 1.937660 1.596637 -1.286515 2.942961
    2 12.387710 -17.633351 -14.660604 0.571196 -0.932850 -3.605269
    3 11.692551 0.000001 0.000002 0.000000 0.000000 -0.060372
    4 11.411358 -0.011718 -0.031278 0.992509 -0.303494 0.250267
    5 3.859713 -0.142405 -1.191975 -0.052266 -0.074231 -0.781943
    6 1.312551 -0.000002 0.000002 0.000000 0.000000 -0.751557
    7 0.729362 -0.000002 -0.000003 0.000000 0.000000 -0.244299
    8 3.942339 0.046767 -0.431443 -0.108944 -0.049011 -0.741459
    9 1.539095 0.000000 0.000000 0.000000 0.000000 -0.505256
    10 1.196321 -0.000006 0.000000 0.000000 0.000000 -0.430802
    11 3.883699 -0.046763 0.431443 0.086347 -0.018818 -0.614160
    12 1.719566 0.000000 -0.000001 0.000001 0.005509 -0.498581
    13 1.209171 -0.000002 0.000000 -0.000001 0.003083 -0.308799
    14 3.859869 -0.137947 1.332466 0.225975 0.001315 -0.675324
    15 1.719429 0.000004 -0.000001 -0.000001 0.004072 -0.450355
    16 1.099661 0.000002 -0.000001 0.000000 0.002596 -0.244331
    17 0.806057 -0.348926 1.321258 -1.960493 -0.465537 -0.286121
    18 1.789782 -0.000002 0.000002 0.000000 0.000000 0.102622
    19 1.207006 0.000000 0.000002 0.000000 0.000000 0.470699
    20 2.033356 1.000772 -1.937610 -1.668474 1.286518 2.942953
    21 9.946233 -16.602069 15.852046 -1.439026 1.098410 2.129019
    22 11.692557 0.000001 0.000005 0.000000 0.000000 -0.060372
    23 11.118409 -0.066407 0.054690 -1.353977 0.257257 0.205981
    24 3.853516 -0.130127 1.190430 -0.323131 0.043024 -1.213028
    25 1.312561 -0.000006 0.000001 0.000000 0.000000 -1.632688
    26 0.729362 0.000000 -0.000003 0.000000 0.000000 -0.244271
    27 3.942307 0.050327 0.431044 -0.268158 0.001265 -1.221340
    28 1.539099 0.000002 0.000001 0.000000 0.000000 -1.277005
    29 1.196323 0.000008 0.000000 0.000000 0.000000 -0.990128
    30 3.883663 -0.050322 -0.431042 -0.242893 -0.053154 -1.048196
    31 1.719578 0.000004 0.000000 -0.000001 -0.007972 -1.601619
    32 1.209185 -0.000002 0.000000 0.000002 -0.004458 -0.714074
    33 3.859844 -0.148935 -1.331282 -0.233460 -0.058748 -0.562100
    34 1.723328 0.000004 0.000000 0.000000 -0.006613 -0.536113
    35 1.099672 0.000004 0.000000 0.000004 -0.004211 -1.214451
    36 0.806023 -0.359838 -1.318334 1.227329 0.211755 -0.852031
    37 1.789783 0.000002 -0.000002 0.010168 0.160868 0.291934
    38 1.206999 0.000003 0.000002 0.000000 0.000000 0.682629
    39 -2.773513 -7.938330 -4.984491 0.000000 -0.374962 -1.570820
    40 -2.324301 -9.612131 -1.720720 1.195799 0.000000 -0.000021
    41 -2.760699 -9.509250 -1.458881 1.195799 0.000000 -0.000043
    42 -3.227054 -9.608340 -1.711671 1.195799 0.000000 -0.000043
    43 -3.229157 -9.797946 -2.178058 1.195799 0.000000 -0.000090
    44 -2.784847 -9.902876 -2.430682 1.195799 0.000000 -0.000037
    45 -2.326408 -9.803206 -2.191524 1.195799 0.000000 -0.000043
    46 -3.144360 -10.376515 -10.505687 1.945429 0.000000 -3.141790
    47 -2.776641 -9.926683 -1.864357 1.195799 0.000000 -0.000005
    48 -2.744147 -10.722170 -1.535583 -0.374998 0.000000 -0.000001
    49 8.937500 -0.013550 2.835938 -0.000001 -0.043633 0.000000
    50 0.541604 -0.025481 2.166249 0.000000 0.000001 0.000000
  time 12
    0 0.000000 -0.000006 0.000000 -1.570739 -1.391891 -1.570846
    1 2.033349 1.000767 1.937660 1.596637 -1.286515 2.942961
    2 12.602560 -18.164617 -14.480911 0.611056 -0.894118 -3.649751
    3 11.692551 0.000001 0.000002 0.000000 0.000000 -0.060372
    4 11.434796 -0.003906 -0.015653 0.932197 -0.332229 0.397038
    5 3.859713 -0.142405 -1.191975 -0.052266 -0.074231 -0.781943
    6 1.312551 -0.000002 0.000002 0.000000 0.000000 -0.751557
    7 0.729362 -0.000002 -0.000003 0.000000 0.000000 -0.244299
    8 3.942339 0.046767 -0.431443 -0.108944 -0.049011 -0.741459
    9 1.539095 0.000000 0.000000 0.000000 0.000000 -0.505256
    10 1.196321 -0.000006 0.000000 0.000000 0.000000 -0.430802
    11 3.883699 -0.046763 0.431443 0.086347 -0.018818 -0.614160
    12 1.719566 0.000000 -0.000001 0.000001 0.005509 -0.498581
    13 1.209171 -0.000002 0.000000 -0.000001 0.003083 -0.308799
    14 3.859869 -0.137947 1.332466 0.225975 0.001315 -0.675324
    15 1.719429 0.000004 -0.000001 -0.000001 0.004072 -0.450355
    16 1.099661 0.000002 -0.000001 0.000000 0.002596 -0.244331
    17 0.806057 -0.348926 1.321258 -1.960493 -0.465537 -0.286121
    18 1.789782 -0.000002 0.000002 0.000000 0.000000 0.102622
    19 1.207006 0.000000 0.000002 0.000000 0.000000 0.470699
    20 2.033356 1.000772 -1.937610 -1.668474 1.286518 2.942953
    21 9.856386 -16.527848 16.062990 -1.451201 1.089460 2.118664
    22 11.692557 0.000001 0.000005 0.000000 0.000000 -0.060372
    23 11.235600 -0.058594 0.031252 -1.339167 0.240516 0.315247
    24 3.853516 -0.130127 1.190430 -0.323131 0.043024 -1.213028
    25 1.312561 -0.000006 0.000001 0.000000 0.000000 -1.632688
    26 0.729362 0.000000 -0.000003 0.000000 0.000000 -0.244271
    27 3.942307 0.050327 0.431044 -0.268158 0.001265 -1.221340
    28 1.539099 0.000002 0.000001 0.000000 0.000000 -1.277005
    29 1.196323 0.000008 0.000000 0.000000 0.000000 -0.990128
    30 3.883663 -0.050322 -0.431042 -0.242893 -0.053154 -1.048196
    31 1.719578 0.000004 0.000000 -0.000001 -0.007972 -1.601619
    32 1.209185 -0.000002 0.000000 0.000002 -0.004458 -0.714074
    33 3.859844 -0.148935 -1.331282 -0.233460 -0.058748 -0.562100
    34 1.723328 0.000004 0.000000 0.000000 -0.006613 -0.536113
    35 1.099672 0.000004 0.000000 0.000004 -0.004211 -1.214451
    36 0.806023 -0.359838 -1.318334 1.227329 0.211755 -0.852031
    37 1.789783 0.000002 -0.000002 0.010168 0.160868 0.291934
    38 1.206999 0.000003 0.000002 0.000000 0.000000 0.682629
    39 -2.773513 -7.903173 -4.921989 0.000000 -0.277382 -1.570820
    40 -2.324301 -9.889483 -1.834005 1.293616 0.000000 -0.000021
    41 -2.760699 -9.813947 -1.572166 1.293616 0.000000 -0.000043
    42 -3.227054 -9.889598 -1.828862 1.293616 0.000000 -0.000043
    43 -3.229157 -10.028422 -2.306968 1.293616 0.000000 -0.000090
    44 -2.784847 -10.106007 -2.579124 1.293616 0.000000 -0.000037
    45 -2.326408 -10.033682 -2.328247 1.293616 0.000000 -0.000043
    46 -3.144360 -9.794466 -10.661941 1.847918 0.000000 -3.141790
    47 -2.776641 -10.192316 -2.012799 1.293616 0.000000 -0.000005
    48 -2.744147 -11.011242 -1.758246 -0.277181 0.000000 -0.000001
    49 8.937500 -0.013550 2.835938 -0.000001 -0.043633 0.000000
    50 0.537697 -0.025481 2.166249 0.000000 0.000001 0.000000
  time 13
    0 0.000000 -0.000006 0.000000 -1.570739 -1.391891 -1.570846
    1 2.033349 1.000767 1.937660 1.596637 -1.286515 2.942961
    2 12.786160 -18.594318 -14.258248 0.644112 -0.857306 -3.685509
    3 11.692551 0.000001 0.000002 0.000000 0.000000 -0.060372
    4 11.458234 -0.007812 -0.011746 0.871885 -0.351869 0.531561
    5 3.859713 -0.142405 -1.191975 -0.052266 -0.074231 -0.781943
    6 1.312551 -0.000002 0.000002 0.000000 0.000000 -0.751557
    7 0.729362 -0.000002 -0.000003 0.000000 0.000000 -0.244299
    8 3.942339 0.046767 -0.431443 -0.108944 -0.049011 -0.741459
    9 1.539095 0.000000 0.000000 0.000000 0.000000 -0.505256
    10 1.196321 -0.000006 0.000000 0.000000 0.000000 -0.430802
    11 3.883699 -0.046763 0.431443 0.086347 -0.018818 -0.614160
    12 1.719566 0.000000 -0.000001 0.000001 0.005509 -0.498581
    13 1.209171 -0.000002 0.000000 -0.000001 0.003083 -0.308799
    14 3.859869 -0.137947 1.332466 0.225975 0.001315 -0.675324
    15 1.719429 0.000004 -0.000001 -0.000001 0.004072 -0.450355
    16 1.099661 0.000002 -0.000001 0.000000 0.002596 -0.244331
    17 0.806057 -0.348926 1.321258 -1.960493 -0.465537 -0.286121
    18 1.789782 -0.000002 0.000002 0.000000 0.000000 0.102622
    19 1.207006 0.000000 0.000002 0.000000 0.000000 0.470699
    20 2.033356 1.000772 -1.937610 -1.668474 1.286518 2.942953
    21 9.700131 -16.363781 16.297372 -1.464144 1.086404 2.107833
    22 11.692557 0.000001 0.000005 0.000000 0.000000 -0.060372
    23 11.348884 -0.039063 0.019533 -1.328208 0.222761 0.407083
    24 3.853516 -0.130127 1.190430 -0.323131 0.043024 -1.213028
    25 1.312561 -0.000006 0.000001 0.000000 0.000000 -1.632688
    26 0.729362 0.000000 -0.000003 0.000000 0.000000 -0.244271
    27 3.942307 0.050327 0.431044 -0.268158 0.001265 -1.221340
    28 1.539099 0.000002 0.000001 0.000000 0.000000 -1.277005
    29 1.196323 0.000008 0.000000 0.000000 0.000000 -0.990128
    30 3.883663 -0.050322 -0.431042 -0.242893 -0.053154 -1.048196
    31 1.719578 0.000004 0.000000 -0.000001 -0.007972 -1.601619
    32 1.209185 -0.000002 0.000000 0.000002 -0.004458 -0.714074
    33 3.859844 -0.148935 -1.331282 -0.233460 -0.058748 -0.562100
    34 1.719421 0.000004 0.000000 0.000000 -0.006613 -0.536113
    35 1.099672 0.000004 0.000000 0.000004 -0.004211 -1.214451
    36 0.806023 -0.359838 -1.318334 1.227329 0.211755 -0.852031
    37 1.789783 0.000002 -0.000002 0.010168 0.160868 0.291934
    38 1.206999 0.000003 0.000002 0.000000 0.000000 0.682629
    39 -2.773513 -7.864109 -4.863394 0.000000 -0.190232 -1.570820
    40 -2.324301 -10.108240 -1.962915 1.380618 0.000000 -0.000021
    41 -2.760699 -10.056142 -1.689357 1.380618 0.000000 -0.000043
    42 -3.227054 -10.104449 -1.953866 1.380618 0.000000 -0.000043
    43 -3.229157 -10.208115 -2.443691 1.380618 0.000000 -0.000090
    44 -2.784847 -10.262262 -2.715847 1.380618 0.000000 -0.000037
    45 -2.326408 -10.205562 -2.468876 1.380618 0.000000 -0.000043
    46 -3.144360 -9.247574 -10.743975 1.760967 0.000000 -3.141790
    47 -2.776641 -10.391541 -2.161241 1.380618 0.000000 -0.000005
    48 -2.744147 -11.233905 -1.980909 -0.190179 0.000000 -0.000001
    49 8.937500 -0.013550 2.835938 -0.000001 -0.043633 0.000000
    50 0.537697 -0.025481 2.170156 0.000000 0.000001 0.000000
  time 14
    0 0.000000 -0.000006 0.000000 -1.570739 -1.391891 -1.570846
    1 2.033349 1.000767 1.937660 1.596637 -1.286515 2.942961
    2 12.926789 -18.906827 -14.031678 0.669121 -0.827172 -3.711202
    3 11.692551 0.000001 0.000002 0.000000 0.000000 -0.060372
    4 11.469953 0.000001 -0.003934 0.818545 -0.362437 0.643077
    5 3.859713 -0.142405 -1.191975 -0.052266 -0.074231 -0.781943
    6 1.312551 -0.000002 0.000002 0.000000 0.000000 -0.751557
    7 0.729362 -0.000002 -0.000003 0.000000 0.000000 -0.244299
    8 3.942339 0.046767 -0.431443 -0.108944 -0.049011 -0.741459
    9 1.539095 0.000000 0.000000 0.000000 0.000000 -0.505256
    10 1.196321 -0.000006 0.000000 0.000000 0.000000 -0.430802
    11 3.883699 -0.046763 0.431443 0.086347 -0.018818 -0.614160
    12 1.719566 0.000000 -0.000001 0.000001 0.005509 -0.498581
    13 1.209171 -0.000002 0.000000 -0.000001 0.003083 -0.308799
    14 3.859869 -0.137947 1.332466 0.225975 0.001315 -0.675324
    15 1.719429 0.000004 -0.000001 -0.000001 0.004072 -0.450355
    16 1.099661 0.000002 -0.000001 0.000000 0.002596 -0.244331
    17 0.806057 -0.348926 1.321258 -1.960493 -0.465537 -0.286121
    18 1.789782 -0.000002 0.000002 0.000000 0.000000 0.102622
    19 1.207006 0.000000 0.000002 0.000000 0.000000 0.470699
    20 2.033356 1.000772 -1.937610 -1.668474 1.286518 2.942953
    21 9.457937 -16.090335 16.559099 -1.476703 1.092254 2.096147
    22 11.692557 0.000001 0.000005 0.000000 0.000000 -0.060372
    23 11.423105 -0.019531 0.007814 -1.321824 0.205503 0.473963
    24 3.853516 -0.130127 1.190430 -0.323131 0.043024 -1.213028
    25 1.312561 -0.000006 0.000001 0.000000 0.000000 -1.632688
    26 0.729362 0.000000 -0.000003 0.000000 0.000000 -0.244271
    27 3.942307 0.050327 0.431044 -0.268158 0.001265 -1.221340
    28 1.539099 0.000002 0.000001 0.000000 0.000000 -1.277005
    29 1.196323 0.000008 0.000000 0.000000 0.000000 -0.990128
    30 3.883663 -0.050322 -0.431042 -0.242893 -0.053154 -1.048196
    31 1.719578 0.000004 0.000000 -0.000001 -0.007972 -1.601619
    32 1.209185 -0.000002 0.000000 0.000002 -0.004458 -0.714074
    33 3.859844 -0.148935 -1.331282 -0.233460 -0.058748 -0.562100
    34 1.723328 0.000004 0.000000 0.000000 -0.006613 -0.536113
    35 1.099672 0.000004 0.000000 0.000004 -0.004211 -1.214451
    36 0.806023 -0.359838 -1.318334 1.227329 0.211755 -0.852031
    37 1.789783 0.000002 -0.000002 0.010168 0.160868 0.291934
    38 1.206999 0.000003 0.000002 0.000000 0.000000 0.682629
    39 -2.773513 -7.828952 -4.832143 0.000000 -0.118372 -1.570820
    40 -2.324301 -10.276214 -2.091825 1.452593 0.000000 -0.000021
    41 -2.760699 -10.239741 -1.814361 1.452593 0.000000 -0.000043
    42 -3.227054 -10.276329 -2.082776 1.452593 0.000000 -0.000043
    43 -3.229157 -10.340932 -2.580414 1.452593 0.000000 -0.000090
    44 -2.784847 -10.375547 -2.856476 1.452593 0.000000 -0.000037
    45 -2.326408 -10.330566 -2.601693 1.452593 0.000000 -0.000043
    46 -3.144360 -8.786623 -10.790851 1.689142 0.000000 -3.141790
    47 -2.776641 -10.543889 -2.313589 1.452593 0.000000 -0.000005
    48 -2.744147 -11.394066 -2.195759 -0.118204 0.000000 -0.000001
    49 8.937500 -0.013550 2.835938 -0.000001 -0.043633 0.000000
    50 0.541604 -0.025481 2.166249 0.000000 0.000001 0.000000
  time 15
    0 0.000000 -0.000006 0.000000 -1.570739 -1.391891 -1.570846
    1 2.033349 1.000767 1.937660 1.596637 -1.286515 2.942961
    2 13.016636 -19.117771 -13.859798 0.685506 -0.805469 2.554948
    3 11.692551 0.000001 0.000002 0.000000 0.000000 -0.060372
    4 11.477766 0.000001 -0.000027 0.779036 -0.366779 0.723057
    5 3.859713 -0.142405 -1.191975 -0.052266 -0.074231 -0.781943
    6 1.312551 -0.000002 0.000002 0.000000 0.000000 -0.751557
    7 0.729362 -0.000002 -0.000003 0.000000 0.000000 -0.244299
    8 3.942339 0.046767 -0.431443 -0.108944 -0.049011 -0.741459
    9 1.539095 0.000000 0.000000 0.000000 0.000000 -0.505256
    10 1.196321 -0.000006 0.000000 0.000000 0.000000 -0.430802
    11 3.883699 -0.046763 0.431443 0.086347 -0.018818 -0.614160
    12 1.719566 0.000000 -0.000001 0.000001 0.005509 -0.498581
    13 1.209171 -0.000002 0.000000 -0.000001 0.003083 -0.308799
    14 3.859869 -0.137947 1.332466 0.225975 0.001315 -0.675324
    15 1.719429 0.000004 -0.000001 -0.000001 0.004072 -0.450355
    16 1.099661 0.000002 -0.000001 0.000000 0.002596 -0.244331
    17 0.806057 -0.348926 1.321258 -1.960493 -0.465537 -0.286121
    18 1.789782 -0.000002 0.000002 0.000000 0.000000 0.102622
    19 1.207006 0.000000 0.000002 0.000000 0.000000 0.470699
    20 2.033356 1.000772 -1.937610 -1.668474 1.286518 2.942953
    21 9.145427 -15.723136 16.848170 -1.488975 1.107229 2.083986
    22 11.692557 0.000001 0.000005 0.000000 0.000000 -0.060372
    23 11.469982 -0.003905 0.000001 -1.319498 0.190809 0.510859
    24 3.853516 -0.130127 1.190430 -0.323131 0.043024 -1.213028
    25 1.312561 -0.000006 0.000001 0.000000 0.000000 -1.632688
    26 0.729362 0.000000 -0.000003 0.000000 0.000000 -0.244271
    27 3.942307 0.050327 0.431044 -0.268158 0.001265 -1.221340
    28 1.539099 0.000002 0.000001 0.000000 0.000000 -1.277005
    29 1.196323 0.000008 0.000000 0.000000 0.000000 -0.990128
    30 3.883663 -0.050322 -0.431042 -0.242893 -0.053154 -1.048196
    31 1.719578 0.000004 0.000000 -0.000001 -0.007972 -1.601619
    32 1.209185 -0.000002 0.000000 0.000002 -0.004458 -0.714074
    33 3.859844 -0.148935 -1.331282 -0.233460 -0.058748 -0.562100
    34 1.719421 0.000004 0.000000 0.000000 -0.006613 -0.536113
    35 1.099672 0.000004 0.000000 0.000004 -0.004211 -1.214451
    36 0.806023 -0.359838 -1.318334 1.227329 0.211755 -0.852031
    37 1.789783 0.000002 -0.000002 0.010168 0.160868 0.291934
    38 1.206999 0.000003 0.000002 0.000000 0.000000 0.682629
    39 -2.773513 -7.793795 -4.812611 0.000000 -0.066595 -1.570820
    40 -2.324301 -10.381686 -2.216829 1.504277 0.000000 -0.000021
    41 -2.760699 -10.364745 -1.931552 1.504277 0.000000 -0.000043
    42 -3.227054 -10.385707 -2.196061 1.504277 0.000000 -0.000043
    43 -3.229157 -10.422965 -2.709324 1.504277 0.000000 -0.000090
    44 -2.784847 -10.441955 -2.981480 1.504277 0.000000 -0.000037
    45 -2.326408 -10.420412 -2.722790 1.504277 0.000000 -0.000043
    46 -3.144360 -8.442862 -10.822102 1.637009 0.000000 -3.141790
    47 -2.776641 -10.637642 -2.446406 1.504277 0.000000 -0.000005
    48 -2.744147 -11.495631 -2.375452 -0.066520 0.000000 -0.000001
    49 8.937500 -0.013550 2.835938 -0.000001 -0.043633 0.000000
    50 0.537697 -0.025481 2.166249 0.000000 0.000001 0.000000
  time 16
    0 0.000000 -0.000006 0.000000 -1.570739 -1.391891 -1.570846
    1 2.033349 1.000767 1.937660 1.596637 -1.286515 2.942961
    2 13.086950 -19.262307 -13.750420 0.695375 -0.790861 2.544115
    3 11.692551 0.000001 0.000002 0.000000 0.000000 -0.060372
    4 11.481672 0.000001 -0.000027 0.753018 -0.368794 0.775815
    5 3.859713 -0.142405 -1.191975 -0.052266 -0.074231 -0.781943
    6 1.312551 -0.000002 0.000002 0.000000 0.000000 -0.751557
    7 0.729362 -0.000002 -0.000003 0.000000 0.000000 -0.244299
    8 3.942339 0.046767 -0.431443 -0.108944 -0.049011 -0.741459
    9 1.539095 0.000000 0.000000 0.000000 0.000000 -0.505256
    10 1.196321 -0.000006 0.000000 0.000000 0.000000 -0.430802
    11 3.883699 -0.046763 0.431443 0.086347 -0.018818 -0.614160
    12 1.719566 0.000000 -0.000001 0.000001 0.005509 -0.498581
    13 1.209171 -0.000002 0.000000 -0.000001 0.003083 -0.308799
    14 3.859869 -0.137947 1.332466 0.225975 0.001315 -0.675324
    15 1.719429 0.000004 -0.000001 -0.000001 0.004072 -0.450355
    16 1.099661 0.000002 -0.000001 0.000000 0.002596 -0.244331
    17 0.806057 -0.348926 1.321258 -1.960493 -0.465537 -0.286121
    18 1.789782 -0.000002 0.000002 0.000000 0.000000 0.102622
    19 1.207006 0.000000 0.000002 0.000000 0.000000 0.470699
    20 2.033356 1.000772 -1.937610 -1.668474 1.286518 2.942953
    21 8.817292 -15.332499 17.148961 -1.500096 1.126788 2.072395
    22 11.692557 0.000001 0.000005 0.000000 0.000000 -0.060372
    23 11.481701 0.000001 0.000001 -1.319602 0.179368 0.524949
    24 3.853516 -0.130127 1.190430 -0.323131 0.043024 -1.213028
    25 1.312561 -0.000006 0.000001 0.000000 0.000000 -1.632688
    26 0.729362 0.000000 -0.000003 0.000000 0.000000 -0.244271
    27 3.942307 0.050327 0.431044 -0.268158 0.001265 -1.221340
    28 1.539099 0.000002 0.000001 0.000000 0.000000 -1.277005
    29 1.196323 0.000008 0.000000 0.000000 0.000000 -0.990128
    30 3.883663 -0.050322 -0.431042 -0.242893 -0.053154 -1.048196
    31 1.719578 0.000004 0.000000 -0.000001 -0.007972 -1.601619
    32 1.209185 -0.000002 0.000000 0.000002 -0.004458 -0.714074
    33 3.859844 -0.148935 -1.331282 -0.233460 -0.058748 -0.562100
    34 1.723328 0.000004 0.000000 0.000000 -0.006613 -0.536113
    35 1.099672 0.000004 0.000000 0.000004 -0.004211 -1.214451
    36 0.806023 -0.359838 -1.318334 1.227329 0.211755 -0.852031
    37 1.789783 0.000002 -0.000002 0.010168 0.160868 0.291934
    38 1.206999 0.000003 0.000002 0.000000 0.000000 0.682629
    39 -2.773513 -7.746918 -4.816517 0.000000 -0.032943 -1.570820
    40 -2.324301 -10.424656 -2.302769 1.537872 0.000000 -0.000021
    41 -2.760699 -10.415528 -2.029211 1.537872 0.000000 -0.000043
    42 -3.227054 -10.424771 -2.293720 1.537872 0.000000 -0.000043
    43 -3.229157 -10.450310 -2.795264 1.537872 0.000000 -0.000090
    44 -2.784847 -10.453674 -3.075233 1.537872 0.000000 -0.000037
    45 -2.326408 -10.439944 -2.816543 1.537872 0.000000 -0.000043
    46 -3.144360 -8.200667 -10.837728 1.603332 0.000000 -3.141790
    47 -2.776641 -10.672800 -2.544065 1.537872 0.000000 -0.000005
    48 -2.744147 -11.530789 -2.500456 -0.032925 0.000000 -0.000001
    49 8.937500 -0.013550 2.835938 -0.000001 -0.043633 0.000000
    50 0.537697 -0.025481 2.166249 0.000000 0.000001 0.000000
  time 17
    0 0.000000 -0.000006 0.000000 -1.570739 -1.391891 -1.570846
    1 2.033349 1.000767 1.937660 1.596637 -1.286515 2.942961
    2 13.137733 -19.375592 -13.691824 0.700645 -0.780385 2.537500
    3 11.692551 0.000001 0.000002 0.000000 0.000000 -0.060372
    4 11.481672 0.003907 -0.000027 0.735956 -0.370241 0.810921
    5 3.859713 -0.142405 -1.191975 -0.052266 -0.074231 -0.781943
    6 1.312551 -0.000002 0.000002 0.000000 0.000000 -0.751557
    7 0.729362 -0.000002 -0.000003 0.000000 0.000000 -0.244299
    8 3.942339 0.046767 -0.431443 -0.108944 -0.049011 -0.741459
    9 1.539095 0.000000 0.000000 0.000000 0.000000 -0.505256
    10 1.196321 -0.000006 0.000000 0.000000 0.000000 -0.430802
    11 3.883699 -0.046763 0.431443 0.086347 -0.018818 -0.614160
    12 1.719566 0.000000 -0.000001 0.000001 0.005509 -0.498581
    13 1.209171 -0.000002 0.000000 -0.000001 0.003083 -0.308799
    14 3.859869 -0.137947 1.332466 0.225975 0.001315 -0.675324
    15 1.719429 0.000004 -0.000001 -0.000001 0.004072 -0.450355
    16 1.099661 0.000002 -0.000001 0.000000 0.002596 -0.244331
    17 0.806057 -0.348926 1.321258 -1.960493 -0.465537 -0.286121
    18 1.789782 -0.000002 0.000002 0.000000 0.000000 0.102622
    19 1.207006 0.000000 0.000002 0.000000 0.000000 0.470699
    20 2.033356 1.000772 -1.937610 -1.668474 1.286518 2.942953
    21 8.516502 -14.973113 17.422407 4.772822 1.146347 2.061945
    22 11.692557 0.000001 0.000005 0.000000 0.000000 -0.060372
    23 11.481701 0.000001 0.000001 -1.320661 0.170624 0.527598
    24 3.853516 -0.130127 1.190430 -0.323131 0.043024 -1.213028
    25 1.312561 -0.000006 0.000001 0.000000 0.000000 -1.632688
    26 0.729362 0.000000 -0.000003 0.000000 0.000000 -0.244271
    27 3.942307 0.050327 0.431044 -0.268158 0.001265 -1.221340
    28 1.539099 0.000002 0.000001 0.000000 0.000000 -1.277005
    29 1.196323 0.000008 0.000000 0.000000 0.000000 -0.990128
    30 3.883663 -0.050322 -0.431042 -0.242893 -0.053154 -1.048196
    31 1.719578 0.000004 0.000000 -0.000001 -0.007972 -1.601619
    32 1.209185 -0.000002 0.000000 0.000002 -0.004458 -0.714074
    33 3.859844 -0.148935 -1.331282 -0.233460 -0.058748 -0.562100
    34 1.723328 0.000004 0.000000 0.000000 -0.006613 -0.536113
    35 1.099672 0.000004 0.000000 0.000004 -0.004211 -1.214451
    36 0.806023 -0.359838 -1.318334 1.227329 0.211755 -0.852031
    37 1.789783 0.000002 -0.000002 0.010168 0.160868 0.291934
    38 1.206999 0.000003 0.000002 0.000000 0.000000 0.682629
    39 -2.773513 -7.696135 -4.832143 0.000000 -0.010666 -1.570820
    40 -2.324301 -10.424656 -2.376990 1.560364 0.000000 -0.000021
    41 -2.760699 -10.415528 -2.099526 1.560364 0.000000 -0.000043
    42 -3.227054 -10.424771 -2.364035 1.560364 0.000000 -0.000043
    43 -3.229157 -10.438591 -2.877298 1.560364 0.000000 -0.000090
    44 -2.784847 -10.441955 -3.149454 1.560364 0.000000 -0.000037
    45 -2.326408 -10.436038 -2.890764 1.560364 0.000000 -0.000043
    46 -3.144360 -8.009255 -10.861166 1.581071 0.000000 -3.141790
    47 -2.776641 -10.668893 -2.630005 1.560364 0.000000 -0.000005
    48 -2.744147 -11.526882 -2.598115 -0.010624 0.000000 -0.000001
    49 8.937500 -0.013550 2.835938 -0.000001 -0.043633 0.000000
    50 0.537697 -0.025481 2.166249 0.000000 0.000001 0.000000
  time 18
    0 0.000000 -0.000006 0.000000 -1.570739 -1.391891 -1.570846
    1 2.033349 1.000767 1.937660 1.596637 -1.286515 2.942961
    2 13.180703 -19.461532 -13.668386 0.702753 -0.773707 2.533570
    3 11.692551 0.000001 0.000002 0.000000 0.000000 -0.060372
    4 11.481672 0.003907 -0.000027 0.726433 -0.371921 0.831598
    5 3.859713 -0.142405 -1.191975 -0.052266 -0.074231 -0.781943
    6 1.312551 -0.000002 0.000002 0.000000 0.000000 -0.751557
    7 0.729362 -0.000002 -0.000003 0.000000 0.000000 -0.244299
    8 3.942339 0.046767 -0.431443 -0.108944 -0.049011 -0.741459
    9 1.539095 0.000000 0.000000 0.000000 0.000000 -0.505256
    10 1.196321 -0.000006 0.000000 0.000000 0.000000 -0.430802
    11 3.883699 -0.046763 0.431443 0.086347 -0.018818 -0.614160
    12 1.719566 0.000000 -0.000001 0.000001 0.005509 -0.498581
    13 1.209171 -0.000002 0.000000 -0.000001 0.003083 -0.308799
    14 3.859869 -0.137947 1.332466 0.225975 0.001315 -0.675324
    15 1.719429 0.000004 -0.000001 -0.000001 0.004072 -0.450355
    16 1.099661 0.000002 -0.000001 0.000000 0.002596 -0.244331
    17 0.806057 -0.348926 1.321258 -1.960493 -0.465537 -0.286121
    18 1.789782 -0.000002 0.000002 0.000000 0.000000 0.102622
    19 1.207006 0.000000 0.000002 0.000000 0.000000 0.470699
    20 2.033356 1.000772 -1.937610 -1.668474 1.286518 2.942953
    21 8.289932 -14.695761 17.645070 4.765728 1.162413 2.054344
    22 11.692557 0.000001 0.000005 0.000000 0.000000 -0.060372
    23 11.481701 0.000001 0.000001 -1.321798 0.164884 0.524373
    24 3.853516 -0.130127 1.190430 -0.323131 0.043024 -1.213028
    25 1.312561 -0.000006 0.000001 0.000000 0.000000 -1.632688
    26 0.729362 0.000000 -0.000003 0.000000 0.000000 -0.244271
    27 3.942307 0.050327 0.431044 -0.268158 0.001265 -1.221340
    28 1.539099 0.000002 0.000001 0.000000 0.000000 -1.277005
    29 1.196323 0.000008 0.000000 0.000000 0.000000 -0.990128
    30 3.883663 -0.050322 -0.431042 -0.242893 -0.053154 -1.048196
    31 1.719578 0.000004 0.000000 -0.000001 -0.007972 -1.601619
    32 1.209185 -0.000002 0.000000 0.000002 -0.004458 -0.714074
    33 3.859844 -0.148935 -1.331282 -0.233460 -0.058748 -0.562100
    34 1.719421 0.000004 0.000000 0.000000 -0.006613 -0.536113
    35 1.099672 0.000004 0.000000 0.000004 -0.004211 -1.214451
    36 0.806023 -0.359838 -1.318334 1.227329 0.211755 -0.852031
    37 1.789783 0.000002 -0.000002 0.010168 0.160868 0.291934
    38 1.206999 0.000003 0.000002 0.000000 0.000000 0.682629
    39 -2.773513 -7.637540 -4.863394 0.000000 0.002228 -1.570820
    40 -2.324301 -10.397311 -2.439492 1.572903 0.000000 -0.000021
    41 -2.760699 -10.395996 -2.165934 1.572903 0.000000 -0.000043
    42 -3.227054 -10.401333 -2.430443 1.572903 0.000000 -0.000043
    43 -3.229157 -10.403434 -2.931987 1.572903 0.000000 -0.000090
    44 -2.784847 -10.402891 -3.211956 1.572903 0.000000 -0.000037
    45 -2.326408 -10.393068 -2.953266 1.572903 0.000000 -0.000043
    46 -3.144360 -7.872532 -10.888511 1.568609 0.000000 -3.141790
    47 -2.776641 -10.637642 -2.692507 1.572903 0.000000 -0.000005
    48 -2.744147 -11.495631 -2.680149 0.002106 0.000000 -0.000001
    49 8.937500 -0.013550 2.835938 -0.000001 -0.043633 0.000000
    50 0.537697 -0.025481 2.162343 0.000000 0.000001 0.000000
  time 19
    0 0.000000 -0.000006 0.000000 -1.570739 -1.391891 -1.570846
    1 2.033349 1.000767 1.937660 1.596637 -1.286515 2.942961
    2 13.215860 -19.527940 -13.672292 0.702561 -0.769909 2.532036
    3 11.692551 0.000001 0.000002 0.000000 0.000000 -0.060372
    4 11.481672 0.000001 -0.000027 0.722692 -0.373988 0.841118
    5 3.859713 -0.142405 -1.191975 -0.052266 -0.074231 -0.781943
    6 1.312551 -0.000002 0.000002 0.000000 0.000000 -0.751557
    7 0.729362 -0.000002 -0.000003 0.000000 0.000000 -0.244299
    8 3.942339 0.046767 -0.431443 -0.108944 -0.049011 -0.741459
    9 1.539095 0.000000 0.000000 0.000000 0.000000 -0.505256
    10 1.196321 -0.000006 0.000000 0.000000 0.000000 -0.430802
    11 3.883699 -0.046763 0.431443 0.086347 -0.018818 -0.614160
    12 1.719566 0.000000 -0.000001 0.000001 0.005509 -0.498581
    13 1.209171 -0.000002 0.000000 -0.000001 0.003083 -0.308799
    14 3.859869 -0.137947 1.332466 0.225975 0.001315 -0.675324
    15 1.719429 0.000004 -0.000001 -0.000001 0.004072 -0.450355
    16 1.099661 0.000002 -0.000001 0.000000 0.002596 -0.244331
    17 0.806057 -0.348926 1.321258 -1.960493 -0.465537 -0.286121
    18 1.789782 -0.000002 0.000002 0.000000 0.000000 0.102622
    19 1.207006 0.000000 0.000002 0.000000 0.000000 0.470699
    20 2.033356 1.000772 -1.937610 -1.668474 1.286518 2.942953
    21 8.172741 -14.559038 17.793512 4.762181 1.171363 2.050449
    22 11.692557 0.000001 0.000005 0.000000 0.000000 -0.060372
    23 11.481701 0.000001 0.000001 -1.322496 0.162359 0.520841
    24 3.853516 -0.130127 1.190430 -0.323131 0.043024 -1.213028
    25 1.312561 -0.000006 0.000001 0.000000 0.000000 -1.632688
    26 0.729362 0.000000 -0.000003 0.000000 0.000000 -0.244271
    27 3.942307 0.050327 0.431044 -0.268158 0.001265 -1.221340
    28 1.539099 0.000002 0.000001 0.000000 0.000000 -1.277005
    29 1.196323 0.000008 0.000000 0.000000 0.000000 -0.990128
    30 3.883663 -0.050322 -0.431042 -0.242893 -0.053154 -1.048196
    31 1.719578 0.000004 0.000000 -0.000001 -0.007972 -1.601619
    32 1.209185 -0.000002 0.000000 0.000002 -0.004458 -0.714074
    33 3.859844 -0.148935 -1.331282 -0.233460 -0.058748 -0.562100
    34 1.719421 0.000004 0.000000 0.000000 -0.006613 -0.536113
    35 1.099672 0.000004 0.000000 0.000004 -0.004211 -1.214451
    36 0.806023 -0.359838 -1.318334 1.227329 0.211755 -0.852031
    37 1.789783 0.000002 -0.000002 0.010168 0.160868 0.291934
    38 1.206999 0.000003 0.000002 0.000000 0.000000 0.682629
    39 -2.773513 -7.575038 -4.890738 0.000000 0.007966 -1.570820
    40 -2.324301 -10.350435 -2.490275 1.578550 0.000000 -0.000021
    41 -2.760699 -10.353026 -2.208904 1.578550 0.000000 -0.000043
    42 -3.227054 -10.346644 -2.481226 1.578550 0.000000 -0.000043
    43 -3.229157 -10.352651 -2.982770 1.578550 0.000000 -0.000090
    44 -2.784847 -10.352108 -3.254926 1.578550 0.000000 -0.000037
    45 -2.326408 -10.350098 -3.007955 1.578550 0.000000 -0.000043
    46 -3.144360 -7.774873 -10.923668 1.562901 0.000000 -3.141790
    47 -2.776641 -10.586859 -2.743290 1.578550 0.000000 -0.000005
    48 -2.744147 -11.444849 -2.734838 0.007753 0.000000 -0.000001
    49 8.937500 -0.013550 2.835938 -0.000001 -0.043633 0.000000
    50 0.549417 -0.025481 2.162343 0.000000 0.000001 0.000000
  time 20
    0 0.000000 -0.000006 0.000000 -1.570739 -1.391891 -1.570846
    1 2.033349 1.000767 1.937660 1.596637 -1.286515 2.942961
    2 13.239299 -19.578723 -13.711356 0.700549 -0.768323 2.531748
    3 11.692551 0.000001 0.000002 0.000000 0.000000 -0.060372
    4 11.481672 0.000001 -0.000027 0.723259 -0.376288 0.842556
    5 3.859713 -0.142405 -1.191975 -0.052266 -0.074231 -0.781943
    6 1.312551 -0.000002 0.000002 0.000000 0.000000 -0.751557
    7 0.729362 -0.000002 -0.000003 0.000000 0.000000 -0.244299
    8 3.942339 0.046767 -0.431443 -0.108944 -0.049011 -0.741459
    9 1.539095 0.000000 0.000000 0.000000 0.000000 -0.505256
    10 1.196321 -0.000006 0.000000 0.000000 0.000000 -0.430802
    11 3.883699 -0.046763 0.431443 0.086347 -0.018818 -0.614160
    12 1.719566 0.000000 -0.000001 0.000001 0.005509 -0.498581
    13 1.209171 -0.000002 0.000000 -0.000001 0.003083 -0.308799
    14 3.859869 -0.137947 1.332466 0.225975 0.001315 -0.675324
    15 1.719429 0.000004 -0.000001 -0.000001 0.004072 -0.450355
    16 1.099661 0.000002 -0.000001 0.000000 0.002596 -0.244331
    17 0.806057 -0.348926 1.321258 -1.960493 -0.465537 -0.286121
    18 1.789782 -0.000002 0.000002 0.000000 0.000000 0.102622
    19 1.207006 0.000000 0.000002 0.000000 0.000000 0.470699
    20 2.033356 1.000772 -1.937610 -1.668474 1.286518 2.942953
    21 8.172741 -14.566851 17.863826 4.763139 1.172760 2.051209
    22 11.692557 0.000001 0.000005 0.000000 0.000000 -0.060372
    23 11.481701 0.000001 0.000001 -1.322677 0.162569 0.519958
    24 3.853516 -0.130127 1.190430 -0.323131 0.043024 -1.213028
    25 1.312561 -0.000006 0.000001 0.000000 0.000000 -1.632688
    26 0.729362 0.000000 -0.000003 0.000000 0.000000 -0.244271
    27 3.942307 0.050327 0.431044 -0.268158 0.001265 -1.221340
    28 1.539099 0.000002 0.000001 0.000000 0.000000 -1.277005
    29 1.196323 0.000008 0.000000 0.000000 0.000000 -0.990128
    30 3.883663 -0.050322 -0.431042 -0.242893 -0.053154 -1.048196
    31 1.719578 0.000004 0.000000 -0.000001 -0.007972 -1.601619
    32 1.209185 -0.000002 0.000000 0.000002 -0.004458 -0.714074
    33 3.859844 -0.148935 -1.331282 -0.233460 -0.058748 -0.562100
    34 1.719421 0.000004 0.000000 0.000000 -0.006613 -0.536113
    35 1.099672 0.000004 0.000000 0.000004 -0.004211 -1.214451
    36 0.806023 -0.359838 -1.318334 1.227329 0.211755 -0.852031
    37 1.789783 0.000002 -0.000002 0.010168 0.160868 0.291934
    38 1.206999 0.000003 0.000002 0.000000 0.000000 0.682629
    39 -2.773513 -7.512536 -4.929802 0.000000 0.008506 -1.570820
    40 -2.324301 -10.287933 -2.525432 1.579220 0.000000 -0.000021
    41 -2.760699 -10.290524 -2.247968 1.579220 0.000000 -0.000043
    42 -3.227054 -10.291955 -2.512477 1.579220 0.000000 -0.000043
    43 -3.229157 -10.290149 -3.021834 1.579220 0.000000 -0.000090
    44 -2.784847 -10.289606 -3.297896 1.579220 0.000000 -0.000037
    45 -2.326408 -10.291502 -3.039206 1.579220 0.000000 -0.000043
    46 -3.144360 -7.712371 -10.958825 1.562520 0.000000 -3.141790
    47 -2.776641 -10.524358 -2.774541 1.579220 0.000000 -0.000005
    48 -2.744147 -11.386253 -2.766089 0.008423 0.000000 -0.000001
    49 8.937500 -0.013550 2.835938 -0.000001 -0.043633 0.000000
    50 0.537697 -0.025481 2.166249 0.000000 0.000001 0.000000
  time 21
    0 0.000000 -0.000006 0.000000 -1.570739 -1.391891 -1.570846
    1 2.033349 1.000767 1.937660 1.596637 -1.286515 2.942961
    2 13.262737 -19.617786 -13.758232 0.697483 -0.768156 2.532515
    3 11.692551 0.000001 0.000002 0.000000 0.000000 -0.060372
    4 11.481672 0.000001 -0.000027 0.726433 -0.378614 0.838986
    5 3.859713 -0.142405 -1.191975 -0.052266 -0.074231 -0.781943
    6 1.312551 -0.000002 0.000002 0.000000 0.000000 -0.751557
    7 0.729362 -0.000002 -0.000003 0.000000 0.000000 -0.244299
    8 3.942339 0.046767 -0.431443 -0.108944 -0.049011 -0.741459
    9 1.539095 0.000000 0.000000 0.000000 0.000000 -0.505256
    10 1.196321 -0.000006 0.000000 0.000000 0.000000 -0.430802
    11 3.883699 -0.046763 0.431443 0.086347 -0.018818 -0.614160
    12 1.719566 0.000000 -0.000001 0.000001 0.005509 -0.498581
    13 1.209171 -0.000002 0.000000 -0.000001 0.003083 -0.308799
    14 3.859869 -0.137947 1.332466 0.225975 0.001315 -0.675324
    15 1.719429 0.000004 -0.000001 -0.000001 0.004072 -0.450355
    16 1.099661 0.000002 -0.000001 0.000000 0.002596 -0.244331
    17 0.806057 -0.348926 1.321258 -1.960493 -0.465537 -0.286121
    18 1.789782 -0.000002 0.000002 0.000000 0.000000 0.102622
    19 1.207006 0.000000 0.000002 0.000000 0.000000 0.470699
    20 2.033356 1.000772 -1.937610 -1.668474 1.286518 2.942953
    21 8.243056 -14.656698 17.887265 4.766687 1.169835 2.054629
    22 11.692557 0.000001 0.000005 0.000000 0.000000 -0.060372
    23 11.481701 0.000001 0.000001 -1.322470 0.164425 0.520342
    24 3.853516 -0.130127 1.190430 -0.323131 0.043024 -1.213028
    25 1.312561 -0.000006 0.000001 0.000000 0.000000 -1.632688
    26 0.729362 0.000000 -0.000003 0.000000 0.000000 -0.244271
    27 3.942307 0.050327 0.431044 -0.268158 0.001265 -1.221340
    28 1.539099 0.000002 0.000001 0.000000 0.000000 -1.277005
    29 1.196323 0.000008 0.000000 0.000000 0.000000 -0.990128
    30 3.883663 -0.050322 -0.431042 -0.242893 -0.053154 -1.048196
    31 1.719578 0.000004 0.000000 -0.000001 -0.007972 -1.601619
    32 1.209185 -0.000002 0.000000 0.000002 -0.004458 -0.714074
    33 3.859844 -0.148935 -1.331282 -0.233460 -0.058748 -0.562100
    34 1.719421 0.000004 0.000000 0.000000 -0.006613 -0.536113
    35 1.099672 0.000004 0.000000 0.000004 -0.004211 -1.214451
    36 0.806023 -0.359838 -1.318334 1.227329 0.211755 -0.852031
    37 1.789783 0.000002 -0.000002 0.010168 0.160868 0.291934
    38 1.206999 0.000003 0.000002 0.000000 0.000000 0.682629
    39 -2.773513 -7.457847 -4.961053 0.000000 0.005806 -1.570820
    40 -2.324301 -10.225431 -2.552777 1.576540 0.000000 -0.000021
    41 -2.760699 -10.228022 -2.271406 1.576540 0.000000 -0.000043
    42 -3.227054 -10.229453 -2.535915 1.576540 0.000000 -0.000043
    43 -3.229157 -10.227647 -3.045272 1.576540 0.000000 -0.000090
    44 -2.784847 -10.227105 -3.321334 1.576540 0.000000 -0.000037
    45 -2.326408 -10.229000 -3.062644 1.576540 0.000000 -0.000043
    46 -3.144360 -7.669401 -10.990076 1.564994 0.000000 -3.141790
    47 -2.776641 -10.461856 -2.809698 1.576540 0.000000 -0.000005
    48 -2.744147 -11.323751 -2.797340 0.005743 0.000000 -0.000001
    49 8.937500 -0.013550 2.835938 -0.000001 -0.043633 0.000000
    50 0.545510 -0.025481 2.174062 0.000000 0.000001 0.000000
  time 22
    0 0.000000 -0.000006 0.000000 -1.570739 -1.391891 -1.570846
    1 2.033349 1.000767 1.937660 1.596637 -1.286515 2.942961
    2 13.274456 -19.649037 -13.805109 0.694417 -0.768615 2.533378
    3 11.692551 0.000001 0.000002 0.000000 0.000000 -0.060372
    4 11.481672 0.000001 -0.000027 0.730231 -0.380655 0.833631
    5 3.859713 -0.142405 -1.191975 -0.052266 -0.074231 -0.781943
    6 1.312551 -0.000002 0.000002 0.000000 0.000000 -0.751557
    7 0.729362 -0.000002 -0.000003 0.000000 0.000000 -0.244299
    8 3.942339 0.046767 -0.431443 -0.108944 -0.049011 -0.741459
    9 1.539095 0.000000 0.000000 0.000000 0.000000 -0.505256
    10 1.196321 -0.000006 0.000000 0.000000 0.000000 -0.430802
    11 3.883699 -0.046763 0.431443 0.086347 -0.018818 -0.614160
    12 1.719566 0.000000 -0.000001 0.000001 0.005509 -0.498581
    13 1.209171 -0.000002 0.000000 -0.000001 0.003083 -0.308799
    14 3.859869 -0.137947 1.332466 0.225975 0.001315 -0.675324
    15 1.719429 0.000004 -0.000001 -0.000001 0.004072 -0.450355
    16 1.099661 0.000002 -0.000001 0.000000 0.002596 -0.244331
    17 0.806057 -0.348926 1.321258 -1.960493 -0.465537 -0.286121
    18 1.789782 -0.000002 0.000002 0.000000 0.000000 0.102622
    19 1.207006 0.000000 0.000002 0.000000 0.000000 0.470699
    20 2.033356 1.000772 -1.937610 -1.668474 1.286518 2.942953
    21 8.336809 -14.777795 17.887265 4.770905 1.164727 2.058524
    22 11.692557 0.000001 0.000005 0.000000 0.000000 -0.060372
    23 11.481701 0.000001 0.000001 -1.322160 0.166893 0.521839
    24 3.853516 -0.130127 1.190430 -0.323131 0.043024 -1.213028
    25 1.312561 -0.000006 0.000001 0.000000 0.000000 -1.632688
    26 0.729362 0.000000 -0.000003 0.000000 0.000000 -0.244271
    27 3.942307 0.050327 0.431044 -0.268158 0.001265 -1.221340
    28 1.539099 0.000002 0.000001 0.000000 0.000000 -1.277005
    29 1.196323 0.000008 0.000000 0.000000 0.000000 -0.990128
    30 3.883663 -0.050322 -0.431042 -0.242893 -0.053154 -1.048196
    31 1.719578 0.000004 0.000000 -0.000001 -0.007972 -1.601619
    32 1.209185 -0.000002 0.000000 0.000002 -0.004458 -0.714074
    33 3.859844 -0.148935 -1.331282 -0.233460 -0.058748 -0.562100
    34 1.719421 0.000004 0.000000 0.000000 -0.006613 -0.536113
    35 1.099672 0.000004 0.000000 0.000004 -0.004211 -1.214451
    36 0.806023 -0.359838 -1.318334 1.227329 0.211755 -0.852031
    37 1.789783 0.000002 -0.000002 0.010168 0.160868 0.291934
    38 1.206999 0.000003 0.000002 0.000000 0.000000 0.682629
    39 -2.773513 -7.407064 -4.992304 0.000000 0.002228 -1.570820
    40 -2.324301 -10.159023 -2.576215 1.572903 0.000000 -0.000021
    41 -2.760699 -10.165520 -2.290938 1.572903 0.000000 -0.000043
    42 -3.227054 -10.170857 -2.559353 1.572903 0.000000 -0.000043
    43 -3.229157 -10.176864 -3.068710 1.572903 0.000000 -0.000090
    44 -2.784847 -10.176322 -3.340866 1.572903 0.000000 -0.000037
    45 -2.326408 -10.170405 -3.082176 1.572903 0.000000 -0.000043
    46 -3.144360 -7.638150 -11.021327 1.568799 0.000000 -3.141790
    47 -2.776641 -10.403260 -2.821417 1.572903 0.000000 -0.000005
    48 -2.744147 -11.269062 -2.809059 0.002106 0.000000 -0.000001
    49 8.937500 -0.013550 2.835938 -0.000001 -0.043633 0.000000
    50 0.537697 -0.025481 2.174062 0.000000 0.000001 0.000000
  time 23
    0 0.000000 -0.000006 0.000000 -1.570739 -1.391891 -1.570846
    1 2.033349 1.000767 1.937660 1.596637 -1.286515 2.942961
    2 13.282269 -19.668569 -13.836360 0.692213 -0.768782 2.534145
    3 11.692551 0.000001 0.000002 0.000000 0.000000 -0.060372
    4 11.481672 0.000001 -0.000027 0.733122 -0.382257 0.829813
    5 3.859713 -0.142405 -1.191975 -0.052266 -0.074231 -0.781943
    6 1.312551 -0.000002 0.000002 0.000000 0.000000 -0.751557
    7 0.729362 -0.000002 -0.000003 0.000000 0.000000 -0.244299
    8 3.942339 0.046767 -0.431443 -0.108944 -0.049011 -0.741459
    9 1.539095 0.000000 0.000000 0.000000 0.000000 -0.505256
    10 1.196321 -0.000006 0.000000 0.000000 0.000000 -0.430802
    11 3.883699 -0.046763 0.431443 0.086347 -0.018818 -0.614160
    12 1.719566 0.000000 -0.000001 0.000001 0.005509 -0.498581
    13 1.209171 -0.000002 0.000000 -0.000001 0.003083 -0.308799
    14 3.859869 -0.137947 1.332466 0.225975 0.001315 -0.675324
    15 1.719429 0.000004 -0.000001 -0.000001 0.004072 -0.450355
    16 1.099661 0.000002 -0.000001 0.000000 0.002596 -0.244331
    17 0.806057 -0.348926 1.321258 -1.960493 -0.465537 -0.286121
    18 1.789782 -0.000002 0.000002 0.000000 0.000000 0.102622
    19 1.207006 0.000000 0.000002 0.000000 0.000000 0.470699
    20 2.033356 1.000772 -1.937610 -1.668474 1.286518 2.942953
    21 8.426655 -14.898892 17.871639 4.774836 1.159357 2.062420
    22 11.692557 0.000001 0.000005 0.000000 0.000000 -0.060372
    23 11.481701 0.000001 0.000001 -1.321824 0.169055 0.524565
    24 3.853516 -0.130127 1.190430 -0.323131 0.043024 -1.213028
    25 1.312561 -0.000006 0.000001 0.000000 0.000000 -1.632688
    26 0.729362 0.000000 -0.000003 0.000000 0.000000 -0.244271
    27 3.942307 0.050327 0.431044 -0.268158 0.001265 -1.221340
    28 1.539099 0.000002 0.000001 0.000000 0.000000 -1.277005
    29 1.196323 0.000008 0.000000 0.000000 0.000000 -0.990128
    30 3.883663 -0.050322 -0.431042 -0.242893 -0.053154 -1.048196
    31 1.719578 0.000004 0.000000 -0.000001 -0.007972 -1.601619
    32 1.209185 -0.000002 0.000000 0.000002 -0.004458 -0.714074
    33 3.859844 -0.148935 -1.331282 -0.233460 -0.058748 -0.562100
    34 1.723328 0.000004 0.000000 0.000000 -0.006613 -0.536113
    35 1.099672 0.000004 0.000000 0.000004 -0.004211 -1.214451
    36 0.806023 -0.359838 -1.318334 1.227329 0.211755 -0.852031
    37 1.789783 0.000002 -0.000002 0.010168 0.160868 0.291934
    38 1.206999 0.000003 0.000002 0.000000 0.000000 0.682629
    39 -2.773513 -7.371907 -5.015742 0.000000 -0.000338 -1.570820
    40 -2.324301 -10.123865 -2.587934 1.570414 0.000000 -0.000021
    41 -2.760699 -10.122550 -2.314376 1.570414 0.000000 -0.000043
    42 -3.227054 -10.127887 -2.578885 1.570414 0.000000 -0.000043
    43 -3.229157 -10.129988 -3.080429 1.570414 0.000000 -0.000090
    44 -2.784847 -10.129445 -3.360398 1.570414 0.000000 -0.000037
    45 -2.326408 -10.119622 -3.101708 1.570414 0.000000 -0.000043
    46 -3.144360 -7.618618 -11.044765 1.570797 0.000000 -3.141790
    47 -2.776641 -10.364196 -2.840949 1.570414 0.000000 -0.000005
    48 -2.744147 -11.222186 -2.820778 -0.000383 0.000000 -0.000001
    49 8.937500 -0.013550 2.835938 -0.000001 -0.043633 0.000000
    50 0.537697 -0.025481 2.166249 0.000000 0.000001 0.000000
  time 24
    0 0.000000 -0.000006 0.000000 -1.570739 -1.391891 -1.570846
    1 2.033349 1.000767 1.937660 1.596637 -1.286515 2.942961
    2 13.297894 -19.688101 -13.848079 0.691542 -0.768156 2.533857
    3 11.692551 0.000001 0.000002 0.000000 0.000000 -0.060372
    4 11.481672 0.000001 -0.000027 0.733292 -0.383136 0.830755
    5 3.859713 -0.142405 -1.191975 -0.052266 -0.074231 -0.781943
    6 1.312551 -0.000002 0.000002 0.000000 0.000000 -0.751557
    7 0.729362 -0.000002 -0.000003 0.000000 0.000000 -0.244299
    8 3.942339 0.046767 -0.431443 -0.108944 -0.049011 -0.741459
    9 1.539095 0.000000 0.000000 0.000000 0.000000 -0.505256
    10 1.196321 -0.000006 0.000000 0.000000 0.000000 -0.430802
    11 3.883699 -0.046763 0.431443 0.086347 -0.018818 -0.614160
    12 1.719566 0.000000 -0.000001 0.000001 0.005509 -0.498581
    13 1.209171 -0.000002 0.000000 -0.000001 0.003083 -0.308799
    14 3.859869 -0.137947 1.332466 0.225975 0.001315 -0.675324
    15 1.719429 0.000004 -0.000001 -0.000001 0.004072 -0.450355
    16 1.099661 0.000002 -0.000001 0.000000 0.002596 -0.244331
    17 0.806057 -0.348926 1.321258 -1.960493 -0.465537 -0.286121
    18 1.789782 -0.000002 0.000002 0.000000 0.000000 0.102622
    19 1.207006 0.000000 0.000002 0.000000 0.000000 0.470699
    20 2.033356 1.000772 -1.937610 -1.668474 1.286518 2.942953
    21 8.485251 -14.969207 17.859920 4.776561 1.155646 2.064415
    22 11.692557 0.000001 0.000005 0.000000 0.000000 -0.060372
    23 11.481701 0.000001 0.000001 -1.321488 0.170012 0.528673
    24 3.853516 -0.130127 1.190430 -0.323131 0.043024 -1.213028
    25 1.312561 -0.000006 0.000001 0.000000 0.000000 -1.632688
    26 0.729362 0.000000 -0.000003 0.000000 0.000000 -0.244271
    27 3.942307 0.050327 0.431044 -0.268158 0.001265 -1.221340
    28 1.539099 0.000002 0.000001 0.000000 0.000000 -1.277005
    29 1.196323 0.000008 0.000000 0.000000 0.000000 -0.990128
    30 3.883663 -0.050322 -0.431042 -0.242893 -0.053154 -1.048196
    31 1.719578 0.000004 0.000000 -0.000001 -0.007972 -1.601619
    32 1.209185 -0.000002 0.000000 0.000002 -0.004458 -0.714074
    33 3.859844 -0.148935 -1.331282 -0.233460 -0.058748 -0.562100
    34 1.723328 0.000004 0.000000 0.000000 -0.006613 -0.536113
    35 1.099672 0.000004 0.000000 0.000004 -0.004211 -1.214451
    36 0.806023 -0.359838 -1.318334 1.227329 0.211755 -0.852031
    37 1.789783 0.000002 -0.000002 0.010168 0.160868 0.291934
    38 1.206999 0.000003 0.000002 0.000000 0.000000 0.682629
    39 -2.773513 -7.344562 -5.023555 0.000000 0.000000 -1.570820
    40 -2.324301 -10.096521 -2.599653 1.570797 0.000000 -0.000021
    41 -2.760699 -10.099112 -2.326095 1.570797 0.000000 -0.000043
    42 -3.227054 -10.104449 -2.590604 1.570797 0.000000 -0.000043
    43 -3.229157 -10.106550 -3.099961 1.570797 0.000000 -0.000090
    44 -2.784847 -10.106007 -3.372117 1.570797 0.000000 -0.000037
    45 -2.326408 -10.103996 -3.113427 1.570797 0.000000 -0.000043
    46 -3.144360 -7.595180 -11.064297 1.570797 0.000000 -3.141790
    47 -2.776641 -10.340758 -2.848762 1.570797 0.000000 -0.000005
    48 -2.744147 -11.194841 -2.840310 0.000000 0.000000 -0.000001
    49 8.937500 -0.013550 2.835938 -0.000001 -0.043633 0.000000
    50 0.537697 -0.025481 2.166249 0.000000 0.000001 0.000000
end
