// Created by Crowbar 0.56
version 1
nodes
  0 "ValveBiped.Bip01_R_Hand" -1
  1 "ValveBiped.Weapon_bone" 0
  2 "ValveBiped.Weapon_bone_slide" 1
end
skeleton
  time 0
    0 1.783728 -5.776747 -3.330453 -2.988847 0.080612 1.582303
    1 5.000000 -1.500000 -5.000000 0.000000 0.000000 0.000000
    2 5.000001 -1.500000 -5.000000 0.000000 0.000000 0.000000
end
triangles
pistol
  2 -0.261980 -4.092169 -0.275207 0.034527 -0.968324 0.247298 0.797966 -0.134073 1 2 1.000000
  2 -0.113110 -4.089644 -0.286109 0.034527 -0.968324 0.247298 0.798157 -0.121573 1 2 1.000000
  2 -0.259171 -3.974017 0.187034 0.080675 -0.942920 0.323099 0.757264 -0.137939 1 2 1.000000
pistol
  2 -0.202554 -3.802980 0.820507 0.058785 -0.953198 0.296576 0.701104 -0.135624 1 2 1.000000
  2 0.856042 -3.710000 0.893497 0.057495 -0.933150 0.354859 0.687941 -0.034261 1 2 1.000000
  2 0.080727 -3.737275 0.947394 0.057496 -0.933152 0.354853 0.687658 -0.108987 1 2 1.000000
pistol
  2 1.122965 -3.756352 0.728364 0.053665 -0.956076 0.288166 0.702071 -0.007869 1 2 1.000000
  2 0.856042 -3.710000 0.893497 0.057495 -0.933150 0.354859 0.687941 -0.034261 1 2 1.000000
  2 -0.202554 -3.802980 0.820507 0.058785 -0.953198 0.296576 0.701104 -0.135624 1 2 1.000000
pistol
  2 1.084194 -3.905828 0.075259 0.064269 -0.964248 0.257090 0.758259 -0.006621 1 2 1.000000
  2 1.122965 -3.756352 0.728364 0.053665 -0.956076 0.288166 0.702071 -0.007869 1 2 1.000000
  2 -0.202554 -3.802980 0.820507 0.058785 -0.953198 0.296576 0.701104 -0.135624 1 2 1.000000
pistol
  2 1.084194 -3.905828 0.075259 0.064269 -0.964248 0.257090 0.758259 -0.006621 1 2 1.000000
  2 -0.202554 -3.802980 0.820507 0.058785 -0.953198 0.296576 0.701104 -0.135624 1 2 1.000000
  2 -0.259171 -3.974017 0.187034 0.080675 -0.942920 0.323099 0.757264 -0.137939 1 2 1.000000
pistol
  2 1.050485 -4.046000 -0.366438 0.132884 -0.892733 0.430546 0.798896 -0.011260 1 2 1.000000
  2 1.084194 -3.905828 0.075259 0.064269 -0.964248 0.257090 0.758259 -0.006621 1 2 1.000000
  2 -0.259171 -3.974017 0.187034 0.080675 -0.942920 0.323099 0.757264 -0.137939 1 2 1.000000
pistol
  2 0.912562 -4.074976 -0.361688 0.112772 -0.906196 0.407542 0.799655 -0.022765 1 2 1.000000
  2 1.050485 -4.046000 -0.366438 0.132884 -0.892733 0.430546 0.798896 -0.011260 1 2 1.000000
  2 -0.259171 -3.974017 0.187034 0.080675 -0.942920 0.323099 0.757264 -0.137939 1 2 1.000000
pistol
  2 -0.113110 -4.089644 -0.286109 0.032022 -0.968591 0.246590 0.798159 -0.121449 1 2 1.000000
  2 0.912562 -4.074976 -0.361688 0.112772 -0.906196 0.407542 0.799655 -0.022765 1 2 1.000000
  2 -0.259171 -3.974017 0.187034 0.080675 -0.942920 0.323099 0.757264 -0.137939 1 2 1.000000
pistol
  2 0.282871 3.849823 1.283220 -0.034846 0.999383 0.004471 0.150722 -0.108523 1 2 1.000000
  2 0.155221 3.846723 0.981279 -0.034846 0.999383 0.004471 0.114791 -0.129140 1 2 1.000000
  2 0.176706 3.846089 1.290600 -0.034840 0.999383 0.004468 0.150722 -0.128167 1 2 1.000000
pistol
  2 0.282871 3.849823 1.283220 -0.034846 0.999383 0.004471 0.150722 -0.108523 1 2 1.000000
  2 0.261833 3.850474 0.973866 -0.034851 0.999382 0.004473 0.114791 -0.109414 1 2 1.000000
  2 0.155221 3.846723 0.981279 -0.034846 0.999383 0.004471 0.114791 -0.129140 1 2 1.000000
pistol
  2 0.261833 3.850474 0.973866 0.996915 0.036549 -0.069460 0.292195 -0.173514 1 2 1.000000
  2 0.298044 3.476070 1.296575 0.996915 0.036549 -0.069460 0.324172 -0.142842 1 2 1.000000
  2 0.281234 3.294804 0.972000 0.996846 0.035044 -0.071198 0.339688 -0.173516 1 2 1.000000
pistol
  2 0.298044 3.476070 1.296575 0.996915 0.036549 -0.069460 0.324172 -0.142842 1 2 1.000000
  2 0.261833 3.850474 0.973866 0.996915 0.036549 -0.069460 0.292195 -0.173514 1 2 1.000000
  2 0.282871 3.849823 1.283220 0.996978 0.038054 -0.067721 0.292225 -0.144255 1 2 1.000000
pistol
  2 0.864578 -3.675988 1.282951 0.996682 0.036212 -0.072895 0.895006 -0.121355 1 2 1.000000
  2 0.845226 -3.721423 0.995782 0.996682 0.036212 -0.072895 0.898748 -0.149036 1 2 1.000000
  2 0.843626 -3.677643 0.995647 0.996682 0.036200 -0.072893 0.895006 -0.149036 1 2 1.000000
pistol
  2 0.845226 -3.721423 0.995782 0.996682 0.036212 -0.072895 0.898748 -0.149036 1 2 1.000000
  2 0.864578 -3.675988 1.282951 0.996682 0.036212 -0.072895 0.895006 -0.121355 1 2 1.000000
  2 0.866179 -3.719768 1.283087 0.996681 0.036223 -0.072896 0.898748 -0.121355 1 2 1.000000
pistol
  2 0.138535 4.119442 -0.236036 0.045108 0.002565 -0.998979 0.165426 0.184585 1 2 1.000000
  2 0.365816 -3.617519 -0.236145 -0.007111 0.091355 -0.995793 0.345272 0.199565 1 2 1.000000
  2 -0.261980 -4.092169 -0.275207 0.045108 0.002565 -0.998979 0.514731 0.184595 1 2 1.000000
pistol
  2 -0.261980 -4.092169 -0.275207 0.045108 0.002565 -0.998979 0.514731 0.184595 1 2 1.000000
  2 -0.465876 4.106488 -0.253892 0.029458 0.003331 -0.999560 0.165426 0.184585 1 2 1.000000
  2 0.138535 4.119442 -0.236036 0.045108 0.002565 -0.998979 0.165426 0.184585 1 2 1.000000
pistol
  2 -0.113110 -4.089644 -0.286109 -0.074877 0.179758 -0.980857 0.345368 0.205815 1 2 1.000000
  2 -0.261980 -4.092169 -0.275207 -0.074877 0.179758 -0.980857 0.345272 0.199565 1 2 1.000000
  2 0.365816 -3.617519 -0.236145 -0.007111 0.091355 -0.995793 0.345272 0.199565 1 2 1.000000
pistol
  2 0.355099 -3.693614 -0.235142 -0.178160 -0.004923 -0.983989 0.208261 0.763174 1 2 1.000000
  2 0.087669 4.117706 -0.231770 -0.168571 -0.005346 -0.985675 0.195136 0.763308 1 2 1.000000
  2 0.683108 4.146907 -0.333761 -0.178160 -0.004923 -0.983989 0.224359 0.759247 1 2 1.000000
pistol
  2 -0.131654 -0.239522 1.001350 0.029906 0.650168 0.759201 0.387800 -0.117920 1 2 1.000000
  2 0.828724 -0.205739 0.934592 0.029902 0.650182 0.759190 0.387800 -0.025358 1 2 1.000000
  2 0.735242 -0.084277 0.834251 0.029906 0.650168 0.759201 0.373703 -0.033230 1 2 1.000000
pistol
  2 0.735242 -0.084277 0.834251 0.029906 0.650168 0.759201 0.373703 -0.033230 1 2 1.000000
  2 -0.061656 -0.112309 0.889653 0.029911 0.650155 0.759213 0.373703 -0.110036 1 2 1.000000
  2 -0.131654 -0.239522 1.001350 0.029906 0.650168 0.759201 0.387800 -0.117920 1 2 1.000000
pistol
  2 -0.180960 0.843615 0.898823 0.069382 -0.000914 0.997590 0.291846 -0.118251 1 2 1.000000
  2 0.735242 -0.084277 0.834251 0.069382 -0.000914 0.997590 0.373703 -0.033230 1 2 1.000000
  2 0.787527 0.877683 0.831500 0.069378 -0.000917 0.997590 0.291846 -0.024907 1 2 1.000000
pistol
  2 -0.180960 0.843615 0.898823 0.069382 -0.000914 0.997590 0.291846 -0.118251 1 2 1.000000
  2 -0.061656 -0.112309 0.889653 0.069385 -0.000910 0.997589 0.373703 -0.110036 1 2 1.000000
  2 0.735242 -0.084277 0.834251 0.069382 -0.000914 0.997590 0.373703 -0.033230 1 2 1.000000
pistol
  2 -0.103975 4.093060 1.003838 0.071195 -0.000758 0.997462 0.007270 -0.100535 1 2 1.000000
  2 0.007555 0.921700 0.993214 0.070777 -0.000852 0.997492 0.278325 -0.100467 1 2 1.000000
  2 0.607521 0.942586 0.950661 0.071195 -0.000758 0.997462 0.278344 -0.042637 1 2 1.000000
pistol
  2 0.607521 0.942586 0.950661 0.071195 -0.000758 0.997462 0.278344 -0.042637 1 2 1.000000
  2 0.496493 4.114187 0.960739 0.071613 -0.000663 0.997432 0.007270 -0.042653 1 2 1.000000
  2 -0.103975 4.093060 1.003838 0.071195 -0.000758 0.997462 0.007270 -0.100535 1 2 1.000000
pistol
  2 0.155221 3.846723 0.981279 -0.996887 -0.035920 0.070181 0.292195 -0.173514 1 2 1.000000
  2 0.174622 3.291055 0.979411 -0.996847 -0.035044 0.071192 0.339688 -0.173516 1 2 1.000000
  2 0.191430 3.472316 1.303984 -0.996887 -0.035920 0.070181 0.324172 -0.142842 1 2 1.000000
pistol
  2 0.191430 3.472316 1.303984 -0.996887 -0.035920 0.070181 0.324172 -0.142842 1 2 1.000000
  2 0.176706 3.846089 1.290600 -0.996926 -0.036795 0.069170 0.292225 -0.144255 1 2 1.000000
  2 0.155221 3.846723 0.981279 -0.996887 -0.035920 0.070181 0.292195 -0.173514 1 2 1.000000
pistol
  2 0.281234 3.294804 0.972000 0.064354 -0.872682 0.484030 0.273006 -0.109416 1 2 1.000000
  2 0.298044 3.476070 1.296575 0.064369 -0.872679 0.484033 0.212060 -0.108274 1 2 1.000000
  2 0.191430 3.472316 1.303984 0.064354 -0.872682 0.484030 0.212060 -0.128001 1 2 1.000000
pistol
  2 0.191430 3.472316 1.303984 0.064354 -0.872682 0.484030 0.212060 -0.128001 1 2 1.000000
  2 0.174622 3.291055 0.979411 0.064338 -0.872684 0.484028 0.273006 -0.129143 1 2 1.000000
  2 0.281234 3.294804 0.972000 0.064354 -0.872682 0.484030 0.273006 -0.109416 1 2 1.000000
pistol
  2 0.298044 3.476070 1.296575 0.067946 0.038377 0.996951 0.212060 -0.108274 1 2 1.000000
  2 0.282871 3.849823 1.283220 0.067951 0.038379 0.996950 0.150722 -0.108523 1 2 1.000000
  2 0.176706 3.846089 1.290600 0.067946 0.038377 0.996951 0.150722 -0.128167 1 2 1.000000
pistol
  2 0.176706 3.846089 1.290600 0.067946 0.038377 0.996951 0.150722 -0.128167 1 2 1.000000
  2 0.191430 3.472316 1.303984 0.067940 0.038375 0.996951 0.212060 -0.128001 1 2 1.000000
  2 0.298044 3.476070 1.296575 0.067946 0.038377 0.996951 0.212060 -0.108274 1 2 1.000000
pistol
  2 0.640803 -2.578053 0.915050 0.015209 0.779748 0.625909 0.867080 -0.015187 1 2 1.000000
  2 0.283105 -2.745796 1.132711 0.015209 0.779748 0.625909 0.887591 -0.051488 1 2 1.000000
  2 0.621263 -2.733510 1.109192 0.015204 0.779751 0.625905 0.887591 -0.018893 1 2 1.000000
pistol
  2 0.640803 -2.578053 0.915050 0.015209 0.779748 0.625909 0.867080 -0.015187 1 2 1.000000
  2 0.225692 -2.593131 0.943922 0.015213 0.779744 0.625913 0.867080 -0.055199 1 2 1.000000
  2 0.283105 -2.745796 1.132711 0.015209 0.779748 0.625909 0.887591 -0.051488 1 2 1.000000
pistol
  2 0.125504 -3.747563 1.045840 0.036511 -0.999328 0.003097 0.971049 -0.172800 1 2 1.000000
  2 0.845226 -3.721423 0.995782 0.036511 -0.999328 0.003098 0.971049 -0.103427 1 2 1.000000
  2 0.866179 -3.719768 1.283087 0.036511 -0.999328 0.003097 0.946346 -0.103328 1 2 1.000000
pistol
  2 0.866179 -3.719768 1.283087 0.036511 -0.999328 0.003097 0.946346 -0.103328 1 2 1.000000
  2 0.144807 -3.745968 1.333259 0.036511 -0.999328 0.003097 0.946346 -0.172860 1 2 1.000000
  2 0.125504 -3.747563 1.045840 0.036511 -0.999328 0.003097 0.971049 -0.172800 1 2 1.000000
pistol
  2 0.123905 -3.703781 1.045706 -0.069182 -0.005581 -0.997588 0.918038 -0.172800 1 2 1.000000
  2 0.843626 -3.677643 0.995647 -0.069182 -0.005581 -0.997588 0.918038 -0.103427 1 2 1.000000
  2 0.845226 -3.721423 0.995782 -0.069182 -0.005581 -0.997588 0.913106 -0.103427 1 2 1.000000
pistol
  2 0.845226 -3.721423 0.995782 -0.069182 -0.005581 -0.997588 0.913106 -0.103427 1 2 1.000000
  2 0.125504 -3.747563 1.045840 -0.069181 -0.005580 -0.997588 0.913106 -0.172800 1 2 1.000000
  2 0.123905 -3.703781 1.045706 -0.069182 -0.005581 -0.997588 0.918038 -0.172800 1 2 1.000000
pistol
  2 0.864578 -3.675988 1.282951 0.069180 0.005616 0.997588 0.942574 -0.103328 1 2 1.000000
  2 0.143207 -3.702188 1.333124 0.069181 0.005603 0.997588 0.942574 -0.172860 1 2 1.000000
  2 0.144807 -3.745968 1.333259 0.069180 0.005616 0.997588 0.946346 -0.172860 1 2 1.000000
pistol
  2 0.144807 -3.745968 1.333259 0.069180 0.005616 0.997588 0.946346 -0.172860 1 2 1.000000
  2 0.866179 -3.719768 1.283087 0.069179 0.005629 0.997588 0.946346 -0.103328 1 2 1.000000
  2 0.864578 -3.675988 1.282951 0.069180 0.005616 0.997588 0.942574 -0.103328 1 2 1.000000
pistol
  2 0.125504 -3.747563 1.045840 -0.997084 -0.036222 0.067163 0.898748 -0.149036 1 2 1.000000
  2 0.144807 -3.745968 1.333259 -0.997084 -0.036233 0.067165 0.898748 -0.121355 1 2 1.000000
  2 0.143207 -3.702188 1.333124 -0.997084 -0.036222 0.067163 0.895006 -0.121355 1 2 1.000000
pistol
  2 0.143207 -3.702188 1.333124 -0.997084 -0.036222 0.067163 0.895006 -0.121355 1 2 1.000000
  2 0.123905 -3.703781 1.045706 -0.997085 -0.036211 0.067162 0.895006 -0.149036 1 2 1.000000
  2 0.125504 -3.747563 1.045840 -0.997084 -0.036222 0.067163 0.898748 -0.149036 1 2 1.000000
pistol
  2 1.002806 -0.271524 0.744197 0.879490 0.140544 0.454692 0.646437 -0.201353 1 2 1.000000
  2 0.828724 -0.205739 0.934592 0.737641 -0.002168 0.675189 0.640150 -0.181179 1 2 1.000000
  2 0.856042 -3.710000 0.893497 0.637847 0.006215 0.770138 0.939295 -0.182962 1 2 1.000000
pistol
  2 1.124522 -3.756297 0.728256 0.958769 0.030159 0.282582 0.944260 -0.201913 1 2 1.000000
  2 1.002806 -0.271524 0.744197 0.879490 0.140544 0.454692 0.646437 -0.201353 1 2 1.000000
  2 0.856042 -3.710000 0.893497 0.637847 0.006215 0.770138 0.939295 -0.182962 1 2 1.000000
pistol
  2 1.124522 -3.756297 0.728256 0.958769 0.030159 0.282582 0.944260 -0.201913 1 2 1.000000
  2 0.978358 -0.270476 0.115379 0.992746 0.119756 -0.010656 0.646383 -0.260892 1 2 1.000000
  2 1.002806 -0.271524 0.744197 0.879490 0.140544 0.454692 0.646437 -0.201353 1 2 1.000000
pistol
  2 0.978358 -0.270476 0.115379 0.992746 0.119756 -0.010656 0.646383 -0.260892 1 2 1.000000
  2 1.124522 -3.756297 0.728256 0.958769 0.030159 0.282582 0.944260 -0.201913 1 2 1.000000
  2 1.084194 -3.905828 0.075259 0.996587 0.029863 -0.076958 0.958798 -0.262077 1 2 1.000000
pistol
  2 0.978358 -0.270476 0.115379 0.992746 0.119756 -0.010656 0.646383 -0.260892 1 2 1.000000
  2 1.084194 -3.905828 0.075259 0.996587 0.029863 -0.076958 0.958798 -0.262077 1 2 1.000000
  2 1.050485 -4.046000 -0.366438 0.985839 0.039260 -0.163035 0.968915 -0.304639 1 2 1.000000
pistol
  2 0.735242 -0.084277 0.834251 0.414705 0.026044 0.909583 0.629463 -0.189667 1 2 1.000000
  2 0.885702 0.099458 0.760392 0.872978 0.085895 0.480137 0.614348 -0.198639 1 2 1.000000
  2 0.787527 0.877683 0.831500 0.581387 0.009560 0.813571 0.547566 -0.191246 1 2 1.000000
pistol
  2 0.885702 0.099458 0.760392 0.872978 0.085895 0.480137 0.614348 -0.198639 1 2 1.000000
  2 0.735242 -0.084277 0.834251 0.414705 0.026044 0.909583 0.629463 -0.189667 1 2 1.000000
  2 1.002806 -0.271524 0.744197 0.879490 0.140544 0.454692 0.646437 -0.201353 1 2 1.000000
pistol
  2 1.002806 -0.271524 0.744197 0.879490 0.140544 0.454692 0.646437 -0.201353 1 2 1.000000
  2 0.862336 0.100029 0.132227 0.982349 0.167060 0.084156 0.614337 -0.258128 1 2 1.000000
  2 0.885702 0.099458 0.760392 0.872978 0.085895 0.480137 0.614348 -0.198639 1 2 1.000000
pistol
  2 1.002806 -0.271524 0.744197 0.879490 0.140544 0.454692 0.646437 -0.201353 1 2 1.000000
  2 0.978358 -0.270476 0.115379 0.992746 0.119756 -0.010656 0.646383 -0.260892 1 2 1.000000
  2 0.862336 0.100029 0.132227 0.982349 0.167060 0.084156 0.614337 -0.258128 1 2 1.000000
pistol
  2 0.978358 -0.270476 0.115379 0.992746 0.119756 -0.010656 0.646383 -0.260892 1 2 1.000000
  2 0.931249 0.103021 -0.042832 0.994727 0.094028 0.040936 0.614369 -0.275632 1 2 1.000000
  2 0.862336 0.100029 0.132227 0.982349 0.167060 0.084156 0.614337 -0.258128 1 2 1.000000
pistol
  2 0.978358 -0.270476 0.115379 0.992746 0.119756 -0.010656 0.646383 -0.260892 1 2 1.000000
  2 1.050485 -4.046000 -0.366438 0.985839 0.039260 -0.163035 0.968915 -0.304639 1 2 1.000000
  2 0.931249 0.103021 -0.042832 0.994727 0.094028 0.040936 0.614369 -0.275632 1 2 1.000000
pistol
  2 0.931249 0.103021 -0.042832 0.994727 0.094028 0.040936 0.614369 -0.275632 1 2 1.000000
  2 1.050485 -4.046000 -0.366438 0.985839 0.039260 -0.163035 0.968915 -0.304639 1 2 1.000000
  2 0.683108 4.146907 -0.333761 0.984496 0.048279 -0.168629 0.270305 -0.304659 1 2 1.000000
pistol
  2 0.683108 4.146907 -0.333761 0.984496 0.048279 -0.168629 0.270305 -0.304659 1 2 1.000000
  2 0.720854 4.149405 -0.032376 0.998215 0.044151 0.040208 0.270118 -0.275516 1 2 1.000000
  2 0.931249 0.103021 -0.042832 0.994727 0.094028 0.040936 0.614369 -0.275632 1 2 1.000000
pistol
  2 0.862336 0.100029 0.132227 0.982349 0.167060 0.084156 0.614337 -0.258128 1 2 1.000000
  2 0.931249 0.103021 -0.042832 0.994727 0.094028 0.040936 0.614369 -0.275632 1 2 1.000000
  2 0.720854 4.149405 -0.032376 0.998215 0.044151 0.040208 0.270118 -0.275516 1 2 1.000000
pistol
  2 0.720854 4.149405 -0.032376 0.998215 0.044151 0.040208 0.270118 -0.275516 1 2 1.000000
  2 0.743978 4.146683 0.150777 0.998010 0.031253 -0.054765 0.270367 -0.257804 1 2 1.000000
  2 0.862336 0.100029 0.132227 0.982349 0.167060 0.084156 0.614337 -0.258128 1 2 1.000000
pistol
  2 0.885702 0.099458 0.760392 0.872978 0.085895 0.480137 0.614348 -0.198639 1 2 1.000000
  2 0.862336 0.100029 0.132227 0.982349 0.167060 0.084156 0.614337 -0.258128 1 2 1.000000
  2 0.743978 4.146683 0.150777 0.998010 0.031253 -0.054765 0.270367 -0.257804 1 2 1.000000
pistol
  2 0.743978 4.146683 0.150777 0.998010 0.031253 -0.054765 0.270367 -0.257804 1 2 1.000000
  2 0.746135 4.123539 0.773146 0.833688 0.028530 0.551498 0.270439 -0.198544 1 2 1.000000
  2 0.885702 0.099458 0.760392 0.872978 0.085895 0.480137 0.614348 -0.198639 1 2 1.000000
pistol
  2 0.746135 4.123539 0.773146 0.833688 0.028530 0.551498 0.270439 -0.198544 1 2 1.000000
  2 0.787527 0.877683 0.831500 0.581387 0.009560 0.813571 0.547566 -0.191246 1 2 1.000000
  2 0.885702 0.099458 0.760392 0.872978 0.085895 0.480137 0.614348 -0.198639 1 2 1.000000
pistol
  2 0.787527 0.877683 0.831500 0.581387 0.009560 0.813571 0.547566 -0.191246 1 2 1.000000
  2 0.746135 4.123539 0.773146 0.833688 0.028530 0.551498 0.270439 -0.198544 1 2 1.000000
  2 0.496493 4.114187 0.960739 0.578311 0.019435 0.815585 0.270289 -0.177571 1 2 1.000000
pistol
  2 0.607521 0.942586 0.950661 0.556127 0.016828 0.830927 0.541327 -0.177692 1 2 1.000000
  2 0.787527 0.877683 0.831500 0.581387 0.009560 0.813571 0.547566 -0.191246 1 2 1.000000
  2 0.496493 4.114187 0.960739 0.578311 0.019435 0.815585 0.270289 -0.177571 1 2 1.000000
pistol
  2 -0.386600 -0.318489 0.210259 -0.990716 0.051811 0.125684 0.646383 -0.260892 1 2 1.000000
  2 -0.261980 -4.092169 -0.275207 -0.998917 -0.028620 -0.036675 0.968915 -0.304639 1 2 1.000000
  2 -0.259171 -3.974017 0.187034 -0.997769 -0.035142 0.056757 0.958798 -0.262077 1 2 1.000000
pistol
  2 -0.386600 -0.318489 0.210259 -0.990716 0.051811 0.125684 0.646383 -0.260892 1 2 1.000000
  2 -0.259171 -3.974017 0.187034 -0.997769 -0.035142 0.056757 0.958798 -0.262077 1 2 1.000000
  2 -0.202554 -3.802980 0.820507 -0.906399 -0.033548 0.421089 0.944260 -0.201913 1 2 1.000000
pistol
  2 -0.202554 -3.802980 0.820507 -0.906399 -0.033548 0.421089 0.944260 -0.201913 1 2 1.000000
  2 -0.323788 -0.318190 0.836412 -0.816732 0.080904 0.571317 0.646437 -0.201353 1 2 1.000000
  2 -0.386600 -0.318489 0.210259 -0.990716 0.051811 0.125684 0.646383 -0.260892 1 2 1.000000
pistol
  2 -0.202554 -3.802980 0.820507 -0.906399 -0.033548 0.421089 0.944260 -0.201913 1 2 1.000000
  2 0.080727 -3.737275 0.947394 -0.526937 -0.034778 0.849193 0.939295 -0.182962 1 2 1.000000
  2 -0.323788 -0.318190 0.836412 -0.816732 0.080904 0.571317 0.646437 -0.201353 1 2 1.000000
pistol
  2 -0.323788 -0.318190 0.836412 -0.816732 0.080904 0.571317 0.646437 -0.201353 1 2 1.000000
  2 0.080727 -3.737275 0.947394 -0.526937 -0.034778 0.849193 0.939295 -0.182962 1 2 1.000000
  2 -0.131654 -0.239522 1.001350 -0.638517 -0.050616 0.767941 0.640150 -0.181179 1 2 1.000000
pistol
  2 -0.061656 -0.112309 0.889653 -0.288779 0.001435 0.957395 0.629463 -0.189667 1 2 1.000000
  2 -0.180960 0.843615 0.898823 -0.469433 -0.027555 0.882538 0.547566 -0.191246 1 2 1.000000
  2 -0.231800 0.060148 0.838074 -0.803827 0.026898 0.594255 0.614348 -0.198639 1 2 1.000000
pistol
  2 -0.231800 0.060148 0.838074 -0.803827 0.026898 0.594255 0.614348 -0.198639 1 2 1.000000
  2 -0.323788 -0.318190 0.836412 -0.816732 0.080904 0.571317 0.646437 -0.201353 1 2 1.000000
  2 -0.061656 -0.112309 0.889653 -0.288779 0.001435 0.957395 0.629463 -0.189667 1 2 1.000000
pistol
  2 -0.323788 -0.318190 0.836412 -0.816732 0.080904 0.571317 0.646437 -0.201353 1 2 1.000000
  2 -0.231800 0.060148 0.838074 -0.803827 0.026898 0.594255 0.614348 -0.198639 1 2 1.000000
  2 -0.295562 0.059300 0.212716 -0.970549 0.098362 0.219907 0.614337 -0.258128 1 2 1.000000
pistol
  2 -0.323788 -0.318190 0.836412 -0.816732 0.080904 0.571317 0.646437 -0.201353 1 2 1.000000
  2 -0.295562 0.059300 0.212716 -0.970549 0.098362 0.219907 0.614337 -0.258128 1 2 1.000000
  2 -0.386600 -0.318489 0.210259 -0.990716 0.051811 0.125684 0.646383 -0.260892 1 2 1.000000
pistol
  2 -0.386600 -0.318489 0.210259 -0.990716 0.051811 0.125684 0.646383 -0.260892 1 2 1.000000
  2 -0.295562 0.059300 0.212716 -0.970549 0.098362 0.219907 0.614337 -0.258128 1 2 1.000000
  2 -0.388043 0.056615 0.048876 -0.983528 0.024533 0.179083 0.614369 -0.275632 1 2 1.000000
pistol
  2 -0.386600 -0.318489 0.210259 -0.990716 0.051811 0.125684 0.646383 -0.260892 1 2 1.000000
  2 -0.388043 0.056615 0.048876 -0.983528 0.024533 0.179083 0.614369 -0.275632 1 2 1.000000
  2 -0.261980 -4.092169 -0.275207 -0.998917 -0.028620 -0.036675 0.968915 -0.304639 1 2 1.000000
pistol
  2 -0.388043 0.056615 0.048876 -0.983528 0.024533 0.179083 0.614369 -0.275632 1 2 1.000000
  2 -0.465876 4.106488 -0.253892 -0.999335 -0.021413 -0.029525 0.270305 -0.304659 1 2 1.000000
  2 -0.261980 -4.092169 -0.275207 -0.998917 -0.028620 -0.036675 0.968915 -0.304639 1 2 1.000000
pistol
  2 -0.465876 4.106488 -0.253892 -0.999335 -0.021413 -0.029525 0.270305 -0.304659 1 2 1.000000
  2 -0.388043 0.056615 0.048876 -0.983528 0.024533 0.179083 0.614369 -0.275632 1 2 1.000000
  2 -0.461697 4.107808 0.049826 -0.983703 -0.025565 0.177973 0.270118 -0.275516 1 2 1.000000
pistol
  2 -0.295562 0.059300 0.212716 -0.970549 0.098362 0.219907 0.614337 -0.258128 1 2 1.000000
  2 -0.461697 4.107808 0.049826 -0.983703 -0.025565 0.177973 0.270118 -0.275516 1 2 1.000000
  2 -0.388043 0.056615 0.048876 -0.983528 0.024533 0.179083 0.614369 -0.275632 1 2 1.000000
pistol
  2 -0.461697 4.107808 0.049826 -0.983703 -0.025565 0.177973 0.270118 -0.275516 1 2 1.000000
  2 -0.295562 0.059300 0.212716 -0.970549 0.098362 0.219907 0.614337 -0.258128 1 2 1.000000
  2 -0.459042 4.104364 0.234401 -0.995722 -0.038879 0.083825 0.270367 -0.257804 1 2 1.000000
pistol
  2 -0.231800 0.060148 0.838074 -0.803827 0.026898 0.594255 0.614348 -0.198639 1 2 1.000000
  2 -0.459042 4.104364 0.234401 -0.995722 -0.038879 0.083825 0.270367 -0.257804 1 2 1.000000
  2 -0.295562 0.059300 0.212716 -0.970549 0.098362 0.219907 0.614337 -0.258128 1 2 1.000000
pistol
  2 -0.459042 4.104364 0.234401 -0.995722 -0.038879 0.083825 0.270367 -0.257804 1 2 1.000000
  2 -0.231800 0.060148 0.838074 -0.803827 0.026898 0.594255 0.614348 -0.198639 1 2 1.000000
  2 -0.373552 4.084151 0.850977 -0.754117 -0.027324 0.656171 0.270439 -0.198544 1 2 1.000000
pistol
  2 -0.373552 4.084151 0.850977 -0.754117 -0.027324 0.656171 0.270439 -0.198544 1 2 1.000000
  2 -0.231800 0.060148 0.838074 -0.803827 0.026898 0.594255 0.614348 -0.198639 1 2 1.000000
  2 -0.180960 0.843615 0.898823 -0.469433 -0.027555 0.882538 0.547566 -0.191246 1 2 1.000000
pistol
  2 -0.180960 0.843615 0.898823 -0.469433 -0.027555 0.882538 0.547566 -0.191246 1 2 1.000000
  2 -0.103975 4.093060 1.003838 -0.467335 -0.017494 0.883907 0.270289 -0.177571 1 2 1.000000
  2 -0.373552 4.084151 0.850977 -0.754117 -0.027324 0.656171 0.270439 -0.198544 1 2 1.000000
pistol
  2 0.007555 0.921700 0.993214 -0.441495 -0.018532 0.897072 0.541327 -0.177692 1 2 1.000000
  2 -0.103975 4.093060 1.003838 -0.467335 -0.017494 0.883907 0.270289 -0.177571 1 2 1.000000
  2 -0.180960 0.843615 0.898823 -0.469433 -0.027555 0.882538 0.547566 -0.191246 1 2 1.000000
pistol
  2 0.683108 4.146907 -0.333761 -0.178160 -0.004923 -0.983989 0.165426 0.184585 1 2 1.000000
  2 1.050485 -4.046000 -0.366438 -0.187732 -0.004501 -0.982210 0.514731 0.184595 1 2 1.000000
  2 0.355099 -3.693614 -0.235142 -0.178160 -0.004923 -0.983989 0.345737 0.260972 1 2 1.000000
pistol
  2 0.161426 4.102973 0.455766 -0.079130 0.992939 0.088381 0.198756 0.790680 1 2 1.000000
  2 0.161426 4.102973 0.455766 -0.033677 0.999432 0.000748 0.198756 0.790680 1 2 1.000000
  2 0.496493 4.114187 0.960739 0.842660 0.031491 -0.537524 0.215200 0.810784 1 2 1.000000
pistol
  2 0.496493 4.114187 0.960739 0.842660 0.031491 -0.537524 0.215200 0.810784 1 2 1.000000
  2 0.746135 4.123539 0.773146 -0.048514 0.997918 0.042491 0.227452 0.803316 1 2 1.000000
  2 0.161426 4.102973 0.455766 -0.079130 0.992939 0.088381 0.198756 0.790680 1 2 1.000000
pistol
  2 0.140703 4.127217 0.189240 -0.047456 0.998155 0.037876 0.197738 0.780069 1 2 1.000000
  2 0.161426 4.102973 0.455766 -0.079130 0.992939 0.088381 0.198756 0.790680 1 2 1.000000
  2 0.746135 4.123539 0.773146 -0.048514 0.997918 0.042491 0.227452 0.803316 1 2 1.000000
pistol
  2 0.746135 4.123539 0.773146 -0.048514 0.997918 0.042491 0.227452 0.803316 1 2 1.000000
  2 0.743978 4.146683 0.150777 -0.033818 0.999317 0.014906 0.227346 0.778538 1 2 1.000000
  2 0.140703 4.127217 0.189240 -0.047456 0.998155 0.037876 0.197738 0.780069 1 2 1.000000
pistol
  2 0.121265 4.124783 0.043019 -0.038392 0.999253 -0.004312 0.196784 0.774248 1 2 1.000000
  2 0.140703 4.127217 0.189240 -0.047456 0.998155 0.037876 0.197738 0.780069 1 2 1.000000
  2 0.743978 4.146683 0.150777 -0.033818 0.999317 0.014906 0.227346 0.778538 1 2 1.000000
pistol
  2 0.743978 4.146683 0.150777 -0.033818 0.999317 0.014906 0.227346 0.778538 1 2 1.000000
  2 0.720854 4.149405 -0.032376 -0.043830 0.999038 -0.000926 0.226211 0.771246 1 2 1.000000
  2 0.121265 4.124783 0.043019 -0.038392 0.999253 -0.004312 0.196784 0.774248 1 2 1.000000
pistol
  2 0.087669 4.117706 -0.231770 -0.046463 0.998857 -0.011245 0.195136 0.763308 1 2 1.000000
  2 0.121265 4.124783 0.043019 -0.038392 0.999253 -0.004312 0.196784 0.774248 1 2 1.000000
  2 0.720854 4.149405 -0.032376 -0.043830 0.999038 -0.000926 0.226211 0.771246 1 2 1.000000
pistol
  2 0.720854 4.149405 -0.032376 -0.043830 0.999038 -0.000926 0.226211 0.771246 1 2 1.000000
  2 0.683108 4.146907 -0.333761 -0.049340 0.998780 -0.002096 0.224359 0.759247 1 2 1.000000
  2 0.087669 4.117706 -0.231770 -0.046463 0.998857 -0.011245 0.195136 0.763308 1 2 1.000000
pistol
  2 -0.103975 4.093060 1.003838 -0.033888 0.999424 0.001513 0.185730 0.812500 1 2 1.000000
  2 0.496493 4.114187 0.960739 -0.035074 0.999384 0.001228 0.215200 0.810784 1 2 1.000000
  2 0.161426 4.102973 0.455766 -0.033677 0.999432 0.000748 0.198756 0.790680 1 2 1.000000
pistol
  2 -0.373552 4.084151 0.850977 -0.011659 0.999345 0.034271 0.172500 0.806414 1 2 1.000000
  2 -0.103975 4.093060 1.003838 -0.033888 0.999424 0.001513 0.185730 0.812500 1 2 1.000000
  2 0.161426 4.102973 0.455766 -0.033677 0.999432 0.000748 0.198756 0.790680 1 2 1.000000
pistol
  2 0.161426 4.102973 0.455766 -0.033677 0.999432 0.000748 0.198756 0.790680 1 2 1.000000
  2 0.161426 4.102973 0.455766 -0.009847 0.993857 0.110233 0.198756 0.790680 1 2 1.000000
  2 -0.373552 4.084151 0.850977 -0.011659 0.999345 0.034271 0.172500 0.806414 1 2 1.000000
pistol
  2 -0.459042 4.104364 0.234401 -0.026767 0.998683 0.043777 0.168304 0.781867 1 2 1.000000
  2 -0.373552 4.084151 0.850977 -0.011659 0.999345 0.034271 0.172500 0.806414 1 2 1.000000
  2 0.161426 4.102973 0.455766 -0.009847 0.993857 0.110233 0.198756 0.790680 1 2 1.000000
pistol
  2 0.161426 4.102973 0.455766 -0.009847 0.993857 0.110233 0.198756 0.790680 1 2 1.000000
  2 0.143631 4.127319 0.189034 -0.032755 0.999061 0.028364 0.197882 0.780061 1 2 1.000000
  2 -0.459042 4.104364 0.234401 -0.026767 0.998683 0.043777 0.168304 0.781867 1 2 1.000000
pistol
  2 -0.461697 4.107808 0.049826 -0.031827 0.999493 0.001113 0.168174 0.774519 1 2 1.000000
  2 -0.459042 4.104364 0.234401 -0.026767 0.998683 0.043777 0.168304 0.781867 1 2 1.000000
  2 0.143631 4.127319 0.189034 -0.032755 0.999061 0.028364 0.197882 0.780061 1 2 1.000000
pistol
  2 0.143631 4.127319 0.189034 -0.032755 0.999061 0.028364 0.197882 0.780061 1 2 1.000000
  2 0.142800 4.125540 0.041522 -0.026548 0.999569 -0.012490 0.197841 0.774188 1 2 1.000000
  2 -0.461697 4.107808 0.049826 -0.031827 0.999493 0.001113 0.168174 0.774519 1 2 1.000000
pistol
  2 -0.465876 4.106488 -0.253892 -0.025080 0.999604 -0.012791 0.167969 0.762427 1 2 1.000000
  2 -0.461697 4.107808 0.049826 -0.031827 0.999493 0.001113 0.168174 0.774519 1 2 1.000000
  2 0.142800 4.125540 0.041522 -0.026548 0.999569 -0.012490 0.197841 0.774188 1 2 1.000000
pistol
  2 0.142800 4.125540 0.041522 -0.026548 0.999569 -0.012490 0.197841 0.774188 1 2 1.000000
  2 0.138535 4.119442 -0.236036 -0.020782 0.999550 -0.021644 0.197632 0.763138 1 2 1.000000
  2 -0.465876 4.106488 -0.253892 -0.025080 0.999604 -0.012791 0.167969 0.762427 1 2 1.000000
pistol
  2 0.843626 -3.677643 0.995647 -0.036511 0.999328 -0.003087 0.918038 -0.103427 1 2 1.000000
  2 0.123905 -3.703781 1.045706 -0.036510 0.999328 -0.003090 0.918038 -0.172800 1 2 1.000000
  2 0.864578 -3.675988 1.282951 -0.036510 0.999328 -0.003090 0.942574 -0.103328 1 2 1.000000
pistol
  2 0.143207 -3.702188 1.333124 -0.036509 0.999328 -0.003094 0.942574 -0.172860 1 2 1.000000
  2 0.864578 -3.675988 1.282951 -0.036510 0.999328 -0.003090 0.942574 -0.103328 1 2 1.000000
  2 0.123905 -3.703781 1.045706 -0.036510 0.999328 -0.003090 0.918038 -0.172800 1 2 1.000000
pistol
  2 0.283105 -2.745796 1.132711 0.069179 0.005619 0.997588 0.887591 -0.051488 1 2 1.000000
  2 0.328427 -3.701669 1.134953 0.068643 0.005782 0.997624 0.969325 -0.050487 1 2 1.000000
  2 0.621263 -2.733510 1.109192 0.068643 0.005782 0.997624 0.887591 -0.018893 1 2 1.000000
pistol
  2 0.655115 -3.689543 1.112579 0.068107 0.005945 0.997660 0.969303 -0.018999 1 2 1.000000
  2 0.621263 -2.733510 1.109192 0.068643 0.005782 0.997624 0.887591 -0.018893 1 2 1.000000
  2 0.328427 -3.701669 1.134953 0.068643 0.005782 0.997624 0.969325 -0.050487 1 2 1.000000
pistol
  2 0.328427 -3.701669 1.134953 0.037834 -0.999225 0.010840 0.969325 -0.050487 1 2 1.000000
  2 0.293837 -3.705215 0.928817 0.037491 -0.999231 0.011516 0.980110 -0.052439 1 2 1.000000
  2 0.655115 -3.689543 1.112579 0.037491 -0.999231 0.011516 0.969303 -0.018999 1 2 1.000000
pistol
  2 0.651886 -3.692207 0.903913 0.037147 -0.999235 0.012192 0.980110 -0.017927 1 2 1.000000
  2 0.655115 -3.689543 1.112579 0.037491 -0.999231 0.011516 0.969303 -0.018999 1 2 1.000000
  2 0.293837 -3.705215 0.928817 0.037491 -0.999231 0.011516 0.980110 -0.052439 1 2 1.000000
pistol
  2 0.283105 -2.745796 1.132711 -0.965343 -0.045168 0.257045 0.888120 -0.075651 1 2 1.000000
  2 0.225692 -2.593131 0.943922 -0.975810 -0.053924 0.211864 0.874794 -0.092860 1 2 1.000000
  2 0.328427 -3.701669 1.134953 -0.975810 -0.053924 0.211864 0.969855 -0.075651 1 2 1.000000
pistol
  2 0.293837 -3.705215 0.928817 -0.984104 -0.062560 0.166210 0.970738 -0.092860 1 2 1.000000
  2 0.328427 -3.701669 1.134953 -0.975810 -0.053924 0.211864 0.969855 -0.075651 1 2 1.000000
  2 0.225692 -2.593131 0.943922 -0.975810 -0.053924 0.211864 0.874794 -0.092860 1 2 1.000000
pistol
  2 0.607521 0.942586 0.950661 0.068212 -0.829247 0.554705 0.278344 -0.042637 1 2 1.000000
  2 0.007555 0.921700 0.993214 0.067916 -0.830073 0.553504 0.278325 -0.100467 1 2 1.000000
  2 0.787527 0.877683 0.831500 0.067916 -0.830073 0.553504 0.291846 -0.024907 1 2 1.000000
pistol
  2 0.007555 0.921700 0.993214 0.067916 -0.830073 0.553504 0.278325 -0.100467 1 2 1.000000
  2 -0.180960 0.843615 0.898823 0.067621 -0.830897 0.552302 0.291846 -0.118251 1 2 1.000000
  2 0.787527 0.877683 0.831500 0.067916 -0.830073 0.553504 0.291846 -0.024907 1 2 1.000000
pistol
  2 -0.131654 -0.239522 1.001350 0.069731 -0.011153 0.997503 0.387800 -0.117920 1 2 1.000000
  2 0.080727 -3.737275 0.947394 0.069733 -0.011154 0.997503 0.687658 -0.108987 1 2 1.000000
  2 0.828724 -0.205739 0.934592 0.069733 -0.011154 0.997503 0.387800 -0.025358 1 2 1.000000
pistol
  2 0.856042 -3.710000 0.893497 0.069735 -0.011154 0.997503 0.687941 -0.034261 1 2 1.000000
  2 0.828724 -0.205739 0.934592 0.069733 -0.011154 0.997503 0.387800 -0.025358 1 2 1.000000
  2 0.080727 -3.737275 0.947394 0.069733 -0.011154 0.997503 0.687658 -0.108987 1 2 1.000000
pistol
  2 0.621263 -2.733510 1.109192 0.991109 0.035548 0.128217 0.888120 -0.075651 1 2 1.000000
  2 0.655115 -3.689543 1.112579 0.998143 0.022886 0.056459 0.969855 -0.075651 1 2 1.000000
  2 0.640803 -2.578053 0.915050 0.998143 0.022886 0.056459 0.874794 -0.092860 1 2 1.000000
pistol
  2 0.651886 -3.692207 0.903913 0.999827 0.010102 -0.015601 0.970738 -0.092860 1 2 1.000000
  2 0.640803 -2.578053 0.915050 0.998143 0.022886 0.056459 0.874794 -0.092860 1 2 1.000000
  2 0.655115 -3.689543 1.112579 0.998143 0.022886 0.056459 0.969855 -0.075651 1 2 1.000000
pistol
  2 1.002806 -0.271524 0.744197 0.612929 0.727140 0.309169 0.646437 -0.201353 1 2 1.000000
  2 0.735242 -0.084277 0.834251 0.612929 0.727140 0.309169 0.629463 -0.189667 1 2 1.000000
  2 0.828724 -0.205739 0.934592 0.612929 0.727140 0.309169 0.640150 -0.181179 1 2 1.000000
pistol
  2 0.863285 -3.489443 -0.356637 0.211613 0.053992 0.975861 0.799655 -0.022765 1 2 1.000000
  2 0.355099 -3.693614 -0.235142 0.211613 0.053992 0.975861 0.798896 -0.011260 1 2 1.000000
  2 1.050485 -4.046000 -0.366438 0.211613 0.053992 0.975861 0.798896 -0.011260 1 2 1.000000
pistol
  2 -0.323788 -0.318190 0.836412 -0.616173 0.683171 0.391929 0.646437 -0.201353 1 2 1.000000
  2 -0.131654 -0.239522 1.001350 -0.616173 0.683171 0.391929 0.640150 -0.181179 1 2 1.000000
  2 -0.061656 -0.112309 0.889653 -0.616173 0.683171 0.391929 0.629463 -0.189667 1 2 1.000000
pistol
  2 1.050485 -4.046000 -0.366438 -0.035606 0.005623 -0.999350 0.345737 0.260972 1 2 1.000000
  2 0.912562 -4.074976 -0.361688 -0.095288 0.053808 -0.993994 0.346117 0.255219 1 2 1.000000
  2 0.863285 -3.489443 -0.356637 -0.105116 -0.000269 -0.994460 0.346117 0.255219 1 2 1.000000
pistol
  2 -0.114307 -3.466454 -0.183928 -0.125059 0.077895 -0.989087 0.345368 0.205815 1 2 1.000000
  2 0.863285 -3.489443 -0.356637 -0.105116 -0.000269 -0.994460 0.346117 0.255219 1 2 1.000000
  2 0.912562 -4.074976 -0.361688 -0.095288 0.053808 -0.993994 0.346117 0.255219 1 2 1.000000
pistol
  2 0.912562 -4.074976 -0.361688 -0.095288 0.053808 -0.993994 0.346117 0.255219 1 2 1.000000
  2 -0.113110 -4.089644 -0.286109 -0.074819 0.161212 -0.984080 0.345369 0.205877 1 2 1.000000
  2 -0.114307 -3.466454 -0.183928 -0.125059 0.077895 -0.989087 0.345368 0.205815 1 2 1.000000
pistol
  2 0.365816 -3.617519 -0.236145 0.056362 -0.161443 0.985271 0.797966 -0.134073 1 2 1.000000
  2 -0.114307 -3.466454 -0.183928 0.056362 -0.161443 0.985271 0.798157 -0.121573 1 2 1.000000
  2 -0.113110 -4.089644 -0.286109 0.056362 -0.161443 0.985271 0.798157 -0.121573 1 2 1.000000
end
