"VertexlitGeneric"
{
	"$basetexture" "models\blueflytrap\crowbar\crowbar_b"
	"$bumpmap" "models\blueflytrap\crowbar\crowbar_n_alt"

	"$color2"	"[0 0 0]"

	"$additive"	"1"

	"$phong" "1"

	"$phongboost"	"0.0"
	"$phongfresnelranges"	"[0.76 0.821 1.25]"

	"$selfillum"	"1"

	"$envmap" "env_cubemap"

	"$envmaptint"	"[0 0 0.9]"
	"$envmapfresnel"	"1"
}