"unlitgeneric"
{
	// original shader: basetimeslightmapselfillum
	"$detail" "detail/detail_noise1"
	"$detailscale" 2.5
	$model 1 	"$basetexture" "halflife/c1a0_flipsign3"
//	"$selfillum" 1
	"$surfaceprop" "computer"
}
