// Choreo version 1
actor "@sphere"
{
  channel "anim"
  {
    event sequence "sphere_idle_neutral"
    {
      time -0.000000 10.410858
      param "sphere_idle_neutral"
    }
  }
  channel "gest"
  {
    event gesture "g_plug_look_SW"
    {
      time 0.129630 2.246296
      param "g_plug_look_SW"
      event_ramp
      {
        0.0000 1.0000
        1.9887 1.0000
      }
      sequenceduration 0.366667
    }
    event gesture "g_plug_sceptical_pose"
    {
      time 1.833334 3.364816
      param "g_plug_sceptical_pose"
      event_ramp
      {
        0.2358 0.5937
        1.4057 0.5500
      }
      sequenceduration 0.300000
    }
    event gesture "g_plug_look_SE"
    {
      time 2.129630 3.989474
      param "g_plug_look_SE"
      event_ramp
      {
        0.0000 0.0000
        0.1170 1.0000
        1.6340 1.0000
        1.8598 0.0000
      }
      sequenceduration 0.366667
    }
    event gesture "g_look_W"
    {
      time 0.129630 2.246296
      param "g_look_W"
      event_ramp
      {
        0.0000 0.2250
        1.9887 0.1938
      }
      sequenceduration 0.366667
    }
    event gesture "g_plug_look_S"
    {
      time 2.044834 2.411501
      param "g_plug_look_S"
      event_ramp
      {
        0.1528 1.0000
      }
      sequenceduration 0.366667
    }
    event gesture "g_plug_emphasis_open"
    {
      time 3.087720 4.087720
      param "g_plug_emphasis_open"
      sequenceduration 1.000000
    }
    event gesture "g_plug_nod_fast"
    {
      time 4.052632 5.819299
      param "g_plug_nod_fast"
      sequenceduration 1.766667
    }
    event gesture "g_plug_happy_pose"
    {
      time 5.394737 7.826315
      param "g_plug_happy_pose"
      sequenceduration 0.300000
    }
    event gesture "g_emphasis_open"
    {
      time 6.491228 7.166667
      param "g_emphasis_open"
      sequenceduration 1.000000
    }
  }
  channel "vo"
  {
    event speak "sp_a2_bts5_hack03"
    {
      time 0.100000 8.145715
      param "sphere03.sp_a2_bts5_hack11"
      fixedlength
      cctype "cc_master"
      cctoken ""
    }
  }
}

scalesettings
{
  "SceneRampTool" "100"
  "GestureTool" "100"
  "ExpressionTool" "100"
  "RampTool" "106"
  "CChoreoView" "76"
}
fps 60
snap off
ignorePhonemes off
