"LightmappedGeneric"
{
	"$basetexture" "Metal/metalwall002a"
	"$surfaceprop"  "metal"
	"$detail" "detail\metal_detail_01"
	"$detailscale" "4.283"
	"$detailblendfactor" .8
	"$detailblendmode" "0"

	"%keywords" "c17industrial"
	"$envmap" "env_cubemap"
	"$basealphaenvmapmask" 1
	"$envmapcontrast" 1
	"$envmapsaturation" 1
	"$envmaptint" "[ .5 .5 .5]"
	"$phong" "1"
}
