// envmaptint_fix
"LightmappedGeneric"
{
	"$basetexture" "Metal/metalpipe005a"
	"%keywords" "c17industrial"
	"$bumpmap" "Metal/metalpipe005a_normal"
	"$surfaceprop"  "metal"
	"$detail" "detail\metal_detail_01"
	"$detailscale" "4.283"
	"$detailblendfactor" .65
	"$detailblendmode" "0"

	"$envmaptint" "[ .25 .25 .25 ]"
	"$envmap" "env_cubemap"
	"$normalmapalphaenvmapmask" 1
	"$envmapcontrast" 1
	"$envmapsaturation" 1
	"$phong" "1"
}
