// envmaptint_fix
"LightmappedGeneric"
{
	"$basetexture" "Metal/metalwall047a"
	"%keywords" "c17industrial"
	"$bumpmap" "Metal/metalwall047a_normal"
	"$envmap" "env_cubemap"
	"$normalmapalphaenvmapmask" 1
	"$envmapcontrast" 1
	"$envmapsaturation" 1
	"$envmaptint" "[ .56 .56 .56 ]"
	"$phong" "1"
}
