"LightmappedGeneric"
{
	"$basetexture" "Metal/metalpipe008a"
	"%keywords" "c17industrial"
	"$bumpmap" "Metal/metalpipe003a_normal"
	"$surfaceprop"  "metal"
	"$detail" "detail\metal_detail_01"
	"$detailscale" "4.283"
	"$detailblendfactor" .65
	"$detailblendmode" "0"
	"$phong" "1"

	//"$envmaptint" "[ 0.75 0.75 0.75 ]"
	//"$envmap" "env_cubemap"
	//"$normalmapalphaenvmapmask" 1
	//"$envmapcontrast" 1
	//"$envmapsaturation" 1
}
