// envmaptint_fix
"LightmappedGeneric"
{
	"$basetexture" "Metal/metalwall045a"
	"%keywords" "c17industrial"
	"$bumpmap" "Metal/metalwall045a_normal"
	"$surfaceprop" "metalvent"
	"$envmaptint" "[ .25 .25 .25 ]"
	"$envmap" "env_cubemap"
	"$normalmapalphaenvmapmask" 1
	"$envmapcontrast" 1
	"$envmapsaturation" .25
	"$phong" "1"
}
