// envmaptint_fix
"LightmappedGeneric"
{
	"$basetexture" "Metal/metaldoor046a"
	"$surfaceprop"  "metal"
	"$detail" "detail\metal_detail_01"
	"$detailscale" "4.283"
	"$detailblendfactor" .65
	"$detailblendmode" "0"

	"%keywords" "c17industrial"
	"$envmap" "env_cubemap"
	"$bumpmap" "Metal/metaldoor046a_normal"
	"$normalmapalphaenvmapmask" 1
	"$envmapcontrast" 1
	"$envmapsaturation" 1
	"$envmaptint" "[ .25 .25 .25 ]"
	"$phong" "1"
}
