"LightmappedGeneric"
{
	"$basetexture" "metal/metalpipe007a"
	"$basealphaenvmapmask" 1
	"$envmap" "env_cubemap"
	"$surfaceprop"  "metal"
	"$detail" "detail\metal_detail_01"
	"$detailscale" "4.283"
	"$detailblendfactor" .65
	"$detailblendmode" "0"

	"%keywords" "combine"
	"$envmaptint" "[ 0.5 0.5 0.5 ]"
	"$phong" "1"
}
