"unlitgeneric"
{
	// original shader: basetimeslightmap
	"$detail" "detail/detail_noise1"
	"$detailscale" 2.5
	$model 1 	"$basetexture" "halflife/+0~light6a"
	"$surfaceprop" "glass"
	"proxies"
	{
		"toggletexture"
		{
			"toggletexturevar" "$basetexture"
			"toggletextureframenumvar" "$frame"
		}
	}
}
