// Created by Crowbar 0.63
version 1
nodes
  0 "Rig_Buggy.Frame" -1
  1 "Rig_Buggy.Shock_RR_Sleeve" 0
  2 "Rig_Buggy.Shock_FR_Sleeve" 0
  3 "Rig_Buggy.Axel_RR" 0
  4 "Rig_Buggy.Wheel_RR" 3
  5 "Rig_Buggy.Shock_RR_Piston" 3
  6 "Rig_Buggy.Steer_Arm" 0
  7 "Rig_Buggy.Shock_FL_Sleeve" 0
  8 "Rig_Buggy.Axel_RL" 0
  9 "Rig_Buggy.Wheel_RL" 8
  10 "Rig_Buggy.Shock_RL_Piston" 8
  11 "Rig_Buggy.Shock_RL_Sleeve" 0
  12 "Rig_Buggy.view" 0
  13 "Rig_Buggy.Gun_Base" 0
  14 "Rig_Buggy.Gun_Parent" 13
  15 "Rig_Buggy.Gun" 14
  16 "Rig_Buggy.Speedo" 0
  17 "Rig_Buggy.Wheel_FR_Turn_parent" 0
  18 "Rig_Buggy.Wheel_FR_Turn" 17
  19 "Rig_Buggy.Wheel_FR_Rotate" 18
  20 "Rig_Buggy.Axel_FR" 0
  21 "Rig_Buggy.Shock_FR_Piston" 20
  22 "Rig_Buggy.Wheel_FL_Turn_parent" 0
  23 "Rig_Buggy.Wheel_FL_Turn" 22
  24 "Rig_Buggy.Wheel_FL_Rotate" 23
  25 "Rig_Buggy.Axel_FL" 0
  26 "Rig_Buggy.Shock_FL_Piston" 25
  27 "Rig_Buggy.Steer_Wheel" 0
  28 "Rig_Buggy.lid" 0
  29 "Rig_Buggy.latch" 28
  30 "Rig_Buggy.gun_cylinders" 15
end
skeleton
  time 0
    0 -35.468750 -0.000003 34.031250 1.570795 0.001728 1.569068
    1 -26.737438 9.978985 -63.177883 0.007722 -0.264986 -1.495669
    2 -26.847315 6.445414 78.520195 0.268794 0.005912 -3.065395
    3 -4.313085 -13.578558 -57.058857 3.141593 0.000000 3.141593
    4 38.000000 0.000000 -0.000001 3.141593 0.000000 -3.141593
    5 20.686598 0.469206 -0.164131 -3.109773 -0.265002 1.495669
    6 0.016516 -11.367848 70.181595 0.000000 0.000000 0.000000
    7 26.847315 6.445414 78.520195 2.876395 -0.019297 -0.071368
    8 4.313085 -13.578558 -57.058857 0.000000 0.000000 0.000000
    9 38.000000 0.000000 0.000002 3.141593 0.000000 3.141593
    10 20.605600 0.473753 0.167807 -0.025170 0.265134 1.494186
    11 26.690825 9.982029 -63.178234 0.006726 -0.265134 -1.647403
    12 9.429615 20.728470 -11.982519 0.000000 -1.570796 -1.570796
    13 -16.873423 9.784609 52.968449 0.000000 0.000000 0.000000
    14 0.020790 5.827109 -0.224472 0.000000 -1.570796 -1.570796
    15 0.000001 0.000001 0.000001 0.000000 0.000000 0.000000
    16 5.664327 9.038126 28.830690 -1.868305 0.167672 -2.643129
    17 -34.710712 -15.133160 78.859528 0.000000 0.000000 0.000000
    18 0.000000 0.000000 -0.000001 0.000000 0.000000 0.000000
    19 -6.579208 0.000000 -0.000002 0.000000 0.000000 0.000000
    20 -14.319742 -15.458982 88.923607 -1.655486 0.445706 -2.888000
    21 11.574885 -2.180906 1.427974 -1.940516 -0.171500 2.829401
    22 34.710712 -15.133160 78.859528 3.141593 0.000000 -3.141593
    23 -0.000001 0.000000 -0.000001 0.000000 0.000000 0.000000
    24 -6.579209 0.000000 0.000003 0.000000 0.000000 0.000000
    25 14.319742 -15.458982 88.923607 -0.057762 0.445706 -0.253592
    26 11.620372 -2.905371 2.149561 -0.263227 -0.212823 0.098586
    27 8.930669 9.895987 16.516956 -1.178097 0.000000 0.000000
    28 -10.478000 3.596270 -57.675583 0.000000 0.000000 0.000000
    29 20.682631 -0.459138 -0.000004 0.000000 0.000000 0.000000
    30 -8.438859 0.038663 0.559095 1.570796 0.000000 1.570796
  time 1
    0 -35.468750 -0.000003 34.031250 1.570795 0.001728 1.569068
    1 -26.737438 9.978985 -63.177883 0.007722 -0.264986 -1.495669
    2 -26.847315 6.445414 78.520195 0.268794 0.005912 -3.065395
    3 -4.313085 -13.578558 -57.058857 3.141593 0.000000 3.141593
    4 38.000000 0.000000 -0.000001 3.141593 0.000000 -3.141593
    5 20.686598 0.469206 -0.164131 -3.109773 -0.265002 1.495669
    6 0.016516 -11.367848 70.181595 0.000000 0.000000 0.000000
    7 26.847315 6.445414 78.520195 2.876395 -0.019297 -0.071368
    8 4.313085 -13.578558 -57.058857 0.000000 0.000000 0.000000
    9 38.000000 0.000000 0.000002 3.141593 0.000000 3.141593
    10 20.605600 0.473753 0.167807 -0.025170 0.265134 1.494186
    11 26.690825 9.982029 -63.178234 0.006726 -0.265134 -1.647403
    12 9.429615 20.728470 -11.982519 0.000000 -1.570796 -1.570796
    13 -16.873423 9.784609 52.968449 0.000000 0.000000 0.000000
    14 0.020790 5.827109 -0.224472 0.000000 -1.570796 -1.570796
    15 0.000001 0.000001 0.000001 0.000000 0.000000 0.000000
    16 5.664327 9.038126 28.830690 -1.230457 0.000000 0.000000
    17 -34.710712 -15.133160 78.859528 0.000000 0.000000 0.000000
    18 0.000000 0.000000 -0.000001 0.000000 0.000000 0.000000
    19 -6.579208 0.000000 -0.000002 0.000000 0.000000 0.000000
    20 -14.319742 -15.458982 88.923607 -1.655486 0.445706 -2.888000
    21 11.574885 -2.180906 1.427974 -1.940516 -0.171500 2.829401
    22 34.710712 -15.133160 78.859528 3.141593 0.000000 -3.141593
    23 -0.000001 0.000000 -0.000001 0.000000 0.000000 0.000000
    24 -6.579209 0.000000 0.000003 0.000000 0.000000 0.000000
    25 14.319742 -15.458982 88.923607 -0.057762 0.445706 -0.253592
    26 11.620372 -2.905371 2.149561 -0.263227 -0.212823 0.098586
    27 8.930669 9.895987 16.516956 -1.178097 0.000000 0.000000
    28 -10.478000 3.596270 -57.675583 0.000000 0.000000 0.000000
    29 20.682631 -0.459138 -0.000004 0.000000 0.000000 0.000000
    30 -8.438859 0.038663 0.559095 1.570796 0.000000 1.570796
  time 2
    0 -35.468750 -0.000003 34.031250 1.570795 0.001728 1.569068
    1 -26.737438 9.978985 -63.177883 0.007722 -0.264986 -1.495669
    2 -26.847315 6.445414 78.520195 0.268794 0.005912 -3.065395
    3 -4.313085 -13.578558 -57.058857 3.141593 0.000000 3.141593
    4 38.000000 0.000000 -0.000001 3.141593 0.000000 -3.141593
    5 20.686598 0.469206 -0.164131 -3.109773 -0.265002 1.495669
    6 0.016516 -11.367848 70.181595 0.000000 0.000000 0.000000
    7 26.847315 6.445414 78.520195 2.876395 -0.019297 -0.071368
    8 4.313085 -13.578558 -57.058857 0.000000 0.000000 0.000000
    9 38.000000 0.000000 0.000002 3.141593 0.000000 3.141593
    10 20.605600 0.473753 0.167807 -0.025170 0.265134 1.494186
    11 26.690825 9.982029 -63.178234 0.006726 -0.265134 -1.647403
    12 9.429615 20.728470 -11.982519 0.000000 -1.570796 -1.570796
    13 -16.873423 9.784609 52.968449 0.000000 0.000000 0.000000
    14 0.020790 5.827109 -0.224472 0.000000 -1.570796 -1.570796
    15 0.000001 0.000001 0.000001 0.000000 0.000000 0.000000
    16 5.664327 9.038126 28.830690 -1.868305 -0.167672 2.643129
    17 -34.710712 -15.133160 78.859528 0.000000 0.000000 0.000000
    18 0.000000 0.000000 -0.000001 0.000000 0.000000 0.000000
    19 -6.579208 0.000000 -0.000002 0.000000 0.000000 0.000000
    20 -14.319742 -15.458982 88.923607 -1.655486 0.445706 -2.888000
    21 11.574885 -2.180906 1.427974 -1.940516 -0.171500 2.829401
    22 34.710712 -15.133160 78.859528 3.141593 0.000000 -3.141593
    23 -0.000001 0.000000 -0.000001 0.000000 0.000000 0.000000
    24 -6.579209 0.000000 0.000003 0.000000 0.000000 0.000000
    25 14.319742 -15.458982 88.923607 -0.057762 0.445706 -0.253592
    26 11.620372 -2.905371 2.149561 -0.263227 -0.212823 0.098586
    27 8.930669 9.895987 16.516956 -1.178097 0.000000 0.000000
    28 -10.478000 3.596270 -57.675583 0.000000 0.000000 0.000000
    29 20.682631 -0.459138 -0.000004 0.000000 0.000000 0.000000
    30 -8.438859 0.038663 0.559095 1.570796 0.000000 1.570796
end
