// Choreo version 1
actor "@core01"
{
  channel "audio"
  {
    event speak "core01.babbleb21"
    {
      time 0.000000 0.705306
      param "vo\core01\babbleb21.wav"
      fixedlength
      cctype "cc_master"
      cctoken ""
    }
  }
  channel "LookAt"
  {
  }
  channel "FaceTo"
  {
  }
  channel "MoveTo"
  {
  }
  channel "Animation"
  {
  }
  channel "Gesture"
  {
    event gesture "sphere_glance_up_concerned"
    {
      time 0.030303 3.130303
      param "sphere_glance_up_concerned"
      event_ramp
      {
        0.1212 1.0000
        1.1545 1.0000
        1.3242 0.0000
        3.1000 0.0000
      }
      sequenceduration 3.100000
    }
    event gesture "g_emphasis_open"
    {
      time 0.200000 0.760606
      param "g_emphasis_open"
      sequenceduration 1.000000
    }
  }
  channel "Trigger"
  {
  }
}

scalesettings
{
  "CChoreoView" "220"
  "ExpressionTool" "100"
  "RampTool" "66"
  "GestureTool" "100"
  "SceneRampTool" "100"
}
fps 60
snap off
ignorePhonemes off
