"VertexLitGeneric"
{
	// Original shader: VertexLitMaskedEnvMappedTexture
	"$basetexture" "models/Citizen_17/arm"
	"$envmapmask" "models/Citizen_17/armmask"
	"$envmap" "models/cremator/cremsuitenvmap"
	"$envmapsphere" 1
	"$nocull" 1
}
