"vertexlitgeneric"
{
	"$baseTexture" "models\citizen_17\ct_sas"
        "$envmap" 			"env_cubemap"
        "$bumpmap" "models/citizen_17/ct_sas_normal"
	"$normalmapalphaenvmapmask" 1
	"$envmapcontrast" 0.3
	"$envmapsaturation" 0.7
	"$envmaptint" "[ 0.36 0.36 0.36 ]"
}
