"VertexLitGeneric"
{
	"$basetexture"	"models/v_python/bulletchrome_textured"
	"$envmap" 	"models/v_python/bulletchrome_envmap"
	"$envmapsphere"			1
	"$envmapmode" 1

	// requred to see specular on dx6+7 at all
	"$multipass" 1
}
