/////////////////// reconstruction group ////////////////
//////////////////////////////////////////////////////////////


////////////////////////////
//////fizzler_training//////
////////////////////////////


"TestChamber.fizzler_01"
{
	"dsp"	"1"
	"fadetime" "1"


	"playlooping"
	{
		"volume"	"0.8"
		"wave"		"ambient/industrial/amb_industrial_muffled_lp_03.wav"
		"pitch"		"100"

	}

	"playlooping"
	{
		"volume"	"0.4"
		"wave"		")ambient/Tones/Amb_Abstract_air_lp_01.wav"
		"pitch"		"100"

	}

	"playlooping"
	{
		"volume"	".85"
		"pitch"		"100"
		"wave"		"ambient/props/electric/amb_neon_hum_lp_01.wav"
		"origin"	"788.372253, 112.549217, -722.123779;"
		"soundlevel" 	"SNDLVL_80dB"
	}

	"playlooping"
	{
		"volume"	".85"
		"pitch"		"115"
		"wave"		"ambient/props/electric/amb_neon_hum_lp_01.wav"
		"origin"	"-242.815140, 137.066925, -220.882431;"
		"soundlevel" 	"SNDLVL_75dB"
	}



	"playsoundscape"
	{
		"name" "util_lo.end_mach"
		"volume" ".79"
	}


	"playsoundscape"
	{
		"name" "util.random.metal_groans"
		"volume" ".49"
	}
}

//////////////////////////
//////hole_in_the_sky//////
//////////////////////////


"TestChamber.Industrial_clean_01"
{
	"dsp"	"1"
	"fadetime" "1"


	"playlooping"
	{
		"volume"	"0.8"
		"wave"		"ambient/industrial/amb_industrial_muffled_lp_03.wav"
		"pitch"		"100"

	}

	"playlooping"
	{
		"volume"	"0.4"
		"wave"		")ambient/Tones/Amb_Abstract_air_lp_01.wav"
		"pitch"		"100"

	}

	"playlooping"
	{
		"volume"	".85"
		"pitch"		"100"
		"wave"		"ambient/props/electric/amb_neon_hum_lp_01.wav"
		"origin"	"788.372253, 112.549217, -722.123779;"
		"soundlevel" 	"SNDLVL_80dB"
	}

	"playlooping"
	{
		"volume"	".85"
		"pitch"		"115"
		"wave"		"ambient/props/electric/amb_neon_hum_lp_01.wav"
		"origin"	"-242.815140, 137.066925, -220.882431;"
		"soundlevel" 	"SNDLVL_75dB"
	}



	"playsoundscape"
	{
		"name" "util_lo.end_mach"
		"volume" ".59"
	}
}



//////////////////////////
//////sp_bridge_intro//////
//////////////////////////


"TestChamber.Industrial_clean_02"
{
	"dsp"	"1"
	"fadetime" "2"


	"playlooping"
	{
		"volume"	"0.8"
		"wave"		"ambient/Tones/Amb_Abstract_air_lp_08.wav"
		"pitch"		"100"

	}

	"playlooping"
	{
		"volume"	"0.5"
		"wave"		"ambient/industrial/amb_industrial_muffled_lp_03.wav"
		"pitch"		"100"

	}
}


"TestChamber.clean_liquid_01"
{
	"dsp"	"1"
	"fadetime" "1"


	"playlooping"
	{
		"volume"	"0.6"
		"wave"		"ambient/industrial/amb_industrial_muffled_lp_03.wav"
		"pitch"		"100"

	}

	"playlooping"
	{
		"volume"	"0.68"
		"wave"		"ambient/Tones/Amb_Abstract_air_lp_08.wav"
		"pitch"		"75"

	}

	"playlooping"
	{
		"volume"	".9"
		"pitch"		"100"
		"wave"		"ambient/props/electric/amb_neon_hum_lp_01.wav"
		"origin"	"682.107971, -155.536255, -157.841385;"
		"soundlevel" 	"SNDLVL_75dB"
	}

	"playlooping"
	{
		"volume"	".65"
		"pitch"		"115"
		"wave"		"ambient/nature/water/amb_Indoor_water_sludge_lp_01.wav"
		"origin"	"-20.649870, -5.947112, -212.554398;"
		"soundlevel" 	"SNDLVL_70dB"
	}

	"playlooping"
	{
		"volume"	".86"
		"pitch"		"120"
		"wave"		"ambient/industrial/amb_mach_behind_walls_lp_03.wav"
		"origin"	"367.968750, -815.998901, 0.031250;"
		"soundlevel" 	"SNDLVL_70dB"
	}




	"playsoundscape"
	{
		"name" "util_lo.end_mach"
		"volume" ".53"
	}
}


///////////////////////////////////
///////Ring_around_the_turret//////
///////////////////////////////////



"TestChamber.clean_liquid_02"
{
	"dsp"	"1"
	"fadetime" "1"


	"playlooping"
	{
		"volume"	"0.6"
		"wave"		"ambient/industrial/amb_industrial_muffled_lp_03.wav"
		"pitch"		"100"

	}

	"playlooping"
	{
		"volume"	"0.68"
		"wave"		"ambient/Tones/Amb_Abstract_air_lp_08.wav"
		"pitch"		"75"

	}

	"playlooping"
	{
		"volume"	".39"
		"pitch"		"137"
		"wave"		"ambient/industrial/amb_warehouse_power_lp_01.wav"
		"origin"	"-370.442657, 508.720795, 234.709702;"
		"soundlevel" 	"SNDLVL_60dB"
	}

	"playlooping"
	{
		"volume"	".28"
		"pitch"		"115"
		"wave"		"ambient/nature/water/amb_Indoor_water_sludge_lp_01.wav"
		"origin"	"-347.640350, -186.271759, 270.387665;"
		"soundlevel" 	"SNDLVL_80dB"
	}



	"playsoundscape"
	{
		"name" "util.abstract.random.ambient.hi"
		"volume" ".24"
	}

	"playsoundscape"
	{
		"name" "util.abstract.random.ambient"
		"volume" ".45"
	}

	"playsoundscape"
	{
		"name" "util.tech.random.ambient.hi"
		"volume" ".25"
	}
}

///////////////////////////////////
///////turret_training_advanced////
///////////////////////////////////

"TestChamber.Industrial_clean_03"
{
	"dsp"	"1"
	"fadetime" "2"


	"playlooping"
	{
		"volume"	"0.55"
		"wave"		"ambient/Tones/Amb_Abstract_air_lp_04.wav"
		"pitch"		"100"

	}

	"playlooping"
	{
		"volume"	"0.4"
		"wave"		"ambient/industrial/amb_industrial_muffled_lp_03.wav"
		"pitch"		"100"

	}

	"playlooping"
	{
		"volume"	".7"
		"pitch"		"120"
		"wave"		"ambient/props/electric/amb_neon_hum_lp_01.wav"
		"origin"	"-975.968750, 1168.031250, 0.031250;"
		"soundlevel" 	"SNDLVL_65dB"
	}

	"playlooping"
	{
		"volume"	".86"
		"pitch"		"120"
		"wave"		"ambient/industrial/amb_mach_behind_walls_lp_03.wav"
		"origin"	"96.408501, 1126.964844, 18.628950;"
		"soundlevel" 	"SNDLVL_70dB"
	}

	"playlooping"
	{
		"volume"	".95"
		"pitch"		"100"
		"wave"		"ambient/nature/water/amb_mono_water_sludge_lp_01.wav"
		"origin"	"1086.828979, -699.531738, 5.630728;"
		"soundlevel" 	"SNDLVL_65dB"
	}

	"playlooping"
	{
		"volume"	".95"
		"pitch"		"120"
		"wave"		"ambient/nature/water/amb_mono_water_sludge_lp_01.wav"
		"origin"	"612.145691, -673.870422, 10.188218;"
		"soundlevel" 	"SNDLVL_65dB"
	}

	"playsoundscape"
	{
		"name" "util.abstract.random.ambient.hi"
		"volume" ".13"
	}

	"playsoundscape"
	{
		"name" "util.tech.random.ambient.hi"
		"volume" ".25"
	}
}

///////////////////////////////////
///////sp_a2_turret_tower//////////
///////////////////////////////////

"TestChamber.Industrial_clean_04"
{
	"dsp"	"1"
	"fadetime" "2"


	"playlooping"
	{
		"volume"	"0.5"
		"wave"		"ambient/Tones/Amb_Abstract_air_lp_04.wav"
		"pitch"		"100"

	}

	"playlooping"
	{
		"volume"	"0.3"
		"wave"		"ambient/industrial/amb_industrial_muffled_lp_02.wav"
		"pitch"		"100"

	}

	"playlooping"
	{
		"volume"	".4"
		"wave"		"ambient/nature/water/amb_Indoor_water_sludge_lp_01.wav"
		"pitch"		"110"
		"origin"	"-437.331879, -309.828857, 21.860855;"
		"soundlevel" 	"SNDLVL_85dB"

	}


	"playlooping"
	{
		"volume"	".7"
		"pitch"		"120"
		"wave"		"ambient/industrial/amb_mach_behind_walls_lp_06.wav"
		"origin"	"105.419289, -95.379372, 374.006805;"
		"soundlevel" 	"SNDLVL_75dB"
	}

	"playlooping"
	{
		"volume"	".73"
		"pitch"		"120"
		"wave"		"ambient/props/electric/amb_neon_hum_lp_01.wav"
		"origin"	"-1015.947266, -110.845863, 187.654251;"
		"soundlevel" 	"SNDLVL_75dB"
	}

	"playsoundscape"
	{
		"name" "util.abstract.random.ambient.hi"
		"volume" ".13"
	}

	"playsoundscape"
	{
		"name" "util.tech.random.ambient.hi"
		"volume" ".15"
	}
}

///////////////////////////////////
///////sp_a2_laser_chaining////////
///////////////////////////////////

"TestChamber.Industrial_clean_04a"
{
	"dsp"	"1"
	"fadetime" "2"


	"playlooping"
	{
		"volume"	"0.9"
		"wave"		"ambient/Tones/Amb_Abstract_air_lp_05.wav"
		"pitch"		"100"

	}

	"playlooping"
	{
		"volume"	"0.6"
		"wave"		")ambient/industrial/amb_industrial_muffled_lp_02.wav"
		"pitch"		"100"

	}


	"playlooping"
	{
		"volume"	".7"
		"pitch"		"120"
		"wave"		"ambient/industrial/amb_mach_behind_walls_lp_06.wav"
		"origin"	"105.419289, -95.379372, 374.006805;"
		"soundlevel" 	"SNDLVL_75dB"
	}

	"playlooping"
	{
		"volume"	".73"
		"pitch"		"120"
		"wave"		"ambient/props/electric/amb_neon_hum_lp_01.wav"
		"origin"	"-529.275513, -781.705750, 300.959137;"
		"soundlevel" 	"SNDLVL_70dB"
	}

	"playsoundscape"
	{
		"name" "util.abstract.random.ambient.hi"
		"volume" ".13"
	}

	"playsoundscape"
	{
		"name" "util.tech.random.ambient.hi"
		"volume" ".15"
	}
}


//////////////////////////////////////
//////sp_a2_triple_laser//////////////
//////////////////////////////////////

"laser_chamber_med_02"

{
	"dsp"	"1"
	"fadetime" "1"




	"playlooping"
	{
		"volume"	"0.33"
		"wave"		"ambient/industrial/amb_industrial_muffled_lp_02.wav"
		"pitch"		"120"

	}


	"playsoundscape"
	{
		"name" 		"utility.metal.imp.lo"
		"volume"	 ".15"

	}

	"playsoundscape"
	{
		"name" "util.abstract.random.ambient"
		"volume" ".33"
	}

	"playsoundscape"
	{
		"name" "util.tech.random.ambient.hi"
		"volume" ".35"
	}

	"playlooping"
	{
		"volume"	".5"
		"pitch"		"120"
		"wave"		"ambient/electrical/amb_abstract_energy_lp_01.wav"
		"origin"	"7796.814453, -5821.950684, 182.244812;"
		"soundlevel" 	"SNDLVL_75dB"
	}

	"playlooping"
	{
		"volume"	".3"
		"pitch"		"100"
		"wave"		"ambient/tones/Amb_Abstract_air_lp_01.wav"
		"origin"	" 7399.774414, -5354.821777, 98.221985;"
		"soundlevel" 	"SNDLVL_75dB"
	}




}



///////////////////////////////////
///////climb_for_los////////////////
///////////////////////////////////

"TestChamber.Industrial_clean_05"
{
	"dsp"	"1"
	"fadetime" "2"


	"playlooping"
	{
		"volume"	"0.5"
		"wave"		"ambient/Tones/Amb_Abstract_air_lp_04.wav"
		"pitch"		"100"

	}

	"playlooping"
	{
		"volume"	"0.3"
		"wave"		"ambient/industrial/amb_industrial_muffled_lp_01.wav"
		"pitch"		"100"

	}


	"playlooping"
	{
		"volume"	".7"
		"pitch"		"120"
		"wave"		"ambient/industrial/amb_mach_behind_walls_lp_01.wav"
		"origin"	"105.419289, -95.379372, 374.006805;"
		"soundlevel" 	"SNDLVL_75dB"
	}

	"playlooping"
	{
		"volume"	".55"
		"pitch"		"100"
		"wave"		"ambient/props/electric/amb_neon_hum_lp_01.wav"
		"origin"	"-432.031250, -127.140564, -255.968750;"
		"soundlevel" 	"SNDLVL_75dB"
	}

	"playlooping"
	{
		"volume"	"1"
		"pitch"		"100"
		"wave"		"ambient/Tones/Amb_Abstract_air_lp_01.wav"
		"origin"	"748.285095, -444.881561, 387.054596;"
		"soundlevel" 	"SNDLVL_85dB"
	}

	"playlooping"
	{
		"volume"	".28"
		"pitch"		"115"
		"wave"		"ambient/nature/water/amb_Indoor_water_sludge_lp_01.wav"
		"origin"	"-694.985046, -411.996460, -344.106476;"
		"soundlevel" 	"SNDLVL_75dB"
	}


}

///////////////////////////////////
///////angled_bridge////////////////
///////////////////////////////////

"TestChamber.Industrial_clean_06"
{
	"dsp"	"1"
	"fadetime" "2"


	"playlooping"
	{
		"volume"	"0.5"
		"wave"		"ambient/Tones/Amb_Abstract_air_lp_04.wav"
		"pitch"		"100"

	}

	"playlooping"
	{
		"volume"	"0.55"
		"wave"		"ambient/industrial/amb_industrial_muffled_lp_01.wav"
		"pitch"		"100"

	}

	"playlooping"
	{
		"volume"	".28"
		"pitch"		"100"
		"wave"		"ambient/nature/water/amb_Indoor_water_sludge_lp_01.wav"
		"origin"	"-215.664856, 253.412872, -529.365479;"
		"soundlevel" 	"SNDLVL_80dB"
	}


	"playlooping"
	{
		"volume"	".7"
		"pitch"		"120"
		"wave"		"ambient/industrial/amb_mach_behind_walls_lp_03.wav"
		"origin"	"-112.176003, 293.838257, -411.870087;"
		"soundlevel" 	"SNDLVL_85dB"
	}

	"playlooping"
	{
		"volume"	".73"
		"pitch"		"120"
		"wave"		"ambient/props/electric/amb_neon_hum_lp_01.wav"
		"origin"	"-1015.947266, -110.845863, 187.654251;"
		"soundlevel" 	"SNDLVL_75dB"
	}

	"playsoundscape"
	{
		"name" "utility.metal.imp.lo"
		"volume" ".6"
	}

}

///////////////////////////////////
///////turret_islands//////////////
///////////////////////////////////

"TestChamber.Industrial_clean_07"
{
	"dsp"	"1"
	"fadetime" "2"


	"playlooping"
	{
		"volume"	"0.7"
		"wave"		"ambient/Tones/Amb_Abstract_air_lp_02.wav"
		"pitch"		"100"

	}

	"playlooping"
	{
		"volume"	"0.55"
		"wave"		"ambient/industrial/amb_industrial_muffled_lp_03.wav"
		"pitch"		"100"

	}

	"playlooping"
	{
		"volume"	".33"
		"pitch"		"100"
		"wave"		"ambient/nature/water/amb_Indoor_water_sludge_lp_01.wav"
	}


	"playlooping"
	{
		"volume"	".6"
		"pitch"		"120"
		"wave"		"ambient/industrial/amb_warehouse_power_lp_01.wav"
		"origin"	"-51.715332, -418.093567, 61.907181;"
		"soundlevel" 	"SNDLVL_75dB"
	}

	"playlooping"
	{
		"volume"	".73"
		"pitch"		"135"
		"wave"		"ambient/props/electric/amb_neon_hum_lp_01.wav"
		"origin"	"-364.532654, 455.101440, -64.115913;"
		"soundlevel" 	"SNDLVL_75dB"
	}

	"playsoundscape"
	{
		"name" "utility.metal.imp.lo"
		"volume" ".6"
	}

}


/////////////////////////////////////
//////////utility.soundscapes////////
/////////////////////////////////////


"util.abstract.random.ambient.hi"
{


	"playrandom"
	{
		"volume"	".4,.8"
		"pitch"		"75,105"
		"time"		"7.0,19.0"
		"position"	"random"

		"rndwave"
		{
			"wave" "ambient/random_abstract/amb_randAbstract_hi_01.wav"
			"wave" "ambient/random_abstract/amb_randAbstract_hi_02.wav"
			"wave" "ambient/random_abstract/amb_randAbstract_hi_03.wav"
			"wave" "ambient/random_abstract/amb_randAbstract_hi_04.wav"
			"wave" "ambient/random_abstract/amb_randAbstract_hi_05.wav"
			"wave" "ambient/random_abstract/amb_randAbstract_hi_06.wav"
			"wave" "ambient/random_abstract/amb_randAbstract_hi_07.wav"
			"wave" "ambient/random_abstract/amb_randAbstract_hi_08.wav"
			"wave" "ambient/random_abstract/amb_randAbstract_hi_09.wav"
			"wave" "ambient/random_abstract/amb_randAbstract_hi_10.wav"
			"wave" "ambient/random_abstract/amb_randAbstract_hi_11.wav"
			"wave" "ambient/random_abstract/amb_randAbstract_hi_12.wav"
			"wave" "ambient/random_abstract/amb_randAbstract_hi_13.wav"
			"wave" "ambient/random_abstract/amb_randAbstract_hi_14.wav"
		}
	}


}

"util.tech.random.ambient.hi"
{


	"playrandom"
	{
		"volume"	".4,.78"
		"pitch"		"95,105"
		"time"		"7.0,21.0"
		"position"	"random"

		"rndwave"
		{
			"wave" "ambient/random_abstract/amb_random_tech_01.wav"
			"wave" "ambient/random_abstract/amb_random_tech_02.wav"
			"wave" "ambient/random_abstract/amb_random_tech_03.wav"
			"wave" "ambient/random_abstract/amb_random_tech_04.wav"
			"wave" "ambient/random_abstract/amb_random_tech_05.wav"
			"wave" "ambient/random_abstract/amb_random_tech_06.wav"
			"wave" "ambient/random_abstract/amb_random_tech_07.wav"
			"wave" "ambient/random_abstract/amb_random_tech_08.wav"
			"wave" "ambient/random_abstract/amb_random_tech_09.wav"
			"wave" "ambient/random_abstract/amb_random_tech_10.wav"
			"wave" "ambient/random_abstract/amb_random_tech_11.wav"
			"wave" "ambient/random_abstract/amb_random_tech_12.wav"
			"wave" "ambient/random_abstract/amb_random_tech_13.wav"
			"wave" "ambient/random_abstract/amb_random_tech_14.wav"
			"wave" "ambient/random_abstract/amb_random_tech_15.wav"
			"wave" "ambient/random_abstract/amb_random_tech_16.wav"
			"wave" "ambient/random_abstract/amb_random_tech_17.wav"
			"wave" "ambient/random_abstract/amb_random_tech_18.wav"
			"wave" "ambient/random_abstract/amb_random_tech_19.wav"
			"wave" "ambient/random_abstract/amb_random_tech_20.wav"
			"wave" "ambient/random_abstract/amb_random_tech_21.wav"
		}
	}


}

/////////////////////////////
/////Truck_brakes_lo/////////
/////////////////////////////

"util.random.metal_groans"
{


	"playrandom"
	{
		"volume"	".9,.98"
		"pitch"		"90,105"
		"time"		"7.0,20.0"
		"position"	"random"

		"rndwave"
		{
			"wave" "ambient/industrial/warehouse_ambience_rand_01.wav"
			"wave" "ambient/industrial/warehouse_ambience_rand_02.wav"
			"wave" "ambient/industrial/warehouse_ambience_rand_03.wav"
			"wave" "ambient/industrial/warehouse_ambience_rand_04.wav"
			"wave" "ambient/industrial/warehouse_ambience_rand_05.wav"
			"wave" "ambient/industrial/warehouse_ambience_rand_06.wav"
			"wave" "ambient/industrial/warehouse_ambience_rand_07.wav"
			"wave" "ambient/industrial/warehouse_ambience_rand_08.wav"
			"wave" "ambient/industrial/warehouse_ambience_rand_09.wav"
			"wave" "ambient/industrial/warehouse_ambience_rand_10.wav"
		}
	}


}
