// Created by Crowbar 0.62
version 1
nodes
  0 "ValveBiped.Bip01_R_Hand" -1
  1 "w_rpg" 0
  2 "rocket" 1
end
skeleton
  time 0
    0 5.515084 3.854367 -1.616340 -1.559318 0.023022 -1.539990
    1 3.644481 -1.765212 -5.611297 1.559315 0.030540 -0.023374
    2 15.707637 0.000001 0.000000 0.000000 0.000000 0.000000
end
triangles
  phy
    1 4.016450 12.767990 -5.266846 0.509492 -0.047214 0.859179 0 0
    1 -6.418522 11.495978 -5.724126 0.419350 0.680118 0.601319 0 0
    1 -5.115173 11.671629 -4.200745 0.345592 0.720378 0.601350 0 0
  phy
    1 5.543710 12.837060 -6.746559 0.794688 0.123546 0.594312 0 0
    1 -6.418522 11.495978 -5.724126 0.419350 0.680118 0.601319 0 0
    1 4.016450 12.767990 -5.266846 0.509492 -0.047214 0.859179 0 0
  phy
    1 -5.115173 11.671629 -4.200745 0.345592 0.720378 0.601350 0 0
    1 5.671141 12.836355 -4.599053 -0.169824 -0.697412 0.696259 0 0
    1 4.016450 12.767990 -5.266846 0.509492 -0.047214 0.859179 0 0
  phy
    1 5.671141 12.836355 -4.599053 -0.169824 -0.697412 0.696259 0 0
    1 5.543710 12.837060 -6.746559 0.794688 0.123546 0.594312 0 0
    1 4.016450 12.767990 -5.266846 0.509492 -0.047214 0.859179 0 0
  phy
    1 -5.115173 11.671629 -4.200745 0.345592 0.720378 0.601350 0 0
    1 -6.418522 11.495978 -5.724126 0.419350 0.680118 0.601319 0 0
    1 -6.343139 11.495608 -4.324998 0.253049 0.885764 0.389087 0 0
  phy
    1 -6.343139 11.495608 -4.324998 0.253049 0.885764 0.389087 0 0
    1 -6.418522 11.495978 -5.724126 0.419350 0.680118 0.601319 0 0
    1 -23.040199 6.938176 -4.127847 -0.013827 0.088398 0.995989 0 0
  phy
    1 -6.343139 11.495608 -4.324998 0.253049 0.885764 0.389087 0 0
    1 -22.990353 6.745473 -3.161623 0.740726 0.495237 0.453944 0 0
    1 -6.533631 11.211285 -3.665142 -0.156930 0.835034 0.527344 0 0
  phy
    1 -23.040199 6.938176 -4.127847 -0.013827 0.088398 0.995989 0 0
    1 -22.990353 6.745473 -3.161623 0.740726 0.495237 0.453944 0 0
    1 -6.343139 11.495608 -4.324998 0.253049 0.885764 0.389087 0 0
  phy
    1 -6.343139 11.495608 -4.324998 0.253049 0.885764 0.389087 0 0
    1 -6.533631 11.211285 -3.665142 -0.156930 0.835034 0.527344 0 0
    1 -5.115173 11.671629 -4.200745 0.345592 0.720378 0.601350 0 0
  phy
    1 -23.183780 5.378104 -6.459800 -0.929792 -0.168026 0.327496 0 0
    1 -23.205237 4.410662 -6.651639 -0.483930 0.866377 0.123302 0 0
    1 -23.205986 3.443118 -6.459117 -0.968013 -0.008779 -0.250748 0 0
  phy
    1 -23.183780 5.378104 -6.459800 -0.929792 -0.168026 0.327496 0 0
    1 -23.205986 3.443118 -6.459117 -0.968013 -0.008779 -0.250748 0 0
    1 -23.185912 2.622771 -5.911545 -0.575902 -0.711795 -0.402100 0 0
  phy
    1 -23.183780 5.378104 -6.459800 -0.929792 -0.168026 0.327496 0 0
    1 -23.185912 2.622771 -5.911545 -0.575902 -0.711795 -0.402100 0 0
    1 -23.144881 6.198161 -5.912807 -0.852665 0.022906 0.521955 0 0
  phy
    1 -23.144881 6.198161 -5.912807 -0.852665 0.022906 0.521955 0 0
    1 -23.185912 2.622771 -5.911545 -0.575902 -0.711795 -0.402100 0 0
    1 -23.094462 6.745985 -5.093934 -0.637705 0.544284 0.545057 0 0
  phy
    1 -23.094462 6.745985 -5.093934 -0.637705 0.544284 0.545057 0 0
    1 -23.185912 2.622771 -5.911545 -0.575902 -0.711795 -0.402100 0 0
    1 -23.040199 6.938176 -4.127847 -0.013827 0.088398 0.995989 0 0
  phy
    1 -23.040199 6.938176 -4.127847 -0.013827 0.088398 0.995989 0 0
    1 -23.185912 2.622771 -5.911545 -0.575902 -0.711795 -0.402100 0 0
    1 -22.990353 6.745473 -3.161623 0.740726 0.495237 0.453944 0 0
  phy
    1 -22.990353 6.745473 -3.161623 0.740726 0.495237 0.453944 0 0
    1 -23.185912 2.622771 -5.911545 -0.575902 -0.711795 -0.402100 0 0
    1 -22.952512 6.197215 -2.342363 0.745931 -0.255652 0.615004 0 0
  phy
    1 -22.952512 6.197215 -2.342363 0.745931 -0.255652 0.615004 0 0
    1 -23.185912 2.622771 -5.911545 -0.575902 -0.711795 -0.402100 0 0
    1 -22.933187 4.409322 -1.602269 0.691686 -0.722096 -0.012115 0 0
  phy
    1 -22.933187 4.409322 -1.602269 0.691686 -0.722096 -0.012115 0 0
    1 -23.185912 2.622771 -5.911545 -0.575902 -0.711795 -0.402100 0 0
    1 -23.043962 2.074001 -3.159975 0.315428 -0.620621 -0.717869 0 0
  phy
    1 -22.933187 4.409322 -1.602269 0.691686 -0.722096 -0.012115 0 0
    1 -23.043962 2.074001 -3.159975 0.315428 -0.620621 -0.717869 0 0
    1 -22.993543 2.621827 -2.341099 0.328915 -0.730862 -0.598044 0 0
  phy
    1 -22.933187 4.409322 -1.602269 0.691686 -0.722096 -0.012115 0 0
    1 -22.993543 2.621827 -2.341099 0.328915 -0.730862 -0.598044 0 0
    1 -22.954644 3.441881 -1.794107 0.377184 -0.886295 -0.268724 0 0
  phy
    1 -23.043962 2.074001 -3.159975 0.315428 -0.620621 -0.717869 0 0
    1 -23.185912 2.622771 -5.911545 -0.575902 -0.711795 -0.402100 0 0
    1 -23.098225 1.881811 -4.126062 -0.573122 -0.619113 -0.536871 0 0
  phy
    1 -22.993543 2.621827 -2.341099 0.328915 -0.730862 -0.598044 0 0
    1 -21.426266 3.337953 -1.667526 -0.066326 -0.948170 -0.310766 0 0
    1 -22.954644 3.441881 -1.794107 0.377184 -0.886295 -0.268724 0 0
  phy
    1 -22.954644 3.441881 -1.794107 0.377184 -0.886295 -0.268724 0 0
    1 -21.426266 3.337953 -1.667526 -0.066326 -0.948170 -0.310766 0 0
    1 -22.933187 4.409322 -1.602269 0.691686 -0.722096 -0.012115 0 0
  phy
    1 3.049822 1.679965 -1.140824 -0.186045 0.855279 -0.483617 0 0
    1 2.464530 0.799097 -1.587957 0.179419 -0.027184 -0.983397 0 0
    1 5.709625 1.554331 -1.539530 0.208490 -0.795743 -0.568617 0 0
  phy
    1 3.049822 1.679965 -1.140824 -0.186045 0.855279 -0.483617 0 0
    1 1.050927 1.702942 -1.033121 -0.111673 -0.816445 -0.566522 0 0
    1 2.464530 0.799097 -1.587957 0.179419 -0.027184 -0.983397 0 0
  phy
    1 4.901492 2.557248 -1.240356 -0.000976 0.999997 0.002278 0 0
    1 1.061236 2.601391 -1.033438 0.041030 0.596879 0.801281 0 0
    1 3.049822 1.679965 -1.140824 -0.186045 0.855279 -0.483617 0 0
  phy
    1 1.061236 2.601391 -1.033438 0.041030 0.596879 0.801281 0 0
    1 1.050927 1.702942 -1.033121 -0.111673 -0.816445 -0.566522 0 0
    1 3.049822 1.679965 -1.140824 -0.186045 0.855279 -0.483617 0 0
  phy
    1 5.709625 1.554331 -1.539530 0.208490 -0.795743 -0.568617 0 0
    1 17.417474 4.819284 -2.058023 0.161876 -0.972006 -0.170297 0 0
    1 3.049822 1.679965 -1.140824 -0.186045 0.855279 -0.483617 0 0
  phy
    1 17.417474 4.819284 -2.058023 0.161876 -0.972006 -0.170297 0 0
    1 4.901492 2.557248 -1.240356 -0.000976 0.999997 0.002278 0 0
    1 3.049822 1.679965 -1.140824 -0.186045 0.855279 -0.483617 0 0
  phy
    1 -5.115173 11.671629 -4.200745 0.345592 0.720378 0.601350 0 0
    1 -6.533631 11.211285 -3.665142 -0.156930 0.835034 0.527344 0 0
    1 5.671141 12.836355 -4.599053 -0.169824 -0.697412 0.696259 0 0
  phy
    1 -23.205237 4.410662 -6.651639 -0.483930 0.866377 0.123302 0 0
    1 -23.183780 5.378104 -6.459800 -0.929792 -0.168026 0.327496 0 0
    1 -21.675870 5.447131 -6.749980 0.097538 0.183604 0.978149 0 0
  phy
    1 -23.183780 5.378104 -6.459800 -0.929792 -0.168026 0.327496 0 0
    1 -23.144881 6.198161 -5.912807 -0.852665 0.022906 0.521955 0 0
    1 -6.678817 11.211999 -6.359851 -0.285624 0.434637 0.854113 0 0
  phy
    1 -23.183780 5.378104 -6.459800 -0.929792 -0.168026 0.327496 0 0
    1 -6.678817 11.211999 -6.359851 -0.285624 0.434637 0.854113 0 0
    1 -21.675870 5.447131 -6.749980 0.097538 0.183604 0.978149 0 0
  phy
    1 -21.402892 4.391812 -1.458552 -0.008274 -0.999952 -0.005248 0 0
    1 -21.361777 5.447597 -1.664939 -0.271913 -0.185477 0.944278 0 0
    1 -22.933187 4.409322 -1.602269 0.691686 -0.722096 -0.012115 0 0
  phy
    1 1.061236 2.601391 -1.033438 0.041030 0.596879 0.801281 0 0
    1 -21.361777 5.447597 -1.664939 -0.271913 -0.185477 0.944278 0 0
    1 -21.402892 4.391812 -1.458552 -0.008274 -0.999952 -0.005248 0 0
  phy
    1 -21.402892 4.391812 -1.458552 -0.008274 -0.999952 -0.005248 0 0
    1 1.050927 1.702942 -1.033121 -0.111673 -0.816445 -0.566522 0 0
    1 1.061236 2.601391 -1.033438 0.041030 0.596879 0.801281 0 0
  phy
    1 -22.933187 4.409322 -1.602269 0.691686 -0.722096 -0.012115 0 0
    1 -21.426266 3.337953 -1.667526 -0.066326 -0.948170 -0.310766 0 0
    1 -21.402892 4.391812 -1.458552 -0.008274 -0.999952 -0.005248 0 0
  phy
    1 -21.426266 3.337953 -1.667526 -0.066326 -0.948170 -0.310766 0 0
    1 1.050927 1.702942 -1.033121 -0.111673 -0.816445 -0.566522 0 0
    1 -21.402892 4.391812 -1.458552 -0.008274 -0.999952 -0.005248 0 0
  phy
    1 -21.468640 2.444646 -2.263380 -0.119069 -0.835202 -0.536899 0 0
    1 -21.426266 3.337953 -1.667526 -0.066326 -0.948170 -0.310766 0 0
    1 -22.993543 2.621827 -2.341099 0.328915 -0.730862 -0.598044 0 0
  phy
    1 -22.993543 2.621827 -2.341099 0.328915 -0.730862 -0.598044 0 0
    1 7.200205 -8.546112 -8.104304 0.178726 -0.632076 -0.754014 0 0
    1 -21.468640 2.444646 -2.263380 -0.119069 -0.835202 -0.536899 0 0
  phy
    1 -22.993543 2.621827 -2.341099 0.328915 -0.730862 -0.598044 0 0
    1 -23.043962 2.074001 -3.159975 0.315428 -0.620621 -0.717869 0 0
    1 7.200205 -8.546112 -8.104304 0.178726 -0.632076 -0.754014 0 0
  phy
    1 2.464530 0.799097 -1.587957 0.179419 -0.027184 -0.983397 0 0
    1 7.200205 -8.546112 -8.104304 0.178726 -0.632076 -0.754014 0 0
    1 5.709625 1.554331 -1.539530 0.208490 -0.795743 -0.568617 0 0
  phy
    1 5.709625 1.554331 -1.539530 0.208490 -0.795743 -0.568617 0 0
    1 7.200205 -8.546112 -8.104304 0.178726 -0.632076 -0.754014 0 0
    1 22.791328 1.820386 -4.532490 0.284999 -0.771979 -0.568176 0 0
  phy
    1 5.709625 1.554331 -1.539530 0.208490 -0.795743 -0.568617 0 0
    1 22.791328 1.820386 -4.532490 0.284999 -0.771979 -0.568176 0 0
    1 17.417474 4.819284 -2.058023 0.161876 -0.972006 -0.170297 0 0
  phy
    1 17.430871 6.191241 -2.102069 -0.740925 0.370702 0.560009 0 0
    1 19.892882 5.695097 -2.217597 -0.101798 -0.994007 -0.039847 0 0
    1 19.890195 6.249717 -2.385789 -0.238852 0.501656 0.831439 0 0
  phy
    1 19.890195 6.249717 -2.385789 -0.238852 0.501656 0.831439 0 0
    1 10.993189 8.136109 -2.082985 -0.145231 0.640427 0.754163 0 0
    1 17.430871 6.191241 -2.102069 -0.740925 0.370702 0.560009 0 0
  phy
    1 16.425043 5.815184 -1.946758 0.694733 -0.016092 0.719088 0 0
    1 19.892882 5.695097 -2.217597 -0.101798 -0.994007 -0.039847 0 0
    1 17.430871 6.191241 -2.102069 -0.740925 0.370702 0.560009 0 0
  phy
    1 17.430871 6.191241 -2.102069 -0.740925 0.370702 0.560009 0 0
    1 10.993189 8.136109 -2.082985 -0.145231 0.640427 0.754163 0 0
    1 16.425043 5.815184 -1.946758 0.694733 -0.016092 0.719088 0 0
  phy
    1 22.616691 5.947289 -8.654051 0.627082 0.556784 0.544756 0 0
    1 22.674872 6.579449 -7.709114 0.286123 0.734150 0.615757 0 0
    1 22.571804 5.000987 -9.285251 -0.684064 0.676487 0.272803 0 0
  phy
    1 22.674872 6.579449 -7.709114 0.286123 0.734150 0.615757 0 0
    1 22.737489 6.801227 -6.594300 -0.563624 0.038054 0.825155 0 0
    1 22.571804 5.000987 -9.285251 -0.684064 0.676487 0.272803 0 0
  phy
    1 22.737489 6.801227 -6.594300 -0.563624 0.038054 0.825155 0 0
    1 22.795009 6.578858 -5.479330 -0.801627 0.037604 0.596641 0 0
    1 22.571804 5.000987 -9.285251 -0.684064 0.676487 0.272803 0 0
  phy
    1 22.795009 6.578858 -5.479330 -0.801627 0.037604 0.596641 0 0
    1 22.838675 5.946198 -4.533947 -0.864602 -0.445814 0.231760 0 0
    1 22.571804 5.000987 -9.285251 -0.684064 0.676487 0.272803 0 0
  phy
    1 22.838675 5.946198 -4.533947 -0.864602 -0.445814 0.231760 0 0
    1 22.861839 4.999561 -3.902078 -0.910415 0.405278 0.083035 0 0
    1 22.571804 5.000987 -9.285251 -0.684064 0.676487 0.272803 0 0
  phy
    1 22.861839 4.999561 -3.902078 -0.910415 0.405278 0.083035 0 0
    1 22.860976 3.883065 -3.679917 0.970431 0.188702 -0.150516 0 0
    1 22.571804 5.000987 -9.285251 -0.684064 0.676487 0.272803 0 0
  phy
    1 22.860976 3.883065 -3.679917 0.970431 0.188702 -0.150516 0 0
    1 22.547044 3.884610 -9.506624 0.909073 -0.416535 -0.009177 0 0
    1 22.571804 5.000987 -9.285251 -0.684064 0.676487 0.272803 0 0
  phy
    1 22.860976 3.883065 -3.679917 0.970431 0.188702 -0.150516 0 0
    1 22.546180 2.768116 -9.284463 0.998623 -0.001354 -0.052441 0 0
    1 22.547044 3.884610 -9.506624 0.909073 -0.416535 -0.009177 0 0
  phy
    1 22.860976 3.883065 -3.679917 0.970431 0.188702 -0.150516 0 0
    1 22.733147 1.188226 -5.477426 0.873623 0.393070 -0.286841 0 0
    1 22.546180 2.768116 -9.284463 0.998623 -0.001354 -0.052441 0 0
  phy
    1 22.860976 3.883065 -3.679917 0.970431 0.188702 -0.150516 0 0
    1 22.791328 1.820386 -4.532490 0.284999 -0.771979 -0.568176 0 0
    1 22.733147 1.188226 -5.477426 0.873623 0.393070 -0.286841 0 0
  phy
    1 22.733147 1.188226 -5.477426 0.873623 0.393070 -0.286841 0 0
    1 22.613010 1.188817 -7.707210 0.876499 0.467515 -0.114797 0 0
    1 22.546180 2.768116 -9.284463 0.998623 -0.001354 -0.052441 0 0
  phy
    1 22.733147 1.188226 -5.477426 0.873623 0.393070 -0.286841 0 0
    1 22.670530 0.966449 -6.592239 0.682752 0.687563 -0.247201 0 0
    1 22.613010 1.188817 -7.707210 0.876499 0.467515 -0.114797 0 0
  phy
    1 22.613010 1.188817 -7.707210 0.876499 0.467515 -0.114797 0 0
    1 22.569344 1.821479 -8.652595 0.555214 0.819819 -0.140122 0 0
    1 22.546180 2.768116 -9.284463 0.998623 -0.001354 -0.052441 0 0
  phy
    1 19.890195 6.249717 -2.385789 -0.238852 0.501656 0.831439 0 0
    1 19.892882 5.695097 -2.217597 -0.101798 -0.994007 -0.039847 0 0
    1 22.861839 4.999561 -3.902078 -0.910415 0.405278 0.083035 0 0
  phy
    1 22.861839 4.999561 -3.902078 -0.910415 0.405278 0.083035 0 0
    1 19.892882 5.695097 -2.217597 -0.101798 -0.994007 -0.039847 0 0
    1 22.860976 3.883065 -3.679917 0.970431 0.188702 -0.150516 0 0
  phy
    1 22.861839 4.999561 -3.902078 -0.910415 0.405278 0.083035 0 0
    1 22.838675 5.946198 -4.533947 -0.864602 -0.445814 0.231760 0 0
    1 19.890195 6.249717 -2.385789 -0.238852 0.501656 0.831439 0 0
  phy
    1 -22.933187 4.409322 -1.602269 0.691686 -0.722096 -0.012115 0 0
    1 -21.361777 5.447597 -1.664939 -0.271913 -0.185477 0.944278 0 0
    1 -22.952512 6.197215 -2.342363 0.745931 -0.255652 0.615004 0 0
  phy
    1 -6.533631 11.211285 -3.665142 -0.156930 0.835034 0.527344 0 0
    1 -22.990353 6.745473 -3.161623 0.740726 0.495237 0.453944 0 0
    1 -22.952512 6.197215 -2.342363 0.745931 -0.255652 0.615004 0 0
  phy
    1 -22.952512 6.197215 -2.342363 0.745931 -0.255652 0.615004 0 0
    1 -21.361777 5.447597 -1.664939 -0.271913 -0.185477 0.944278 0 0
    1 -6.533631 11.211285 -3.665142 -0.156930 0.835034 0.527344 0 0
  phy
    1 8.914670 12.798915 -5.223222 0.446893 -0.050727 0.893148 0 0
    1 5.543710 12.837060 -6.746559 0.794688 0.123546 0.594312 0 0
    1 5.671141 12.836355 -4.599053 -0.169824 -0.697412 0.696259 0 0
  phy
    1 5.671141 12.836355 -4.599053 -0.169824 -0.697412 0.696259 0 0
    1 8.446860 12.709533 -4.653506 -0.248354 0.776168 0.579555 0 0
    1 8.914670 12.798915 -5.223222 0.446893 -0.050727 0.893148 0 0
  phy
    1 -6.533631 11.211285 -3.665142 -0.156930 0.835034 0.527344 0 0
    1 10.993189 8.136109 -2.082985 -0.145231 0.640427 0.754163 0 0
    1 5.671141 12.836355 -4.599053 -0.169824 -0.697412 0.696259 0 0
  phy
    1 5.671141 12.836355 -4.599053 -0.169824 -0.697412 0.696259 0 0
    1 10.993189 8.136109 -2.082985 -0.145231 0.640427 0.754163 0 0
    1 8.446860 12.709533 -4.653506 -0.248354 0.776168 0.579555 0 0
  phy
    1 8.914670 12.798915 -5.223222 0.446893 -0.050727 0.893148 0 0
    1 8.321229 12.710151 -6.985291 0.234749 0.757095 0.609672 0 0
    1 5.543710 12.837060 -6.746559 0.794688 0.123546 0.594312 0 0
  phy
    1 22.737489 6.801227 -6.594300 -0.563624 0.038054 0.825155 0 0
    1 8.321229 12.710151 -6.985291 0.234749 0.757095 0.609672 0 0
    1 8.914670 12.798915 -5.223222 0.446893 -0.050727 0.893148 0 0
  phy
    1 8.914670 12.798915 -5.223222 0.446893 -0.050727 0.893148 0 0
    1 8.446860 12.709533 -4.653506 -0.248354 0.776168 0.579555 0 0
    1 22.795009 6.578858 -5.479330 -0.801627 0.037604 0.596641 0 0
  phy
    1 22.795009 6.578858 -5.479330 -0.801627 0.037604 0.596641 0 0
    1 22.737489 6.801227 -6.594300 -0.563624 0.038054 0.825155 0 0
    1 8.914670 12.798915 -5.223222 0.446893 -0.050727 0.893148 0 0
  phy
    1 -23.144881 6.198161 -5.912807 -0.852665 0.022906 0.521955 0 0
    1 -23.094462 6.745985 -5.093934 -0.637705 0.544284 0.545057 0 0
    1 -6.678817 11.211999 -6.359851 -0.285624 0.434637 0.854113 0 0
  phy
    1 -6.418522 11.495978 -5.724126 0.419350 0.680118 0.601319 0 0
    1 -23.094462 6.745985 -5.093934 -0.637705 0.544284 0.545057 0 0
    1 -23.040199 6.938176 -4.127847 -0.013827 0.088398 0.995989 0 0
  phy
    1 -21.699243 4.393271 -6.958954 0.026287 0.996918 -0.073917 0 0
    1 -21.700059 3.339300 -6.749235 -0.219277 -0.951591 -0.215388 0 0
    1 -23.205986 3.443118 -6.459117 -0.968013 -0.008779 -0.250748 0 0
  phy
    1 -21.699243 4.393271 -6.958954 0.026287 0.996918 -0.073917 0 0
    1 -23.205986 3.443118 -6.459117 -0.968013 -0.008779 -0.250748 0 0
    1 -23.205237 4.410662 -6.651639 -0.483930 0.866377 0.123302 0 0
  phy
    1 -23.205237 4.410662 -6.651639 -0.483930 0.866377 0.123302 0 0
    1 -21.675870 5.447131 -6.749980 0.097538 0.183604 0.978149 0 0
    1 -21.699243 4.393271 -6.958954 0.026287 0.996918 -0.073917 0 0
  phy
    1 -23.205986 3.443118 -6.459117 -0.968013 -0.008779 -0.250748 0 0
    1 -21.700059 3.339300 -6.749235 -0.219277 -0.951591 -0.215388 0 0
    1 7.200205 -8.546112 -8.104304 0.178726 -0.632076 -0.754014 0 0
  phy
    1 -21.700059 3.339300 -6.749235 -0.219277 -0.951591 -0.215388 0 0
    1 -21.699243 4.393271 -6.958954 0.026287 0.996918 -0.073917 0 0
    1 7.200205 -8.546112 -8.104304 0.178726 -0.632076 -0.754014 0 0
  phy
    1 16.425043 5.815184 -1.946758 0.694733 -0.016092 0.719088 0 0
    1 4.901492 2.557248 -1.240356 -0.000976 0.999997 0.002278 0 0
    1 17.417474 4.819284 -2.058023 0.161876 -0.972006 -0.170297 0 0
  phy
    1 17.417474 4.819284 -2.058023 0.161876 -0.972006 -0.170297 0 0
    1 19.892882 5.695097 -2.217597 -0.101798 -0.994007 -0.039847 0 0
    1 16.425043 5.815184 -1.946758 0.694733 -0.016092 0.719088 0 0
  phy
    1 17.417474 4.819284 -2.058023 0.161876 -0.972006 -0.170297 0 0
    1 22.791328 1.820386 -4.532490 0.284999 -0.771979 -0.568176 0 0
    1 19.892882 5.695097 -2.217597 -0.101798 -0.994007 -0.039847 0 0
  phy
    1 16.425043 5.815184 -1.946758 0.694733 -0.016092 0.719088 0 0
    1 1.061236 2.601391 -1.033438 0.041030 0.596879 0.801281 0 0
    1 4.901492 2.557248 -1.240356 -0.000976 0.999997 0.002278 0 0
  phy
    1 16.425043 5.815184 -1.946758 0.694733 -0.016092 0.719088 0 0
    1 10.993189 8.136109 -2.082985 -0.145231 0.640427 0.754163 0 0
    1 1.061236 2.601391 -1.033438 0.041030 0.596879 0.801281 0 0
  phy
    1 8.446860 12.709533 -4.653506 -0.248354 0.776168 0.579555 0 0
    1 10.993189 8.136109 -2.082985 -0.145231 0.640427 0.754163 0 0
    1 19.890195 6.249717 -2.385789 -0.238852 0.501656 0.831439 0 0
  phy
    1 22.795009 6.578858 -5.479330 -0.801627 0.037604 0.596641 0 0
    1 8.446860 12.709533 -4.653506 -0.248354 0.776168 0.579555 0 0
    1 19.890195 6.249717 -2.385789 -0.238852 0.501656 0.831439 0 0
  phy
    1 19.890195 6.249717 -2.385789 -0.238852 0.501656 0.831439 0 0
    1 22.838675 5.946198 -4.533947 -0.864602 -0.445814 0.231760 0 0
    1 22.795009 6.578858 -5.479330 -0.801627 0.037604 0.596641 0 0
  phy
    1 19.892882 5.695097 -2.217597 -0.101798 -0.994007 -0.039847 0 0
    1 22.791328 1.820386 -4.532490 0.284999 -0.771979 -0.568176 0 0
    1 22.860976 3.883065 -3.679917 0.970431 0.188702 -0.150516 0 0
  phy
    1 -6.533631 11.211285 -3.665142 -0.156930 0.835034 0.527344 0 0
    1 -21.361777 5.447597 -1.664939 -0.271913 -0.185477 0.944278 0 0
    1 10.993189 8.136109 -2.082985 -0.145231 0.640427 0.754163 0 0
  phy
    1 -6.678817 11.211999 -6.359851 -0.285624 0.434637 0.854113 0 0
    1 5.543710 12.837060 -6.746559 0.794688 0.123546 0.594312 0 0
    1 -6.806156 10.229128 -6.678079 -0.170952 -0.519735 0.837049 0 0
  phy
    1 -6.806156 10.229128 -6.678079 -0.170952 -0.519735 0.837049 0 0
    1 5.543710 12.837060 -6.746559 0.794688 0.123546 0.594312 0 0
    1 8.321229 12.710151 -6.985291 0.234749 0.757095 0.609672 0 0
  phy
    1 -6.678817 11.211999 -6.359851 -0.285624 0.434637 0.854113 0 0
    1 -6.418522 11.495978 -5.724126 0.419350 0.680118 0.601319 0 0
    1 5.543710 12.837060 -6.746559 0.794688 0.123546 0.594312 0 0
  phy
    1 -21.468640 2.444646 -2.263380 -0.119069 -0.835202 -0.536899 0 0
    1 1.050927 1.702942 -1.033121 -0.111673 -0.816445 -0.566522 0 0
    1 -21.426266 3.337953 -1.667526 -0.066326 -0.948170 -0.310766 0 0
  phy
    1 -21.468640 2.444646 -2.263380 -0.119069 -0.835202 -0.536899 0 0
    1 7.200205 -8.546112 -8.104304 0.178726 -0.632076 -0.754014 0 0
    1 1.050927 1.702942 -1.033121 -0.111673 -0.816445 -0.566522 0 0
  phy
    1 -6.678817 11.211999 -6.359851 -0.285624 0.434637 0.854113 0 0
    1 -6.806156 10.229128 -6.678079 -0.170952 -0.519735 0.837049 0 0
    1 -21.675870 5.447131 -6.749980 0.097538 0.183604 0.978149 0 0
  phy
    1 -6.678817 11.211999 -6.359851 -0.285624 0.434637 0.854113 0 0
    1 -23.094462 6.745985 -5.093934 -0.637705 0.544284 0.545057 0 0
    1 -6.418522 11.495978 -5.724126 0.419350 0.680118 0.601319 0 0
  phy
    1 -23.098225 1.881811 -4.126062 -0.573122 -0.619113 -0.536871 0 0
    1 -23.185912 2.622771 -5.911545 -0.575902 -0.711795 -0.402100 0 0
    1 7.200205 -8.546112 -8.104304 0.178726 -0.632076 -0.754014 0 0
  phy
    1 -23.043962 2.074001 -3.159975 0.315428 -0.620621 -0.717869 0 0
    1 -23.098225 1.881811 -4.126062 -0.573122 -0.619113 -0.536871 0 0
    1 7.200205 -8.546112 -8.104304 0.178726 -0.632076 -0.754014 0 0
  phy
    1 -23.185912 2.622771 -5.911545 -0.575902 -0.711795 -0.402100 0 0
    1 -23.205986 3.443118 -6.459117 -0.968013 -0.008779 -0.250748 0 0
    1 7.200205 -8.546112 -8.104304 0.178726 -0.632076 -0.754014 0 0
  phy
    1 22.571804 5.000987 -9.285251 -0.684064 0.676487 0.272803 0 0
    1 6.960280 7.865753 -8.404248 -0.010119 0.935980 0.351908 0 0
    1 8.321229 12.710151 -6.985291 0.234749 0.757095 0.609672 0 0
  phy
    1 6.960280 7.865753 -8.404248 -0.010119 0.935980 0.351908 0 0
    1 22.571804 5.000987 -9.285251 -0.684064 0.676487 0.272803 0 0
    1 22.547044 3.884610 -9.506624 0.909073 -0.416535 -0.009177 0 0
  phy
    1 22.616691 5.947289 -8.654051 0.627082 0.556784 0.544756 0 0
    1 22.571804 5.000987 -9.285251 -0.684064 0.676487 0.272803 0 0
    1 8.321229 12.710151 -6.985291 0.234749 0.757095 0.609672 0 0
  phy
    1 22.733147 1.188226 -5.477426 0.873623 0.393070 -0.286841 0 0
    1 22.791328 1.820386 -4.532490 0.284999 -0.771979 -0.568176 0 0
    1 7.200205 -8.546112 -8.104304 0.178726 -0.632076 -0.754014 0 0
  phy
    1 22.670530 0.966449 -6.592239 0.682752 0.687563 -0.247201 0 0
    1 22.733147 1.188226 -5.477426 0.873623 0.393070 -0.286841 0 0
    1 7.200205 -8.546112 -8.104304 0.178726 -0.632076 -0.754014 0 0
  phy
    1 1.050927 1.702942 -1.033121 -0.111673 -0.816445 -0.566522 0 0
    1 7.200205 -8.546112 -8.104304 0.178726 -0.632076 -0.754014 0 0
    1 2.464530 0.799097 -1.587957 0.179419 -0.027184 -0.983397 0 0
  phy
    1 22.569344 1.821479 -8.652595 0.555214 0.819819 -0.140122 0 0
    1 22.613010 1.188817 -7.707210 0.876499 0.467515 -0.114797 0 0
    1 7.200205 -8.546112 -8.104304 0.178726 -0.632076 -0.754014 0 0
  phy
    1 22.613010 1.188817 -7.707210 0.876499 0.467515 -0.114797 0 0
    1 22.670530 0.966449 -6.592239 0.682752 0.687563 -0.247201 0 0
    1 7.200205 -8.546112 -8.104304 0.178726 -0.632076 -0.754014 0 0
  phy
    1 22.546180 2.768116 -9.284463 0.998623 -0.001354 -0.052441 0 0
    1 22.569344 1.821479 -8.652595 0.555214 0.819819 -0.140122 0 0
    1 7.200205 -8.546112 -8.104304 0.178726 -0.632076 -0.754014 0 0
  phy
    1 22.546180 2.768116 -9.284463 0.998623 -0.001354 -0.052441 0 0
    1 7.200205 -8.546112 -8.104304 0.178726 -0.632076 -0.754014 0 0
    1 22.547044 3.884610 -9.506624 0.909073 -0.416535 -0.009177 0 0
  phy
    1 -6.806156 10.229128 -6.678079 -0.170952 -0.519735 0.837049 0 0
    1 6.960280 7.865753 -8.404248 -0.010119 0.935980 0.351908 0 0
    1 -21.675870 5.447131 -6.749980 0.097538 0.183604 0.978149 0 0
  phy
    1 6.960280 7.865753 -8.404248 -0.010119 0.935980 0.351908 0 0
    1 -6.806156 10.229128 -6.678079 -0.170952 -0.519735 0.837049 0 0
    1 8.321229 12.710151 -6.985291 0.234749 0.757095 0.609672 0 0
  phy
    1 10.993189 8.136109 -2.082985 -0.145231 0.640427 0.754163 0 0
    1 -21.361777 5.447597 -1.664939 -0.271913 -0.185477 0.944278 0 0
    1 1.061236 2.601391 -1.033438 0.041030 0.596879 0.801281 0 0
  phy
    1 22.616691 5.947289 -8.654051 0.627082 0.556784 0.544756 0 0
    1 8.321229 12.710151 -6.985291 0.234749 0.757095 0.609672 0 0
    1 22.674872 6.579449 -7.709114 0.286123 0.734150 0.615757 0 0
  phy
    1 22.674872 6.579449 -7.709114 0.286123 0.734150 0.615757 0 0
    1 8.321229 12.710151 -6.985291 0.234749 0.757095 0.609672 0 0
    1 22.737489 6.801227 -6.594300 -0.563624 0.038054 0.825155 0 0
  phy
    1 -21.675870 5.447131 -6.749980 0.097538 0.183604 0.978149 0 0
    1 6.960280 7.865753 -8.404248 -0.010119 0.935980 0.351908 0 0
    1 -21.699243 4.393271 -6.958954 0.026287 0.996918 -0.073917 0 0
  phy
    1 -21.699243 4.393271 -6.958954 0.026287 0.996918 -0.073917 0 0
    1 6.960280 7.865753 -8.404248 -0.010119 0.935980 0.351908 0 0
    1 22.547044 3.884610 -9.506624 0.909073 -0.416535 -0.009177 0 0
  phy
    1 -21.699243 4.393271 -6.958954 0.026287 0.996918 -0.073917 0 0
    1 7.203684 -7.912615 -8.174881 -0.002769 -0.953682 -0.300804 0 0
    1 7.200205 -8.546112 -8.104304 0.178726 -0.632076 -0.754014 0 0
  phy
    1 7.203684 -7.912615 -8.174881 -0.002769 -0.953682 -0.300804 0 0
    1 -21.699243 4.393271 -6.958954 0.026287 0.996918 -0.073917 0 0
    1 22.547044 3.884610 -9.506624 0.909073 -0.416535 -0.009177 0 0
  phy
    1 7.200205 -8.546112 -8.104304 0.178726 -0.632076 -0.754014 0 0
    1 7.203684 -7.912615 -8.174881 -0.002769 -0.953682 -0.300804 0 0
    1 22.547044 3.884610 -9.506624 0.909073 -0.416535 -0.009177 0 0
end
