// Created by Crowbar 0.58
version 1
nodes
  0 "Bip01" -1
  1 "Bip01 Pelvis" 0
  2 "Bip01 L Thigh" 1
  3 "Bip01 L Calf" 2
  4 "Bip01 L Foot" 3
  5 "Bip01 R Thigh" 1
  6 "Bip01 R Calf" 5
  7 "Bip01 R Foot" 6
  8 "Bip01 Spine" 1
  9 "Bip01 Spine1" 8
  10 "Bip01 Spine2" 9
  11 "Bip01 Spine3" 10
  12 "Bip01 Neck" 11
  13 "Bip01 Head" 12
  14 "Bone09" 13
  15 "Bone10" 14
  16 "Bone12" 13
  17 "Bone13" 16
  18 "Bip01 L Clavicle" 12
  19 "Bip01 L UpperArm" 18
  20 "Bip01 L Forearm" 19
  21 "Bip01 L Hand" 20
  22 "Bip01 L Finger0" 21
  23 "Bip01 L Finger01" 22
  24 "Bip01 L Finger02" 23
  25 "Bip01 L Finger1" 21
  26 "Bip01 L Finger11" 25
  27 "Bip01 L Finger12" 26
  28 "Bip01 L Finger2" 21
  29 "Bip01 L Finger21" 28
  30 "Bip01 L Finger22" 29
  31 "Bip01 L Finger3" 21
  32 "Bip01 L Finger31" 31
  33 "Bip01 L Finger32" 32
  34 "Bip01 R Clavicle" 12
  35 "Bip01 R UpperArm" 34
  36 "Bip01 R Forearm" 35
  37 "Bip01 R Hand" 36
  38 "Bip01 R Finger0" 37
  39 "Bip01 R Finger01" 38
  40 "Bip01 R Finger02" 39
  41 "Bip01 R Finger1" 37
  42 "Bip01 R Finger11" 41
  43 "Bip01 R Finger12" 42
  44 "Bip01 R Finger2" 37
  45 "Bip01 R Finger21" 44
  46 "Bip01 R Finger22" 45
  47 "Bip01 R Finger3" 37
  48 "Bip01 R Finger31" 47
  49 "Bip01 R Finger32" 48
  50 "Bone01" 10
  51 "Bone03" 10
  52 "Bone05" 9
  53 "Bone07" 9
end
skeleton
  time 0
    0 -1.830322 0.045498 37.881886 0.000000 0.000000 -1.570939
    1 -0.082034 -0.007813 0.000000 0.000000 -1.570451 -1.570795
    2 -0.000008 0.000008 4.504590 -3.141573 0.000169 2.841088
    3 18.184614 0.000000 0.000000 0.000000 0.000000 -0.370505
    4 16.862095 0.000000 0.000000 -0.000026 0.000196 0.069927
    5 0.000011 -0.000005 -4.504589 3.315603 0.020477 3.007750
    6 18.184610 0.000000 0.000000 0.000000 0.000000 -0.430193
    7 16.862091 0.000000 0.000000 -0.175274 -0.002921 0.294734
    8 1.576611 -0.003992 0.000002 -0.000004 -0.000001 0.000646
    9 5.015457 -0.003840 0.000000 0.087197 -0.000034 0.000000
    10 4.822693 -0.003838 0.000000 0.104590 -0.003703 0.034716
    11 4.822556 -0.004685 0.000000 0.000000 0.000000 0.000000
    12 5.883453 -0.001475 0.000000 0.000000 0.000000 -0.052333
    13 1.854832 0.000000 0.000000 -0.181600 0.062109 0.342627
    14 4.577744 2.974503 -4.899295 0.000000 -1.570796 2.810149
    15 -0.576364 -6.294613 1.187798 0.000000 0.000000 0.000000
    16 4.598343 3.014902 4.786890 0.000000 -1.570796 2.810149
    17 0.671572 -6.281569 1.205063 0.000000 0.000000 0.000000
    18 0.988842 0.018080 3.418189 -0.000014 -1.370796 -3.090042
    19 5.304816 0.000000 0.000000 0.628159 0.978929 0.833576
    20 18.707375 0.000000 -0.000002 0.000000 0.000000 -1.197914
    21 13.951651 0.000000 -0.000004 0.063680 -0.128470 -0.643804
    22 -0.620571 0.325967 -1.592585 1.860746 0.900460 0.815947
    23 3.570904 0.000002 -0.000001 0.000000 0.000000 0.261650
    24 2.779234 -0.000001 0.000000 0.000000 0.000000 0.662870
    25 5.246642 0.034821 -2.517332 -0.190705 0.169759 -0.410222
    26 6.439503 -0.000001 0.000000 0.000000 0.000000 0.139617
    27 3.098978 0.000000 0.000000 0.000000 0.000000 0.750101
    28 5.603584 -0.087752 -0.344059 -0.045427 -0.041435 0.690308
    29 4.928793 0.000000 -0.000004 0.000000 0.000000 1.116382
    30 6.254896 0.000002 -0.000002 0.000000 0.000000 0.680324
    31 5.434063 -0.010812 1.636232 0.109201 -0.311105 -0.158269
    32 4.854518 0.000000 0.000002 0.000000 0.000000 1.046591
    33 5.521277 0.000000 0.000000 0.000000 0.000000 1.360649
    34 -0.000004 0.001486 -3.418189 -0.000014 1.370796 -3.090069
    35 5.304816 0.000000 0.000000 0.478956 -1.116402 -0.009627
    36 18.340565 0.000000 -0.000002 0.000000 0.000000 -1.229007
    37 14.370207 0.000000 0.000002 0.107872 0.060868 0.439523
    38 -0.620573 0.325966 1.592587 -2.192627 -1.214130 1.142214
    39 3.927999 -0.000001 0.000000 0.000000 0.000000 -0.017417
    40 2.779240 0.000001 0.000000 0.000000 0.000000 0.662888
    41 5.246641 0.034821 2.517334 -0.311150 -0.180377 1.056646
    42 6.313238 0.000002 0.000002 0.000000 0.000000 0.610603
    43 3.098980 0.000000 0.000001 0.000000 0.000000 0.540796
    44 5.603580 -0.087754 0.344059 0.000285 0.009970 -0.505660
    45 4.532814 0.000000 -0.000002 0.000000 0.000000 0.697778
    46 6.615754 0.000002 0.000000 0.000000 0.000000 1.029136
    47 5.434061 -0.010812 -1.636234 -0.202339 0.240315 -0.678777
    48 4.623351 0.000001 -0.000002 0.000000 0.000000 0.662825
    49 5.521277 0.000000 0.000000 0.000000 0.000000 0.558248
    50 4.170006 3.279094 -1.198655 1.551575 -1.309014 1.554530
    51 3.754124 3.204277 1.399633 -1.589912 -1.544647 4.695946
    52 0.050228 4.476613 -0.976787 1.570361 -1.335222 1.570477
    53 0.921745 4.255628 1.163094 -1.570990 -1.387545 4.711950
  time 1
    0 -1.830322 0.045498 37.881886 0.000000 0.000000 -1.570939
    1 -0.082034 -0.007813 0.000000 0.000000 -1.570451 -1.570795
    2 -0.000008 0.000008 4.504590 -3.141573 0.000169 2.841088
    3 18.184614 0.000000 0.000000 0.000000 0.000000 -0.370505
    4 16.862095 0.000000 0.000000 -0.000026 0.000196 0.069927
    5 0.000011 -0.000005 -4.504589 3.315603 0.020477 3.007750
    6 18.184610 0.000000 0.000000 0.000000 0.000000 -0.430193
    7 16.862091 0.000000 0.000000 -0.175274 -0.002921 0.294734
    8 1.576611 -0.003992 0.000002 -0.000004 -0.000001 0.000646
    9 5.015457 -0.003840 0.000000 0.087197 -0.000034 0.000000
    10 4.822693 -0.003838 0.000000 0.104590 -0.003703 0.034716
    11 4.822556 -0.004685 0.000000 0.000000 0.000000 0.000000
    12 5.883453 -0.001475 0.000000 0.000000 0.000000 -0.052333
    13 1.854832 0.000000 0.000000 -0.181600 0.062109 0.342627
    14 4.577744 2.974503 -4.899295 0.000000 -1.570796 2.810149
    15 -0.576364 -6.294613 1.187798 0.000000 0.000000 0.000000
    16 4.598343 3.014902 4.786890 0.000000 -1.570796 2.810149
    17 0.671572 -6.281569 1.205063 0.000000 0.000000 0.000000
    18 0.988842 0.018080 3.418189 -0.000014 -1.370796 -3.090042
    19 5.304816 0.000000 0.000000 0.628159 0.978929 0.833576
    20 18.707375 0.000000 -0.000002 0.000000 0.000000 -1.197914
    21 13.951651 0.000000 -0.000004 0.063680 -0.128470 -0.643804
    22 -0.620571 0.325967 -1.592585 1.860746 0.900460 0.815947
    23 3.570904 0.000002 -0.000001 0.000000 0.000000 0.261650
    24 2.779234 -0.000001 0.000000 0.000000 0.000000 0.662870
    25 5.246642 0.034821 -2.517332 -0.190705 0.169759 -0.410222
    26 6.439503 -0.000001 0.000000 0.000000 0.000000 0.139617
    27 3.098978 0.000000 0.000000 0.000000 0.000000 0.750101
    28 5.603584 -0.087752 -0.344059 -0.045427 -0.041435 0.690308
    29 4.928793 0.000000 -0.000004 0.000000 0.000000 1.116382
    30 6.254896 0.000002 -0.000002 0.000000 0.000000 0.680324
    31 5.434063 -0.010812 1.636232 0.109201 -0.311105 -0.158269
    32 4.854518 0.000000 0.000002 0.000000 0.000000 1.046591
    33 5.521277 0.000000 0.000000 0.000000 0.000000 1.360649
    34 -0.000004 0.001486 -3.418189 -0.000014 1.370796 -3.090069
    35 5.304816 0.000000 0.000000 0.478956 -1.116402 -0.009627
    36 18.340565 0.000000 -0.000002 0.000000 0.000000 -1.229007
    37 14.370207 0.000000 0.000002 0.107872 0.060868 0.439523
    38 -0.620573 0.325966 1.592587 -2.192627 -1.214130 1.142214
    39 3.927999 -0.000001 0.000000 0.000000 0.000000 -0.017417
    40 2.779240 0.000001 0.000000 0.000000 0.000000 0.662888
    41 5.246641 0.034821 2.517334 -0.311150 -0.180377 1.056646
    42 6.313238 0.000002 0.000002 0.000000 0.000000 0.610603
    43 3.098980 0.000000 0.000001 0.000000 0.000000 0.540796
    44 5.603580 -0.087754 0.344059 0.000285 0.009970 -0.505660
    45 4.532814 0.000000 -0.000002 0.000000 0.000000 0.697778
    46 6.615754 0.000002 0.000000 0.000000 0.000000 1.029136
    47 5.434061 -0.010812 -1.636234 -0.202339 0.240315 -0.678777
    48 4.623351 0.000001 -0.000002 0.000000 0.000000 0.662825
    49 5.521277 0.000000 0.000000 0.000000 0.000000 0.558248
    50 4.170006 3.279094 -1.198655 1.551575 -1.309014 1.554530
    51 3.754124 3.204277 1.399633 -1.589912 -1.544647 4.695946
    52 0.050228 4.476613 -0.976787 1.570361 -1.335222 1.570477
    53 0.921745 4.255628 1.163094 -1.570990 -1.387545 4.711950
  time 2
    0 -2.144348 0.045498 36.375040 0.000000 -0.000671 -1.570939
    1 -0.632832 -0.105472 0.000000 0.000000 -1.544504 -1.570795
    2 -0.000008 0.000008 4.504590 -3.144361 0.013870 2.700433
    3 18.184614 0.000000 0.000000 0.000000 0.000000 -0.684274
    4 16.862095 0.000000 0.000000 -0.003396 -0.012406 0.242432
    5 0.000011 -0.000005 -4.504589 3.310320 0.059909 2.879585
    6 18.184610 0.000000 0.000000 0.000000 0.000000 -0.741308
    7 16.862091 0.000000 0.000000 -0.178502 -0.012432 0.476868
    8 1.576611 -0.003992 0.039066 -0.000614 -0.026285 0.023522
    9 5.015457 -0.003840 0.000000 0.087137 -0.003734 0.042417
    10 4.822693 -0.003838 0.000000 0.104805 -0.019055 0.070677
    11 4.822556 -0.004685 0.000000 0.000372 -0.011481 0.033145
    12 5.883453 -0.001475 0.000000 0.000000 0.000000 -0.052333
    13 1.854832 0.000000 0.000000 0.026331 0.059098 0.359423
    14 4.577744 2.974503 -4.899295 2.110082 -1.345441 0.210367
    15 -0.576364 -6.294613 1.187798 0.575448 0.000000 0.000000
    16 4.598343 3.014902 4.786890 -1.146876 -1.445420 3.348554
    17 0.671572 -6.281569 1.205063 0.191937 0.000000 0.000000
    18 0.988842 0.018080 3.418189 0.276101 -1.363175 -3.360405
    19 5.304816 0.000000 0.000000 0.287336 1.098080 0.532468
    20 18.707375 0.000000 -0.000002 0.000000 0.000000 -1.052481
    21 13.951651 0.000000 -0.000004 0.063585 -0.135226 -0.651983
    22 -0.620571 0.325967 -1.592585 1.860125 0.898824 0.815213
    23 3.570904 0.000002 -0.000001 0.000000 0.000000 0.263407
    24 2.779234 -0.000001 0.000000 0.000000 0.000000 0.664656
    25 5.246642 0.034821 -2.517332 -0.149712 0.206738 -0.192155
    26 6.439503 -0.000001 0.000000 0.000000 0.000000 0.141355
    27 3.098978 0.000000 0.000000 0.000000 0.000000 0.751855
    28 5.603584 -0.087752 -0.344059 -0.044588 -0.042310 0.670209
    29 4.928793 0.000000 -0.000004 0.000000 0.000000 1.118168
    30 6.254896 0.000002 -0.000002 0.000000 0.000000 0.682090
    31 5.434063 -0.010812 1.636232 0.062001 -0.323398 -0.007189
    32 4.854518 0.000000 0.000002 0.000000 0.000000 1.048364
    33 5.521277 0.000000 0.000000 0.000000 0.000000 1.362355
    34 -0.000004 0.001486 -3.418189 -0.276156 1.363146 -3.360547
    35 5.304816 0.000000 0.000000 0.841081 -1.093540 -0.311862
    36 18.340565 0.000000 -0.000002 0.000000 0.000000 -1.059683
    37 14.370207 0.000000 0.000002 0.113066 0.020658 0.436834
    38 -0.620573 0.325966 1.592587 -2.070610 -1.132524 1.010040
    39 3.927999 -0.000001 0.000000 0.000000 0.000000 0.078745
    40 2.779240 0.000001 0.000000 0.000000 0.000000 0.759050
    41 5.246641 0.034821 2.517334 -0.299544 -0.199335 0.995335
    42 6.313238 0.000002 0.000002 0.000000 0.000000 0.613005
    43 3.098980 0.000000 0.000001 0.000000 0.000000 0.543209
    44 5.603580 -0.087754 0.344059 0.002358 0.009670 -0.292299
    45 4.532814 0.000000 -0.000002 0.000000 0.000000 0.700173
    46 6.615754 0.000002 0.000000 0.000000 0.000000 1.031637
    47 5.434061 -0.010812 -1.636234 -0.132208 0.284439 -0.409876
    48 4.623351 0.000001 -0.000002 0.000000 0.000000 0.665300
    49 5.521277 0.000000 0.000000 0.000000 0.000000 0.560684
    50 4.170006 3.279094 -1.198655 1.550454 -1.554369 1.555937
    51 3.754124 3.204277 1.399633 1.551530 -1.433449 1.554470
    52 0.050228 4.476613 -0.976787 1.570361 -1.552093 1.570477
    53 0.921745 4.255628 1.163094 1.570549 -1.483877 1.570531
  time 3
    0 -2.467346 0.045498 34.883890 0.000000 -0.002300 -1.570939
    1 -1.171911 -0.187506 0.000000 0.000000 -1.518210 -1.570795
    2 -0.000008 0.000008 4.504590 -3.150378 0.025183 2.609309
    3 18.184614 0.000000 0.000000 0.000000 0.000000 -0.892594
    4 16.862095 0.000000 0.000000 -0.005061 -0.026372 0.358073
    5 0.000011 -0.000005 -4.504589 3.301681 0.089008 2.795670
    6 18.184610 0.000000 0.000000 0.000000 0.000000 -0.956965
    7 16.862091 0.000000 0.000000 -0.180826 -0.023635 0.608370
    8 1.576611 -0.003992 0.082036 -0.002387 -0.052531 0.046467
    9 5.015457 -0.003840 0.000000 0.086881 -0.007434 0.084787
    10 4.822693 -0.003838 0.000000 0.104518 -0.034432 0.106690
    11 4.822556 -0.004685 0.000000 0.000360 -0.022998 0.066291
    12 5.883453 -0.001475 0.000000 0.000000 0.000000 -0.052333
    13 1.854832 0.000000 0.000000 -0.262920 0.070046 0.373617
    14 4.577744 2.974503 -4.899295 1.858793 -1.133686 -0.040060
    15 -0.576364 -6.294613 1.187798 1.150896 0.000000 0.000000
    16 4.598343 3.014902 4.786890 -1.450981 -1.331332 3.039692
    17 0.671572 -6.281569 1.205063 0.382367 0.000000 0.000000
    18 0.988842 0.018080 3.418189 0.534863 -1.339406 -3.613031
    19 5.304816 0.000000 0.000000 -0.212487 1.133976 0.072007
    20 18.707375 0.000000 -0.000002 0.000000 0.000000 -0.897981
    21 13.951651 0.000000 -0.000004 0.063394 -0.150041 -0.669954
    22 -0.620571 0.325967 -1.592585 1.858881 0.895078 0.813485
    23 3.570904 0.000002 -0.000001 0.000000 0.000000 0.267321
    24 2.779234 -0.000001 0.000000 0.000000 0.000000 0.668548
    25 5.246642 0.034821 -2.517332 -0.096425 0.236044 0.049529
    26 6.439503 -0.000001 0.000000 0.000000 0.000000 0.145273
    27 3.098978 0.000000 0.000000 0.000000 0.000000 0.755750
    28 5.603584 -0.087752 -0.344059 -0.043713 -0.043185 0.650430
    29 4.928793 0.000000 -0.000004 0.000000 0.000000 1.122055
    30 6.254896 0.000002 -0.000002 0.000000 0.000000 0.685929
    31 5.434063 -0.010812 1.636232 0.008473 -0.328961 0.159428
    32 4.854518 0.000000 0.000002 0.000000 0.000000 1.052297
    33 5.521277 0.000000 0.000000 0.000000 0.000000 1.366274
    34 -0.000004 0.001486 -3.418189 -0.534781 1.339444 -3.613183
    35 5.304816 0.000000 0.000000 1.157137 -1.008075 -0.561842
    36 18.340565 0.000000 -0.000002 0.000000 0.000000 -0.873990
    37 14.370207 0.000000 0.000002 0.124886 -0.022684 0.435588
    38 -0.620573 0.325966 1.592587 -1.981535 -1.036395 0.909394
    39 3.927999 -0.000001 0.000000 0.000000 0.000000 0.185582
    40 2.779240 0.000001 0.000000 0.000000 0.000000 0.865899
    41 5.246641 0.034821 2.517334 -0.286217 -0.218336 0.930890
    42 6.313238 0.000002 0.000002 0.000000 0.000000 0.618358
    43 3.098980 0.000000 0.000001 0.000000 0.000000 0.548550
    44 5.603580 -0.087754 0.344059 0.004551 0.008855 -0.058445
    45 4.532814 0.000000 -0.000002 0.000000 0.000000 0.705521
    46 6.615754 0.000002 0.000000 0.000000 0.000000 1.036948
    47 5.434061 -0.010812 -1.636234 -0.043680 0.309917 -0.109681
    48 4.623351 0.000001 -0.000002 0.000000 0.000000 0.670636
    49 5.521277 0.000000 0.000000 0.000000 0.000000 0.565994
    50 4.170006 3.279094 -1.198655 -1.589211 -1.342024 4.696315
    51 3.754124 3.204277 1.399633 1.551530 -1.269914 1.554470
    52 0.050228 4.476613 -0.976787 -1.571018 -1.372737 4.711884
    53 0.921745 4.255628 1.163094 1.570549 -1.213688 1.570531
  time 4
    0 -2.794830 0.045498 33.392740 0.000000 -0.003978 -1.570939
    1 -1.679739 -0.230476 0.000000 0.000000 -1.497561 -1.570795
    2 -0.000008 0.000008 4.504590 -3.155465 0.030839 2.536830
    3 18.184614 0.000000 0.000000 0.000000 0.000000 -1.065478
    4 16.862095 0.000000 0.000000 -0.005923 -0.039900 0.457187
    5 0.000011 -0.000005 -4.504589 3.293840 0.108794 2.734675
    6 18.184610 0.000000 0.000000 0.000000 0.000000 -1.130275
    7 16.862091 0.000000 0.000000 -0.182789 -0.034152 0.720831
    8 1.576611 -0.003992 0.113287 -0.005212 -0.073083 0.071266
    9 5.015457 -0.003840 0.000000 0.086534 -0.010708 0.122265
    10 4.822693 -0.003838 0.000000 0.103667 -0.038135 0.137776
    11 4.822556 -0.004685 0.000000 0.000000 -0.023490 0.093266
    12 5.883453 -0.001475 0.000000 0.000000 0.000000 -0.052333
    13 1.854832 0.000000 0.000000 -0.039517 0.067485 0.385347
    14 4.577744 2.974503 -4.899295 1.613637 -0.994879 -0.173512
    15 -0.576364 -6.294613 1.187798 1.404914 0.000000 0.000000
    16 4.598343 3.014902 4.786890 -1.480062 -1.265475 2.754531
    17 0.671572 -6.281569 1.205063 0.572797 0.000000 0.000000
    18 0.988842 0.018080 3.418189 0.736005 -1.303802 -3.808324
    19 5.304816 0.000000 0.000000 -0.660361 1.082819 -0.338111
    20 18.707375 0.000000 -0.000002 0.000000 0.000000 -0.743482
    21 13.951651 0.000000 -0.000004 0.063585 -0.164828 -0.687924
    22 -0.620571 0.325967 -1.592585 1.857389 0.891313 0.811671
    23 3.570904 0.000002 -0.000001 0.000000 0.000000 0.271194
    24 2.779234 -0.000001 0.000000 0.000000 0.000000 0.672440
    25 5.246642 0.034821 -2.517332 -0.037148 0.251979 0.293770
    26 6.439503 -0.000001 0.000000 0.000000 0.000000 0.149167
    27 3.098978 0.000000 0.000000 0.000000 0.000000 0.759644
    28 5.603584 -0.087752 -0.344059 -0.042850 -0.044060 0.630606
    29 4.928793 0.000000 -0.000004 0.000000 0.000000 1.125943
    30 6.254896 0.000002 -0.000002 0.000000 0.000000 0.689845
    31 5.434063 -0.010812 1.636232 -0.045297 -0.326077 0.326294
    32 4.854518 0.000000 0.000002 0.000000 0.000000 1.056198
    33 5.521277 0.000000 0.000000 0.000000 0.000000 1.370192
    34 -0.000004 0.001486 -3.418189 -0.736169 1.303768 -3.808324
    35 5.304816 0.000000 0.000000 1.337864 -0.882441 -0.677238
    36 18.340565 0.000000 -0.000002 0.000000 0.000000 -0.688221
    37 14.370207 0.000000 0.000002 0.136706 -0.066026 0.433752
    38 -0.620573 0.325966 1.592587 -1.921357 -0.937074 0.837395
    39 3.927999 -0.000001 0.000000 0.000000 0.000000 0.292516
    40 2.779240 0.000001 0.000000 0.000000 0.000000 0.972841
    41 5.246641 0.034821 2.517334 -0.271544 -0.236432 0.865988
    42 6.313238 0.000002 0.000002 0.000000 0.000000 0.623752
    43 3.098980 0.000000 0.000001 0.000000 0.000000 0.553891
    44 5.603580 -0.087754 0.344059 0.006469 0.007621 0.175371
    45 4.532814 0.000000 -0.000002 0.000000 0.000000 0.710836
    46 6.615754 0.000002 0.000000 0.000000 0.000000 1.042290
    47 5.434061 -0.010812 -1.636234 0.049122 0.309139 0.192842
    48 4.623351 0.000001 -0.000002 0.000000 0.000000 0.675936
    49 5.521277 0.000000 0.000000 0.000000 0.000000 0.571334
    50 4.170006 3.279094 -1.198655 -1.589211 -1.230495 4.696315
    51 3.754124 3.204277 1.399633 1.551530 -1.195579 1.554470
    52 0.050228 4.476613 -0.976787 -1.570924 -1.274117 4.711884
    53 0.921745 4.255628 1.163094 1.570549 -1.090863 1.570531
  time 5
    0 -3.108856 0.045498 31.896358 0.000000 -0.004745 -1.570939
    1 -2.175848 -0.187506 0.000000 0.000000 -1.486223 -1.570795
    2 -0.000008 0.000008 4.504590 -3.156614 0.030132 2.476972
    3 18.184614 0.000000 0.000000 0.000000 0.000000 -1.222040
    4 16.862095 0.000000 0.000000 -0.006478 -0.051502 0.553291
    5 0.000011 -0.000005 -4.504589 3.289906 0.119683 2.692671
    6 18.184610 0.000000 0.000000 0.000000 0.000000 -1.276503
    7 16.862091 0.000000 0.000000 -0.185449 -0.041606 0.825556
    8 1.576611 -0.003992 0.132819 -0.008121 -0.084171 0.096615
    9 5.015457 -0.003840 0.000000 0.086126 -0.013726 0.157297
    10 4.822693 -0.003838 0.000000 0.102576 -0.020458 0.168308
    11 4.822556 -0.004685 0.000000 -0.000431 -0.002756 0.117717
    12 5.883453 -0.001475 0.000000 0.000000 0.000000 -0.052333
    13 1.854832 0.000000 0.000000 -0.242363 0.089146 0.383795
    14 4.577744 2.974503 -4.899295 1.314908 -0.929199 -0.111912
    15 -0.576364 -6.294613 1.187798 1.045482 0.000000 0.000000
    16 4.598343 3.014902 4.786890 -0.965312 -1.206043 2.518298
    17 0.671572 -6.281569 1.205063 0.764902 0.000000 0.000000
    18 0.988842 0.018080 3.418189 0.876651 -1.263909 -3.943122
    19 5.304816 0.000000 0.000000 -1.001471 0.998131 -0.638426
    20 18.707375 0.000000 -0.000002 0.000000 0.000000 -0.598048
    21 13.951651 0.000000 -0.000004 0.063680 -0.171584 -0.696163
    22 -0.620571 0.325967 -1.592585 1.856830 0.889618 0.810893
    23 3.570904 0.000002 -0.000001 0.000000 0.000000 0.272991
    24 2.779234 -0.000001 0.000000 0.000000 0.000000 0.674203
    25 5.246642 0.034821 -2.517332 0.019223 0.253936 0.518205
    26 6.439503 -0.000001 0.000000 0.000000 0.000000 0.150930
    27 3.098978 0.000000 0.000000 0.000000 0.000000 0.761428
    28 5.603584 -0.087752 -0.344059 -0.041963 -0.044899 0.610506
    29 4.928793 0.000000 -0.000004 0.000000 0.000000 1.127728
    30 6.254896 0.000002 -0.000002 0.000000 0.000000 0.691611
    31 5.434063 -0.010812 1.636232 -0.093101 -0.316164 0.477472
    32 4.854518 0.000000 0.000002 0.000000 0.000000 1.057971
    33 5.521277 0.000000 0.000000 0.000000 0.000000 1.371962
    34 -0.000004 0.001486 -3.418189 -0.876776 1.263902 -3.943138
    35 5.304816 0.000000 0.000000 1.405769 -0.737363 -0.691118
    36 18.340565 0.000000 -0.000002 0.000000 0.000000 -0.518821
    37 14.370207 0.000000 0.000002 0.142258 -0.106123 0.430145
    38 -0.620573 0.325966 1.592587 -1.882779 -0.846176 0.787754
    39 3.927999 -0.000001 0.000000 0.000000 0.000000 0.388678
    40 2.779240 0.000001 0.000000 0.000000 0.000000 1.069003
    41 5.246641 0.034821 2.517334 -0.256341 -0.252929 0.803082
    42 6.313238 0.000002 0.000002 0.000000 0.000000 0.626071
    43 3.098980 0.000000 0.000001 0.000000 0.000000 0.556305
    44 5.603580 -0.087754 0.344059 0.007931 0.006075 0.388695
    45 4.532814 0.000000 -0.000002 0.000000 0.000000 0.713231
    46 6.615754 0.000002 0.000000 0.000000 0.000000 1.044636
    47 5.434061 -0.010812 -1.636234 0.129934 0.285476 0.467189
    48 4.623351 0.000001 -0.000002 0.000000 0.000000 0.678377
    49 5.521277 0.000000 0.000000 0.000000 0.000000 0.573740
    50 4.170006 3.279094 -1.198655 -1.589211 -1.380614 4.696221
    51 3.754124 3.204277 1.399633 1.551530 -1.300940 1.554470
    52 0.050228 4.476613 -0.976787 -1.571018 -1.410962 4.711884
    53 0.921745 4.255628 1.163094 1.570549 -1.263359 1.570531
  time 6
    0 -3.409424 0.045498 30.368584 0.000000 -0.003595 -1.570939
    1 -2.625080 -0.093753 0.000000 0.000000 -1.480567 -1.570795
    2 -0.000008 0.000008 4.504590 -3.154804 0.026036 2.432318
    3 18.184614 0.000000 0.000000 0.000000 0.000000 -1.367864
    4 16.862095 0.000000 0.000000 -0.006669 -0.061788 0.655469
    5 0.000011 -0.000005 -4.504589 3.288558 0.125150 2.671247
    6 18.184610 0.000000 0.000000 0.000000 0.000000 -1.403020
    7 16.862091 0.000000 0.000000 -0.187669 -0.045584 0.932391
    8 1.576611 -0.003992 0.136725 -0.011114 -0.089565 0.123751
    9 5.015457 -0.003840 0.000000 0.085659 -0.016352 0.187205
    10 4.822693 -0.003838 0.000000 0.102276 0.008797 0.193861
    11 4.822556 -0.004685 0.000000 -0.000324 0.028943 0.135976
    12 5.883453 -0.001475 0.000000 0.000000 0.000000 -0.052333
    13 1.854832 0.000000 0.000000 -0.060619 0.116555 0.376355
    14 4.577744 2.974503 -4.899295 1.056239 -0.879526 0.054976
    15 -0.576364 -6.294613 1.187798 0.364562 0.000000 0.000000
    16 4.598343 3.014902 4.786890 -0.296261 -1.138623 2.441178
    17 0.671572 -6.281569 1.205063 0.960357 0.000000 0.000000
    18 0.988842 0.018080 3.418189 0.968114 -1.227251 -4.029983
    19 5.304816 0.000000 0.000000 -1.234288 0.910720 -0.826400
    20 18.707375 0.000000 -0.000002 0.000000 0.000000 -0.470594
    21 13.951651 0.000000 -0.000004 0.063585 -0.162190 -0.684700
    22 -0.620571 0.325967 -1.592585 1.857762 0.892062 0.811973
    23 3.570904 0.000002 -0.000001 0.000000 0.000000 0.270475
    24 2.779234 -0.000001 0.000000 0.000000 0.000000 0.671684
    25 5.246642 0.034821 -2.517332 0.064574 0.246471 0.700821
    26 6.439503 -0.000001 0.000000 0.000000 0.000000 0.148432
    27 3.098978 0.000000 0.000000 0.000000 0.000000 0.758930
    28 5.603584 -0.087752 -0.344059 -0.041040 -0.045750 0.589764
    29 4.928793 0.000000 -0.000004 0.000000 0.000000 1.125229
    30 6.254896 0.000002 -0.000002 0.000000 0.000000 0.689154
    31 5.434063 -0.010812 1.636232 -0.130022 -0.303207 0.598415
    32 4.854518 0.000000 0.000002 0.000000 0.000000 1.055456
    33 5.521277 0.000000 0.000000 0.000000 0.000000 1.369434
    34 -0.000004 0.001486 -3.418189 -0.968281 1.227273 -4.029899
    35 5.304816 0.000000 0.000000 1.411324 -0.617000 -0.656350
    36 18.340565 0.000000 -0.000002 0.000000 0.000000 -0.382539
    37 14.370207 0.000000 0.000002 0.135274 -0.140012 0.423914
    38 -0.620573 0.325966 1.592587 -1.859517 -0.774821 0.755696
    39 3.927999 -0.000001 0.000000 0.000000 0.000000 0.463371
    40 2.779240 0.000001 0.000000 0.000000 0.000000 1.143698
    41 5.246641 0.034821 2.517334 -0.241337 -0.267237 0.744961
    42 6.313238 0.000002 0.000002 0.000000 0.000000 0.622741
    43 3.098980 0.000000 0.000001 0.000000 0.000000 0.552902
    44 5.603580 -0.087754 0.344059 0.008854 0.004625 0.560998
    45 4.532814 0.000000 -0.000002 0.000000 0.000000 0.709885
    46 6.615754 0.000002 0.000000 0.000000 0.000000 1.041271
    47 5.434061 -0.010812 -1.636234 0.188260 0.251415 0.686248
    48 4.623351 0.000001 -0.000002 0.000000 0.000000 0.674995
    49 5.521277 0.000000 0.000000 0.000000 0.000000 0.570366
    50 4.170006 3.279094 -1.198655 1.551481 -1.477100 1.554812
    51 3.754124 3.204277 1.399633 1.551530 -1.495502 1.554558
    52 0.050228 4.476613 -0.976787 1.570455 -1.475616 1.570477
    53 0.921745 4.255628 1.163094 -1.570916 -1.558393 4.711950
  time 7
    0 -3.669617 0.045498 28.798952 0.000000 0.000000 -1.570939
    1 -2.972747 -0.019532 0.000000 0.000000 -1.474886 -1.570795
    2 -0.000008 0.000008 4.504590 -3.151918 0.022306 2.410995
    3 18.184614 0.000000 0.000000 0.000000 0.000000 -1.503379
    4 16.862095 0.000000 0.000000 -0.007129 -0.072317 0.773410
    5 0.000011 -0.000005 -4.504589 3.288558 0.129182 2.678077
    6 18.184610 0.000000 0.000000 0.000000 0.000000 -1.510468
    7 16.862091 0.000000 0.000000 -0.189296 -0.045675 1.050803
    8 1.576611 -0.003992 0.144538 -0.015103 -0.094747 0.158305
    9 5.015457 -0.003840 0.000000 0.085447 -0.017409 0.199852
    10 4.822693 -0.003838 0.000000 0.102816 0.032047 0.196212
    11 4.822556 -0.004685 0.000000 0.000036 0.052325 0.130815
    12 5.883453 -0.001475 0.000000 0.000000 0.000000 -0.052333
    13 1.854832 0.000000 0.000000 -0.312133 0.129712 0.369601
    14 4.577744 2.974503 -4.899295 1.092849 -0.861423 0.203181
    15 -0.576364 -6.294613 1.187798 -0.082207 0.000000 0.000000
    16 4.598343 3.014902 4.786890 0.073946 -1.143876 2.400851
    17 0.671572 -6.281569 1.205063 1.160613 0.000000 0.000000
    18 0.988842 0.018080 3.418189 1.021707 -1.200321 -4.079933
    19 5.304816 0.000000 0.000000 -1.334463 0.880413 -0.888477
    20 18.707375 0.000000 -0.000002 0.000000 0.000000 -0.370032
    21 13.951651 0.000000 -0.000004 0.063680 -0.128470 -0.643804
    22 -0.620571 0.325967 -1.592585 1.860746 0.900460 0.815947
    23 3.570904 0.000002 -0.000001 0.000000 0.000000 0.261650
    24 2.779234 -0.000001 0.000000 0.000000 0.000000 0.662870
    25 5.246642 0.034821 -2.517332 0.093319 0.237274 0.820761
    26 6.439503 -0.000001 0.000000 0.000000 0.000000 0.139592
    27 3.098978 0.000000 0.000000 0.000000 0.000000 0.750101
    28 5.603584 -0.087752 -0.344059 -0.040046 -0.046625 0.568196
    29 4.928793 0.000000 -0.000004 0.000000 0.000000 1.116382
    30 6.254896 0.000002 -0.000002 0.000000 0.000000 0.680324
    31 5.434063 -0.010812 1.636232 -0.152514 -0.292791 0.675068
    32 4.854518 0.000000 0.000002 0.000000 0.000000 1.046591
    33 5.521277 0.000000 0.000000 0.000000 0.000000 1.360617
    34 -0.000004 0.001486 -3.418189 -1.021595 1.200311 -4.079935
    35 5.304816 0.000000 0.000000 1.377419 -0.591289 -0.588582
    36 18.340565 0.000000 -0.000002 0.000000 0.000000 -0.294984
    37 14.370207 0.000000 0.000002 0.109215 -0.164561 0.414733
    38 -0.620573 0.325966 1.592587 -1.848392 -0.734026 0.739402
    39 3.927999 -0.000001 0.000000 0.000000 0.000000 0.505847
    40 2.779240 0.000001 0.000000 0.000000 0.000000 1.186193
    41 5.246641 0.034821 2.517334 -0.227635 -0.278979 0.694077
    42 6.313238 0.000002 0.000002 0.000000 0.000000 0.610603
    43 3.098980 0.000000 0.000001 0.000000 0.000000 0.540796
    44 5.603580 -0.087754 0.344059 0.009297 0.003606 0.671751
    45 4.532814 0.000000 -0.000002 0.000000 0.000000 0.697778
    46 6.615754 0.000002 0.000000 0.000000 0.000000 1.029136
    47 5.434061 -0.010812 -1.636234 0.221426 0.222918 0.827210
    48 4.623351 0.000001 -0.000002 0.000000 0.000000 0.662825
    49 5.521277 0.000000 0.000000 0.000000 0.000000 0.558248
    50 4.170006 3.279094 -1.198655 1.551575 -1.309014 1.554530
    51 3.754124 3.204277 1.399633 -1.589912 -1.544647 4.695946
    52 0.050228 4.476613 -0.976787 1.570361 -1.335222 1.570477
    53 0.921745 4.255628 1.163094 -1.570990 -1.387545 4.711950
  time 8
    0 -3.786255 0.045498 27.517087 0.000000 -0.033070 -1.570939
    1 -3.199316 0.031251 0.000000 0.000000 -1.474886 -1.570795
    2 -0.000008 0.000008 4.504590 -3.144532 0.019721 2.531475
    3 18.184614 0.000000 0.000000 0.000000 0.000000 -1.602027
    4 16.862095 0.000000 0.000000 -0.006229 -0.078191 0.959378
    5 0.000011 -0.000005 -4.504589 3.294583 0.125243 2.841136
    6 18.184610 0.000000 0.000000 0.000000 0.000000 -1.533982
    7 16.862091 0.000000 0.000000 -0.182375 -0.027431 1.201941
    8 1.576611 -0.003992 0.148444 -0.022085 -0.093361 0.232704
    9 5.015457 -0.003840 0.000000 0.086021 -0.014323 0.163712
    10 4.822693 -0.003838 0.000000 0.103775 0.037692 0.131586
    11 4.822556 -0.004685 0.000000 -0.000216 0.051258 0.054753
    12 5.883453 -0.001475 0.000000 0.000000 0.000000 -0.052333
    13 1.854832 0.000000 0.000000 -0.199905 0.091707 0.383658
    14 4.577744 2.974503 -4.899295 1.725960 -0.933747 0.263824
    15 -0.576364 -6.294613 1.187798 0.010440 0.000000 0.000000
    16 4.598343 3.014902 4.786890 -0.039221 -1.283405 2.195294
    17 0.671572 -6.281569 1.205063 1.467277 0.000000 0.000000
    18 0.988842 0.018080 3.418189 1.047497 -1.185349 -4.104093
    19 5.304816 0.000000 0.000000 -1.229036 1.013679 -0.761073
    20 18.707375 0.000000 -0.000002 0.000000 0.000000 -0.299943
    21 13.951651 0.000000 -0.000004 0.069595 -0.058682 -0.566491
    22 -0.620571 0.325967 -1.592585 1.869698 0.913431 0.826746
    23 3.570904 0.000002 -0.000001 0.000000 0.000000 0.247275
    24 2.779234 -0.000001 0.000000 0.000000 0.000000 0.648446
    25 5.246642 0.034821 -2.517332 0.107333 0.231351 0.880931
    26 6.439503 -0.000001 0.000000 0.000000 0.000000 0.119977
    27 3.098978 0.000000 0.000000 0.000000 0.000000 0.735713
    28 5.603584 -0.087752 -0.344059 -0.039123 -0.047404 0.548830
    29 4.928793 0.000000 -0.000004 0.000000 0.000000 1.106822
    30 6.254896 0.000002 -0.000002 0.000000 0.000000 0.665928
    31 5.434063 -0.010812 1.636232 -0.162389 -0.287548 0.709609
    32 4.854518 0.000000 0.000002 0.000000 0.000000 1.037887
    33 5.521277 0.000000 0.000000 0.000000 0.000000 1.346207
    34 -0.000004 0.001486 -3.418189 -1.047534 1.185389 -4.104009
    35 5.304816 0.000000 0.000000 1.241132 -0.755881 -0.411473
    36 18.340565 0.000000 -0.000002 0.000000 0.000000 -0.266967
    37 14.370207 0.000000 0.000002 0.055308 -0.181915 0.407191
    38 -0.620573 0.325966 1.592587 -1.850920 -0.724869 0.742130
    39 3.927999 -0.000001 0.000000 0.000000 0.000000 0.514109
    40 2.779240 0.000001 0.000000 0.000000 0.000000 1.194457
    41 5.246641 0.034821 2.517334 -0.216779 -0.287396 0.655330
    42 6.313238 0.000002 0.000002 0.000000 0.000000 0.589318
    43 3.098980 0.000000 0.000001 0.000000 0.000000 0.519472
    44 5.603580 -0.087754 0.344059 0.009477 0.003151 0.721667
    45 4.532814 0.000000 -0.000002 0.000000 0.000000 0.676551
    46 6.615754 0.000002 0.000000 0.000000 0.000000 1.007892
    47 5.434061 -0.010812 -1.636234 0.235720 0.207732 0.893981
    48 4.623351 0.000001 -0.000002 0.000000 0.000000 0.641554
    49 5.521277 0.000000 0.000000 0.000000 0.000000 0.536917
    50 4.170006 3.279094 -1.198655 1.551668 -1.411303 1.554812
    51 3.754124 3.204277 1.399633 1.551530 -1.481321 1.554558
    52 0.050228 4.476613 -0.976787 1.570361 -1.462647 1.570477
    53 0.921745 4.255628 1.163094 -1.570916 -1.564508 4.711950
  time 9
    0 -3.790741 0.045498 25.162640 0.000000 0.043038 -1.570939
    1 -3.078219 0.062502 0.000000 0.000000 -1.474886 -1.570795
    2 -0.000008 0.000008 4.504590 -3.136437 0.017600 2.774155
    3 18.184614 0.000000 0.000000 0.000000 0.000000 -1.641257
    4 16.862095 0.000000 0.000000 -0.006363 -0.081799 1.215454
    5 0.000011 -0.000005 -4.504589 3.309082 0.102168 3.078194
    6 18.184610 0.000000 0.000000 0.000000 0.000000 -1.484322
    7 16.862091 0.000000 0.000000 -0.171013 -0.030494 1.271776
    8 1.576611 -0.003992 0.148444 -0.025714 -0.092437 0.271930
    9 5.015457 -0.003840 0.000000 0.086549 -0.010572 0.120511
    10 4.822693 -0.003838 0.000000 0.104578 0.033832 0.061203
    11 4.822556 -0.004685 0.000000 0.000024 0.040100 -0.019910
    12 5.883453 -0.001475 0.000000 0.000000 0.000000 -0.052333
    13 1.854832 0.000000 0.000000 -0.324155 0.052803 0.370787
    14 4.577744 2.974503 -4.899295 2.806734 -1.047985 0.112457
    15 -0.576364 -6.294613 1.187798 0.336941 0.000000 0.000000
    16 4.598343 3.014902 4.786890 -0.541535 -1.519569 2.126488
    17 0.671572 -6.281569 1.205063 1.786949 0.000000 0.000000
    18 0.988842 0.018080 3.418189 1.057180 -1.179542 -4.112818
    19 5.304816 0.000000 0.000000 -0.848009 1.185348 -0.364353
    20 18.707375 0.000000 -0.000002 0.000000 0.000000 -0.252633
    21 13.951651 0.000000 -0.000004 0.088770 0.042535 -0.458132
    22 -0.620571 0.325967 -1.592585 1.885487 0.928314 0.845233
    23 3.570904 0.000002 -0.000001 0.000000 0.000000 0.229665
    24 2.779234 -0.000001 0.000000 0.000000 0.000000 0.630863
    25 5.246642 0.034821 -2.517332 0.112206 0.229064 0.902492
    26 6.439503 -0.000001 0.000000 0.000000 0.000000 0.090175
    27 3.098978 0.000000 0.000000 0.000000 0.000000 0.718114
    28 5.603584 -0.087752 -0.344059 -0.038368 -0.048003 0.533044
    29 4.928793 0.000000 -0.000004 0.000000 0.000000 1.100435
    30 6.254896 0.000002 -0.000002 0.000000 0.000000 0.648346
    31 5.434063 -0.010812 1.636232 -0.164364 -0.286472 0.716586
    32 4.854518 0.000000 0.000002 0.000000 0.000000 1.033503
    33 5.521277 0.000000 0.000000 0.000000 0.000000 1.328605
    34 -0.000004 0.001486 -3.418189 -1.057010 1.179491 -4.112883
    35 5.304816 0.000000 0.000000 0.937622 -0.978732 -0.059841
    36 18.340565 0.000000 -0.000002 0.000000 0.000000 -0.285848
    37 14.370207 0.000000 0.000002 -0.023851 -0.195318 0.404240
    38 -0.620573 0.325966 1.592587 -1.865947 -0.737653 0.761759
    39 3.927999 -0.000001 0.000000 0.000000 0.000000 0.497708
    40 2.779240 0.000001 0.000000 0.000000 0.000000 1.178068
    41 5.246641 0.034821 2.517334 -0.208924 -0.293098 0.627695
    42 6.313238 0.000002 0.000002 0.000000 0.000000 0.561375
    43 3.098980 0.000000 0.000001 0.000000 0.000000 0.491580
    44 5.603580 -0.087754 0.344059 0.009501 0.003067 0.730599
    45 4.532814 0.000000 -0.000002 0.000000 0.000000 0.648597
    46 6.615754 0.000002 0.000000 0.000000 0.000000 0.979978
    47 5.434061 -0.010812 -1.636234 0.239373 0.203479 0.911858
    48 4.623351 0.000001 -0.000002 0.000000 0.000000 0.613727
    49 5.521277 0.000000 0.000000 0.000000 0.000000 0.509014
    50 4.170006 3.279094 -1.198655 -1.588557 -1.512297 4.696034
    51 3.754124 3.204277 1.399633 1.551706 -1.272578 1.554646
    52 0.050228 4.476613 -0.976787 -1.571018 -1.436900 4.711884
    53 0.921745 4.255628 1.163094 1.570549 -1.251128 1.570531
  time 10
    0 -3.781769 0.045498 21.238561 0.000000 0.305150 -1.570939
    1 -2.625080 0.050783 0.000000 0.000000 -1.474886 -1.570795
    2 -0.000008 0.000008 4.504590 -3.130029 0.014723 2.956883
    3 18.184614 0.000000 0.000000 0.000000 0.000000 -1.588067
    4 16.862095 0.000000 0.000000 -0.002649 -0.084651 1.266844
    5 0.000011 -0.000005 -4.504589 3.311366 0.087062 3.239101
    6 18.184610 0.000000 0.000000 0.000000 0.000000 -1.336047
    7 16.862091 0.000000 0.000000 -0.155699 -0.039914 1.139084
    8 1.572704 -0.003992 0.144538 -0.022085 -0.093361 0.232704
    9 5.015457 -0.003840 0.000000 0.086669 -0.009583 0.109111
    10 4.822693 -0.003838 0.000000 0.104602 0.028487 0.036722
    11 4.822556 -0.004685 0.000000 0.000144 0.032275 -0.034705
    12 5.883453 -0.001475 0.000000 0.000000 0.000000 -0.052333
    13 1.854832 0.000000 0.000000 -0.166709 -0.003364 0.144868
    14 4.577744 2.974503 -4.899295 -2.620711 -1.093689 -0.152819
    15 -0.576364 -6.294613 1.187798 0.535478 0.000000 0.000000
    16 4.598343 3.014902 4.786890 2.848966 -1.447287 4.747221
    17 0.671572 -6.281569 1.205063 1.829323 0.000000 0.000000
    18 0.988842 0.018080 3.418189 1.055838 -1.180326 -4.111667
    19 5.304816 0.000000 0.000000 -0.264628 1.232349 0.233898
    20 18.707375 0.000000 -0.000002 0.000000 0.000000 -0.220941
    21 13.951651 0.000000 -0.000004 0.125023 0.157089 -0.327625
    22 -0.620571 0.325967 -1.592585 1.904695 0.945798 0.867694
    23 3.570904 0.000002 -0.000001 0.000000 0.000000 0.208940
    24 2.779234 -0.000001 0.000000 0.000000 0.000000 0.610167
    25 5.246642 0.034821 -2.517332 0.109792 0.230207 0.891661
    26 6.439503 -0.000001 0.000000 0.000000 0.000000 0.055475
    27 3.098978 0.000000 0.000000 0.000000 0.000000 0.697364
    28 5.603584 -0.087752 -0.344059 -0.037649 -0.048590 0.517763
    29 4.928793 0.000000 -0.000004 0.000000 0.000000 1.092541
    30 6.254896 0.000002 -0.000002 0.000000 0.000000 0.627616
    31 5.434063 -0.010812 1.636232 -0.159930 -0.288899 0.700850
    32 4.854518 0.000000 0.000002 0.000000 0.000000 1.027893
    33 5.521277 0.000000 0.000000 0.000000 0.000000 1.307906
    34 -0.000004 0.001486 -3.418189 -1.055670 1.180356 -4.111656
    35 5.304816 0.000000 0.000000 0.462675 -1.103654 0.462164
    36 18.340565 0.000000 -0.000002 0.000000 0.000000 -0.334574
    37 14.370207 0.000000 0.000002 -0.116442 -0.204630 0.401682
    38 -0.620573 0.325966 1.592587 -1.888342 -0.766878 0.791468
    39 3.927999 -0.000001 0.000000 0.000000 0.000000 0.463298
    40 2.779240 0.000001 0.000000 0.000000 0.000000 1.143629
    41 5.246641 0.034821 2.517334 -0.202547 -0.297454 0.605928
    42 6.313238 0.000002 0.000002 0.000000 0.000000 0.528627
    43 3.098980 0.000000 0.000001 0.000000 0.000000 0.458822
    44 5.603580 -0.087754 0.344059 0.009429 0.003295 0.706692
    45 4.532814 0.000000 -0.000002 0.000000 0.000000 0.615788
    46 6.615754 0.000002 0.000000 0.000000 0.000000 0.947186
    47 5.434061 -0.010812 -1.636234 0.235032 0.208510 0.890627
    48 4.623351 0.000001 -0.000002 0.000000 0.000000 0.580913
    49 5.521277 0.000000 0.000000 0.000000 0.000000 0.476270
    50 4.170006 3.279094 -1.198655 -1.588744 -1.392086 4.696503
    51 3.754124 3.204277 1.399633 1.551706 -1.160773 1.554646
    52 0.050228 4.476613 -0.976787 -1.570924 -1.305926 4.711884
    53 0.921745 4.255628 1.163094 1.570549 -1.075853 1.570531
  time 11
    0 -3.750366 0.045498 17.178448 0.000000 0.621324 -1.570939
    1 -2.070376 0.039064 0.000000 0.000000 -1.474886 -1.570795
    2 -0.000008 0.000008 4.504590 -3.126190 0.013212 2.960899
    3 18.184614 0.000000 0.000000 0.000000 0.000000 -1.469590
    4 16.862095 0.000000 0.000000 0.012207 -0.086576 0.946517
    5 0.000011 -0.000005 -4.504589 3.295464 0.101519 3.217211
    6 18.184610 0.000000 0.000000 0.000000 0.000000 -1.131152
    7 16.862091 0.000000 0.000000 -0.138009 -0.050202 0.743712
    8 1.576611 -0.003992 0.144538 -0.016904 -0.094447 0.177403
    9 5.015457 -0.003840 0.000000 0.086730 -0.009037 0.103157
    10 4.822693 -0.003838 0.000000 0.104554 0.022112 0.017842
    11 4.822556 -0.004685 0.000000 0.000180 0.023909 -0.039958
    12 5.883453 -0.001475 0.000000 0.000000 0.000000 -0.052333
    13 1.854832 0.000000 0.000000 -0.249518 -0.025631 -0.110672
    14 4.577744 2.974503 -4.899295 -2.252211 -1.170160 5.717264
    15 -0.576364 -6.294613 1.187798 0.405188 0.000000 0.000000
    16 4.598343 3.014902 4.786890 2.357844 -1.455405 5.574991
    17 0.671572 -6.281569 1.205063 1.361148 0.000000 0.000000
    18 0.988842 0.018080 3.418189 1.047497 -1.185349 -4.104093
    19 5.304816 0.000000 0.000000 0.263748 1.149309 0.773561
    20 18.707375 0.000000 -0.000002 0.000000 0.000000 -0.197629
    21 13.951651 0.000000 -0.000004 0.177875 0.266773 -0.182848
    22 -0.620571 0.325967 -1.592585 1.924090 0.966398 0.890198
    23 3.570904 0.000002 -0.000001 0.000000 0.000000 0.185101
    24 2.779234 -0.000001 0.000000 0.000000 0.000000 0.586288
    25 5.246642 0.034821 -2.517332 0.101298 0.234035 0.854857
    26 6.439503 -0.000001 0.000000 0.000000 0.000000 0.021167
    27 3.098978 0.000000 0.000000 0.000000 0.000000 0.673552
    28 5.603584 -0.087752 -0.344059 -0.036762 -0.049273 0.500096
    29 4.928793 0.000000 -0.000004 0.000000 0.000000 1.078339
    30 6.254896 0.000002 -0.000002 0.000000 0.000000 0.603853
    31 5.434063 -0.010812 1.636232 -0.150176 -0.293958 0.667002
    32 4.854518 0.000000 0.000002 0.000000 0.000000 1.015418
    33 5.521277 0.000000 0.000000 0.000000 0.000000 1.284047
    34 -0.000004 0.001486 -3.418189 -1.047534 1.185389 -4.104009
    35 5.304816 0.000000 0.000000 -0.118582 -1.072103 1.082418
    36 18.340565 0.000000 -0.000002 0.000000 0.000000 -0.395939
    37 14.370207 0.000000 0.000002 -0.210556 -0.210076 0.395124
    38 -0.620573 0.325966 1.592587 -1.913266 -0.807284 0.824057
    39 3.927999 -0.000001 0.000000 0.000000 0.000000 0.417581
    40 2.779240 0.000001 0.000000 0.000000 0.000000 1.097879
    41 5.246641 0.034821 2.517334 -0.196126 -0.301641 0.583990
    42 6.313238 0.000002 0.000002 0.000000 0.000000 0.492718
    43 3.098980 0.000000 0.000001 0.000000 0.000000 0.422938
    44 5.603580 -0.087754 0.344059 0.009225 0.003750 0.658015
    45 4.532814 0.000000 -0.000002 0.000000 0.000000 0.579994
    46 6.615754 0.000002 0.000000 0.000000 0.000000 0.911305
    47 5.434061 -0.010812 -1.636234 0.224126 0.220189 0.839483
    48 4.623351 0.000001 -0.000002 0.000000 0.000000 0.545031
    49 5.521277 0.000000 0.000000 0.000000 0.000000 0.440386
    50 4.170006 3.279094 -1.198655 -1.588837 -1.399028 4.696409
    51 3.754124 3.204277 1.399633 1.551706 -1.167667 1.554646
    52 0.050228 4.476613 -0.976787 -1.571018 -1.313871 4.711884
    53 0.921745 4.255628 1.163094 1.570549 -1.086569 1.570531
  time 12
    0 -3.727936 0.045498 13.442725 0.000000 0.959064 -1.570939
    1 -1.445357 0.007813 0.000000 0.000000 -1.474886 -1.570795
    2 -0.000008 0.000008 4.504590 -3.122546 0.011920 2.937090
    3 18.184614 0.000000 0.000000 0.000000 0.000000 -1.341734
    4 16.862095 0.000000 0.000000 0.030221 -0.085333 0.560734
    5 0.000011 -0.000005 -4.504589 3.276095 0.119497 3.169219
    6 18.184610 0.000000 0.000000 0.000000 0.000000 -0.901633
    7 16.862091 0.000000 0.000000 -0.121688 -0.056192 0.293003
    8 1.576611 -0.003992 0.148444 -0.010421 -0.095371 0.109256
    9 5.015457 -0.003840 0.000000 0.086760 -0.008798 0.100295
    10 4.822693 -0.003838 0.000000 0.104518 0.014897 0.005930
    11 4.822556 -0.004685 0.000000 0.000156 0.015484 -0.036678
    12 5.883453 -0.001475 0.000000 0.000000 0.000000 -0.052333
    13 1.854832 0.000000 0.000000 -0.074021 -0.029189 -0.242846
    14 4.577744 2.974503 -4.899295 -2.021335 -1.297240 5.126165
    15 -0.576364 -6.294613 1.187798 0.146875 0.000000 0.000000
    16 4.598343 3.014902 4.786890 1.596672 -1.450456 0.685677
    17 0.671572 -6.281569 1.205063 0.615618 0.000000 0.000000
    18 0.988842 0.018080 3.418189 1.036279 -1.192063 -4.093451
    19 5.304816 0.000000 0.000000 0.526074 1.005009 1.040736
    20 18.707375 0.000000 -0.000002 0.000000 0.000000 -0.175384
    21 13.951651 0.000000 -0.000004 0.240363 0.355551 -0.035743
    22 -0.620571 0.325967 -1.592585 1.939755 0.991196 0.908599
    23 3.570904 0.000002 -0.000001 0.000000 0.000000 0.158386
    24 2.779234 -0.000001 0.000000 0.000000 0.000000 0.559524
    25 5.246642 0.034821 -2.517332 0.088044 0.239231 0.798247
    26 6.439503 -0.000001 0.000000 0.000000 0.000000 -0.007386
    27 3.098978 0.000000 0.000000 0.000000 0.000000 0.646737
    28 5.603584 -0.087752 -0.344059 -0.035611 -0.050076 0.477013
    29 4.928793 0.000000 -0.000004 0.000000 0.000000 1.053108
    30 6.254896 0.000002 -0.000002 0.000000 0.000000 0.576981
    31 5.434063 -0.010812 1.636232 -0.136310 -0.300551 0.619743
    32 4.854518 0.000000 0.000002 0.000000 0.000000 0.990434
    33 5.521277 0.000000 0.000000 0.000000 0.000000 1.257217
    34 -0.000004 0.001486 -3.418189 -1.036144 1.192063 -4.093530
    35 5.304816 0.000000 0.000000 -0.482335 -0.923464 1.471948
    36 18.340565 0.000000 -0.000002 0.000000 0.000000 -0.452507
    37 14.370207 0.000000 0.000002 -0.294372 -0.212700 0.379843
    38 -0.620573 0.325966 1.592587 -1.934866 -0.854119 0.851795
    39 3.927999 -0.000001 0.000000 0.000000 0.000000 0.367184
    40 2.779240 0.000001 0.000000 0.000000 0.000000 1.047490
    41 5.246641 0.034821 2.517334 -0.187896 -0.306733 0.556469
    42 6.313238 0.000002 0.000002 0.000000 0.000000 0.455460
    43 3.098980 0.000000 0.000001 0.000000 0.000000 0.385709
    44 5.603580 -0.087754 0.344059 0.008986 0.004337 0.592787
    45 4.532814 0.000000 -0.000002 0.000000 0.000000 0.542755
    46 6.615754 0.000002 0.000000 0.000000 0.000000 0.874067
    47 5.434061 -0.010812 -1.636234 0.207834 0.235604 0.767463
    48 4.623351 0.000001 -0.000002 0.000000 0.000000 0.507789
    49 5.521277 0.000000 0.000000 0.000000 0.000000 0.403152
    50 4.170006 3.279094 -1.198655 -1.588837 -1.418579 4.696409
    51 3.754124 3.204277 1.399633 1.551618 -1.187000 1.554646
    52 0.050228 4.476613 -0.976787 -1.571018 -1.336014 4.711884
    53 0.921745 4.255628 1.163094 1.570549 -1.116628 1.570531
  time 13
    0 -3.692047 0.045498 10.214517 0.000000 1.286213 -1.570939
    1 -0.757836 -0.007813 0.000000 0.000000 -1.474886 -1.570795
    2 -0.000008 0.000008 4.504590 -3.119391 0.011091 2.909743
    3 18.184614 0.000000 0.000000 0.000000 0.000000 -1.210514
    4 16.862095 0.000000 0.000000 0.047068 -0.080678 0.188688
    5 0.000011 -0.000005 -4.504589 3.255186 0.137290 3.110095
    6 18.184610 0.000000 0.000000 0.000000 0.000000 -0.712882
    7 16.862091 0.000000 0.000000 -0.108879 -0.059119 -0.124980
    8 1.576611 -0.003992 0.144538 -0.003024 -0.095883 0.031560
    9 5.015457 -0.003840 0.000000 0.086775 -0.008679 0.098495
    10 4.822693 -0.003838 0.000000 0.104554 0.007107 0.002403
    11 4.822556 -0.004685 0.000000 0.000072 0.007383 -0.025920
    12 5.883453 -0.001475 0.000000 0.000000 0.000000 -0.052333
    13 1.854832 0.000000 0.000000 -0.069917 0.037222 -0.045817
    14 4.577744 2.974503 -4.899295 0.000000 -1.570796 2.810149
    15 -0.576364 -6.294613 1.187798 0.000000 0.000000 0.000000
    16 4.598343 3.014902 4.786890 0.000000 -1.570796 2.810149
    17 0.671572 -6.281569 1.205063 0.000000 0.000000 0.000000
    18 0.988842 0.018080 3.418189 1.026213 -1.197846 -4.084056
    19 5.304816 0.000000 0.000000 0.632456 0.870382 1.140788
    20 18.707375 0.000000 -0.000002 0.000000 0.000000 -0.146739
    21 13.951651 0.000000 -0.000004 0.296745 0.412031 0.095540
    22 -0.620571 0.325967 -1.592585 1.947338 1.021199 0.917972
    23 3.570904 0.000002 -0.000001 0.000000 0.000000 0.128597
    24 2.779234 -0.000001 0.000000 0.000000 0.000000 0.529761
    25 5.246642 0.034821 -2.517332 0.071168 0.244687 0.727948
    26 6.439503 -0.000001 0.000000 0.000000 0.000000 -0.024920
    27 3.098978 0.000000 0.000000 0.000000 0.000000 0.616980
    28 5.603584 -0.087752 -0.344059 -0.034041 -0.051179 0.445441
    29 4.928793 0.000000 -0.000004 0.000000 0.000000 1.012129
    30 6.254896 0.000002 -0.000002 0.000000 0.000000 0.547268
    31 5.434063 -0.010812 1.636232 -0.119462 -0.307419 0.563379
    32 4.854518 0.000000 0.000002 0.000000 0.000000 0.947527
    33 5.521277 0.000000 0.000000 0.000000 0.000000 1.227512
    34 -0.000004 0.001486 -3.418189 -1.025998 1.197850 -4.084089
    35 5.304816 0.000000 0.000000 -0.656070 -0.763573 1.651303
    36 18.340565 0.000000 -0.000002 0.000000 0.000000 -0.487453
    37 14.370207 0.000000 0.000002 -0.355980 -0.213744 0.351315
    38 -0.620573 0.325966 1.592587 -1.943896 -0.903023 0.863694
    39 3.927999 -0.000001 0.000000 0.000000 0.000000 0.318786
    40 2.779240 0.000001 0.000000 0.000000 0.000000 0.999132
    41 5.246641 0.034821 2.517334 -0.175937 -0.313635 0.517437
    42 6.313238 0.000002 0.000002 0.000000 0.000000 0.418624
    43 3.098980 0.000000 0.000001 0.000000 0.000000 0.348797
    44 5.603580 -0.087754 0.344059 0.008638 0.004972 0.519039
    45 4.532814 0.000000 -0.000002 0.000000 0.000000 0.505779
    46 6.615754 0.000002 0.000000 0.000000 0.000000 0.837137
    47 5.434061 -0.010812 -1.636234 0.187651 0.251887 0.683762
    48 4.623351 0.000001 -0.000002 0.000000 0.000000 0.470896
    49 5.521277 0.000000 0.000000 0.000000 0.000000 0.366271
    50 4.170006 3.279094 -1.198655 -1.588744 -1.448710 4.696409
    51 3.754124 3.204277 1.399633 1.551618 -1.216812 1.554646
    52 0.050228 4.476613 -0.976787 -1.570924 -1.370280 4.711884
    53 0.921745 4.255628 1.163094 1.570549 -1.162983 1.570531
  time 14
    0 -3.665131 0.045498 7.514751 0.000000 1.570419 -1.571035
    1 -0.050783 -0.039064 0.000000 0.000000 -1.474886 -1.570795
    2 -0.000008 0.000008 4.504590 -3.117287 0.010311 2.903049
    3 18.184614 0.000000 0.000000 0.000000 0.000000 -1.081943
    4 16.862095 0.000000 0.000000 0.058133 -0.075510 -0.090483
    5 0.000011 -0.000005 -4.504589 3.235734 0.151933 3.055367
    6 18.184610 0.000000 0.000000 0.000000 0.000000 -0.630409
    7 16.862091 0.000000 0.000000 -0.099608 -0.061131 -0.422550
    8 1.572704 -0.003992 0.148444 0.004927 -0.095808 -0.052182
    9 5.015457 -0.003840 0.000000 0.086805 -0.008372 0.095495
    10 4.822693 -0.003838 0.000000 0.104637 -0.000983 0.008679
    11 4.822556 -0.004685 0.000000 0.000000 0.000000 -0.008716
    12 5.883453 -0.001475 0.000000 0.000000 0.000000 -0.052333
    13 1.854832 0.000000 0.000000 -0.084372 0.114169 0.308853
    14 4.577744 2.974503 -4.899295 1.695484 -0.199271 1.285650
    15 -0.576364 -6.294613 1.187798 0.003162 0.000000 0.000000
    16 4.598343 3.014902 4.786890 -1.879924 -0.436121 4.507643
    17 0.671572 -6.281569 1.205063 0.169327 0.000000 0.000000
    18 0.988842 0.018080 3.418189 1.021707 -1.200321 -4.079933
    19 5.304816 0.000000 0.000000 0.657762 0.783401 1.141502
    20 18.707375 0.000000 -0.000002 0.000000 0.000000 -0.104457
    21 13.951651 0.000000 -0.000004 0.326319 0.430065 0.187063
    22 -0.620571 0.325967 -1.592585 1.940811 1.057332 0.912098
    23 3.570904 0.000002 -0.000001 0.000000 0.000000 0.095973
    24 2.779234 -0.000001 0.000000 0.000000 0.000000 0.497228
    25 5.246642 0.034821 -2.517332 0.052214 0.249329 0.650429
    26 6.439503 -0.000001 0.000000 0.000000 0.000000 -0.026144
    27 3.098978 0.000000 0.000000 0.000000 0.000000 0.584428
    28 5.603584 -0.087752 -0.344059 -0.031776 -0.052593 0.402350
    29 4.928793 0.000000 -0.000004 0.000000 0.000000 0.950680
    30 6.254896 0.000002 -0.000002 0.000000 0.000000 0.514676
    31 5.434063 -0.010812 1.636232 -0.100921 -0.313829 0.502809
    32 4.854518 0.000000 0.000002 0.000000 0.000000 0.880925
    33 5.521277 0.000000 0.000000 0.000000 0.000000 1.194868
    34 -0.000004 0.001486 -3.418189 -1.021499 1.200311 -4.079935
    35 5.304816 0.000000 0.000000 -0.736042 -0.656812 1.708728
    36 18.340565 0.000000 -0.000002 0.000000 0.000000 -0.483418
    37 14.370207 0.000000 0.000002 -0.383650 -0.213744 0.305670
    38 -0.620573 0.325966 1.592587 -1.927786 -0.949648 0.845353
    39 3.927999 -0.000001 0.000000 0.000000 0.000000 0.279088
    40 2.779240 0.000001 0.000000 0.000000 0.000000 0.959430
    41 5.246641 0.034821 2.517334 -0.158307 -0.322683 0.460969
    42 6.313238 0.000002 0.000002 0.000000 0.000000 0.383852
    43 3.098980 0.000000 0.000001 0.000000 0.000000 0.314021
    44 5.603580 -0.087754 0.344059 0.008230 0.005620 0.444991
    45 4.532814 0.000000 -0.000002 0.000000 0.000000 0.471067
    46 6.615754 0.000002 0.000000 0.000000 0.000000 0.802430
    47 5.434061 -0.010812 -1.636234 0.165602 0.266723 0.597733
    48 4.623351 0.000001 -0.000002 0.000000 0.000000 0.436165
    49 5.521277 0.000000 0.000000 0.000000 0.000000 0.331473
    50 4.170006 3.279094 -1.198655 -1.588744 -1.487412 4.696128
    51 3.754124 3.204277 1.399633 1.551618 -1.255164 1.554646
    52 0.050228 4.476613 -0.976787 -1.571018 -1.414238 4.711884
    53 0.921745 4.255628 1.163094 1.570549 -1.222603 1.570531
  time 15
    0 -3.665131 0.045498 7.509519 0.000000 1.554555 -1.570939
    1 1.164098 -0.132817 0.000000 0.000000 -1.474886 -1.570795
    2 -0.000008 0.000008 4.504590 -3.122643 0.010701 3.015401
    3 18.184614 0.000000 0.000000 0.000000 0.000000 -0.961461
    4 16.862095 0.000000 0.000000 0.032978 -0.083651 0.233620
    5 0.000011 -0.000005 -4.504589 3.228829 0.155408 3.004382
    6 18.184610 0.000000 0.000000 0.000000 0.000000 -1.298262
    7 16.862091 0.000000 0.000000 -0.092687 -0.071694 0.099401
    8 1.572704 -0.003992 0.148444 0.023019 -0.093136 -0.242815
    9 5.015457 -0.003840 0.000000 0.086820 -0.008270 0.093926
    10 4.822693 -0.003838 0.000000 0.103631 -0.015149 0.131050
    11 4.822556 -0.004685 0.000000 -0.000120 -0.001306 0.100583
    12 5.883453 -0.001475 0.000000 0.000000 0.000000 -0.052333
    13 1.854832 0.000000 0.000000 -0.074239 0.174911 1.060503
    14 4.577744 2.974503 -4.899295 1.612871 -0.109735 1.276740
    15 -0.576364 -6.294613 1.187798 0.032036 0.000000 0.000000
    16 4.598343 3.014902 4.786890 -1.777280 -0.148338 4.418864
    17 0.671572 -6.281569 1.205063 0.375780 0.000000 0.000000
    18 0.988842 0.018080 3.418189 1.021707 -1.200321 -4.079933
    19 5.304816 0.000000 0.000000 0.382162 0.877905 0.763175
    20 18.707375 0.000000 -0.000002 0.000000 0.000000 -0.028198
    21 13.951651 0.000000 -0.000004 0.241603 0.333255 0.146526
    22 -0.620571 0.325967 -1.592585 1.866216 1.125359 0.833527
    23 3.570904 0.000002 -0.000001 0.000000 0.000000 0.043382
    24 2.779234 -0.000001 0.000000 0.000000 0.000000 0.444639
    25 5.246642 0.034821 -2.517332 0.010126 0.254387 0.481852
    26 6.439503 -0.000001 0.000000 0.000000 0.000000 0.032162
    27 3.098978 0.000000 0.000000 0.000000 0.000000 0.531809
    28 5.603584 -0.087752 -0.344059 -0.026767 -0.055362 0.308965
    29 4.928793 0.000000 -0.000004 0.000000 0.000000 0.796284
    30 6.254896 0.000002 -0.000002 0.000000 0.000000 0.462083
    31 5.434063 -0.010812 1.636232 -0.062830 -0.323215 0.381322
    32 4.854518 0.000000 0.000002 0.000000 0.000000 0.708424
    33 5.521277 0.000000 0.000000 0.000000 0.000000 1.142283
    34 -0.000004 0.001486 -3.418189 -1.021499 1.200311 -4.079935
    35 5.304816 0.000000 0.000000 -0.630594 -0.849181 1.463375
    36 18.340565 0.000000 -0.000002 0.000000 0.000000 -0.367160
    37 14.370207 0.000000 0.000002 -0.297148 -0.190436 0.183424
    38 -0.620573 0.325966 1.592587 -1.803096 -1.012745 0.701356
    39 3.927999 -0.000001 0.000000 0.000000 0.000000 0.241876
    40 2.779240 0.000001 0.000000 0.000000 0.000000 0.922221
    41 5.246641 0.034821 2.517334 -0.117928 -0.338927 0.336807
    42 6.313238 0.000002 0.000002 0.000000 0.000000 0.346637
    43 3.098980 0.000000 0.000001 0.000000 0.000000 0.276832
    44 5.603580 -0.087754 0.344059 0.007416 0.006686 0.308267
    45 4.532814 0.000000 -0.000002 0.000000 0.000000 0.433862
    46 6.615754 0.000002 0.000000 0.000000 0.000000 0.765222
    47 5.434061 -0.010812 -1.636234 0.119108 0.290050 0.429068
    48 4.623351 0.000001 -0.000002 0.000000 0.000000 0.398958
    49 5.521277 0.000000 0.000000 0.000000 0.000000 0.294268
    50 4.170006 3.279094 -1.198655 -1.588463 -1.532764 4.695565
    51 3.754124 3.204277 1.399633 1.551618 -1.300059 1.554558
    52 0.050228 4.476613 -0.976787 -1.570924 -1.465787 4.711884
    53 0.921745 4.255628 1.163094 1.570549 -1.292422 1.570531
  time 16
    0 -3.665131 0.045498 8.493155 0.000000 1.554028 -1.570939
    1 1.109409 -0.117191 0.000000 0.000000 -1.474886 -1.570795
    2 -0.000008 0.000008 4.504590 -3.128904 0.014626 3.015879
    3 18.184614 0.000000 0.000000 0.000000 0.000000 -0.790223
    4 16.862095 0.000000 0.000000 0.033361 -0.077314 0.083171
    5 0.000011 -0.000005 -4.504589 3.233038 0.152211 2.995121
    6 18.184610 0.000000 0.000000 0.000000 0.000000 -1.515615
    7 16.862091 0.000000 0.000000 -0.047933 -0.070779 0.343364
    8 1.572704 -0.003992 0.144538 0.021135 -0.093573 -0.222550
    9 5.015457 -0.003840 0.000000 0.086941 -0.006906 0.078279
    10 4.822693 -0.003838 0.000000 0.103775 -0.014034 0.120902
    11 4.822556 -0.004685 0.000000 -0.000120 -0.001246 0.093724
    12 5.883453 -0.001475 0.000000 0.000000 0.000000 -0.052333
    13 1.854832 0.000000 0.000000 -0.163658 0.108246 0.612954
    14 4.577744 2.974503 -4.899295 1.504860 -0.208768 1.255759
    15 -0.576364 -6.294613 1.187798 0.080298 0.000000 0.000000
    16 4.598343 3.014902 4.786890 -1.794499 -0.249967 4.360189
    17 0.671572 -6.281569 1.205063 0.584466 0.000000 0.000000
    18 0.988842 0.018080 3.418189 1.021707 -1.200321 -4.079933
    19 5.304816 0.000000 0.000000 -0.075452 0.931498 0.101658
    20 18.707375 0.000000 -0.000002 0.000000 0.000000 0.069241
    21 13.951651 0.000000 -0.000004 0.088389 0.123746 0.024734
    22 -0.620571 0.325967 -1.592585 1.683272 1.211030 0.643212
    23 3.570904 0.000002 -0.000001 0.000000 0.000000 -0.025301
    24 2.779234 -0.000001 0.000000 0.000000 0.000000 0.375910
    25 5.246642 0.034821 -2.517332 -0.053488 0.249069 0.227783
    26 6.439503 -0.000001 0.000000 0.000000 0.000000 0.140841
    27 3.098978 0.000000 0.000000 0.000000 0.000000 0.463138
    28 5.603584 -0.087752 -0.344059 -0.019169 -0.058394 0.175059
    29 4.928793 0.000000 -0.000004 0.000000 0.000000 0.564768
    30 6.254896 0.000002 -0.000002 0.000000 0.000000 0.393405
    31 5.434063 -0.010812 1.636232 -0.005191 -0.329007 0.201838
    32 4.854518 0.000000 0.000002 0.000000 0.000000 0.447949
    33 5.521277 0.000000 0.000000 0.000000 0.000000 1.073645
    34 -0.000004 0.001486 -3.418189 -1.021499 1.200311 -4.079935
    35 5.304816 0.000000 0.000000 -0.093681 -1.025809 0.750382
    36 18.340565 0.000000 -0.000002 0.000000 0.000000 -0.163195
    37 14.370207 0.000000 0.000002 -0.122800 -0.120006 0.007074
    38 -0.620573 0.325966 1.592587 -1.544251 -1.066639 0.409876
    39 3.927999 -0.000001 0.000000 0.000000 0.000000 0.203494
    40 2.779240 0.000001 0.000000 0.000000 0.000000 0.883788
    41 5.246641 0.034821 2.517334 -0.057096 -0.353762 0.158116
    42 6.313238 0.000002 0.000002 0.000000 0.000000 0.308241
    43 3.098980 0.000000 0.000001 0.000000 0.000000 0.238456
    44 5.603580 -0.087754 0.344059 0.005941 0.008005 0.110706
    45 4.532814 0.000000 -0.000002 0.000000 0.000000 0.395475
    46 6.615754 0.000002 0.000000 0.000000 0.000000 0.726810
    47 5.434061 -0.010812 -1.636234 0.044490 0.309825 0.177649
    48 4.623351 0.000001 -0.000002 0.000000 0.000000 0.360530
    49 5.521277 0.000000 0.000000 0.000000 0.000000 0.255890
    50 4.170006 3.279094 -1.198655 1.549707 -1.558922 1.557344
    51 3.754124 3.204277 1.399633 1.551618 -1.349556 1.554558
    52 0.050228 4.476613 -0.976787 -1.570924 -1.522578 4.711884
    53 0.921745 4.255628 1.163094 1.570549 -1.369353 1.570531
  time 17
    0 -3.665131 0.045498 7.875766 0.000000 1.554747 -1.570939
    1 0.949248 -0.093753 0.000000 0.000000 -1.474886 -1.570795
    2 -0.000008 0.000008 4.504590 -3.135288 0.019136 3.000007
    3 18.184614 0.000000 0.000000 0.000000 0.000000 -0.607532
    4 16.862095 0.000000 0.000000 0.036902 -0.069100 -0.139684
    5 0.000011 -0.000005 -4.504589 3.242640 0.145631 2.987917
    6 18.184610 0.000000 0.000000 0.000000 0.000000 -1.117758
    7 16.862091 0.000000 0.000000 0.037082 -0.072837 0.029999
    8 1.572704 -0.003992 0.144538 0.017672 -0.094285 -0.185591
    9 5.015457 -0.003840 0.000000 0.087031 -0.005422 0.061617
    10 4.822693 -0.003838 0.000000 0.104014 -0.011697 0.100259
    11 4.822556 -0.004685 0.000000 -0.000084 -0.001091 0.077622
    12 5.883453 -0.001475 0.000000 0.000000 0.000000 -0.052333
    13 1.854832 0.000000 0.000000 -0.195002 0.019197 0.150482
    14 4.577744 2.974503 -4.899295 1.376149 -0.365857 1.256430
    15 -0.576364 -6.294613 1.187798 0.142341 0.000000 0.000000
    16 4.598343 3.014902 4.786890 -1.824727 -0.423922 4.307533
    17 0.671572 -6.281569 1.205063 0.794770 0.000000 0.000000
    18 0.988842 0.018080 3.418189 1.021707 -1.200321 -4.079933
    19 5.304816 0.000000 0.000000 -0.397080 0.856698 -0.378148
    20 18.707375 0.000000 -0.000002 0.000000 0.000000 0.144357
    21 13.951651 0.000000 -0.000004 -0.013499 -0.054130 -0.050967
    22 -0.620571 0.325967 -1.592585 1.472853 1.264786 0.426895
    23 3.570904 0.000002 -0.000001 0.000000 0.000000 -0.078450
    24 2.779234 -0.000001 0.000000 0.000000 0.000000 0.322726
    25 5.246642 0.034821 -2.517332 -0.100940 0.234156 0.030074
    26 6.439503 -0.000001 0.000000 0.000000 0.000000 0.227039
    27 3.098978 0.000000 0.000000 0.000000 0.000000 0.409984
    28 5.603584 -0.087752 -0.344059 -0.012973 -0.060072 0.070522
    29 4.928793 0.000000 -0.000004 0.000000 0.000000 0.383634
    30 6.254896 0.000002 -0.000002 0.000000 0.000000 0.340197
    31 5.434063 -0.010812 1.636232 0.040034 -0.326695 0.061546
    32 4.854518 0.000000 0.000002 0.000000 0.000000 0.244050
    33 5.521277 0.000000 0.000000 0.000000 0.000000 1.020428
    34 -0.000004 0.001486 -3.418189 -1.021499 1.200311 -4.079935
    35 5.304816 0.000000 0.000000 0.405018 -0.973746 0.115975
    36 18.340565 0.000000 -0.000002 0.000000 0.000000 -0.001941
    37 14.370207 0.000000 0.000002 0.005341 -0.044101 -0.119499
    38 -0.620573 0.325966 1.592587 -1.313581 -1.078255 0.153637
    39 3.927999 -0.000001 0.000000 0.000000 0.000000 0.174469
    40 2.779240 0.000001 0.000000 0.000000 0.000000 0.854727
    41 5.246641 0.034821 2.517334 -0.008200 -0.358012 0.018057
    42 6.313238 0.000002 0.000002 0.000000 0.000000 0.279202
    43 3.098980 0.000000 0.000001 0.000000 0.000000 0.209377
    44 5.603580 -0.087754 0.344059 0.004683 0.008784 -0.043433
    45 4.532814 0.000000 -0.000002 0.000000 0.000000 0.366406
    46 6.615754 0.000002 0.000000 0.000000 0.000000 0.697692
    47 5.434061 -0.010812 -1.636234 -0.016271 0.312478 -0.020139
    48 4.623351 0.000001 -0.000002 0.000000 0.000000 0.331518
    49 5.521277 0.000000 0.000000 0.000000 0.000000 0.226814
    50 4.170006 3.279094 -1.198655 1.551575 -1.506316 1.555280
    51 3.754124 3.204277 1.399633 1.551618 -1.401659 1.554558
    52 0.050228 4.476613 -0.976787 1.570361 -1.559329 1.570477
    53 0.921745 4.255628 1.163094 1.570549 -1.450367 1.570531
  time 18
    0 -3.665131 0.045498 7.106647 0.000000 1.556233 -1.570939
    1 0.718772 -0.070315 0.000000 0.000000 -1.474886 -1.570795
    2 -0.000008 0.000008 4.504590 -3.141402 0.023257 2.979162
    3 18.184614 0.000000 0.000000 0.000000 0.000000 -0.433359
    4 16.862095 0.000000 0.000000 0.040731 -0.060666 -0.374635
    5 0.000011 -0.000005 -4.504589 3.253177 0.138542 2.981088
    6 18.184610 0.000000 0.000000 0.000000 0.000000 -0.611282
    7 16.862091 0.000000 0.000000 0.126461 -0.083720 -0.381872
    8 1.576611 -0.003992 0.148444 0.013100 -0.095034 -0.137503
    9 5.015457 -0.003840 0.000000 0.087122 -0.003939 0.044263
    10 4.822693 -0.003838 0.000000 0.104326 -0.008521 0.072596
    11 4.822556 -0.004685 0.000000 -0.000060 -0.000839 0.055395
    12 5.883453 -0.001475 0.000000 0.000000 0.000000 -0.052333
    13 1.854832 0.000000 0.000000 -0.196818 0.008562 0.145051
    14 4.577744 2.974503 -4.899295 1.227024 -0.445493 1.285171
    15 -0.576364 -6.294613 1.187798 0.212199 0.000000 0.000000
    16 4.598343 3.014902 4.786890 -1.877054 -0.550079 4.271028
    17 0.671572 -6.281569 1.205063 1.006304 0.000000 0.000000
    18 0.988842 0.018080 3.418189 1.021707 -1.200321 -4.079933
    19 5.304816 0.000000 0.000000 -0.378936 0.871170 -0.372123
    20 18.707375 0.000000 -0.000002 0.000000 0.000000 0.156775
    21 13.951651 0.000000 -0.000004 -0.027523 -0.080051 -0.058490
    22 -0.620571 0.325967 -1.592585 1.434001 1.272158 0.387156
    23 3.570904 0.000002 -0.000001 0.000000 0.000000 -0.087195
    24 2.779234 -0.000001 0.000000 0.000000 0.000000 0.314026
    25 5.246642 0.034821 -2.517332 -0.108048 0.231021 -0.000663
    26 6.439503 -0.000001 0.000000 0.000000 0.000000 0.239675
    27 3.098978 0.000000 0.000000 0.000000 0.000000 0.401244
    28 5.603584 -0.087752 -0.344059 -0.011978 -0.060251 0.053910
    29 4.928793 0.000000 -0.000004 0.000000 0.000000 0.355270
    30 6.254896 0.000002 -0.000002 0.000000 0.000000 0.331521
    31 5.434063 -0.010812 1.636232 0.047128 -0.325779 0.039475
    32 4.854518 0.000000 0.000002 0.000000 0.000000 0.212200
    33 5.521277 0.000000 0.000000 0.000000 0.000000 1.011706
    34 -0.000004 0.001486 -3.418189 -1.021499 1.200311 -4.079935
    35 5.304816 0.000000 0.000000 0.383852 -0.965413 0.125705
    36 18.340565 0.000000 -0.000002 0.000000 0.000000 0.022041
    37 14.370207 0.000000 0.000002 0.022445 -0.031572 -0.138715
    38 -0.620573 0.325966 1.592587 -1.277098 -1.078255 0.113318
    39 3.927999 -0.000001 0.000000 0.000000 0.000000 0.169230
    40 2.779240 0.000001 0.000000 0.000000 0.000000 0.849487
    41 5.246641 0.034821 2.517334 -0.000367 -0.358096 -0.004451
    42 6.313238 0.000002 0.000002 0.000000 0.000000 0.273891
    43 3.098980 0.000000 0.000001 0.000000 0.000000 0.204155
    44 5.603580 -0.087754 0.344059 0.004467 0.008903 -0.067865
    45 4.532814 0.000000 -0.000002 0.000000 0.000000 0.361157
    46 6.615754 0.000002 0.000000 0.000000 0.000000 0.692504
    47 5.434061 -0.010812 -1.636234 -0.025853 0.311853 -0.051355
    48 4.623351 0.000001 -0.000002 0.000000 0.000000 0.326252
    49 5.521277 0.000000 0.000000 0.000000 0.000000 0.221591
    50 4.170006 3.279094 -1.198655 1.551668 -1.453040 1.554905
    51 3.754124 3.204277 1.399633 1.551530 -1.454427 1.554646
    52 0.050228 4.476613 -0.976787 1.570455 -1.498824 1.570477
    53 0.921745 4.255628 1.163094 1.570475 -1.532398 1.570531
  time 19
    0 -3.665131 0.045498 6.839809 0.000000 1.558102 -1.570939
    1 0.445326 -0.039064 0.000000 0.000000 -1.474886 -1.570795
    2 -0.000008 0.000008 4.504590 -3.146269 0.026426 2.964245
    3 18.184614 0.000000 0.000000 0.000000 0.000000 -0.287893
    4 16.862095 0.000000 0.000000 0.042990 -0.054037 -0.561588
    5 0.000011 -0.000005 -4.504589 3.261238 0.133074 2.975943
    6 18.184610 0.000000 0.000000 0.000000 0.000000 -0.212547
    7 16.862091 0.000000 0.000000 0.192572 -0.097940 -0.708382
    8 1.572704 -0.003992 0.144538 0.008003 -0.095596 -0.083782
    9 5.015457 -0.003840 0.000000 0.087182 -0.002336 0.026447
    10 4.822693 -0.003838 0.000000 0.104542 -0.004986 0.041442
    11 4.822556 -0.004685 0.000000 -0.000012 -0.000515 0.030095
    12 5.883453 -0.001475 0.000000 0.000000 0.000000 -0.052333
    13 1.854832 0.000000 0.000000 -0.195365 0.021152 0.253172
    14 4.577744 2.974503 -4.899295 1.055281 -0.390648 1.325599
    15 -0.576364 -6.294613 1.187798 0.284085 0.000000 0.000000
    16 4.598343 3.014902 4.786890 -1.970419 -0.571785 4.258127
    17 0.671572 -6.281569 1.205063 1.218172 0.000000 0.000000
    18 0.988842 0.018080 3.418189 1.021707 -1.200321 -4.079933
    19 5.304816 0.000000 0.000000 -0.266060 0.920393 -0.225057
    20 18.707375 0.000000 -0.000002 0.000000 0.000000 0.144357
    21 13.951651 0.000000 -0.000004 -0.013499 -0.054130 -0.050967
    22 -0.620571 0.325967 -1.592585 1.472853 1.264786 0.426895
    23 3.570904 0.000002 -0.000001 0.000000 0.000000 -0.078450
    24 2.779234 -0.000001 0.000000 0.000000 0.000000 0.322726
    25 5.246642 0.034821 -2.517332 -0.100940 0.234156 0.030074
    26 6.439503 -0.000001 0.000000 0.000000 0.000000 0.227039
    27 3.098978 0.000000 0.000000 0.000000 0.000000 0.409984
    28 5.603584 -0.087752 -0.344059 -0.012973 -0.060072 0.070522
    29 4.928793 0.000000 -0.000004 0.000000 0.000000 0.383634
    30 6.254896 0.000002 -0.000002 0.000000 0.000000 0.340197
    31 5.434063 -0.010812 1.636232 0.040034 -0.326695 0.061546
    32 4.854518 0.000000 0.000002 0.000000 0.000000 0.244050
    33 5.521277 0.000000 0.000000 0.000000 0.000000 1.020428
    34 -0.000004 0.001486 -3.418189 -1.021499 1.200311 -4.079935
    35 5.304816 0.000000 0.000000 0.230134 -0.983717 0.309617
    36 18.340565 0.000000 -0.000002 0.000000 0.000000 -0.001941
    37 14.370207 0.000000 0.000002 0.005341 -0.044101 -0.119499
    38 -0.620573 0.325966 1.592587 -1.313509 -1.078255 0.153637
    39 3.927999 -0.000001 0.000000 0.000000 0.000000 0.174469
    40 2.779240 0.000001 0.000000 0.000000 0.000000 0.854727
    41 5.246641 0.034821 2.517334 -0.008200 -0.358012 0.018057
    42 6.313238 0.000002 0.000002 0.000000 0.000000 0.279202
    43 3.098980 0.000000 0.000001 0.000000 0.000000 0.209377
    44 5.603580 -0.087754 0.344059 0.004683 0.008784 -0.043433
    45 4.532814 0.000000 -0.000002 0.000000 0.000000 0.366406
    46 6.615754 0.000002 0.000000 0.000000 0.000000 0.697692
    47 5.434061 -0.010812 -1.636234 -0.016271 0.312478 -0.020179
    48 4.623351 0.000001 -0.000002 0.000000 0.000000 0.331518
    49 5.521277 0.000000 0.000000 0.000000 0.000000 0.226814
    50 4.170006 3.279094 -1.198655 1.551668 -1.401036 1.554812
    51 3.754124 3.204277 1.399633 1.551530 -1.505883 1.554470
    52 0.050228 4.476613 -0.976787 1.570455 -1.439767 1.570477
    53 0.921745 4.255628 1.163094 -1.570916 -1.529215 4.711950
  time 20
    0 -3.665131 0.045498 6.745632 0.000000 1.560019 -1.570939
    1 0.187506 -0.007813 0.000000 0.000000 -1.474886 -1.570795
    2 -0.000008 0.000008 4.504590 -3.142233 0.023842 2.975241
    3 18.184614 0.000000 0.000000 0.000000 0.000000 -0.338863
    4 16.862095 0.000000 0.000000 0.041363 -0.059301 -0.481137
    5 0.000011 -0.000005 -4.504589 3.255488 0.136920 2.979685
    6 18.184610 0.000000 0.000000 0.000000 0.000000 -0.424812
    7 16.862091 0.000000 0.000000 0.145777 -0.087332 -0.547182
    8 1.576611 -0.003992 0.144538 0.002850 -0.095883 -0.030061
    9 5.015457 -0.003840 0.000000 0.087197 -0.000784 0.008631
    10 4.822693 -0.003838 0.000000 0.104625 -0.001390 0.010304
    11 4.822556 -0.004685 0.000000 -0.000012 -0.000252 0.004725
    12 5.883453 -0.001475 0.000000 0.000000 0.000000 -0.052333
    13 1.854832 0.000000 0.000000 -0.190789 0.043263 0.406113
    14 4.577744 2.974503 -4.899295 0.870983 -0.270837 1.356352
    15 -0.576364 -6.294613 1.187798 0.351855 0.000000 0.000000
    16 4.598343 3.014902 4.786890 -2.091334 -0.544392 4.256598
    17 0.671572 -6.281569 1.205063 1.429705 0.000000 0.000000
    18 0.988842 0.018080 3.418189 1.021707 -1.200321 -4.079933
    19 5.304816 0.000000 0.000000 -0.265965 0.934507 -0.232272
    20 18.707375 0.000000 -0.000002 0.000000 0.000000 0.144357
    21 13.951651 0.000000 -0.000004 -0.013499 -0.054130 -0.050967
    22 -0.620571 0.325967 -1.592585 1.472853 1.264786 0.426895
    23 3.570904 0.000002 -0.000001 0.000000 0.000000 -0.078450
    24 2.779234 -0.000001 0.000000 0.000000 0.000000 0.322726
    25 5.246642 0.034821 -2.517332 -0.100940 0.234156 0.030074
    26 6.439503 -0.000001 0.000000 0.000000 0.000000 0.227039
    27 3.098978 0.000000 0.000000 0.000000 0.000000 0.409984
    28 5.603584 -0.087752 -0.344059 -0.012973 -0.060072 0.070522
    29 4.928793 0.000000 -0.000004 0.000000 0.000000 0.383634
    30 6.254896 0.000002 -0.000002 0.000000 0.000000 0.340197
    31 5.434063 -0.010812 1.636232 0.040034 -0.326741 0.061546
    32 4.854518 0.000000 0.000002 0.000000 0.000000 0.244050
    33 5.521277 0.000000 0.000000 0.000000 0.000000 1.020428
    34 -0.000004 0.001486 -3.418189 -1.021499 1.200311 -4.079935
    35 5.304816 0.000000 0.000000 0.213181 -0.971681 0.320776
    36 18.340565 0.000000 -0.000002 0.000000 0.000000 -0.001941
    37 14.370207 0.000000 0.000002 0.005341 -0.044101 -0.119499
    38 -0.620573 0.325966 1.592587 -1.313509 -1.078255 0.153637
    39 3.927999 -0.000001 0.000000 0.000000 0.000000 0.174469
    40 2.779240 0.000001 0.000000 0.000000 0.000000 0.854727
    41 5.246641 0.034821 2.517334 -0.008200 -0.358012 0.018057
    42 6.313238 0.000002 0.000002 0.000000 0.000000 0.279202
    43 3.098980 0.000000 0.000001 0.000000 0.000000 0.209377
    44 5.603580 -0.087754 0.344059 0.004683 0.008784 -0.043433
    45 4.532814 0.000000 -0.000002 0.000000 0.000000 0.366406
    46 6.615754 0.000002 0.000000 0.000000 0.000000 0.697692
    47 5.434061 -0.010812 -1.636234 -0.016271 0.312478 -0.020179
    48 4.623351 0.000001 -0.000002 0.000000 0.000000 0.331518
    49 5.521277 0.000000 0.000000 0.000000 0.000000 0.226814
    50 4.170006 3.279094 -1.198655 1.551481 -1.352380 1.554624
    51 3.754124 3.204277 1.399633 1.551530 -1.554049 1.554558
    52 0.050228 4.476613 -0.976787 1.570455 -1.384505 1.570477
    53 0.921745 4.255628 1.163094 -1.570916 -1.454297 4.711950
  time 21
    0 -3.665131 0.045498 6.677614 0.000000 1.561552 -1.570939
    1 -0.039064 0.007813 0.000000 0.000000 -1.474886 -1.570795
    2 -0.000008 0.000008 4.504590 -3.146269 0.026426 2.964245
    3 18.184614 0.000000 0.000000 0.000000 0.000000 -0.287893
    4 16.862095 0.000000 0.000000 0.042990 -0.054037 -0.561588
    5 0.000011 -0.000005 -4.504589 3.261238 0.133074 2.975943
    6 18.184610 0.000000 0.000000 0.000000 0.000000 -0.212547
    7 16.862091 0.000000 0.000000 0.192572 -0.097940 -0.708382
    8 1.576611 -0.003992 0.144538 -0.001722 -0.095908 0.017958
    9 5.015457 -0.003840 0.000000 0.087197 0.000665 -0.008585
    10 4.822693 -0.003838 0.000000 0.104625 0.001738 -0.017341
    11 4.822556 -0.004685 0.000000 0.000000 0.000000 -0.017433
    12 5.883453 -0.001475 0.000000 0.000000 0.000000 -0.052333
    13 1.854832 0.000000 0.000000 -0.185341 0.061268 0.535320
    14 4.577744 2.974503 -4.899295 0.695502 -0.147725 1.363824
    15 -0.576364 -6.294613 1.187798 0.410080 0.000000 0.000000
    16 4.598343 3.014902 4.786890 -2.210431 -0.517346 4.251246
    17 0.671572 -6.281569 1.205063 1.640512 0.000000 0.000000
    18 0.988842 0.018080 3.418189 1.021707 -1.200321 -4.079933
    19 5.304816 0.000000 0.000000 -0.289552 0.942675 -0.267393
    20 18.707375 0.000000 -0.000002 0.000000 0.000000 0.144357
    21 13.951651 0.000000 -0.000004 -0.013499 -0.054130 -0.050967
    22 -0.620571 0.325967 -1.592585 1.472853 1.264786 0.426895
    23 3.570904 0.000002 -0.000001 0.000000 0.000000 -0.078450
    24 2.779234 -0.000001 0.000000 0.000000 0.000000 0.322726
    25 5.246642 0.034821 -2.517332 -0.100940 0.234156 0.030074
    26 6.439503 -0.000001 0.000000 0.000000 0.000000 0.227039
    27 3.098978 0.000000 0.000000 0.000000 0.000000 0.409984
    28 5.603584 -0.087752 -0.344059 -0.012973 -0.060072 0.070522
    29 4.928793 0.000000 -0.000004 0.000000 0.000000 0.383634
    30 6.254896 0.000002 -0.000002 0.000000 0.000000 0.340197
    31 5.434063 -0.010812 1.636232 0.040034 -0.326695 0.061546
    32 4.854518 0.000000 0.000002 0.000000 0.000000 0.244050
    33 5.521277 0.000000 0.000000 0.000000 0.000000 1.020428
    34 -0.000004 0.001486 -3.418189 -1.021595 1.200311 -4.079935
    35 5.304816 0.000000 0.000000 0.218641 -0.957864 0.304446
    36 18.340565 0.000000 -0.000002 0.000000 0.000000 -0.001941
    37 14.370207 0.000000 0.000002 0.005341 -0.044101 -0.119565
    38 -0.620573 0.325966 1.592587 -1.313581 -1.078255 0.153637
    39 3.927999 -0.000001 0.000000 0.000000 0.000000 0.174469
    40 2.779240 0.000001 0.000000 0.000000 0.000000 0.854727
    41 5.246641 0.034821 2.517334 -0.008200 -0.358012 0.018057
    42 6.313238 0.000002 0.000002 0.000000 0.000000 0.279202
    43 3.098980 0.000000 0.000001 0.000000 0.000000 0.209377
    44 5.603580 -0.087754 0.344059 0.004683 0.008784 -0.043433
    45 4.532814 0.000000 -0.000002 0.000000 0.000000 0.366406
    46 6.615754 0.000002 0.000000 0.000000 0.000000 0.697692
    47 5.434061 -0.010812 -1.636234 -0.016271 0.312478 -0.020179
    48 4.623351 0.000001 -0.000002 0.000000 0.000000 0.331518
    49 5.521277 0.000000 0.000000 0.000000 0.000000 0.226814
    50 4.170006 3.279094 -1.198655 1.551575 -1.309014 1.554530
    51 3.754124 3.204277 1.399633 -1.589912 -1.544647 4.695946
    52 0.050228 4.476613 -0.976787 1.570361 -1.335222 1.570477
    53 0.921745 4.255628 1.163094 -1.570990 -1.387545 4.711950
end
