// Created by Crowbar 0.58
version 1
nodes
  0 "Bip01" -1
  1 "Bip01 Pelvis" 0
  2 "Bip01 L Thigh" 1
  3 "Bip01 L Calf" 2
  4 "Bip01 L Foot" 3
  5 "Bip01 R Thigh" 1
  6 "Bip01 R Calf" 5
  7 "Bip01 R Foot" 6
  8 "Bip01 Spine" 1
  9 "Bip01 Spine1" 8
  10 "Bip01 Spine2" 9
  11 "Bip01 Spine3" 10
  12 "Bip01 Neck" 11
  13 "Bip01 Head" 12
  14 "Bone09" 13
  15 "Bone10" 14
  16 "Bone12" 13
  17 "Bone13" 16
  18 "Bip01 L Clavicle" 12
  19 "Bip01 L UpperArm" 18
  20 "Bip01 L Forearm" 19
  21 "Bip01 L Hand" 20
  22 "Bip01 L Finger0" 21
  23 "Bip01 L Finger01" 22
  24 "Bip01 L Finger02" 23
  25 "Bip01 L Finger1" 21
  26 "Bip01 L Finger11" 25
  27 "Bip01 L Finger12" 26
  28 "Bip01 L Finger2" 21
  29 "Bip01 L Finger21" 28
  30 "Bip01 L Finger22" 29
  31 "Bip01 L Finger3" 21
  32 "Bip01 L Finger31" 31
  33 "Bip01 L Finger32" 32
  34 "Bip01 R Clavicle" 12
  35 "Bip01 R UpperArm" 34
  36 "Bip01 R Forearm" 35
  37 "Bip01 R Hand" 36
  38 "Bip01 R Finger0" 37
  39 "Bip01 R Finger01" 38
  40 "Bip01 R Finger02" 39
  41 "Bip01 R Finger1" 37
  42 "Bip01 R Finger11" 41
  43 "Bip01 R Finger12" 42
  44 "Bip01 R Finger2" 37
  45 "Bip01 R Finger21" 44
  46 "Bip01 R Finger22" 45
  47 "Bip01 R Finger3" 37
  48 "Bip01 R Finger31" 47
  49 "Bip01 R Finger32" 48
  50 "Bone01" 10
  51 "Bone03" 10
  52 "Bone05" 9
  53 "Bone07" 9
end
skeleton
  time 0
    0 0.578705 -0.600133 26.386952 0.000000 0.000000 -1.570939
    1 -0.082034 0.000000 0.000000 0.000000 -1.570451 -1.570795
    2 -0.000008 0.000008 4.504590 -3.135972 -0.095719 1.708007
    3 18.184614 0.000000 0.000000 0.000000 0.000000 -1.439451
    4 16.862095 0.000000 0.000000 0.093568 0.021084 -0.411741
    5 0.000011 -0.000005 -4.504589 3.138753 0.052171 1.711228
    6 18.184610 0.000000 0.000000 0.000000 0.000000 -1.430745
    7 16.862091 0.000000 0.000000 -0.050877 -0.011929 -0.426499
    8 1.576611 -0.003992 0.000002 -0.000004 -0.000001 0.000646
    9 5.015457 -0.003840 0.000000 0.000000 0.000000 0.000000
    10 4.822693 -0.003838 0.000000 0.000000 0.000000 0.034889
    11 4.822556 -0.004685 0.000000 0.000000 0.000000 0.000000
    12 5.883453 -0.001475 0.000000 0.000000 0.000000 -0.052333
    13 1.854832 0.000000 0.000000 -0.000001 -0.000001 0.871506
    14 4.577744 2.974503 -4.899295 0.000000 -1.570796 2.810149
    15 -0.576364 -6.294613 1.187798 0.000000 0.000000 0.000000
    16 4.598343 3.014902 4.786890 0.000000 -1.570796 2.810149
    17 0.671572 -6.281569 1.205063 0.000000 0.000000 0.000000
    18 0.988842 0.018080 3.418189 -0.000014 -1.370796 -3.090042
    19 5.304816 0.000000 0.000000 0.575827 0.703012 0.656146
    20 18.707375 0.000000 -0.000002 0.000000 0.000000 -2.081868
    21 13.951651 0.000000 -0.000004 -0.540208 -0.170772 0.182944
    22 -0.620571 0.325967 -1.592585 1.860746 0.900460 0.815947
    23 3.570904 0.000002 -0.000001 0.000000 0.000000 0.479687
    24 2.779234 -0.000001 0.000000 0.000000 0.000000 0.662870
    25 5.246642 0.034821 -2.517332 0.105795 0.232041 0.874311
    26 6.439503 -0.000001 0.000000 0.000000 0.000000 1.194909
    27 3.098978 0.000000 0.000000 0.000000 0.000000 1.264679
    28 5.603584 -0.087752 -0.344059 -0.055061 -0.027306 0.969341
    29 4.928793 0.000000 -0.000004 0.000000 0.000000 1.456578
    30 6.254896 0.000002 -0.000002 0.000000 0.000000 1.395497
    31 5.434063 -0.010812 1.636232 -0.289558 -0.158662 1.268944
    32 4.854518 0.000000 0.000002 0.000000 0.000000 1.203647
    33 5.521277 0.000000 0.000000 0.000000 0.000000 1.578695
    34 -0.000004 0.001486 -3.418189 -0.000014 1.370796 -3.090069
    35 5.304816 0.000000 0.000000 -0.524955 -0.640147 0.627161
    36 18.340565 0.000000 -0.000002 0.000000 0.000000 -2.167597
    37 14.370207 0.000000 0.000002 0.500445 0.060868 0.439523
    38 -0.620573 0.325966 1.592587 -1.904380 -0.900460 0.815947
    39 3.927999 -0.000001 0.000000 0.000000 0.000000 0.226766
    40 2.779240 0.000001 0.000000 0.000000 0.000000 0.662888
    41 5.246641 0.034821 2.517334 -0.287673 -0.216379 0.937556
    42 6.313238 0.000002 0.000002 0.000000 0.000000 1.604833
    43 3.098980 0.000000 0.000001 0.000000 0.000000 0.723936
    44 5.603580 -0.087754 0.344059 0.009956 0.000202 1.020626
    45 4.532814 0.000000 -0.000002 0.000000 0.000000 1.343198
    46 6.615754 0.000002 0.000000 0.000000 0.000000 1.360607
    47 5.434061 -0.010812 -1.636234 0.308165 0.028148 1.430597
    48 4.623351 0.000001 -0.000002 0.000000 0.000000 1.011462
    49 5.521277 0.000000 0.000000 0.000000 0.000000 1.090355
    50 4.170006 3.279094 -1.198655 1.551575 -1.448665 1.554530
    51 3.754124 3.204277 1.399633 -1.589912 -1.431177 4.696034
    52 0.050228 4.476613 -0.976787 1.570361 -1.309066 1.570477
    53 0.921745 4.255628 1.163094 -1.570990 -1.413732 4.711950
  time 1
    0 0.578705 -0.600133 26.386952 0.000000 0.000000 -1.570939
    1 -0.082034 0.000000 0.000000 0.000000 -1.570451 -1.570795
    2 -0.000008 0.000008 4.504590 -3.135972 -0.095719 1.708007
    3 18.184614 0.000000 0.000000 0.000000 0.000000 -1.439451
    4 16.862095 0.000000 0.000000 0.093568 0.021084 -0.411741
    5 0.000011 -0.000005 -4.504589 3.138753 0.052171 1.711228
    6 18.184610 0.000000 0.000000 0.000000 0.000000 -1.430745
    7 16.862091 0.000000 0.000000 -0.050877 -0.011929 -0.426499
    8 1.576611 -0.003992 0.000002 -0.000004 -0.000001 0.000646
    9 5.015457 -0.003840 0.000000 0.000000 0.000000 0.000000
    10 4.822693 -0.003838 0.000000 0.000000 0.000000 0.034889
    11 4.822556 -0.004685 0.000000 0.000000 0.000000 0.000000
    12 5.883453 -0.001475 0.000000 0.000000 0.000000 -0.052333
    13 1.854832 0.000000 0.000000 -0.000001 -0.000001 0.871506
    14 4.577744 2.974503 -4.899295 0.000000 -1.570796 2.810149
    15 -0.576364 -6.294613 1.187798 0.000000 0.000000 0.000000
    16 4.598343 3.014902 4.786890 0.000000 -1.570796 2.810149
    17 0.671572 -6.281569 1.205063 0.000000 0.000000 0.000000
    18 0.988842 0.018080 3.418189 -0.000014 -1.370796 -3.090042
    19 5.304816 0.000000 0.000000 0.575827 0.703012 0.656146
    20 18.707375 0.000000 -0.000002 0.000000 0.000000 -2.081868
    21 13.951651 0.000000 -0.000004 -0.540208 -0.170772 0.182944
    22 -0.620571 0.325967 -1.592585 1.860746 0.900460 0.815947
    23 3.570904 0.000002 -0.000001 0.000000 0.000000 0.479687
    24 2.779234 -0.000001 0.000000 0.000000 0.000000 0.662870
    25 5.246642 0.034821 -2.517332 0.105795 0.232041 0.874311
    26 6.439503 -0.000001 0.000000 0.000000 0.000000 1.194909
    27 3.098978 0.000000 0.000000 0.000000 0.000000 1.264679
    28 5.603584 -0.087752 -0.344059 -0.055061 -0.027306 0.969341
    29 4.928793 0.000000 -0.000004 0.000000 0.000000 1.456578
    30 6.254896 0.000002 -0.000002 0.000000 0.000000 1.395497
    31 5.434063 -0.010812 1.636232 -0.289558 -0.158662 1.268944
    32 4.854518 0.000000 0.000002 0.000000 0.000000 1.203647
    33 5.521277 0.000000 0.000000 0.000000 0.000000 1.578695
    34 -0.000004 0.001486 -3.418189 -0.000014 1.370796 -3.090069
    35 5.304816 0.000000 0.000000 -0.524955 -0.640147 0.627161
    36 18.340565 0.000000 -0.000002 0.000000 0.000000 -2.167597
    37 14.370207 0.000000 0.000002 0.500445 0.060868 0.439523
    38 -0.620573 0.325966 1.592587 -1.904380 -0.900460 0.815947
    39 3.927999 -0.000001 0.000000 0.000000 0.000000 0.226766
    40 2.779240 0.000001 0.000000 0.000000 0.000000 0.662888
    41 5.246641 0.034821 2.517334 -0.287673 -0.216379 0.937556
    42 6.313238 0.000002 0.000002 0.000000 0.000000 1.604833
    43 3.098980 0.000000 0.000001 0.000000 0.000000 0.723936
    44 5.603580 -0.087754 0.344059 0.009956 0.000202 1.020626
    45 4.532814 0.000000 -0.000002 0.000000 0.000000 1.343198
    46 6.615754 0.000002 0.000000 0.000000 0.000000 1.360607
    47 5.434061 -0.010812 -1.636234 0.308165 0.028148 1.430597
    48 4.623351 0.000001 -0.000002 0.000000 0.000000 1.011462
    49 5.521277 0.000000 0.000000 0.000000 0.000000 1.090355
    50 4.170006 3.279094 -1.198655 1.551575 -1.448665 1.554530
    51 3.754124 3.204277 1.399633 -1.589912 -1.431177 4.696034
    52 0.050228 4.476613 -0.976787 1.570361 -1.309066 1.570477
    53 0.921745 4.255628 1.163094 -1.570990 -1.413732 4.711950
  time 2
    0 0.578705 -0.632823 26.502058 0.000000 0.000000 -1.570939
    1 -0.082034 0.007813 0.000000 0.000000 -1.570451 -1.570795
    2 -0.000008 0.000008 4.504590 -3.132328 -0.093427 1.670715
    3 18.184614 0.000000 0.000000 0.000000 0.000000 -1.477321
    4 16.862095 0.000000 0.000000 0.093070 0.012602 -0.327240
    5 0.000011 -0.000005 -4.504589 3.137598 0.100268 1.723296
    6 18.184610 0.000000 0.000000 0.000000 0.000000 -1.379565
    7 16.862091 0.000000 0.000000 -0.097697 -0.023270 -0.464689
    8 1.576611 -0.003992 0.000002 -0.127612 0.000074 0.000646
    9 5.015457 -0.003840 0.000000 0.007090 0.000000 0.000000
    10 4.822693 -0.003838 0.000000 -0.026666 0.000947 0.034889
    11 4.822556 -0.004685 0.000000 0.000000 0.000000 0.000000
    12 5.883453 -0.001475 0.000000 0.000000 0.000000 -0.052333
    13 1.854832 0.000000 0.000000 0.091997 -0.251880 0.639335
    14 4.577744 2.974503 -4.899295 -0.752047 -1.559782 3.766829
    15 -0.576364 -6.294613 1.187798 0.345650 0.000000 0.000000
    16 4.598343 3.014902 4.786890 1.945164 -1.563025 0.580271
    17 0.671572 -6.281569 1.205063 0.060183 0.000000 0.000000
    18 0.988842 0.018080 3.418189 -0.000014 -1.370796 -3.090042
    19 5.304816 0.000000 0.000000 0.616413 0.680371 0.868222
    20 18.707375 0.000000 -0.000002 0.000000 0.000000 -2.093143
    21 13.951651 0.000000 -0.000004 -0.538777 -0.181790 0.115540
    22 -0.620571 0.325967 -1.592585 1.860746 0.900460 0.815947
    23 3.570904 0.000002 -0.000001 0.000000 0.000000 0.479687
    24 2.779234 -0.000001 0.000000 0.000000 0.000000 0.662870
    25 5.246642 0.034821 -2.517332 0.105795 0.232041 0.874311
    26 6.439503 -0.000001 0.000000 0.000000 0.000000 1.194909
    27 3.098978 0.000000 0.000000 0.000000 0.000000 1.264679
    28 5.603584 -0.087752 -0.344059 -0.055061 -0.027306 0.969341
    29 4.928793 0.000000 -0.000004 0.000000 0.000000 1.456578
    30 6.254896 0.000002 -0.000002 0.000000 0.000000 1.395497
    31 5.434063 -0.010812 1.636232 -0.289558 -0.158662 1.268944
    32 4.854518 0.000000 0.000002 0.000000 0.000000 1.203647
    33 5.521277 0.000000 0.000000 0.000000 0.000000 1.578695
    34 -0.000004 0.001486 -3.418189 -0.000014 1.370796 -3.090069
    35 5.304816 0.000000 0.000000 -0.490955 -0.658023 0.412426
    36 18.340565 0.000000 -0.000002 0.000000 0.000000 -2.126789
    37 14.370207 0.000000 0.000002 0.503400 0.051697 0.477823
    38 -0.620573 0.325966 1.592587 -1.904380 -0.900460 0.815947
    39 3.927999 -0.000001 0.000000 0.000000 0.000000 0.226766
    40 2.779240 0.000001 0.000000 0.000000 0.000000 0.662865
    41 5.246641 0.034821 2.517334 -0.287673 -0.216379 0.937613
    42 6.313238 0.000002 0.000002 0.000000 0.000000 1.604833
    43 3.098980 0.000000 0.000001 0.000000 0.000000 0.723936
    44 5.603580 -0.087754 0.344059 0.009956 0.000202 1.020626
    45 4.532814 0.000000 -0.000002 0.000000 0.000000 1.343133
    46 6.615754 0.000002 0.000000 0.000000 0.000000 1.360607
    47 5.434061 -0.010812 -1.636234 0.308165 0.028148 1.430597
    48 4.623351 0.000001 -0.000002 0.000000 0.000000 1.011462
    49 5.521277 0.000000 0.000000 0.000000 0.000000 1.090355
    50 4.170006 3.279094 -1.198655 1.551108 -1.558364 1.554905
    51 3.754124 3.204277 1.399633 -1.590000 -1.543276 4.696209
    52 0.050228 4.476613 -0.976787 1.570361 -1.430047 1.570477
    53 0.921745 4.255628 1.163094 -1.570990 -1.532187 4.711950
  time 3
    0 0.578705 -0.649168 26.591004 0.000000 0.000000 -1.570939
    1 -0.082034 0.019532 0.000000 0.000000 -1.570451 -1.570795
    2 -0.000008 0.000008 4.504590 -3.130127 -0.095158 1.646524
    3 18.184614 0.000000 0.000000 0.000000 0.000000 -1.465581
    4 16.862095 0.000000 0.000000 0.095827 0.003705 -0.264138
    5 0.000011 -0.000005 -4.504589 3.135865 0.148133 1.728348
    6 18.184610 0.000000 0.000000 0.000000 0.000000 -1.308615
    7 16.862091 0.000000 0.000000 -0.144362 -0.033741 -0.529115
    8 1.576611 -0.003992 0.000002 -0.235605 0.000149 0.000646
    9 5.015457 -0.003840 0.000000 0.008840 0.000000 0.000000
    10 4.822693 -0.003838 0.000000 -0.043372 0.001522 0.034889
    11 4.822556 -0.004685 0.000000 0.000000 0.000000 0.000000
    12 5.883453 -0.001475 0.000000 0.000000 0.000000 -0.052333
    13 1.854832 0.000000 0.000000 0.277482 -0.373206 0.222913
    14 4.577744 2.974503 -4.899295 -0.630140 -1.541679 3.888593
    15 -0.576364 -6.294613 1.187798 0.726797 0.000000 0.000000
    16 4.598343 3.014902 4.786890 1.794977 -1.550218 0.430332
    17 0.671572 -6.281569 1.205063 0.105124 0.000000 0.000000
    18 0.988842 0.018080 3.418189 -0.000014 -1.370796 -3.090042
    19 5.304816 0.000000 0.000000 0.648595 0.652285 1.034314
    20 18.707375 0.000000 -0.000002 0.000000 0.000000 -2.092610
    21 13.951651 0.000000 -0.000004 -0.547840 -0.199592 0.052495
    22 -0.620571 0.325967 -1.592585 1.860746 0.900460 0.815947
    23 3.570904 0.000002 -0.000001 0.000000 0.000000 0.479687
    24 2.779234 -0.000001 0.000000 0.000000 0.000000 0.662870
    25 5.246642 0.034821 -2.517332 0.105795 0.232041 0.874311
    26 6.439503 -0.000001 0.000000 0.000000 0.000000 1.194909
    27 3.098978 0.000000 0.000000 0.000000 0.000000 1.264679
    28 5.603584 -0.087752 -0.344059 -0.055061 -0.027306 0.969341
    29 4.928793 0.000000 -0.000004 0.000000 0.000000 1.456578
    30 6.254896 0.000002 -0.000002 0.000000 0.000000 1.395497
    31 5.434063 -0.010812 1.636232 -0.289558 -0.158662 1.268944
    32 4.854518 0.000000 0.000002 0.000000 0.000000 1.203647
    33 5.521277 0.000000 0.000000 0.000000 0.000000 1.578695
    34 -0.000004 0.001486 -3.418189 -0.000014 1.370796 -3.090069
    35 5.304816 0.000000 0.000000 -0.460307 -0.670131 0.236338
    36 18.340565 0.000000 -0.000002 0.000000 0.000000 -2.084458
    37 14.370207 0.000000 0.000002 0.508952 0.038322 0.497432
    38 -0.620573 0.325966 1.592587 -1.904380 -0.900460 0.815947
    39 3.927999 -0.000001 0.000000 0.000000 0.000000 0.226766
    40 2.779240 0.000001 0.000000 0.000000 0.000000 0.662888
    41 5.246641 0.034821 2.517334 -0.287673 -0.216379 0.937670
    42 6.313238 0.000002 0.000002 0.000000 0.000000 1.604833
    43 3.098980 0.000000 0.000001 0.000000 0.000000 0.723936
    44 5.603580 -0.087754 0.344059 0.009956 0.000202 1.020626
    45 4.532814 0.000000 -0.000002 0.000000 0.000000 1.343133
    46 6.615754 0.000002 0.000000 0.000000 0.000000 1.360607
    47 5.434061 -0.010812 -1.636234 0.308165 0.028148 1.430597
    48 4.623351 0.000001 -0.000002 0.000000 0.000000 1.011427
    49 5.521277 0.000000 0.000000 0.000000 0.000000 1.090355
    50 4.170006 3.279094 -1.198655 -1.589771 -1.406951 4.695940
    51 3.754124 3.204277 1.399633 1.551794 -1.416467 1.554646
    52 0.050228 4.476613 -0.976787 -1.571018 -1.502947 4.711884
    53 0.921745 4.255628 1.163094 1.570549 -1.416186 1.570531
  time 4
    0 0.578705 -0.665513 26.653789 0.000000 0.000000 -1.570939
    1 -0.082034 0.007813 0.000000 0.000000 -1.570451 -1.570795
    2 -0.000008 0.000008 4.504590 -3.132133 -0.106470 1.661631
    3 18.184614 0.000000 0.000000 0.000000 0.000000 -1.439666
    4 16.862095 0.000000 0.000000 0.106873 0.004022 -0.257898
    5 0.000011 -0.000005 -4.504589 3.129069 0.151284 1.680824
    6 18.184610 0.000000 0.000000 0.000000 0.000000 -1.335989
    7 16.862091 0.000000 0.000000 -0.147745 -0.035067 -0.548535
    8 1.576611 -0.003992 0.000002 -0.143431 0.000074 0.000646
    9 5.015457 -0.003840 0.000000 -0.015282 0.000000 0.000000
    10 4.822693 -0.003838 0.000000 0.003320 -0.000108 0.034889
    11 4.822556 -0.004685 0.000000 0.000000 0.000000 0.000000
    12 5.883453 -0.001475 0.000000 0.000000 0.000000 -0.052333
    13 1.854832 0.000000 0.000000 0.185920 -0.182068 -0.038469
    14 4.577744 2.974503 -4.899295 -0.547239 -1.538513 3.971367
    15 -0.576364 -6.294613 1.187798 1.036952 0.000000 0.000000
    16 4.598343 3.014902 4.786890 1.660382 -1.548091 0.295683
    17 0.671572 -6.281569 1.205063 0.180493 0.000000 0.000000
    18 0.988842 0.018080 3.418189 -0.000014 -1.370796 -3.090042
    19 5.304816 0.000000 0.000000 0.626917 0.674926 0.877339
    20 18.707375 0.000000 -0.000002 0.000000 0.000000 -2.084992
    21 13.951651 0.000000 -0.000004 -0.539158 -0.193416 0.102108
    22 -0.620571 0.325967 -1.592585 1.860746 0.900460 0.815947
    23 3.570904 0.000002 -0.000001 0.000000 0.000000 0.479687
    24 2.779234 -0.000001 0.000000 0.000000 0.000000 0.662870
    25 5.246642 0.034821 -2.517332 0.105795 0.232041 0.874311
    26 6.439503 -0.000001 0.000000 0.000000 0.000000 1.194909
    27 3.098978 0.000000 0.000000 0.000000 0.000000 1.264679
    28 5.603584 -0.087752 -0.344059 -0.055061 -0.027306 0.969341
    29 4.928793 0.000000 -0.000004 0.000000 0.000000 1.456578
    30 6.254896 0.000002 -0.000002 0.000000 0.000000 1.395497
    31 5.434063 -0.010812 1.636232 -0.289558 -0.158662 1.268944
    32 4.854518 0.000000 0.000002 0.000000 0.000000 1.203647
    33 5.521277 0.000000 0.000000 0.000000 0.000000 1.578695
    34 -0.000004 0.001486 -3.418189 -0.000014 1.370796 -3.090069
    35 5.304816 0.000000 0.000000 -0.494402 -0.662225 0.406166
    36 18.340565 0.000000 -0.000002 0.000000 0.000000 -2.117120
    37 14.370207 0.000000 0.000002 0.498565 0.052572 0.469822
    38 -0.620573 0.325966 1.592587 -1.904380 -0.900460 0.815947
    39 3.927999 -0.000001 0.000000 0.000000 0.000000 0.226766
    40 2.779240 0.000001 0.000000 0.000000 0.000000 0.662888
    41 5.246641 0.034821 2.517334 -0.287673 -0.216379 0.937613
    42 6.313238 0.000002 0.000002 0.000000 0.000000 1.604833
    43 3.098980 0.000000 0.000001 0.000000 0.000000 0.723936
    44 5.603580 -0.087754 0.344059 0.009956 0.000202 1.020626
    45 4.532814 0.000000 -0.000002 0.000000 0.000000 1.343133
    46 6.615754 0.000002 0.000000 0.000000 0.000000 1.360607
    47 5.434061 -0.010812 -1.636234 0.308165 0.028148 1.430597
    48 4.623351 0.000001 -0.000002 0.000000 0.000000 1.011427
    49 5.521277 0.000000 0.000000 0.000000 0.000000 1.090355
    50 4.170006 3.279094 -1.198655 -1.589584 -1.243061 4.696034
    51 3.754124 3.204277 1.399633 1.551881 -1.247055 1.554821
    52 0.050228 4.476613 -0.976787 -1.571018 -1.305243 4.711884
    53 0.921745 4.255628 1.163094 1.570549 -1.235907 1.570531
  time 5
    0 0.578705 -0.665513 26.690414 0.000000 0.000000 -1.570939
    1 -0.082034 0.000000 0.000000 0.000000 -1.570451 -1.570795
    2 -0.000008 0.000008 4.504590 -3.136070 -0.121220 1.690317
    3 18.184614 0.000000 0.000000 0.000000 0.000000 -1.400937
    4 16.862095 0.000000 0.000000 0.121231 0.006557 -0.269665
    5 0.000011 -0.000005 -4.504589 3.121503 0.139422 1.618706
    6 18.184610 0.000000 0.000000 0.000000 0.000000 -1.389801
    7 16.862091 0.000000 0.000000 -0.137002 -0.032826 -0.556703
    8 1.576611 -0.003992 0.000002 -0.000004 -0.000001 0.000646
    9 5.015457 -0.003840 0.000000 -0.036961 0.000000 0.000000
    10 4.822693 -0.003838 0.000000 0.050647 -0.001798 0.034854
    11 4.822556 -0.004685 0.000000 0.000000 0.000000 0.000000
    12 5.883453 -0.001475 0.000000 0.000000 0.000000 -0.052333
    13 1.854832 0.000000 0.000000 -0.013367 -0.002875 -0.196019
    14 4.577744 2.974503 -4.899295 0.000000 -1.570796 3.394734
    15 -0.576364 -6.294613 1.187798 1.169330 0.000000 0.000000
    16 4.598343 3.014902 4.786890 0.000000 -1.570796 1.763060
    17 0.671572 -6.281569 1.205063 0.331564 0.000000 0.000000
    18 0.988842 0.018080 3.418189 -0.000014 -1.370796 -3.090042
    19 5.304816 0.000000 0.000000 0.587478 0.701149 0.637912
    20 18.707375 0.000000 -0.000002 0.000000 0.000000 -2.062213
    21 13.951651 0.000000 -0.000004 -0.538300 -0.184138 0.167123
    22 -0.620571 0.325967 -1.592585 1.860746 0.900460 0.815947
    23 3.570904 0.000002 -0.000001 0.000000 0.000000 0.479687
    24 2.779234 -0.000001 0.000000 0.000000 0.000000 0.662870
    25 5.246642 0.034821 -2.517332 0.105795 0.232041 0.874311
    26 6.439503 -0.000001 0.000000 0.000000 0.000000 1.194909
    27 3.098978 0.000000 0.000000 0.000000 0.000000 1.264679
    28 5.603584 -0.087752 -0.344059 -0.055061 -0.027306 0.969341
    29 4.928793 0.000000 -0.000004 0.000000 0.000000 1.456578
    30 6.254896 0.000002 -0.000002 0.000000 0.000000 1.395497
    31 5.434063 -0.010812 1.636232 -0.289558 -0.158662 1.268944
    32 4.854518 0.000000 0.000002 0.000000 0.000000 1.203647
    33 5.521277 0.000000 0.000000 0.000000 0.000000 1.578695
    34 -0.000004 0.001486 -3.418189 -0.000014 1.370796 -3.090069
    35 5.304816 0.000000 0.000000 -0.539608 -0.645203 0.658732
    36 18.340565 0.000000 -0.000002 0.000000 0.000000 -2.154502
    37 14.370207 0.000000 0.000002 0.489073 0.064395 0.413749
    38 -0.620573 0.325966 1.592587 -1.904380 -0.900460 0.815947
    39 3.927999 -0.000001 0.000000 0.000000 0.000000 0.226766
    40 2.779240 0.000001 0.000000 0.000000 0.000000 0.662888
    41 5.246641 0.034821 2.517334 -0.287673 -0.216379 0.937556
    42 6.313238 0.000002 0.000002 0.000000 0.000000 1.604833
    43 3.098980 0.000000 0.000001 0.000000 0.000000 0.723936
    44 5.603580 -0.087754 0.344059 0.009956 0.000202 1.020626
    45 4.532814 0.000000 -0.000002 0.000000 0.000000 1.343198
    46 6.615754 0.000002 0.000000 0.000000 0.000000 1.360607
    47 5.434061 -0.010812 -1.636234 0.308165 0.028148 1.430597
    48 4.623351 0.000001 -0.000002 0.000000 0.000000 1.011462
    49 5.521277 0.000000 0.000000 0.000000 0.000000 1.090355
    50 4.170006 3.279094 -1.198655 -1.589678 -1.170836 4.696034
    51 3.754124 3.204277 1.399633 1.551969 -1.172310 1.554909
    52 0.050228 4.476613 -0.976787 -1.571018 -1.217408 4.711884
    53 0.921745 4.255628 1.163094 1.570549 -1.156311 1.570531
  time 6
    0 0.578705 -0.681858 26.695646 0.000000 0.000000 -1.570939
    1 -0.082034 -0.007813 0.000000 0.000000 -1.570451 -1.570795
    2 -0.000008 0.000008 4.504590 -3.139886 -0.135020 1.716803
    3 18.184614 0.000000 0.000000 0.000000 0.000000 -1.368078
    4 16.862095 0.000000 0.000000 0.134785 0.009555 -0.285701
    5 0.000011 -0.000005 -4.504589 3.118724 0.127050 1.588676
    6 18.184610 0.000000 0.000000 0.000000 0.000000 -1.422205
    7 16.862091 0.000000 0.000000 -0.125690 -0.029443 -0.554647
    8 1.576611 -0.003992 0.000002 0.112865 -0.000051 0.000646
    9 5.015457 -0.003840 0.000000 -0.025345 0.000000 0.000000
    10 4.822693 -0.003838 0.000000 0.037260 -0.001306 0.034889
    11 4.822556 -0.004685 0.000000 0.000000 0.000000 0.000000
    12 5.883453 -0.001475 0.000000 0.000000 0.000000 -0.052333
    13 1.854832 0.000000 0.000000 -0.132750 0.187110 -0.027652
    14 4.577744 2.974503 -4.899295 2.256620 -1.472164 0.762091
    15 -0.576364 -6.294613 1.187798 1.003425 0.000000 0.000000
    16 4.598343 3.014902 4.786890 -1.545016 -1.505764 3.206737
    17 0.671572 -6.281569 1.205063 0.641522 0.000000 0.000000
    18 0.988842 0.018080 3.418189 -0.000014 -1.370796 -3.090042
    19 5.304816 0.000000 0.000000 0.559784 0.711968 0.476179
    20 18.707375 0.000000 -0.000002 0.000000 0.000000 -2.038596
    21 13.951651 0.000000 -0.000004 -0.545932 -0.180050 0.201690
    22 -0.620571 0.325967 -1.592585 1.860746 0.900460 0.815947
    23 3.570904 0.000002 -0.000001 0.000000 0.000000 0.479687
    24 2.779234 -0.000001 0.000000 0.000000 0.000000 0.662870
    25 5.246642 0.034821 -2.517332 0.105795 0.232041 0.874311
    26 6.439503 -0.000001 0.000000 0.000000 0.000000 1.194909
    27 3.098978 0.000000 0.000000 0.000000 0.000000 1.264679
    28 5.603584 -0.087752 -0.344059 -0.055061 -0.027306 0.969341
    29 4.928793 0.000000 -0.000004 0.000000 0.000000 1.456578
    30 6.254896 0.000002 -0.000002 0.000000 0.000000 1.395497
    31 5.434063 -0.010812 1.636232 -0.289558 -0.158685 1.268944
    32 4.854518 0.000000 0.000002 0.000000 0.000000 1.203647
    33 5.521277 0.000000 0.000000 0.000000 0.000000 1.578695
    34 -0.000004 0.001486 -3.418189 -0.000014 1.370796 -3.090069
    35 5.304816 0.000000 0.000000 -0.567766 -0.627042 0.822028
    36 18.340565 0.000000 -0.000002 0.000000 0.000000 -2.170110
    37 14.370207 0.000000 0.000002 0.490864 0.071788 0.366202
    38 -0.620573 0.325966 1.592587 -1.904380 -0.900460 0.815947
    39 3.927999 -0.000001 0.000000 0.000000 0.000000 0.226766
    40 2.779240 0.000001 0.000000 0.000000 0.000000 0.662888
    41 5.246641 0.034821 2.517334 -0.287673 -0.216379 0.937613
    42 6.313238 0.000002 0.000002 0.000000 0.000000 1.604833
    43 3.098980 0.000000 0.000001 0.000000 0.000000 0.723936
    44 5.603580 -0.087754 0.344059 0.009956 0.000202 1.020626
    45 4.532814 0.000000 -0.000002 0.000000 0.000000 1.343133
    46 6.615754 0.000002 0.000000 0.000000 0.000000 1.360607
    47 5.434061 -0.010812 -1.636234 0.308165 0.028148 1.430597
    48 4.623351 0.000001 -0.000002 0.000000 0.000000 1.011462
    49 5.521277 0.000000 0.000000 0.000000 0.000000 1.090355
    50 4.170006 3.279094 -1.198655 -1.589584 -1.254734 4.696034
    51 3.754124 3.204277 1.399633 1.551881 -1.254596 1.554821
    52 0.050228 4.476613 -0.976787 -1.571018 -1.313680 4.711884
    53 0.921745 4.255628 1.163094 1.570549 -1.246451 1.570531
  time 7
    0 0.578705 -0.681858 26.695646 0.000000 0.000000 -1.570939
    1 -0.082034 -0.007813 0.000000 0.000000 -1.570451 -1.570795
    2 -0.000008 0.000008 4.504590 -3.141084 -0.143748 1.724357
    3 18.184614 0.000000 0.000000 0.000000 0.000000 -1.359631
    4 16.862095 0.000000 0.000000 0.143342 0.011359 -0.292159
    5 0.000011 -0.000005 -4.504589 3.121971 0.119219 1.611877
    6 18.184610 0.000000 0.000000 0.000000 0.000000 -1.410682
    7 16.862091 0.000000 0.000000 -0.117969 -0.026608 -0.543666
    8 1.576611 -0.003992 0.000002 0.174508 -0.000101 0.000646
    9 5.015457 -0.003840 0.000000 -0.008720 0.000000 0.000000
    10 4.822693 -0.003838 0.000000 0.011997 -0.000395 0.034889
    11 4.822556 -0.004685 0.000000 0.000000 0.000000 0.000000
    12 5.883453 -0.001475 0.000000 0.000000 0.000000 -0.052333
    13 1.854832 0.000000 0.000000 -0.140704 0.315141 0.222365
    14 4.577744 2.974503 -4.899295 1.941023 -1.336835 0.453033
    15 -0.576364 -6.294613 1.187798 0.626753 0.000000 0.000000
    16 4.598343 3.014902 4.786890 -1.556017 -1.410473 3.182369
    17 0.671572 -6.281569 1.205063 1.062411 0.000000 0.000000
    18 0.988842 0.018080 3.418189 -0.000014 -1.370796 -3.090042
    19 5.304816 0.000000 0.000000 0.545842 0.715622 0.398881
    20 18.707375 0.000000 -0.000002 0.000000 0.000000 -2.025569
    21 13.951651 0.000000 -0.000004 -0.551561 -0.177499 0.216138
    22 -0.620571 0.325967 -1.592585 1.860746 0.900460 0.815947
    23 3.570904 0.000002 -0.000001 0.000000 0.000000 0.479687
    24 2.779234 -0.000001 0.000000 0.000000 0.000000 0.662870
    25 5.246642 0.034821 -2.517332 0.105795 0.232041 0.874311
    26 6.439503 -0.000001 0.000000 0.000000 0.000000 1.194909
    27 3.098978 0.000000 0.000000 0.000000 0.000000 1.264679
    28 5.603584 -0.087752 -0.344059 -0.055061 -0.027306 0.969341
    29 4.928793 0.000000 -0.000004 0.000000 0.000000 1.456578
    30 6.254896 0.000002 -0.000002 0.000000 0.000000 1.395497
    31 5.434063 -0.010812 1.636232 -0.289558 -0.158662 1.268944
    32 4.854518 0.000000 0.000002 0.000000 0.000000 1.203647
    33 5.521277 0.000000 0.000000 0.000000 0.000000 1.578695
    34 -0.000004 0.001486 -3.418189 -0.000014 1.370796 -3.090069
    35 5.304816 0.000000 0.000000 -0.580408 -0.616003 0.897825
    36 18.340565 0.000000 -0.000002 0.000000 0.000000 -2.175134
    37 14.370207 0.000000 0.000002 0.494625 0.075936 0.341740
    38 -0.620573 0.325966 1.592587 -1.904380 -0.900460 0.815947
    39 3.927999 -0.000001 0.000000 0.000000 0.000000 0.226766
    40 2.779240 0.000001 0.000000 0.000000 0.000000 0.662888
    41 5.246641 0.034821 2.517334 -0.287673 -0.216379 0.937613
    42 6.313238 0.000002 0.000002 0.000000 0.000000 1.604833
    43 3.098980 0.000000 0.000001 0.000000 0.000000 0.723936
    44 5.603580 -0.087754 0.344059 0.009956 0.000202 1.020626
    45 4.532814 0.000000 -0.000002 0.000000 0.000000 1.343165
    46 6.615754 0.000002 0.000000 0.000000 0.000000 1.360607
    47 5.434061 -0.010812 -1.636234 0.308165 0.028148 1.430597
    48 4.623351 0.000001 -0.000002 0.000000 0.000000 1.011427
    49 5.521277 0.000000 0.000000 0.000000 0.000000 1.090355
    50 4.170006 3.279094 -1.198655 -1.589771 -1.438019 4.695940
    51 3.754124 3.204277 1.399633 1.551794 -1.436563 1.554646
    52 0.050228 4.476613 -0.976787 -1.571018 -1.525363 4.711884
    53 0.921745 4.255628 1.163094 1.570549 -1.444309 1.570531
  time 8
    0 0.578705 -0.665513 26.674718 0.000000 0.000000 -1.570939
    1 -0.082034 -0.007813 0.000000 0.000000 -1.570451 -1.570795
    2 -0.000008 0.000008 4.504590 -3.136168 -0.142992 1.688022
    3 18.184614 0.000000 0.000000 0.000000 0.000000 -1.406163
    4 16.862095 0.000000 0.000000 0.142691 0.011310 -0.281596
    5 0.000011 -0.000005 -4.504589 3.128024 0.111110 1.661365
    6 18.184610 0.000000 0.000000 0.000000 0.000000 -1.379565
    7 16.862091 0.000000 0.000000 -0.109421 -0.023727 -0.526032
    8 1.576611 -0.003992 0.000002 0.142842 -0.000076 0.000646
    9 5.015457 -0.003840 0.000000 -0.004375 0.000000 0.000000
    10 4.822693 -0.003838 0.000000 0.004746 -0.000168 0.034889
    11 4.822556 -0.004685 0.000000 0.000000 0.000000 0.000000
    12 5.883453 -0.001475 0.000000 0.000000 0.000000 -0.052333
    13 1.854832 0.000000 0.000000 -0.086515 0.174168 0.391827
    14 4.577744 2.974503 -4.899295 1.680724 -1.232987 0.100386
    15 -0.576364 -6.294613 1.187798 0.244831 0.000000 0.000000
    16 4.598343 3.014902 4.786890 -1.573905 -1.316962 3.216485
    17 0.671572 -6.281569 1.205063 1.442824 0.000000 0.000000
    18 0.988842 0.018080 3.418189 -0.000014 -1.370796 -3.090042
    19 5.304816 0.000000 0.000000 0.553577 0.714189 0.449779
    20 18.707375 0.000000 -0.000002 0.000000 0.000000 -2.035244
    21 13.951651 0.000000 -0.000004 -0.547363 -0.177412 0.208138
    22 -0.620571 0.325967 -1.592585 1.860746 0.900460 0.815947
    23 3.570904 0.000002 -0.000001 0.000000 0.000000 0.479687
    24 2.779234 -0.000001 0.000000 0.000000 0.000000 0.662870
    25 5.246642 0.034821 -2.517332 0.105795 0.232041 0.874311
    26 6.439503 -0.000001 0.000000 0.000000 0.000000 1.194909
    27 3.098978 0.000000 0.000000 0.000000 0.000000 1.264679
    28 5.603584 -0.087752 -0.344059 -0.055061 -0.027306 0.969341
    29 4.928793 0.000000 -0.000004 0.000000 0.000000 1.456578
    30 6.254896 0.000002 -0.000002 0.000000 0.000000 1.395497
    31 5.434063 -0.010812 1.636232 -0.289558 -0.158685 1.268944
    32 4.854518 0.000000 0.000002 0.000000 0.000000 1.203647
    33 5.521277 0.000000 0.000000 0.000000 0.000000 1.578695
    34 -0.000004 0.001486 -3.418189 -0.000014 1.370796 -3.090069
    35 5.304816 0.000000 0.000000 -0.573129 -0.620133 0.845638
    36 18.340565 0.000000 -0.000002 0.000000 0.000000 -2.173079
    37 14.370207 0.000000 0.000002 0.495252 0.076444 0.359447
    38 -0.620573 0.325966 1.592587 -1.904380 -0.900460 0.815947
    39 3.927999 -0.000001 0.000000 0.000000 0.000000 0.226766
    40 2.779240 0.000001 0.000000 0.000000 0.000000 0.662888
    41 5.246641 0.034821 2.517334 -0.287673 -0.216379 0.937613
    42 6.313238 0.000002 0.000002 0.000000 0.000000 1.604833
    43 3.098980 0.000000 0.000001 0.000000 0.000000 0.723936
    44 5.603580 -0.087754 0.344059 0.009956 0.000202 1.020626
    45 4.532814 0.000000 -0.000002 0.000000 0.000000 1.343165
    46 6.615754 0.000002 0.000000 0.000000 0.000000 1.360607
    47 5.434061 -0.010812 -1.636234 0.308165 0.028148 1.430597
    48 4.623351 0.000001 -0.000002 0.000000 0.000000 1.011427
    49 5.521277 0.000000 0.000000 0.000000 0.000000 1.090355
    50 4.170006 3.279094 -1.198655 1.551388 -1.523412 1.554530
    51 3.754124 3.204277 1.399633 -1.589824 -1.520672 4.696121
    52 0.050228 4.476613 -0.976787 1.570361 -1.404791 1.570477
    53 0.921745 4.255628 1.163094 -1.570916 -1.500555 4.711950
  time 9
    0 0.578705 -0.665513 26.659022 0.000000 0.000000 -1.570939
    1 -0.082034 0.000000 0.000000 0.000000 -1.570451 -1.570795
    2 -0.000008 0.000008 4.504590 -3.127633 -0.135312 1.627878
    3 18.184614 0.000000 0.000000 0.000000 0.000000 -1.485196
    4 16.862095 0.000000 0.000000 0.135723 0.010165 -0.262331
    5 0.000011 -0.000005 -4.504589 3.133856 0.102585 1.711415
    6 18.184610 0.000000 0.000000 0.000000 0.000000 -1.351606
    7 16.862091 0.000000 0.000000 -0.100641 -0.021441 -0.504394
    8 1.576611 -0.003992 0.000002 0.072388 -0.000026 0.000646
    9 5.015457 -0.003840 0.000000 -0.003832 0.000000 0.000000
    10 4.822693 -0.003838 0.000000 0.001642 -0.000048 0.034889
    11 4.822556 -0.004685 0.000000 0.000000 0.000000 0.000000
    12 5.883453 -0.001475 0.000000 0.000000 0.000000 -0.052333
    13 1.854832 0.000000 0.000000 -0.043585 -0.083733 0.508803
    14 4.577744 2.974503 -4.899295 1.609133 -1.186881 -0.155118
    15 -0.576364 -6.294613 1.187798 0.062580 0.000000 0.000000
    16 4.598343 3.014902 4.786890 -1.611595 -1.256749 3.306697
    17 0.671572 -6.281569 1.205063 1.631524 0.000000 0.000000
    18 0.988842 0.018080 3.418189 -0.000014 -1.370796 -3.090042
    19 5.304816 0.000000 0.000000 0.570384 0.709317 0.556966
    20 18.707375 0.000000 -0.000002 0.000000 0.000000 -2.053452
    21 13.951651 0.000000 -0.000004 -0.540399 -0.177846 0.188197
    22 -0.620571 0.325967 -1.592585 1.860746 0.900460 0.815947
    23 3.570904 0.000002 -0.000001 0.000000 0.000000 0.479687
    24 2.779234 -0.000001 0.000000 0.000000 0.000000 0.662870
    25 5.246642 0.034821 -2.517332 0.105795 0.232041 0.874311
    26 6.439503 -0.000001 0.000000 0.000000 0.000000 1.194909
    27 3.098978 0.000000 0.000000 0.000000 0.000000 1.264679
    28 5.603584 -0.087752 -0.344059 -0.055061 -0.027306 0.969341
    29 4.928793 0.000000 -0.000004 0.000000 0.000000 1.456578
    30 6.254896 0.000002 -0.000002 0.000000 0.000000 1.395497
    31 5.434063 -0.010812 1.636232 -0.289558 -0.158662 1.268944
    32 4.854518 0.000000 0.000002 0.000000 0.000000 1.203647
    33 5.521277 0.000000 0.000000 0.000000 0.000000 1.578695
    34 -0.000004 0.001486 -3.418189 -0.000014 1.370796 -3.090069
    35 5.304816 0.000000 0.000000 -0.555315 -0.630888 0.736978
    36 18.340565 0.000000 -0.000002 0.000000 0.000000 -2.165541
    37 14.370207 0.000000 0.000002 0.495252 0.073651 0.393812
    38 -0.620573 0.325966 1.592587 -1.904380 -0.900460 0.815947
    39 3.927999 -0.000001 0.000000 0.000000 0.000000 0.226766
    40 2.779240 0.000001 0.000000 0.000000 0.000000 0.662888
    41 5.246641 0.034821 2.517334 -0.287673 -0.216379 0.937556
    42 6.313238 0.000002 0.000002 0.000000 0.000000 1.604833
    43 3.098980 0.000000 0.000001 0.000000 0.000000 0.723936
    44 5.603580 -0.087754 0.344059 0.009956 0.000202 1.020626
    45 4.532814 0.000000 -0.000002 0.000000 0.000000 1.343165
    46 6.615754 0.000002 0.000000 0.000000 0.000000 1.360607
    47 5.434061 -0.010812 -1.636234 0.308165 0.028148 1.430597
    48 4.623351 0.000001 -0.000002 0.000000 0.000000 1.011427
    49 5.521277 0.000000 0.000000 0.000000 0.000000 1.090355
    50 4.170006 3.279094 -1.198655 1.551575 -1.448665 1.554530
    51 3.754124 3.204277 1.399633 -1.589912 -1.431177 4.696034
    52 0.050228 4.476613 -0.976787 1.570361 -1.309066 1.570477
    53 0.921745 4.255628 1.163094 -1.570990 -1.413732 4.711950
  time 10
    0 0.578705 -0.649168 26.617165 0.000000 0.000000 -1.570939
    1 -0.082034 0.000000 0.000000 0.000000 -1.570451 -1.570795
    2 -0.000008 0.000008 4.504590 -3.123133 -0.127559 1.595463
    3 18.184614 0.000000 0.000000 0.000000 0.000000 -1.535593
    4 16.862095 0.000000 0.000000 0.128659 0.008507 -0.244271
    5 0.000011 -0.000005 -4.504589 3.137048 0.094244 1.736674
    6 18.184610 0.000000 0.000000 0.000000 0.000000 -1.349676
    7 16.862091 0.000000 0.000000 -0.092273 -0.019840 -0.481404
    8 1.576611 -0.003992 0.000002 -0.000004 -0.000001 0.000646
    9 5.015457 -0.003840 0.000000 -0.008825 0.000000 0.000000
    10 4.822693 -0.003838 0.000000 0.000647 -0.000024 0.034889
    11 4.822556 -0.004685 0.000000 0.000000 0.000000 0.000000
    12 5.883453 -0.001475 0.000000 0.000000 0.000000 -0.052333
    13 1.854832 0.000000 0.000000 -0.001309 -0.292524 0.500451
    14 4.577744 2.974503 -4.899295 1.880548 -1.173504 -0.313192
    15 -0.576364 -6.294613 1.187798 0.212020 0.000000 0.000000
    16 4.598343 3.014902 4.786890 -1.718927 -1.239514 3.515216
    17 0.671572 -6.281569 1.205063 1.543148 0.000000 0.000000
    18 0.988842 0.018080 3.418189 -0.000014 -1.370796 -3.090042
    19 5.304816 0.000000 0.000000 0.587860 0.701794 0.671368
    20 18.707375 0.000000 -0.000002 0.000000 0.000000 -2.069907
    21 13.951651 0.000000 -0.000004 -0.536106 -0.178049 0.163720
    22 -0.620571 0.325967 -1.592585 1.860746 0.900460 0.815947
    23 3.570904 0.000002 -0.000001 0.000000 0.000000 0.479687
    24 2.779234 -0.000001 0.000000 0.000000 0.000000 0.662870
    25 5.246642 0.034821 -2.517332 0.105795 0.232041 0.874311
    26 6.439503 -0.000001 0.000000 0.000000 0.000000 1.194909
    27 3.098978 0.000000 0.000000 0.000000 0.000000 1.264679
    28 5.603584 -0.087752 -0.344059 -0.055061 -0.027306 0.969341
    29 4.928793 0.000000 -0.000004 0.000000 0.000000 1.456578
    30 6.254896 0.000002 -0.000002 0.000000 0.000000 1.395497
    31 5.434063 -0.010812 1.636232 -0.289558 -0.158662 1.268944
    32 4.854518 0.000000 0.000002 0.000000 0.000000 1.203647
    33 5.521277 0.000000 0.000000 0.000000 0.000000 1.578695
    34 -0.000004 0.001486 -3.418189 -0.000014 1.370796 -3.090069
    35 5.304816 0.000000 0.000000 -0.531946 -0.645631 0.623011
    36 18.340565 0.000000 -0.000002 0.000000 0.000000 -2.154045
    37 14.370207 0.000000 0.000002 0.492923 0.063492 0.426669
    38 -0.620573 0.325966 1.592587 -1.904380 -0.900460 0.815947
    39 3.927999 -0.000001 0.000000 0.000000 0.000000 0.226766
    40 2.779240 0.000001 0.000000 0.000000 0.000000 0.662888
    41 5.246641 0.034821 2.517334 -0.287673 -0.216379 0.937613
    42 6.313238 0.000002 0.000002 0.000000 0.000000 1.604833
    43 3.098980 0.000000 0.000001 0.000000 0.000000 0.723936
    44 5.603580 -0.087754 0.344059 0.009956 0.000202 1.020626
    45 4.532814 0.000000 -0.000002 0.000000 0.000000 1.343165
    46 6.615754 0.000002 0.000000 0.000000 0.000000 1.360607
    47 5.434061 -0.010812 -1.636234 0.308165 0.028148 1.430597
    48 4.623351 0.000001 -0.000002 0.000000 0.000000 1.011427
    49 5.521277 0.000000 0.000000 0.000000 0.000000 1.090355
    50 4.170006 3.279094 -1.198655 1.551294 -1.552338 1.554999
    51 3.754124 3.204277 1.399633 -1.589912 -1.497852 4.696121
    52 0.050228 4.476613 -0.976787 1.570361 -1.406402 1.570477
    53 0.921745 4.255628 1.163094 -1.570916 -1.511022 4.711950
  time 11
    0 0.578705 -0.649168 26.575308 0.000000 0.000000 -1.570939
    1 -0.082034 0.007813 0.000000 0.000000 -1.570451 -1.570795
    2 -0.000008 0.000008 4.504590 -3.126092 -0.122366 1.621950
    3 18.184614 0.000000 0.000000 0.000000 0.000000 -1.524640
    4 16.862095 0.000000 0.000000 0.123279 0.006362 -0.223310
    5 0.000011 -0.000005 -4.504589 3.135590 0.086506 1.708983
    6 18.184610 0.000000 0.000000 0.000000 0.000000 -1.408167
    7 16.862091 0.000000 0.000000 -0.084707 -0.018788 -0.450679
    8 1.576611 -0.003992 0.000002 -0.089878 0.000049 0.000646
    9 5.015457 -0.003840 0.000000 -0.034849 0.000000 0.000000
    10 4.822693 -0.003838 0.000000 0.004734 -0.000168 0.034889
    11 4.822556 -0.004685 0.000000 0.000000 0.000000 0.000000
    12 5.883453 -0.001475 0.000000 0.000000 0.000000 -0.052333
    13 1.854832 0.000000 0.000000 0.151525 -0.313716 0.185670
    14 4.577744 2.974503 -4.899295 2.380156 -1.160841 5.856082
    15 -0.576364 -6.294613 1.187798 0.557730 0.000000 0.000000
    16 4.598343 3.014902 4.786890 -1.879541 -1.235303 3.828091
    17 0.671572 -6.281569 1.205063 1.273442 0.000000 0.000000
    18 0.988842 0.018080 3.418189 -0.000014 -1.370796 -3.090042
    19 5.304816 0.000000 0.000000 0.611160 0.688324 0.833576
    20 18.707375 0.000000 -0.000002 0.000000 0.000000 -2.086668
    21 13.951651 0.000000 -0.000004 -0.534484 -0.177354 0.121869
    22 -0.620571 0.325967 -1.592585 1.860746 0.900460 0.815947
    23 3.570904 0.000002 -0.000001 0.000000 0.000000 0.479687
    24 2.779234 -0.000001 0.000000 0.000000 0.000000 0.662870
    25 5.246642 0.034821 -2.517332 0.105795 0.232041 0.874311
    26 6.439503 -0.000001 0.000000 0.000000 0.000000 1.194909
    27 3.098978 0.000000 0.000000 0.000000 0.000000 1.264679
    28 5.603584 -0.087752 -0.344059 -0.055061 -0.027306 0.969341
    29 4.928793 0.000000 -0.000004 0.000000 0.000000 1.456578
    30 6.254896 0.000002 -0.000002 0.000000 0.000000 1.395497
    31 5.434063 -0.010812 1.636232 -0.289558 -0.158662 1.268944
    32 4.854518 0.000000 0.000002 0.000000 0.000000 1.203647
    33 5.521277 0.000000 0.000000 0.000000 0.000000 1.578695
    34 -0.000004 0.001486 -3.418189 -0.000014 1.370796 -3.090069
    35 5.304816 0.000000 0.000000 -0.501202 -0.656884 0.455291
    36 18.340565 0.000000 -0.000002 0.000000 0.000000 -2.130519
    37 14.370207 0.000000 0.000002 0.499371 0.055196 0.465559
    38 -0.620573 0.325966 1.592587 -1.904380 -0.900460 0.815947
    39 3.927999 -0.000001 0.000000 0.000000 0.000000 0.226766
    40 2.779240 0.000001 0.000000 0.000000 0.000000 0.662888
    41 5.246641 0.034821 2.517334 -0.287673 -0.216379 0.937556
    42 6.313238 0.000002 0.000002 0.000000 0.000000 1.604833
    43 3.098980 0.000000 0.000001 0.000000 0.000000 0.723936
    44 5.603580 -0.087754 0.344059 0.009956 0.000202 1.020626
    45 4.532814 0.000000 -0.000002 0.000000 0.000000 1.343165
    46 6.615754 0.000002 0.000000 0.000000 0.000000 1.360607
    47 5.434061 -0.010812 -1.636234 0.308165 0.028148 1.430597
    48 4.623351 0.000001 -0.000002 0.000000 0.000000 1.011462
    49 5.521277 0.000000 0.000000 0.000000 0.000000 1.090355
    50 4.170006 3.279094 -1.198655 -1.589491 -1.377065 4.696034
    51 3.754124 3.204277 1.399633 1.551706 -1.484592 1.554470
    52 0.050228 4.476613 -0.976787 -1.571018 -1.521950 4.711884
    53 0.921745 4.255628 1.163094 1.570549 -1.422263 1.570531
  time 12
    0 0.578705 -0.632823 26.538683 0.000000 0.000000 -1.570939
    1 -0.082034 0.007813 0.000000 0.000000 -1.570451 -1.570795
    2 -0.000008 0.000008 4.504590 -3.132231 -0.117393 1.675974
    3 18.184614 0.000000 0.000000 0.000000 0.000000 -1.485053
    4 16.862095 0.000000 0.000000 0.117689 0.004485 -0.203608
    5 0.000011 -0.000005 -4.504589 3.132040 0.079046 1.652385
    6 18.184610 0.000000 0.000000 0.000000 0.000000 -1.499355
    7 16.862091 0.000000 0.000000 -0.077683 -0.017691 -0.416059
    8 1.576611 -0.003992 0.000002 -0.130881 0.000074 0.000646
    9 5.015457 -0.003840 0.000000 -0.050568 0.000000 0.000000
    10 4.822693 -0.003838 0.000000 0.009108 -0.000324 0.034889
    11 4.822556 -0.004685 0.000000 0.000000 0.000000 0.000000
    12 5.883453 -0.001475 0.000000 0.000000 0.000000 -0.052333
    13 1.854832 0.000000 0.000000 0.217845 -0.153506 -0.101407
    14 4.577744 2.974503 -4.899295 2.888293 -1.157452 5.801283
    15 -0.576364 -6.294613 1.187798 0.904872 0.000000 0.000000
    16 4.598343 3.014902 4.786890 -2.013849 -1.228661 4.135710
    17 0.671572 -6.281569 1.205063 0.942157 0.000000 0.000000
    18 0.988842 0.018080 3.418189 -0.000014 -1.370796 -3.090042
    19 5.304816 0.000000 0.000000 0.620901 0.679512 0.906990
    20 18.707375 0.000000 -0.000002 0.000000 0.000000 -2.093372
    21 13.951651 0.000000 -0.000004 -0.537060 -0.178252 0.101988
    22 -0.620571 0.325967 -1.592585 1.860746 0.900460 0.815947
    23 3.570904 0.000002 -0.000001 0.000000 0.000000 0.479687
    24 2.779234 -0.000001 0.000000 0.000000 0.000000 0.662870
    25 5.246642 0.034821 -2.517332 0.105795 0.232041 0.874311
    26 6.439503 -0.000001 0.000000 0.000000 0.000000 1.194909
    27 3.098978 0.000000 0.000000 0.000000 0.000000 1.264679
    28 5.603584 -0.087752 -0.344059 -0.055061 -0.027306 0.969341
    29 4.928793 0.000000 -0.000004 0.000000 0.000000 1.456578
    30 6.254896 0.000002 -0.000002 0.000000 0.000000 1.395497
    31 5.434063 -0.010812 1.636232 -0.289558 -0.158662 1.268944
    32 4.854518 0.000000 0.000002 0.000000 0.000000 1.203647
    33 5.521277 0.000000 0.000000 0.000000 0.000000 1.578695
    34 -0.000004 0.001486 -3.418189 -0.000014 1.370796 -3.090069
    35 5.304816 0.000000 0.000000 -0.483676 -0.663436 0.378134
    36 18.340565 0.000000 -0.000002 0.000000 0.000000 -2.118338
    37 14.370207 0.000000 0.000002 0.501341 0.046759 0.482086
    38 -0.620573 0.325966 1.592587 -1.904380 -0.900460 0.815947
    39 3.927999 -0.000001 0.000000 0.000000 0.000000 0.226766
    40 2.779240 0.000001 0.000000 0.000000 0.000000 0.662888
    41 5.246641 0.034821 2.517334 -0.287673 -0.216379 0.937556
    42 6.313238 0.000002 0.000002 0.000000 0.000000 1.604833
    43 3.098980 0.000000 0.000001 0.000000 0.000000 0.723936
    44 5.603580 -0.087754 0.344059 0.009956 0.000202 1.020626
    45 4.532814 0.000000 -0.000002 0.000000 0.000000 1.343165
    46 6.615754 0.000002 0.000000 0.000000 0.000000 1.360607
    47 5.434061 -0.010812 -1.636234 0.308165 0.028148 1.430597
    48 4.623351 0.000001 -0.000002 0.000000 0.000000 1.011462
    49 5.521277 0.000000 0.000000 0.000000 0.000000 1.090355
    50 4.170006 3.279094 -1.198655 -1.589491 -1.167845 4.696221
    51 3.754124 3.204277 1.399633 1.551794 -1.323035 1.554646
    52 0.050228 4.476613 -0.976787 -1.571018 -1.308820 4.711884
    53 0.921745 4.255628 1.163094 1.570549 -1.215030 1.570531
  time 13
    0 0.578705 -0.632823 26.496826 0.000000 0.000000 -1.570939
    1 -0.082034 0.000000 0.000000 0.000000 -1.570451 -1.570795
    2 -0.000008 0.000008 4.504590 -3.136437 -0.112419 1.714126
    3 18.184614 0.000000 0.000000 0.000000 0.000000 -1.454413
    4 16.862095 0.000000 0.000000 0.112463 0.005119 -0.207931
    5 0.000011 -0.000005 -4.504589 3.130417 0.072420 1.619455
    6 18.184610 0.000000 0.000000 0.000000 0.000000 -1.553108
    7 16.862091 0.000000 0.000000 -0.071459 -0.016319 -0.395341
    8 1.576611 -0.003992 0.000002 -0.038957 0.000024 0.000646
    9 5.015457 -0.003840 0.000000 -0.020683 0.000000 0.000000
    10 4.822693 -0.003838 0.000000 0.007442 -0.000264 0.034889
    11 4.822556 -0.004685 0.000000 0.000000 0.000000 0.000000
    12 5.883453 -0.001475 0.000000 0.000000 0.000000 -0.052333
    13 1.854832 0.000000 0.000000 0.041767 0.050457 -0.077354
    14 4.577744 2.974503 -4.899295 -3.054957 -1.178855 5.772926
    15 -0.576364 -6.294613 1.187798 1.058667 0.000000 0.000000
    16 4.598343 3.014902 4.786890 -2.039677 -1.228965 4.325403
    17 0.671572 -6.281569 1.205063 0.669157 0.000000 0.000000
    18 0.988842 0.018080 3.418189 -0.000014 -1.370796 -3.090042
    19 5.304816 0.000000 0.000000 0.593494 0.695418 0.732652
    20 18.707375 0.000000 -0.000002 0.000000 0.000000 -2.084001
    21 13.951651 0.000000 -0.000004 -0.537823 -0.176774 0.156257
    22 -0.620571 0.325967 -1.592585 1.860746 0.900460 0.815947
    23 3.570904 0.000002 -0.000001 0.000000 0.000000 0.479687
    24 2.779234 -0.000001 0.000000 0.000000 0.000000 0.662870
    25 5.246642 0.034821 -2.517332 0.105795 0.232041 0.874311
    26 6.439503 -0.000001 0.000000 0.000000 0.000000 1.194909
    27 3.098978 0.000000 0.000000 0.000000 0.000000 1.264679
    28 5.603584 -0.087752 -0.344059 -0.055061 -0.027306 0.969341
    29 4.928793 0.000000 -0.000004 0.000000 0.000000 1.456578
    30 6.254896 0.000002 -0.000002 0.000000 0.000000 1.395497
    31 5.434063 -0.010812 1.636232 -0.289558 -0.158685 1.268944
    32 4.854518 0.000000 0.000002 0.000000 0.000000 1.203647
    33 5.521277 0.000000 0.000000 0.000000 0.000000 1.578695
    34 -0.000004 0.001486 -3.418189 -0.000014 1.370796 -3.090069
    35 5.304816 0.000000 0.000000 -0.514707 -0.649690 0.553882
    36 18.340565 0.000000 -0.000002 0.000000 0.000000 -2.151533
    37 14.370207 0.000000 0.000002 0.497311 0.057397 0.450803
    38 -0.620573 0.325966 1.592587 -1.904380 -0.900460 0.815947
    39 3.927999 -0.000001 0.000000 0.000000 0.000000 0.226766
    40 2.779240 0.000001 0.000000 0.000000 0.000000 0.662888
    41 5.246641 0.034821 2.517334 -0.287673 -0.216379 0.937556
    42 6.313238 0.000002 0.000002 0.000000 0.000000 1.604833
    43 3.098980 0.000000 0.000001 0.000000 0.000000 0.723936
    44 5.603580 -0.087754 0.344059 0.009956 0.000202 1.020626
    45 4.532814 0.000000 -0.000002 0.000000 0.000000 1.343165
    46 6.615754 0.000002 0.000000 0.000000 0.000000 1.360607
    47 5.434061 -0.010812 -1.636234 0.308165 0.028148 1.430597
    48 4.623351 0.000001 -0.000002 0.000000 0.000000 1.011427
    49 5.521277 0.000000 0.000000 0.000000 0.000000 1.090355
    50 4.170006 3.279094 -1.198655 -1.589491 -1.073301 4.696315
    51 3.754124 3.204277 1.399633 1.551881 -1.249151 1.554734
    52 0.050228 4.476613 -0.976787 -1.571018 -1.211948 4.711884
    53 0.921745 4.255628 1.163094 1.570549 -1.121057 1.570531
  time 14
    0 0.578705 -0.616478 26.454970 0.000000 0.000000 -1.570939
    1 -0.082034 -0.007813 0.000000 0.000000 -1.570451 -1.570795
    2 -0.000008 0.000008 4.504590 -3.137318 -0.108006 1.722541
    3 18.184614 0.000000 0.000000 0.000000 0.000000 -1.445035
    4 16.862095 0.000000 0.000000 0.107811 0.008434 -0.243614
    5 0.000011 -0.000005 -4.504589 3.131765 0.066906 1.627500
    6 18.184610 0.000000 0.000000 0.000000 0.000000 -1.546265
    7 16.862091 0.000000 0.000000 -0.065907 -0.014993 -0.394313
    8 1.576611 -0.003992 0.000002 0.098292 -0.000051 0.000646
    9 5.015457 -0.003840 0.000000 0.023881 0.000000 0.000000
    10 4.822693 -0.003838 0.000000 0.003955 -0.000132 0.034889
    11 4.822556 -0.004685 0.000000 0.000000 0.000000 0.000000
    12 5.883453 -0.001475 0.000000 0.000000 0.000000 -0.052333
    13 1.854832 0.000000 0.000000 -0.173646 0.239112 0.003977
    14 4.577744 2.974503 -4.899295 -2.928258 -1.241503 5.752424
    15 -0.576364 -6.294613 1.187798 0.938458 0.000000 0.000000
    16 4.598343 3.014902 4.786890 -1.925554 -1.254144 4.360189
    17 0.671572 -6.281569 1.205063 0.481128 0.000000 0.000000
    18 0.988842 0.018080 3.418189 -0.000014 -1.370796 -3.090042
    19 5.304816 0.000000 0.000000 0.547083 0.713759 0.471185
    20 18.707375 0.000000 -0.000002 0.000000 0.000000 -2.052690
    21 13.951651 0.000000 -0.000004 -0.548699 -0.169902 0.219720
    22 -0.620571 0.325967 -1.592585 1.860746 0.900460 0.815947
    23 3.570904 0.000002 -0.000001 0.000000 0.000000 0.479687
    24 2.779234 -0.000001 0.000000 0.000000 0.000000 0.662870
    25 5.246642 0.034821 -2.517332 0.105795 0.232041 0.874311
    26 6.439503 -0.000001 0.000000 0.000000 0.000000 1.194909
    27 3.098978 0.000000 0.000000 0.000000 0.000000 1.264679
    28 5.603584 -0.087752 -0.344059 -0.055061 -0.027306 0.969341
    29 4.928793 0.000000 -0.000004 0.000000 0.000000 1.456578
    30 6.254896 0.000002 -0.000002 0.000000 0.000000 1.395497
    31 5.434063 -0.010812 1.636232 -0.289558 -0.158685 1.268944
    32 4.854518 0.000000 0.000002 0.000000 0.000000 1.203647
    33 5.521277 0.000000 0.000000 0.000000 0.000000 1.578695
    34 -0.000004 0.001486 -3.418189 -0.000014 1.370796 -3.090069
    35 5.304816 0.000000 0.000000 -0.557710 -0.622840 0.816721
    36 18.340565 0.000000 -0.000002 0.000000 0.000000 -2.183890
    37 14.370207 0.000000 0.000002 0.498654 0.067415 0.382860
    38 -0.620573 0.325966 1.592587 -1.904380 -0.900460 0.815947
    39 3.927999 -0.000001 0.000000 0.000000 0.000000 0.226766
    40 2.779240 0.000001 0.000000 0.000000 0.000000 0.662888
    41 5.246641 0.034821 2.517334 -0.287673 -0.216379 0.937556
    42 6.313238 0.000002 0.000002 0.000000 0.000000 1.604833
    43 3.098980 0.000000 0.000001 0.000000 0.000000 0.723936
    44 5.603580 -0.087754 0.344059 0.009956 0.000202 1.020626
    45 4.532814 0.000000 -0.000002 0.000000 0.000000 1.343198
    46 6.615754 0.000002 0.000000 0.000000 0.000000 1.360607
    47 5.434061 -0.010812 -1.636234 0.308165 0.028148 1.430597
    48 4.623351 0.000001 -0.000002 0.000000 0.000000 1.011462
    49 5.521277 0.000000 0.000000 0.000000 0.000000 1.090355
    50 4.170006 3.279094 -1.198655 -1.589491 -1.141062 4.696221
    51 3.754124 3.204277 1.399633 1.551794 -1.299608 1.554646
    52 0.050228 4.476613 -0.976787 -1.571018 -1.279851 4.711884
    53 0.921745 4.255628 1.163094 1.570549 -1.187425 1.570531
  time 15
    0 0.578705 -0.616478 26.418345 0.000000 0.000000 -1.570939
    1 -0.082034 -0.019532 0.000000 0.000000 -1.570451 -1.570795
    2 -0.000008 0.000008 4.504590 -3.137024 -0.103813 1.719863
    3 18.184614 0.000000 0.000000 0.000000 0.000000 -1.441957
    4 16.862095 0.000000 0.000000 0.103159 0.012821 -0.296209
    5 0.000011 -0.000005 -4.504589 3.133966 0.061901 1.652104
    6 18.184610 0.000000 0.000000 0.000000 0.000000 -1.513042
    7 16.862091 0.000000 0.000000 -0.060871 -0.013804 -0.403131
    8 1.576611 -0.003992 0.000002 0.183235 -0.000101 0.000646
    9 5.015457 -0.003840 0.000000 0.052334 0.000000 0.000000
    10 4.822693 -0.003838 0.000000 0.001019 -0.000036 0.034889
    11 4.822556 -0.004685 0.000000 0.000000 0.000000 0.000000
    12 5.883453 -0.001475 0.000000 0.000000 0.000000 -0.052333
    13 1.854832 0.000000 0.000000 -0.267569 0.312111 0.142221
    14 4.577744 2.974503 -4.899295 -2.900273 -1.343435 5.737958
    15 -0.576364 -6.294613 1.187798 0.657655 0.000000 0.000000
    16 4.598343 3.014902 4.786890 -1.694916 -1.296862 4.277526
    17 0.671572 -6.281569 1.205063 0.316267 0.000000 0.000000
    18 0.988842 0.018080 3.418189 -0.000014 -1.370796 -3.090042
    19 5.304816 0.000000 0.000000 0.516429 0.720351 0.308897
    20 18.707375 0.000000 -0.000002 0.000000 0.000000 -2.024731
    21 13.951651 0.000000 -0.000004 -0.561578 -0.163553 0.249153
    22 -0.620571 0.325967 -1.592585 1.860746 0.900460 0.815947
    23 3.570904 0.000002 -0.000001 0.000000 0.000000 0.479687
    24 2.779234 -0.000001 0.000000 0.000000 0.000000 0.662870
    25 5.246642 0.034821 -2.517332 0.105795 0.232041 0.874311
    26 6.439503 -0.000001 0.000000 0.000000 0.000000 1.194909
    27 3.098978 0.000000 0.000000 0.000000 0.000000 1.264679
    28 5.603584 -0.087752 -0.344059 -0.055061 -0.027306 0.969341
    29 4.928793 0.000000 -0.000004 0.000000 0.000000 1.456578
    30 6.254896 0.000002 -0.000002 0.000000 0.000000 1.395497
    31 5.434063 -0.010812 1.636232 -0.289558 -0.158685 1.268944
    32 4.854518 0.000000 0.000002 0.000000 0.000000 1.203647
    33 5.521277 0.000000 0.000000 0.000000 0.000000 1.578695
    34 -0.000004 0.001486 -3.418189 -0.000014 1.370796 -3.090069
    35 5.304816 0.000000 0.000000 -0.581749 -0.599408 0.974915
    36 18.340565 0.000000 -0.000002 0.000000 0.000000 -2.194092
    37 14.370207 0.000000 0.000002 0.507967 0.074017 0.330919
    38 -0.620573 0.325966 1.592587 -1.904380 -0.900460 0.815947
    39 3.927999 -0.000001 0.000000 0.000000 0.000000 0.226766
    40 2.779240 0.000001 0.000000 0.000000 0.000000 0.662888
    41 5.246641 0.034821 2.517334 -0.287673 -0.216379 0.937556
    42 6.313238 0.000002 0.000002 0.000000 0.000000 1.604833
    43 3.098980 0.000000 0.000001 0.000000 0.000000 0.723936
    44 5.603580 -0.087754 0.344059 0.009956 0.000202 1.020626
    45 4.532814 0.000000 -0.000002 0.000000 0.000000 1.343165
    46 6.615754 0.000002 0.000000 0.000000 0.000000 1.360607
    47 5.434061 -0.010812 -1.636234 0.308165 0.028148 1.430597
    48 4.623351 0.000001 -0.000002 0.000000 0.000000 1.011427
    49 5.521277 0.000000 0.000000 0.000000 0.000000 1.090355
    50 4.170006 3.279094 -1.198655 -1.589491 -1.305666 4.696128
    51 3.754124 3.204277 1.399633 1.551794 -1.422127 1.554558
    52 0.050228 4.476613 -0.976787 -1.571018 -1.444709 4.711884
    53 0.921745 4.255628 1.163094 1.570549 -1.348610 1.570531
  time 16
    0 0.578705 -0.600133 26.407881 0.000000 0.000000 -1.570939
    1 -0.082034 -0.007813 0.000000 0.000000 -1.570451 -1.570795
    2 -0.000008 0.000008 4.504590 -3.136339 -0.099766 1.712788
    3 18.184614 0.000000 0.000000 0.000000 0.000000 -1.441312
    4 16.862095 0.000000 0.000000 0.098488 0.017306 -0.355644
    5 0.000011 -0.000005 -4.504589 3.136552 0.057129 1.683350
    6 18.184610 0.000000 0.000000 0.000000 0.000000 -1.469232
    7 16.862091 0.000000 0.000000 -0.055912 -0.012798 -0.415789
    8 1.576611 -0.003992 0.000002 0.121066 -0.000076 0.000646
    9 5.015457 -0.003840 0.000000 0.035226 0.000000 0.000000
    10 4.822693 -0.003838 0.000000 0.000180 0.000000 0.034889
    11 4.822556 -0.004685 0.000000 0.000000 0.000000 0.000000
    12 5.883453 -0.001475 0.000000 0.000000 0.000000 -0.052333
    13 1.854832 0.000000 0.000000 -0.141176 0.306891 0.390915
    14 4.577744 2.974503 -4.899295 -2.932858 -1.461106 5.747634
    15 -0.576364 -6.294613 1.187798 0.312780 0.000000 0.000000
    16 4.598343 3.014902 4.786890 -1.354651 -1.335022 4.084106
    17 0.671572 -6.281569 1.205063 0.160339 0.000000 0.000000
    18 0.988842 0.018080 3.418189 -0.000014 -1.370796 -3.090042
    19 5.304816 0.000000 0.000000 0.536292 0.716625 0.426312
    20 18.707375 0.000000 -0.000002 0.000000 0.000000 -2.048119
    21 13.951651 0.000000 -0.000004 -0.551847 -0.165959 0.231720
    22 -0.620571 0.325967 -1.592585 1.860746 0.900460 0.815947
    23 3.570904 0.000002 -0.000001 0.000000 0.000000 0.479687
    24 2.779234 -0.000001 0.000000 0.000000 0.000000 0.662870
    25 5.246642 0.034821 -2.517332 0.105795 0.232041 0.874311
    26 6.439503 -0.000001 0.000000 0.000000 0.000000 1.194909
    27 3.098978 0.000000 0.000000 0.000000 0.000000 1.264679
    28 5.603584 -0.087752 -0.344059 -0.055061 -0.027306 0.969341
    29 4.928793 0.000000 -0.000004 0.000000 0.000000 1.456578
    30 6.254896 0.000002 -0.000002 0.000000 0.000000 1.395497
    31 5.434063 -0.010812 1.636232 -0.289558 -0.158685 1.268944
    32 4.854518 0.000000 0.000002 0.000000 0.000000 1.203647
    33 5.521277 0.000000 0.000000 0.000000 0.000000 1.578695
    34 -0.000004 0.001486 -3.418189 -0.000014 1.370796 -3.090069
    35 5.304816 0.000000 0.000000 -0.562977 -0.615718 0.859042
    36 18.340565 0.000000 -0.000002 0.000000 0.000000 -2.189981
    37 14.370207 0.000000 0.000002 0.502326 0.068882 0.372301
    38 -0.620573 0.325966 1.592587 -1.904380 -0.900460 0.815947
    39 3.927999 -0.000001 0.000000 0.000000 0.000000 0.226766
    40 2.779240 0.000001 0.000000 0.000000 0.000000 0.662888
    41 5.246641 0.034821 2.517334 -0.287673 -0.216379 0.937613
    42 6.313238 0.000002 0.000002 0.000000 0.000000 1.604833
    43 3.098980 0.000000 0.000001 0.000000 0.000000 0.723936
    44 5.603580 -0.087754 0.344059 0.009956 0.000202 1.020626
    45 4.532814 0.000000 -0.000002 0.000000 0.000000 1.343133
    46 6.615754 0.000002 0.000000 0.000000 0.000000 1.360607
    47 5.434061 -0.010812 -1.636234 0.308165 0.028148 1.430597
    48 4.623351 0.000001 -0.000002 0.000000 0.000000 1.011427
    49 5.521277 0.000000 0.000000 0.000000 0.000000 1.090355
    50 4.170006 3.279094 -1.198655 -1.589584 -1.509039 4.695940
    51 3.754124 3.204277 1.399633 -1.592020 -1.568171 4.698230
    52 0.050228 4.476613 -0.976787 1.570455 -1.493336 1.570477
    53 0.921745 4.255628 1.163094 1.570475 -1.547734 1.570531
  time 17
    0 0.578705 -0.600133 26.386952 0.000000 0.000000 -1.570939
    1 -0.082034 0.000000 0.000000 0.000000 -1.570451 -1.570795
    2 -0.000008 0.000008 4.504590 -3.135972 -0.095719 1.708007
    3 18.184614 0.000000 0.000000 0.000000 0.000000 -1.439451
    4 16.862095 0.000000 0.000000 0.093568 0.021084 -0.411741
    5 0.000011 -0.000005 -4.504589 3.138753 0.052171 1.711228
    6 18.184610 0.000000 0.000000 0.000000 0.000000 -1.430745
    7 16.862091 0.000000 0.000000 -0.050877 -0.011929 -0.426499
    8 1.576611 -0.003992 0.000002 -0.000004 -0.000001 0.000646
    9 5.015457 -0.003840 0.000000 0.000000 0.000000 0.000000
    10 4.822693 -0.003838 0.000000 0.000000 0.000000 0.034889
    11 4.822556 -0.004685 0.000000 0.000000 0.000000 0.000000
    12 5.883453 -0.001475 0.000000 0.000000 0.000000 -0.052333
    13 1.854832 0.000000 0.000000 -0.000001 -0.000001 0.871506
    14 4.577744 2.974503 -4.899295 0.000000 -1.570796 2.810149
    15 -0.576364 -6.294613 1.187798 0.000000 0.000000 0.000000
    16 4.598343 3.014902 4.786890 0.000000 -1.570796 2.810149
    17 0.671572 -6.281569 1.205063 0.000000 0.000000 0.000000
    18 0.988842 0.018080 3.418189 -0.000014 -1.370796 -3.090042
    19 5.304816 0.000000 0.000000 0.575827 0.703012 0.656146
    20 18.707375 0.000000 -0.000002 0.000000 0.000000 -2.081868
    21 13.951651 0.000000 -0.000004 -0.540208 -0.170772 0.182944
    22 -0.620571 0.325967 -1.592585 1.860746 0.900460 0.815947
    23 3.570904 0.000002 -0.000001 0.000000 0.000000 0.479687
    24 2.779234 -0.000001 0.000000 0.000000 0.000000 0.662870
    25 5.246642 0.034821 -2.517332 0.105795 0.232041 0.874311
    26 6.439503 -0.000001 0.000000 0.000000 0.000000 1.194909
    27 3.098978 0.000000 0.000000 0.000000 0.000000 1.264679
    28 5.603584 -0.087752 -0.344059 -0.055061 -0.027306 0.969341
    29 4.928793 0.000000 -0.000004 0.000000 0.000000 1.456578
    30 6.254896 0.000002 -0.000002 0.000000 0.000000 1.395497
    31 5.434063 -0.010812 1.636232 -0.289558 -0.158662 1.268944
    32 4.854518 0.000000 0.000002 0.000000 0.000000 1.203647
    33 5.521277 0.000000 0.000000 0.000000 0.000000 1.578695
    34 -0.000004 0.001486 -3.418189 -0.000014 1.370796 -3.090069
    35 5.304816 0.000000 0.000000 -0.524955 -0.640147 0.627161
    36 18.340565 0.000000 -0.000002 0.000000 0.000000 -2.167597
    37 14.370207 0.000000 0.000002 0.500445 0.060868 0.439523
    38 -0.620573 0.325966 1.592587 -1.904380 -0.900460 0.815947
    39 3.927999 -0.000001 0.000000 0.000000 0.000000 0.226766
    40 2.779240 0.000001 0.000000 0.000000 0.000000 0.662888
    41 5.246641 0.034821 2.517334 -0.287673 -0.216379 0.937556
    42 6.313238 0.000002 0.000002 0.000000 0.000000 1.604833
    43 3.098980 0.000000 0.000001 0.000000 0.000000 0.723936
    44 5.603580 -0.087754 0.344059 0.009956 0.000202 1.020626
    45 4.532814 0.000000 -0.000002 0.000000 0.000000 1.343198
    46 6.615754 0.000002 0.000000 0.000000 0.000000 1.360607
    47 5.434061 -0.010812 -1.636234 0.308165 0.028148 1.430597
    48 4.623351 0.000001 -0.000002 0.000000 0.000000 1.011462
    49 5.521277 0.000000 0.000000 0.000000 0.000000 1.090355
    50 4.170006 3.279094 -1.198655 1.551575 -1.448665 1.554530
    51 3.754124 3.204277 1.399633 -1.589912 -1.431177 4.696034
    52 0.050228 4.476613 -0.976787 1.570361 -1.309066 1.570477
    53 0.921745 4.255628 1.163094 -1.570990 -1.413732 4.711950
end
