// Created by Crowbar 0.58
version 1
nodes
  0 "Bip01" -1
  1 "Bip01 Pelvis" 0
  2 "Bip01 L Thigh" 1
  3 "Bip01 L Calf" 2
  4 "Bip01 L Foot" 3
  5 "Bip01 R Thigh" 1
  6 "Bip01 R Calf" 5
  7 "Bip01 R Foot" 6
  8 "Bip01 Spine" 1
  9 "Bip01 Spine1" 8
  10 "Bip01 Spine2" 9
  11 "Bip01 Spine3" 10
  12 "Bip01 Neck" 11
  13 "Bip01 Head" 12
  14 "Bone09" 13
  15 "Bone10" 14
  16 "Bone12" 13
  17 "Bone13" 16
  18 "Bip01 L Clavicle" 12
  19 "Bip01 L UpperArm" 18
  20 "Bip01 L Forearm" 19
  21 "Bip01 L Hand" 20
  22 "Bip01 L Finger0" 21
  23 "Bip01 L Finger01" 22
  24 "Bip01 L Finger02" 23
  25 "Bip01 L Finger1" 21
  26 "Bip01 L Finger11" 25
  27 "Bip01 L Finger12" 26
  28 "Bip01 L Finger2" 21
  29 "Bip01 L Finger21" 28
  30 "Bip01 L Finger22" 29
  31 "Bip01 L Finger3" 21
  32 "Bip01 L Finger31" 31
  33 "Bip01 L Finger32" 32
  34 "Bip01 R Clavicle" 12
  35 "Bip01 R UpperArm" 34
  36 "Bip01 R Forearm" 35
  37 "Bip01 R Hand" 36
  38 "Bip01 R Finger0" 37
  39 "Bip01 R Finger01" 38
  40 "Bip01 R Finger02" 39
  41 "Bip01 R Finger1" 37
  42 "Bip01 R Finger11" 41
  43 "Bip01 R Finger12" 42
  44 "Bip01 R Finger2" 37
  45 "Bip01 R Finger21" 44
  46 "Bip01 R Finger22" 45
  47 "Bip01 R Finger3" 37
  48 "Bip01 R Finger31" 47
  49 "Bip01 R Finger32" 48
  50 "Bone01" 10
  51 "Bone03" 10
  52 "Bone05" 9
  53 "Bone07" 9
end
skeleton
  time 0
    0 -88.828949 -0.583788 4.553380 0.000000 1.396205 -0.000190
    1 3.531250 0.000000 0.000000 0.000000 -1.570451 -1.570795
    2 -0.000008 0.000008 4.504590 -3.141500 -0.000027 3.100789
    3 18.184614 0.000000 0.000000 0.000000 0.000000 -0.374657
    4 16.862095 0.000000 0.000000 -0.000007 -0.000048 -0.363963
    5 0.000011 -0.000005 -4.504589 3.141477 0.000042 3.100927
    6 18.184610 0.000000 0.000000 0.000000 0.000000 -0.374685
    7 16.862091 0.000000 0.000000 0.000049 0.000097 -0.538473
    8 1.576611 -0.003992 0.000002 -0.000004 0.000000 -0.261096
    9 5.015457 -0.003840 0.000000 0.000000 0.000000 -0.174420
    10 4.822693 -0.003838 0.000000 0.000000 0.000000 -0.139626
    11 4.822556 -0.004685 0.000000 0.000000 0.000000 -0.087256
    12 5.883453 -0.001475 0.000000 0.000000 0.000000 -0.052333
    13 1.854832 0.000000 0.000000 -0.000001 -0.000001 -0.175298
    14 4.577744 2.974503 -4.899295 0.000000 -1.570796 2.810149
    15 -0.576364 -6.294613 1.187798 0.000000 0.000000 0.000000
    16 4.598343 3.014902 4.786890 0.000000 -1.570796 2.810149
    17 0.671572 -6.281569 1.205063 0.000000 0.000000 0.000000
    18 0.988842 0.018080 3.418189 -0.000014 -1.370796 -3.090042
    19 5.304816 0.000000 0.000000 -1.156078 0.141147 -1.363368
    20 18.707375 0.000000 -0.000002 0.000000 0.000000 -0.988868
    21 13.951651 0.000000 -0.000004 0.191422 -0.123077 -1.051148
    22 -0.620571 0.325967 -1.592585 1.860746 0.900460 0.815947
    23 3.570904 0.000002 -0.000001 0.000000 0.000000 0.069814
    24 2.779234 -0.000001 0.000000 0.000000 0.000000 0.662868
    25 5.246642 0.034821 -2.517332 0.014037 0.254248 0.497446
    26 6.439503 -0.000001 0.000000 0.000000 0.000000 0.139592
    27 3.098978 0.000000 0.000000 0.000000 0.000000 0.750105
    28 5.603584 -0.087752 -0.344059 -0.019672 -0.058226 0.184099
    29 4.928793 0.000000 -0.000004 0.000000 0.000000 0.645496
    30 6.254896 0.000002 -0.000002 0.000000 0.000000 0.680324
    31 5.434063 -0.010812 1.636232 -0.083911 -0.318614 0.448028
    32 4.854518 0.000000 0.000002 0.000000 0.000000 0.471063
    33 5.521277 0.000000 0.000000 0.000000 0.000000 0.941960
    34 -0.000004 0.001486 -3.418189 -0.000014 1.370796 -3.090069
    35 5.304816 0.000000 0.000000 1.096129 -0.095234 -1.293614
    36 18.340565 0.000000 -0.000002 0.000000 0.000000 -1.031056
    37 14.370207 0.000000 0.000002 -0.020896 0.122890 -0.786667
    38 -0.620573 0.325966 1.592587 -1.904380 -0.900460 0.815947
    39 3.927999 -0.000001 0.000000 0.000000 0.000000 0.226768
    40 2.779240 0.000001 0.000000 0.000000 0.000000 0.662886
    41 5.246641 0.034821 2.517334 -0.134830 -0.332825 0.388147
    42 6.313238 0.000002 0.000002 0.000000 0.000000 0.610601
    43 3.098980 0.000000 0.000001 0.000000 0.000000 0.540793
    44 5.603580 -0.087754 0.344059 0.005498 0.008328 0.052533
    45 4.532814 0.000000 -0.000002 0.000000 0.000000 0.697778
    46 6.615754 0.000002 0.000000 0.000000 0.000000 0.628000
    47 5.434061 -0.010812 -1.636234 0.092228 0.299427 0.336527
    48 4.623351 0.000001 -0.000002 0.000000 0.000000 0.941965
    49 5.521277 0.000000 0.000000 0.000000 0.000000 0.558242
    50 4.170006 3.279094 -1.198655 -1.589771 -1.117025 4.695940
    51 3.754124 3.204277 1.399633 1.551442 -1.108317 1.554470
    52 0.050228 4.476613 -0.976787 -1.571018 -1.326485 4.711884
    53 0.921745 4.255628 1.163094 1.570549 -1.003618 1.570531
  time 1
    0 -88.828949 -0.583788 4.553380 0.000000 1.396205 -0.000190
    1 3.531250 0.000000 0.000000 0.000000 -1.570451 -1.570795
    2 -0.000008 0.000008 4.504590 -3.141500 -0.000027 3.100789
    3 18.184614 0.000000 0.000000 0.000000 0.000000 -0.374657
    4 16.862095 0.000000 0.000000 -0.000007 -0.000048 -0.363963
    5 0.000011 -0.000005 -4.504589 3.141477 0.000042 3.100927
    6 18.184610 0.000000 0.000000 0.000000 0.000000 -0.374685
    7 16.862091 0.000000 0.000000 0.000049 0.000097 -0.538473
    8 1.576611 -0.003992 0.000002 -0.000004 0.000000 -0.261096
    9 5.015457 -0.003840 0.000000 0.000000 0.000000 -0.174420
    10 4.822693 -0.003838 0.000000 0.000000 0.000000 -0.139626
    11 4.822556 -0.004685 0.000000 0.000000 0.000000 -0.087256
    12 5.883453 -0.001475 0.000000 0.000000 0.000000 -0.052333
    13 1.854832 0.000000 0.000000 -0.000001 -0.000001 -0.175298
    14 4.577744 2.974503 -4.899295 0.000000 -1.570796 2.810149
    15 -0.576364 -6.294613 1.187798 0.000000 0.000000 0.000000
    16 4.598343 3.014902 4.786890 0.000000 -1.570796 2.810149
    17 0.671572 -6.281569 1.205063 0.000000 0.000000 0.000000
    18 0.988842 0.018080 3.418189 -0.000014 -1.370796 -3.090042
    19 5.304816 0.000000 0.000000 -1.156078 0.141147 -1.363368
    20 18.707375 0.000000 -0.000002 0.000000 0.000000 -0.988868
    21 13.951651 0.000000 -0.000004 0.191422 -0.123077 -1.051148
    22 -0.620571 0.325967 -1.592585 1.860746 0.900460 0.815947
    23 3.570904 0.000002 -0.000001 0.000000 0.000000 0.069814
    24 2.779234 -0.000001 0.000000 0.000000 0.000000 0.662868
    25 5.246642 0.034821 -2.517332 0.014037 0.254248 0.497446
    26 6.439503 -0.000001 0.000000 0.000000 0.000000 0.139592
    27 3.098978 0.000000 0.000000 0.000000 0.000000 0.750105
    28 5.603584 -0.087752 -0.344059 -0.019672 -0.058226 0.184099
    29 4.928793 0.000000 -0.000004 0.000000 0.000000 0.645496
    30 6.254896 0.000002 -0.000002 0.000000 0.000000 0.680324
    31 5.434063 -0.010812 1.636232 -0.083911 -0.318614 0.448028
    32 4.854518 0.000000 0.000002 0.000000 0.000000 0.471063
    33 5.521277 0.000000 0.000000 0.000000 0.000000 0.941960
    34 -0.000004 0.001486 -3.418189 -0.000014 1.370796 -3.090069
    35 5.304816 0.000000 0.000000 1.096129 -0.095234 -1.293614
    36 18.340565 0.000000 -0.000002 0.000000 0.000000 -1.031056
    37 14.370207 0.000000 0.000002 -0.020896 0.122890 -0.786667
    38 -0.620573 0.325966 1.592587 -1.904380 -0.900460 0.815947
    39 3.927999 -0.000001 0.000000 0.000000 0.000000 0.226768
    40 2.779240 0.000001 0.000000 0.000000 0.000000 0.662886
    41 5.246641 0.034821 2.517334 -0.134830 -0.332825 0.388147
    42 6.313238 0.000002 0.000002 0.000000 0.000000 0.610601
    43 3.098980 0.000000 0.000001 0.000000 0.000000 0.540793
    44 5.603580 -0.087754 0.344059 0.005498 0.008328 0.052533
    45 4.532814 0.000000 -0.000002 0.000000 0.000000 0.697778
    46 6.615754 0.000002 0.000000 0.000000 0.000000 0.628000
    47 5.434061 -0.010812 -1.636234 0.092228 0.299427 0.336527
    48 4.623351 0.000001 -0.000002 0.000000 0.000000 0.941965
    49 5.521277 0.000000 0.000000 0.000000 0.000000 0.558242
    50 4.170006 3.279094 -1.198655 -1.589771 -1.117025 4.695940
    51 3.754124 3.204277 1.399633 1.551442 -1.108317 1.554470
    52 0.050228 4.476613 -0.976787 -1.571018 -1.326485 4.711884
    53 0.921745 4.255628 1.163094 1.570549 -1.003618 1.570531
  time 2
    0 -87.339569 -0.583788 4.537683 0.000000 1.396205 -0.000190
    1 3.531250 0.000000 0.000000 0.000000 -1.570451 -1.570795
    2 -0.000008 0.000008 4.504590 -3.141500 -0.000027 3.101267
    3 18.184614 0.000000 0.000000 0.000000 0.000000 -0.374228
    4 16.862095 0.000000 0.000000 -0.000007 -0.000048 -0.364017
    5 0.000011 -0.000005 -4.504589 3.141477 0.000042 3.101301
    6 18.184610 0.000000 0.000000 0.000000 0.000000 -0.374217
    7 16.862091 0.000000 0.000000 0.000049 0.000097 -0.538527
    8 1.576611 -0.003992 0.000002 -0.000004 0.000000 -0.261096
    9 5.015457 -0.003840 0.000000 -0.000226 0.000000 -0.174420
    10 4.822693 -0.003838 0.000000 -0.000228 -0.000024 -0.139626
    11 4.822556 -0.004685 0.000000 -0.000192 -0.000012 -0.087256
    12 5.883453 -0.001475 0.000000 0.000000 0.000000 -0.052333
    13 1.854832 0.000000 0.000000 -0.000328 0.000312 -0.175298
    14 4.577744 2.974503 -4.899295 1.800235 -1.540475 0.845726
    15 -0.576364 -6.294613 1.187798 0.012289 0.000000 0.000000
    16 4.598343 3.014902 4.786890 1.067382 -1.566715 1.538772
    17 0.671572 -6.281569 1.205063 0.156598 0.000000 0.000000
    18 0.988842 0.018080 3.418189 -0.000014 -1.370796 -3.090042
    19 5.304816 0.000000 0.000000 -1.156746 0.133051 -1.365191
    20 18.707375 0.000000 -0.000002 0.000000 0.000000 -0.973174
    21 13.951651 0.000000 -0.000004 0.178829 -0.141807 -0.960880
    22 -0.620571 0.325967 -1.592585 1.860746 0.900460 0.815947
    23 3.570904 0.000002 -0.000001 0.000000 0.000000 0.069814
    24 2.779234 -0.000001 0.000000 0.000000 0.000000 0.662868
    25 5.246642 0.034821 -2.517332 0.014037 0.254248 0.497446
    26 6.439503 -0.000001 0.000000 0.000000 0.000000 0.139592
    27 3.098978 0.000000 0.000000 0.000000 0.000000 0.750105
    28 5.603584 -0.087752 -0.344059 -0.019672 -0.058226 0.184099
    29 4.928793 0.000000 -0.000004 0.000000 0.000000 0.645496
    30 6.254896 0.000002 -0.000002 0.000000 0.000000 0.680324
    31 5.434063 -0.010812 1.636232 -0.083911 -0.318614 0.448028
    32 4.854518 0.000000 0.000002 0.000000 0.000000 0.440954
    33 5.521277 0.000000 0.000000 0.000000 0.000000 0.941960
    34 -0.000004 0.001486 -3.418189 -0.000014 1.370796 -3.090069
    35 5.304816 0.000000 0.000000 1.093351 -0.089608 -1.306542
    36 18.340565 0.000000 -0.000002 0.000000 0.000000 -1.027782
    37 14.370207 0.000000 0.000002 -0.083489 0.139143 -0.693606
    38 -0.620573 0.325966 1.592587 -1.904380 -0.900460 0.815947
    39 3.927999 -0.000001 0.000000 0.000000 0.000000 0.226768
    40 2.779240 0.000001 0.000000 0.000000 0.000000 0.662886
    41 5.246641 0.034821 2.517334 -0.134830 -0.332825 0.388147
    42 6.313238 0.000002 0.000002 0.000000 0.000000 0.610601
    43 3.098980 0.000000 0.000001 0.000000 0.000000 0.540793
    44 5.603580 -0.087754 0.344059 0.005498 0.008328 0.052533
    45 4.532814 0.000000 -0.000002 0.000000 0.000000 0.697778
    46 6.615754 0.000002 0.000000 0.000000 0.000000 0.628000
    47 5.434061 -0.010812 -1.636234 0.092228 0.299427 0.336527
    48 4.623351 0.000001 -0.000002 0.000000 0.000000 0.909117
    49 5.521277 0.000000 0.000000 0.000000 0.000000 0.558242
    50 4.170006 3.279094 -1.198655 -1.589771 -1.167711 4.696034
    51 3.754124 3.204277 1.399633 1.551530 -1.157756 1.554558
    52 0.050228 4.476613 -0.976787 -1.571018 -1.375959 4.711884
    53 0.921745 4.255628 1.163094 1.570549 -1.059845 1.570531
end
