"EyeRefract"
{
	"$Iris"               "models/barney_bms/eye-iris-barneygreen"			  // Iris color in RGB with cornea noise in A
	"$AmbientOcclTexture" "engine/eye-extra"				  // Ambient occlusion in RGB, A unused
	"$Envmap"             "engine/eye-reflection-cubemap-"    // Reflection environment map
	"$CorneaTexture"      "engine/eye-cornea"                 // Special texture that has 2D cornea normal in RG and other data in BA
//	"$lightwarptexture"   "models/kleiner/eye_lightwarp"        	      // This enables TF NPR lighting

	"$EyeballRadius" "0.5"				// Default 0.5
	"$AmbientOcclColor" "[0.5 0.5 0.5]"	// Default 0.33, 0.33, 0.33
	"$Dilation" "0.75"					// Default 0.5
	"$ParallaxStrength" "0.5"          // Default 0.25
	"$CorneaBumpStrength" "1.0"			// Default 1.0

	"$halflambert" "1"
	"$nodecal" "1"

	// These effects are only available in ps.2.0b and later
	"$RaytraceSphere" "0"				// Default 1 - Enables raytracing in the pixel shader to make the eyeball look round
	"$SphereTexkillCombo" "0"			// Default 1 - Enables killing pixels that don't ray-intersect the sphere
}
