// Created by Crowbar 0.64
version 1
nodes
  0 "ValveBiped.Bip01_Pelvis" -1
  1 "ValveBiped.Bip01_L_Thigh" 0
  2 "ValveBiped.Bip01_L_Calf" 1
  3 "ValveBiped.Bip01_L_Foot" 2
  4 "ValveBiped.Bip01_L_Toe0" 3
  5 "ValveBiped.Bip01_R_Thigh" 0
  6 "ValveBiped.Bip01_R_Calf" 5
  7 "ValveBiped.Bip01_R_Foot" 6
  8 "ValveBiped.Bip01_R_Toe0" 7
  9 "ValveBiped.Bip01_Spine" 0
  10 "ValveBiped.Bip01_Spine1" 9
  11 "ValveBiped.Bip01_Spine2" 10
  12 "ValveBiped.Bip01_Spine4" 11
  13 "ValveBiped.Bip01_L_Clavicle" 12
  14 "ValveBiped.Bip01_L_UpperArm" 13
  15 "ValveBiped.Bip01_L_Forearm" 14
  16 "ValveBiped.Bip01_L_Hand" 15
  17 "ValveBiped.Bip01_L_Finger3" 16
  18 "ValveBiped.Bip01_L_Finger31" 17
  19 "ValveBiped.Bip01_L_Finger32" 18
  20 "ValveBiped.Bip01_L_Finger2" 16
  21 "ValveBiped.Bip01_L_Finger21" 20
  22 "ValveBiped.Bip01_L_Finger22" 21
  23 "ValveBiped.Bip01_L_Finger1" 16
  24 "ValveBiped.Bip01_L_Finger11" 23
  25 "ValveBiped.Bip01_L_Finger12" 24
  26 "ValveBiped.Bip01_R_Clavicle" 12
  27 "ValveBiped.Bip01_R_UpperArm" 26
  28 "ValveBiped.Bip01_R_Forearm" 27
  29 "ValveBiped.Bip01_R_Hand" 28
  30 "ValveBiped.Bip01_R_Finger3" 29
  31 "ValveBiped.Bip01_R_Finger31" 30
  32 "ValveBiped.Bip01_R_Finger32" 31
  33 "ValveBiped.Bip01_R_Finger2" 29
  34 "ValveBiped.Bip01_R_Finger21" 33
  35 "ValveBiped.Bip01_R_Finger22" 34
  36 "ValveBiped.Bip01_R_Finger1" 29
  37 "ValveBiped.Bip01_R_Finger11" 36
  38 "ValveBiped.Bip01_R_Finger12" 37
  39 "ValveBiped.HC_Body_Bone" 12
  40 "ValveBiped.HC_Head_Bone" 39
  41 "ValveBiped.HC_ThighL_Bone" 39
  42 "ValveBiped.HC_CalfL_Bone" 41
  43 "ValveBiped.HC_ThighR_Bone" 39
  44 "ValveBiped.HC_CalfR_Bone" 43
  45 "ValveBiped.HC_UpperArmL_Bone" 39
  46 "ValveBiped.HC_ForeArmL_Bone" 45
  47 "ValveBiped.HC_UpperArmR_Bone" 39
  48 "ValveBiped.HC_ForeArmR_Bone" 47
end
skeleton
  time 0
    0 -2.339597 2.523520 34.709354 1.850010 -0.015005 -0.283596
    1 3.890453 0.000000 -0.000004 -1.618680 -0.579824 -1.383985
    2 17.593168 0.000000 0.000000 0.000000 0.000000 0.855403
    3 17.699577 0.000000 0.000000 -0.150921 0.090966 -1.544251
    4 6.879456 0.000000 0.000000 -0.063774 0.049411 -0.584607
    5 -3.890452 0.000000 0.000007 -2.177287 -0.787152 -1.482054
    6 17.593164 0.000000 0.000000 0.000000 0.000000 0.891600
    7 17.699577 0.000000 0.000000 0.059197 -0.274699 -1.424614
    8 6.879455 0.000000 0.000000 -0.025721 -0.055308 -0.584140
    9 -0.390635 3.345116 -2.962460 1.531450 0.157735 1.513689
    10 4.126705 0.000000 0.000000 0.023921 -0.093839 0.101882
    11 3.613472 0.000000 0.000000 0.072926 0.053679 0.120556
    12 9.183788 0.000000 0.000000 -0.021644 -0.167305 0.305423
    13 1.673229 1.247213 2.595464 2.376281 -1.222986 2.292307
    14 6.028144 0.000000 0.000000 -1.262254 -0.399541 -0.559563
    15 11.692551 0.000001 0.000000 0.000000 0.000000 -1.265061
    16 12.075554 0.000001 -0.000031 1.258755 0.167978 -1.066190
    17 5.564224 -0.557981 -0.100449 -0.252934 -0.892910 -1.324811
    18 5.508579 0.000004 0.000002 0.000000 -0.002241 -1.363102
    19 3.800001 0.000000 0.000004 0.000000 0.078995 -1.162267
    20 5.744637 0.557979 0.100456 0.153524 -1.071098 -1.024816
    21 6.052547 0.000000 0.000002 0.000000 -0.410889 -1.467961
    22 3.325016 0.000004 0.000000 0.000000 -0.038465 -1.030502
    23 5.613007 1.658156 0.708443 1.341977 -1.230448 -1.520129
    24 5.643139 0.000002 0.000000 0.000000 -0.899187 -1.545550
    25 3.079115 0.000000 0.000000 0.000000 -0.129582 -1.175842
    26 1.673222 1.247221 -2.595471 -1.452873 1.044901 3.233103
    27 6.028144 -0.000004 0.000000 1.315562 0.611535 -0.696740
    28 11.692554 0.000000 0.000000 0.000000 0.000000 -1.446025
    29 12.075576 0.000000 0.000000 -1.133877 -0.590450 -0.656955
    30 5.943745 -0.602343 0.006447 0.491673 1.308263 -1.457378
    31 5.043457 0.000000 0.000000 0.000000 -0.235096 -1.339165
    32 3.384898 0.000004 0.000000 0.000000 -0.158202 -1.703085
    33 6.213898 0.602343 -0.006439 -0.340810 1.296067 -0.605064
    34 5.536301 0.000000 -0.000001 0.000000 1.146458 -0.947792
    35 3.312716 0.000000 0.000000 0.000000 0.507999 -1.337938
    36 5.899513 1.775718 -0.435093 -1.625982 1.473201 -0.894713
    37 5.285240 -0.000001 0.000001 0.000000 1.190848 0.460973
    38 3.098851 0.000000 0.000000 0.000000 0.860604 1.327213
    39 7.988281 1.665039 2.802734 2.703516 -0.158578 1.262175
    40 3.738597 -2.965118 -0.136395 0.215984 -0.078540 -0.078540
    41 -9.104414 0.438534 -6.643024 -2.851787 -0.050748 -0.919910
    42 6.098812 0.000000 0.000000 0.000000 0.000000 0.000000
    43 -7.019176 -5.213703 4.114698 3.033069 0.386917 -1.227442
    44 6.098812 0.000000 0.000000 0.000000 0.000000 -2.270475
    45 2.630715 -3.155083 -5.016710 0.032818 0.297699 -0.502588
    46 8.255676 0.000000 0.000000 0.000000 0.000000 -2.112525
    47 2.630415 -3.155083 5.016870 -2.297150 -0.072314 -1.106009
    48 8.255669 0.000000 0.000000 0.000000 0.000000 1.931636
  time 1
    0 -1.941148 2.621179 35.209369 1.824618 0.049808 -0.283059
    1 3.890453 0.000000 -0.000004 -1.656878 -0.560235 -1.320514
    2 17.593168 0.000000 0.000000 0.000000 0.000000 0.852250
    3 17.699577 0.000000 0.000000 -0.141965 0.079407 -1.510441
    4 6.879456 0.000000 0.000000 -0.063595 0.049411 -0.600475
    5 -3.890452 0.000000 0.000007 -2.140689 -0.740800 -1.444914
    6 17.593164 0.000000 0.000000 0.000000 0.000000 0.816417
    7 17.699577 0.000000 0.000000 0.051029 -0.269059 -1.334745
    8 6.879455 0.000000 0.000000 -0.025302 -0.055332 -0.622071
    9 -0.546890 3.321677 -2.962460 1.476280 0.183921 1.573145
    10 4.126705 0.000000 0.000000 -0.013087 -0.069127 0.061961
    11 3.613472 0.000000 0.000000 0.025899 0.019283 0.068675
    12 9.183788 0.000000 0.000000 -0.110929 -0.202156 0.205028
    13 1.673229 1.247213 2.595464 2.353286 -1.251379 2.320345
    14 6.028144 0.000000 0.000000 -1.279603 -0.088640 -0.566336
    15 11.692551 0.000001 0.000000 0.000000 0.000000 -1.329161
    16 12.075554 0.000001 -0.000031 1.258755 0.167978 -1.066190
    17 5.564224 -0.557981 -0.100449 -0.252934 -0.892910 -1.324811
    18 5.508579 0.000004 0.000002 0.000000 -0.002241 -1.363102
    19 3.800001 0.000000 0.000004 0.000000 0.078995 -1.162267
    20 5.744637 0.557979 0.100456 0.153524 -1.071098 -1.024816
    21 6.052547 0.000000 0.000002 0.000000 -0.410889 -1.467961
    22 3.325016 0.000004 0.000000 0.000000 -0.038465 -1.030502
    23 5.613007 1.658156 0.708443 1.341977 -1.230448 -1.520129
    24 5.643139 0.000002 0.000000 0.000000 -0.899187 -1.545550
    25 3.079115 0.000000 0.000000 0.000000 -0.129582 -1.175842
    26 1.673222 1.247221 -2.595471 -1.474389 1.009922 3.222848
    27 6.028144 -0.000004 0.000000 1.041610 0.481057 -0.800986
    28 11.692554 0.000000 0.000000 0.000000 0.000000 -1.415153
    29 12.075576 0.000000 0.000000 -1.133877 -0.590450 -0.656955
    30 5.943745 -0.602343 0.006447 0.491673 1.308263 -1.457378
    31 5.043457 0.000000 0.000000 0.000000 -0.235096 -1.339165
    32 3.384898 0.000004 0.000000 0.000000 -0.158202 -1.703085
    33 6.213898 0.602343 -0.006439 -0.340810 1.296067 -0.605064
    34 5.536301 0.000000 -0.000001 0.000000 1.146458 -0.947792
    35 3.312716 0.000000 0.000000 0.000000 0.507999 -1.337938
    36 5.899513 1.775718 -0.435093 -1.625982 1.473201 -0.894713
    37 5.285240 -0.000001 0.000001 0.000000 1.190848 0.460973
    38 3.098851 0.000000 0.000000 0.000000 0.860604 1.327213
    39 7.988281 1.665039 2.802734 2.703516 -0.158578 1.262175
    40 3.738597 -2.965118 -0.136395 0.215984 -0.078540 -0.078540
    41 -9.104414 0.438534 -6.643024 -2.851787 -0.050748 -0.919910
    42 6.098812 0.000000 0.000000 0.000000 0.000000 0.000000
    43 -7.019176 -5.213703 4.114698 3.033069 0.386917 -1.227442
    44 6.098812 0.000000 0.000000 0.000000 0.000000 -2.270475
    45 2.630715 -3.155083 -5.016710 0.032818 0.297699 -0.502588
    46 8.255676 0.000000 0.000000 0.000000 0.000000 -2.112525
    47 2.630415 -3.155083 5.016870 -2.297150 -0.072314 -1.106009
    48 8.255669 0.000000 0.000000 0.000000 0.000000 1.931636
  time 2
    0 -1.066121 2.836029 36.303152 1.767431 0.123633 -0.305253
    1 3.890453 0.000000 -0.000004 -1.698532 -0.484082 -1.271015
    2 17.593168 0.000000 0.000000 0.000000 0.000000 0.787054
    3 17.699577 0.000000 0.000000 -0.131012 0.039151 -1.428748
    4 6.879456 0.000000 0.000000 -0.063331 0.049387 -0.624012
    5 -3.890452 0.000000 0.000007 -2.106768 -0.620491 -1.427843
    6 17.593164 0.000000 0.000000 0.000000 0.000000 0.630145
    7 17.699577 0.000000 0.000000 0.059500 -0.249318 -1.166035
    8 6.879455 0.000000 0.000000 -0.024726 -0.055356 -0.678315
    9 -0.644549 3.302146 -2.962460 1.428561 0.207855 1.614911
    10 4.126705 0.000000 0.000000 -0.046261 -0.047890 0.027242
    11 3.613472 0.000000 0.000000 -0.016623 -0.010187 0.021300
    12 9.183788 0.000000 0.000000 -0.188877 -0.231962 0.110529
    13 1.673229 1.247213 2.595464 2.428971 -1.224408 2.239147
    14 6.028144 0.000000 0.000000 -1.264912 0.246186 -0.576038
    15 11.692551 0.000001 0.000000 0.000000 0.000000 -1.395616
    16 12.075554 0.000001 -0.000031 1.258755 0.167978 -1.066190
    17 5.564224 -0.557981 -0.100449 -0.252934 -0.892910 -1.324811
    18 5.508579 0.000004 0.000002 0.000000 -0.002241 -1.363102
    19 3.800001 0.000000 0.000004 0.000000 0.078995 -1.162267
    20 5.744637 0.557979 0.100456 0.153524 -1.071098 -1.024816
    21 6.052547 0.000000 0.000002 0.000000 -0.410889 -1.467961
    22 3.325016 0.000004 0.000000 0.000000 -0.038465 -1.030502
    23 5.613007 1.658156 0.708443 1.341977 -1.230448 -1.520129
    24 5.643139 0.000002 0.000000 0.000000 -0.899187 -1.545550
    25 3.079115 0.000000 0.000000 0.000000 -0.129582 -1.175842
    26 1.673222 1.247221 -2.595471 -1.379348 1.057917 3.284823
    27 6.028144 -0.000004 0.000000 0.777589 0.256376 -0.938414
    28 11.692554 0.000000 0.000000 0.000000 0.000000 -1.481771
    29 12.075576 0.000000 0.000000 -1.133877 -0.590450 -0.656955
    30 5.943745 -0.602343 0.006447 0.491673 1.308263 -1.457378
    31 5.043457 0.000000 0.000000 0.000000 -0.235096 -1.339165
    32 3.384898 0.000004 0.000000 0.000000 -0.158202 -1.703085
    33 6.213898 0.602343 -0.006439 -0.340810 1.296067 -0.605064
    34 5.536301 0.000000 -0.000001 0.000000 1.146458 -0.947792
    35 3.312716 0.000000 0.000000 0.000000 0.507999 -1.337938
    36 5.899513 1.775718 -0.435093 -1.625982 1.473201 -0.894713
    37 5.285240 -0.000001 0.000001 0.000000 1.190848 0.460973
    38 3.098851 0.000000 0.000000 0.000000 0.860604 1.327213
    39 7.988281 1.665039 2.802734 2.703516 -0.158578 1.262175
    40 3.738597 -2.965118 -0.136395 0.215984 -0.078540 -0.078540
    41 -9.104414 0.438534 -6.643024 -2.851787 -0.050748 -0.919910
    42 6.098812 0.000000 0.000000 0.000000 0.000000 0.000000
    43 -7.019176 -5.213703 4.114698 3.033069 0.386917 -1.227442
    44 6.098812 0.000000 0.000000 0.000000 0.000000 -2.270475
    45 2.630715 -3.155083 -5.016710 0.032818 0.297699 -0.502588
    46 8.255676 0.000000 0.000000 0.000000 0.000000 -2.112525
    47 2.630415 -3.155083 5.016870 -2.297150 -0.072314 -1.106009
    48 8.255669 0.000000 0.000000 0.000000 0.000000 1.931636
  time 3
    0 -0.191094 3.054786 37.396936 1.707600 0.183664 -0.333745
    1 3.890453 0.000000 -0.000004 -1.732774 -0.392743 -1.239417
    2 17.593168 0.000000 0.000000 0.000000 0.000000 0.695501
    3 17.699577 0.000000 0.000000 -0.121451 0.002016 -1.341203
    4 6.879456 0.000000 0.000000 -0.063115 0.049375 -0.645369
    5 -3.890452 0.000000 0.000007 -2.073949 -0.458602 -1.444132
    6 17.593164 0.000000 0.000000 0.000000 0.000000 0.356733
    7 17.699577 0.000000 0.000000 0.070786 -0.235878 -0.961279
    8 6.879455 0.000000 0.000000 -0.024271 -0.055392 -0.729333
    9 -0.703144 3.290426 -2.962460 1.408631 0.218114 1.636639
    10 4.126705 0.000000 0.000000 -0.060330 -0.039046 0.012693
    11 3.613472 0.000000 0.000000 -0.034743 -0.022447 0.001022
    12 9.183788 0.000000 0.000000 -0.221523 -0.244390 0.066713
    13 1.673229 1.247213 2.595464 2.560151 -1.155801 2.094498
    14 6.028144 0.000000 0.000000 -1.226857 0.368760 -0.623085
    15 11.692551 0.000001 0.000000 0.000000 0.000000 -1.414113
    16 12.075554 0.000001 -0.000031 1.258755 0.167978 -1.066190
    17 5.564224 -0.557981 -0.100449 -0.252934 -0.892910 -1.324811
    18 5.508579 0.000004 0.000002 0.000000 -0.002241 -1.363102
    19 3.800001 0.000000 0.000004 0.000000 0.078995 -1.162267
    20 5.744637 0.557979 0.100456 0.153524 -1.071098 -1.024816
    21 6.052547 0.000000 0.000002 0.000000 -0.410889 -1.467961
    22 3.325016 0.000004 0.000000 0.000000 -0.038465 -1.030502
    23 5.613007 1.658156 0.708443 1.341977 -1.230448 -1.520129
    24 5.643139 0.000002 0.000000 0.000000 -0.899187 -1.545550
    25 3.079115 0.000000 0.000000 0.000000 -0.129582 -1.175842
    26 1.673222 1.247221 -2.595471 -1.105783 1.157922 3.477704
    27 6.028144 -0.000004 0.000000 0.681434 0.035764 -1.023181
    28 11.692554 0.000000 0.000000 0.000000 0.000000 -1.671875
    29 12.075576 0.000000 0.000000 -1.133877 -0.590450 -0.656955
    30 5.943745 -0.602343 0.006447 0.491673 1.308263 -1.457378
    31 5.043457 0.000000 0.000000 0.000000 -0.235096 -1.339165
    32 3.384898 0.000004 0.000000 0.000000 -0.158202 -1.703085
    33 6.213898 0.602343 -0.006439 -0.340810 1.296067 -0.605064
    34 5.536301 0.000000 -0.000001 0.000000 1.146458 -0.947792
    35 3.312716 0.000000 0.000000 0.000000 0.507999 -1.337938
    36 5.899513 1.775718 -0.435093 -1.625982 1.473201 -0.894713
    37 5.285240 -0.000001 0.000001 0.000000 1.190848 0.460973
    38 3.098851 0.000000 0.000000 0.000000 0.860604 1.327213
    39 7.988281 1.665039 2.802734 2.703516 -0.158578 1.262175
    40 3.738597 -2.965118 -0.136395 0.215984 -0.078540 -0.078540
    41 -9.104414 0.438534 -6.643024 -2.851787 -0.050748 -0.919910
    42 6.098812 0.000000 0.000000 0.000000 0.000000 0.000000
    43 -7.019176 -5.213703 4.114698 3.033069 0.386917 -1.227442
    44 6.098812 0.000000 0.000000 0.000000 0.000000 -2.270475
    45 2.630715 -3.155083 -5.016710 0.032818 0.297699 -0.502588
    46 8.255676 0.000000 0.000000 0.000000 0.000000 -2.112525
    47 2.630415 -3.155083 5.016870 -2.297150 -0.072314 -1.106009
    48 8.255669 0.000000 0.000000 0.000000 0.000000 1.931636
  time 4
    0 0.207355 3.152445 37.893045 1.679277 0.201868 -0.348874
    1 3.890453 0.000000 -0.000004 -1.752192 -0.343772 -1.234302
    2 17.593168 0.000000 0.000000 0.000000 0.000000 0.640396
    3 17.699577 0.000000 0.000000 -0.114976 -0.010630 -1.296305
    4 6.879456 0.000000 0.000000 -0.063019 0.049375 -0.654669
    5 -3.890452 0.000000 0.000007 -2.047268 -0.325758 -1.490980
    6 17.593164 0.000000 0.000000 0.000000 0.000000 0.100769
    7 17.699577 0.000000 0.000000 0.072662 -0.234203 -0.802509
    8 6.879455 0.000000 0.000000 -0.024091 -0.055392 -0.751565
    9 -0.699238 3.294333 -2.962460 1.411115 0.217430 1.634842
    10 4.126705 0.000000 0.000000 -0.059012 -0.041275 0.014682
    11 3.613472 0.000000 0.000000 -0.033353 -0.020470 0.002328
    12 9.183788 0.000000 0.000000 -0.217377 -0.242257 0.066090
    13 1.673229 1.247213 2.595464 2.650049 -1.076693 1.988434
    14 6.028144 0.000000 0.000000 -1.199994 0.256455 -0.682518
    15 11.692551 0.000001 0.000000 0.000000 0.000000 -1.344699
    16 12.075554 0.000001 -0.000031 1.258755 0.167978 -1.066190
    17 5.564224 -0.557981 -0.100449 -0.252934 -0.892910 -1.324811
    18 5.508579 0.000004 0.000002 0.000000 -0.002241 -1.363102
    19 3.800001 0.000000 0.000004 0.000000 0.078995 -1.162267
    20 5.744637 0.557979 0.100456 0.153524 -1.071098 -1.024816
    21 6.052547 0.000000 0.000002 0.000000 -0.410889 -1.467961
    22 3.325016 0.000004 0.000000 0.000000 -0.038465 -1.030502
    23 5.613007 1.658156 0.708443 1.341977 -1.230448 -1.520129
    24 5.643139 0.000002 0.000000 0.000000 -0.899187 -1.545550
    25 3.079115 0.000000 0.000000 0.000000 -0.129582 -1.175842
    26 1.673222 1.247221 -2.595471 -0.703126 1.235911 3.788737
    27 6.028144 -0.000004 0.000000 0.754959 -0.088387 -1.081001
    28 11.692554 0.000000 0.000000 0.000000 0.000000 -1.878499
    29 12.075576 0.000000 0.000000 -1.133877 -0.590450 -0.656955
    30 5.943745 -0.602343 0.006447 0.491673 1.308263 -1.457378
    31 5.043457 0.000000 0.000000 0.000000 -0.235096 -1.339165
    32 3.384898 0.000004 0.000000 0.000000 -0.158202 -1.703085
    33 6.213898 0.602343 -0.006439 -0.340810 1.296067 -0.605064
    34 5.536301 0.000000 -0.000001 0.000000 1.146458 -0.947792
    35 3.312716 0.000000 0.000000 0.000000 0.507999 -1.337938
    36 5.899513 1.775718 -0.435093 -1.625982 1.473201 -0.894713
    37 5.285240 -0.000001 0.000001 0.000000 1.190848 0.460973
    38 3.098851 0.000000 0.000000 0.000000 0.860604 1.327213
    39 7.988281 1.665039 2.802734 2.703516 -0.158578 1.262175
    40 3.738597 -2.965118 -0.136395 0.215984 -0.078540 -0.078540
    41 -9.104414 0.438534 -6.643024 -2.851787 -0.050748 -0.919910
    42 6.098812 0.000000 0.000000 0.000000 0.000000 0.000000
    43 -7.019176 -5.213703 4.114698 3.033069 0.386917 -1.227442
    44 6.098812 0.000000 0.000000 0.000000 0.000000 -2.270475
    45 2.630715 -3.155083 -5.016710 0.032818 0.297699 -0.502588
    46 8.255676 0.000000 0.000000 0.000000 0.000000 -2.112525
    47 2.630415 -3.155083 5.016870 -2.297150 -0.072314 -1.106009
    48 8.255669 0.000000 0.000000 0.000000 0.000000 1.931636
  time 5
    0 0.160479 3.132913 37.861794 1.680647 0.183736 -0.349796
    1 3.890453 0.000000 -0.000004 -1.756830 -0.339627 -1.250695
    2 17.593168 0.000000 0.000000 0.000000 0.000000 0.631533
    3 17.699577 0.000000 0.000000 -0.110664 -0.002475 -1.294196
    4 6.879456 0.000000 0.000000 -0.063019 0.049375 -0.653890
    5 -3.890452 0.000000 0.000007 -2.047032 -0.361733 -1.491045
    6 17.593164 0.000000 0.000000 0.000000 0.000000 0.177871
    7 17.699577 0.000000 0.000000 0.065648 -0.241430 -0.842406
    8 6.879455 0.000000 0.000000 -0.024103 -0.055392 -0.749683
    9 -0.644549 3.302146 -2.962460 1.416410 0.216004 1.616433
    10 4.126705 0.000000 0.000000 -0.056256 -0.046069 0.018853
    11 3.613472 0.000000 0.000000 -0.030429 -0.016323 0.005048
    12 9.183788 0.000000 0.000000 -0.208688 -0.237762 0.069650
    13 1.673229 1.247213 2.595464 2.671686 -1.034550 1.957138
    14 6.028144 0.000000 0.000000 -1.180896 0.068595 -0.722974
    15 11.692551 0.000001 0.000000 0.000000 0.000000 -1.231632
    16 12.075554 0.000001 -0.000031 1.258755 0.167978 -1.066190
    17 5.564224 -0.557981 -0.100449 -0.252934 -0.892910 -1.324811
    18 5.508579 0.000004 0.000002 0.000000 -0.002241 -1.363102
    19 3.800001 0.000000 0.000004 0.000000 0.078995 -1.162267
    20 5.744637 0.557979 0.100456 0.153524 -1.071098 -1.024816
    21 6.052547 0.000000 0.000002 0.000000 -0.410889 -1.467961
    22 3.325016 0.000004 0.000000 0.000000 -0.038465 -1.030502
    23 5.613007 1.658156 0.708443 1.341977 -1.230448 -1.520129
    24 5.643139 0.000002 0.000000 0.000000 -0.899187 -1.545550
    25 3.079115 0.000000 0.000000 0.000000 -0.129582 -1.175842
    26 1.673222 1.247221 -2.595471 -0.465391 1.257252 3.980369
    27 6.028144 -0.000004 0.000000 0.888449 -0.094619 -1.074841
    28 11.692554 0.000000 0.000000 0.000000 0.000000 -2.006792
    29 12.075576 0.000000 0.000000 -1.133877 -0.590450 -0.656955
    30 5.943745 -0.602343 0.006447 0.491673 1.308263 -1.457378
    31 5.043457 0.000000 0.000000 0.000000 -0.235096 -1.339165
    32 3.384898 0.000004 0.000000 0.000000 -0.158202 -1.703085
    33 6.213898 0.602343 -0.006439 -0.340810 1.296067 -0.605064
    34 5.536301 0.000000 -0.000001 0.000000 1.146458 -0.947792
    35 3.312716 0.000000 0.000000 0.000000 0.507999 -1.337938
    36 5.899513 1.775718 -0.435093 -1.625982 1.473201 -0.894713
    37 5.285240 -0.000001 0.000001 0.000000 1.190848 0.460973
    38 3.098851 0.000000 0.000000 0.000000 0.860604 1.327213
    39 7.988281 1.665039 2.802734 2.703516 -0.158578 1.262175
    40 3.738597 -2.965118 -0.136395 0.215984 -0.078540 -0.078540
    41 -9.104414 0.438534 -6.643024 -2.851787 -0.050748 -0.919910
    42 6.098812 0.000000 0.000000 0.000000 0.000000 0.000000
    43 -7.019176 -5.213703 4.114698 3.033069 0.386917 -1.227442
    44 6.098812 0.000000 0.000000 0.000000 0.000000 -2.270475
    45 2.630715 -3.155083 -5.016710 0.032818 0.297699 -0.502588
    46 8.255676 0.000000 0.000000 0.000000 0.000000 -2.112525
    47 2.630415 -3.155083 5.016870 -2.297150 -0.072314 -1.106009
    48 8.255669 0.000000 0.000000 0.000000 0.000000 1.931636
  time 6
    0 0.047194 3.086037 37.783666 1.684821 0.158436 -0.349873
    1 3.890453 0.000000 -0.000004 -1.750509 -0.336986 -1.274988
    2 17.593168 0.000000 0.000000 0.000000 0.000000 0.622902
    3 17.699577 0.000000 0.000000 -0.109802 0.004687 -1.295831
    4 6.879456 0.000000 0.000000 -0.063043 0.049375 -0.651661
    5 -3.890452 0.000000 0.000007 -2.057264 -0.401571 -1.496258
    6 17.593164 0.000000 0.000000 0.000000 0.000000 0.261407
    7 17.699577 0.000000 0.000000 0.061983 -0.246982 -0.892400
    8 6.879455 0.000000 0.000000 -0.024151 -0.055392 -0.744374
    9 -0.570328 3.317771 -2.962460 1.423101 0.214207 1.592632
    10 4.126705 0.000000 0.000000 -0.052780 -0.052097 0.024114
    11 3.613472 0.000000 0.000000 -0.026738 -0.011086 0.008500
    12 9.183788 0.000000 0.000000 -0.197710 -0.232082 0.075246
    13 1.673229 1.247213 2.595464 2.654033 -1.029574 1.972486
    14 6.028144 0.000000 0.000000 -1.167290 -0.040972 -0.691122
    15 11.692551 0.000001 0.000000 0.000000 0.000000 -1.226385
    16 12.075554 0.000001 -0.000031 1.258755 0.167978 -1.066190
    17 5.564224 -0.557981 -0.100449 -0.252934 -0.892910 -1.324811
    18 5.508579 0.000004 0.000002 0.000000 -0.002241 -1.363102
    19 3.800001 0.000000 0.000004 0.000000 0.078995 -1.162267
    20 5.744637 0.557979 0.100456 0.153524 -1.071098 -1.024816
    21 6.052547 0.000000 0.000002 0.000000 -0.410889 -1.467961
    22 3.325016 0.000004 0.000000 0.000000 -0.038465 -1.030502
    23 5.613007 1.658156 0.708443 1.341977 -1.230448 -1.520129
    24 5.643139 0.000002 0.000000 0.000000 -0.899187 -1.545550
    25 3.079115 0.000000 0.000000 0.000000 -0.129582 -1.175842
    26 1.673222 1.247221 -2.595471 -0.476593 1.259278 3.972254
    27 6.028144 -0.000004 0.000000 1.009145 -0.051221 -1.005319
    28 11.692554 0.000000 0.000000 0.000000 0.000000 -2.057094
    29 12.075576 0.000000 0.000000 -1.133877 -0.590450 -0.656955
    30 5.943745 -0.602343 0.006447 0.491673 1.308263 -1.457378
    31 5.043457 0.000000 0.000000 0.000000 -0.235096 -1.339165
    32 3.384898 0.000004 0.000000 0.000000 -0.158202 -1.703085
    33 6.213898 0.602343 -0.006439 -0.340810 1.296067 -0.605064
    34 5.536301 0.000000 -0.000001 0.000000 1.146458 -0.947792
    35 3.312716 0.000000 0.000000 0.000000 0.507999 -1.337938
    36 5.899513 1.775718 -0.435093 -1.625982 1.473201 -0.894713
    37 5.285240 -0.000001 0.000001 0.000000 1.190848 0.460973
    38 3.098851 0.000000 0.000000 0.000000 0.860604 1.327213
    39 7.988281 1.665039 2.802734 2.703516 -0.158578 1.262175
    40 3.738597 -2.965118 -0.136395 0.215984 -0.078540 -0.078540
    41 -9.104414 0.438534 -6.643024 -2.851787 -0.050748 -0.919910
    42 6.098812 0.000000 0.000000 0.000000 0.000000 0.000000
    43 -7.019176 -5.213703 4.114698 3.033069 0.386917 -1.227442
    44 6.098812 0.000000 0.000000 0.000000 0.000000 -2.270475
    45 2.630715 -3.155083 -5.016710 0.032818 0.297699 -0.502588
    46 8.255676 0.000000 0.000000 0.000000 0.000000 -2.112525
    47 2.630415 -3.155083 5.016870 -2.297150 -0.072314 -1.106009
    48 8.255669 0.000000 0.000000 0.000000 0.000000 1.931636
  time 7
    0 -0.116873 3.015722 37.662569 1.691001 0.129637 -0.349335
    1 3.890453 0.000000 -0.000004 -1.735230 -0.335885 -1.303345
    2 17.593168 0.000000 0.000000 0.000000 0.000000 0.615168
    3 17.699577 0.000000 0.000000 -0.112419 0.009580 -1.300830
    4 6.879456 0.000000 0.000000 -0.063079 0.049375 -0.648209
    5 -3.890452 0.000000 0.000007 -2.075995 -0.438493 -1.505054
    6 17.593164 0.000000 0.000000 0.000000 0.000000 0.338173
    7 17.699577 0.000000 0.000000 0.062257 -0.249670 -0.944873
    8 6.879455 0.000000 0.000000 -0.024223 -0.055392 -0.736117
    9 -0.492201 3.329490 -2.962460 1.430654 0.212181 1.566685
    10 4.126705 0.000000 0.000000 -0.048849 -0.058832 0.030058
    11 3.613472 0.000000 0.000000 -0.022567 -0.005165 0.012395
    12 9.183788 0.000000 0.000000 -0.185306 -0.225694 0.082066
    13 1.673229 1.247213 2.595464 2.637284 -1.025553 1.987491
    14 6.028144 0.000000 0.000000 -1.178448 -0.059491 -0.609416
    15 11.692551 0.000001 0.000000 0.000000 0.000000 -1.312211
    16 12.075554 0.000001 -0.000031 1.258755 0.167978 -1.066190
    17 5.564224 -0.557981 -0.100449 -0.252934 -0.892910 -1.324811
    18 5.508579 0.000004 0.000002 0.000000 -0.002241 -1.363102
    19 3.800001 0.000000 0.000004 0.000000 0.078995 -1.162267
    20 5.744637 0.557979 0.100456 0.153524 -1.071098 -1.024816
    21 6.052547 0.000000 0.000002 0.000000 -0.410889 -1.467961
    22 3.325016 0.000004 0.000000 0.000000 -0.038465 -1.030502
    23 5.613007 1.658156 0.708443 1.341977 -1.230448 -1.520129
    24 5.643139 0.000002 0.000000 0.000000 -0.899187 -1.545550
    25 3.079115 0.000000 0.000000 0.000000 -0.129582 -1.175842
    26 1.673222 1.247221 -2.595471 -0.501309 1.263623 3.954152
    27 6.028144 -0.000004 0.000000 1.104631 -0.024165 -0.936412
    28 11.692554 0.000000 0.000000 0.000000 0.000000 -2.090606
    29 12.075576 0.000000 0.000000 -1.133877 -0.590450 -0.656955
    30 5.943745 -0.602343 0.006447 0.491673 1.308263 -1.457378
    31 5.043457 0.000000 0.000000 0.000000 -0.235096 -1.339165
    32 3.384898 0.000004 0.000000 0.000000 -0.158202 -1.703085
    33 6.213898 0.602343 -0.006439 -0.340810 1.296067 -0.605064
    34 5.536301 0.000000 -0.000001 0.000000 1.146458 -0.947792
    35 3.312716 0.000000 0.000000 0.000000 0.507999 -1.337938
    36 5.899513 1.775718 -0.435093 -1.625982 1.473201 -0.894713
    37 5.285240 -0.000001 0.000001 0.000000 1.190848 0.460973
    38 3.098851 0.000000 0.000000 0.000000 0.860604 1.327213
    39 7.988281 1.665039 2.802734 2.703516 -0.158578 1.262175
    40 3.738597 -2.965118 -0.136395 0.215984 -0.078540 -0.078540
    41 -9.104414 0.438534 -6.643024 -2.851787 -0.050748 -0.919910
    42 6.098812 0.000000 0.000000 0.000000 0.000000 0.000000
    43 -7.019176 -5.213703 4.114698 3.033069 0.386917 -1.227442
    44 6.098812 0.000000 0.000000 0.000000 0.000000 -2.270475
    45 2.630715 -3.155083 -5.016710 0.032818 0.297699 -0.502588
    46 8.255676 0.000000 0.000000 0.000000 0.000000 -2.112525
    47 2.630415 -3.155083 5.016870 -2.297150 -0.072314 -1.106009
    48 8.255669 0.000000 0.000000 0.000000 0.000000 1.931636
  time 8
    0 -0.323911 2.929782 37.518033 1.698775 0.099868 -0.348183
    1 3.890453 0.000000 -0.000004 -1.713902 -0.336289 -1.332934
    2 17.593168 0.000000 0.000000 0.000000 0.000000 0.609060
    3 17.699577 0.000000 0.000000 -0.117896 0.012086 -1.308957
    4 6.879456 0.000000 0.000000 -0.063127 0.049375 -0.643727
    5 -3.890452 0.000000 0.000007 -2.100787 -0.471666 -1.514437
    6 17.593164 0.000000 0.000000 0.000000 0.000000 0.407730
    7 17.699577 0.000000 0.000000 0.065850 -0.249009 -0.998121
    8 6.879455 0.000000 0.000000 -0.024307 -0.055380 -0.725402
    9 -0.414073 3.341209 -2.962460 1.438802 0.210000 1.540799
    10 4.126705 0.000000 0.000000 -0.044631 -0.065939 0.036470
    11 3.613472 0.000000 0.000000 -0.018073 0.001198 0.016590
    12 9.183788 0.000000 0.000000 -0.171919 -0.218803 0.089724
    13 1.673229 1.247213 2.595464 2.620898 -1.022019 2.002067
    14 6.028144 0.000000 0.000000 -1.188556 -0.074084 -0.541684
    15 11.692551 0.000001 0.000000 0.000000 0.000000 -1.374159
    16 12.075554 0.000001 -0.000031 1.258755 0.167978 -1.066190
    17 5.564224 -0.557981 -0.100449 -0.252934 -0.892910 -1.324811
    18 5.508579 0.000004 0.000002 0.000000 -0.002241 -1.363102
    19 3.800001 0.000000 0.000004 0.000000 0.078995 -1.162267
    20 5.744637 0.557979 0.100456 0.153524 -1.071098 -1.024816
    21 6.052547 0.000000 0.000002 0.000000 -0.410889 -1.467961
    22 3.325016 0.000004 0.000000 0.000000 -0.038465 -1.030502
    23 5.613007 1.658156 0.708443 1.341977 -1.230448 -1.520129
    24 5.643139 0.000002 0.000000 0.000000 -0.899187 -1.545550
    25 3.079115 0.000000 0.000000 0.000000 -0.129582 -1.175842
    26 1.673222 1.247221 -2.595471 -0.533937 1.269100 3.929987
    27 6.028144 -0.000004 0.000000 1.170231 -0.015136 -0.871509
    28 11.692554 0.000000 0.000000 0.000000 0.000000 -2.119988
    29 12.075576 0.000000 0.000000 -1.133877 -0.590450 -0.656955
    30 5.943745 -0.602343 0.006447 0.491673 1.308263 -1.457378
    31 5.043457 0.000000 0.000000 0.000000 -0.235096 -1.339165
    32 3.384898 0.000004 0.000000 0.000000 -0.158202 -1.703085
    33 6.213898 0.602343 -0.006439 -0.340810 1.296067 -0.605064
    34 5.536301 0.000000 -0.000001 0.000000 1.146458 -0.947792
    35 3.312716 0.000000 0.000000 0.000000 0.507999 -1.337938
    36 5.899513 1.775718 -0.435093 -1.625982 1.473201 -0.894713
    37 5.285240 -0.000001 0.000001 0.000000 1.190848 0.460973
    38 3.098851 0.000000 0.000000 0.000000 0.860604 1.327213
    39 7.988281 1.665039 2.802734 2.703516 -0.158578 1.262175
    40 3.738597 -2.965118 -0.136395 0.215984 -0.078540 -0.078540
    41 -9.104414 0.438534 -6.643024 -2.851787 -0.050748 -0.919910
    42 6.098812 0.000000 0.000000 0.000000 0.000000 0.000000
    43 -7.019176 -5.213703 4.114698 3.033069 0.386917 -1.227442
    44 6.098812 0.000000 0.000000 0.000000 0.000000 -2.270475
    45 2.630715 -3.155083 -5.016710 0.032818 0.297699 -0.502588
    46 8.255676 0.000000 0.000000 0.000000 0.000000 -2.112525
    47 2.630415 -3.155083 5.016870 -2.297150 -0.072314 -1.106009
    48 8.255669 0.000000 0.000000 0.000000 0.000000 1.931636
  time 9
    0 -0.558293 2.832123 37.350059 1.707823 0.070649 -0.346724
    1 3.890453 0.000000 -0.000004 -1.689710 -0.338159 -1.361611
    2 17.593168 0.000000 0.000000 0.000000 0.000000 0.604943
    3 17.699577 0.000000 0.000000 -0.125203 0.012984 -1.319856
    4 6.879456 0.000000 0.000000 -0.063187 0.049387 -0.638418
    5 -3.890452 0.000000 0.000007 -2.128569 -0.501280 -1.522711
    6 17.593164 0.000000 0.000000 0.000000 0.000000 0.470955
    7 17.699577 0.000000 0.000000 0.071392 -0.245352 -1.051170
    8 6.879455 0.000000 0.000000 -0.024415 -0.055380 -0.712735
    9 -0.339852 3.345116 -2.962460 1.447361 0.207711 1.516302
    10 4.126705 0.000000 0.000000 -0.040184 -0.073226 0.043217
    11 3.613472 0.000000 0.000000 -0.013339 0.007910 0.021012
    12 9.183788 0.000000 0.000000 -0.157825 -0.211552 0.097981
    13 1.673229 1.247213 2.595464 2.604964 -1.018728 2.016472
    14 6.028144 0.000000 0.000000 -1.195482 -0.081145 -0.485789
    15 11.692551 0.000001 0.000000 0.000000 0.000000 -1.421983
    16 12.075554 0.000001 -0.000031 1.258755 0.167978 -1.066190
    17 5.564224 -0.557981 -0.100449 -0.252934 -0.892910 -1.324811
    18 5.508579 0.000004 0.000002 0.000000 -0.002241 -1.363102
    19 3.800001 0.000000 0.000004 0.000000 0.078995 -1.162267
    20 5.744637 0.557979 0.100456 0.153524 -1.071098 -1.024816
    21 6.052547 0.000000 0.000002 0.000000 -0.410889 -1.467961
    22 3.325016 0.000004 0.000000 0.000000 -0.038465 -1.030502
    23 5.613007 1.658156 0.708443 1.341977 -1.230448 -1.520129
    24 5.643139 0.000002 0.000000 0.000000 -0.899187 -1.545550
    25 3.079115 0.000000 0.000000 0.000000 -0.129582 -1.175842
    26 1.673222 1.247221 -2.595471 -0.572345 1.275124 3.901273
    27 6.028144 -0.000004 0.000000 1.204415 -0.019492 -0.813843
    28 11.692554 0.000000 0.000000 0.000000 0.000000 -2.150250
    29 12.075576 0.000000 0.000000 -1.133877 -0.590450 -0.656955
    30 5.943745 -0.602343 0.006447 0.491673 1.308263 -1.457378
    31 5.043457 0.000000 0.000000 0.000000 -0.235096 -1.339165
    32 3.384898 0.000004 0.000000 0.000000 -0.158202 -1.703085
    33 6.213898 0.602343 -0.006439 -0.340810 1.296067 -0.605064
    34 5.536301 0.000000 -0.000001 0.000000 1.146458 -0.947792
    35 3.312716 0.000000 0.000000 0.000000 0.507999 -1.337938
    36 5.899513 1.775718 -0.435093 -1.625982 1.473201 -0.894713
    37 5.285240 -0.000001 0.000001 0.000000 1.190848 0.460973
    38 3.098851 0.000000 0.000000 0.000000 0.860604 1.327213
    39 7.988281 1.665039 2.802734 2.703516 -0.158578 1.262175
    40 3.738597 -2.965118 -0.136395 0.215984 -0.078540 -0.078540
    41 -9.104414 0.438534 -6.643024 -2.851787 -0.050748 -0.919910
    42 6.098812 0.000000 0.000000 0.000000 0.000000 0.000000
    43 -7.019176 -5.213703 4.114698 3.033069 0.386917 -1.227442
    44 6.098812 0.000000 0.000000 0.000000 0.000000 -2.270475
    45 2.630715 -3.155083 -5.016710 0.032818 0.297699 -0.502588
    46 8.255676 0.000000 0.000000 0.000000 0.000000 -2.112525
    47 2.630415 -3.155083 5.016870 -2.297150 -0.072314 -1.106009
    48 8.255669 0.000000 0.000000 0.000000 0.000000 1.931636
  time 10
    0 -0.820020 2.722744 37.162554 1.717890 0.042773 -0.344804
    1 3.890453 0.000000 -0.000004 -1.665109 -0.341387 -1.388186
    2 17.593168 0.000000 0.000000 0.000000 0.000000 0.602985
    3 17.699577 0.000000 0.000000 -0.133402 0.013103 -1.333147
    4 6.879456 0.000000 0.000000 -0.063247 0.049387 -0.632497
    5 -3.890452 0.000000 0.000007 -2.157060 -0.527826 -1.529162
    6 17.593164 0.000000 0.000000 0.000000 0.000000 0.528925
    7 17.699577 0.000000 0.000000 0.077554 -0.239403 -1.103266
    8 6.879455 0.000000 0.000000 -0.024547 -0.055368 -0.698593
    9 -0.277350 3.352928 -2.962460 1.456228 0.205338 1.493831
    10 4.126705 0.000000 0.000000 -0.035582 -0.080524 0.050204
    11 3.613472 0.000000 0.000000 -0.008437 0.014873 0.025590
    12 9.183788 0.000000 0.000000 -0.143216 -0.204050 0.106682
    13 1.673229 1.247213 2.595464 2.589483 -1.015641 2.030620
    14 6.028144 0.000000 0.000000 -1.198105 -0.079920 -0.440757
    15 11.692551 0.000001 0.000000 0.000000 0.000000 -1.459784
    16 12.075554 0.000001 -0.000031 1.258755 0.167978 -1.066190
    17 5.564224 -0.557981 -0.100449 -0.252934 -0.892910 -1.324811
    18 5.508579 0.000004 0.000002 0.000000 -0.002241 -1.363102
    19 3.800001 0.000000 0.000004 0.000000 0.078995 -1.162267
    20 5.744637 0.557979 0.100456 0.153524 -1.071098 -1.024816
    21 6.052547 0.000000 0.000002 0.000000 -0.410889 -1.467961
    22 3.325016 0.000004 0.000000 0.000000 -0.038465 -1.030502
    23 5.613007 1.658156 0.708443 1.341977 -1.230448 -1.520129
    24 5.643139 0.000002 0.000000 0.000000 -0.899187 -1.545550
    25 3.079115 0.000000 0.000000 0.000000 -0.129582 -1.175842
    26 1.673222 1.247221 -2.595471 -0.615465 1.281404 3.868636
    27 6.028144 -0.000004 0.000000 1.206802 -0.029379 -0.766186
    28 11.692554 0.000000 0.000000 0.000000 0.000000 -2.180377
    29 12.075576 0.000000 0.000000 -1.133877 -0.590450 -0.656955
    30 5.943745 -0.602343 0.006447 0.491673 1.308263 -1.457378
    31 5.043457 0.000000 0.000000 0.000000 -0.235096 -1.339165
    32 3.384898 0.000004 0.000000 0.000000 -0.158202 -1.703085
    33 6.213898 0.602343 -0.006439 -0.340810 1.296067 -0.605064
    34 5.536301 0.000000 -0.000001 0.000000 1.146458 -0.947792
    35 3.312716 0.000000 0.000000 0.000000 0.507999 -1.337938
    36 5.899513 1.775718 -0.435093 -1.625982 1.473201 -0.894713
    37 5.285240 -0.000001 0.000001 0.000000 1.190848 0.460973
    38 3.098851 0.000000 0.000000 0.000000 0.860604 1.327213
    39 7.988281 1.665039 2.802734 2.703516 -0.158578 1.262175
    40 3.738597 -2.965118 -0.136395 0.215984 -0.078540 -0.078540
    41 -9.104414 0.438534 -6.643024 -2.851787 -0.050748 -0.919910
    42 6.098812 0.000000 0.000000 0.000000 0.000000 0.000000
    43 -7.019176 -5.213703 4.114698 3.033069 0.386917 -1.227442
    44 6.098812 0.000000 0.000000 0.000000 0.000000 -2.270475
    45 2.630715 -3.155083 -5.016710 0.032818 0.297699 -0.502588
    46 8.255676 0.000000 0.000000 0.000000 0.000000 -2.112525
    47 2.630415 -3.155083 5.016870 -2.297150 -0.072314 -1.106009
    48 8.255669 0.000000 0.000000 0.000000 0.000000 1.931636
  time 11
    0 -1.101278 2.605553 36.963329 1.728722 0.016635 -0.342654
    1 3.890453 0.000000 -0.000004 -1.641781 -0.345863 -1.412114
    2 17.593168 0.000000 0.000000 0.000000 0.000000 0.603118
    3 17.699577 0.000000 0.000000 -0.141890 0.013197 -1.348358
    4 6.879456 0.000000 0.000000 -0.063307 0.049387 -0.626170
    5 -3.890452 0.000000 0.000007 -2.184527 -0.551948 -1.533593
    6 17.593164 0.000000 0.000000 0.000000 0.000000 0.582550
    7 17.699577 0.000000 0.000000 0.083341 -0.231824 -1.153813
    8 6.879455 0.000000 0.000000 -0.024678 -0.055356 -0.683468
    9 -0.218755 3.356835 -2.962460 1.465341 0.202917 1.473637
    10 4.126705 0.000000 0.000000 -0.030872 -0.087703 0.057371
    11 3.613472 0.000000 0.000000 -0.003404 0.022016 0.030300
    12 9.183788 0.000000 0.000000 -0.128211 -0.196356 0.115718
    13 1.673229 1.247213 2.595464 2.574184 -1.012656 2.044510
    14 6.028144 0.000000 0.000000 -1.196286 -0.070985 -0.406158
    15 11.692551 0.000001 0.000000 0.000000 0.000000 -1.488639
    16 12.075554 0.000001 -0.000031 1.258755 0.167978 -1.066190
    17 5.564224 -0.557981 -0.100449 -0.252934 -0.892910 -1.324811
    18 5.508579 0.000004 0.000002 0.000000 -0.002241 -1.363102
    19 3.800001 0.000000 0.000004 0.000000 0.078995 -1.162267
    20 5.744637 0.557979 0.100456 0.153524 -1.071098 -1.024816
    21 6.052547 0.000000 0.000002 0.000000 -0.410889 -1.467961
    22 3.325016 0.000004 0.000000 0.000000 -0.038465 -1.030502
    23 5.613007 1.658156 0.708443 1.341977 -1.230448 -1.520129
    24 5.643139 0.000002 0.000000 0.000000 -0.899187 -1.545550
    25 3.079115 0.000000 0.000000 0.000000 -0.129582 -1.175842
    26 1.673222 1.247221 -2.595471 -0.662496 1.287702 3.832699
    27 6.028144 -0.000004 0.000000 1.179302 -0.035547 -0.731925
    28 11.692554 0.000000 0.000000 0.000000 0.000000 -2.205630
    29 12.075576 0.000000 0.000000 -1.133877 -0.590450 -0.656955
    30 5.943745 -0.602343 0.006447 0.491673 1.308263 -1.457378
    31 5.043457 0.000000 0.000000 0.000000 -0.235096 -1.339165
    32 3.384898 0.000004 0.000000 0.000000 -0.158202 -1.703085
    33 6.213898 0.602343 -0.006439 -0.340810 1.296067 -0.605064
    34 5.536301 0.000000 -0.000001 0.000000 1.146458 -0.947792
    35 3.312716 0.000000 0.000000 0.000000 0.507999 -1.337938
    36 5.899513 1.775718 -0.435093 -1.625982 1.473201 -0.894713
    37 5.285240 -0.000001 0.000001 0.000000 1.190848 0.460973
    38 3.098851 0.000000 0.000000 0.000000 0.860604 1.327213
    39 7.988281 1.665039 2.802734 2.703516 -0.158578 1.262175
    40 3.738597 -2.965118 -0.136395 0.215984 -0.078540 -0.078540
    41 -9.104414 0.438534 -6.643024 -2.851787 -0.050748 -0.919910
    42 6.098812 0.000000 0.000000 0.000000 0.000000 0.000000
    43 -7.019176 -5.213703 4.114698 3.033069 0.386917 -1.227442
    44 6.098812 0.000000 0.000000 0.000000 0.000000 -2.270475
    45 2.630715 -3.155083 -5.016710 0.032818 0.297699 -0.502588
    46 8.255676 0.000000 0.000000 0.000000 0.000000 -2.112525
    47 2.630415 -3.155083 5.016870 -2.297150 -0.072314 -1.106009
    48 8.255669 0.000000 0.000000 0.000000 0.000000 1.931636
  time 12
    0 -1.398162 2.480549 36.752385 1.740128 -0.007622 -0.340273
    1 3.890453 0.000000 -0.000004 -1.620454 -0.351475 -1.433119
    2 17.593168 0.000000 0.000000 0.000000 0.000000 0.605209
    3 17.699577 0.000000 0.000000 -0.150316 0.013599 -1.365062
    4 6.879456 0.000000 0.000000 -0.063379 0.049399 -0.619638
    5 -3.890452 0.000000 0.000007 -2.210027 -0.574102 -1.536069
    6 17.593164 0.000000 0.000000 0.000000 0.000000 0.632571
    7 17.699577 0.000000 0.000000 0.088204 -0.223121 -1.202367
    8 6.879455 0.000000 0.000000 -0.024834 -0.055356 -0.667852
    9 -0.167972 3.356835 -2.962460 1.474597 0.200436 1.455756
    10 4.126705 0.000000 0.000000 -0.026090 -0.094642 0.064682
    11 3.613472 0.000000 0.000000 0.001714 0.029290 0.035094
    12 9.183788 0.000000 0.000000 -0.112931 -0.188530 0.124995
    13 1.673229 1.247213 2.595464 2.559336 -1.009731 2.058143
    14 6.028144 0.000000 0.000000 -1.190935 -0.055708 -0.382299
    15 11.692551 0.000001 0.000000 0.000000 0.000000 -1.507405
    16 12.075554 0.000001 -0.000031 1.258755 0.167978 -1.066190
    17 5.564224 -0.557981 -0.100449 -0.252934 -0.892910 -1.324811
    18 5.508579 0.000004 0.000002 0.000000 -0.002241 -1.363102
    19 3.800001 0.000000 0.000004 0.000000 0.078995 -1.162267
    20 5.744637 0.557979 0.100456 0.153524 -1.071098 -1.024816
    21 6.052547 0.000000 0.000002 0.000000 -0.410889 -1.467961
    22 3.325016 0.000004 0.000000 0.000000 -0.038465 -1.030502
    23 5.613007 1.658156 0.708443 1.341977 -1.230448 -1.520129
    24 5.643139 0.000002 0.000000 0.000000 -0.899187 -1.545550
    25 3.079115 0.000000 0.000000 0.000000 -0.129582 -1.175842
    26 1.673222 1.247221 -2.595471 -0.713084 1.293855 3.793553
    27 6.028144 -0.000004 0.000000 1.127548 -0.029602 -0.716912
    28 11.692554 0.000000 0.000000 0.000000 0.000000 -2.218425
    29 12.075576 0.000000 0.000000 -1.133877 -0.590450 -0.656955
    30 5.943745 -0.602343 0.006447 0.491673 1.308263 -1.457378
    31 5.043457 0.000000 0.000000 0.000000 -0.235096 -1.339165
    32 3.384898 0.000004 0.000000 0.000000 -0.158202 -1.703085
    33 6.213898 0.602343 -0.006439 -0.340810 1.296067 -0.605064
    34 5.536301 0.000000 -0.000001 0.000000 1.146458 -0.947792
    35 3.312716 0.000000 0.000000 0.000000 0.507999 -1.337938
    36 5.899513 1.775718 -0.435093 -1.625982 1.473201 -0.894713
    37 5.285240 -0.000001 0.000001 0.000000 1.190848 0.460973
    38 3.098851 0.000000 0.000000 0.000000 0.860604 1.327213
    39 7.988281 1.665039 2.802734 2.703516 -0.158578 1.262175
    40 3.738597 -2.965118 -0.136395 0.215984 -0.078540 -0.078540
    41 -9.104414 0.438534 -6.643024 -2.851787 -0.050748 -0.919910
    42 6.098812 0.000000 0.000000 0.000000 0.000000 0.000000
    43 -7.019176 -5.213703 4.114698 3.033069 0.386917 -1.227442
    44 6.098812 0.000000 0.000000 0.000000 0.000000 -2.270475
    45 2.630715 -3.155083 -5.016710 0.032818 0.297699 -0.502588
    46 8.255676 0.000000 0.000000 0.000000 0.000000 -2.112525
    47 2.630415 -3.155083 5.016870 -2.297150 -0.072314 -1.106009
    48 8.255669 0.000000 0.000000 0.000000 0.000000 1.931636
  time 13
    0 -1.706766 2.351639 36.533628 1.751980 -0.029973 -0.337585
    1 3.890453 0.000000 -0.000004 -1.601536 -0.358188 -1.451338
    2 17.593168 0.000000 0.000000 0.000000 0.000000 0.609093
    3 17.699577 0.000000 0.000000 -0.158531 0.014544 -1.382808
    4 6.879456 0.000000 0.000000 -0.063451 0.049399 -0.613106
    5 -3.890452 0.000000 0.000007 -2.233245 -0.594740 -1.536590
    6 17.593164 0.000000 0.000000 0.000000 0.000000 0.679560
    7 17.699577 0.000000 0.000000 0.091840 -0.213669 -1.248530
    8 6.879455 0.000000 0.000000 -0.024990 -0.055344 -0.652236
    9 -0.125002 3.360741 -2.962460 1.483956 0.197931 1.440128
    10 4.126705 0.000000 0.000000 -0.021261 -0.101210 0.072064
    11 3.613472 0.000000 0.000000 0.006903 0.036649 0.039948
    12 9.183788 0.000000 0.000000 -0.097459 -0.180620 0.134438
    13 1.673229 1.247213 2.595464 2.544761 -1.006888 2.071434
    14 6.028144 0.000000 0.000000 -1.184219 -0.035856 -0.370218
    15 11.692551 0.000001 0.000000 0.000000 0.000000 -1.513997
    16 12.075554 0.000001 -0.000031 1.258755 0.167978 -1.066190
    17 5.564224 -0.557981 -0.100449 -0.252934 -0.892910 -1.324811
    18 5.508579 0.000004 0.000002 0.000000 -0.002241 -1.363102
    19 3.800001 0.000000 0.000004 0.000000 0.078995 -1.162267
    20 5.744637 0.557979 0.100456 0.153524 -1.071098 -1.024816
    21 6.052547 0.000000 0.000002 0.000000 -0.410889 -1.467961
    22 3.325016 0.000004 0.000000 0.000000 -0.038465 -1.030502
    23 5.613007 1.658156 0.708443 1.341977 -1.230448 -1.520129
    24 5.643139 0.000002 0.000000 0.000000 -0.899187 -1.545550
    25 3.079115 0.000000 0.000000 0.000000 -0.129582 -1.175842
    26 1.673222 1.247221 -2.595471 -0.766872 1.299733 3.751642
    27 6.028144 -0.000004 0.000000 1.061853 -0.007411 -0.728306
    28 11.692554 0.000000 0.000000 0.000000 0.000000 -2.209963
    29 12.075576 0.000000 0.000000 -1.133877 -0.590450 -0.656955
    30 5.943745 -0.602343 0.006447 0.491673 1.308263 -1.457378
    31 5.043457 0.000000 0.000000 0.000000 -0.235096 -1.339165
    32 3.384898 0.000004 0.000000 0.000000 -0.158202 -1.703085
    33 6.213898 0.602343 -0.006439 -0.340810 1.296067 -0.605064
    34 5.536301 0.000000 -0.000001 0.000000 1.146458 -0.947792
    35 3.312716 0.000000 0.000000 0.000000 0.507999 -1.337938
    36 5.899513 1.775718 -0.435093 -1.625982 1.473201 -0.894713
    37 5.285240 -0.000001 0.000001 0.000000 1.190848 0.460973
    38 3.098851 0.000000 0.000000 0.000000 0.860604 1.327213
    39 7.988281 1.665039 2.802734 2.703516 -0.158578 1.262175
    40 3.738597 -2.965118 -0.136395 0.215984 -0.078540 -0.078540
    41 -9.104414 0.438534 -6.643024 -2.851787 -0.050748 -0.919910
    42 6.098812 0.000000 0.000000 0.000000 0.000000 0.000000
    43 -7.019176 -5.213703 4.114698 3.033069 0.386917 -1.227442
    44 6.098812 0.000000 0.000000 0.000000 0.000000 -2.270475
    45 2.630715 -3.155083 -5.016710 0.032818 0.297699 -0.502588
    46 8.255676 0.000000 0.000000 0.000000 0.000000 -2.112525
    47 2.630415 -3.155083 5.016870 -2.297150 -0.072314 -1.106009
    48 8.255669 0.000000 0.000000 0.000000 0.000000 1.931636
  time 14
    0 -2.019275 2.218823 36.310965 1.764118 -0.050431 -0.334667
    1 3.890453 0.000000 -0.000004 -1.585120 -0.365818 -1.466818
    2 17.593168 0.000000 0.000000 0.000000 0.000000 0.614570
    3 17.699577 0.000000 0.000000 -0.166473 0.016081 -1.401169
    4 6.879456 0.000000 0.000000 -0.063523 0.049399 -0.606767
    5 -3.890452 0.000000 0.000007 -2.254023 -0.614167 -1.535287
    6 17.593164 0.000000 0.000000 0.000000 0.000000 0.723989
    7 17.699577 0.000000 0.000000 0.094121 -0.203798 -1.291992
    8 6.879455 0.000000 0.000000 -0.025146 -0.055332 -0.637112
    9 -0.085938 3.360741 -2.962460 1.493377 0.195415 1.426645
    10 4.126705 0.000000 0.000000 -0.016431 -0.107250 0.079495
    11 3.613472 0.000000 0.000000 0.012116 0.044043 0.044825
    12 9.183788 0.000000 0.000000 -0.081891 -0.172662 0.143978
    13 1.673229 1.247213 2.595464 2.530638 -1.004085 2.084552
    14 6.028144 0.000000 0.000000 -1.179392 -0.013589 -0.371255
    15 11.692551 0.000001 0.000000 0.000000 0.000000 -1.505656
    16 12.075554 0.000001 -0.000031 1.258755 0.167978 -1.066190
    17 5.564224 -0.557981 -0.100449 -0.252934 -0.892910 -1.324811
    18 5.508579 0.000004 0.000002 0.000000 -0.002241 -1.363102
    19 3.800001 0.000000 0.000004 0.000000 0.078995 -1.162267
    20 5.744637 0.557979 0.100456 0.153524 -1.071098 -1.024816
    21 6.052547 0.000000 0.000002 0.000000 -0.410889 -1.467961
    22 3.325016 0.000004 0.000000 0.000000 -0.038465 -1.030502
    23 5.613007 1.658156 0.708443 1.341977 -1.230448 -1.520129
    24 5.643139 0.000002 0.000000 0.000000 -0.899187 -1.545550
    25 3.079115 0.000000 0.000000 0.000000 -0.129582 -1.175842
    26 1.673222 1.247221 -2.595471 -0.823417 1.305228 3.707055
    27 6.028144 -0.000004 0.000000 0.995395 0.029279 -0.770728
    28 11.692554 0.000000 0.000000 0.000000 0.000000 -2.172795
    29 12.075576 0.000000 0.000000 -1.133877 -0.590450 -0.656955
    30 5.943745 -0.602343 0.006447 0.491673 1.308263 -1.457378
    31 5.043457 0.000000 0.000000 0.000000 -0.235096 -1.339165
    32 3.384898 0.000004 0.000000 0.000000 -0.158202 -1.703085
    33 6.213898 0.602343 -0.006439 -0.340810 1.296067 -0.605064
    34 5.536301 0.000000 -0.000001 0.000000 1.146458 -0.947792
    35 3.312716 0.000000 0.000000 0.000000 0.507999 -1.337938
    36 5.899513 1.775718 -0.435093 -1.625982 1.473201 -0.894713
    37 5.285240 -0.000001 0.000001 0.000000 1.190848 0.460973
    38 3.098851 0.000000 0.000000 0.000000 0.860604 1.327213
    39 7.988281 1.665039 2.802734 2.703516 -0.158578 1.262175
    40 3.738597 -2.965118 -0.136395 0.215984 -0.078540 -0.078540
    41 -9.104414 0.438534 -6.643024 -2.851787 -0.050748 -0.919910
    42 6.098812 0.000000 0.000000 0.000000 0.000000 0.000000
    43 -7.019176 -5.213703 4.114698 3.033069 0.386917 -1.227442
    44 6.098812 0.000000 0.000000 0.000000 0.000000 -2.270475
    45 2.630715 -3.155083 -5.016710 0.032818 0.297699 -0.502588
    46 8.255676 0.000000 0.000000 0.000000 0.000000 -2.112525
    47 2.630415 -3.155083 5.016870 -2.297150 -0.072314 -1.106009
    48 8.255669 0.000000 0.000000 0.000000 0.000000 1.931636
  time 15
    0 -2.339597 2.086006 36.084396 1.776320 -0.069019 -0.331595
    1 3.890453 0.000000 -0.000004 -1.571114 -0.374255 -1.479786
    2 17.593168 0.000000 0.000000 0.000000 0.000000 0.621475
    3 17.699577 0.000000 0.000000 -0.174144 0.018208 -1.419721
    4 6.879456 0.000000 0.000000 -0.063595 0.049411 -0.600846
    5 -3.890452 0.000000 0.000007 -2.272361 -0.632609 -1.532289
    6 17.593164 0.000000 0.000000 0.000000 0.000000 0.766127
    7 17.699577 0.000000 0.000000 0.095059 -0.193751 -1.332332
    8 6.879455 0.000000 0.000000 -0.025290 -0.055332 -0.622970
    9 -0.058594 3.360741 -2.962460 1.502777 0.192910 1.415176
    10 4.126705 0.000000 0.000000 -0.011625 -0.112571 0.086925
    11 3.613472 0.000000 0.000000 0.017330 0.051426 0.049703
    12 9.183788 0.000000 0.000000 -0.066347 -0.164716 0.153542
    13 1.673229 1.247213 2.595464 2.516877 -1.001323 2.097242
    14 6.028144 0.000000 0.000000 -1.180301 0.008317 -0.386571
    15 11.692551 0.000001 0.000000 0.000000 0.000000 -1.479760
    16 12.075554 0.000001 -0.000031 1.258755 0.167978 -1.066190
    17 5.564224 -0.557981 -0.100449 -0.252934 -0.892910 -1.324811
    18 5.508579 0.000004 0.000002 0.000000 -0.002241 -1.363102
    19 3.800001 0.000000 0.000004 0.000000 0.078995 -1.162267
    20 5.744637 0.557979 0.100456 0.153524 -1.071098 -1.024816
    21 6.052547 0.000000 0.000002 0.000000 -0.410889 -1.467961
    22 3.325016 0.000004 0.000000 0.000000 -0.038465 -1.030502
    23 5.613007 1.658156 0.708443 1.341977 -1.230448 -1.520129
    24 5.643139 0.000002 0.000000 0.000000 -0.899187 -1.545550
    25 3.079115 0.000000 0.000000 0.000000 -0.129582 -1.175842
    26 1.673222 1.247221 -2.595471 -0.882184 1.310230 3.660329
    27 6.028144 -0.000004 0.000000 0.940012 0.075537 -0.841175
    28 11.692554 0.000000 0.000000 0.000000 0.000000 -2.102792
    29 12.075576 0.000000 0.000000 -1.133877 -0.590450 -0.656955
    30 5.943745 -0.602343 0.006447 0.491673 1.308263 -1.457378
    31 5.043457 0.000000 0.000000 0.000000 -0.235096 -1.339165
    32 3.384898 0.000004 0.000000 0.000000 -0.158202 -1.703085
    33 6.213898 0.602343 -0.006439 -0.340810 1.296067 -0.605064
    34 5.536301 0.000000 -0.000001 0.000000 1.146458 -0.947792
    35 3.312716 0.000000 0.000000 0.000000 0.507999 -1.337938
    36 5.899513 1.775718 -0.435093 -1.625982 1.473201 -0.894713
    37 5.285240 -0.000001 0.000001 0.000000 1.190848 0.460973
    38 3.098851 0.000000 0.000000 0.000000 0.860604 1.327213
    39 7.988281 1.665039 2.802734 2.703516 -0.158578 1.262175
    40 3.738597 -2.965118 -0.136395 0.215984 -0.078540 -0.078540
    41 -9.104414 0.438534 -6.643024 -2.851787 -0.050748 -0.919910
    42 6.098812 0.000000 0.000000 0.000000 0.000000 0.000000
    43 -7.019176 -5.213703 4.114698 3.033069 0.386917 -1.227442
    44 6.098812 0.000000 0.000000 0.000000 0.000000 -2.270475
    45 2.630715 -3.155083 -5.016710 0.032818 0.297699 -0.502588
    46 8.255676 0.000000 0.000000 0.000000 0.000000 -2.112525
    47 2.630415 -3.155083 5.016870 -2.297150 -0.072314 -1.106009
    48 8.255669 0.000000 0.000000 0.000000 0.000000 1.931636
  time 16
    0 -2.659920 1.953190 35.857826 1.788426 -0.085738 -0.328369
    1 3.890453 0.000000 -0.000004 -1.559518 -0.383352 -1.490289
    2 17.593168 0.000000 0.000000 0.000000 0.000000 0.629574
    3 17.699577 0.000000 0.000000 -0.181526 0.020903 -1.437965
    4 6.879456 0.000000 0.000000 -0.063655 0.049411 -0.595549
    5 -3.890452 0.000000 0.000007 -2.288416 -0.650218 -1.527794
    6 17.593164 0.000000 0.000000 0.000000 0.000000 0.806043
    7 17.699577 0.000000 0.000000 0.094669 -0.183792 -1.369130
    8 6.879455 0.000000 0.000000 -0.025433 -0.055320 -0.610302
    9 -0.035155 3.360741 -2.962460 1.512096 0.190417 1.405588
    10 4.126705 0.000000 0.000000 -0.006891 -0.116958 0.094272
    11 3.613472 0.000000 0.000000 0.022483 0.058748 0.054533
    12 9.183788 0.000000 0.000000 -0.050935 -0.156854 0.163046
    13 1.673229 1.247213 2.595464 2.503569 -0.998642 2.109589
    14 6.028144 0.000000 0.000000 -1.189361 0.026007 -0.415372
    15 11.692551 0.000001 0.000000 0.000000 0.000000 -1.434493
    16 12.075554 0.000001 -0.000031 1.258755 0.167978 -1.066190
    17 5.564224 -0.557981 -0.100449 -0.252934 -0.892910 -1.324811
    18 5.508579 0.000004 0.000002 0.000000 -0.002241 -1.363102
    19 3.800001 0.000000 0.000004 0.000000 0.078995 -1.162267
    20 5.744637 0.557979 0.100456 0.153524 -1.071098 -1.024816
    21 6.052547 0.000000 0.000002 0.000000 -0.410889 -1.467961
    22 3.325016 0.000004 0.000000 0.000000 -0.038465 -1.030502
    23 5.613007 1.658156 0.708443 1.341977 -1.230448 -1.520129
    24 5.643139 0.000002 0.000000 0.000000 -0.899187 -1.545550
    25 3.079115 0.000000 0.000000 0.000000 -0.129582 -1.175842
    26 1.673222 1.247221 -2.595471 -0.942640 1.314648 3.611819
    27 6.028144 -0.000004 0.000000 0.902963 0.128187 -0.930022
    28 11.692554 0.000000 0.000000 0.000000 0.000000 -2.000564
    29 12.075576 0.000000 0.000000 -1.133877 -0.590450 -0.656955
    30 5.943745 -0.602343 0.006447 0.491673 1.308263 -1.457378
    31 5.043457 0.000000 0.000000 0.000000 -0.235096 -1.339165
    32 3.384898 0.000004 0.000000 0.000000 -0.158202 -1.703085
    33 6.213898 0.602343 -0.006439 -0.340810 1.296067 -0.605064
    34 5.536301 0.000000 -0.000001 0.000000 1.146458 -0.947792
    35 3.312716 0.000000 0.000000 0.000000 0.507999 -1.337938
    36 5.899513 1.775718 -0.435093 -1.625982 1.473201 -0.894713
    37 5.285240 -0.000001 0.000001 0.000000 1.190848 0.460973
    38 3.098851 0.000000 0.000000 0.000000 0.860604 1.327213
    39 7.988281 1.665039 2.802734 2.703516 -0.158578 1.262175
    40 3.738597 -2.965118 -0.136395 0.215984 -0.078540 -0.078540
    41 -9.104414 0.438534 -6.643024 -2.851787 -0.050748 -0.919910
    42 6.098812 0.000000 0.000000 0.000000 0.000000 0.000000
    43 -7.019176 -5.213703 4.114698 3.033069 0.386917 -1.227442
    44 6.098812 0.000000 0.000000 0.000000 0.000000 -2.270475
    45 2.630715 -3.155083 -5.016710 0.032818 0.297699 -0.502588
    46 8.255676 0.000000 0.000000 0.000000 0.000000 -2.112525
    47 2.630415 -3.155083 5.016870 -2.297150 -0.072314 -1.106009
    48 8.255669 0.000000 0.000000 0.000000 0.000000 1.931636
  time 17
    0 -2.968523 1.824279 35.639070 1.800150 -0.100527 -0.325067
    1 3.890453 0.000000 -0.000004 -1.550105 -0.392926 -1.498554
    2 17.593168 0.000000 0.000000 0.000000 0.000000 0.638637
    3 17.699577 0.000000 0.000000 -0.188516 0.024070 -1.455426
    4 6.879456 0.000000 0.000000 -0.063702 0.049411 -0.591067
    5 -3.890452 0.000000 0.000007 -2.302189 -0.666956 -1.521864
    6 17.593164 0.000000 0.000000 0.000000 0.000000 0.843634
    7 17.699577 0.000000 0.000000 0.093110 -0.174208 -1.401831
    8 6.879455 0.000000 0.000000 -0.025553 -0.055308 -0.599588
    9 -0.019530 3.364648 -2.962460 1.521229 0.187972 1.397798
    10 4.126705 0.000000 0.000000 -0.002301 -0.120038 0.101486
    11 3.613472 0.000000 0.000000 0.027541 0.065915 0.059267
    12 9.183788 0.000000 0.000000 -0.035858 -0.149160 0.172382
    13 1.673229 1.247213 2.595464 2.490804 -0.996022 2.121422
    14 6.028144 0.000000 0.000000 -1.205310 0.034655 -0.453876
    15 11.692551 0.000001 0.000000 0.000000 0.000000 -1.369518
    16 12.075554 0.000001 -0.000031 1.258755 0.167978 -1.066190
    17 5.564224 -0.557981 -0.100449 -0.252934 -0.892910 -1.324811
    18 5.508579 0.000004 0.000002 0.000000 -0.002241 -1.363102
    19 3.800001 0.000000 0.000004 0.000000 0.078995 -1.162267
    20 5.744637 0.557979 0.100456 0.153524 -1.071098 -1.024816
    21 6.052547 0.000000 0.000002 0.000000 -0.410889 -1.467961
    22 3.325016 0.000004 0.000000 0.000000 -0.038465 -1.030502
    23 5.613007 1.658156 0.708443 1.341977 -1.230448 -1.520129
    24 5.643139 0.000002 0.000000 0.000000 -0.899187 -1.545550
    25 3.079115 0.000000 0.000000 0.000000 -0.129582 -1.175842
    26 1.673222 1.247221 -2.595471 -1.003808 1.318409 3.562507
    27 6.028144 -0.000004 0.000000 0.885776 0.187417 -1.024720
    28 11.692554 0.000000 0.000000 0.000000 0.000000 -1.871255
    29 12.075576 0.000000 0.000000 -1.133877 -0.590450 -0.656955
    30 5.943745 -0.602343 0.006447 0.491673 1.308263 -1.457378
    31 5.043457 0.000000 0.000000 0.000000 -0.235096 -1.339165
    32 3.384898 0.000004 0.000000 0.000000 -0.158202 -1.703085
    33 6.213898 0.602343 -0.006439 -0.340810 1.296067 -0.605064
    34 5.536301 0.000000 -0.000001 0.000000 1.146458 -0.947792
    35 3.312716 0.000000 0.000000 0.000000 0.507999 -1.337938
    36 5.899513 1.775718 -0.435093 -1.625982 1.473201 -0.894713
    37 5.285240 -0.000001 0.000001 0.000000 1.190848 0.460973
    38 3.098851 0.000000 0.000000 0.000000 0.860604 1.327213
    39 7.988281 1.665039 2.802734 2.703516 -0.158578 1.262175
    40 3.738597 -2.965118 -0.136395 0.215984 -0.078540 -0.078540
    41 -9.104414 0.438534 -6.643024 -2.851787 -0.050748 -0.919910
    42 6.098812 0.000000 0.000000 0.000000 0.000000 0.000000
    43 -7.019176 -5.213703 4.114698 3.033069 0.386917 -1.227442
    44 6.098812 0.000000 0.000000 0.000000 0.000000 -2.270475
    45 2.630715 -3.155083 -5.016710 0.032818 0.297699 -0.502588
    46 8.255676 0.000000 0.000000 0.000000 0.000000 -2.112525
    47 2.630415 -3.155083 5.016870 -2.297150 -0.072314 -1.106009
    48 8.255669 0.000000 0.000000 0.000000 0.000000 1.931636
  time 18
    0 -3.257594 1.699276 35.432032 1.811078 -0.113170 -0.321765
    1 3.890453 0.000000 -0.000004 -1.542875 -0.402501 -1.504627
    2 17.593168 0.000000 0.000000 0.000000 0.000000 0.648230
    3 17.699577 0.000000 0.000000 -0.194991 0.027545 -1.471395
    4 6.879456 0.000000 0.000000 -0.063738 0.049411 -0.587615
    5 -3.890452 0.000000 0.000007 -2.313680 -0.682558 -1.514893
    6 17.593164 0.000000 0.000000 0.000000 0.000000 0.878126
    7 17.699577 0.000000 0.000000 0.090599 -0.165351 -1.429640
    8 6.879455 0.000000 0.000000 -0.025649 -0.055308 -0.591331
    9 -0.007811 3.364648 -2.962460 1.529952 0.185635 1.391722
    10 4.126705 0.000000 0.000000 0.002025 -0.121272 0.108390
    11 3.613472 0.000000 0.000000 0.032370 0.072782 0.063809
    12 9.183788 0.000000 0.000000 -0.021416 -0.141790 0.181322
    13 1.673229 1.247213 2.595464 2.478944 -0.993524 2.132483
    14 6.028144 0.000000 0.000000 -1.222624 0.029755 -0.495492
    15 11.692551 0.000001 0.000000 0.000000 0.000000 -1.287997
    16 12.075554 0.000001 -0.000031 1.258755 0.167978 -1.066190
    17 5.564224 -0.557981 -0.100449 -0.252934 -0.892910 -1.324811
    18 5.508579 0.000004 0.000002 0.000000 -0.002241 -1.363102
    19 3.800001 0.000000 0.000004 0.000000 0.078995 -1.162267
    20 5.744637 0.557979 0.100456 0.153524 -1.071098 -1.024816
    21 6.052547 0.000000 0.000002 0.000000 -0.410889 -1.467961
    22 3.325016 0.000004 0.000000 0.000000 -0.038465 -1.030502
    23 5.613007 1.658156 0.708443 1.341977 -1.230448 -1.520129
    24 5.643139 0.000002 0.000000 0.000000 -0.899187 -1.545550
    25 3.079115 0.000000 0.000000 0.000000 -0.129582 -1.175842
    26 1.673222 1.247221 -2.595471 -1.064086 1.321457 3.513551
    27 6.028144 -0.000004 0.000000 0.885585 0.254182 -1.112259
    28 11.692554 0.000000 0.000000 0.000000 0.000000 -1.725698
    29 12.075576 0.000000 0.000000 -1.133877 -0.590450 -0.656955
    30 5.943745 -0.602343 0.006447 0.491673 1.308263 -1.457378
    31 5.043457 0.000000 0.000000 0.000000 -0.235096 -1.339165
    32 3.384898 0.000004 0.000000 0.000000 -0.158202 -1.703085
    33 6.213898 0.602343 -0.006439 -0.340810 1.296067 -0.605064
    34 5.536301 0.000000 -0.000001 0.000000 1.146458 -0.947792
    35 3.312716 0.000000 0.000000 0.000000 0.507999 -1.337938
    36 5.899513 1.775718 -0.435093 -1.625982 1.473201 -0.894713
    37 5.285240 -0.000001 0.000001 0.000000 1.190848 0.460973
    38 3.098851 0.000000 0.000000 0.000000 0.860604 1.327213
    39 7.988281 1.665039 2.802734 2.703516 -0.158578 1.262175
    40 3.738597 -2.965118 -0.136395 0.215984 -0.078540 -0.078540
    41 -9.104414 0.438534 -6.643024 -2.851787 -0.050748 -0.919910
    42 6.098812 0.000000 0.000000 0.000000 0.000000 0.000000
    43 -7.019176 -5.213703 4.114698 3.033069 0.386917 -1.227442
    44 6.098812 0.000000 0.000000 0.000000 0.000000 -2.270475
    45 2.630715 -3.155083 -5.016710 0.032818 0.297699 -0.502588
    46 8.255676 0.000000 0.000000 0.000000 0.000000 -2.112525
    47 2.630415 -3.155083 5.016870 -2.297150 -0.072314 -1.106009
    48 8.255669 0.000000 0.000000 0.000000 0.000000 1.931636
  time 19
    0 -3.507602 1.597710 35.252339 1.820381 -0.123058 -0.318693
    1 3.890453 0.000000 -0.000004 -1.537918 -0.411341 -1.508554
    2 17.593168 0.000000 0.000000 0.000000 0.000000 0.657459
    3 17.699577 0.000000 0.000000 -0.200482 0.030925 -1.484639
    4 6.879456 0.000000 0.000000 -0.063774 0.049411 -0.585386
    5 -3.890452 0.000000 0.000007 -2.322574 -0.696039 -1.507725
    6 17.593164 0.000000 0.000000 0.000000 0.000000 0.907465
    7 17.699577 0.000000 0.000000 0.087627 -0.157926 -1.451028
    8 6.879455 0.000000 0.000000 -0.025709 -0.055308 -0.586022
    9 0.000002 3.364648 -2.962460 1.537854 0.183526 1.387360
    10 4.126705 0.000000 0.000000 0.005860 -0.119654 0.114645
    11 3.613472 0.000000 0.000000 0.036745 0.078978 0.067908
    12 9.183788 0.000000 0.000000 -0.008377 -0.135138 0.189448
    13 1.673229 1.247213 2.595464 2.468352 -0.991290 2.142343
    14 6.028144 0.000000 0.000000 -1.233502 0.010767 -0.532470
    15 11.692551 0.000001 0.000000 0.000000 0.000000 -1.201969
    16 12.075554 0.000001 -0.000031 1.258755 0.167978 -1.066190
    17 5.564224 -0.557981 -0.100449 -0.252934 -0.892910 -1.324811
    18 5.508579 0.000004 0.000002 0.000000 -0.002241 -1.363102
    19 3.800001 0.000000 0.000004 0.000000 0.078995 -1.162267
    20 5.744637 0.557979 0.100456 0.153524 -1.071098 -1.024816
    21 6.052547 0.000000 0.000002 0.000000 -0.410889 -1.467961
    22 3.325016 0.000004 0.000000 0.000000 -0.038465 -1.030502
    23 5.613007 1.658156 0.708443 1.341977 -1.230448 -1.520129
    24 5.643139 0.000002 0.000000 0.000000 -0.899187 -1.545550
    25 3.079115 0.000000 0.000000 0.000000 -0.129582 -1.175842
    26 1.673222 1.247221 -2.595471 -1.120008 1.323721 3.467984
    27 6.028144 -0.000004 0.000000 0.898094 0.323650 -1.177547
    28 11.692554 0.000000 0.000000 0.000000 0.000000 -1.585760
    29 12.075576 0.000000 0.000000 -1.133877 -0.590450 -0.656955
    30 5.943745 -0.602343 0.006447 0.491673 1.308263 -1.457378
    31 5.043457 0.000000 0.000000 0.000000 -0.235096 -1.339165
    32 3.384898 0.000004 0.000000 0.000000 -0.158202 -1.703085
    33 6.213898 0.602343 -0.006439 -0.340810 1.296067 -0.605064
    34 5.536301 0.000000 -0.000001 0.000000 1.146458 -0.947792
    35 3.312716 0.000000 0.000000 0.000000 0.507999 -1.337938
    36 5.899513 1.775718 -0.435093 -1.625982 1.473201 -0.894713
    37 5.285240 -0.000001 0.000001 0.000000 1.190848 0.460973
    38 3.098851 0.000000 0.000000 0.000000 0.860604 1.327213
    39 7.988281 1.665039 2.802734 2.703516 -0.158578 1.262175
    40 3.738597 -2.965118 -0.136395 0.215984 -0.078540 -0.078540
    41 -9.104414 0.438534 -6.643024 -2.851787 -0.050748 -0.919910
    42 6.098812 0.000000 0.000000 0.000000 0.000000 0.000000
    43 -7.019176 -5.213703 4.114698 3.033069 0.386917 -1.227442
    44 6.098812 0.000000 0.000000 0.000000 0.000000 -2.270475
    45 2.630715 -3.155083 -5.016710 0.032818 0.297699 -0.502588
    46 8.255676 0.000000 0.000000 0.000000 0.000000 -2.112525
    47 2.630415 -3.155083 5.016870 -2.297150 -0.072314 -1.106009
    48 8.255669 0.000000 0.000000 0.000000 0.000000 1.931636
  time 20
    0 -3.644325 1.539114 35.154680 1.825415 -0.128007 -0.317003
    1 3.890453 0.000000 -0.000004 -1.535781 -0.416477 -1.510106
    2 17.593168 0.000000 0.000000 0.000000 0.000000 0.663035
    3 17.699577 0.000000 0.000000 -0.203448 0.033006 -1.491605
    4 6.879456 0.000000 0.000000 -0.063774 0.049411 -0.584607
    5 -3.890452 0.000000 0.000007 -2.326981 -0.703537 -1.503230
    6 17.593164 0.000000 0.000000 0.000000 0.000000 0.923532
    7 17.699577 0.000000 0.000000 0.085635 -0.153982 -1.461434
    8 6.879455 0.000000 0.000000 -0.025721 -0.055308 -0.584140
    9 0.000002 3.364648 -2.962460 1.542883 0.182184 1.385227
    10 4.126705 0.000000 0.000000 0.008114 -0.112931 0.118648
    11 3.613472 0.000000 0.000000 0.039525 0.082921 0.070520
    12 9.183788 0.000000 0.000000 -0.000072 -0.130896 0.194637
    13 1.673229 1.247213 2.595464 2.461653 -0.989848 2.148688
    14 6.028144 0.000000 0.000000 -1.234657 -0.009050 -0.554803
    15 11.692551 0.000001 0.000000 0.000000 0.000000 -1.153406
    16 12.075554 0.000001 -0.000031 1.258755 0.167978 -1.066190
    17 5.564224 -0.557981 -0.100449 -0.252934 -0.892910 -1.324811
    18 5.508579 0.000004 0.000002 0.000000 -0.002241 -1.363102
    19 3.800001 0.000000 0.000004 0.000000 0.078995 -1.162267
    20 5.744637 0.557979 0.100456 0.153524 -1.071098 -1.024816
    21 6.052547 0.000000 0.000002 0.000000 -0.410889 -1.467961
    22 3.325016 0.000004 0.000000 0.000000 -0.038465 -1.030502
    23 5.613007 1.658156 0.708443 1.341977 -1.230448 -1.520129
    24 5.643139 0.000002 0.000000 0.000000 -0.899187 -1.545550
    25 3.079115 0.000000 0.000000 0.000000 -0.129582 -1.175842
    26 1.673222 1.247221 -2.595471 -1.156726 1.324908 3.437933
    27 6.028144 -0.000004 0.000000 0.914613 0.367556 -1.198873
    28 11.692554 0.000000 0.000000 0.000000 0.000000 -1.504857
    29 12.075576 0.000000 0.000000 -1.133877 -0.590450 -0.656955
    30 5.943745 -0.602343 0.006447 0.491673 1.308263 -1.457378
    31 5.043457 0.000000 0.000000 0.000000 -0.235096 -1.339165
    32 3.384898 0.000004 0.000000 0.000000 -0.158202 -1.703085
    33 6.213898 0.602343 -0.006439 -0.340810 1.296067 -0.605064
    34 5.536301 0.000000 -0.000001 0.000000 1.146458 -0.947792
    35 3.312716 0.000000 0.000000 0.000000 0.507999 -1.337938
    36 5.899513 1.775718 -0.435093 -1.625982 1.473201 -0.894713
    37 5.285240 -0.000001 0.000001 0.000000 1.190848 0.460973
    38 3.098851 0.000000 0.000000 0.000000 0.860604 1.327213
    39 7.988281 1.665039 2.802734 2.703516 -0.158578 1.262175
    40 3.738597 -2.965118 -0.136395 0.215984 -0.078540 -0.078540
    41 -9.104414 0.438534 -6.643024 -2.851787 -0.050748 -0.919910
    42 6.098812 0.000000 0.000000 0.000000 0.000000 0.000000
    43 -7.019176 -5.213703 4.114698 3.033069 0.386917 -1.227442
    44 6.098812 0.000000 0.000000 0.000000 0.000000 -2.270475
    45 2.630715 -3.155083 -5.016710 0.032818 0.297699 -0.502588
    46 8.255676 0.000000 0.000000 0.000000 0.000000 -2.112525
    47 2.630415 -3.155083 5.016870 -2.297150 -0.072314 -1.106009
    48 8.255669 0.000000 0.000000 0.000000 0.000000 1.931636
end
