"Refract"
{
 	"$normalmap" 				"effects/heat_bump"
	"$bumpmap"				"effects/heat_bump"

	"$translucent" 				"1"
//	"$additive"				"1"

	"$spriteorientation" 				"vp_parallel"
	"$spriteorigin" 				"[ 0.50 0.50 ]"

	"$vertexalpha" 				"1"
//	"$vertexcolor" 				"1"
//	"$vertexcolormodulate" 			"1"	

	"$alpha"					"1"

	"$refractamount" 				".4312"
	"$forcerefract" 				"1"
	"$bluramount" 				"6.01"

//	// "// $nocull"					"1"

}