// Created by Crowbar 0.58
version 1
nodes
  0 "Bip01" -1
  1 "Bip01 Pelvis" 0
  2 "Bip01 Spine" 1
  3 "Bip01 Spine1" 2
  4 "Bip01 Spine2" 3
  5 "Bip01 Spine3" 4
  6 "Bip01 Neck" 5
  7 "Bip01 Head" 6
  8 "Bone09" 7
  9 "Bone10" 8
  10 "Bone12" 7
  11 "Bone13" 10
  12 "Bip01 L Clavicle" 6
  13 "Bip01 L UpperArm" 12
  14 "Bip01 L Forearm" 13
  15 "Bip01 L Hand" 14
  16 "Bip01 L Finger0" 15
  17 "Bip01 L Finger01" 16
  18 "Bip01 L Finger02" 17
  19 "Bip01 L Finger1" 15
  20 "Bip01 L Finger11" 19
  21 "Bip01 L Finger12" 20
  22 "Bip01 L Finger2" 15
  23 "Bip01 L Finger21" 22
  24 "Bip01 L Finger22" 23
  25 "Bip01 L Finger3" 15
  26 "Bip01 L Finger31" 25
  27 "Bip01 L Finger32" 26
  28 "Bip01 R Clavicle" 6
  29 "Bip01 R UpperArm" 28
  30 "Bip01 R Forearm" 29
  31 "Bip01 R Hand" 30
  32 "Bip01 R Finger0" 31
  33 "Bip01 R Finger01" 32
  34 "Bip01 R Finger02" 33
  35 "Bip01 R Finger1" 31
  36 "Bip01 R Finger11" 35
  37 "Bip01 R Finger12" 36
  38 "Bip01 R Finger2" 31
  39 "Bip01 R Finger21" 38
  40 "Bip01 R Finger22" 39
  41 "Bip01 R Finger3" 31
  42 "Bip01 R Finger31" 41
  43 "Bip01 R Finger32" 42
  44 "Bone01" 4
  45 "Bone03" 4
  46 "Bone05" 3
  47 "Bone07" 3
  48 "Bip01 L Thigh" 1
  49 "Bip01 L Calf" 48
  50 "Bip01 L Foot" 49
  51 "Bip01 R Thigh" 1
  52 "Bip01 R Calf" 51
  53 "Bip01 R Foot" 52
end
skeleton
  time 0
    0 0.582049 0.013167 36.602175 0.000000 0.000000 -1.570987
    1 -0.082034 -0.007813 0.000000 0.000000 -1.570451 -1.570795
    2 1.576611 -0.003992 0.000002 -0.000004 -0.000001 0.000646
    3 5.015457 -0.003840 0.000000 0.087140 0.000000 0.000000
    4 4.822693 -0.003838 0.000000 0.104590 -0.003619 0.034721
    5 4.822556 -0.004685 0.000000 0.000000 0.000000 0.000000
    6 5.883453 -0.001475 0.000000 0.000000 0.000000 -0.052333
    7 1.854832 0.000000 0.000000 -0.181556 0.062109 0.342644
    8 4.577744 2.974503 -4.899295 0.000000 -1.570796 2.810149
    9 -0.576364 -6.294613 1.187798 0.000000 0.000000 0.000000
    10 4.598343 3.014902 4.786890 0.000000 -1.570796 2.810149
    11 0.671572 -6.281569 1.205063 0.000000 0.000000 0.000000
    12 0.988842 0.018080 3.418189 -0.000014 -1.370796 -3.090042
    13 5.304816 0.000000 0.000000 0.628068 0.979054 0.833452
    14 18.707375 0.000000 -0.000002 0.000000 0.000000 -1.197603
    15 13.951651 0.000000 -0.000004 0.063585 -0.128465 -0.643714
    16 -0.620571 0.325967 -1.592585 1.860746 0.900460 0.815947
    17 3.570904 0.000002 -0.000001 0.000000 0.000000 0.261592
    18 2.779234 -0.000001 0.000000 0.000000 0.000000 0.662870
    19 5.246642 0.034821 -2.517332 -0.190689 0.169817 -0.410057
    20 6.439503 -0.000001 0.000000 0.000000 0.000000 0.139691
    21 3.098978 0.000000 0.000000 0.000000 0.000000 0.750086
    22 5.603584 -0.087752 -0.344059 -0.045404 -0.041477 0.690309
    23 4.928793 0.000000 -0.000004 0.000000 0.000000 1.116323
    24 6.254896 0.000002 -0.000002 0.000000 0.000000 0.680324
    25 5.434063 -0.010812 1.636232 0.109189 -0.311159 -0.158269
    26 4.854518 0.000000 0.000002 0.000000 0.000000 1.046512
    27 5.521277 0.000000 0.000000 0.000000 0.000000 1.360563
    28 -0.000004 0.001486 -3.418189 -0.000014 1.370796 -3.090069
    29 5.304816 0.000000 0.000000 0.478903 -1.116658 -0.009671
    30 18.340565 0.000000 -0.000002 0.000000 0.000000 -1.228867
    31 14.370207 0.000000 0.000002 0.107796 0.061009 0.439384
    32 -0.620573 0.325966 1.592587 -2.192485 -1.214136 1.142226
    33 3.927999 -0.000001 0.000000 0.000000 0.000000 -0.017380
    34 2.779240 0.000001 0.000000 0.000000 0.000000 0.662865
    35 5.246641 0.034821 2.517334 -0.311143 -0.180465 1.056190
    36 6.313238 0.000002 0.000002 0.000000 0.000000 0.610747
    37 3.098980 0.000000 0.000001 0.000000 0.000000 0.540805
    38 5.603580 -0.087754 0.344059 0.000369 0.009970 -0.505540
    39 4.532814 0.000000 -0.000002 0.000000 0.000000 0.697778
    40 6.615754 0.000002 0.000000 0.000000 0.000000 1.029133
    41 5.434061 -0.010812 -1.636234 -0.202281 0.240343 -0.678655
    42 4.623351 0.000001 -0.000002 0.000000 0.000000 0.662856
    43 5.521277 0.000000 0.000000 0.000000 0.000000 0.558301
    44 4.170006 3.279094 -1.198655 1.551958 -1.352751 1.554193
    45 3.754124 3.204277 1.399633 -1.589288 -1.544633 4.695478
    46 0.050228 4.476613 -0.976787 1.570763 -1.309083 1.570357
    47 0.921745 4.255628 1.163094 -1.570758 -1.352770 4.711355
    48 -0.000008 0.000008 4.504590 -3.141610 -0.000210 2.718865
    49 18.184616 0.000000 0.000000 0.000000 0.000000 -0.697655
    50 16.862097 0.000000 0.000000 -0.000030 -0.000054 0.275328
    51 0.000011 -0.000005 -4.504589 3.312064 0.038834 2.944817
    52 18.184610 0.000000 0.000000 0.000000 0.000000 -0.653293
    53 16.862089 0.000000 0.000000 -0.174504 0.003820 0.453149
  time 1
    0 0.582049 0.013167 36.602175 0.000000 0.000000 -1.570987
    1 -0.082034 -0.007813 0.000000 0.000000 -1.570451 -1.570795
    2 1.576611 -0.003992 0.000002 -0.000004 -0.000001 0.000646
    3 5.015457 -0.003840 0.000000 0.087140 0.000000 0.000000
    4 4.822693 -0.003838 0.000000 0.104590 -0.003619 0.034721
    5 4.822556 -0.004685 0.000000 0.000000 0.000000 0.000000
    6 5.883453 -0.001475 0.000000 0.000000 0.000000 -0.052333
    7 1.854832 0.000000 0.000000 -0.181556 0.062109 0.342644
    8 4.577744 2.974503 -4.899295 0.000000 -1.570796 2.810149
    9 -0.576364 -6.294613 1.187798 0.000000 0.000000 0.000000
    10 4.598343 3.014902 4.786890 0.000000 -1.570796 2.810149
    11 0.671572 -6.281569 1.205063 0.000000 0.000000 0.000000
    12 0.988842 0.018080 3.418189 -0.000014 -1.370796 -3.090042
    13 5.304816 0.000000 0.000000 0.628068 0.979054 0.833452
    14 18.707375 0.000000 -0.000002 0.000000 0.000000 -1.197603
    15 13.951651 0.000000 -0.000004 0.063585 -0.128465 -0.643714
    16 -0.620571 0.325967 -1.592585 1.860746 0.900460 0.815947
    17 3.570904 0.000002 -0.000001 0.000000 0.000000 0.261592
    18 2.779234 -0.000001 0.000000 0.000000 0.000000 0.662870
    19 5.246642 0.034821 -2.517332 -0.190689 0.169817 -0.410057
    20 6.439503 -0.000001 0.000000 0.000000 0.000000 0.139691
    21 3.098978 0.000000 0.000000 0.000000 0.000000 0.750086
    22 5.603584 -0.087752 -0.344059 -0.045404 -0.041477 0.690309
    23 4.928793 0.000000 -0.000004 0.000000 0.000000 1.116323
    24 6.254896 0.000002 -0.000002 0.000000 0.000000 0.680324
    25 5.434063 -0.010812 1.636232 0.109189 -0.311159 -0.158269
    26 4.854518 0.000000 0.000002 0.000000 0.000000 1.046512
    27 5.521277 0.000000 0.000000 0.000000 0.000000 1.360563
    28 -0.000004 0.001486 -3.418189 -0.000014 1.370796 -3.090069
    29 5.304816 0.000000 0.000000 0.478903 -1.116658 -0.009671
    30 18.340565 0.000000 -0.000002 0.000000 0.000000 -1.228867
    31 14.370207 0.000000 0.000002 0.107796 0.061009 0.439384
    32 -0.620573 0.325966 1.592587 -2.192485 -1.214136 1.142226
    33 3.927999 -0.000001 0.000000 0.000000 0.000000 -0.017380
    34 2.779240 0.000001 0.000000 0.000000 0.000000 0.662865
    35 5.246641 0.034821 2.517334 -0.311143 -0.180465 1.056190
    36 6.313238 0.000002 0.000002 0.000000 0.000000 0.610747
    37 3.098980 0.000000 0.000001 0.000000 0.000000 0.540805
    38 5.603580 -0.087754 0.344059 0.000369 0.009970 -0.505540
    39 4.532814 0.000000 -0.000002 0.000000 0.000000 0.697778
    40 6.615754 0.000002 0.000000 0.000000 0.000000 1.029133
    41 5.434061 -0.010812 -1.636234 -0.202281 0.240343 -0.678655
    42 4.623351 0.000001 -0.000002 0.000000 0.000000 0.662856
    43 5.521277 0.000000 0.000000 0.000000 0.000000 0.558301
    44 4.170006 3.279094 -1.198655 1.551958 -1.352751 1.554193
    45 3.754124 3.204277 1.399633 -1.589288 -1.544633 4.695478
    46 0.050228 4.476613 -0.976787 1.570763 -1.309083 1.570357
    47 0.921745 4.255628 1.163094 -1.570758 -1.352770 4.711355
    48 -0.000008 0.000008 4.504590 -3.141610 -0.000210 2.718865
    49 18.184616 0.000000 0.000000 0.000000 0.000000 -0.697655
    50 16.862097 0.000000 0.000000 -0.000030 -0.000054 0.275328
    51 0.000011 -0.000005 -4.504589 3.312064 0.038834 2.944817
    52 18.184610 0.000000 0.000000 0.000000 0.000000 -0.653293
    53 16.862089 0.000000 0.000000 -0.174504 0.003820 0.453149
  time 2
    0 0.582049 0.270988 36.613894 0.000000 0.005560 -1.570987
    1 1.277383 0.007813 0.000000 0.000000 -1.570451 -1.570795
    2 1.576611 -0.003992 0.000002 -0.000004 -0.000001 -0.127361
    3 5.015457 -0.003840 0.000000 0.087140 0.002277 -0.028236
    4 4.822693 -0.003838 0.000000 0.104602 0.000336 -0.004025
    5 4.822556 -0.004685 0.000000 0.000000 0.000000 -0.003164
    6 5.883453 -0.001475 0.000000 0.000000 0.000000 -0.052333
    7 1.854832 0.000000 0.000000 -0.182375 0.059626 0.384304
    8 4.577744 2.974503 -4.899295 2.740318 -1.483356 -0.106285
    9 -0.576364 -6.294613 1.187798 -0.165865 0.000000 0.000000
    10 4.598343 3.014902 4.786890 0.000000 -1.570796 2.510912
    11 0.671572 -6.281569 1.205063 0.322464 0.000000 0.000000
    12 0.988842 0.018080 3.418189 -0.000014 -1.370796 -3.090042
    13 5.304816 0.000000 0.000000 -0.085773 1.105009 0.060114
    14 18.707375 0.000000 -0.000002 0.000000 0.000000 -1.292840
    15 13.951651 0.000000 -0.000004 0.072839 -0.123527 -0.717144
    16 -0.620571 0.325967 -1.592585 1.860746 0.900460 0.815947
    17 3.570904 0.000002 -0.000001 0.000000 0.000000 0.261592
    18 2.779234 -0.000001 0.000000 0.000000 0.000000 0.662870
    19 5.246642 0.034821 -2.517332 -0.190689 0.169817 -0.410057
    20 6.439503 -0.000001 0.000000 0.000000 0.000000 0.139691
    21 3.098978 0.000000 0.000000 0.000000 0.000000 0.750049
    22 5.603584 -0.087752 -0.344059 -0.033825 -0.051352 0.441770
    23 4.928793 0.000000 -0.000004 0.000000 0.000000 1.116323
    24 6.254896 0.000002 -0.000002 0.000000 0.000000 0.680324
    25 5.434063 -0.010812 1.636232 0.143050 -0.297401 -0.271393
    26 4.854518 0.000000 0.000002 0.000000 0.000000 1.046512
    27 5.521277 0.000000 0.000000 0.000000 0.000000 1.360563
    28 -0.000004 0.001486 -3.418189 -0.000014 1.370796 -3.090069
    29 5.304816 0.000000 0.000000 0.818120 -0.855226 -0.338461
    30 18.340565 0.000000 -0.000002 0.000000 0.000000 -1.356461
    31 14.370207 0.000000 0.000002 0.089230 0.086537 0.181809
    32 -0.620573 0.325966 1.592587 -2.192485 -1.214136 1.142226
    33 3.927999 -0.000001 0.000000 0.000000 0.000000 -0.017380
    34 2.779240 0.000001 0.000000 0.000000 0.000000 0.662888
    35 5.246641 0.034821 2.517334 -0.249875 -0.259371 0.777782
    36 6.313238 0.000002 0.000002 0.000000 0.000000 0.610747
    37 3.098980 0.000000 0.000001 0.000000 0.000000 0.540805
    38 5.603580 -0.087754 0.344059 0.000369 0.009970 -0.505540
    39 4.532814 0.000000 -0.000002 0.000000 0.000000 0.697778
    40 6.615754 0.000002 0.000000 0.000000 0.000000 1.029133
    41 5.434061 -0.010812 -1.636234 -0.202281 0.240343 -0.678655
    42 4.623351 0.000001 -0.000002 0.000000 0.000000 0.662856
    43 5.521277 0.000000 0.000000 0.000000 0.000000 0.558301
    44 4.170006 3.279094 -1.198655 1.551865 -1.401224 1.554193
    45 3.754124 3.204277 1.399633 1.551969 -1.538014 1.554009
    46 0.050228 4.476613 -0.976787 1.570763 -1.359492 1.570357
    47 0.921745 4.255628 1.163094 -1.570758 -1.431686 4.711355
    48 -0.000008 0.000008 4.504590 -3.142346 0.000550 2.740236
    49 18.184616 0.000000 0.000000 0.000000 0.000000 -0.710494
    50 16.862097 0.000000 0.000000 -0.000030 0.000992 0.315231
    51 0.000011 -0.000005 -4.504589 3.311012 0.037396 2.983279
    52 18.184610 0.000000 0.000000 0.000000 0.000000 -0.627873
    53 16.862089 0.000000 0.000000 -0.172966 0.010280 0.471784
  time 3
    0 0.582049 0.579591 36.645145 0.000000 0.014093 -1.570987
    1 2.793054 0.050783 0.000000 0.000000 -1.570451 -1.570795
    2 1.576611 -0.003992 0.000002 -0.000004 -0.000001 -0.269733
    3 5.015457 -0.003840 0.000000 0.086936 0.005381 -0.063590
    4 4.822693 -0.003838 0.000000 0.104530 0.005189 -0.051184
    5 4.822556 -0.004685 0.000000 0.000000 0.000000 -0.008689
    6 5.883453 -0.001475 0.000000 0.000000 0.000000 -0.052333
    7 1.854832 0.000000 0.000000 -0.185779 0.047544 0.388537
    8 4.577744 2.974503 -4.899295 2.627132 -1.391457 -0.195254
    9 -0.576364 -6.294613 1.187798 -0.368476 0.000000 0.000000
    10 4.598343 3.014902 4.786890 0.000000 -1.570796 2.173274
    11 0.671572 -6.281569 1.205063 0.676638 0.000000 0.000000
    12 0.988842 0.018080 3.418189 -0.000014 -1.370796 -3.090042
    13 5.304816 0.000000 0.000000 -0.781975 0.940330 -0.732239
    14 18.707375 0.000000 -0.000002 0.000000 0.000000 -1.391556
    15 13.951651 0.000000 -0.000004 0.081902 -0.117752 -0.792630
    16 -0.620571 0.325967 -1.592585 1.860746 0.900460 0.815947
    17 3.570904 0.000002 -0.000001 0.000000 0.000000 0.261592
    18 2.779234 -0.000001 0.000000 0.000000 0.000000 0.662870
    19 5.246642 0.034821 -2.517332 -0.190689 0.169817 -0.410057
    20 6.439503 -0.000001 0.000000 0.000000 0.000000 0.139691
    21 3.098978 0.000000 0.000000 0.000000 0.000000 0.750086
    22 5.603584 -0.087752 -0.344059 -0.018433 -0.058597 0.161980
    23 4.928793 0.000000 -0.000004 0.000000 0.000000 1.116323
    24 6.254896 0.000002 -0.000002 0.000000 0.000000 0.680286
    25 5.434063 -0.010812 1.636232 0.179013 -0.277770 -0.397779
    26 4.854518 0.000000 0.000002 0.000000 0.000000 1.046512
    27 5.521277 0.000000 0.000000 0.000000 0.000000 1.360521
    28 -0.000004 0.001486 -3.418189 -0.000014 1.370796 -3.090069
    29 5.304816 0.000000 0.000000 0.965182 -0.544635 -0.525356
    30 18.340565 0.000000 -0.000002 0.000000 0.000000 -1.492287
    31 14.370207 0.000000 0.000002 0.061382 0.107990 -0.101109
    32 -0.620573 0.325966 1.592587 -2.192485 -1.214136 1.142226
    33 3.927999 -0.000001 0.000000 0.000000 0.000000 -0.017380
    34 2.779240 0.000001 0.000000 0.000000 0.000000 0.662888
    35 5.246641 0.034821 2.517334 -0.156000 -0.323813 0.454074
    36 6.313238 0.000002 0.000002 0.000000 0.000000 0.610701
    37 3.098980 0.000000 0.000001 0.000000 0.000000 0.540805
    38 5.603580 -0.087754 0.344059 0.000369 0.009970 -0.505540
    39 4.532814 0.000000 -0.000002 0.000000 0.000000 0.697778
    40 6.615754 0.000002 0.000000 0.000000 0.000000 1.029133
    41 5.434061 -0.010812 -1.636234 -0.202281 0.240343 -0.678655
    42 4.623351 0.000001 -0.000002 0.000000 0.000000 0.662856
    43 5.521277 0.000000 0.000000 0.000000 0.000000 0.558301
    44 4.170006 3.279094 -1.198655 1.551958 -1.456016 1.554381
    45 3.754124 3.204277 1.399633 1.552051 -1.471490 1.554009
    46 0.050228 4.476613 -0.976787 1.570763 -1.416387 1.570357
    47 0.921745 4.255628 1.163094 -1.570758 -1.520745 4.711355
    48 -0.000008 0.000008 4.504590 -3.142346 0.002070 2.765266
    49 18.184616 0.000000 0.000000 0.000000 0.000000 -0.717492
    50 16.862097 0.000000 0.000000 -0.000030 0.002227 0.355651
    51 0.000011 -0.000005 -4.504589 3.310343 0.035395 3.028328
    52 18.184610 0.000000 0.000000 0.000000 0.000000 -0.590523
    53 16.862089 0.000000 0.000000 -0.171378 0.017579 0.487296
  time 4
    0 0.578143 0.821786 36.680303 0.000000 0.024255 -1.570987
    1 3.890744 0.082034 0.000000 0.000000 -1.570451 -1.570795
    2 1.576611 -0.003992 0.000002 -0.000004 -0.000001 -0.383640
    3 5.015457 -0.003840 0.000000 0.086792 0.007323 -0.084767
    4 4.822693 -0.003838 0.000000 0.104314 0.008353 -0.081457
    5 4.822556 -0.004685 0.000000 0.000000 0.000000 -0.009720
    6 5.883453 -0.001475 0.000000 0.000000 0.000000 -0.052333
    7 1.854832 0.000000 0.000000 -0.190526 0.020683 0.289231
    8 4.577744 2.974503 -4.899295 2.562633 -1.311018 -0.284606
    9 -0.576364 -6.294613 1.187798 -0.497714 0.000000 0.000000
    10 4.598343 3.014902 4.786890 0.000000 -1.570796 1.912083
    11 0.671572 -6.281569 1.205063 0.967280 0.000000 0.000000
    12 0.988842 0.018080 3.418189 -0.000014 -1.370796 -3.090042
    13 5.304816 0.000000 0.000000 -1.234506 0.316654 -1.349174
    14 18.707375 0.000000 -0.000002 0.000000 0.000000 -1.547356
    15 13.951651 0.000000 -0.000004 0.095449 -0.107081 -0.913051
    16 -0.620571 0.325967 -1.592585 1.860746 0.900460 0.815947
    17 3.570904 0.000002 -0.000001 0.000000 0.000000 0.261592
    18 2.779234 -0.000001 0.000000 0.000000 0.000000 0.662870
    19 5.246642 0.034821 -2.517332 -0.189003 0.171602 -0.400448
    20 6.439503 -0.000001 0.000000 0.000000 0.000000 0.139691
    21 3.098978 0.000000 0.000000 0.000000 0.000000 0.750049
    22 5.603584 -0.087752 -0.344059 0.005392 -0.061155 -0.230377
    23 4.928793 0.000000 -0.000004 0.000000 0.000000 1.116323
    24 6.254896 0.000002 -0.000002 0.000000 0.000000 0.680324
    25 5.434063 -0.010812 1.636232 0.223864 -0.243423 -0.571671
    26 4.854518 0.000000 0.000002 0.000000 0.000000 1.046512
    27 5.521277 0.000000 0.000000 0.000000 0.000000 1.360521
    28 -0.000004 0.001486 -3.418189 -0.000014 1.370796 -3.090069
    29 5.304816 0.000000 0.000000 1.143342 0.035181 -0.791774
    30 18.340565 0.000000 -0.000002 0.000000 0.000000 -1.699158
    31 14.370207 0.000000 0.000002 0.012385 0.123610 -0.517790
    32 -0.620573 0.325966 1.592587 -2.192485 -1.214136 1.142226
    33 3.927999 -0.000001 0.000000 0.000000 0.000000 -0.017380
    34 2.779240 0.000001 0.000000 0.000000 0.000000 0.662888
    35 5.246641 0.034821 2.517334 0.005548 -0.358005 -0.020747
    36 6.313238 0.000002 0.000002 0.000000 0.000000 0.610701
    37 3.098980 0.000000 0.000001 0.000000 0.000000 0.540805
    38 5.603580 -0.087754 0.344059 0.000345 0.009970 -0.507904
    39 4.532814 0.000000 -0.000002 0.000000 0.000000 0.697778
    40 6.615754 0.000002 0.000000 0.000000 0.000000 1.029133
    41 5.434061 -0.010812 -1.636234 -0.205265 0.237862 -0.690944
    42 4.623351 0.000001 -0.000002 0.000000 0.000000 0.662856
    43 5.521277 0.000000 0.000000 0.000000 0.000000 0.558301
    44 4.170006 3.279094 -1.198655 1.551865 -1.514302 1.554474
    45 3.754124 3.204277 1.399633 1.552051 -1.400638 1.554009
    46 0.050228 4.476613 -0.976787 1.570669 -1.476950 1.570357
    47 0.921745 4.255628 1.163094 1.570758 -1.526163 1.569866
    48 -0.000008 0.000008 4.504590 -3.143104 0.002856 2.780190
    49 18.184616 0.000000 0.000000 0.000000 0.000000 -0.718100
    50 16.862097 0.000000 0.000000 -0.000030 0.003012 0.381665
    51 0.000011 -0.000005 -4.504589 3.310439 0.033465 3.057941
    52 18.184610 0.000000 0.000000 0.000000 0.000000 -0.557911
    53 16.862089 0.000000 0.000000 -0.170460 0.022432 0.494514
  time 5
    0 0.578143 0.931164 36.742805 0.000000 0.034657 -1.570987
    1 4.113407 0.062502 0.000000 0.000000 -1.570451 -1.570795
    2 1.576611 -0.003992 0.000002 -0.000004 -0.000001 -0.426518
    3 5.015457 -0.003840 0.000000 0.086936 0.005932 -0.069319
    4 4.822693 -0.003838 0.000000 0.104410 0.007191 -0.069365
    5 4.822556 -0.004685 0.000000 0.000000 0.000000 0.000000
    6 5.883453 -0.001475 0.000000 0.000000 0.000000 -0.052333
    7 1.854832 0.000000 0.000000 -0.190886 -0.017596 0.062379
    8 4.577744 2.974503 -4.899295 2.588605 -1.256396 5.941200
    9 -0.576364 -6.294613 1.187798 -0.443815 0.000000 0.000000
    10 4.598343 3.014902 4.786890 0.000000 -1.570796 1.841830
    11 0.671572 -6.281569 1.205063 1.099537 0.000000 0.000000
    12 0.988842 0.018080 3.418189 -0.000014 -1.370796 -3.090042
    13 5.304816 0.000000 0.000000 -1.301225 -0.392465 -1.704300
    14 18.707375 0.000000 -0.000002 0.000000 0.000000 -1.616233
    15 13.951651 0.000000 -0.000004 0.100505 -0.102687 -0.958828
    16 -0.620571 0.325967 -1.592585 1.860746 0.900460 0.815947
    17 3.570904 0.000002 -0.000001 0.000000 0.000000 0.261592
    18 2.779234 -0.000001 0.000000 0.000000 0.000000 0.662870
    19 5.246642 0.034821 -2.517332 -0.190689 0.169817 -0.410057
    20 6.439503 -0.000001 0.000000 0.000000 0.000000 0.139691
    21 3.098978 0.000000 0.000000 0.000000 0.000000 0.750049
    22 5.603584 -0.087752 -0.344059 0.028202 -0.054653 -0.619659
    23 4.928793 0.000000 -0.000004 0.000000 0.000000 1.116323
    24 6.254896 0.000002 -0.000002 0.000000 0.000000 0.680324
    25 5.434063 -0.010812 1.636232 0.261866 -0.201728 -0.743386
    26 4.854518 0.000000 0.000002 0.000000 0.000000 1.046512
    27 5.521277 0.000000 0.000000 0.000000 0.000000 1.360521
    28 -0.000004 0.001486 -3.418189 -0.000014 1.370796 -3.090069
    29 5.304816 0.000000 0.000000 1.252486 0.596640 -1.024442
    30 18.340565 0.000000 -0.000002 0.000000 0.000000 -1.821920
    31 14.370207 0.000000 0.000002 -0.027138 0.121653 -0.838444
    32 -0.620573 0.325966 1.592587 -2.192485 -1.214136 1.142226
    33 3.927999 -0.000001 0.000000 0.000000 0.000000 -0.017380
    34 2.779240 0.000001 0.000000 0.000000 0.000000 0.662888
    35 5.246641 0.034821 2.517334 0.155301 -0.324136 -0.462406
    36 6.313238 0.000002 0.000002 0.000000 0.000000 0.610701
    37 3.098980 0.000000 0.000001 0.000000 0.000000 0.540805
    38 5.603580 -0.087754 0.344059 0.000369 0.009970 -0.505540
    39 4.532814 0.000000 -0.000002 0.000000 0.000000 0.697778
    40 6.615754 0.000002 0.000000 0.000000 0.000000 1.029133
    41 5.434061 -0.010812 -1.636234 -0.202281 0.240331 -0.678655
    42 4.623351 0.000001 -0.000002 0.000000 0.000000 0.662856
    43 5.521277 0.000000 0.000000 0.000000 0.000000 0.558301
    44 4.170006 3.279094 -1.198655 -1.585207 -1.568297 4.691588
    45 3.754124 3.204277 1.399633 1.552051 -1.328690 1.554009
    46 0.050228 4.476613 -0.976787 1.570669 -1.538482 1.570357
    47 0.921745 4.255628 1.163094 1.570758 -1.429817 1.569866
    48 -0.000008 0.000008 4.504590 -3.142438 0.002371 2.773918
    49 18.184616 0.000000 0.000000 0.000000 0.000000 -0.717857
    50 16.862097 0.000000 0.000000 -0.000030 0.002576 0.385327
    51 0.000011 -0.000005 -4.504589 3.311012 0.032698 3.053768
    52 18.184610 0.000000 0.000000 0.000000 0.000000 -0.552559
    53 16.862089 0.000000 0.000000 -0.170609 0.022720 0.495347
  time 6
    0 0.578143 0.919445 36.668584 0.000000 0.036862 -1.570987
    1 2.273507 -0.050783 0.000000 0.000000 -1.570451 -1.570795
    2 1.576611 -0.003992 0.000002 -0.000004 -0.000001 -0.306200
    3 5.015457 -0.003840 0.000000 0.087056 -0.003488 0.039777
    4 4.822693 -0.003838 0.000000 0.104518 -0.005285 0.050565
    5 4.822556 -0.004685 0.000000 0.000000 0.000000 0.039345
    6 5.883453 -0.001475 0.000000 0.000000 0.000000 -0.052333
    7 1.854832 0.000000 0.000000 -0.190526 0.021973 0.056726
    8 4.577744 2.974503 -4.899295 2.844878 -1.246185 5.945510
    9 -0.576364 -6.294613 1.187798 0.050325 0.000000 0.000000
    10 4.598343 3.014902 4.786890 1.939495 -1.563676 0.302908
    11 0.671572 -6.281569 1.205063 0.874996 0.000000 0.000000
    12 0.988842 0.018080 3.418189 -0.000014 -1.370796 -3.090042
    13 5.304816 0.000000 0.000000 -1.216239 -0.322016 -1.823289
    14 18.707375 0.000000 -0.000002 0.000000 0.000000 -1.185573
    15 13.951651 0.000000 -0.000004 0.055476 -0.132231 -0.579907
    16 -0.620571 0.325967 -1.592585 1.860746 0.900460 0.815947
    17 3.570904 0.000002 -0.000001 0.000000 0.000000 0.261592
    18 2.779234 -0.000001 0.000000 0.000000 0.000000 0.662870
    19 5.246642 0.034821 -2.517332 -0.208877 0.146674 -0.525467
    20 6.439503 -0.000001 0.000000 0.000000 0.000000 0.139691
    21 3.098978 0.000000 0.000000 0.000000 0.000000 0.750012
    22 5.603584 -0.087752 -0.344059 0.037638 -0.048594 -0.802254
    23 4.928793 0.000000 -0.000004 0.000000 0.000000 1.116323
    24 6.254896 0.000002 -0.000002 0.000000 0.000000 0.680324
    25 5.434063 -0.010812 1.636232 0.279146 -0.176441 -0.836023
    26 4.854518 0.000000 0.000002 0.000000 0.000000 1.046512
    27 5.521277 0.000000 0.000000 0.000000 0.000000 1.360563
    28 -0.000004 0.001486 -3.418189 -0.000014 1.370796 -3.090069
    29 5.304816 0.000000 0.000000 1.385303 0.357591 -1.171080
    30 18.340565 0.000000 -0.000002 0.000000 0.000000 -1.431622
    31 14.370207 0.000000 0.000002 0.016787 0.123251 -0.483622
    32 -0.620573 0.325966 1.592587 -2.192485 -1.214136 1.142226
    33 3.927999 -0.000001 0.000000 0.000000 0.000000 -0.017380
    34 2.779240 0.000001 0.000000 0.000000 0.000000 0.662888
    35 5.246641 0.034821 2.517334 0.168572 -0.317652 -0.504515
    36 6.313238 0.000002 0.000002 0.000000 0.000000 0.610701
    37 3.098980 0.000000 0.000001 0.000000 0.000000 0.540805
    38 5.603580 -0.087754 0.344059 0.000536 0.009958 -0.477060
    39 4.532814 0.000000 -0.000002 0.000000 0.000000 0.697778
    40 6.615754 0.000002 0.000000 0.000000 0.000000 1.029133
    41 5.434061 -0.010812 -1.636234 -0.164614 0.267320 -0.528479
    42 4.623351 0.000001 -0.000002 0.000000 0.000000 0.662856
    43 5.521277 0.000000 0.000000 0.000000 0.000000 0.558301
    44 4.170006 3.279094 -1.198655 -1.589037 -1.510898 4.695807
    45 3.754124 3.204277 1.399633 1.552051 -1.258915 1.554009
    46 0.050228 4.476613 -0.976787 -1.570763 -1.543585 4.711723
    47 0.921745 4.255628 1.163094 1.570758 -1.336404 1.569866
    48 -0.000008 0.000008 4.504590 -3.141794 -0.001284 2.717994
    49 18.184616 0.000000 0.000000 0.000000 0.000000 -0.713232
    50 16.862097 0.000000 0.000000 0.000625 -0.001086 0.327046
    51 0.000011 -0.000005 -4.504589 3.310343 0.034232 2.967140
    52 18.184610 0.000000 0.000000 0.000000 0.000000 -0.618061
    53 16.862089 0.000000 0.000000 -0.171701 0.009741 0.477024
  time 7
    0 0.578143 0.896007 36.559205 0.000000 0.033603 -1.570987
    1 -0.992218 -0.218757 0.000000 0.000000 -1.570451 -1.570795
    2 1.576611 -0.003992 0.000002 -0.000004 -0.000001 -0.084652
    3 5.015457 -0.003840 0.000000 0.085378 -0.017426 0.200814
    4 4.822693 -0.003838 0.000000 0.101749 -0.024113 0.230813
    5 4.822556 -0.004685 0.000000 0.000000 0.000000 0.094307
    6 5.883453 -0.001475 0.000000 0.000000 0.000000 -0.052333
    7 1.854832 0.000000 0.000000 -0.158935 0.106135 0.217076
    8 4.577744 2.974503 -4.899295 -3.014704 -1.274856 -0.324446
    9 -0.576364 -6.294613 1.187798 0.805502 0.000000 0.000000
    10 4.598343 3.014902 4.786890 2.276056 -1.557989 0.639572
    11 0.671572 -6.281569 1.205063 0.424908 0.000000 0.000000
    12 0.988842 0.018080 3.418189 -0.000014 -1.370796 -3.090042
    13 5.304816 0.000000 0.000000 -1.076293 0.299502 -1.648311
    14 18.707375 0.000000 -0.000002 0.000000 0.000000 -0.425386
    15 13.951651 0.000000 -0.000004 -0.042787 -0.136165 0.123752
    16 -0.620571 0.325967 -1.592585 1.860746 0.900460 0.815947
    17 3.570904 0.000002 -0.000001 0.000000 0.000000 0.261592
    18 2.779234 -0.000001 0.000000 0.000000 0.000000 0.662870
    19 5.246642 0.034821 -2.517332 -0.218782 0.131262 -0.597080
    20 6.439503 -0.000001 0.000000 0.000000 0.000000 0.139691
    21 3.098978 0.000000 0.000000 0.000000 0.000000 0.750049
    22 5.603584 -0.087752 -0.344059 0.032808 -0.051952 -0.706620
    23 4.928793 0.000000 -0.000004 0.000000 0.000000 1.116323
    24 6.254896 0.000002 -0.000002 0.000000 0.000000 0.680324
    25 5.434063 -0.010812 1.636232 0.262519 -0.200697 -0.747147
    26 4.854518 0.000000 0.000002 0.000000 0.000000 1.046512
    27 5.521277 0.000000 0.000000 0.000000 0.000000 1.360521
    28 -0.000004 0.001486 -3.418189 -0.000014 1.370796 -3.090069
    29 5.304816 0.000000 0.000000 1.466709 -0.430157 -1.457241
    30 18.340565 0.000000 -0.000002 0.000000 0.000000 -0.701014
    31 14.370207 0.000000 0.000002 0.099853 0.073234 0.323269
    32 -0.620573 0.325966 1.592587 -2.192485 -1.214136 1.142226
    33 3.927999 -0.000001 0.000000 0.000000 0.000000 -0.017380
    34 2.779240 0.000001 0.000000 0.000000 0.000000 0.662888
    35 5.246641 0.034821 2.517334 0.057049 -0.353702 -0.168784
    36 6.313238 0.000002 0.000002 0.000000 0.000000 0.610701
    37 3.098980 0.000000 0.000001 0.000000 0.000000 0.540805
    38 5.603580 -0.087754 0.344059 0.002022 0.009658 -0.327270
    39 4.532814 0.000000 -0.000002 0.000000 0.000000 0.697778
    40 6.615754 0.000002 0.000000 0.000000 0.000000 1.029133
    41 5.434061 -0.010812 -1.636234 -0.068054 0.305587 -0.189798
    42 4.623351 0.000001 -0.000002 0.000000 0.000000 0.662856
    43 5.521277 0.000000 0.000000 0.000000 0.000000 0.558272
    44 4.170006 3.279094 -1.198655 -1.589130 -1.457935 4.695901
    45 3.754124 3.204277 1.399633 1.552051 -1.194545 1.554091
    46 0.050228 4.476613 -0.976787 -1.570669 -1.488575 4.711723
    47 0.921745 4.255628 1.163094 1.570758 -1.250240 1.569866
    48 -0.000008 0.000008 4.504590 -3.140460 -0.006341 2.647377
    49 18.184616 0.000000 0.000000 0.000000 0.000000 -0.662119
    50 16.862097 0.000000 0.000000 0.001957 -0.006070 0.202398
    51 0.000011 -0.000005 -4.504589 3.310248 0.033765 2.844061
    52 18.184610 0.000000 0.000000 0.000000 0.000000 -0.679493
    53 16.862089 0.000000 0.000000 -0.171105 -0.012059 0.414213
  time 8
    0 0.578143 0.864756 36.520142 0.000000 0.029816 -1.570987
    1 -2.746178 -0.304697 0.000000 0.000000 -1.570451 -1.570795
    2 1.576611 -0.003992 0.000002 -0.000004 -0.000001 0.048754
    3 5.015457 -0.003840 0.000000 0.083605 -0.024652 0.285653
    4 4.822693 -0.003838 0.000000 0.099053 -0.033821 0.327373
    5 4.822556 -0.004685 0.000000 0.000000 0.000000 0.122039
    6 5.883453 -0.001475 0.000000 0.000000 0.000000 -0.052333
    7 1.854832 0.000000 0.000000 -0.147052 0.120543 0.151299
    8 4.577744 2.974503 -4.899295 -2.719233 -1.305132 5.922717
    9 -0.576364 -6.294613 1.187798 1.273973 0.000000 0.000000
    10 4.598343 3.014902 4.786890 0.000000 -1.570796 3.255466
    11 0.671572 -6.281569 1.205063 0.148001 0.000000 0.000000
    12 0.988842 0.018080 3.418189 -0.000014 -1.370796 -3.090042
    13 5.304816 0.000000 0.000000 -0.624624 0.538313 -1.516354
    14 18.707375 0.000000 -0.000002 0.000000 0.000000 -0.195579
    15 13.951651 0.000000 -0.000004 -0.104989 -0.096116 0.648973
    16 -0.620571 0.325967 -1.592585 1.860746 0.900460 0.815947
    17 3.570904 0.000002 -0.000001 0.000000 0.000000 0.261592
    18 2.779234 -0.000001 0.000000 0.000000 0.000000 0.662870
    19 5.246642 0.034821 -2.517332 -0.053546 0.249119 0.227431
    20 6.439503 -0.000001 0.000000 0.000000 0.000000 0.139691
    21 3.098978 0.000000 0.000000 0.000000 0.000000 0.750049
    22 5.603584 -0.087752 -0.344059 -0.031126 -0.053024 0.390695
    23 4.928793 0.000000 -0.000004 0.000000 0.000000 1.116323
    24 6.254896 0.000002 -0.000002 0.000000 0.000000 0.680324
    25 5.434063 -0.010812 1.636232 -0.041879 -0.326524 0.315258
    26 4.854518 0.000000 0.000002 0.000000 0.000000 1.046512
    27 5.521277 0.000000 0.000000 0.000000 0.000000 1.360521
    28 -0.000004 0.001486 -3.418189 -0.000014 1.370796 -3.090069
    29 5.304816 0.000000 0.000000 1.329277 -0.669938 -1.423711
    30 18.340565 0.000000 -0.000002 0.000000 0.000000 -0.463065
    31 14.370207 0.000000 0.000002 0.117557 0.038038 0.639604
    32 -0.620573 0.325966 1.592587 -2.192485 -1.214136 1.142226
    33 3.927999 -0.000001 0.000000 0.000000 0.000000 -0.017380
    34 2.779240 0.000001 0.000000 0.000000 0.000000 0.662888
    35 5.246641 0.034821 2.517334 -0.255942 -0.253403 0.801714
    36 6.313238 0.000002 0.000002 0.000000 0.000000 0.610747
    37 3.098980 0.000000 0.000001 0.000000 0.000000 0.540805
    38 5.603580 -0.087754 0.344059 0.008482 0.005092 0.505956
    39 4.532814 0.000000 -0.000002 0.000000 0.000000 0.697778
    40 6.615754 0.000002 0.000000 0.000000 0.000000 1.029133
    41 5.434061 -0.010812 -1.636234 0.177163 0.259339 0.642164
    42 4.623351 0.000001 -0.000002 0.000000 0.000000 0.662856
    43 5.521277 0.000000 0.000000 0.000000 0.000000 0.558301
    44 4.170006 3.279094 -1.198655 -1.589130 -1.412106 4.695901
    45 3.754124 3.204277 1.399633 1.552051 -1.138831 1.554091
    46 0.050228 4.476613 -0.976787 -1.570669 -1.440917 4.711723
    47 0.921745 4.255628 1.163094 1.570758 -1.175622 1.569866
    48 -0.000008 0.000008 4.504590 -3.139793 -0.008542 2.625832
    49 18.184616 0.000000 0.000000 0.000000 0.000000 -0.609727
    50 16.862097 0.000000 0.000000 0.002500 -0.008381 0.124183
    51 0.000011 -0.000005 -4.504589 3.311203 0.032135 2.791370
    52 18.184610 0.000000 0.000000 0.000000 0.000000 -0.688636
    53 16.862089 0.000000 0.000000 -0.170807 -0.023529 0.368024
  time 9
    0 0.578143 0.821786 36.520142 0.000000 0.026892 -1.570987
    1 -2.918058 -0.304697 0.000000 0.000000 -1.570451 -1.570795
    2 1.576611 -0.003992 0.000002 -0.000004 -0.000001 0.071049
    3 5.015457 -0.003840 0.000000 0.083605 -0.024688 0.286252
    4 4.822693 -0.003838 0.000000 0.098981 -0.033964 0.329554
    5 4.822556 -0.004685 0.000000 0.000000 0.000000 0.120685
    6 5.883453 -0.001475 0.000000 0.000000 0.000000 -0.052333
    7 1.854832 0.000000 0.000000 -0.153861 0.111589 0.090812
    8 4.577744 2.974503 -4.899295 -2.626845 -1.321987 5.864681
    9 -0.576364 -6.294613 1.187798 1.365928 0.000000 0.000000
    10 4.598343 3.014902 4.786890 -0.741326 -1.538714 3.906674
    11 0.671572 -6.281569 1.205063 0.119082 0.000000 0.000000
    12 0.988842 0.018080 3.418189 -0.000014 -1.370796 -3.090042
    13 5.304816 0.000000 0.000000 -0.585110 0.613392 -1.425404
    14 18.707375 0.000000 -0.000002 0.000000 0.000000 -0.287514
    15 13.951651 0.000000 -0.000004 -0.094972 -0.106244 0.548357
    16 -0.620571 0.325967 -1.592585 1.860746 0.900460 0.815947
    17 3.570904 0.000002 -0.000001 0.000000 0.000000 0.261592
    18 2.779234 -0.000001 0.000000 0.000000 0.000000 0.662870
    19 5.246642 0.034821 -2.517332 -0.055410 0.248699 0.220249
    20 6.439503 -0.000001 0.000000 0.000000 0.000000 0.139691
    21 3.098978 0.000000 0.000000 0.000000 0.000000 0.750086
    22 5.603584 -0.087752 -0.344059 -0.037026 -0.049123 0.505419
    23 4.928793 0.000000 -0.000004 0.000000 0.000000 1.116323
    24 6.254896 0.000002 -0.000002 0.000000 0.000000 0.680286
    25 5.434063 -0.010812 1.636232 -0.051308 -0.325134 0.345098
    26 4.854518 0.000000 0.000002 0.000000 0.000000 1.046512
    27 5.521277 0.000000 0.000000 0.000000 0.000000 1.360521
    28 -0.000004 0.001486 -3.418189 -0.000014 1.370796 -3.090069
    29 5.304816 0.000000 0.000000 1.246667 -0.695041 -1.367791
    30 18.340565 0.000000 -0.000002 0.000000 0.000000 -0.528383
    31 14.370207 0.000000 0.000002 0.117844 0.037759 0.641576
    32 -0.620573 0.325966 1.592587 -2.192485 -1.214136 1.142226
    33 3.927999 -0.000001 0.000000 0.000000 0.000000 -0.017380
    34 2.779240 0.000001 0.000000 0.000000 0.000000 0.662888
    35 5.246641 0.034821 2.517334 -0.279015 -0.227444 0.898354
    36 6.313238 0.000002 0.000002 0.000000 0.000000 0.610701
    37 3.098980 0.000000 0.000001 0.000000 0.000000 0.540805
    38 5.603580 -0.087754 0.344059 0.008230 0.005596 0.458339
    39 4.532814 0.000000 -0.000002 0.000000 0.000000 0.697778
    40 6.615754 0.000002 0.000000 0.000000 0.000000 1.029133
    41 5.434061 -0.010812 -1.636234 0.156022 0.272402 0.561770
    42 4.623351 0.000001 -0.000002 0.000000 0.000000 0.662856
    43 5.521277 0.000000 0.000000 0.000000 0.000000 0.558301
    44 4.170006 3.279094 -1.198655 -1.589130 -1.376055 4.696089
    45 3.754124 3.204277 1.399633 1.552051 -1.095024 1.554091
    46 0.050228 4.476613 -0.976787 -1.570669 -1.403465 4.711723
    47 0.921745 4.255628 1.163094 1.570758 -1.116884 1.569866
    48 -0.000008 0.000008 4.504590 -3.139793 -0.008542 2.627168
    49 18.184616 0.000000 0.000000 0.000000 0.000000 -0.604555
    50 16.862097 0.000000 0.000000 0.002341 -0.008410 0.117446
    51 0.000011 -0.000005 -4.504589 3.311873 0.032327 2.790264
    52 18.184610 0.000000 0.000000 0.000000 0.000000 -0.688692
    53 16.862089 0.000000 0.000000 -0.171403 -0.024260 0.363964
  time 10
    0 0.578143 0.778816 36.520142 0.000000 0.024064 -1.570987
    1 -2.992279 -0.304697 0.000000 0.000000 -1.570451 -1.570795
    2 1.576611 -0.003992 0.000002 -0.000004 -0.000001 0.084980
    3 5.015457 -0.003840 0.000000 0.083712 -0.024053 0.279421
    4 4.822693 -0.003838 0.000000 0.099161 -0.033497 0.323873
    5 4.822556 -0.004685 0.000000 0.000000 0.000000 0.116742
    6 5.883453 -0.001475 0.000000 0.000000 0.000000 -0.052333
    7 1.854832 0.000000 0.000000 -0.161587 0.100270 0.031774
    8 4.577744 2.974503 -4.899295 -2.545861 -1.337593 5.778873
    9 -0.576364 -6.294613 1.187798 1.373016 0.000000 0.000000
    10 4.598343 3.014902 4.786890 -0.838747 -1.495692 3.809170
    11 0.671572 -6.281569 1.205063 0.137951 0.000000 0.000000
    12 0.988842 0.018080 3.418189 -0.000014 -1.370796 -3.090042
    13 5.304816 0.000000 0.000000 -0.619450 0.651747 -1.369502
    14 18.707375 0.000000 -0.000002 0.000000 0.000000 -0.364234
    15 13.951651 0.000000 -0.000004 -0.084001 -0.115324 0.449516
    16 -0.620571 0.325967 -1.592585 1.860746 0.900460 0.815947
    17 3.570904 0.000002 -0.000001 0.000000 0.000000 0.261592
    18 2.779234 -0.000001 0.000000 0.000000 0.000000 0.662870
    19 5.246642 0.034821 -2.517332 -0.067681 0.245667 0.169877
    20 6.439503 -0.000001 0.000000 0.000000 0.000000 0.139691
    21 3.098978 0.000000 0.000000 0.000000 0.000000 0.750086
    22 5.603584 -0.087752 -0.344059 -0.038042 -0.048294 0.527354
    23 4.928793 0.000000 -0.000004 0.000000 0.000000 1.116323
    24 6.254896 0.000002 -0.000002 0.000000 0.000000 0.680324
    25 5.434063 -0.010812 1.636232 -0.039331 -0.326787 0.307687
    26 4.854518 0.000000 0.000002 0.000000 0.000000 1.046512
    27 5.521277 0.000000 0.000000 0.000000 0.000000 1.360521
    28 -0.000004 0.001486 -3.418189 -0.000014 1.370796 -3.090069
    29 5.304816 0.000000 0.000000 1.258705 -0.694152 -1.332497
    30 18.340565 0.000000 -0.000002 0.000000 0.000000 -0.587378
    31 14.370207 0.000000 0.000002 0.117270 0.039836 0.625900
    32 -0.620573 0.325966 1.592587 -2.192485 -1.214136 1.142226
    33 3.927999 -0.000001 0.000000 0.000000 0.000000 -0.017380
    34 2.779240 0.000001 0.000000 0.000000 0.000000 0.662888
    35 5.246641 0.034821 2.517334 -0.283249 -0.222279 0.917442
    36 6.313238 0.000002 0.000002 0.000000 0.000000 0.610701
    37 3.098980 0.000000 0.000001 0.000000 0.000000 0.540805
    38 5.603580 -0.087754 0.344059 0.007883 0.006231 0.380142
    39 4.532814 0.000000 -0.000002 0.000000 0.000000 0.697778
    40 6.615754 0.000002 0.000000 0.000000 0.000000 1.029133
    41 5.434061 -0.010812 -1.636234 0.128110 0.286304 0.460621
    42 4.623351 0.000001 -0.000002 0.000000 0.000000 0.662856
    43 5.521277 0.000000 0.000000 0.000000 0.000000 0.558301
    44 4.170006 3.279094 -1.198655 -1.589037 -1.352425 4.696089
    45 3.754124 3.204277 1.399633 1.552051 -1.066354 1.554091
    46 0.050228 4.476613 -0.976787 -1.570763 -1.378901 4.711723
    47 0.921745 4.255628 1.163094 1.570758 -1.078566 1.569866
    48 -0.000008 0.000008 4.504590 -3.139633 -0.008437 2.629549
    49 18.184616 0.000000 0.000000 0.000000 0.000000 -0.604007
    50 16.862097 0.000000 0.000000 0.002161 -0.008294 0.116755
    51 0.000011 -0.000005 -4.504589 3.312542 0.032698 2.792828
    52 18.184610 0.000000 0.000000 0.000000 0.000000 -0.688803
    53 16.862089 0.000000 0.000000 -0.172147 -0.024164 0.363478
  time 11
    0 0.578143 0.716314 36.524048 0.000000 0.021283 -1.570987
    1 -2.961028 -0.292978 0.000000 0.000000 -1.570451 -1.570795
    2 1.576611 -0.003992 0.000002 -0.000004 -0.000001 0.091632
    3 5.015457 -0.003840 0.000000 0.084036 -0.023034 0.266537
    4 4.822693 -0.003838 0.000000 0.099580 -0.032251 0.311350
    5 4.822556 -0.004685 0.000000 0.000000 0.000000 0.110570
    6 5.883453 -0.001475 0.000000 0.000000 0.000000 -0.052333
    7 1.854832 0.000000 0.000000 -0.167349 0.090632 -0.002284
    8 4.577744 2.974503 -4.899295 -2.485003 -1.352353 5.679561
    9 -0.576364 -6.294613 1.187798 1.319593 0.000000 0.000000
    10 4.598343 3.014902 4.786890 -0.970886 -1.449414 3.677159
    11 0.671572 -6.281569 1.205063 0.190486 0.000000 0.000000
    12 0.988842 0.018080 3.418189 -0.000014 -1.370796 -3.090042
    13 5.304816 0.000000 0.000000 -0.644068 0.711042 -1.302736
    14 18.707375 0.000000 -0.000002 0.000000 0.000000 -0.440777
    15 13.951651 0.000000 -0.000004 -0.072266 -0.122983 0.350488
    16 -0.620571 0.325967 -1.592585 1.860746 0.900460 0.815947
    17 3.570904 0.000002 -0.000001 0.000000 0.000000 0.261592
    18 2.779234 -0.000001 0.000000 0.000000 0.000000 0.662870
    19 5.246642 0.034821 -2.517332 -0.080083 0.242036 0.118544
    20 6.439503 -0.000001 0.000000 0.000000 0.000000 0.139691
    21 3.098978 0.000000 0.000000 0.000000 0.000000 0.750049
    22 5.603584 -0.087752 -0.344059 -0.039002 -0.047551 0.546720
    23 4.928793 0.000000 -0.000004 0.000000 0.000000 1.116323
    24 6.254896 0.000002 -0.000002 0.000000 0.000000 0.680324
    25 5.434063 -0.010812 1.636232 -0.026876 -0.328046 0.268692
    26 4.854518 0.000000 0.000002 0.000000 0.000000 1.046512
    27 5.521277 0.000000 0.000000 0.000000 0.000000 1.360563
    28 -0.000004 0.001486 -3.418189 -0.000014 1.370796 -3.090069
    29 5.304816 0.000000 0.000000 1.267332 -0.714286 -1.290695
    30 18.340565 0.000000 -0.000002 0.000000 0.000000 -0.645836
    31 14.370207 0.000000 0.000002 0.116600 0.041674 0.609660
    32 -0.620573 0.325966 1.592587 -2.192485 -1.214136 1.142226
    33 3.927999 -0.000001 0.000000 0.000000 0.000000 -0.017380
    34 2.779240 0.000001 0.000000 0.000000 0.000000 0.662888
    35 5.246641 0.034821 2.517334 -0.286896 -0.217389 0.933796
    36 6.313238 0.000002 0.000002 0.000000 0.000000 0.610701
    37 3.098980 0.000000 0.000001 0.000000 0.000000 0.540805
    38 5.603580 -0.087754 0.344059 0.007368 0.006734 0.301195
    39 4.532814 0.000000 -0.000002 0.000000 0.000000 0.697778
    40 6.615754 0.000002 0.000000 0.000000 0.000000 1.029133
    41 5.434061 -0.010812 -1.636234 0.098640 0.297510 0.358226
    42 4.623351 0.000001 -0.000002 0.000000 0.000000 0.662856
    43 5.521277 0.000000 0.000000 0.000000 0.000000 0.558272
    44 4.170006 3.279094 -1.198655 -1.589130 -1.344024 4.696089
    45 3.754124 3.204277 1.399633 1.552051 -1.056073 1.554091
    46 0.050228 4.476613 -0.976787 -1.570763 -1.370217 4.711723
    47 0.921745 4.255628 1.163094 1.570758 -1.064778 1.569866
    48 -0.000008 0.000008 4.504590 -3.139541 -0.007966 2.633382
    49 18.184616 0.000000 0.000000 0.000000 0.000000 -0.607476
    50 16.862097 0.000000 0.000000 0.001890 -0.007945 0.121281
    51 0.000011 -0.000005 -4.504589 3.313306 0.033273 2.798158
    52 18.184610 0.000000 0.000000 0.000000 0.000000 -0.688803
    53 16.862089 0.000000 0.000000 -0.172867 -0.023325 0.366289
  time 12
    0 0.582049 0.642093 36.535767 0.000000 0.018455 -1.570987
    1 -2.839930 -0.273446 0.000000 0.000000 -1.570451 -1.570795
    2 1.576611 -0.003992 0.000002 -0.000004 -0.000001 0.092259
    3 5.015457 -0.003840 0.000000 0.084455 -0.021428 0.248165
    4 4.822693 -0.003838 0.000000 0.100047 -0.030405 0.292893
    5 4.822556 -0.004685 0.000000 0.000000 0.000000 0.102468
    6 5.883453 -0.001475 0.000000 0.000000 0.000000 -0.052333
    7 1.854832 0.000000 0.000000 -0.171310 0.083379 -0.010695
    8 4.577744 2.974503 -4.899295 -2.454527 -1.368048 5.581877
    9 -0.576364 -6.294613 1.187798 1.229365 0.000000 0.000000
    10 4.598343 3.014902 4.786890 -1.121333 -1.406262 3.526301
    11 0.671572 -6.281569 1.205063 0.262616 0.000000 0.000000
    12 0.988842 0.018080 3.418189 -0.000014 -1.370796 -3.090042
    13 5.304816 0.000000 0.000000 -0.654103 0.786805 -1.221249
    14 18.707375 0.000000 -0.000002 0.000000 0.000000 -0.516849
    15 13.951651 0.000000 -0.000004 -0.059864 -0.129594 0.251273
    16 -0.620571 0.325967 -1.592585 1.860746 0.900460 0.815947
    17 3.570904 0.000002 -0.000001 0.000000 0.000000 0.261592
    18 2.779234 -0.000001 0.000000 0.000000 0.000000 0.662870
    19 5.246642 0.034821 -2.517332 -0.092387 0.237613 0.066554
    20 6.439503 -0.000001 0.000000 0.000000 0.000000 0.139691
    21 3.098978 0.000000 0.000000 0.000000 0.000000 0.750086
    22 5.603584 -0.087752 -0.344059 -0.039824 -0.046836 0.564433
    23 4.928793 0.000000 -0.000004 0.000000 0.000000 1.116323
    24 6.254896 0.000002 -0.000002 0.000000 0.000000 0.680324
    25 5.434063 -0.010812 1.636232 -0.013784 -0.328753 0.228312
    26 4.854518 0.000000 0.000002 0.000000 0.000000 1.046512
    27 5.521277 0.000000 0.000000 0.000000 0.000000 1.360521
    28 -0.000004 0.001486 -3.418189 -0.000014 1.370796 -3.090069
    29 5.304816 0.000000 0.000000 1.269539 -0.751678 -1.240566
    30 18.340565 0.000000 -0.000002 0.000000 0.000000 -0.704473
    31 14.370207 0.000000 0.000002 0.115930 0.043431 0.593233
    32 -0.620573 0.325966 1.592587 -2.192485 -1.214136 1.142226
    33 3.927999 -0.000001 0.000000 0.000000 0.000000 -0.017380
    34 2.779240 0.000001 0.000000 0.000000 0.000000 0.662888
    35 5.246641 0.034821 2.517334 -0.290009 -0.213123 0.948839
    36 6.313238 0.000002 0.000002 0.000000 0.000000 0.610747
    37 3.098980 0.000000 0.000001 0.000000 0.000000 0.540805
    38 5.603580 -0.087754 0.344059 0.006708 0.007285 0.221610
    39 4.532814 0.000000 -0.000002 0.000000 0.000000 0.697778
    40 6.615754 0.000002 0.000000 0.000000 0.000000 1.029133
    41 5.434061 -0.010812 -1.636234 0.067947 0.305659 0.255144
    42 4.623351 0.000001 -0.000002 0.000000 0.000000 0.662856
    43 5.521277 0.000000 0.000000 0.000000 0.000000 0.558301
    44 4.170006 3.279094 -1.198655 -1.589037 -1.352425 4.696089
    45 3.754124 3.204277 1.399633 1.552051 -1.066354 1.554091
    46 0.050228 4.476613 -0.976787 -1.570763 -1.378901 4.711723
    47 0.921745 4.255628 1.163094 1.570758 -1.078566 1.569866
    48 -0.000008 0.000008 4.504590 -3.139541 -0.007664 2.638492
    49 18.184616 0.000000 0.000000 0.000000 0.000000 -0.614230
    50 16.862097 0.000000 0.000000 0.001574 -0.007509 0.130401
    51 0.000011 -0.000005 -4.504589 3.313306 0.033945 2.806755
    52 18.184610 0.000000 0.000000 0.000000 0.000000 -0.688580
    53 16.862089 0.000000 0.000000 -0.173487 -0.021803 0.371737
  time 13
    0 0.582049 0.579591 36.543580 0.000000 0.015819 -1.570987
    1 -2.644612 -0.250008 0.000000 0.000000 -1.570451 -1.570795
    2 1.576611 -0.003992 0.000002 -0.000004 -0.000001 0.087872
    3 5.015457 -0.003840 0.000000 0.084887 -0.019619 0.225514
    4 4.822693 -0.003838 0.000000 0.100730 -0.028068 0.269691
    5 4.822556 -0.004685 0.000000 0.000000 0.000000 0.092905
    6 5.883453 -0.001475 0.000000 0.000000 0.000000 -0.052333
    7 1.854832 0.000000 0.000000 -0.173765 0.078648 0.004817
    8 4.577744 2.974503 -4.899295 -2.466794 -1.386776 5.504496
    9 -0.576364 -6.294613 1.187798 1.126690 0.000000 0.000000
    10 4.598343 3.014902 4.786890 -1.272728 -1.371662 3.374559
    11 0.671572 -6.281569 1.205063 0.340385 0.000000 0.000000
    12 0.988842 0.018080 3.418189 -0.000014 -1.370796 -3.090042
    13 5.304816 0.000000 0.000000 -0.640618 0.873301 -1.118032
    14 18.707375 0.000000 -0.000002 0.000000 0.000000 -0.592980
    15 13.951651 0.000000 -0.000004 -0.046603 -0.134993 0.151872
    16 -0.620571 0.325967 -1.592585 1.860746 0.900460 0.815947
    17 3.570904 0.000002 -0.000001 0.000000 0.000000 0.261592
    18 2.779234 -0.000001 0.000000 0.000000 0.000000 0.662870
    19 5.246642 0.034821 -2.517332 -0.104674 0.232580 0.013957
    20 6.439503 -0.000001 0.000000 0.000000 0.000000 0.139691
    21 3.098978 0.000000 0.000000 0.000000 0.000000 0.750086
    22 5.603584 -0.087752 -0.344059 -0.040561 -0.046193 0.580724
    23 4.928793 0.000000 -0.000004 0.000000 0.000000 1.116323
    24 6.254896 0.000002 -0.000002 0.000000 0.000000 0.680286
    25 5.434063 -0.010812 1.636232 -0.000389 -0.329088 0.186744
    26 4.854518 0.000000 0.000002 0.000000 0.000000 1.046512
    27 5.521277 0.000000 0.000000 0.000000 0.000000 1.360521
    28 -0.000004 0.001486 -3.418189 -0.000014 1.370796 -3.090069
    29 5.304816 0.000000 0.000000 1.261664 -0.802458 -1.179738
    30 18.340565 0.000000 -0.000002 0.000000 0.000000 -0.762932
    31 14.370207 0.000000 0.000002 0.115069 0.045509 0.576807
    32 -0.620573 0.325966 1.592587 -2.192485 -1.214136 1.142226
    33 3.927999 -0.000001 0.000000 0.000000 0.000000 -0.017380
    34 2.779240 0.000001 0.000000 0.000000 0.000000 0.662888
    35 5.246641 0.034821 2.517334 -0.292980 -0.209060 0.963027
    36 6.313238 0.000002 0.000002 0.000000 0.000000 0.610792
    37 3.098980 0.000000 0.000001 0.000000 0.000000 0.540805
    38 5.603580 -0.087754 0.344059 0.006097 0.007921 0.141537
    39 4.532814 0.000000 -0.000002 0.000000 0.000000 0.697778
    40 6.615754 0.000002 0.000000 0.000000 0.000000 1.029133
    41 5.434061 -0.010812 -1.636234 0.036344 0.310789 0.151031
    42 4.623351 0.000001 -0.000002 0.000000 0.000000 0.662856
    43 5.521277 0.000000 0.000000 0.000000 0.000000 0.558301
    44 4.170006 3.279094 -1.198655 -1.589130 -1.376055 4.696089
    45 3.754124 3.204277 1.399633 1.552051 -1.095024 1.554091
    46 0.050228 4.476613 -0.976787 -1.570669 -1.403465 4.711723
    47 0.921745 4.255628 1.163094 1.570758 -1.116884 1.569866
    48 -0.000008 0.000008 4.504590 -3.139541 -0.006904 2.644474
    49 18.184616 0.000000 0.000000 0.000000 0.000000 -0.623479
    50 16.862097 0.000000 0.000000 0.001235 -0.006928 0.142666
    51 0.000011 -0.000005 -4.504589 3.313593 0.034724 2.817715
    52 18.184610 0.000000 0.000000 0.000000 0.000000 -0.688078
    53 16.862089 0.000000 0.000000 -0.174157 -0.019705 0.379233
  time 14
    0 0.582049 0.497557 36.559205 0.000000 0.013134 -1.570987
    1 -2.378979 -0.218757 0.000000 0.000000 -1.570451 -1.570795
    2 1.576611 -0.003992 0.000002 -0.000004 -0.000001 0.079388
    3 5.015457 -0.003840 0.000000 0.085378 -0.017402 0.199615
    4 4.822693 -0.003838 0.000000 0.101497 -0.025276 0.242738
    5 4.822556 -0.004685 0.000000 0.000000 0.000000 0.082047
    6 5.883453 -0.001475 0.000000 0.000000 0.000000 -0.052333
    7 1.854832 0.000000 0.000000 -0.176122 0.073858 0.026873
    8 4.577744 2.974503 -4.899295 -2.542315 -1.410363 5.472222
    9 -0.576364 -6.294613 1.187798 1.035628 0.000000 0.000000
    10 4.598343 3.014902 4.786890 -1.408093 -1.348610 3.239717
    11 0.671572 -6.281569 1.205063 0.410226 0.000000 0.000000
    12 0.988842 0.018080 3.418189 -0.000014 -1.370796 -3.090042
    13 5.304816 0.000000 0.000000 -0.592872 0.964795 -0.981606
    14 18.707375 0.000000 -0.000002 0.000000 0.000000 -0.668639
    15 13.951651 0.000000 -0.000004 -0.032961 -0.138926 0.052564
    16 -0.620571 0.325967 -1.592585 1.860746 0.900460 0.815947
    17 3.570904 0.000002 -0.000001 0.000000 0.000000 0.261592
    18 2.779234 -0.000001 0.000000 0.000000 0.000000 0.662870
    19 5.246642 0.034821 -2.517332 -0.116784 0.226803 -0.039146
    20 6.439503 -0.000001 0.000000 0.000000 0.000000 0.139691
    21 3.098978 0.000000 0.000000 0.000000 0.000000 0.750086
    22 5.603584 -0.087752 -0.344059 -0.041271 -0.045550 0.595546
    23 4.928793 0.000000 -0.000004 0.000000 0.000000 1.116323
    24 6.254896 0.000002 -0.000002 0.000000 0.000000 0.680324
    25 5.434063 -0.010812 1.636232 0.013356 -0.328741 0.144236
    26 4.854518 0.000000 0.000002 0.000000 0.000000 1.046512
    27 5.521277 0.000000 0.000000 0.000000 0.000000 1.360521
    28 -0.000004 0.001486 -3.418189 -0.000014 1.370796 -3.090069
    29 5.304816 0.000000 0.000000 1.239745 -0.862338 -1.104847
    30 18.340565 0.000000 -0.000002 0.000000 0.000000 -0.821211
    31 14.370207 0.000000 0.000002 0.114399 0.047307 0.559723
    32 -0.620573 0.325966 1.592587 -2.192485 -1.214136 1.142226
    33 3.927999 -0.000001 0.000000 0.000000 0.000000 -0.017380
    34 2.779240 0.000001 0.000000 0.000000 0.000000 0.662888
    35 5.246641 0.034821 2.517334 -0.295506 -0.205213 0.975392
    36 6.313238 0.000002 0.000002 0.000000 0.000000 0.610701
    37 3.098980 0.000000 0.000001 0.000000 0.000000 0.540805
    38 5.603580 -0.087754 0.344059 0.005558 0.008304 0.060863
    39 4.532814 0.000000 -0.000002 0.000000 0.000000 0.697778
    40 6.615754 0.000002 0.000000 0.000000 0.000000 1.029133
    41 5.434061 -0.010812 -1.636234 0.004141 0.312838 0.046272
    42 4.623351 0.000001 -0.000002 0.000000 0.000000 0.662856
    43 5.521277 0.000000 0.000000 0.000000 0.000000 0.558301
    44 4.170006 3.279094 -1.198655 -1.589130 -1.412106 4.695901
    45 3.754124 3.204277 1.399633 1.552051 -1.138831 1.554091
    46 0.050228 4.476613 -0.976787 -1.570669 -1.440917 4.711723
    47 0.921745 4.255628 1.163094 1.570758 -1.175622 1.569866
    48 -0.000008 0.000008 4.504590 -3.139633 -0.006249 2.651849
    49 18.184616 0.000000 0.000000 0.000000 0.000000 -0.634310
    50 16.862097 0.000000 0.000000 0.000851 -0.006317 0.158350
    51 0.000011 -0.000005 -4.504589 3.314071 0.035491 2.830888
    52 18.184610 0.000000 0.000000 0.000000 0.000000 -0.686852
    53 16.862089 0.000000 0.000000 -0.174629 -0.017201 0.388429
  time 15
    0 0.582049 0.423336 36.570924 0.000000 0.010738 -1.570987
    1 -2.070376 -0.199225 0.000000 0.000000 -1.570451 -1.570795
    2 1.576611 -0.003992 0.000002 -0.000004 -0.000001 0.068229
    3 5.015457 -0.003840 0.000000 0.085930 -0.014945 0.171044
    4 4.822693 -0.003838 0.000000 0.102265 -0.022171 0.213016
    5 4.822556 -0.004685 0.000000 0.000000 0.000000 0.070338
    6 5.883453 -0.001475 0.000000 0.000000 0.000000 -0.052333
    7 1.854832 0.000000 0.000000 -0.177824 0.070261 0.060820
    8 4.577744 2.974503 -4.899295 -2.727859 -1.438811 5.537920
    9 -0.576364 -6.294613 1.187798 0.980181 0.000000 0.000000
    10 4.598343 3.014902 4.786890 -1.509023 -1.337063 3.138231
    11 0.671572 -6.281569 1.205063 0.457735 0.000000 0.000000
    12 0.988842 0.018080 3.418189 -0.000014 -1.370796 -3.090042
    13 5.304816 0.000000 0.000000 -0.494400 1.051712 -0.795939
    14 18.707375 0.000000 -0.000002 0.000000 0.000000 -0.744180
    15 13.951651 0.000000 -0.000004 -0.019223 -0.141647 -0.046838
    16 -0.620571 0.325967 -1.592585 1.860746 0.900460 0.815947
    17 3.570904 0.000002 -0.000001 0.000000 0.000000 0.261592
    18 2.779234 -0.000001 0.000000 0.000000 0.000000 0.662870
    19 5.246642 0.034821 -2.517332 -0.128601 0.220416 -0.092451
    20 6.439503 -0.000001 0.000000 0.000000 0.000000 0.139691
    21 3.098978 0.000000 0.000000 0.000000 0.000000 0.750086
    22 5.603584 -0.087752 -0.344059 -0.041869 -0.044964 0.609405
    23 4.928793 0.000000 -0.000004 0.000000 0.000000 1.116323
    24 6.254896 0.000002 -0.000002 0.000000 0.000000 0.680286
    25 5.434063 -0.010812 1.636232 0.027292 -0.327854 0.101134
    26 4.854518 0.000000 0.000002 0.000000 0.000000 1.046512
    27 5.521277 0.000000 0.000000 0.000000 0.000000 1.360521
    28 -0.000004 0.001486 -3.418189 -0.000014 1.370796 -3.090069
    29 5.304816 0.000000 0.000000 1.198666 -0.926873 -1.011372
    30 18.340565 0.000000 -0.000002 0.000000 0.000000 -0.879550
    31 14.370207 0.000000 0.000002 0.113442 0.049504 0.542639
    32 -0.620573 0.325966 1.592587 -2.192485 -1.214136 1.142226
    33 3.927999 -0.000001 0.000000 0.000000 0.000000 -0.017380
    34 2.779240 0.000001 0.000000 0.000000 0.000000 0.662888
    35 5.246641 0.034821 2.517334 -0.297961 -0.201726 0.987301
    36 6.313238 0.000002 0.000002 0.000000 0.000000 0.610747
    37 3.098980 0.000000 0.000001 0.000000 0.000000 0.540805
    38 5.603580 -0.087754 0.344059 0.004995 0.008700 -0.019773
    39 4.532814 0.000000 -0.000002 0.000000 0.000000 0.697778
    40 6.615754 0.000002 0.000000 0.000000 0.000000 1.029133
    41 5.434061 -0.010812 -1.636234 -0.028097 0.311615 -0.058657
    42 4.623351 0.000001 -0.000002 0.000000 0.000000 0.662856
    43 5.521277 0.000000 0.000000 0.000000 0.000000 0.558301
    44 4.170006 3.279094 -1.198655 -1.589130 -1.457935 4.695901
    45 3.754124 3.204277 1.399633 1.552051 -1.194545 1.554091
    46 0.050228 4.476613 -0.976787 -1.570669 -1.488575 4.711723
    47 0.921745 4.255628 1.163094 1.570758 -1.250240 1.569866
    48 -0.000008 0.000008 4.504590 -3.139793 -0.005581 2.660386
    49 18.184616 0.000000 0.000000 0.000000 0.000000 -0.645933
    50 16.862097 0.000000 0.000000 0.000625 -0.005460 0.175866
    51 0.000011 -0.000005 -4.504589 3.314071 0.036258 2.846424
    52 18.184610 0.000000 0.000000 0.000000 0.000000 -0.684734
    53 16.862089 0.000000 0.000000 -0.175100 -0.014241 0.398701
  time 16
    0 0.582049 0.349115 36.570924 0.000000 0.008437 -1.570987
    1 -1.722709 -0.167974 0.000000 0.000000 -1.570451 -1.570795
    2 1.576611 -0.003992 0.000002 -0.000004 -0.000001 0.055093
    3 5.015457 -0.003840 0.000000 0.086229 -0.012308 0.141047
    4 4.822693 -0.003838 0.000000 0.102924 -0.019044 0.181520
    5 4.822556 -0.004685 0.000000 0.000000 0.000000 0.057993
    6 5.883453 -0.001475 0.000000 0.000000 0.000000 -0.052333
    7 1.854832 0.000000 0.000000 -0.179199 0.067485 0.102759
    8 4.577744 2.974503 -4.899295 2.167873 -1.405369 0.248345
    9 -0.576364 -6.294613 1.187798 1.027350 0.000000 0.000000
    10 4.598343 3.014902 4.786890 -1.557875 -1.335326 3.089302
    11 0.671572 -6.281569 1.205063 0.469069 0.000000 0.000000
    12 0.988842 0.018080 3.418189 -0.000014 -1.370796 -3.090042
    13 5.304816 0.000000 0.000000 -0.326622 1.122582 -0.542891
    14 18.707375 0.000000 -0.000002 0.000000 0.000000 -0.819839
    15 13.951651 0.000000 -0.000004 -0.004913 -0.142776 -0.146426
    16 -0.620571 0.325967 -1.592585 1.860746 0.900460 0.815947
    17 3.570904 0.000002 -0.000001 0.000000 0.000000 0.261592
    18 2.779234 -0.000001 0.000000 0.000000 0.000000 0.662870
    19 5.246642 0.034821 -2.517332 -0.140046 0.213393 -0.146009
    20 6.439503 -0.000001 0.000000 0.000000 0.000000 0.139691
    21 3.098978 0.000000 0.000000 0.000000 0.000000 0.750049
    22 5.603584 -0.087752 -0.344059 -0.042510 -0.044464 0.622575
    23 4.928793 0.000000 -0.000004 0.000000 0.000000 1.116323
    24 6.254896 0.000002 -0.000002 0.000000 0.000000 0.680286
    25 5.434063 -0.010812 1.636232 0.041308 -0.326572 0.057488
    26 4.854518 0.000000 0.000002 0.000000 0.000000 1.046512
    27 5.521277 0.000000 0.000000 0.000000 0.000000 1.360563
    28 -0.000004 0.001486 -3.418189 -0.000014 1.370796 -3.090069
    29 5.304816 0.000000 0.000000 1.132408 -0.990675 -0.893963
    30 18.340565 0.000000 -0.000002 0.000000 0.000000 -0.937650
    31 14.370207 0.000000 0.000002 0.112772 0.051341 0.525555
    32 -0.620573 0.325966 1.592587 -2.192485 -1.214136 1.142226
    33 3.927999 -0.000001 0.000000 0.000000 0.000000 -0.017380
    34 2.779240 0.000001 0.000000 0.000000 0.000000 0.662888
    35 5.246641 0.034821 2.517334 -0.300167 -0.198226 0.998925
    36 6.313238 0.000002 0.000002 0.000000 0.000000 0.610701
    37 3.098980 0.000000 0.000001 0.000000 0.000000 0.540805
    38 5.603580 -0.087754 0.344059 0.004276 0.008963 -0.100822
    39 4.532814 0.000000 -0.000002 0.000000 0.000000 0.697778
    40 6.615754 0.000002 0.000000 0.000000 0.000000 1.029133
    41 5.434061 -0.010812 -1.636234 -0.060060 0.307229 -0.163716
    42 4.623351 0.000001 -0.000002 0.000000 0.000000 0.662856
    43 5.521277 0.000000 0.000000 0.000000 0.000000 0.558301
    44 4.170006 3.279094 -1.198655 -1.589037 -1.510898 4.695807
    45 3.754124 3.204277 1.399633 1.552051 -1.258915 1.554009
    46 0.050228 4.476613 -0.976787 -1.570763 -1.543585 4.711723
    47 0.921745 4.255628 1.163094 1.570758 -1.336404 1.569866
    48 -0.000008 0.000008 4.504590 -3.140092 -0.004337 2.669735
    49 18.184616 0.000000 0.000000 0.000000 0.000000 -0.657555
    50 16.862097 0.000000 0.000000 0.000354 -0.004559 0.194452
    51 0.000011 -0.000005 -4.504589 3.313497 0.036929 2.862865
    52 18.184610 0.000000 0.000000 0.000000 0.000000 -0.681500
    53 16.862089 0.000000 0.000000 -0.175323 -0.011125 0.409528
  time 17
    0 0.582049 0.270988 36.582644 0.000000 0.006232 -1.570987
    1 -1.363323 -0.132817 0.000000 0.000000 -1.570451 -1.570795
    2 1.576611 -0.003992 0.000002 -0.000004 -0.000001 0.041379
    3 5.015457 -0.003840 0.000000 0.086637 -0.009684 0.110306
    4 4.822693 -0.003838 0.000000 0.103475 -0.015724 0.149438
    5 4.822556 -0.004685 0.000000 0.000000 0.000000 0.045494
    6 5.883453 -0.001475 0.000000 0.000000 0.000000 -0.052333
    7 1.854832 0.000000 0.000000 -0.180116 0.065393 0.149683
    8 4.577744 2.974503 -4.899295 1.592457 -1.280920 0.488819
    9 -0.576364 -6.294613 1.187798 1.007696 0.000000 0.000000
    10 4.598343 3.014902 4.786890 -1.522872 -1.351649 3.124074
    11 0.671572 -6.281569 1.205063 0.427812 0.000000 0.000000
    12 0.988842 0.018080 3.418189 -0.000014 -1.370796 -3.090042
    13 5.304816 0.000000 0.000000 -0.089693 1.161937 -0.220447
    14 18.707375 0.000000 -0.000002 0.000000 0.000000 -0.895262
    15 13.951651 0.000000 -0.000004 0.009302 -0.142776 -0.246015
    16 -0.620571 0.325967 -1.592585 1.860746 0.900460 0.815947
    17 3.570904 0.000002 -0.000001 0.000000 0.000000 0.261592
    18 2.779234 -0.000001 0.000000 0.000000 0.000000 0.662870
    19 5.246642 0.034821 -2.517332 -0.151248 0.205651 -0.199466
    20 6.439503 -0.000001 0.000000 0.000000 0.000000 0.139691
    21 3.098978 0.000000 0.000000 0.000000 0.000000 0.750049
    22 5.603584 -0.087752 -0.344059 -0.043052 -0.043864 0.635516
    23 4.928793 0.000000 -0.000004 0.000000 0.000000 1.116323
    24 6.254896 0.000002 -0.000002 0.000000 0.000000 0.680324
    25 5.434063 -0.010812 1.636232 0.055260 -0.324438 0.013693
    26 4.854518 0.000000 0.000002 0.000000 0.000000 1.046512
    27 5.521277 0.000000 0.000000 0.000000 0.000000 1.360521
    28 -0.000004 0.001486 -3.418189 -0.000014 1.370796 -3.090069
    29 5.304816 0.000000 0.000000 1.035955 -1.048045 -0.747987
    30 18.340565 0.000000 -0.000002 0.000000 0.000000 -0.995929
    31 14.370207 0.000000 0.000002 0.111528 0.053419 0.508189
    32 -0.620573 0.325966 1.592587 -2.192485 -1.214136 1.142226
    33 3.927999 -0.000001 0.000000 0.000000 0.000000 -0.017380
    34 2.779240 0.000001 0.000000 0.000000 0.000000 0.662888
    35 5.246641 0.034821 2.517334 -0.302426 -0.194858 1.009979
    36 6.313238 0.000002 0.000002 0.000000 0.000000 0.610747
    37 3.098980 0.000000 0.000001 0.000000 0.000000 0.540805
    38 5.603580 -0.087754 0.344059 0.003521 0.009371 -0.181983
    39 4.532814 0.000000 -0.000002 0.000000 0.000000 0.697778
    40 6.615754 0.000002 0.000000 0.000000 0.000000 1.029133
    41 5.434061 -0.010812 -1.636234 -0.091400 0.299655 -0.268303
    42 4.623351 0.000001 -0.000002 0.000000 0.000000 0.662856
    43 5.521277 0.000000 0.000000 0.000000 0.000000 0.558301
    44 4.170006 3.279094 -1.198655 -1.585114 -1.568297 4.691588
    45 3.754124 3.204277 1.399633 1.552051 -1.328690 1.554009
    46 0.050228 4.476613 -0.976787 1.570669 -1.538482 1.570357
    47 0.921745 4.255628 1.163094 1.570758 -1.429817 1.569866
    48 -0.000008 0.000008 4.504590 -3.140092 -0.003380 2.680014
    49 18.184616 0.000000 0.000000 0.000000 0.000000 -0.668386
    50 16.862097 0.000000 0.000000 0.000196 -0.003600 0.213384
    51 0.000011 -0.000005 -4.504589 3.313306 0.037504 2.880713
    52 18.184610 0.000000 0.000000 0.000000 0.000000 -0.677096
    53 16.862089 0.000000 0.000000 -0.175398 -0.007793 0.420251
  time 18
    0 0.582049 0.200673 36.582644 0.000000 0.004027 -1.570987
    1 -1.000031 -0.101566 0.000000 0.000000 -1.570451 -1.570795
    2 1.576611 -0.003992 0.000002 -0.000004 -0.000001 0.027906
    3 5.015457 -0.003840 0.000000 0.086852 -0.007023 0.079889
    4 4.822693 -0.003838 0.000000 0.103811 -0.012296 0.117655
    5 4.822556 -0.004685 0.000000 0.000000 0.000000 0.033113
    6 5.883453 -0.001475 0.000000 0.000000 0.000000 -0.052333
    7 1.854832 0.000000 0.000000 -0.180803 0.063829 0.199281
    8 4.577744 2.974503 -4.899295 1.583161 -1.310795 0.579320
    9 -0.576364 -6.294613 1.187798 0.805502 0.000000 0.000000
    10 4.598343 3.014902 4.786890 -1.405816 -1.391762 3.241752
    11 0.671572 -6.281569 1.205063 0.340720 0.000000 0.000000
    12 0.988842 0.018080 3.418189 -0.000014 -1.370796 -3.090042
    13 5.304816 0.000000 0.000000 0.174048 1.159622 0.126793
    14 18.707375 0.000000 -0.000002 0.000000 0.000000 -0.970744
    15 13.951651 0.000000 -0.000004 0.023421 -0.141103 -0.345510
    16 -0.620571 0.325967 -1.592585 1.860746 0.900460 0.815947
    17 3.570904 0.000002 -0.000001 0.000000 0.000000 0.261592
    18 2.779234 -0.000001 0.000000 0.000000 0.000000 0.662870
    19 5.246642 0.034821 -2.517332 -0.161833 0.197393 -0.252822
    20 6.439503 -0.000001 0.000000 0.000000 0.000000 0.139691
    21 3.098978 0.000000 0.000000 0.000000 0.000000 0.750086
    22 5.603584 -0.087752 -0.344059 -0.043595 -0.043292 0.648274
    23 4.928793 0.000000 -0.000004 0.000000 0.000000 1.116323
    24 6.254896 0.000002 -0.000002 0.000000 0.000000 0.680286
    25 5.434063 -0.010812 1.636232 0.069164 -0.321910 -0.029953
    26 4.854518 0.000000 0.000002 0.000000 0.000000 1.046512
    27 5.521277 0.000000 0.000000 0.000000 0.000000 1.360521
    28 -0.000004 0.001486 -3.418189 -0.000014 1.370796 -3.090069
    29 5.304816 0.000000 0.000000 0.908905 -1.092602 -0.572893
    30 18.340565 0.000000 -0.000002 0.000000 0.000000 -1.054030
    31 14.370207 0.000000 0.000002 0.110571 0.055217 0.490729
    32 -0.620573 0.325966 1.592587 -2.192485 -1.214136 1.142226
    33 3.927999 -0.000001 0.000000 0.000000 0.000000 -0.017380
    34 2.779240 0.000001 0.000000 0.000000 0.000000 0.662888
    35 5.246641 0.034821 2.517334 -0.304543 -0.191599 1.020520
    36 6.313238 0.000002 0.000002 0.000000 0.000000 0.610747
    37 3.098980 0.000000 0.000001 0.000000 0.000000 0.540805
    38 5.603580 -0.087754 0.344059 0.002754 0.009527 -0.263144
    39 4.532814 0.000000 -0.000002 0.000000 0.000000 0.697778
    40 6.615754 0.000002 0.000000 0.000000 0.000000 1.029133
    41 5.434061 -0.010812 -1.636234 -0.121553 0.289048 -0.372287
    42 4.623351 0.000001 -0.000002 0.000000 0.000000 0.662856
    43 5.521277 0.000000 0.000000 0.000000 0.000000 0.558301
    44 4.170006 3.279094 -1.198655 1.551865 -1.514302 1.554474
    45 3.754124 3.204277 1.399633 1.552051 -1.400638 1.554009
    46 0.050228 4.476613 -0.976787 1.570669 -1.476950 1.570357
    47 0.921745 4.255628 1.163094 1.570758 -1.526163 1.569866
    48 -0.000008 0.000008 4.504590 -3.140460 -0.002515 2.690642
    49 18.184616 0.000000 0.000000 0.000000 0.000000 -0.678061
    50 16.862097 0.000000 0.000000 -0.000030 -0.002670 0.231660
    51 0.000011 -0.000005 -4.504589 3.313306 0.037971 2.898360
    52 18.184610 0.000000 0.000000 0.000000 0.000000 -0.671689
    53 16.862089 0.000000 0.000000 -0.175373 -0.004461 0.430280
  time 19
    0 0.582049 0.126452 36.602175 0.000000 0.002445 -1.570987
    1 -0.652364 -0.070315 0.000000 0.000000 -1.570451 -1.570795
    2 1.576611 -0.003992 0.000002 -0.000004 -0.000001 0.015951
    3 5.015457 -0.003840 0.000000 0.086996 -0.004374 0.050767
    4 4.822693 -0.003838 0.000000 0.104254 -0.009120 0.087250
    5 4.822556 -0.004685 0.000000 0.000000 0.000000 0.021213
    6 5.883453 -0.001475 0.000000 0.000000 0.000000 -0.052333
    7 1.854832 0.000000 0.000000 -0.181229 0.062793 0.249129
    8 4.577744 2.974503 -4.899295 1.666445 -1.386597 0.690124
    9 -0.576364 -6.294613 1.187798 0.547920 0.000000 0.000000
    10 4.598343 3.014902 4.786890 -1.242753 -1.448893 3.404554
    11 0.671572 -6.281569 1.205063 0.227053 0.000000 0.000000
    12 0.988842 0.018080 3.418189 -0.000014 -1.370796 -3.090042
    13 5.304816 0.000000 0.000000 0.395688 1.118794 0.432063
    14 18.707375 0.000000 -0.000002 0.000000 0.000000 -1.046167
    15 13.951651 0.000000 -0.000004 0.037159 -0.138299 -0.444911
    16 -0.620571 0.325967 -1.592585 1.860746 0.900460 0.815947
    17 3.570904 0.000002 -0.000001 0.000000 0.000000 0.261592
    18 2.779234 -0.000001 0.000000 0.000000 0.000000 0.662870
    19 5.246642 0.034821 -2.517332 -0.172030 0.188632 -0.305773
    20 6.439503 -0.000001 0.000000 0.000000 0.000000 0.139691
    21 3.098978 0.000000 0.000000 0.000000 0.000000 0.750049
    22 5.603584 -0.087752 -0.344059 -0.044166 -0.042749 0.661627
    23 4.928793 0.000000 -0.000004 0.000000 0.000000 1.116323
    24 6.254896 0.000002 -0.000002 0.000000 0.000000 0.680324
    25 5.434063 -0.010812 1.636232 0.082798 -0.318866 -0.073352
    26 4.854518 0.000000 0.000002 0.000000 0.000000 1.046512
    27 5.521277 0.000000 0.000000 0.000000 0.000000 1.360521
    28 -0.000004 0.001486 -3.418189 -0.000014 1.370796 -3.090069
    29 5.304816 0.000000 0.000000 0.759887 -1.119011 -0.377505
    30 18.340565 0.000000 -0.000002 0.000000 0.000000 -1.112309
    31 14.370207 0.000000 0.000002 0.109614 0.057294 0.473552
    32 -0.620573 0.325966 1.592587 -2.192485 -1.214136 1.142226
    33 3.927999 -0.000001 0.000000 0.000000 0.000000 -0.017380
    34 2.779240 0.000001 0.000000 0.000000 0.000000 0.662888
    35 5.246641 0.034821 2.517334 -0.306571 -0.188063 1.031860
    36 6.313238 0.000002 0.000002 0.000000 0.000000 0.610701
    37 3.098980 0.000000 0.000001 0.000000 0.000000 0.540805
    38 5.603580 -0.087754 0.344059 0.001963 0.009694 -0.344193
    39 4.532814 0.000000 -0.000002 0.000000 0.000000 0.697778
    40 6.615754 0.000002 0.000000 0.000000 0.000000 1.029133
    41 5.434061 -0.010812 -1.636234 -0.150316 0.275518 -0.475498
    42 4.623351 0.000001 -0.000002 0.000000 0.000000 0.662856
    43 5.521277 0.000000 0.000000 0.000000 0.000000 0.558301
    44 4.170006 3.279094 -1.198655 1.551958 -1.456016 1.554381
    45 3.754124 3.204277 1.399633 1.552051 -1.471490 1.554009
    46 0.050228 4.476613 -0.976787 1.570763 -1.416387 1.570357
    47 0.921745 4.255628 1.163094 -1.570758 -1.520745 4.711355
    48 -0.000008 0.000008 4.504590 -3.140460 -0.001743 2.700979
    49 18.184616 0.000000 0.000000 0.000000 0.000000 -0.686276
    50 16.862097 0.000000 0.000000 -0.000143 -0.001696 0.248519
    51 0.000011 -0.000005 -4.504589 3.312828 0.038367 2.915706
    52 18.184610 0.000000 0.000000 0.000000 0.000000 -0.665557
    53 16.862089 0.000000 0.000000 -0.175199 -0.001321 0.439372
  time 20
    0 0.582049 0.060044 36.602175 0.000000 0.000959 -1.570987
    1 -0.335948 -0.039064 0.000000 0.000000 -1.570451 -1.570795
    2 1.576611 -0.003992 0.000002 -0.000004 -0.000001 0.006286
    3 5.015457 -0.003840 0.000000 0.087140 -0.002025 0.023718
    4 4.822693 -0.003838 0.000000 0.104470 -0.006304 0.059242
    5 4.822556 -0.004685 0.000000 0.000000 0.000000 0.009971
    6 5.883453 -0.001475 0.000000 0.000000 0.000000 -0.052333
    7 1.854832 0.000000 0.000000 -0.181556 0.062148 0.297223
    8 4.577744 2.974503 -4.899295 1.799085 -1.482821 0.796140
    9 -0.576364 -6.294613 1.187798 0.268362 0.000000 0.000000
    10 4.598343 3.014902 4.786890 -1.069160 -1.512970 3.578504
    11 0.671572 -6.281569 1.205063 0.106967 0.000000 0.000000
    12 0.988842 0.018080 3.418189 -0.000014 -1.370796 -3.090042
    13 5.304816 0.000000 0.000000 0.544023 1.053343 0.664607
    14 18.707375 0.000000 -0.000002 0.000000 0.000000 -1.121885
    15 13.951651 0.000000 -0.000004 0.050801 -0.133988 -0.544313
    16 -0.620571 0.325967 -1.592585 1.860746 0.900460 0.815947
    17 3.570904 0.000002 -0.000001 0.000000 0.000000 0.261592
    18 2.779234 -0.000001 0.000000 0.000000 0.000000 0.662870
    19 5.246642 0.034821 -2.517332 -0.181692 0.179392 -0.358269
    20 6.439503 -0.000001 0.000000 0.000000 0.000000 0.139691
    21 3.098978 0.000000 0.000000 0.000000 0.000000 0.750086
    22 5.603584 -0.087752 -0.344059 -0.044778 -0.042120 0.675257
    23 4.928793 0.000000 -0.000004 0.000000 0.000000 1.116323
    24 6.254896 0.000002 -0.000002 0.000000 0.000000 0.680324
    25 5.434063 -0.010812 1.636232 0.096145 -0.315318 -0.116157
    26 4.854518 0.000000 0.000002 0.000000 0.000000 1.046512
    27 5.521277 0.000000 0.000000 0.000000 0.000000 1.360521
    28 -0.000004 0.001486 -3.418189 -0.000014 1.370796 -3.090069
    29 5.304816 0.000000 0.000000 0.608561 -1.126019 -0.181842
    30 18.340565 0.000000 -0.000002 0.000000 0.000000 -1.170588
    31 14.370207 0.000000 0.000002 0.108657 0.059132 0.456468
    32 -0.620573 0.325966 1.592587 -2.192485 -1.214136 1.142226
    33 3.927999 -0.000001 0.000000 0.000000 0.000000 -0.017380
    34 2.779240 0.000001 0.000000 0.000000 0.000000 0.662865
    35 5.246641 0.034821 2.517334 -0.308812 -0.184348 1.043826
    36 6.313238 0.000002 0.000002 0.000000 0.000000 0.610701
    37 3.098980 0.000000 0.000001 0.000000 0.000000 0.540805
    38 5.603580 -0.087754 0.344059 0.001172 0.009922 -0.425017
    39 4.532814 0.000000 -0.000002 0.000000 0.000000 0.697778
    40 6.615754 0.000002 0.000000 0.000000 0.000000 1.029133
    41 5.434061 -0.010812 -1.636234 -0.177305 0.259207 -0.577506
    42 4.623351 0.000001 -0.000002 0.000000 0.000000 0.662856
    43 5.521277 0.000000 0.000000 0.000000 0.000000 0.558301
    44 4.170006 3.279094 -1.198655 1.551865 -1.401224 1.554193
    45 3.754124 3.204277 1.399633 1.551969 -1.538014 1.554009
    46 0.050228 4.476613 -0.976787 1.570763 -1.359492 1.570357
    47 0.921745 4.255628 1.163094 -1.570758 -1.431686 4.711355
    48 -0.000008 0.000008 4.504590 -3.141196 -0.000983 2.710677
    49 18.184616 0.000000 0.000000 0.000000 0.000000 -0.692787
    50 16.862097 0.000000 0.000000 -0.000188 -0.000839 0.263306
    51 0.000011 -0.000005 -4.504589 3.312542 0.038642 2.931644
    52 18.184610 0.000000 0.000000 0.000000 0.000000 -0.659202
    53 16.862089 0.000000 0.000000 -0.174926 0.001471 0.447076
  time 21
    0 0.582049 0.013167 36.602175 0.000000 0.000000 -1.570987
    1 -0.082034 -0.007813 0.000000 0.000000 -1.570451 -1.570795
    2 1.576611 -0.003992 0.000002 -0.000004 -0.000001 0.000646
    3 5.015457 -0.003840 0.000000 0.087140 0.000000 0.000000
    4 4.822693 -0.003838 0.000000 0.104590 -0.003619 0.034721
    5 4.822556 -0.004685 0.000000 0.000000 0.000000 0.000000
    6 5.883453 -0.001475 0.000000 0.000000 0.000000 -0.052333
    7 1.854832 0.000000 0.000000 -0.181556 0.062109 0.342644
    8 4.577744 2.974503 -4.899295 0.000000 -1.570796 2.810149
    9 -0.576364 -6.294613 1.187798 0.000000 0.000000 0.000000
    10 4.598343 3.014902 4.786890 0.000000 -1.570796 2.810149
    11 0.671572 -6.281569 1.205063 0.000000 0.000000 0.000000
    12 0.988842 0.018080 3.418189 -0.000014 -1.370796 -3.090042
    13 5.304816 0.000000 0.000000 0.628068 0.979054 0.833452
    14 18.707375 0.000000 -0.000002 0.000000 0.000000 -1.197603
    15 13.951651 0.000000 -0.000004 0.063585 -0.128465 -0.643714
    16 -0.620571 0.325967 -1.592585 1.860746 0.900460 0.815947
    17 3.570904 0.000002 -0.000001 0.000000 0.000000 0.261592
    18 2.779234 -0.000001 0.000000 0.000000 0.000000 0.662870
    19 5.246642 0.034821 -2.517332 -0.190689 0.169817 -0.410057
    20 6.439503 -0.000001 0.000000 0.000000 0.000000 0.139691
    21 3.098978 0.000000 0.000000 0.000000 0.000000 0.750086
    22 5.603584 -0.087752 -0.344059 -0.045404 -0.041477 0.690309
    23 4.928793 0.000000 -0.000004 0.000000 0.000000 1.116323
    24 6.254896 0.000002 -0.000002 0.000000 0.000000 0.680324
    25 5.434063 -0.010812 1.636232 0.109189 -0.311159 -0.158269
    26 4.854518 0.000000 0.000002 0.000000 0.000000 1.046512
    27 5.521277 0.000000 0.000000 0.000000 0.000000 1.360563
    28 -0.000004 0.001486 -3.418189 -0.000014 1.370796 -3.090069
    29 5.304816 0.000000 0.000000 0.478903 -1.116658 -0.009671
    30 18.340565 0.000000 -0.000002 0.000000 0.000000 -1.228867
    31 14.370207 0.000000 0.000002 0.107796 0.061009 0.439384
    32 -0.620573 0.325966 1.592587 -2.192485 -1.214136 1.142226
    33 3.927999 -0.000001 0.000000 0.000000 0.000000 -0.017380
    34 2.779240 0.000001 0.000000 0.000000 0.000000 0.662865
    35 5.246641 0.034821 2.517334 -0.311143 -0.180465 1.056190
    36 6.313238 0.000002 0.000002 0.000000 0.000000 0.610747
    37 3.098980 0.000000 0.000001 0.000000 0.000000 0.540805
    38 5.603580 -0.087754 0.344059 0.000369 0.009970 -0.505540
    39 4.532814 0.000000 -0.000002 0.000000 0.000000 0.697778
    40 6.615754 0.000002 0.000000 0.000000 0.000000 1.029133
    41 5.434061 -0.010812 -1.636234 -0.202281 0.240343 -0.678655
    42 4.623351 0.000001 -0.000002 0.000000 0.000000 0.662856
    43 5.521277 0.000000 0.000000 0.000000 0.000000 0.558301
    44 4.170006 3.279094 -1.198655 1.551958 -1.352751 1.554193
    45 3.754124 3.204277 1.399633 -1.589288 -1.544633 4.695478
    46 0.050228 4.476613 -0.976787 1.570763 -1.309083 1.570357
    47 0.921745 4.255628 1.163094 -1.570758 -1.352770 4.711355
    48 -0.000008 0.000008 4.504590 -3.141610 -0.000210 2.718865
    49 18.184616 0.000000 0.000000 0.000000 0.000000 -0.697655
    50 16.862097 0.000000 0.000000 -0.000030 -0.000054 0.275328
    51 0.000011 -0.000005 -4.504589 3.311873 0.038738 2.944817
    52 18.184610 0.000000 0.000000 0.000000 0.000000 -0.653293
    53 16.862089 0.000000 0.000000 -0.174430 0.003820 0.453149
end
