// Created by Crowbar 0.56
version 1
nodes
  0 "ValveBiped.Bip01_Pelvis" -1
  1 "ValveBiped.Bip01_Spine" 0
  2 "ValveBiped.Bip01_Spine1" 1
  3 "ValveBiped.Bip01_Spine2" 2
  4 "ValveBiped.Bip01_Spine4" 3
  5 "ValveBiped.Bip01_Neck1" 4
  6 "ValveBiped.Bip01_Head1" 5
  7 "ValveBiped.forward" 6
  8 "ValveBiped.Bip01_R_Clavicle" 4
  9 "ValveBiped.Bip01_R_UpperArm" 8
  10 "ValveBiped.Bip01_R_Forearm" 9
  11 "ValveBiped.Bip01_R_Hand" 10
  12 "ValveBiped.Anim_Attachment_RH" 11
  13 "ValveBiped.Bip01_L_Clavicle" 4
  14 "ValveBiped.Bip01_L_UpperArm" 13
  15 "ValveBiped.Bip01_L_Forearm" 14
  16 "ValveBiped.Bip01_L_Hand" 15
  17 "ValveBiped.Anim_Attachment_LH" 16
  18 "ValveBiped.Bip01_R_Thigh" 0
  19 "ValveBiped.Bip01_R_Calf" 18
  20 "ValveBiped.Bip01_R_Foot" 19
  21 "ValveBiped.Bip01_L_Thigh" 0
  22 "ValveBiped.Bip01_L_Calf" 21
  23 "ValveBiped.Bip01_L_Foot" 22
  24 "ValveBiped.Bip01_R_Toe0" 20
  25 "ValveBiped.Bip01_L_Toe0" 23
  26 "ValveBiped.Bip01_L_Finger4" 16
  27 "ValveBiped.Bip01_L_Finger41" 26
  28 "ValveBiped.Bip01_L_Finger42" 27
  29 "ValveBiped.Bip01_L_Finger3" 16
  30 "ValveBiped.Bip01_L_Finger31" 29
  31 "ValveBiped.Bip01_L_Finger32" 30
  32 "ValveBiped.Bip01_L_Finger2" 16
  33 "ValveBiped.Bip01_L_Finger21" 32
  34 "ValveBiped.Bip01_L_Finger22" 33
  35 "ValveBiped.Bip01_L_Finger1" 16
  36 "ValveBiped.Bip01_L_Finger11" 35
  37 "ValveBiped.Bip01_L_Finger12" 36
  38 "ValveBiped.Bip01_L_Finger0" 16
  39 "ValveBiped.Bip01_L_Finger01" 38
  40 "ValveBiped.Bip01_L_Finger02" 39
  41 "ValveBiped.Bip01_R_Finger4" 11
  42 "ValveBiped.Bip01_R_Finger41" 41
  43 "ValveBiped.Bip01_R_Finger42" 42
  44 "ValveBiped.Bip01_R_Finger3" 11
  45 "ValveBiped.Bip01_R_Finger31" 44
  46 "ValveBiped.Bip01_R_Finger32" 45
  47 "ValveBiped.Bip01_R_Finger2" 11
  48 "ValveBiped.Bip01_R_Finger21" 47
  49 "ValveBiped.Bip01_R_Finger22" 48
  50 "ValveBiped.Bip01_R_Finger1" 11
  51 "ValveBiped.Bip01_R_Finger11" 50
  52 "ValveBiped.Bip01_R_Finger12" 51
  53 "ValveBiped.Bip01_R_Finger0" 11
  54 "ValveBiped.Bip01_R_Finger01" 53
  55 "ValveBiped.Bip01_R_Finger02" 54
end
skeleton
  time 0
    0 0.000000 -0.533612 38.566914 1.570796 0.000000 0.000000
    1 0.000000 3.345131 -2.981898 1.570796 0.083193 1.570796
    2 3.995838 0.000000 0.000000 0.000000 0.000000 -0.028816
    3 3.520298 0.000000 0.000000 0.000000 0.000000 0.097307
    4 8.921471 0.000000 0.000000 0.000000 0.000000 0.186413
    5 3.306366 0.000000 0.000000 3.141590 0.000000 0.406109
    6 3.602001 0.000000 0.000000 0.000000 -0.000001 0.405033
    7 2.000000 -3.000001 0.000000 -1.570796 0.000000 -1.326450
    8 2.059532 0.977923 -1.937661 -1.661569 1.286515 2.950147
    9 6.028137 0.000004 0.000000 1.633734 -0.011884 -0.586789
    10 11.692551 0.000000 -0.000004 0.000000 0.000000 -0.060372
    11 11.481699 0.000000 -0.000008 -1.559993 0.038701 0.036022
    12 2.676085 -1.712433 0.000000 -1.570796 0.000000 -1.570795
    13 2.059528 0.977923 1.937661 1.589740 -1.286512 2.950147
    14 6.028141 0.000004 0.000000 -1.573855 0.051611 -0.584887
    15 11.692566 0.000000 -0.000008 0.000000 0.000000 -0.060372
    16 11.481674 0.000000 -0.000042 1.568292 -0.038709 0.036022
    17 2.676082 -1.712444 0.000000 1.570797 0.000001 1.570797
    18 -3.890447 0.000000 0.000000 -1.570796 0.051839 -1.576018
    19 17.848164 0.000000 0.000000 0.000000 0.000000 0.034200
    20 16.525227 0.000000 0.000000 0.038609 0.040781 -1.071639
    21 3.890447 0.000000 0.000000 -1.570796 0.051839 -1.565574
    22 17.848150 0.000000 0.000000 0.000000 0.000000 0.034200
    23 16.525223 0.000000 0.000000 -0.027915 -0.040781 -1.071638
    24 6.879453 -0.000001 0.000000 -0.081333 -0.002951 -0.584373
    25 6.879452 0.000000 0.000000 -0.007299 -0.002950 -0.584373
    26 3.859706 -0.142406 -1.191976 -0.479144 0.152190 -0.879874
    27 1.312557 0.000004 0.000000 0.000000 0.009665 -0.439720
    28 0.729359 0.000002 -0.000001 0.000000 0.004971 -0.244299
    29 3.942327 0.046772 -0.431443 -0.155014 0.073328 -0.810648
    30 1.539097 0.000002 0.000000 0.000000 0.004460 -0.247797
    31 1.196320 -0.000005 0.000000 0.000000 0.007361 -0.430802
    32 3.883689 -0.046772 0.431443 0.085902 0.021830 -0.587867
    33 1.719578 0.000000 0.000000 0.000000 0.005516 -0.366478
    34 1.209183 0.000000 0.000000 0.000000 0.003084 -0.216400
    35 3.859862 -0.137951 1.332466 0.354449 -0.042750 -0.531718
    36 1.719427 -0.000002 0.000000 0.000000 0.004074 -0.363009
    37 1.099667 -0.000002 0.000002 0.000000 0.002596 -0.244331
    38 0.806049 -0.348927 1.321258 -1.206854 -0.679488 -0.789308
    39 1.789785 -0.000001 0.000006 0.000000 0.007387 0.228523
    40 1.206997 0.000000 -0.000004 0.000000 0.011267 0.362860
    41 3.859669 -0.132565 1.193108 0.479140 -0.158545 -0.879041
    42 1.312561 0.000002 -0.000002 0.000000 -0.011932 -0.439672
    43 0.729366 0.000005 0.000000 0.000000 -0.006134 -0.244271
    44 3.942289 0.050323 0.431043 0.154999 -0.079305 -0.810205
    45 1.539097 0.000004 0.000000 0.000000 -0.005854 -0.247771
    46 1.196320 0.000000 0.000000 0.000000 -0.009663 -0.430761
    47 3.883654 -0.050327 -0.431043 -0.085905 -0.026404 -0.587695
    48 1.719578 -0.000006 0.000000 0.000000 -0.007974 -0.366436
    49 1.209183 0.000000 0.000001 0.000000 -0.004461 -0.216376
    50 3.859827 -0.148941 -1.331282 -0.354419 0.038567 -0.532001
    51 1.719425 0.000000 -0.000001 0.000000 -0.006613 -0.362970
    52 1.099663 0.000002 0.000001 0.000000 -0.004211 -0.244312
    53 0.806017 -0.359840 -1.318334 1.204200 0.673618 -0.793956
    54 1.789780 0.000001 -0.000006 0.000000 -0.006301 0.228555
    55 1.207001 0.000000 0.000006 0.000000 -0.009618 0.362905
end
triangles
rebel_sheet
  6 0.000000 4.279511 69.622208 -0.018601 0.934941 0.354315 0.039100 -1.493200 1 6 1.000000
  6 -1.087600 3.037211 71.321999 -0.327809 0.617717 0.714820 0.058500 -1.492400 1 6 1.000000
  6 0.000000 3.108211 71.456802 -0.004200 0.659602 0.751603 0.054100 -1.484400 1 6 1.000000
rebel_sheet
  6 -1.046500 -0.644991 72.225601 -0.233909 -0.046702 0.971136 0.089300 -1.531200 1 6 1.000000
  6 -1.090200 1.468309 72.115601 -0.296395 0.251396 0.921385 0.088900 -1.513200 1 6 1.000000
  6 -2.417700 1.383909 71.397499 -0.681073 0.246790 0.689372 0.077500 -1.515100 1 6 1.000000
rebel_sheet
  6 -1.046500 -0.644991 72.225601 -0.233909 -0.046702 0.971136 0.089300 -1.531200 1 6 1.000000
  6 -2.417700 1.383909 71.397499 -0.681073 0.246790 0.689372 0.077500 -1.515100 1 6 1.000000
  6 -2.249100 -0.561192 71.816299 -0.633509 -0.025600 0.773311 0.078500 -1.530900 1 6 1.000000
rebel_sheet
  6 -2.183400 -2.361993 71.462105 -0.681934 -0.371518 0.630032 0.079600 -1.543100 1 6 1.000000
  6 -1.046500 -0.644991 72.225601 -0.233909 -0.046702 0.971136 0.089300 -1.531200 1 6 1.000000
  6 -2.249100 -0.561192 71.816299 -0.633509 -0.025600 0.773311 0.078500 -1.530900 1 6 1.000000
rebel_sheet
  6 -2.742500 -0.698292 70.764297 -0.909979 -0.071798 0.408391 0.069500 -1.536700 1 6 1.000000
  6 -2.183400 -2.361993 71.462105 -0.681934 -0.371518 0.630032 0.079600 -1.543100 1 6 1.000000
  6 -2.249100 -0.561192 71.816299 -0.633509 -0.025600 0.773311 0.078500 -1.530900 1 6 1.000000
rebel_sheet
  6 -2.183400 -2.361993 71.462105 -0.681934 -0.371518 0.630032 0.079600 -1.543100 1 6 1.000000
  6 -2.742500 -0.698292 70.764297 -0.909979 -0.071798 0.408391 0.069500 -1.536700 1 6 1.000000
  6 -3.059200 -1.083491 69.932503 -0.947122 -0.151404 0.282907 0.063900 -1.541500 1 6 1.000000
rebel_sheet
  6 -3.112900 1.686709 70.069099 -0.907246 0.235012 0.348818 0.058700 -1.525900 1 6 1.000000
  6 -3.059200 -1.083491 69.932503 -0.947122 -0.151404 0.282907 0.063900 -1.541500 1 6 1.000000
  6 -2.742500 -0.698292 70.764297 -0.909979 -0.071798 0.408391 0.069500 -1.536700 1 6 1.000000
rebel_sheet
  6 -3.112900 1.686709 70.069099 -0.907246 0.235012 0.348818 0.058700 -1.525900 1 6 1.000000
  6 -3.399300 1.512009 68.791100 -0.962872 0.207494 0.172695 0.050700 -1.531200 1 6 1.000000
  6 -3.059200 -1.083491 69.932503 -0.947122 -0.151404 0.282907 0.063900 -1.541500 1 6 1.000000
rebel_sheet
  6 -3.112900 1.686709 70.069099 -0.907246 0.235012 0.348818 0.058700 -1.525900 1 6 1.000000
  6 -2.636400 3.454811 68.382202 -0.736514 0.676413 0.003600 0.040300 -1.516200 1 6 1.000000
  6 -3.399300 1.512009 68.791100 -0.962872 0.207494 0.172695 0.050700 -1.531200 1 6 1.000000
rebel_sheet
  6 -2.637900 3.010810 66.330101 -0.675256 0.728453 -0.115693 0.026300 -1.525000 1 6 1.000000
  6 -3.399300 1.512009 68.791100 -0.962872 0.207494 0.172695 0.050700 -1.531200 1 6 1.000000
  6 -2.636400 3.454811 68.382202 -0.736514 0.676413 0.003600 0.040300 -1.516200 1 6 1.000000
rebel_sheet
  6 -1.211500 4.197110 68.287598 -0.359199 0.931697 -0.054000 0.034500 -1.507900 1 6 1.000000
  6 -2.637900 3.010810 66.330101 -0.675256 0.728453 -0.115693 0.026300 -1.525000 1 6 1.000000
  6 -2.636400 3.454811 68.382202 -0.736514 0.676413 0.003600 0.040300 -1.516200 1 6 1.000000
rebel_sheet
  6 -1.211500 4.197110 68.287598 -0.359199 0.931697 -0.054000 0.034500 -1.507900 1 6 1.000000
  6 -1.233300 3.704811 66.143402 -0.338218 0.917949 -0.207311 0.019200 -1.517200 1 6 1.000000
  6 -2.637900 3.010810 66.330101 -0.675256 0.728453 -0.115693 0.026300 -1.525000 1 6 1.000000
rebel_sheet
  6 0.000000 3.969110 66.073601 -0.013900 0.967233 -0.253509 0.013400 -1.508400 1 6 1.000000
  6 -1.233300 3.704811 66.143402 -0.338218 0.917949 -0.207311 0.019200 -1.517200 1 6 1.000000
  6 -1.211500 4.197110 68.287598 -0.359199 0.931697 -0.054000 0.034500 -1.507900 1 6 1.000000
rebel_sheet
  6 0.000000 3.969110 66.073601 -0.013900 0.967233 -0.253509 0.013400 -1.508400 1 6 1.000000
  6 -1.211500 4.197110 68.287598 -0.359199 0.931697 -0.054000 0.034500 -1.507900 1 6 1.000000
  6 0.000000 4.561911 68.191803 -0.022199 0.998173 -0.056198 0.028500 -1.499400 1 6 1.000000
rebel_sheet
  6 -1.211500 4.197110 68.287598 -0.359199 0.931697 -0.054000 0.034500 -1.507900 1 6 1.000000
  6 0.000000 4.279511 69.622208 -0.018601 0.934941 0.354315 0.039100 -1.493200 1 6 1.000000
  6 0.000000 4.561911 68.191803 -0.022199 0.998173 -0.056198 0.028500 -1.499400 1 6 1.000000
rebel_sheet
  6 -1.211500 4.197110 68.287598 -0.359199 0.931697 -0.054000 0.034500 -1.507900 1 6 1.000000
  6 -1.130700 4.144511 69.579102 -0.292193 0.912877 0.285093 0.043600 -1.501600 1 6 1.000000
  6 0.000000 4.279511 69.622208 -0.018601 0.934941 0.354315 0.039100 -1.493200 1 6 1.000000
rebel_sheet
  6 0.000000 4.279511 69.622208 -0.018601 0.934941 0.354315 0.039100 -1.493200 1 6 1.000000
  6 -1.130700 4.144511 69.579102 -0.292193 0.912877 0.285093 0.043600 -1.501600 1 6 1.000000
  6 -1.087600 3.037211 71.321999 -0.327809 0.617717 0.714820 0.058500 -1.492400 1 6 1.000000
rebel_sheet
  6 -1.087600 3.037211 71.321999 -0.327809 0.617717 0.714820 0.058500 -1.492400 1 6 1.000000
  6 -1.130700 4.144511 69.579102 -0.292193 0.912877 0.285093 0.043600 -1.501600 1 6 1.000000
  6 -2.320900 3.457310 69.647697 -0.654397 0.681597 0.327399 0.049200 -1.511300 1 6 1.000000
rebel_sheet
  6 -1.087600 3.037211 71.321999 -0.327809 0.617717 0.714820 0.058500 -1.492400 1 6 1.000000
  6 -2.320900 3.457310 69.647697 -0.654397 0.681597 0.327399 0.049200 -1.511300 1 6 1.000000
  6 -1.952800 2.711610 70.825699 -0.605572 0.509178 0.611572 0.059700 -1.505700 1 6 1.000000
rebel_sheet
  6 -3.112900 1.686709 70.069099 -0.907246 0.235012 0.348818 0.058700 -1.525900 1 6 1.000000
  6 -2.320900 3.457310 69.647697 -0.654397 0.681597 0.327399 0.049200 -1.511300 1 6 1.000000
  6 -2.636400 3.454811 68.382202 -0.736514 0.676413 0.003600 0.040300 -1.516200 1 6 1.000000
rebel_sheet
  6 -2.320900 3.457310 69.647697 -0.654397 0.681597 0.327399 0.049200 -1.511300 1 6 1.000000
  6 -1.211500 4.197110 68.287598 -0.359199 0.931697 -0.054000 0.034500 -1.507900 1 6 1.000000
  6 -2.636400 3.454811 68.382202 -0.736514 0.676413 0.003600 0.040300 -1.516200 1 6 1.000000
rebel_sheet
  6 -2.320900 3.457310 69.647697 -0.654397 0.681597 0.327399 0.049200 -1.511300 1 6 1.000000
  6 -1.130700 4.144511 69.579102 -0.292193 0.912877 0.285093 0.043600 -1.501600 1 6 1.000000
  6 -1.211500 4.197110 68.287598 -0.359199 0.931697 -0.054000 0.034500 -1.507900 1 6 1.000000
rebel_sheet
  6 -2.320900 3.457310 69.647697 -0.654397 0.681597 0.327399 0.049200 -1.511300 1 6 1.000000
  6 -2.417700 1.383909 71.397499 -0.681073 0.246790 0.689372 0.067700 -1.520100 1 6 1.000000
  6 -1.952800 2.711610 70.825699 -0.605572 0.509178 0.611572 0.059700 -1.505700 1 6 1.000000
rebel_sheet
  6 -2.320900 3.457310 69.647697 -0.654397 0.681597 0.327399 0.049200 -1.511300 1 6 1.000000
  6 -3.112900 1.686709 70.069099 -0.907246 0.235012 0.348818 0.058700 -1.525900 1 6 1.000000
  6 -2.417700 1.383909 71.397499 -0.681073 0.246790 0.689372 0.067700 -1.520100 1 6 1.000000
rebel_sheet
  6 -2.249100 -0.561192 71.816299 -0.633509 -0.025600 0.773311 0.078500 -1.530900 1 6 1.000000
  6 -2.417700 1.383909 71.397499 -0.681073 0.246790 0.689372 0.067700 -1.520100 1 6 1.000000
  6 -3.112900 1.686709 70.069099 -0.907246 0.235012 0.348818 0.058700 -1.525900 1 6 1.000000
rebel_sheet
  6 -2.249100 -0.561192 71.816299 -0.633509 -0.025600 0.773311 0.078500 -1.530900 1 6 1.000000
  6 -3.112900 1.686709 70.069099 -0.907246 0.235012 0.348818 0.058700 -1.525900 1 6 1.000000
  6 -2.742500 -0.698292 70.764297 -0.909979 -0.071798 0.408391 0.069500 -1.536700 1 6 1.000000
rebel_sheet
  6 -2.637900 3.010810 66.330101 -0.675256 0.728453 -0.115693 0.026300 -1.525000 1 6 1.000000
  6 -3.716000 1.422909 67.590599 -0.888683 0.410692 0.203897 0.038400 -1.537900 1 6 1.000000
  6 -3.399300 1.512009 68.791100 -0.962872 0.207494 0.172695 0.050700 -1.531200 1 6 1.000000
rebel_sheet
  6 -3.399300 1.512009 68.791100 -0.962872 0.207494 0.172695 0.050700 -1.531200 1 6 1.000000
  6 -3.716000 1.422909 67.590599 -0.888683 0.410692 0.203897 0.038400 -1.537900 1 6 1.000000
  6 -3.184600 -1.408591 69.100510 -0.960800 -0.165800 0.222200 0.056400 -1.547800 1 6 1.000000
rebel_sheet
  6 -3.399300 1.512009 68.791100 -0.962872 0.207494 0.172695 0.050700 -1.531200 1 6 1.000000
  6 -3.184600 -1.408591 69.100510 -0.960800 -0.165800 0.222200 0.056400 -1.547800 1 6 1.000000
  6 -3.059200 -1.083491 69.932503 -0.947122 -0.151404 0.282907 0.063900 -1.541500 1 6 1.000000
rebel_sheet
  6 -2.237900 -3.107091 70.363205 -0.774697 -0.481399 0.410000 0.077500 -1.555200 1 6 1.000000
  6 -3.059200 -1.083491 69.932503 -0.947122 -0.151404 0.282907 0.063900 -1.541500 1 6 1.000000
  6 -3.184600 -1.408591 69.100510 -0.960800 -0.165800 0.222200 0.056400 -1.547800 1 6 1.000000
rebel_sheet
  6 -2.183400 -2.361993 71.462105 -0.681934 -0.371518 0.630032 0.079600 -1.543100 1 6 1.000000
  6 -3.059200 -1.083491 69.932503 -0.947122 -0.151404 0.282907 0.063900 -1.541500 1 6 1.000000
  6 -2.237900 -3.107091 70.363205 -0.774697 -0.481399 0.410000 0.077500 -1.555200 1 6 1.000000
rebel_sheet
  6 -1.095400 -2.882793 71.820709 -0.333405 -0.447307 0.829914 0.088900 -1.546100 1 6 1.000000
  6 -2.183400 -2.361993 71.462105 -0.681934 -0.371518 0.630032 0.079600 -1.543100 1 6 1.000000
  6 -2.237900 -3.107091 70.363205 -0.774697 -0.481399 0.410000 0.077500 -1.555200 1 6 1.000000
rebel_sheet
  6 -2.183400 -2.361993 71.462105 -0.681934 -0.371518 0.630032 0.079600 -1.543100 1 6 1.000000
  6 -1.095400 -2.882793 71.820709 -0.333405 -0.447307 0.829914 0.088900 -1.546100 1 6 1.000000
  6 -1.046500 -0.644991 72.225601 -0.233909 -0.046702 0.971136 0.089300 -1.531200 1 6 1.000000
rebel_sheet
  6 -1.046500 -0.644991 72.225601 -0.233909 -0.046702 0.971136 0.089300 -1.531200 1 6 1.000000
  6 -1.095400 -2.882793 71.820709 -0.333405 -0.447307 0.829914 0.088900 -1.546100 1 6 1.000000
  6 0.000000 -3.013592 71.952003 0.001600 -0.447613 0.894226 0.098500 -1.547200 1 6 1.000000
rebel_sheet
  6 -1.046500 -0.644991 72.225601 -0.233909 -0.046702 0.971136 0.089300 -1.531200 1 6 1.000000
  6 0.000000 -3.013592 71.952003 0.001600 -0.447613 0.894226 0.098500 -1.547200 1 6 1.000000
  6 0.000000 -0.669691 72.329201 0.002500 -0.059402 0.998231 0.098500 -1.531400 1 6 1.000000
rebel_sheet
  6 0.000000 -0.669691 72.329201 0.002500 -0.059402 0.998231 0.098500 -1.531400 1 6 1.000000
  6 0.000000 -3.013592 71.952003 0.001600 -0.447613 0.894226 0.098500 -1.547200 1 6 1.000000
  6 1.095400 -2.882792 71.820702 0.301979 -0.435470 0.848041 0.108200 -1.546100 1 6 1.000000
rebel_sheet
  6 -1.090200 1.468309 72.115601 -0.296395 0.251396 0.921385 0.088900 -1.513200 1 6 1.000000
  6 -1.046500 -0.644991 72.225601 -0.233909 -0.046702 0.971136 0.089300 -1.531200 1 6 1.000000
  6 0.000000 -0.669691 72.329201 0.002500 -0.059402 0.998231 0.098500 -1.531400 1 6 1.000000
rebel_sheet
  6 0.000000 3.108211 71.456802 -0.004200 0.659602 0.751603 0.143000 -1.484400 1 6 1.000000
  6 1.130700 4.144512 69.579102 0.320202 0.893304 0.315402 0.153500 -1.501600 1 6 1.000000
  6 0.000000 4.279511 69.622208 -0.018601 0.934941 0.354315 0.158000 -1.493200 1 6 1.000000
rebel_sheet
  6 0.000000 3.108211 71.456802 -0.004200 0.659602 0.751603 0.143000 -1.484400 1 6 1.000000
  6 1.087600 3.037211 71.321999 0.328011 0.641322 0.693624 0.138600 -1.492400 1 6 1.000000
  6 1.130700 4.144512 69.579102 0.320202 0.893304 0.315402 0.153500 -1.501600 1 6 1.000000
rebel_sheet
  6 1.952800 2.711610 70.825699 0.635442 0.543736 0.548237 0.137000 -1.507100 1 6 1.000000
  6 1.130700 4.144512 69.579102 0.320202 0.893304 0.315402 0.153500 -1.501600 1 6 1.000000
  6 1.087600 3.037211 71.321999 0.328011 0.641322 0.693624 0.138600 -1.492400 1 6 1.000000
rebel_sheet
  6 1.952800 2.711610 70.825699 0.635442 0.543736 0.548237 0.137000 -1.507100 1 6 1.000000
  6 2.320900 3.457310 69.647697 0.695089 0.648990 0.309295 0.147900 -1.510900 1 6 1.000000
  6 1.130700 4.144512 69.579102 0.320202 0.893304 0.315402 0.153500 -1.501600 1 6 1.000000
rebel_sheet
  6 1.952800 2.711610 70.825699 0.635442 0.543736 0.548237 0.137000 -1.507100 1 6 1.000000
  6 3.009400 1.454309 70.122200 0.938388 0.177698 0.296396 0.138400 -1.525900 1 6 1.000000
  6 2.320900 3.457310 69.647697 0.695089 0.648990 0.309295 0.147900 -1.510900 1 6 1.000000
rebel_sheet
  6 3.237400 1.313409 68.829300 0.968173 0.153996 0.197295 0.146400 -1.531200 1 6 1.000000
  6 2.320900 3.457310 69.647697 0.695089 0.648990 0.309295 0.147900 -1.510900 1 6 1.000000
  6 3.009400 1.454309 70.122200 0.938388 0.177698 0.296396 0.138400 -1.525900 1 6 1.000000
rebel_sheet
  6 2.692800 -0.691692 70.713600 0.948547 -0.116094 0.294584 0.127600 -1.536700 1 6 1.000000
  6 3.237400 1.313409 68.829300 0.968173 0.153996 0.197295 0.146400 -1.531200 1 6 1.000000
  6 3.009400 1.454309 70.122200 0.938388 0.177698 0.296396 0.138400 -1.525900 1 6 1.000000
rebel_sheet
  6 2.692800 -0.691692 70.713600 0.948547 -0.116094 0.294584 0.127600 -1.536700 1 6 1.000000
  6 3.009400 1.454309 70.122200 0.938388 0.177698 0.296396 0.138400 -1.525900 1 6 1.000000
  6 2.417700 1.383909 71.397499 0.730609 0.246603 0.636708 0.129400 -1.520100 1 6 1.000000
rebel_sheet
  6 2.692800 -0.691692 70.713600 0.948547 -0.116094 0.294584 0.127600 -1.536700 1 6 1.000000
  6 2.417700 1.383909 71.397499 0.730609 0.246603 0.636708 0.129400 -1.520100 1 6 1.000000
  6 2.249100 -0.561191 71.816299 0.674523 -0.045902 0.736825 0.118600 -1.530900 1 6 1.000000
rebel_sheet
  6 2.249100 -0.561191 71.816299 0.674523 -0.045902 0.736825 0.118600 -1.530900 1 6 1.000000
  6 2.183400 -2.361992 71.462105 0.752607 -0.350704 0.557306 0.117500 -1.543100 1 6 1.000000
  6 2.692800 -0.691692 70.713600 0.948547 -0.116094 0.294584 0.127600 -1.536700 1 6 1.000000
rebel_sheet
  6 2.249100 -0.561191 71.816299 0.674523 -0.045902 0.736825 0.118600 -1.530900 1 6 1.000000
  6 1.095400 -2.882792 71.820702 0.301979 -0.435470 0.848041 0.108200 -1.546100 1 6 1.000000
  6 2.183400 -2.361992 71.462105 0.752607 -0.350704 0.557306 0.117500 -1.543100 1 6 1.000000
rebel_sheet
  6 2.249100 -0.561191 71.816299 0.674523 -0.045902 0.736825 0.118600 -1.530900 1 6 1.000000
  6 1.046500 -0.644991 72.225601 0.210993 -0.062798 0.975468 0.107800 -1.531200 1 6 1.000000
  6 1.095400 -2.882792 71.820702 0.301979 -0.435470 0.848041 0.108200 -1.546100 1 6 1.000000
rebel_sheet
  6 0.000000 -0.669691 72.329201 0.002500 -0.059402 0.998231 0.098500 -1.531400 1 6 1.000000
  6 1.095400 -2.882792 71.820702 0.301979 -0.435470 0.848041 0.108200 -1.546100 1 6 1.000000
  6 1.046500 -0.644991 72.225601 0.210993 -0.062798 0.975468 0.107800 -1.531200 1 6 1.000000
rebel_sheet
  6 0.000000 1.479809 72.223900 -0.004100 0.245003 0.969514 0.098500 -1.513100 1 6 1.000000
  6 0.000000 -0.669691 72.329201 0.002500 -0.059402 0.998231 0.098500 -1.531400 1 6 1.000000
  6 1.046500 -0.644991 72.225601 0.210993 -0.062798 0.975468 0.107800 -1.531200 1 6 1.000000
rebel_sheet
  6 -1.090200 1.468309 72.115601 -0.296395 0.251396 0.921385 0.088900 -1.513200 1 6 1.000000
  6 0.000000 -0.669691 72.329201 0.002500 -0.059402 0.998231 0.098500 -1.531400 1 6 1.000000
  6 0.000000 1.479809 72.223900 -0.004100 0.245003 0.969514 0.098500 -1.513100 1 6 1.000000
rebel_sheet
  6 -1.087600 3.037211 71.321999 -0.327809 0.617717 0.714820 0.089000 -1.499300 1 6 1.000000
  6 -1.090200 1.468309 72.115601 -0.296395 0.251396 0.921385 0.088900 -1.513200 1 6 1.000000
  6 0.000000 1.479809 72.223900 -0.004100 0.245003 0.969514 0.098500 -1.513100 1 6 1.000000
rebel_sheet
  6 -1.090200 1.468309 72.115601 -0.296395 0.251396 0.921385 0.088900 -1.513200 1 6 1.000000
  6 -1.087600 3.037211 71.321999 -0.327809 0.617717 0.714820 0.089000 -1.499300 1 6 1.000000
  6 -1.952800 2.711610 70.825699 -0.605572 0.509178 0.611572 0.080200 -1.501700 1 6 1.000000
rebel_sheet
  6 -1.090200 1.468309 72.115601 -0.296395 0.251396 0.921385 0.088900 -1.513200 1 6 1.000000
  6 -1.952800 2.711610 70.825699 -0.605572 0.509178 0.611572 0.080200 -1.501700 1 6 1.000000
  6 -2.417700 1.383909 71.397499 -0.681073 0.246790 0.689372 0.077500 -1.515100 1 6 1.000000
rebel_sheet
  6 1.952800 2.711610 70.825699 0.635442 0.543736 0.548237 0.137000 -1.507100 1 6 1.000000
  6 2.417700 1.383909 71.397499 0.730609 0.246603 0.636708 0.129400 -1.520100 1 6 1.000000
  6 3.009400 1.454309 70.122200 0.938388 0.177698 0.296396 0.138400 -1.525900 1 6 1.000000
rebel_sheet
  6 3.237400 1.313409 68.829300 0.968173 0.153996 0.197295 0.146400 -1.531200 1 6 1.000000
  6 2.434400 3.485311 68.382202 0.739113 0.673412 -0.015100 0.156800 -1.516200 1 6 1.000000
  6 2.320900 3.457310 69.647697 0.695089 0.648990 0.309295 0.147900 -1.510900 1 6 1.000000
rebel_sheet
  6 2.434400 3.485311 68.382202 0.739113 0.673412 -0.015100 0.156800 -1.516200 1 6 1.000000
  6 1.130700 4.144512 69.579102 0.320202 0.893304 0.315402 0.153500 -1.501600 1 6 1.000000
  6 2.320900 3.457310 69.647697 0.695089 0.648990 0.309295 0.147900 -1.510900 1 6 1.000000
rebel_sheet
  6 2.434400 3.485311 68.382202 0.739113 0.673412 -0.015100 0.156800 -1.516200 1 6 1.000000
  6 1.211500 4.197111 68.287598 0.400086 0.913869 -0.069098 0.162600 -1.507900 1 6 1.000000
  6 1.130700 4.144512 69.579102 0.320202 0.893304 0.315402 0.153500 -1.501600 1 6 1.000000
rebel_sheet
  6 -1.087600 3.037211 71.321999 -0.327809 0.617717 0.714820 0.089000 -1.499300 1 6 1.000000
  6 0.000000 1.479809 72.223900 -0.004100 0.245003 0.969514 0.098500 -1.513100 1 6 1.000000
  6 0.000000 3.108211 71.456802 -0.004200 0.659602 0.751603 0.098500 -1.499600 1 6 1.000000
rebel_sheet
  6 0.000000 3.108211 71.456802 -0.004200 0.659602 0.751603 0.098500 -1.499600 1 6 1.000000
  6 0.000000 1.479809 72.223900 -0.004100 0.245003 0.969514 0.098500 -1.513100 1 6 1.000000
  6 1.090200 1.468309 72.115601 0.274608 0.253907 0.927428 0.108100 -1.513200 1 6 1.000000
rebel_sheet
  6 0.000000 1.479809 72.223900 -0.004100 0.245003 0.969514 0.098500 -1.513100 1 6 1.000000
  6 1.046500 -0.644991 72.225601 0.210993 -0.062798 0.975468 0.107800 -1.531200 1 6 1.000000
  6 1.090200 1.468309 72.115601 0.274608 0.253907 0.927428 0.108100 -1.513200 1 6 1.000000
rebel_sheet
  6 2.249100 -0.561191 71.816299 0.674523 -0.045902 0.736825 0.118600 -1.530900 1 6 1.000000
  6 1.090200 1.468309 72.115601 0.274608 0.253907 0.927428 0.108100 -1.513200 1 6 1.000000
  6 1.046500 -0.644991 72.225601 0.210993 -0.062798 0.975468 0.107800 -1.531200 1 6 1.000000
rebel_sheet
  6 2.249100 -0.561191 71.816299 0.674523 -0.045902 0.736825 0.118600 -1.530900 1 6 1.000000
  6 2.417700 1.383909 71.397499 0.730609 0.246603 0.636708 0.119600 -1.515100 1 6 1.000000
  6 1.090200 1.468309 72.115601 0.274608 0.253907 0.927428 0.108100 -1.513200 1 6 1.000000
rebel_sheet
  6 2.417700 1.383909 71.397499 0.730609 0.246603 0.636708 0.119600 -1.515100 1 6 1.000000
  6 1.087600 3.037211 71.321999 0.328011 0.641322 0.693624 0.108100 -1.499300 1 6 1.000000
  6 1.090200 1.468309 72.115601 0.274608 0.253907 0.927428 0.108100 -1.513200 1 6 1.000000
rebel_sheet
  6 2.417700 1.383909 71.397499 0.730609 0.246603 0.636708 0.119600 -1.515100 1 6 1.000000
  6 1.952800 2.711610 70.825699 0.635442 0.543736 0.548237 0.116900 -1.501700 1 6 1.000000
  6 1.087600 3.037211 71.321999 0.328011 0.641322 0.693624 0.108100 -1.499300 1 6 1.000000
rebel_sheet
  6 0.000000 3.108211 71.456802 -0.004200 0.659602 0.751603 0.098500 -1.499600 1 6 1.000000
  6 1.090200 1.468309 72.115601 0.274608 0.253907 0.927428 0.108100 -1.513200 1 6 1.000000
  6 1.087600 3.037211 71.321999 0.328011 0.641322 0.693624 0.108100 -1.499300 1 6 1.000000
rebel_sheet
  6 -1.095400 -2.882793 71.820709 -0.333405 -0.447307 0.829914 0.088900 -1.546100 1 6 1.000000
  6 -2.237900 -3.107091 70.363205 -0.774697 -0.481399 0.410000 0.077500 -1.555200 1 6 1.000000
  6 -1.072200 -3.860593 70.920097 -0.395891 -0.626186 0.671685 0.088900 -1.557600 1 6 1.000000
rebel_sheet
  6 0.000000 -3.013592 71.952003 0.001600 -0.447613 0.894226 0.098500 -1.547200 1 6 1.000000
  6 -1.095400 -2.882793 71.820709 -0.333405 -0.447307 0.829914 0.088900 -1.546100 1 6 1.000000
  6 -1.072200 -3.860593 70.920097 -0.395891 -0.626186 0.671685 0.088900 -1.557600 1 6 1.000000
rebel_sheet
  6 0.000000 -3.013592 71.952003 0.001600 -0.447613 0.894226 0.098500 -1.547200 1 6 1.000000
  6 -1.072200 -3.860593 70.920097 -0.395891 -0.626186 0.671685 0.088900 -1.557600 1 6 1.000000
  6 0.000000 -3.990493 71.054901 -0.001200 -0.677303 0.735703 0.098500 -1.558200 1 6 1.000000
rebel_sheet
  6 0.000000 -3.990493 71.054901 -0.001200 -0.677303 0.735703 0.098500 -1.558200 1 6 1.000000
  6 1.095400 -2.882792 71.820702 0.301979 -0.435470 0.848041 0.108200 -1.546100 1 6 1.000000
  6 0.000000 -3.013592 71.952003 0.001600 -0.447613 0.894226 0.098500 -1.547200 1 6 1.000000
rebel_sheet
  6 0.000000 -3.990493 71.054901 -0.001200 -0.677303 0.735703 0.098500 -1.558200 1 6 1.000000
  6 1.072200 -3.860593 70.920097 0.385394 -0.668190 0.636391 0.108200 -1.557600 1 6 1.000000
  6 1.095400 -2.882792 71.820702 0.301979 -0.435470 0.848041 0.108200 -1.546100 1 6 1.000000
rebel_sheet
  6 1.072200 -3.860593 70.920097 0.385394 -0.668190 0.636391 0.108200 -1.557600 1 6 1.000000
  6 2.183400 -2.361992 71.462105 0.752607 -0.350704 0.557306 0.117500 -1.543100 1 6 1.000000
  6 1.095400 -2.882792 71.820702 0.301979 -0.435470 0.848041 0.108200 -1.546100 1 6 1.000000
rebel_sheet
  6 1.072200 -3.860593 70.920097 0.385394 -0.668190 0.636391 0.108200 -1.557600 1 6 1.000000
  6 2.085400 -3.099992 70.358803 0.842072 -0.469385 0.265692 0.119600 -1.555200 1 6 1.000000
  6 2.183400 -2.361992 71.462105 0.752607 -0.350704 0.557306 0.117500 -1.543100 1 6 1.000000
rebel_sheet
  6 2.085400 -3.099992 70.358803 0.842072 -0.469385 0.265692 0.119600 -1.555200 1 6 1.000000
  6 2.692800 -0.691692 70.713600 0.948547 -0.116094 0.294584 0.127600 -1.536700 1 6 1.000000
  6 2.183400 -2.361992 71.462105 0.752607 -0.350704 0.557306 0.117500 -1.543100 1 6 1.000000
rebel_sheet
  6 2.085400 -3.099992 70.358803 0.842072 -0.469385 0.265692 0.119600 -1.555200 1 6 1.000000
  6 2.855300 -0.981692 69.863602 0.960093 -0.195399 0.200099 0.133200 -1.541500 1 6 1.000000
  6 2.692800 -0.691692 70.713600 0.948547 -0.116094 0.294584 0.127600 -1.536700 1 6 1.000000
rebel_sheet
  6 2.692800 -0.691692 70.713600 0.948547 -0.116094 0.294584 0.127600 -1.536700 1 6 1.000000
  6 2.855300 -0.981692 69.863602 0.960093 -0.195399 0.200099 0.133200 -1.541500 1 6 1.000000
  6 3.237400 1.313409 68.829300 0.968173 0.153996 0.197295 0.146400 -1.531200 1 6 1.000000
rebel_sheet
  6 2.855300 -0.981692 69.863602 0.960093 -0.195399 0.200099 0.133200 -1.541500 1 6 1.000000
  6 3.528200 1.214309 67.698601 0.961815 0.240204 0.131202 0.158700 -1.537900 1 6 1.000000
  6 3.237400 1.313409 68.829300 0.968173 0.153996 0.197295 0.146400 -1.531200 1 6 1.000000
rebel_sheet
  6 2.434400 3.485311 68.382202 0.739113 0.673412 -0.015100 0.156800 -1.516200 1 6 1.000000
  6 3.237400 1.313409 68.829300 0.968173 0.153996 0.197295 0.146400 -1.531200 1 6 1.000000
  6 3.528200 1.214309 67.698601 0.961815 0.240204 0.131202 0.158700 -1.537900 1 6 1.000000
rebel_sheet
  6 2.434400 3.485311 68.382202 0.739113 0.673412 -0.015100 0.156800 -1.516200 1 6 1.000000
  6 3.528200 1.214309 67.698601 0.961815 0.240204 0.131202 0.158700 -1.537900 1 6 1.000000
  6 2.435900 3.041411 66.330101 0.688580 0.708880 -0.152796 0.170800 -1.525000 1 6 1.000000
rebel_sheet
  6 2.434400 3.485311 68.382202 0.739113 0.673412 -0.015100 0.156800 -1.516200 1 6 1.000000
  6 2.435900 3.041411 66.330101 0.688580 0.708880 -0.152796 0.170800 -1.525000 1 6 1.000000
  6 1.233300 3.704811 66.143402 0.374700 0.901201 -0.217800 0.177900 -1.517200 1 6 1.000000
rebel_sheet
  6 2.434400 3.485311 68.382202 0.739113 0.673412 -0.015100 0.156800 -1.516200 1 6 1.000000
  6 1.233300 3.704811 66.143402 0.374700 0.901201 -0.217800 0.177900 -1.517200 1 6 1.000000
  6 1.211500 4.197111 68.287598 0.400086 0.913869 -0.069098 0.162600 -1.507900 1 6 1.000000
rebel_sheet
  6 0.000000 4.561911 68.191803 -0.022199 0.998173 -0.056198 0.168600 -1.499400 1 6 1.000000
  6 1.211500 4.197111 68.287598 0.400086 0.913869 -0.069098 0.162600 -1.507900 1 6 1.000000
  6 1.233300 3.704811 66.143402 0.374700 0.901201 -0.217800 0.177900 -1.517200 1 6 1.000000
rebel_sheet
  6 0.000000 4.561911 68.191803 -0.022199 0.998173 -0.056198 0.168600 -1.499400 1 6 1.000000
  6 1.130700 4.144512 69.579102 0.320202 0.893304 0.315402 0.153500 -1.501600 1 6 1.000000
  6 1.211500 4.197111 68.287598 0.400086 0.913869 -0.069098 0.162600 -1.507900 1 6 1.000000
rebel_sheet
  6 0.000000 4.561911 68.191803 -0.022199 0.998173 -0.056198 0.168600 -1.499400 1 6 1.000000
  6 0.000000 4.279511 69.622208 -0.018601 0.934941 0.354315 0.158000 -1.493200 1 6 1.000000
  6 1.130700 4.144512 69.579102 0.320202 0.893304 0.315402 0.153500 -1.501600 1 6 1.000000
rebel_sheet
  6 0.000000 4.561911 68.191803 -0.022199 0.998173 -0.056198 0.168600 -1.499400 1 6 1.000000
  6 1.233300 3.704811 66.143402 0.374700 0.901201 -0.217800 0.177900 -1.517200 1 6 1.000000
  6 0.000000 3.969110 66.073601 -0.013900 0.967233 -0.253509 0.183700 -1.508400 1 6 1.000000
rebel_sheet
  6 2.869800 -1.364491 69.093697 0.960382 -0.241895 0.138397 0.140700 -1.547800 1 6 1.000000
  6 2.855300 -0.981692 69.863602 0.960093 -0.195399 0.200099 0.133200 -1.541500 1 6 1.000000
  6 2.085400 -3.099992 70.358803 0.842072 -0.469385 0.265692 0.119600 -1.555200 1 6 1.000000
rebel_sheet
  6 2.855300 -0.981692 69.863602 0.960093 -0.195399 0.200099 0.133200 -1.541500 1 6 1.000000
  6 2.869800 -1.364491 69.093697 0.960382 -0.241895 0.138397 0.140700 -1.547800 1 6 1.000000
  6 3.528200 1.214309 67.698601 0.961815 0.240204 0.131202 0.158700 -1.537900 1 6 1.000000
rebel_sheet
  6 -1.351100 3.081410 64.665802 -0.211701 0.247401 -0.945503 0.008400 -1.527500 1 6 1.000000
  6 0.000000 4.045610 65.768204 0.009700 0.985807 -0.167601 0.011200 -1.509700 1 6 1.000000
  6 0.000000 3.301610 64.669601 0.009300 0.295289 -0.955363 0.002500 -1.516700 1 6 1.000000
rebel_sheet
  6 -1.351100 3.081410 64.665802 -0.211701 0.247401 -0.945503 0.008400 -1.527500 1 6 1.000000
  6 -1.300600 3.764110 65.820999 -0.338696 0.931088 -0.135498 0.017200 -1.519000 1 6 1.000000
  6 0.000000 4.045610 65.768204 0.009700 0.985807 -0.167601 0.011200 -1.509700 1 6 1.000000
rebel_sheet
  6 -2.801300 3.004111 66.082802 -0.686194 0.721294 -0.094199 0.024700 -1.526600 1 6 1.000000
  6 -1.300600 3.764110 65.820999 -0.338696 0.931088 -0.135498 0.017200 -1.519000 1 6 1.000000
  6 -1.351100 3.081410 64.665802 -0.211701 0.247401 -0.945503 0.008400 -1.527500 1 6 1.000000
rebel_sheet
  6 -3.184600 -1.408591 69.100510 -0.945920 -0.196904 0.257806 0.056400 -1.547800 1 6 1.000000
  6 -3.716000 1.422909 67.590599 -0.840699 0.395099 0.370300 0.038400 -1.537900 1 6 1.000000
  6 -3.847800 1.313310 67.400902 -0.966005 0.212801 0.146801 0.036900 -1.539600 1 6 1.000000
rebel_sheet
  6 -2.801300 3.004111 66.082802 -0.686194 0.721294 -0.094199 0.024700 -1.526600 1 6 1.000000
  6 -3.847800 1.313310 67.400902 -0.966005 0.212801 0.146801 0.036900 -1.539600 1 6 1.000000
  6 -3.716000 1.422909 67.590599 -0.840699 0.395099 0.370300 0.038400 -1.537900 1 6 1.000000
rebel_sheet
  6 -2.801300 3.004111 66.082802 -0.686194 0.721294 -0.094199 0.024700 -1.526600 1 6 1.000000
  6 -3.716000 1.422909 67.590599 -0.840699 0.395099 0.370300 0.038400 -1.537900 1 6 1.000000
  6 -2.637900 3.010810 66.330101 -0.501317 0.808127 0.309211 0.026300 -1.525000 1 6 1.000000
rebel_sheet
  6 -2.637900 3.010810 66.330101 -0.501317 0.808127 0.309211 0.026300 -1.525000 1 6 1.000000
  6 -1.300600 3.764110 65.820999 -0.338696 0.931088 -0.135498 0.017200 -1.519000 1 6 1.000000
  6 -2.801300 3.004111 66.082802 -0.686194 0.721294 -0.094199 0.024700 -1.526600 1 6 1.000000
rebel_sheet
  6 -2.637900 3.010810 66.330101 -0.501317 0.808127 0.309211 0.026300 -1.525000 1 6 1.000000
  6 -1.233300 3.704811 66.143402 -0.298788 0.925163 0.234091 0.019200 -1.517200 1 6 1.000000
  6 -1.300600 3.764110 65.820999 -0.338696 0.931088 -0.135498 0.017200 -1.519000 1 6 1.000000
rebel_sheet
  6 0.000000 4.045610 65.768204 0.009700 0.985807 -0.167601 0.011200 -1.509700 1 6 1.000000
  6 -1.300600 3.764110 65.820999 -0.338696 0.931088 -0.135498 0.017200 -1.519000 1 6 1.000000
  6 -1.233300 3.704811 66.143402 -0.298788 0.925163 0.234091 0.019200 -1.517200 1 6 1.000000
rebel_sheet
  6 0.000000 4.045610 65.768204 0.009700 0.985807 -0.167601 0.011200 -1.509700 1 6 1.000000
  6 -1.233300 3.704811 66.143402 -0.298788 0.925163 0.234091 0.019200 -1.517200 1 6 1.000000
  6 0.000000 3.969110 66.073601 0.002600 0.970474 0.241193 0.013400 -1.508400 1 6 1.000000
rebel_sheet
  6 -2.801300 3.004111 66.082802 -0.686194 0.721294 -0.094199 0.024700 -1.526600 1 6 1.000000
  6 -1.351100 3.081410 64.665802 -0.211701 0.247401 -0.945503 0.008400 -1.527500 1 6 1.000000
  6 -2.476900 2.424510 64.877098 -0.336896 -0.102099 -0.935990 0.016900 -1.536200 1 6 1.000000
rebel_sheet
  6 -3.754200 0.941809 66.108398 -0.774820 -0.175905 -0.607216 0.029600 -1.547300 1 6 1.000000
  6 -2.801300 3.004111 66.082802 -0.686194 0.721294 -0.094199 0.024700 -1.526600 1 6 1.000000
  6 -2.476900 2.424510 64.877098 -0.336896 -0.102099 -0.935990 0.016900 -1.536200 1 6 1.000000
rebel_sheet
  6 -3.754200 0.941809 66.108398 -0.774820 -0.175905 -0.607216 0.029600 -1.547300 1 6 1.000000
  6 -3.847800 1.313310 67.400902 -0.966005 0.212801 0.146801 0.036900 -1.539600 1 6 1.000000
  6 -2.801300 3.004111 66.082802 -0.686194 0.721294 -0.094199 0.024700 -1.526600 1 6 1.000000
rebel_sheet
  6 -3.200200 -1.487992 68.976898 -0.953829 -0.264608 0.142104 0.054600 -1.549400 1 6 1.000000
  6 -3.847800 1.313310 67.400902 -0.966005 0.212801 0.146801 0.036900 -1.539600 1 6 1.000000
  6 -3.754200 0.941809 66.108398 -0.774820 -0.175905 -0.607216 0.029600 -1.547300 1 6 1.000000
rebel_sheet
  6 -3.184600 -1.408591 69.100510 -0.945920 -0.196904 0.257806 0.056400 -1.547800 1 6 1.000000
  6 -3.847800 1.313310 67.400902 -0.966005 0.212801 0.146801 0.036900 -1.539600 1 6 1.000000
  6 -3.200200 -1.487992 68.976898 -0.953829 -0.264608 0.142104 0.054600 -1.549400 1 6 1.000000
rebel_sheet
  6 -2.237900 -3.107091 70.363205 -0.663489 -0.175597 0.727288 0.077500 -1.555200 1 6 1.000000
  6 -3.184600 -1.408591 69.100510 -0.945920 -0.196904 0.257806 0.056400 -1.547800 1 6 1.000000
  6 -3.200200 -1.487992 68.976898 -0.953829 -0.264608 0.142104 0.054600 -1.549400 1 6 1.000000
rebel_sheet
  6 -2.237900 -3.107091 70.363205 -0.663489 -0.175597 0.727288 0.077500 -1.555200 1 6 1.000000
  6 -3.200200 -1.487992 68.976898 -0.953829 -0.264608 0.142104 0.054600 -1.549400 1 6 1.000000
  6 -2.353600 -3.188492 70.240402 -0.806029 -0.371313 0.460916 0.076400 -1.557300 1 6 1.000000
rebel_sheet
  6 -2.353600 -3.188492 70.240402 -0.806029 -0.371313 0.460916 0.076400 -1.557300 1 6 1.000000
  6 -1.072200 -3.860593 70.920097 -0.289689 0.032599 0.956565 0.088900 -1.557600 1 6 1.000000
  6 -2.237900 -3.107091 70.363205 -0.663489 -0.175597 0.727288 0.077500 -1.555200 1 6 1.000000
rebel_sheet
  6 -2.353600 -3.188492 70.240402 -0.806029 -0.371313 0.460916 0.076400 -1.557300 1 6 1.000000
  6 -1.147900 -4.112191 70.909302 -0.413601 -0.595502 0.688703 0.088900 -1.559500 1 6 1.000000
  6 -1.072200 -3.860593 70.920097 -0.289689 0.032599 0.956565 0.088900 -1.557600 1 6 1.000000
rebel_sheet
  6 -1.147900 -4.112191 70.909302 -0.413601 -0.595502 0.688703 0.088900 -1.559500 1 6 1.000000
  6 0.000000 -3.990493 71.054901 -0.000700 0.001500 0.999999 0.098500 -1.558200 1 6 1.000000
  6 -1.072200 -3.860593 70.920097 -0.289689 0.032599 0.956565 0.088900 -1.557600 1 6 1.000000
rebel_sheet
  6 -1.147900 -4.112191 70.909302 -0.413601 -0.595502 0.688703 0.088900 -1.559500 1 6 1.000000
  6 0.000000 -4.205592 71.055298 0.008600 -0.637886 0.770083 0.098500 -1.559800 1 6 1.000000
  6 0.000000 -3.990493 71.054901 -0.000700 0.001500 0.999999 0.098500 -1.558200 1 6 1.000000
rebel_sheet
  6 1.072200 -3.860593 70.920097 0.350004 -0.021100 0.936511 0.108200 -1.557600 1 6 1.000000
  6 0.000000 -3.990493 71.054901 -0.000700 0.001500 0.999999 0.098500 -1.558200 1 6 1.000000
  6 0.000000 -4.205592 71.055298 0.008600 -0.637886 0.770083 0.098500 -1.559800 1 6 1.000000
rebel_sheet
  6 1.072200 -3.860593 70.920097 0.350004 -0.021100 0.936511 0.108200 -1.557600 1 6 1.000000
  6 0.000000 -4.205592 71.055298 0.008600 -0.637886 0.770083 0.098500 -1.559800 1 6 1.000000
  6 1.081900 -4.109994 70.910400 0.395716 -0.620626 0.676928 0.108200 -1.559500 1 6 1.000000
rebel_sheet
  6 2.085400 -3.099992 70.358803 0.761974 -0.188793 0.619478 0.119600 -1.555200 1 6 1.000000
  6 1.072200 -3.860593 70.920097 0.350004 -0.021100 0.936511 0.108200 -1.557600 1 6 1.000000
  6 1.081900 -4.109994 70.910400 0.395716 -0.620626 0.676928 0.108200 -1.559500 1 6 1.000000
rebel_sheet
  6 2.085400 -3.099992 70.358803 0.761974 -0.188793 0.619478 0.119600 -1.555200 1 6 1.000000
  6 1.081900 -4.109994 70.910400 0.395716 -0.620626 0.676928 0.108200 -1.559500 1 6 1.000000
  6 2.186000 -3.200293 70.198204 0.849228 -0.366712 0.379913 0.120700 -1.557300 1 6 1.000000
rebel_sheet
  6 2.186000 -3.200293 70.198204 0.849228 -0.366712 0.379913 0.120700 -1.557300 1 6 1.000000
  6 2.869800 -1.364491 69.093697 0.809205 0.075900 0.582603 0.140700 -1.547800 1 6 1.000000
  6 2.085400 -3.099992 70.358803 0.761974 -0.188793 0.619478 0.119600 -1.555200 1 6 1.000000
rebel_sheet
  6 2.186000 -3.200293 70.198204 0.849228 -0.366712 0.379913 0.120700 -1.557300 1 6 1.000000
  6 2.973300 -1.441292 68.960899 0.938355 -0.131494 0.319685 0.142500 -1.549400 1 6 1.000000
  6 2.869800 -1.364491 69.093697 0.809205 0.075900 0.582603 0.140700 -1.547800 1 6 1.000000
rebel_sheet
  6 2.973300 -1.441292 68.960899 0.938355 -0.131494 0.319685 0.142500 -1.549400 1 6 1.000000
  6 3.528200 1.214309 67.698601 0.811900 0.336300 0.477201 0.158700 -1.537900 1 6 1.000000
  6 2.869800 -1.364491 69.093697 0.809205 0.075900 0.582603 0.140700 -1.547800 1 6 1.000000
rebel_sheet
  6 2.070800 -3.704892 68.928703 0.573208 -0.724811 -0.382206 0.124300 -1.568700 1 6 1.000000
  6 1.081900 -4.109994 70.910400 0.395716 -0.620626 0.676928 0.108200 -1.559500 1 6 1.000000
  6 1.115000 -4.329294 69.385101 0.265308 -0.905526 -0.331110 0.110400 -1.570700 1 6 1.000000
rebel_sheet
  6 0.000000 -4.205592 71.055298 0.008600 -0.637886 0.770083 0.098500 -1.559800 1 6 1.000000
  6 1.115000 -4.329294 69.385101 0.265308 -0.905526 -0.331110 0.110400 -1.570700 1 6 1.000000
  6 1.081900 -4.109994 70.910400 0.395716 -0.620626 0.676928 0.108200 -1.559500 1 6 1.000000
rebel_sheet
  6 0.000000 -4.205592 71.055298 0.008600 -0.637886 0.770083 0.098500 -1.559800 1 6 1.000000
  6 0.000000 -4.496493 69.501297 0.008300 -0.943835 -0.330312 0.098500 -1.571600 1 6 1.000000
  6 1.115000 -4.329294 69.385101 0.265308 -0.905526 -0.331110 0.110400 -1.570700 1 6 1.000000
rebel_sheet
  6 -1.147900 -4.112191 70.909302 -0.413601 -0.595502 0.688703 0.088900 -1.559500 1 6 1.000000
  6 0.000000 -4.496493 69.501297 0.008300 -0.943835 -0.330312 0.098500 -1.571600 1 6 1.000000
  6 0.000000 -4.205592 71.055298 0.008600 -0.637886 0.770083 0.098500 -1.559800 1 6 1.000000
rebel_sheet
  6 -1.147900 -4.112191 70.909302 -0.413601 -0.595502 0.688703 0.088900 -1.559500 1 6 1.000000
  6 -1.115000 -4.329293 69.385101 -0.268791 -0.902772 -0.335789 0.086700 -1.570700 1 6 1.000000
  6 0.000000 -4.496493 69.501297 0.008300 -0.943835 -0.330312 0.098500 -1.571600 1 6 1.000000
rebel_sheet
  6 -1.115000 -4.329293 69.385101 -0.268791 -0.902772 -0.335789 0.086700 -1.570700 1 6 1.000000
  6 -1.147900 -4.112191 70.909302 -0.413601 -0.595502 0.688703 0.088900 -1.559500 1 6 1.000000
  6 -2.353600 -3.188492 70.240402 -0.806029 -0.371313 0.460916 0.076400 -1.557300 1 6 1.000000
rebel_sheet
  6 -1.115000 -4.329293 69.385101 -0.268791 -0.902772 -0.335789 0.086700 -1.570700 1 6 1.000000
  6 -2.353600 -3.188492 70.240402 -0.806029 -0.371313 0.460916 0.076400 -1.557300 1 6 1.000000
  6 -2.237300 -3.707294 68.927902 -0.549177 -0.760768 -0.345885 0.072800 -1.568700 1 6 1.000000
rebel_sheet
  6 -2.353600 -3.188492 70.240402 -0.806029 -0.371313 0.460916 0.076400 -1.557300 1 6 1.000000
  6 -3.068700 -1.989491 67.676804 -0.639014 -0.556113 -0.531412 0.050800 -1.559700 1 6 1.000000
  6 -2.237300 -3.707294 68.927902 -0.549177 -0.760768 -0.345885 0.072800 -1.568700 1 6 1.000000
rebel_sheet
  6 -2.353600 -3.188492 70.240402 -0.806029 -0.371313 0.460916 0.076400 -1.557300 1 6 1.000000
  6 -3.200200 -1.487992 68.976898 -0.953829 -0.264608 0.142104 0.054600 -1.549400 1 6 1.000000
  6 -3.068700 -1.989491 67.676804 -0.639014 -0.556113 -0.531412 0.050800 -1.559700 1 6 1.000000
rebel_sheet
  6 -3.200200 -1.487992 68.976898 -0.953829 -0.264608 0.142104 0.054600 -1.549400 1 6 1.000000
  6 -3.754200 0.941809 66.108398 -0.774820 -0.175905 -0.607216 0.029600 -1.547300 1 6 1.000000
  6 -3.068700 -1.989491 67.676804 -0.639014 -0.556113 -0.531412 0.050800 -1.559700 1 6 1.000000
rebel_sheet
  6 2.973300 -1.441292 68.960899 0.938355 -0.131494 0.319685 0.142500 -1.549400 1 6 1.000000
  6 3.661400 1.186810 67.490898 0.948376 0.250894 0.193995 0.160200 -1.539600 1 6 1.000000
  6 3.528200 1.214309 67.698601 0.811900 0.336300 0.477201 0.158700 -1.537900 1 6 1.000000
rebel_sheet
  6 2.435900 3.041411 66.330101 0.534991 0.777788 0.329895 0.170800 -1.525000 1 6 1.000000
  6 3.528200 1.214309 67.698601 0.811900 0.336300 0.477201 0.158700 -1.537900 1 6 1.000000
  6 3.661400 1.186810 67.490898 0.948376 0.250894 0.193995 0.160200 -1.539600 1 6 1.000000
rebel_sheet
  6 2.435900 3.041411 66.330101 0.534991 0.777788 0.329895 0.170800 -1.525000 1 6 1.000000
  6 3.661400 1.186810 67.490898 0.948376 0.250894 0.193995 0.160200 -1.539600 1 6 1.000000
  6 2.599300 3.034611 66.082802 0.714462 0.697864 -0.050297 0.172400 -1.526600 1 6 1.000000
rebel_sheet
  6 2.599300 3.034611 66.082802 0.714462 0.697864 -0.050297 0.172400 -1.526600 1 6 1.000000
  6 1.233300 3.704811 66.143402 0.314383 0.919650 0.235387 0.177900 -1.517200 1 6 1.000000
  6 2.435900 3.041411 66.330101 0.534991 0.777788 0.329895 0.170800 -1.525000 1 6 1.000000
rebel_sheet
  6 2.599300 3.034611 66.082802 0.714462 0.697864 -0.050297 0.172400 -1.526600 1 6 1.000000
  6 1.300600 3.764112 65.820999 0.349611 0.925731 -0.144205 0.179900 -1.519000 1 6 1.000000
  6 1.233300 3.704811 66.143402 0.314383 0.919650 0.235387 0.177900 -1.517200 1 6 1.000000
rebel_sheet
  6 0.000000 3.969110 66.073601 0.002600 0.970474 0.241193 0.183700 -1.508400 1 6 1.000000
  6 1.233300 3.704811 66.143402 0.314383 0.919650 0.235387 0.177900 -1.517200 1 6 1.000000
  6 1.300600 3.764112 65.820999 0.349611 0.925731 -0.144205 0.179900 -1.519000 1 6 1.000000
rebel_sheet
  6 0.000000 3.969110 66.073601 0.002600 0.970474 0.241193 0.183700 -1.508400 1 6 1.000000
  6 1.300600 3.764112 65.820999 0.349611 0.925731 -0.144205 0.179900 -1.519000 1 6 1.000000
  6 0.000000 4.045610 65.768204 0.009700 0.985807 -0.167601 0.185900 -1.509700 1 6 1.000000
rebel_sheet
  6 0.000000 3.301610 64.669601 0.009300 0.295289 -0.955363 0.194600 -1.516700 1 6 1.000000
  6 0.000000 4.045610 65.768204 0.009700 0.985807 -0.167601 0.185900 -1.509700 1 6 1.000000
  6 1.300600 3.764112 65.820999 0.349611 0.925731 -0.144205 0.179900 -1.519000 1 6 1.000000
rebel_sheet
  6 0.000000 3.301610 64.669601 0.009300 0.295289 -0.955363 0.194600 -1.516700 1 6 1.000000
  6 1.300600 3.764112 65.820999 0.349611 0.925731 -0.144205 0.179900 -1.519000 1 6 1.000000
  6 1.351100 3.081410 64.665802 0.203393 0.282791 -0.937369 0.188700 -1.527500 1 6 1.000000
rebel_sheet
  6 2.476900 2.424511 64.877098 0.495712 0.091802 -0.863621 0.180200 -1.536200 1 6 1.000000
  6 1.351100 3.081410 64.665802 0.203393 0.282791 -0.937369 0.188700 -1.527500 1 6 1.000000
  6 1.300600 3.764112 65.820999 0.349611 0.925731 -0.144205 0.179900 -1.519000 1 6 1.000000
rebel_sheet
  6 2.476900 2.424511 64.877098 0.495712 0.091802 -0.863621 0.180200 -1.536200 1 6 1.000000
  6 1.300600 3.764112 65.820999 0.349611 0.925731 -0.144205 0.179900 -1.519000 1 6 1.000000
  6 2.599300 3.034611 66.082802 0.714462 0.697864 -0.050297 0.172400 -1.526600 1 6 1.000000
rebel_sheet
  6 2.476900 2.424511 64.877098 0.495712 0.091802 -0.863621 0.180200 -1.536200 1 6 1.000000
  6 2.599300 3.034611 66.082802 0.714462 0.697864 -0.050297 0.172400 -1.526600 1 6 1.000000
  6 3.661400 1.186810 67.490898 0.948376 0.250894 0.193995 0.160200 -1.539600 1 6 1.000000
rebel_sheet
  6 2.476900 2.424511 64.877098 0.495712 0.091802 -0.863621 0.180200 -1.536200 1 6 1.000000
  6 3.661400 1.186810 67.490898 0.948376 0.250894 0.193995 0.160200 -1.539600 1 6 1.000000
  6 3.610600 0.765809 66.108498 0.811301 -0.172500 -0.558601 0.167500 -1.547300 1 6 1.000000
rebel_sheet
  6 2.846200 -1.986891 67.678497 0.639724 -0.566621 -0.519320 0.146300 -1.559700 1 6 1.000000
  6 3.610600 0.765809 66.108498 0.811301 -0.172500 -0.558601 0.167500 -1.547300 1 6 1.000000
  6 3.661400 1.186810 67.490898 0.948376 0.250894 0.193995 0.160200 -1.539600 1 6 1.000000
rebel_sheet
  6 2.846200 -1.986891 67.678497 0.639724 -0.566621 -0.519320 0.146300 -1.559700 1 6 1.000000
  6 3.661400 1.186810 67.490898 0.948376 0.250894 0.193995 0.160200 -1.539600 1 6 1.000000
  6 2.973300 -1.441292 68.960899 0.938355 -0.131494 0.319685 0.142500 -1.549400 1 6 1.000000
rebel_sheet
  6 2.070800 -3.704892 68.928703 0.573208 -0.724811 -0.382206 0.124300 -1.568700 1 6 1.000000
  6 2.846200 -1.986891 67.678497 0.639724 -0.566621 -0.519320 0.146300 -1.559700 1 6 1.000000
  6 2.973300 -1.441292 68.960899 0.938355 -0.131494 0.319685 0.142500 -1.549400 1 6 1.000000
rebel_sheet
  6 2.070800 -3.704892 68.928703 0.573208 -0.724811 -0.382206 0.124300 -1.568700 1 6 1.000000
  6 2.973300 -1.441292 68.960899 0.938355 -0.131494 0.319685 0.142500 -1.549400 1 6 1.000000
  6 2.186000 -3.200293 70.198204 0.849228 -0.366712 0.379913 0.120700 -1.557300 1 6 1.000000
rebel_sheet
  6 2.070800 -3.704892 68.928703 0.573208 -0.724811 -0.382206 0.124300 -1.568700 1 6 1.000000
  6 2.186000 -3.200293 70.198204 0.849228 -0.366712 0.379913 0.120700 -1.557300 1 6 1.000000
  6 1.081900 -4.109994 70.910400 0.395716 -0.620626 0.676928 0.108200 -1.559500 1 6 1.000000
rebel_sheet
  6 2.476900 2.424511 64.877098 0.495712 0.091802 -0.863621 0.237900 -1.565400 1 6 1.000000
  6 1.682000 -1.986891 67.676498 -0.003900 -0.556103 -0.831104 0.231900 -1.531700 1 6 1.000000
  6 1.351100 3.081410 64.665802 0.203393 0.282791 -0.937369 0.229300 -1.570400 1 6 1.000000
rebel_sheet
  6 0.000000 -1.986891 67.676697 -0.003300 -0.545688 -0.837982 0.219100 -1.535000 1 6 1.000000
  6 1.351100 3.081410 64.665802 0.203393 0.282791 -0.937369 0.229300 -1.570400 1 6 1.000000
  6 1.682000 -1.986891 67.676498 -0.003900 -0.556103 -0.831104 0.231900 -1.531700 1 6 1.000000
rebel_sheet
  6 0.000000 -1.986891 67.676697 -0.003300 -0.545688 -0.837982 0.219100 -1.535000 1 6 1.000000
  6 0.000000 3.301610 64.669601 0.009300 0.295289 -0.955363 0.219100 -1.571700 1 6 1.000000
  6 1.351100 3.081410 64.665802 0.203393 0.282791 -0.937369 0.229300 -1.570400 1 6 1.000000
rebel_sheet
  6 -1.648700 -1.986992 67.676903 0.003500 -0.547383 -0.836875 0.206300 -1.531700 1 6 1.000000
  6 0.000000 3.301610 64.669601 0.009300 0.295289 -0.955363 0.219100 -1.571700 1 6 1.000000
  6 0.000000 -1.986891 67.676697 -0.003300 -0.545688 -0.837982 0.219100 -1.535000 1 6 1.000000
rebel_sheet
  6 -1.648700 -1.986992 67.676903 0.003500 -0.547383 -0.836875 0.206300 -1.531700 1 6 1.000000
  6 -1.351100 3.081410 64.665802 -0.211701 0.247401 -0.945503 0.208800 -1.570400 1 6 1.000000
  6 0.000000 3.301610 64.669601 0.009300 0.295289 -0.955363 0.219100 -1.571700 1 6 1.000000
rebel_sheet
  6 -1.351100 3.081410 64.665802 -0.211701 0.247401 -0.945503 0.208800 -1.570400 1 6 1.000000
  6 -3.754200 0.941809 66.108398 -0.774820 -0.175905 -0.607216 0.192100 -1.549400 1 6 1.000000
  6 -2.476900 2.424510 64.877098 -0.336896 -0.102099 -0.935990 0.200200 -1.565400 1 6 1.000000
rebel_sheet
  6 -1.351100 3.081410 64.665802 -0.211701 0.247401 -0.945503 0.208800 -1.570400 1 6 1.000000
  6 -3.068700 -1.989491 67.676804 -0.639014 -0.556113 -0.531412 0.193800 -1.525900 1 6 1.000000
  6 -3.754200 0.941809 66.108398 -0.774820 -0.175905 -0.607216 0.192100 -1.549400 1 6 1.000000
rebel_sheet
  6 -1.351100 3.081410 64.665802 -0.211701 0.247401 -0.945503 0.208800 -1.570400 1 6 1.000000
  6 -1.648700 -1.986992 67.676903 0.003500 -0.547383 -0.836875 0.206300 -1.531700 1 6 1.000000
  6 -3.068700 -1.989491 67.676804 -0.639014 -0.556113 -0.531412 0.193800 -1.525900 1 6 1.000000
rebel_sheet
  6 -3.068700 -1.989491 67.676804 -0.639014 -0.556113 -0.531412 0.193800 -1.525900 1 6 1.000000
  6 -1.648700 -1.986992 67.676903 0.003500 -0.547383 -0.836875 0.206300 -1.531700 1 6 1.000000
  6 -1.115000 -4.329293 69.385101 -0.268791 -0.902772 -0.335789 0.210600 -1.498800 1 6 1.000000
rebel_sheet
  6 -1.115000 -4.329293 69.385101 -0.268791 -0.902772 -0.335789 0.210600 -1.498800 1 6 1.000000
  6 -1.648700 -1.986992 67.676903 0.003500 -0.547383 -0.836875 0.206300 -1.531700 1 6 1.000000
  6 0.000000 -1.986891 67.676697 -0.003300 -0.545688 -0.837982 0.219100 -1.535000 1 6 1.000000
rebel_sheet
  6 -1.115000 -4.329293 69.385101 -0.268791 -0.902772 -0.335789 0.210600 -1.498800 1 6 1.000000
  6 0.000000 -1.986891 67.676697 -0.003300 -0.545688 -0.837982 0.219100 -1.535000 1 6 1.000000
  6 0.000000 -4.496493 69.501297 0.008300 -0.943835 -0.330312 0.219100 -1.497300 1 6 1.000000
rebel_sheet
  6 0.000000 -4.496493 69.501297 0.008300 -0.943835 -0.330312 0.219100 -1.497300 1 6 1.000000
  6 0.000000 -1.986891 67.676697 -0.003300 -0.545688 -0.837982 0.219100 -1.535000 1 6 1.000000
  6 1.682000 -1.986891 67.676498 -0.003900 -0.556103 -0.831104 0.231900 -1.531700 1 6 1.000000
rebel_sheet
  6 0.000000 -4.496493 69.501297 0.008300 -0.943835 -0.330312 0.219100 -1.497300 1 6 1.000000
  6 1.682000 -1.986891 67.676498 -0.003900 -0.556103 -0.831104 0.231900 -1.531700 1 6 1.000000
  6 1.115000 -4.329294 69.385101 0.265308 -0.905526 -0.331110 0.227500 -1.498800 1 6 1.000000
rebel_sheet
  6 2.070800 -3.704892 68.928703 0.573208 -0.724811 -0.382206 0.236700 -1.505500 1 6 1.000000
  6 1.115000 -4.329294 69.385101 0.265308 -0.905526 -0.331110 0.227500 -1.498800 1 6 1.000000
  6 1.682000 -1.986891 67.676498 -0.003900 -0.556103 -0.831104 0.231900 -1.531700 1 6 1.000000
rebel_sheet
  6 2.070800 -3.704892 68.928703 0.573208 -0.724811 -0.382206 0.236700 -1.505500 1 6 1.000000
  6 1.682000 -1.986891 67.676498 -0.003900 -0.556103 -0.831104 0.231900 -1.531700 1 6 1.000000
  6 2.846200 -1.986891 67.678497 0.639724 -0.566621 -0.519320 0.244300 -1.525900 1 6 1.000000
rebel_sheet
  6 2.476900 2.424511 64.877098 0.495712 0.091802 -0.863621 0.237900 -1.565400 1 6 1.000000
  6 2.846200 -1.986891 67.678497 0.639724 -0.566621 -0.519320 0.244300 -1.525900 1 6 1.000000
  6 1.682000 -1.986891 67.676498 -0.003900 -0.556103 -0.831104 0.231900 -1.531700 1 6 1.000000
rebel_sheet
  6 2.476900 2.424511 64.877098 0.495712 0.091802 -0.863621 0.237900 -1.565400 1 6 1.000000
  6 3.610600 0.765809 66.108498 0.811301 -0.172500 -0.558601 0.246100 -1.549400 1 6 1.000000
  6 2.846200 -1.986891 67.678497 0.639724 -0.566621 -0.519320 0.244300 -1.525900 1 6 1.000000
rebel_sheet
  6 -3.068700 -1.989491 67.676804 -0.639014 -0.556113 -0.531412 0.193800 -1.525900 1 6 1.000000
  6 -1.115000 -4.329293 69.385101 -0.268791 -0.902772 -0.335789 0.210600 -1.498800 1 6 1.000000
  6 -2.237300 -3.707294 68.927902 -0.549177 -0.760768 -0.345885 0.201400 -1.505500 1 6 1.000000
end
