"VertexLitGeneric"
{
	"$basetexture" "models/combine_armored/chestplate_super"
	"$bumpmap" "models/combine_armored/chestplate_nma"
	"$phong"     "1"
	"$phongexponent"  "5"
	"$phongboost"   "0.5"
	"$phongfresnelranges"	"[0.5 0.5 5]"
}