// Created by Crowbar 0.56
version 1
nodes
  0 "Bip01" -1
  1 "Bip01 Pelvis" 0
  2 "Bip01 Spine" 1
  3 "Bip01 Spine1" 2
  4 "Bip01 Spine2" 3
  5 "Bip01 Spine3" 4
  6 "Bip01 Neck" 5
  7 "Bip01 L Clavicle" 6
  8 "Bip01 L UpperArm" 7
  9 "Bip01 L Forearm" 8
  10 "Bip01 L Hand" 9
  11 "Bip01 L Finger0" 10
  12 "Bip01 L Finger01" 11
  13 "Bip01 L Finger02" 12
  14 "Bip01 L Finger1" 10
  15 "Bip01 L Finger11" 14
  16 "Bip01 L Finger12" 15
  17 "Bip01 L Finger2" 10
  18 "Bip01 L Finger21" 17
  19 "Bip01 L Finger22" 18
  20 "Bip01 L Finger3" 10
  21 "Bip01 L Finger31" 20
  22 "Bip01 L Finger32" 21
  23 "Bip01 L Finger4" 10
  24 "Bip01 L Finger41" 23
  25 "Bip01 L Finger42" 24
  26 "Bip01 R Clavicle" 6
  27 "Bip01 R UpperArm" 26
  28 "Bip01 R Forearm" 27
  29 "Bip01 R Hand" 28
  30 "Bip01 R Finger0" 29
  31 "Bip01 R Finger01" 30
  32 "Bip01 R Finger02" 31
  33 "Bip01 R Finger1" 29
  34 "Bip01 R Finger11" 33
  35 "Bip01 R Finger12" 34
  36 "Bip01 R Finger2" 29
  37 "Bip01 R Finger21" 36
  38 "Bip01 R Finger22" 37
  39 "Bip01 R Finger3" 29
  40 "Bip01 R Finger31" 39
  41 "Bip01 R Finger32" 40
  42 "Bip01 R Finger4" 29
  43 "Bip01 R Finger41" 42
  44 "Bip01 R Finger42" 43
  45 "Tie" 5
  46 "Tie1" 45
  47 "Tie2" 46
  48 "Tie3" 47
  49 "Tie4" 48
  50 "Tie5" 49
  51 "Tie6" 50
  52 "Tie7" 51
  53 "Tie8" 52
  54 "Bip01 L Thigh" 2
  55 "Bip01 L Calf" 54
  56 "Bip01 L Foot" 55
  57 "Bip01 L Toe0" 56
  58 "Bip01 R Thigh" 2
  59 "Bip01 R Calf" 58
  60 "Bip01 R Foot" 59
  61 "Bip01 R Toe0" 60
  62 "Coat Master" 1
  63 "Coat22" 62
  64 "Coat23" 63
  65 "Coat24" 64
  66 "Coat25" 65
  67 "Coat26" 66
  68 "Coat15" 62
  69 "Coat16" 68
  70 "Coat17" 69
  71 "Coat18" 70
  72 "Coat19" 71
  73 "Coat8" 68
  74 "Coat9" 73
  75 "Coat10" 74
  76 "Coat11" 75
  77 "Coat12" 76
  78 "Coat13" 77
  79 "Coat1" 73
  80 "Coat2" 79
  81 "Coat3" 80
  82 "Coat4" 81
  83 "Coat5" 82
  84 "Coat6" 83
  85 "Coat28" 62
  86 "Coat29" 85
  87 "Coat30" 86
  88 "Coat31" 87
  89 "Coat32" 88
  90 "Coat33" 89
  91 "Coat35" 85
  92 "Coat36" 91
  93 "Coat37" 92
  94 "Coat38" 93
  95 "Coat39" 94
  96 "Coat40" 95
  97 "Coat42" 91
  98 "Coat43" 97
  99 "Coat44" 98
  100 "Coat45" 99
  101 "Coat46" 100
  102 "Coat47" 101
  103 "Bip01 Head" 6
  104 "Bip01 Head1" 103
  105 "L_eyebrow" 104
  106 "C_eyebrow" 104
  107 "R_eyebrow" 104
  108 "R_Eye" 104
  109 "Eyelids" 104
  110 "L_Eye" 104
  111 "Mouth" 104
  112 "Needle" 29
end
skeleton
  time 0
    0 0.000920 -3.673828 22.875000 0.000002 -0.025969 -1.570918   # pos: raw   rot: raw64 (0, -0.0129842696264889, -6.10351271461834E-05, 0.999915698955157)
    1 0.270460 0.000000 0.000000 0.000000 -1.570451 -1.570795   # pos: desc_bone   rot: desc_bone
    2 3.928665 0.383633 0.000004 -0.000003 -0.000001 0.829803   # pos: bone   rot: raw64 (-9.53673861659116E-07, -9.53673861659116E-07, 0.403099821519937, 0.915156016146305)
    3 3.442966 -0.003536 0.000000 0.000000 0.000000 0.322863   # pos: bone   rot: raw64 (0, 0, 0.160731238970166, 0.986998211152946)
    4 4.441444 -0.003536 0.000000 0.000000 0.000000 0.218139   # pos: bone   rot: raw64 (0, 0, 0.108853288243633, 0.994057826103969)
    5 4.441387 -0.003537 0.000000 0.000000 0.000000 0.000000   # pos: desc_bone   rot: desc_bone
    6 4.441391 -0.002040 0.000000 0.000001 -0.026161 -0.249512   # pos: bone   rot: raw64 (-0.00162696760799045, -0.0129785475833189, -0.124422014035218, 0.992143171473981)
    7 0.039063 0.002033 1.614258 -0.838237 -0.943932 -2.172029   # pos: raw   rot: raw64 (-0.536351901840257, 0.12717050210452, -0.806063267677656, 0.215444445942899)
    8 5.073841 0.000000 0.000004 -0.949596 -0.567535 -1.308570   # pos: bone   rot: raw64 (-0.499783277614938, 0.0695151951240563, -0.621185960204143, 0.599593458860744)
    9 12.008148 0.000000 0.000000 0.000000 0.000000 -0.799582   # pos: bone   rot: raw64 (0, 0, -0.38922577418052, 0.921142386775017)
    10 10.249352 -0.000001 0.000000 -1.036807 0.022769 -0.026957   # pos: bone   rot: raw64 (-0.49528384433563, 0.0165653149770188, -0.00606631943401364, 0.868552073078152)
    11 1.181374 0.259444 -1.427525 -0.072878 0.563128 -0.134708   # pos: bone   rot: raw64 (-0.0162286681038532, 0.279399738597995, -0.0545100905847117, 0.958488949559354)
    12 0.625233 0.000001 0.000000 0.000000 0.000000 0.130867   # pos: bone   rot: raw64 (0, 0, 0.065386740976934, 0.997859997246315)
    13 1.041842 -0.000001 -0.000002 0.000000 0.000000 -0.113418   # pos: bone   rot: raw64 (0, 0, -0.0566787449461246, 0.998392467855869)
    14 3.078701 -0.001586 -0.932039 -0.018197 0.243665 -0.072124   # pos: bone   rot: raw64 (-0.00464343803241824, 0.121772708047529, -0.0346803499792337, 0.991941086649468)
    15 1.037907 0.000000 0.000000 0.000000 0.000000 0.139540   # pos: bone   rot: raw64 (0, 0, 0.0697135592872814, 0.997567050203393)
    16 1.045435 0.000000 -0.000001 0.000000 0.000000 0.139569   # pos: bone   rot: raw64 (0, 0, 0.0697278643952063, 0.997566050408134)
    17 3.037216 -0.002121 -0.118179 -0.013087 0.077414 -0.157529   # pos: bone   rot: raw64 (-0.0034732802041625, 0.0390910915894072, -0.0783700569295612, 0.996151573336021)
    18 1.172003 -0.000001 0.000000 0.000000 0.000000 0.139600   # pos: bone   rot: raw64 (0, 0, 0.0697431231769928, 0.997564983732648)
    19 1.160927 -0.000001 -0.000002 0.000000 0.000000 0.139556   # pos: bone   rot: raw64 (0, 0, 0.0697211886781746, 0.997566517004908)
    20 3.016582 -0.002115 0.630063 0.019793 -0.129399 -0.158268   # pos: bone   rot: raw64 (0.00473403704927585, -0.0652293847897602, -0.0782441719798222, 0.994786693620475)
    21 1.172903 0.000000 0.000000 0.000000 0.000000 0.139603   # pos: bone   rot: raw64 (0, 0, 0.0697450305247161, 0.997564850381721)
    22 1.106930 0.000000 0.000000 0.000000 0.000000 0.139559   # pos: bone   rot: raw64 (0, 0, 0.069723096025898, 0.997566383696124)
    23 3.018032 0.000839 1.326849 0.090046 -0.337677 -0.268240   # pos: bone   rot: raw64 (0.0215225117099229, -0.172292627195059, -0.124188363939112, 0.97694896610112)
    24 0.966919 -0.000001 0.000000 0.000000 0.000000 0.139590   # pos: bone   rot: raw64 (0, 0, 0.0697383548076845, 0.997565317093932)
    25 0.889191 0.000000 0.000000 0.000000 0.000000 0.366515   # pos: bone   rot: raw64 (0, 0, 0.182233723528994, 0.983255241536377)
    26 -0.039032 0.002048 -1.614258 1.156884 1.156584 -1.759138   # pos: raw   rot: raw64 (0.644473722231997, -0.0609769530406222, -0.73072493995431, 0.216740616126943)
    27 4.700061 0.000000 -0.000004 1.040821 -0.151119 -0.761412   # pos: bone   rot: raw64 (0.435982496269943, -0.245038869362417, -0.286617142383031, 0.817144925420212)
    28 12.049675 0.000000 0.000000 0.000000 0.000000 -1.828423   # pos: bone   rot: raw64 (0, 0, -0.792081455191872, 0.610415406375958)
    29 10.341690 0.000001 0.000000 1.108412 0.234485 0.023719   # pos: bone   rot: raw64 (0.521439303665493, 0.105656573459352, -0.0515403501795053, 0.84515166294639)
    30 1.183586 0.034757 1.438863 -0.045688 -0.624214 0.232733   # pos: bone   rot: raw64 (0.0140504770038238, -0.307432028087603, 0.103499363184279, 0.945820286324182)
    31 0.607801 -0.000001 0.000000 0.000000 0.000000 0.000000   # pos: desc_bone   rot: desc_bone
    32 1.063065 -0.000001 0.000000 0.000000 0.000000 0.000000   # pos: desc_bone   rot: desc_bone
    33 2.980022 0.000245 0.949515 0.145929 -0.259213 -0.402775   # pos: bone   rot: raw64 (0.0450439238338834, -0.140754632589992, -0.188591867164675, 0.970871920476355)
    34 1.136772 0.000001 -0.000001 0.000000 0.000000 0.636978   # pos: bone   rot: raw64 (0, 0, 0.313132136758739, 0.949709568725569)
    35 0.915119 -0.000001 -0.000001 0.000000 0.000000 0.619495   # pos: bone   rot: raw64 (0, 0, 0.304818008032795, 0.952410616267437)
    36 2.949263 0.002913 0.177524 -0.005201 0.016646 -0.349064   # pos: bone   rot: raw64 (-0.00111579841814117, 0.00864791457752486, -0.173619187536627, 0.984774261588143)
    37 1.294392 -0.000001 -0.000001 0.000000 0.000000 0.645763   # pos: bone   rot: raw64 (0, 0, 0.317300645208051, 0.948324997324522)
    38 1.183920 0.000001 0.000000 0.000000 0.000000 0.183153   # pos: bone   rot: raw64 (0, 0, 0.0914487402683543, 0.995809785000796)
    39 2.929024 0.004853 -0.564109 -0.126605 0.229316 -0.415172   # pos: bone   rot: raw64 (-0.0379638490849261, 0.124678552304005, -0.197253133176263, 0.971650763500025)
    40 1.243109 -0.000001 0.000000 0.000000 0.000000 0.654412   # pos: bone   rot: raw64 (0, 0, 0.3213985817916, 0.946944006592971)
    41 1.045437 -0.000001 0.000000 0.000000 0.000000 0.287881   # pos: bone   rot: raw64 (0, 0, 0.143443992879871, 0.989658436485376)
    42 2.925028 0.005853 -1.260346 -0.183456 0.445184 -0.317804   # pos: bone   rot: raw64 (-0.053429578099452, 0.231197246934296, -0.133714612143225, 0.962192036806325)
    43 1.019745 0.000000 0.000000 0.000000 0.000000 0.436316   # pos: bone   rot: raw64 (0, 0, 0.216431514534228, 0.976297802679295)
    44 0.829235 0.000000 0.000000 0.000000 0.000000 0.287877   # pos: bone   rot: raw64 (0, 0, 0.143442085532148, 0.989658712940066)
    45 2.738956 3.890889 0.113747 0.000000 -1.570796 3.097163   # pos: desc_bone   rot: desc_bone
    46 0.000000 0.000000 -0.000004 -0.663104 0.000000 0.000000   # pos: raw   rot: raw64 (-0.325510823483074, 0, 0, 0.945538314292642)
    47 0.000000 -1.023438 -1.921875 -0.139596 0.000000 0.000000   # pos: raw   rot: raw64 (-0.0697412158292695, 0, 0, 0.99756511707991)
    48 0.000000 -0.558105 -1.804688 -0.418847 0.000000 0.000000   # pos: raw   rot: raw64 (-0.207896133472379, 0, 0, 0.97815090742034)
    49 0.000000 -0.325684 -1.928711 0.000000 0.000000 0.000000   # pos: raw   rot: bone
    50 0.000000 0.046509 -1.429688 0.000000 0.000000 0.000000   # pos: raw   rot: bone
    51 0.000000 -0.000002 -1.346680 0.000000 0.000000 0.000000   # pos: raw   rot: bone
    52 0.000000 -0.046509 -2.134766 0.000000 0.000000 0.000000   # pos: raw   rot: bone
    53 0.000000 -0.279053 -2.150391 0.000000 0.000000 0.000000   # pos: raw   rot: bone
    54 -2.941406 2.636719 3.416016 -3.111381 -0.249154 0.993557   # pos: raw   rot: raw64 (-0.871315540640096, -0.47449852252077, -0.102079342804268, 0.0723891465436065)
    55 19.302958 0.000000 0.000000 0.000000 0.000000 -1.082879   # pos: bone   rot: raw64 (0, 0, -0.515370123209895, 0.856967698400948)
    56 15.657714 0.000000 0.000000 -0.232933 -0.078593 -0.293049   # pos: bone   rot: raw64 (-0.12056631061253, -0.0216493503335236, -0.14941589860158, 0.981157459137167)
    57 3.741828 7.474069 0.000000 0.000000 0.000000 1.570796   # pos: desc_bone   rot: desc_bone
    58 -2.941406 2.628906 -3.416016 3.022859 0.222211 1.004974   # pos: raw   rot: raw64 (0.866281096324398, 0.483559377880393, -0.0686015755645868, 0.104981970094787)
    59 19.302956 0.000000 0.000000 0.000000 0.000000 -1.683772   # pos: bone   rot: raw64 (0, 0, -0.745900752114891, 0.666057105655694)
    60 15.657715 0.000000 0.000000 0.409284 0.162092 0.320843   # pos: bone   rot: raw64 (0.187287241321925, 0.110604233453639, 0.139647417236606, 0.966016972749082)
    61 3.741827 7.351522 0.000000 0.000000 0.000000 1.570796   # pos: desc_bone   rot: desc_bone
    62 3.610321 -4.629949 0.120559 0.000000 -1.570796 3.141592   # pos: desc_bone   rot: desc_bone
    63 0.020905 -0.868164 -2.876953 0.000000 0.000000 0.000000   # pos: raw   rot: bone
    64 -0.019348 0.195923 -1.416992 1.025933 -0.072756 0.095672   # pos: raw   rot: raw64 (0.491393808653923, -0.00820064153640674, 0.0594644262960309, 0.868866420285804)
    65 -0.211548 0.157959 -1.340820 0.000000 0.000000 0.000000   # pos: raw   rot: bone
    66 -0.054993 -0.593262 -1.348633 0.000000 0.000000 0.000000   # pos: raw   rot: bone
    67 -0.483398 -0.673340 -1.858398 0.000000 0.000000 0.000000   # pos: raw   rot: bone
    68 -4.333785 -0.761639 0.000000 0.000000 0.000000 0.000000   # pos: desc_bone   rot: desc_bone
    69 -0.098999 -0.968262 -2.763672 0.127545 -0.003557 -0.056914   # pos: raw   rot: raw64 (0.0636529618964377, -0.00358772106756159, -0.0282821520413627, 0.99756480921054)
    70 -0.261963 0.261719 -1.737305 0.611347 0.139051 -0.026065   # pos: raw   rot: raw64 (0.301046227909933, 0.0623311699241782, -0.0333022912491363, 0.950987356022488)
    71 -0.137329 -0.947266 -0.970215 0.424930 0.254034 -0.013290   # pos: raw   rot: raw64 (0.209989447598721, 0.122434557707521, -0.0331544718005792, 0.969440556184737)
    72 -0.288086 -0.594727 -0.336914 0.178355 0.064580 -0.027816   # pos: raw   rot: raw64 (0.0894517472020401, 0.0309152455734036, -0.0167198101426076, 0.99537082560342)
    73 -3.828125 -3.619141 -0.000002 0.000000 0.000000 -0.828936   # pos: raw   rot: raw64 (0, 0, -0.402703093193487, 0.915330660872014)
    74 -0.091187 -0.175415 -2.548828 0.193985 0.073547 -0.085077   # pos: raw   rot: raw64 (0.0982436665326755, 0.0324439847736431, -0.0458545466162936, 0.993575830217723)
    75 0.105164 -0.671875 -1.987305 0.524661 0.401093 0.051818   # pos: raw   rot: raw64 (0.249065280406341, 0.198908711000103, -0.0271243919733086, 0.947452414712457)
    76 0.100891 -0.607422 -2.300781 0.112545 0.365086 0.001221   # pos: raw   rot: raw64 (0.055197689438968, 0.18127718864575, -0.00961017150393891, 0.981834731796017)
    77 -0.307617 0.451904 -2.757813 0.067664 0.020470 -0.039754   # pos: raw   rot: raw64 (0.0340204076669656, 0.00955485841996268, -0.0202093028024183, 0.999171106779509)
    78 -0.313721 -0.763184 -2.685547 0.000000 0.000000 0.000000   # pos: raw   rot: bone
    79 1.358692 -4.612459 -0.000004 0.037052 0.131740 -0.123881   # pos: bone   rot: raw64 (0.0225229155908033, 0.0645408322616423, -0.0629729924330747, 0.995671432485781)
    80 -0.243530 -0.144165 -2.505859 -0.088978 -0.030224 0.020969   # pos: raw   rot: raw64 (-0.0443086412865442, -0.0155620500745535, 0.00980090627627074, 0.998848591699954)
    81 -0.367432 -0.082031 -2.169922 -0.052408 -0.034265 0.026848   # pos: raw   rot: raw64 (-0.0259647245575311, -0.0174760735149033, 0.0129680571708407, 0.999425959952195)
    82 -0.273926 -0.365479 -0.524902 -0.221908 -0.232905 0.204898   # pos: raw   rot: raw64 (-0.097590399937439, -0.126116692487386, 0.0881547507501837, 0.983259596259434)
    83 0.082825 0.646973 -1.750977 -0.090697 0.015415 -0.003672   # pos: raw   rot: raw64 (-0.0453176282321795, 0.00778293238500005, -0.00148487020260324, 0.998941206325669)
    84 -0.243408 0.279297 -2.228516 0.000000 0.000000 0.000000   # pos: raw   rot: bone
    85 4.275345 -0.770885 0.001637 0.000000 -0.462512 0.000000   # pos: bone   rot: raw64 (0, -0.229200253867982, 0, 0.973379290732473)
    86 0.085632 -0.482666 -3.630859 0.375506 0.011841 0.081950   # pos: raw   rot: raw64 (0.186253458855887, 0.0134572918618718, 0.0391387752824901, 0.981629617844404)
    87 1.805664 0.558594 0.075256 0.000000 0.000000 0.000000   # pos: raw   rot: bone
    88 -0.181030 -0.481934 -1.812500 1.297964 -0.439063 -0.007020   # pos: raw   rot: raw64 (0.589257912989658, -0.175568496909858, 0.128886161381645, 0.778035456953082)
    89 -1.209961 -0.855469 -0.973633 -0.263411 0.137499 -0.029824   # pos: raw   rot: raw64 (-0.129984793670276, 0.0700463914650004, -0.00572681153926299, 0.989022072598393)
    90 -0.365479 -0.073608 -1.917969 0.000000 0.000000 0.000000   # pos: raw   rot: bone
    91 2.622022 -3.591586 0.000000 0.000000 0.000000 0.462483   # pos: bone   rot: raw64 (0, 0, 0.229185948760057, 0.973382659025192)
    92 0.179321 -0.521484 -3.642578 0.000000 0.000000 0.000000   # pos: raw   rot: bone
    93 0.251221 -1.171875 -2.134766 0.782740 -0.550860 -0.220060   # pos: raw   rot: raw64 (0.337252456067821, -0.290184836299497, 0.00543403366373364, 0.895557933880437)
    94 -1.004883 -0.810059 -2.699219 0.336741 0.029255 0.045187   # pos: raw   rot: raw64 (0.167189518361321, 0.0182018193236259, 0.0198192501929997, 0.985557484901417)
    95 -0.647949 0.312500 -3.101563 0.189747 0.018390 0.024235   # pos: raw   rot: raw64 (0.0946092154458926, 0.0103006313797801, 0.0111913627665697, 0.995398285484417)
    96 -0.377197 -0.038483 -3.937500 0.000000 0.000000 0.000000   # pos: raw   rot: bone
    97 -1.320248 -4.644200 0.000000 0.000000 0.000000 0.000000   # pos: desc_bone   rot: desc_bone
    98 0.339355 -0.267822 -3.115234 -0.198851 0.051598 -0.046305   # pos: raw   rot: raw64 (-0.0986079699478293, 0.0279588566022603, -0.0204687020927896, 0.994522902116839)
    99 0.938965 -0.027344 -2.181641 -0.104110 0.039199 0.071668   # pos: raw   rot: raw64 (-0.0526895271828045, 0.0176954185030849, 0.0367898765612237, 0.997776122620632)
    100 0.631348 -0.017212 -2.660156 0.062724 0.085755 0.158845   # pos: raw   rot: raw64 (0.0278301106309363, 0.0451936506301638, 0.0778874979555617, 0.995548369767743)
    101 0.223022 -0.167847 -2.019531 0.275799 0.049894 0.105846   # pos: raw   rot: raw64 (0.135920459785242, 0.0319423523224104, 0.0489558940144091, 0.988993748807913)
    102 0.138184 -0.608398 -2.933594 0.000000 0.000000 0.000000   # pos: raw   rot: bone
    103 2.562344 0.000000 0.000000 0.004081 0.020189 0.491332   # pos: bone   rot: raw64 (-0.000475883256967899, 0.0102872799457169, 0.243169668593565, 0.969929099307027)
    104 8.541122 0.000000 0.000000 0.000000 0.000000 0.000000   # pos: desc_bone   rot: desc_bone
    105 -3.702484 3.207059 1.404841 0.000000 -1.570796 -3.141591   # pos: desc_bone   rot: desc_bone
    106 -3.872147 3.207061 0.113746 3.010650 -1.570747 0.000000   # pos: bone   rot: raw64 (0.705591819004145, -0.0462445992257122, 0.705591819004145, 0.0462796602331588)
    107 -3.702477 3.207063 -1.237172 0.000000 -1.570796 -3.141591   # pos: desc_bone   rot: desc_bone
    108 -4.882301 4.254779 -1.016848 1.266931 -1.504585 1.523688   # pos: bone   rot: raw64 (0.692868856015751, -0.10017199508095, 0.698861742562417, 0.146596673043931)
    109 -4.887398 4.344111 0.122031 2.862345 -1.570780 0.000000   # pos: bone   rot: raw64 (0.700225496184589, -0.0984029300675726, 0.700225496184589, 0.0984142893090627)
    110 -4.882294 4.270531 1.216630 1.266931 -1.504585 1.523688   # pos: bone   rot: raw64 (0.692868856015751, -0.10017199508095, 0.698861742562417, 0.146596673043931)
    111 -7.351521 1.350579 0.144448 3.139001 0.001496 1.727842   # pos: bone   rot: raw64 (0.649459529180751, 0.760394687464386, 0.000499725103509377, 0.00141049887494039)
    112 4.991369 -0.677071 0.532282 -1.904540 -0.172536 2.322112   # pos: desc_bone   rot: desc_bone
  time 1
    0 0.000920 -3.673828 22.875000 0.000002 -0.025969 -1.570918   # pos: raw   rot: raw64 (0, -0.0129842696264889, -6.10351271461834E-05, 0.999915698955157)
    1 0.270460 0.000000 0.000000 0.000000 -1.570451 -1.570795   # pos: desc_bone   rot: desc_bone
    2 3.928665 0.383633 0.000004 -0.000003 -0.000001 0.829803   # pos: bone   rot: raw64 (-9.53673861659116E-07, -9.53673861659116E-07, 0.403099821519937, 0.915156016146305)
    3 3.442966 -0.003536 0.000000 0.000000 0.000000 0.322863   # pos: bone   rot: raw64 (0, 0, 0.160731238970166, 0.986998211152946)
    4 4.441444 -0.003536 0.000000 0.000000 0.000000 0.218139   # pos: bone   rot: raw64 (0, 0, 0.108853288243633, 0.994057826103969)
    5 4.441387 -0.003537 0.000000 0.000000 0.000000 0.000000   # pos: desc_bone   rot: desc_bone
    6 4.441391 -0.002040 0.000000 0.000001 -0.026161 -0.249512   # pos: bone   rot: raw64 (-0.00162696760799045, -0.0129785475833189, -0.124422014035218, 0.992143171473981)
    7 0.039063 0.002033 1.614258 -0.838237 -0.943932 -2.172029   # pos: raw   rot: raw64 (-0.536351901840257, 0.12717050210452, -0.806063267677656, 0.215444445942899)
    8 5.073841 0.000000 0.000004 -0.949596 -0.567535 -1.308570   # pos: bone   rot: raw64 (-0.499783277614938, 0.0695151951240563, -0.621185960204143, 0.599593458860744)
    9 12.008148 0.000000 0.000000 0.000000 0.000000 -0.799582   # pos: bone   rot: raw64 (0, 0, -0.38922577418052, 0.921142386775017)
    10 10.249352 -0.000001 0.000000 -1.036807 0.022769 -0.026957   # pos: bone   rot: raw64 (-0.49528384433563, 0.0165653149770188, -0.00606631943401364, 0.868552073078152)
    11 1.181374 0.259444 -1.427525 -0.072878 0.563128 -0.134708   # pos: bone   rot: raw64 (-0.0162286681038532, 0.279399738597995, -0.0545100905847117, 0.958488949559354)
    12 0.625233 0.000001 0.000000 0.000000 0.000000 0.130867   # pos: bone   rot: raw64 (0, 0, 0.065386740976934, 0.997859997246315)
    13 1.041842 -0.000001 -0.000002 0.000000 0.000000 -0.113418   # pos: bone   rot: raw64 (0, 0, -0.0566787449461246, 0.998392467855869)
    14 3.078701 -0.001586 -0.932039 -0.018197 0.243665 -0.072124   # pos: bone   rot: raw64 (-0.00464343803241824, 0.121772708047529, -0.0346803499792337, 0.991941086649468)
    15 1.037907 0.000000 0.000000 0.000000 0.000000 0.139540   # pos: bone   rot: raw64 (0, 0, 0.0697135592872814, 0.997567050203393)
    16 1.045435 0.000000 -0.000001 0.000000 0.000000 0.139569   # pos: bone   rot: raw64 (0, 0, 0.0697278643952063, 0.997566050408134)
    17 3.037216 -0.002121 -0.118179 -0.013087 0.077414 -0.157529   # pos: bone   rot: raw64 (-0.0034732802041625, 0.0390910915894072, -0.0783700569295612, 0.996151573336021)
    18 1.172003 -0.000001 0.000000 0.000000 0.000000 0.139600   # pos: bone   rot: raw64 (0, 0, 0.0697431231769928, 0.997564983732648)
    19 1.160927 -0.000001 -0.000002 0.000000 0.000000 0.139556   # pos: bone   rot: raw64 (0, 0, 0.0697211886781746, 0.997566517004908)
    20 3.016582 -0.002115 0.630063 0.019793 -0.129399 -0.158268   # pos: bone   rot: raw64 (0.00473403704927585, -0.0652293847897602, -0.0782441719798222, 0.994786693620475)
    21 1.172903 0.000000 0.000000 0.000000 0.000000 0.139603   # pos: bone   rot: raw64 (0, 0, 0.0697450305247161, 0.997564850381721)
    22 1.106930 0.000000 0.000000 0.000000 0.000000 0.139559   # pos: bone   rot: raw64 (0, 0, 0.069723096025898, 0.997566383696124)
    23 3.018032 0.000839 1.326849 0.090046 -0.337677 -0.268240   # pos: bone   rot: raw64 (0.0215225117099229, -0.172292627195059, -0.124188363939112, 0.97694896610112)
    24 0.966919 -0.000001 0.000000 0.000000 0.000000 0.139590   # pos: bone   rot: raw64 (0, 0, 0.0697383548076845, 0.997565317093932)
    25 0.889191 0.000000 0.000000 0.000000 0.000000 0.366515   # pos: bone   rot: raw64 (0, 0, 0.182233723528994, 0.983255241536377)
    26 -0.039032 0.002048 -1.614258 1.156884 1.156584 -1.759138   # pos: raw   rot: raw64 (0.644473722231997, -0.0609769530406222, -0.73072493995431, 0.216740616126943)
    27 4.700061 0.000000 -0.000004 1.040821 -0.151119 -0.761412   # pos: bone   rot: raw64 (0.435982496269943, -0.245038869362417, -0.286617142383031, 0.817144925420212)
    28 12.049675 0.000000 0.000000 0.000000 0.000000 -1.828423   # pos: bone   rot: raw64 (0, 0, -0.792081455191872, 0.610415406375958)
    29 10.341690 0.000001 0.000000 1.108412 0.234485 0.023719   # pos: bone   rot: raw64 (0.521439303665493, 0.105656573459352, -0.0515403501795053, 0.84515166294639)
    30 1.183586 0.034757 1.438863 -0.045688 -0.624214 0.232733   # pos: bone   rot: raw64 (0.0140504770038238, -0.307432028087603, 0.103499363184279, 0.945820286324182)
    31 0.607801 -0.000001 0.000000 0.000000 0.000000 0.000000   # pos: desc_bone   rot: desc_bone
    32 1.063065 -0.000001 0.000000 0.000000 0.000000 0.000000   # pos: desc_bone   rot: desc_bone
    33 2.980022 0.000245 0.949515 0.145929 -0.259213 -0.402775   # pos: bone   rot: raw64 (0.0450439238338834, -0.140754632589992, -0.188591867164675, 0.970871920476355)
    34 1.136772 0.000001 -0.000001 0.000000 0.000000 0.636978   # pos: bone   rot: raw64 (0, 0, 0.313132136758739, 0.949709568725569)
    35 0.915119 -0.000001 -0.000001 0.000000 0.000000 0.619495   # pos: bone   rot: raw64 (0, 0, 0.304818008032795, 0.952410616267437)
    36 2.949263 0.002913 0.177524 -0.005201 0.016646 -0.349064   # pos: bone   rot: raw64 (-0.00111579841814117, 0.00864791457752486, -0.173619187536627, 0.984774261588143)
    37 1.294392 -0.000001 -0.000001 0.000000 0.000000 0.645763   # pos: bone   rot: raw64 (0, 0, 0.317300645208051, 0.948324997324522)
    38 1.183920 0.000001 0.000000 0.000000 0.000000 0.183153   # pos: bone   rot: raw64 (0, 0, 0.0914487402683543, 0.995809785000796)
    39 2.929024 0.004853 -0.564109 -0.126605 0.229316 -0.415172   # pos: bone   rot: raw64 (-0.0379638490849261, 0.124678552304005, -0.197253133176263, 0.971650763500025)
    40 1.243109 -0.000001 0.000000 0.000000 0.000000 0.654412   # pos: bone   rot: raw64 (0, 0, 0.3213985817916, 0.946944006592971)
    41 1.045437 -0.000001 0.000000 0.000000 0.000000 0.287881   # pos: bone   rot: raw64 (0, 0, 0.143443992879871, 0.989658436485376)
    42 2.925028 0.005853 -1.260346 -0.183456 0.445184 -0.317804   # pos: bone   rot: raw64 (-0.053429578099452, 0.231197246934296, -0.133714612143225, 0.962192036806325)
    43 1.019745 0.000000 0.000000 0.000000 0.000000 0.436316   # pos: bone   rot: raw64 (0, 0, 0.216431514534228, 0.976297802679295)
    44 0.829235 0.000000 0.000000 0.000000 0.000000 0.287877   # pos: bone   rot: raw64 (0, 0, 0.143442085532148, 0.989658712940066)
    45 2.738956 3.890889 0.113747 0.000000 -1.570796 3.097163   # pos: desc_bone   rot: desc_bone
    46 0.000000 0.000000 -0.000004 -0.663104 0.000000 0.000000   # pos: raw   rot: raw64 (-0.325510823483074, 0, 0, 0.945538314292642)
    47 0.000000 -1.023438 -1.921875 -0.139596 0.000000 0.000000   # pos: raw   rot: raw64 (-0.0697412158292695, 0, 0, 0.99756511707991)
    48 0.000000 -0.558105 -1.804688 -0.418847 0.000000 0.000000   # pos: raw   rot: raw64 (-0.207896133472379, 0, 0, 0.97815090742034)
    49 0.000000 -0.325684 -1.928711 0.000000 0.000000 0.000000   # pos: raw   rot: bone
    50 0.000000 0.046509 -1.429688 0.000000 0.000000 0.000000   # pos: raw   rot: bone
    51 0.000000 -0.000002 -1.346680 0.000000 0.000000 0.000000   # pos: raw   rot: bone
    52 0.000000 -0.046509 -2.134766 0.000000 0.000000 0.000000   # pos: raw   rot: bone
    53 0.000000 -0.279053 -2.150391 0.000000 0.000000 0.000000   # pos: raw   rot: bone
    54 -2.941406 2.636719 3.416016 -3.111381 -0.249154 0.993557   # pos: raw   rot: raw64 (-0.871315540640096, -0.47449852252077, -0.102079342804268, 0.0723891465436065)
    55 19.302958 0.000000 0.000000 0.000000 0.000000 -1.082879   # pos: bone   rot: raw64 (0, 0, -0.515370123209895, 0.856967698400948)
    56 15.657714 0.000000 0.000000 -0.232933 -0.078593 -0.293049   # pos: bone   rot: raw64 (-0.12056631061253, -0.0216493503335236, -0.14941589860158, 0.981157459137167)
    57 3.741828 7.474069 0.000000 0.000000 0.000000 1.570796   # pos: desc_bone   rot: desc_bone
    58 -2.941406 2.628906 -3.416016 3.022859 0.222211 1.004974   # pos: raw   rot: raw64 (0.866281096324398, 0.483559377880393, -0.0686015755645868, 0.104981970094787)
    59 19.302956 0.000000 0.000000 0.000000 0.000000 -1.683772   # pos: bone   rot: raw64 (0, 0, -0.745900752114891, 0.666057105655694)
    60 15.657715 0.000000 0.000000 0.409284 0.162092 0.320843   # pos: bone   rot: raw64 (0.187287241321925, 0.110604233453639, 0.139647417236606, 0.966016972749082)
    61 3.741827 7.351522 0.000000 0.000000 0.000000 1.570796   # pos: desc_bone   rot: desc_bone
    62 3.610321 -4.629949 0.120559 0.000000 -1.570796 3.141592   # pos: desc_bone   rot: desc_bone
    63 0.020905 -0.868164 -2.876953 0.000000 0.000000 0.000000   # pos: raw   rot: bone
    64 -0.019348 0.195923 -1.416992 1.025933 -0.072756 0.095672   # pos: raw   rot: raw64 (0.491393808653923, -0.00820064153640674, 0.0594644262960309, 0.868866420285804)
    65 -0.211548 0.157959 -1.340820 0.000000 0.000000 0.000000   # pos: raw   rot: bone
    66 -0.054993 -0.593262 -1.348633 0.000000 0.000000 0.000000   # pos: raw   rot: bone
    67 -0.483398 -0.673340 -1.858398 0.000000 0.000000 0.000000   # pos: raw   rot: bone
    68 -4.333785 -0.761639 0.000000 0.000000 0.000000 0.000000   # pos: desc_bone   rot: desc_bone
    69 -0.098999 -0.968262 -2.763672 0.127545 -0.003557 -0.056914   # pos: raw   rot: raw64 (0.0636529618964377, -0.00358772106756159, -0.0282821520413627, 0.99756480921054)
    70 -0.261963 0.261719 -1.737305 0.611347 0.139051 -0.026065   # pos: raw   rot: raw64 (0.301046227909933, 0.0623311699241782, -0.0333022912491363, 0.950987356022488)
    71 -0.137329 -0.947266 -0.970215 0.424930 0.254034 -0.013290   # pos: raw   rot: raw64 (0.209989447598721, 0.122434557707521, -0.0331544718005792, 0.969440556184737)
    72 -0.288086 -0.594727 -0.336914 0.178355 0.064580 -0.027816   # pos: raw   rot: raw64 (0.0894517472020401, 0.0309152455734036, -0.0167198101426076, 0.99537082560342)
    73 -3.828125 -3.619141 -0.000002 0.000000 0.000000 -0.828936   # pos: raw   rot: raw64 (0, 0, -0.402703093193487, 0.915330660872014)
    74 -0.091187 -0.175415 -2.548828 0.193985 0.073547 -0.085077   # pos: raw   rot: raw64 (0.0982436665326755, 0.0324439847736431, -0.0458545466162936, 0.993575830217723)
    75 0.105164 -0.671875 -1.987305 0.524661 0.401093 0.051818   # pos: raw   rot: raw64 (0.249065280406341, 0.198908711000103, -0.0271243919733086, 0.947452414712457)
    76 0.100891 -0.607422 -2.300781 0.112545 0.365086 0.001221   # pos: raw   rot: raw64 (0.055197689438968, 0.18127718864575, -0.00961017150393891, 0.981834731796017)
    77 -0.307617 0.451904 -2.757813 0.067664 0.020470 -0.039754   # pos: raw   rot: raw64 (0.0340204076669656, 0.00955485841996268, -0.0202093028024183, 0.999171106779509)
    78 -0.313721 -0.763184 -2.685547 0.000000 0.000000 0.000000   # pos: raw   rot: bone
    79 1.358692 -4.612459 -0.000004 0.037052 0.131740 -0.123881   # pos: bone   rot: raw64 (0.0225229155908033, 0.0645408322616423, -0.0629729924330747, 0.995671432485781)
    80 -0.243530 -0.144165 -2.505859 -0.088978 -0.030224 0.020969   # pos: raw   rot: raw64 (-0.0443086412865442, -0.0155620500745535, 0.00980090627627074, 0.998848591699954)
    81 -0.367432 -0.082031 -2.169922 -0.052408 -0.034265 0.026848   # pos: raw   rot: raw64 (-0.0259647245575311, -0.0174760735149033, 0.0129680571708407, 0.999425959952195)
    82 -0.273926 -0.365479 -0.524902 -0.221908 -0.232905 0.204898   # pos: raw   rot: raw64 (-0.097590399937439, -0.126116692487386, 0.0881547507501837, 0.983259596259434)
    83 0.082825 0.646973 -1.750977 -0.090697 0.015415 -0.003672   # pos: raw   rot: raw64 (-0.0453176282321795, 0.00778293238500005, -0.00148487020260324, 0.998941206325669)
    84 -0.243408 0.279297 -2.228516 0.000000 0.000000 0.000000   # pos: raw   rot: bone
    85 4.275345 -0.770885 0.001637 0.000000 -0.462512 0.000000   # pos: bone   rot: raw64 (0, -0.229200253867982, 0, 0.973379290732473)
    86 0.085632 -0.482666 -3.630859 0.375506 0.011841 0.081950   # pos: raw   rot: raw64 (0.186253458855887, 0.0134572918618718, 0.0391387752824901, 0.981629617844404)
    87 1.805664 0.558594 0.075256 0.000000 0.000000 0.000000   # pos: raw   rot: bone
    88 -0.181030 -0.481934 -1.812500 1.297964 -0.439063 -0.007020   # pos: raw   rot: raw64 (0.589257912989658, -0.175568496909858, 0.128886161381645, 0.778035456953082)
    89 -1.209961 -0.855469 -0.973633 -0.263411 0.137499 -0.029824   # pos: raw   rot: raw64 (-0.129984793670276, 0.0700463914650004, -0.00572681153926299, 0.989022072598393)
    90 -0.365479 -0.073608 -1.917969 0.000000 0.000000 0.000000   # pos: raw   rot: bone
    91 2.622022 -3.591586 0.000000 0.000000 0.000000 0.462483   # pos: bone   rot: raw64 (0, 0, 0.229185948760057, 0.973382659025192)
    92 0.179321 -0.521484 -3.642578 0.000000 0.000000 0.000000   # pos: raw   rot: bone
    93 0.251221 -1.171875 -2.134766 0.782740 -0.550860 -0.220060   # pos: raw   rot: raw64 (0.337252456067821, -0.290184836299497, 0.00543403366373364, 0.895557933880437)
    94 -1.004883 -0.810059 -2.699219 0.336741 0.029255 0.045187   # pos: raw   rot: raw64 (0.167189518361321, 0.0182018193236259, 0.0198192501929997, 0.985557484901417)
    95 -0.647949 0.312500 -3.101563 0.189747 0.018390 0.024235   # pos: raw   rot: raw64 (0.0946092154458926, 0.0103006313797801, 0.0111913627665697, 0.995398285484417)
    96 -0.377197 -0.038483 -3.937500 0.000000 0.000000 0.000000   # pos: raw   rot: bone
    97 -1.320248 -4.644200 0.000000 0.000000 0.000000 0.000000   # pos: desc_bone   rot: desc_bone
    98 0.339355 -0.267822 -3.115234 -0.198851 0.051598 -0.046305   # pos: raw   rot: raw64 (-0.0986079699478293, 0.0279588566022603, -0.0204687020927896, 0.994522902116839)
    99 0.938965 -0.027344 -2.181641 -0.104110 0.039199 0.071668   # pos: raw   rot: raw64 (-0.0526895271828045, 0.0176954185030849, 0.0367898765612237, 0.997776122620632)
    100 0.631348 -0.017212 -2.660156 0.062724 0.085755 0.158845   # pos: raw   rot: raw64 (0.0278301106309363, 0.0451936506301638, 0.0778874979555617, 0.995548369767743)
    101 0.223022 -0.167847 -2.019531 0.275799 0.049894 0.105846   # pos: raw   rot: raw64 (0.135920459785242, 0.0319423523224104, 0.0489558940144091, 0.988993748807913)
    102 0.138184 -0.608398 -2.933594 0.000000 0.000000 0.000000   # pos: raw   rot: bone
    103 2.562344 0.000000 0.000000 0.004081 0.020189 0.491332   # pos: bone   rot: raw64 (-0.000475883256967899, 0.0102872799457169, 0.243169668593565, 0.969929099307027)
    104 8.541122 0.000000 0.000000 0.000000 0.000000 0.000000   # pos: desc_bone   rot: desc_bone
    105 -3.702484 3.207059 1.404841 0.000000 -1.570796 -3.141591   # pos: desc_bone   rot: desc_bone
    106 -3.872147 3.207061 0.113746 3.010650 -1.570747 0.000000   # pos: bone   rot: raw64 (0.705591819004145, -0.0462445992257122, 0.705591819004145, 0.0462796602331588)
    107 -3.702477 3.207063 -1.237172 0.000000 -1.570796 -3.141591   # pos: desc_bone   rot: desc_bone
    108 -4.882301 4.254779 -1.016848 1.266931 -1.504585 1.523688   # pos: bone   rot: raw64 (0.692868856015751, -0.10017199508095, 0.698861742562417, 0.146596673043931)
    109 -4.887398 4.344111 0.122031 2.862345 -1.570780 0.000000   # pos: bone   rot: raw64 (0.700225496184589, -0.0984029300675726, 0.700225496184589, 0.0984142893090627)
    110 -4.882294 4.270531 1.216630 1.266931 -1.504585 1.523688   # pos: bone   rot: raw64 (0.692868856015751, -0.10017199508095, 0.698861742562417, 0.146596673043931)
    111 -7.351521 1.350579 0.144448 3.139001 0.001496 1.727842   # pos: bone   rot: raw64 (0.649459529180751, 0.760394687464386, 0.000499725103509377, 0.00141049887494039)
    112 4.991369 -0.677071 0.532282 -1.904540 -0.172536 2.322112   # pos: desc_bone   rot: desc_bone
end
