// Created by Crowbar 0.62
version 1
nodes
  0 "ValveBiped.Bip01_Spine4" -1
  1 "ValveBiped.Bip01_L_Clavicle" 0
  2 "ValveBiped.Bip01_L_UpperArm" 1
  3 "ValveBiped.Bip01_L_Forearm" 2
  4 "ValveBiped.Bip01_L_Hand" 3
  5 "ValveBiped.Bip01_L_Finger4" 4
  6 "ValveBiped.Bip01_L_Finger41" 5
  7 "ValveBiped.Bip01_L_Finger42" 6
  8 "ValveBiped.Bip01_L_Finger3" 4
  9 "ValveBiped.Bip01_L_Finger31" 8
  10 "ValveBiped.Bip01_L_Finger32" 9
  11 "ValveBiped.Bip01_L_Finger2" 4
  12 "ValveBiped.Bip01_L_Finger21" 11
  13 "ValveBiped.Bip01_L_Finger22" 12
  14 "ValveBiped.Bip01_L_Finger1" 4
  15 "ValveBiped.Bip01_L_Finger11" 14
  16 "ValveBiped.Bip01_L_Finger12" 15
  17 "ValveBiped.Bip01_L_Finger0" 4
  18 "ValveBiped.Bip01_L_Finger01" 17
  19 "ValveBiped.Bip01_L_Finger02" 18
  20 "ValveBiped.Bip01_R_Clavicle" 0
  21 "ValveBiped.Bip01_R_UpperArm" 20
  22 "ValveBiped.Bip01_R_Forearm" 21
  23 "ValveBiped.Bip01_R_Hand" 22
  24 "ValveBiped.Bip01_R_Finger4" 23
  25 "ValveBiped.Bip01_R_Finger41" 24
  26 "ValveBiped.Bip01_R_Finger42" 25
  27 "ValveBiped.Bip01_R_Finger3" 23
  28 "ValveBiped.Bip01_R_Finger31" 27
  29 "ValveBiped.Bip01_R_Finger32" 28
  30 "ValveBiped.Bip01_R_Finger2" 23
  31 "ValveBiped.Bip01_R_Finger21" 30
  32 "ValveBiped.Bip01_R_Finger22" 31
  33 "ValveBiped.Bip01_R_Finger1" 23
  34 "ValveBiped.Bip01_R_Finger11" 33
  35 "ValveBiped.Bip01_R_Finger12" 34
  36 "ValveBiped.Bip01_R_Finger0" 23
  37 "ValveBiped.Bip01_R_Finger01" 36
  38 "ValveBiped.Bip01_R_Finger02" 37
  39 "bone_trigger" -1
  40 "Bone01" -1
  41 "bone_clip" -1
  42 "bone_gun" -1
  43 "bone.muzzle" 42
  44 "ValveBiped.eject" 42
end
skeleton
  time 0
    0 0.000000 -0.000006 0.000000 -1.570717 -1.391887 -1.570864
    1 2.033349 1.000767 1.937660 1.596637 -1.286515 2.942961
    2 17.344893 -4.453261 -7.531480 -0.380545 -0.644917 -2.898021
    3 11.692551 0.000001 0.000001 0.000000 0.000000 -0.060372
    4 11.481668 0.000001 -0.000025 1.017980 -0.890097 0.245158
    5 3.859713 -0.142406 -1.191975 -0.534567 0.408825 -0.617965
    6 1.312550 0.000000 0.000002 0.000000 0.000000 -0.517999
    7 0.729363 -0.000002 -0.000002 0.000000 0.000000 -0.244299
    8 3.942339 0.046767 -0.431443 -0.146830 0.264037 -0.662421
    9 1.539093 0.000000 0.000000 0.000000 0.000000 -0.351119
    10 1.196321 -0.000006 0.000000 0.000000 0.000000 -0.430802
    11 3.883699 -0.046762 0.431443 0.090720 0.076552 -0.525010
    12 1.719564 0.000002 -0.000001 0.000000 0.005516 -0.429638
    13 1.209171 0.000000 0.000000 0.000000 0.003084 -0.321418
    14 3.859869 -0.137947 1.332466 0.278754 0.054296 -0.570611
    15 1.719429 0.000006 -0.000001 0.000000 0.004074 -0.426380
    16 1.099661 0.000002 -0.000001 0.000000 0.002596 -0.418793
    17 0.806059 -0.348927 1.321258 -2.024805 -0.477533 -0.548765
    18 1.789782 0.000000 0.000000 0.000000 -0.050080 0.071578
    19 1.207006 -0.000001 0.000002 0.000000 0.000000 0.432494
    20 2.033356 1.000772 -1.937610 -1.668474 1.286518 2.942953
    21 15.294052 -6.777551 12.277718 -0.354693 1.083755 -3.185749
    22 11.692557 0.000001 0.000006 0.000000 0.000000 -0.060372
    23 11.481705 0.000001 0.000001 -1.866670 0.500858 0.030595
    24 3.859680 -0.132569 1.193109 0.410308 0.177652 -1.525986
    25 1.312561 -0.000006 0.000001 -0.028212 -0.208100 -0.323985
    26 0.729364 0.000004 -0.000003 0.000000 0.000000 -0.975912
    27 3.942307 0.050328 0.431044 0.299837 -0.002993 -1.243628
    28 1.539099 0.000002 0.000001 -0.166094 0.026628 -0.917897
    29 1.196323 0.000010 0.000000 0.000000 0.000000 -1.092562
    30 3.883663 -0.050322 -0.431042 0.332615 -0.177134 -1.074793
    31 1.719578 0.000002 0.000000 -0.473398 0.044296 -1.502183
    32 1.209185 -0.000004 0.000000 -0.000004 0.073087 -0.732230
    33 3.859844 -0.148934 -1.331282 0.154669 -0.478784 0.095030
    34 1.719419 0.000004 -0.000001 -0.000003 -0.006608 -1.391681
    35 1.103516 -0.002300 -0.001109 0.004092 0.021864 -0.613414
    36 0.806023 -0.359839 -1.318334 1.133167 0.410187 -0.912229
    37 1.789783 0.000002 -0.000004 0.067605 0.379342 0.532083
    38 1.206999 0.000003 0.000002 0.000000 0.000000 0.554574
    39 -2.817888 -13.923362 -3.876466 -1.570796 0.935943 -1.570800
    40 -2.779953 -11.060970 -2.471601 1.570796 -0.015984 -1.570918
    41 -2.778179 -11.523567 -7.331146 1.570796 -1.302625 -1.571178
    42 -2.799206 -13.899425 -3.178341 1.570796 -0.010693 -1.571052
    43 5.070313 0.786133 -0.015732 0.000000 0.000000 0.007777
    44 0.719727 0.786621 0.374268 0.000000 -1.570796 0.007777
  time 1
    0 0.000000 -0.000006 0.000000 -1.570717 -1.391887 -1.570864
    1 2.033349 1.000767 1.937660 1.596637 -1.286515 2.942961
    2 17.344893 -4.453261 -7.539293 -0.380284 -0.645242 -2.898097
    3 11.692551 0.000001 0.000001 0.000000 0.000000 -0.060372
    4 11.481668 0.000001 -0.000025 1.018337 -0.888562 0.245158
    5 3.859713 -0.142406 -1.191975 -0.534541 0.408825 -0.617861
    6 1.312550 0.000000 0.000002 0.000000 0.000000 -0.517999
    7 0.729363 -0.000002 -0.000002 0.000000 0.000000 -0.244299
    8 3.942339 0.046767 -0.431443 -0.146830 0.264037 -0.662367
    9 1.539093 0.000000 0.000000 0.000000 0.000000 -0.351119
    10 1.196321 -0.000006 0.000000 0.000000 0.000000 -0.430802
    11 3.883699 -0.046762 0.431443 0.090732 0.076552 -0.524978
    12 1.719564 0.000002 -0.000001 0.000000 0.005516 -0.429610
    13 1.209171 0.000000 0.000000 0.000000 0.003084 -0.321418
    14 3.859869 -0.137947 1.332466 0.278754 0.054296 -0.570549
    15 1.719429 0.000006 -0.000001 0.000000 0.004086 -0.426380
    16 1.099661 0.000002 -0.000001 0.000000 0.002596 -0.418758
    17 0.806059 -0.348927 1.321258 -2.024772 -0.477533 -0.548765
    18 1.789782 0.000000 0.000000 0.000000 -0.050080 0.071578
    19 1.207006 -0.000001 0.000002 0.000000 0.000000 0.432494
    20 2.033356 1.000772 -1.937610 -1.668474 1.286518 2.942953
    21 15.294052 -6.777551 12.273812 -0.354992 1.083432 -3.186037
    22 11.692557 0.000001 0.000006 0.000000 0.000000 -0.060372
    23 11.481705 0.000001 0.000001 -1.867485 0.502089 0.030466
    24 3.859680 -0.132569 1.193109 0.410308 0.177652 -1.525986
    25 1.312561 -0.000006 0.000001 -0.028212 -0.208100 -0.323985
    26 0.729364 0.000004 -0.000003 0.000000 0.000000 -0.975912
    27 3.942307 0.050328 0.431044 0.299825 -0.003005 -1.243641
    28 1.539099 0.000002 0.000001 -0.166094 0.026628 -0.917897
    29 1.196323 0.000010 0.000000 0.000000 0.000000 -1.092562
    30 3.883663 -0.050322 -0.431042 0.332615 -0.177134 -1.074838
    31 1.719578 0.000002 0.000000 -0.473398 0.044296 -1.502183
    32 1.209185 -0.000004 0.000000 -0.000004 0.073087 -0.732230
    33 3.859844 -0.148934 -1.331282 0.154669 -0.478784 0.095030
    34 1.719419 0.000004 -0.000001 -0.000003 -0.006608 -1.391681
    35 1.103516 -0.002300 -0.001109 0.004092 0.021864 -0.613414
    36 0.806023 -0.359839 -1.318334 1.133167 0.410187 -0.912229
    37 1.789783 0.000002 -0.000004 0.067605 0.379342 0.532083
    38 1.206999 0.000003 0.000002 0.000000 0.000000 0.554574
    39 -2.817888 -13.923362 -3.868653 -1.571180 0.935592 -1.572452
    40 -2.779953 -11.060970 -2.471601 1.570430 -0.016216 -1.572042
    41 -2.778179 -11.523567 -7.331146 1.569171 -1.303025 -1.570324
    42 -2.799206 -13.899425 -3.170528 1.570431 -0.010925 -1.572087
    43 5.070313 0.786133 -0.015732 0.000000 0.000000 0.007777
    44 0.719727 0.786621 0.374268 0.000000 -1.570796 0.007777
  time 2
    0 0.000000 -0.000006 0.000000 -1.570717 -1.391887 -1.570864
    1 2.033349 1.000767 1.937660 1.596637 -1.286515 2.942961
    2 17.344893 -4.457168 -7.539293 -0.378781 -0.645847 -2.899830
    3 11.692551 0.000001 0.000001 0.000000 0.000000 -0.060372
    4 11.481668 0.000001 -0.000025 1.015573 -0.886548 0.250247
    5 3.859713 -0.142406 -1.191975 -0.534554 0.408825 -0.617861
    6 1.312550 0.000000 0.000002 0.000000 0.000000 -0.517999
    7 0.729363 -0.000002 -0.000002 0.000000 0.000000 -0.244299
    8 3.942339 0.046767 -0.431443 -0.146830 0.264037 -0.662394
    9 1.539093 0.000000 0.000000 0.000000 0.000000 -0.351119
    10 1.196321 -0.000006 0.000000 0.000000 0.000000 -0.430802
    11 3.883699 -0.046762 0.431443 0.090732 0.076552 -0.524978
    12 1.719564 0.000002 -0.000001 0.000000 0.005516 -0.429610
    13 1.209171 0.000000 0.000000 0.000000 0.003084 -0.321477
    14 3.859869 -0.137947 1.332466 0.278754 0.054296 -0.570611
    15 1.719429 0.000006 -0.000001 0.000000 0.004074 -0.426348
    16 1.099661 0.000002 -0.000001 0.000000 0.002596 -0.418793
    17 0.806059 -0.348927 1.321258 -2.024772 -0.477533 -0.548803
    18 1.789782 0.000000 0.000000 0.000000 -0.050080 0.071578
    19 1.207006 -0.000001 0.000002 0.000000 0.000000 0.432473
    20 2.033356 1.000772 -1.937610 -1.668474 1.286518 2.942953
    21 15.294052 -6.781457 12.265999 -0.357533 1.082500 -3.188337
    22 11.692557 0.000001 0.000006 0.000000 0.000000 -0.060372
    23 11.481705 0.000001 0.000001 -1.866612 0.504375 0.033662
    24 3.859680 -0.132569 1.193109 0.410308 0.177652 -1.525986
    25 1.312561 -0.000006 0.000001 -0.028212 -0.208100 -0.323985
    26 0.729364 0.000004 -0.000003 0.000000 0.000000 -0.975912
    27 3.942307 0.050328 0.431044 0.299825 -0.003005 -1.243628
    28 1.539099 0.000002 0.000001 -0.166094 0.026628 -0.917897
    29 1.196323 0.000010 0.000000 0.000000 0.000000 -1.092562
    30 3.883663 -0.050322 -0.431042 0.332615 -0.177134 -1.074793
    31 1.719578 0.000002 0.000000 -0.473398 0.044296 -1.502183
    32 1.209185 -0.000004 0.000000 -0.000004 0.073087 -0.732230
    33 3.859844 -0.148934 -1.331282 0.154669 -0.478784 0.095030
    34 1.719419 0.000004 -0.000001 -0.000003 -0.006608 -1.391681
    35 1.103516 -0.002300 -0.001109 0.004092 0.021864 -0.613414
    36 0.806023 -0.359839 -1.318334 1.133167 0.410187 -0.912229
    37 1.789783 0.000002 -0.000004 0.067605 0.379342 0.532083
    38 1.206999 0.000003 0.000002 0.000000 0.000000 0.554574
    39 -2.813982 -13.931174 -3.856934 -1.571947 0.937074 -1.574887
    40 -2.768234 -11.072689 -2.440350 1.569927 -0.014852 -1.573857
    41 -2.774273 -11.523567 -7.307708 1.567642 -1.301492 -1.570894
    42 -2.791393 -13.907238 -3.154903 1.569930 -0.009561 -1.573983
    43 5.070313 0.786133 -0.015732 0.000000 0.000000 0.007777
    44 0.719727 0.786621 0.374268 0.000000 -1.570796 0.007777
  time 3
    0 0.000000 -0.000006 0.000000 -1.570717 -1.391887 -1.570864
    1 2.033349 1.000767 1.937660 1.596637 -1.286515 2.942961
    2 17.352705 -4.461074 -7.562731 -0.376494 -0.647011 -2.902016
    3 11.692551 0.000001 0.000001 0.000000 0.000000 -0.060372
    4 11.481668 0.000001 -0.000025 1.010312 -0.883959 0.258594
    5 3.859713 -0.142406 -1.191975 -0.534541 0.408825 -0.617861
    6 1.312550 0.000000 0.000002 0.000000 0.000000 -0.517961
    7 0.729363 -0.000002 -0.000002 0.000000 0.000000 -0.244299
    8 3.942339 0.046767 -0.431443 -0.146830 0.264037 -0.662394
    9 1.539093 0.000000 0.000000 0.000000 0.000000 -0.351119
    10 1.196321 -0.000006 0.000000 0.000000 0.000000 -0.430802
    11 3.883699 -0.046762 0.431443 0.090720 0.076552 -0.524978
    12 1.719564 0.000002 -0.000001 0.000000 0.005516 -0.429610
    13 1.209171 0.000000 0.000000 0.000000 0.003084 -0.321418
    14 3.859869 -0.137947 1.332466 0.278754 0.054296 -0.570611
    15 1.719429 0.000006 -0.000001 0.000000 0.004074 -0.426285
    16 1.099661 0.000002 -0.000001 0.000000 0.002596 -0.418793
    17 0.806059 -0.348927 1.321258 -2.024805 -0.477533 -0.548765
    18 1.789782 0.000000 0.000000 0.000000 -0.050080 0.071578
    19 1.207006 -0.000001 0.000002 0.000000 0.000000 0.432494
    20 2.033356 1.000772 -1.937610 -1.668474 1.286518 2.942953
    21 15.294052 -6.785364 12.250374 -0.360448 1.081205 -3.190828
    22 11.692557 0.000001 0.000006 0.000000 0.000000 -0.060372
    23 11.481705 0.000001 0.000001 -1.864517 0.507775 0.039174
    24 3.859680 -0.132569 1.193109 0.410308 0.177652 -1.525986
    25 1.312561 -0.000006 0.000001 -0.028212 -0.208100 -0.323985
    26 0.729364 0.000004 -0.000003 0.000000 0.000000 -0.975912
    27 3.942307 0.050328 0.431044 0.299802 -0.002981 -1.243601
    28 1.539099 0.000002 0.000001 -0.166094 0.026628 -0.917897
    29 1.196323 0.000010 0.000000 0.000000 0.000000 -1.092562
    30 3.883663 -0.050322 -0.431042 0.332615 -0.177134 -1.074793
    31 1.719578 0.000002 0.000000 -0.473398 0.044296 -1.502183
    32 1.209185 -0.000004 0.000000 -0.000004 0.073087 -0.732230
    33 3.859844 -0.148934 -1.331282 0.154669 -0.478784 0.095030
    34 1.719419 0.000004 -0.000001 -0.000003 -0.006608 -1.391681
    35 1.103516 -0.002300 -0.001109 0.004092 0.021864 -0.613414
    36 0.806023 -0.359839 -1.318334 1.133167 0.410187 -0.912229
    37 1.789783 0.000002 -0.000004 0.067605 0.379342 0.532083
    38 1.206999 0.000003 0.000002 0.000000 0.000000 0.554574
    39 -2.806169 -13.946800 -3.845215 -1.572426 0.940115 -1.577583
    40 -2.756515 -11.084408 -2.416912 1.569927 -0.011660 -1.576277
    41 -2.758647 -11.523567 -7.284270 1.567164 -1.298327 -1.572983
    42 -2.787487 -13.918957 -3.147090 1.569884 -0.006543 -1.576483
    43 5.070313 0.786133 -0.015732 0.000000 0.000000 0.007777
    44 0.719727 0.786621 0.374268 0.000000 -1.570796 0.007777
  time 4
    0 0.000000 -0.000006 0.000000 -1.570717 -1.391887 -1.570864
    1 2.033349 1.000767 1.937660 1.596637 -1.286515 2.942961
    2 17.364424 -4.464980 -7.570544 -0.374403 -0.648407 -2.904277
    3 11.692551 0.000001 0.000001 0.000000 0.000000 -0.060372
    4 11.489481 0.000001 -0.000025 1.004695 -0.881225 0.269114
    5 3.859713 -0.142406 -1.191975 -0.534554 0.408825 -0.617861
    6 1.312550 0.000000 0.000002 0.000000 0.000000 -0.517961
    7 0.729363 -0.000002 -0.000002 0.000000 0.000000 -0.244299
    8 3.942339 0.046767 -0.431443 -0.146830 0.264037 -0.662367
    9 1.539093 0.000000 0.000000 0.000000 0.000000 -0.351119
    10 1.196321 -0.000006 0.000000 0.000000 0.000000 -0.430802
    11 3.883699 -0.046762 0.431443 0.090732 0.076552 -0.524978
    12 1.719564 0.000002 -0.000001 0.000000 0.005516 -0.429610
    13 1.209171 0.000000 0.000000 0.000000 0.003084 -0.321418
    14 3.859869 -0.137947 1.332466 0.278754 0.054296 -0.570611
    15 1.719429 0.000006 -0.000001 0.000000 0.004074 -0.426380
    16 1.099661 0.000002 -0.000001 0.000000 0.002596 -0.418793
    17 0.806059 -0.348927 1.321258 -2.024739 -0.477505 -0.548821
    18 1.789782 0.000000 0.000000 0.000000 -0.050080 0.071549
    19 1.207006 -0.000001 0.000002 0.000000 0.000000 0.432494
    20 2.033356 1.000772 -1.937610 -1.668474 1.286518 2.942953
    21 15.294052 -6.789270 12.234748 -0.362541 1.079545 -3.192649
    22 11.692557 0.000001 0.000006 0.000000 0.000000 -0.060372
    23 11.481705 0.000001 0.000001 -1.861491 0.512073 0.045759
    24 3.859680 -0.132569 1.193109 0.410308 0.177652 -1.525986
    25 1.312561 -0.000006 0.000001 -0.028212 -0.208100 -0.323985
    26 0.729364 0.000004 -0.000003 0.000000 0.000000 -0.975912
    27 3.942307 0.050328 0.431044 0.299837 -0.002993 -1.243628
    28 1.539099 0.000002 0.000001 -0.166094 0.026628 -0.917897
    29 1.196323 0.000010 0.000000 0.000000 0.000000 -1.092562
    30 3.883663 -0.050322 -0.431042 0.332615 -0.177134 -1.074793
    31 1.719578 0.000002 0.000000 -0.473398 0.044296 -1.502183
    32 1.209185 -0.000004 0.000000 -0.000004 0.073087 -0.732230
    33 3.859844 -0.148934 -1.331282 0.154669 -0.478784 0.095030
    34 1.719419 0.000004 -0.000001 -0.000003 -0.006608 -1.391681
    35 1.103516 -0.002300 -0.001109 0.004092 0.021864 -0.613414
    36 0.806023 -0.359839 -1.318334 1.133167 0.410187 -0.912229
    37 1.789783 0.000002 -0.000004 0.067605 0.379342 0.532083
    38 1.206999 0.000003 0.000002 0.000000 0.000000 0.554574
    39 -2.798356 -13.958519 -3.837402 -1.571180 0.944559 -1.579844
    40 -2.736983 -11.107846 -2.397380 1.570430 -0.007453 -1.579302
    41 -2.743022 -11.519661 -7.268644 1.569171 -1.293962 -1.577825
    42 -2.779674 -13.930676 -3.135371 1.570340 -0.002161 -1.579501
    43 5.070313 0.786133 -0.015732 0.000000 0.000000 0.007777
    44 0.719727 0.786621 0.374268 0.000000 -1.570796 0.007777
  time 5
    0 0.000000 -0.000006 0.000000 -1.570717 -1.391887 -1.570864
    1 2.033349 1.000767 1.937660 1.596637 -1.286515 2.942961
    2 17.376144 -4.457168 -7.597888 -0.372573 -0.649803 -2.905408
    3 11.692551 0.000001 0.000001 0.000000 0.000000 -0.060372
    4 11.489481 0.000001 -0.000025 0.998632 -0.878108 0.280206
    5 3.859713 -0.142406 -1.191975 -0.534554 0.408825 -0.617861
    6 1.312550 0.000000 0.000002 0.000000 0.000000 -0.517961
    7 0.729363 -0.000002 -0.000002 0.000000 0.000000 -0.244299
    8 3.942339 0.046767 -0.431443 -0.146830 0.264037 -0.662367
    9 1.539093 0.000000 0.000000 0.000000 0.000000 -0.351119
    10 1.196321 -0.000006 0.000000 0.000000 0.000000 -0.430802
    11 3.883699 -0.046762 0.431443 0.090732 0.076552 -0.524978
    12 1.719564 0.000002 -0.000001 0.000000 0.005516 -0.429610
    13 1.209171 0.000000 0.000000 0.000000 0.003084 -0.321447
    14 3.859869 -0.137947 1.332466 0.278754 0.054296 -0.570611
    15 1.719429 0.000006 -0.000001 0.000000 0.004074 -0.426380
    16 1.099661 0.000002 -0.000001 0.000000 0.002596 -0.418793
    17 0.806059 -0.348927 1.321258 -2.024739 -0.477505 -0.548784
    18 1.789782 0.000000 0.000000 0.000000 -0.050080 0.071549
    19 1.207006 -0.000001 0.000002 0.000000 0.000012 0.432494
    20 2.033356 1.000772 -1.937610 -1.668474 1.286518 2.942953
    21 15.297958 -6.789270 12.215217 -0.362765 1.077845 -3.192649
    22 11.692557 0.000001 0.000006 0.000000 0.000000 -0.060372
    23 11.481705 0.000001 0.000001 -1.857592 0.517330 0.052236
    24 3.859680 -0.132569 1.193109 0.410308 0.177652 -1.525986
    25 1.312561 -0.000006 0.000001 -0.028212 -0.208100 -0.323985
    26 0.729364 0.000004 -0.000003 0.000000 0.000000 -0.975912
    27 3.942307 0.050328 0.431044 0.299837 -0.002993 -1.243628
    28 1.539099 0.000002 0.000001 -0.166094 0.026628 -0.917897
    29 1.196323 0.000010 0.000000 0.000000 0.000000 -1.092562
    30 3.883663 -0.050322 -0.431042 0.332615 -0.177158 -1.074793
    31 1.719578 0.000002 0.000000 -0.473398 0.044296 -1.502183
    32 1.209185 -0.000004 0.000000 -0.000004 0.073087 -0.732230
    33 3.859844 -0.148934 -1.331282 0.154669 -0.478784 0.095030
    34 1.719419 0.000004 -0.000001 -0.000003 -0.006608 -1.391681
    35 1.103516 -0.002300 -0.001109 0.004092 0.021864 -0.613414
    36 0.806023 -0.359839 -1.318334 1.133167 0.410208 -0.912229
    37 1.789783 0.000002 -0.000004 0.067605 0.379342 0.532083
    38 1.206999 0.000003 0.000002 0.000000 0.000000 0.554574
    39 -2.790543 -13.966332 -3.845215 -1.569166 0.949666 -1.581322
    40 -2.721357 -11.127378 -2.397380 1.571665 -0.002317 -1.582759
    41 -2.719584 -11.519661 -7.268644 1.574237 -1.288998 -1.585991
    42 -2.767955 -13.954114 -3.147090 1.571708 0.003063 -1.582863
    43 5.070313 0.786133 -0.015732 0.000000 0.000000 0.007777
    44 0.719727 0.786621 0.374268 0.000000 -1.570796 0.007777
  time 6
    0 0.000000 -0.000006 0.000000 -1.570717 -1.391887 -1.570864
    1 2.033349 1.000767 1.937660 1.596637 -1.286515 2.942961
    2 17.391769 -4.453261 -7.613514 -0.373292 -0.651432 -2.904805
    3 11.692551 0.000001 0.000001 0.000000 0.000000 -0.060372
    4 11.493388 0.000001 -0.000025 0.995779 -0.874511 0.288896
    5 3.859713 -0.142406 -1.191975 -0.534554 0.408825 -0.617861
    6 1.312550 0.000000 0.000002 0.000000 0.000000 -0.517999
    7 0.729363 -0.000002 -0.000002 0.000000 0.000000 -0.244299
    8 3.942339 0.046767 -0.431443 -0.146818 0.264037 -0.662313
    9 1.539093 0.000000 0.000000 0.000000 0.000000 -0.351119
    10 1.196321 -0.000006 0.000000 0.000000 0.000000 -0.430802
    11 3.883699 -0.046762 0.431443 0.090732 0.076552 -0.524978
    12 1.719564 0.000002 -0.000001 0.000000 0.005516 -0.429610
    13 1.209171 0.000000 0.000000 0.000000 0.003084 -0.321418
    14 3.859869 -0.137947 1.332466 0.278754 0.054296 -0.570611
    15 1.719429 0.000006 -0.000001 0.000000 0.004074 -0.426380
    16 1.099661 0.000002 -0.000001 0.000000 0.002596 -0.418793
    17 0.806059 -0.348927 1.321258 -2.024805 -0.477533 -0.548765
    18 1.789782 0.000000 0.000000 0.000000 -0.050080 0.071578
    19 1.207006 -0.000001 0.000002 0.000000 0.000000 0.432494
    20 2.033356 1.000772 -1.937610 -1.668474 1.286518 2.942953
    21 15.294052 -6.785364 12.195685 -0.358804 1.076833 -3.189199
    22 11.692557 0.000001 0.000006 0.000000 0.000000 -0.060372
    23 11.481705 0.000001 0.000001 -1.853402 0.522918 0.056719
    24 3.859680 -0.132569 1.193109 0.410308 0.177652 -1.525986
    25 1.312561 -0.000006 0.000001 -0.028212 -0.208100 -0.323985
    26 0.729364 0.000004 -0.000003 0.000000 0.000000 -0.975912
    27 3.942307 0.050328 0.431044 0.299802 -0.002981 -1.243588
    28 1.539099 0.000002 0.000001 -0.166094 0.026628 -0.917897
    29 1.196323 0.000010 0.000000 0.000000 0.000000 -1.092562
    30 3.883663 -0.050322 -0.431042 0.332615 -0.177134 -1.074793
    31 1.719578 0.000002 0.000000 -0.473398 0.044296 -1.502183
    32 1.209185 -0.000004 0.000000 -0.000004 0.073087 -0.732230
    33 3.859844 -0.148934 -1.331282 0.154669 -0.478784 0.095030
    34 1.719419 0.000004 -0.000001 -0.000003 -0.006608 -1.391681
    35 1.103516 -0.002300 -0.001109 0.004092 0.021864 -0.613414
    36 0.806023 -0.359839 -1.318334 1.133167 0.410187 -0.912229
    37 1.789783 0.000002 -0.000004 0.067605 0.379342 0.532083
    38 1.206999 0.000003 0.000002 0.000000 0.000000 0.554574
    39 -2.778824 -13.985864 -3.899904 -1.565043 0.954851 -1.581496
    40 -2.705732 -11.154722 -2.428631 1.574179 0.002993 -1.586389
    41 -2.692239 -11.519661 -7.307708 1.582552 -1.283467 -1.597860
    42 -2.760142 -13.977552 -3.201779 1.574032 0.008403 -1.586397
    43 5.070313 0.786133 -0.015732 0.000000 0.000000 0.007777
    44 0.719727 0.786621 0.374268 0.000000 -1.570796 0.007777
  time 7
    0 0.000000 -0.000006 0.000000 -1.570717 -1.391887 -1.570864
    1 2.033349 1.000767 1.937660 1.596637 -1.286515 2.942961
    2 17.399582 -4.449355 -7.633045 -0.375906 -0.654131 -2.902393
    3 11.692551 0.000001 0.000001 0.000000 0.000000 -0.060372
    4 11.501200 0.000001 -0.000025 0.995690 -0.870291 0.294785
    5 3.859713 -0.142406 -1.191975 -0.534541 0.408825 -0.617861
    6 1.312550 0.000000 0.000002 0.000000 0.000000 -0.517999
    7 0.729363 -0.000002 -0.000002 0.000000 0.000000 -0.244299
    8 3.942339 0.046767 -0.431443 -0.146830 0.264037 -0.662367
    9 1.539093 0.000000 0.000000 0.000000 0.000000 -0.351119
    10 1.196321 -0.000006 0.000000 0.000000 0.000000 -0.430802
    11 3.883699 -0.046762 0.431443 0.090732 0.076552 -0.524978
    12 1.719564 0.000002 -0.000001 0.000000 0.005516 -0.429610
    13 1.209171 0.000000 0.000000 0.000000 0.003084 -0.321418
    14 3.859869 -0.137947 1.332466 0.278754 0.054296 -0.570611
    15 1.719429 0.000006 -0.000001 0.000012 0.004074 -0.426380
    16 1.099661 0.000002 -0.000001 0.000000 0.002596 -0.418793
    17 0.806059 -0.348927 1.321258 -2.024739 -0.477505 -0.548821
    18 1.789782 0.000000 0.000000 0.000000 -0.050080 0.071549
    19 1.207006 -0.000001 0.000002 0.000000 0.000000 0.432494
    20 2.033356 1.000772 -1.937610 -1.668474 1.286518 2.942953
    21 15.286239 -6.773644 12.172246 -0.350956 1.076509 -3.182299
    22 11.692557 0.000001 0.000006 0.000000 0.000000 -0.060372
    23 11.481705 0.000001 0.000001 -1.849445 0.528409 0.058585
    24 3.859680 -0.132569 1.193109 0.410308 0.177652 -1.525986
    25 1.312561 -0.000006 0.000001 -0.028212 -0.208100 -0.323985
    26 0.729364 0.000004 -0.000003 0.000000 0.000000 -0.975912
    27 3.942307 0.050328 0.431044 0.299837 -0.002993 -1.243628
    28 1.539099 0.000002 0.000001 -0.166094 0.026628 -0.917897
    29 1.196323 0.000010 0.000000 0.000000 0.000000 -1.092562
    30 3.883663 -0.050322 -0.431042 0.332615 -0.177134 -1.074793
    31 1.719578 0.000002 0.000000 -0.473398 0.044296 -1.502183
    32 1.209185 -0.000004 0.000000 -0.000004 0.073087 -0.732230
    33 3.859844 -0.148934 -1.331282 0.154669 -0.478784 0.095030
    34 1.719419 0.000004 -0.000001 -0.000003 -0.006608 -1.391681
    35 1.103516 -0.002300 -0.001109 0.004092 0.021864 -0.613414
    36 0.806023 -0.359839 -1.318334 1.133167 0.410187 -0.912229
    37 1.789783 0.000002 -0.000004 0.067605 0.379342 0.532083
    38 1.206999 0.000003 0.000002 0.000000 0.000000 0.554574
    39 -2.767105 -14.024927 -3.974125 -1.559003 0.959997 -1.580192
    40 -2.686200 -11.189880 -2.495039 1.577608 0.008158 -1.590019
    41 -2.660988 -11.531380 -7.374116 1.594403 -1.278403 -1.612862
    42 -2.752330 -14.008803 -3.276000 1.577496 0.013598 -1.590104
    43 5.070313 0.786133 -0.015732 0.000000 0.000000 0.007777
    44 0.719727 0.786621 0.374268 0.000000 -1.570796 0.007777
  time 8
    0 0.000000 -0.000006 0.000000 -1.570717 -1.391887 -1.570864
    1 2.033349 1.000767 1.937660 1.596637 -1.286515 2.942961
    2 17.399582 -4.441542 -7.668203 -0.379173 -0.657528 -2.899152
    3 11.692551 0.000001 0.000001 0.000000 0.000000 -0.060372
    4 11.501200 0.000001 -0.000025 0.998365 -0.865544 0.298844
    5 3.859713 -0.142406 -1.191975 -0.534541 0.408825 -0.617861
    6 1.312550 0.000000 0.000002 0.000000 0.000000 -0.517999
    7 0.729363 -0.000002 -0.000002 0.000000 0.000000 -0.244299
    8 3.942339 0.046767 -0.431443 -0.146830 0.264037 -0.662394
    9 1.539093 0.000000 0.000000 0.000000 0.000000 -0.351119
    10 1.196321 -0.000006 0.000000 0.000000 0.000000 -0.430802
    11 3.883699 -0.046762 0.431443 0.090732 0.076552 -0.525010
    12 1.719564 0.000002 -0.000001 0.000000 0.005516 -0.429610
    13 1.209171 0.000000 0.000000 0.000000 0.003084 -0.321418
    14 3.859869 -0.137947 1.332466 0.278754 0.054296 -0.570611
    15 1.719429 0.000006 -0.000001 0.000000 0.004074 -0.426380
    16 1.099661 0.000002 -0.000001 0.000000 0.002596 -0.418793
    17 0.806059 -0.348927 1.321258 -2.024772 -0.477533 -0.548765
    18 1.789782 0.000000 0.000000 0.000000 -0.050080 0.071578
    19 1.207006 -0.000001 0.000002 0.000000 0.000000 0.432494
    20 2.033356 1.000772 -1.937610 -1.668474 1.286518 2.942953
    21 15.262801 -6.765832 12.140996 -0.341987 1.076711 -3.174441
    22 11.692557 0.000001 0.000006 0.000000 0.000000 -0.060372
    23 11.481705 0.000001 -0.003905 -1.845546 0.533587 0.059035
    24 3.859680 -0.132569 1.193109 0.410308 0.177652 -1.525986
    25 1.312561 -0.000006 0.000001 -0.028212 -0.208100 -0.323985
    26 0.729364 0.000004 -0.000003 0.000000 0.000000 -0.975912
    27 3.942307 0.050328 0.431044 0.299802 -0.002981 -1.243588
    28 1.539099 0.000002 0.000001 -0.166094 0.026628 -0.917897
    29 1.196323 0.000010 0.000000 0.000000 0.000000 -1.092562
    30 3.883663 -0.050322 -0.431042 0.332615 -0.177134 -1.074793
    31 1.719578 0.000002 0.000000 -0.473398 0.044296 -1.502183
    32 1.209185 -0.000004 0.000000 -0.000004 0.073087 -0.732230
    33 3.859844 -0.148934 -1.331282 0.154669 -0.478784 0.095030
    34 1.719419 0.000004 -0.000001 -0.000003 -0.006608 -1.391681
    35 1.103516 -0.002300 -0.001109 0.004092 0.021864 -0.613414
    36 0.806023 -0.359839 -1.318334 1.133167 0.410187 -0.912229
    37 1.789783 0.000002 -0.000004 0.067605 0.379342 0.532083
    38 1.206999 0.000003 0.000002 0.000000 0.000000 0.554574
    39 -2.751480 -14.060085 -4.067878 -1.551908 0.964637 -1.577844
    40 -2.666668 -11.236756 -2.569260 1.581768 0.012656 -1.593649
    41 -2.621925 -11.554818 -7.448337 1.608261 -1.273705 -1.629574
    42 -2.740611 -14.047867 -3.369753 1.581689 0.018067 -1.593725
    43 5.070313 0.786133 -0.015732 0.000000 0.000000 0.007777
    44 0.719727 0.786621 0.374268 0.000000 -1.570796 0.007777
  time 9
    0 0.000000 -0.000006 0.000000 -1.570717 -1.391887 -1.570864
    1 2.033349 1.000767 1.937660 1.596637 -1.286515 2.942961
    2 17.395675 -4.429823 -7.718986 -0.381591 -0.662135 -2.896514
    3 11.692551 0.000001 0.000001 0.000000 0.000000 -0.060372
    4 11.505107 0.000001 -0.000025 1.001753 -0.859837 0.302732
    5 3.859713 -0.142406 -1.191975 -0.534554 0.408825 -0.617861
    6 1.312550 0.000000 0.000002 0.000000 0.000000 -0.517961
    7 0.729363 -0.000002 -0.000002 0.000000 0.000000 -0.244299
    8 3.942339 0.046767 -0.431443 -0.146830 0.264037 -0.662394
    9 1.539093 0.000000 0.000000 0.000000 0.000000 -0.351119
    10 1.196321 -0.000006 0.000000 0.000000 0.000000 -0.430802
    11 3.883699 -0.046762 0.431443 0.090732 0.076552 -0.524978
    12 1.719564 0.000002 -0.000001 0.000000 0.005516 -0.429610
    13 1.209171 0.000000 0.000000 0.000000 0.003084 -0.321418
    14 3.859869 -0.137947 1.332466 0.278754 0.054296 -0.570611
    15 1.719429 0.000006 -0.000001 0.000000 0.004074 -0.426380
    16 1.099661 0.000002 -0.000001 0.000000 0.002596 -0.418793
    17 0.806059 -0.348927 1.321258 -2.024772 -0.477533 -0.548765
    18 1.789782 0.000000 0.000000 0.000000 -0.050080 0.071578
    19 1.207006 -0.000001 0.000002 0.000000 0.000000 0.432494
    20 2.033356 1.000772 -1.937610 -1.668474 1.286518 2.942953
    21 15.227644 -6.761925 12.105838 -0.334289 1.076873 -3.167828
    22 11.692557 0.000001 0.000006 0.000000 0.000000 -0.060372
    23 11.481705 0.007814 -0.007812 -1.841356 0.538413 0.059035
    24 3.859680 -0.132569 1.193109 0.410308 0.177652 -1.525986
    25 1.312561 -0.000006 0.000001 -0.028212 -0.208100 -0.323985
    26 0.729364 0.000004 -0.000003 0.000000 0.000000 -0.975912
    27 3.942307 0.050328 0.431044 0.299837 -0.002993 -1.243628
    28 1.539099 0.000002 0.000001 -0.166094 0.026628 -0.917897
    29 1.196323 0.000010 0.000000 0.000000 0.000000 -1.092562
    30 3.883663 -0.050322 -0.431042 0.332615 -0.177134 -1.074793
    31 1.719578 0.000002 0.000000 -0.473398 0.044296 -1.502183
    32 1.209185 -0.000004 0.000000 -0.000004 0.073087 -0.732230
    33 3.859844 -0.148934 -1.331282 0.154669 -0.478784 0.095030
    34 1.719419 0.000004 -0.000001 -0.000003 -0.006608 -1.391681
    35 1.103516 -0.002300 -0.001109 0.004092 0.021864 -0.613414
    36 0.806023 -0.359839 -1.318334 1.133167 0.410187 -0.912229
    37 1.789783 0.000002 -0.000004 0.067605 0.379342 0.532083
    38 1.206999 0.000003 0.000002 0.000000 0.000000 0.554574
    39 -2.724135 -14.091336 -4.142099 -1.543375 0.967911 -1.574626
    40 -2.639323 -11.283633 -2.631762 1.586248 0.016225 -1.597020
    41 -2.567235 -11.589975 -7.510839 1.623266 -1.269907 -1.647615
    42 -2.717172 -14.094743 -3.443974 1.586292 0.021549 -1.597087
    43 5.070313 0.786133 -0.015732 0.000000 0.000000 0.007777
    44 0.719727 0.786621 0.374268 0.000000 -1.570796 0.007777
  time 10
    0 0.000000 -0.000006 0.000000 -1.570717 -1.391887 -1.570864
    1 2.033349 1.000767 1.937660 1.596637 -1.286515 2.942961
    2 17.438645 -4.422010 -7.746330 -0.381983 -0.663810 -2.896137
    3 11.692551 0.000001 0.000001 0.000000 0.000000 -0.060372
    4 11.512919 0.000001 -0.000025 1.004071 -0.857679 0.307306
    5 3.859713 -0.142406 -1.191975 -0.534554 0.408825 -0.617861
    6 1.312550 0.000000 0.000002 0.000000 0.000000 -0.517999
    7 0.729363 -0.000002 -0.000002 0.000000 0.000000 -0.244299
    8 3.942339 0.046767 -0.431443 -0.146830 0.264037 -0.662394
    9 1.539093 0.000000 0.000000 0.000000 0.000000 -0.351119
    10 1.196321 -0.000006 0.000000 0.000000 0.000000 -0.430802
    11 3.883699 -0.046762 0.431443 0.090732 0.076552 -0.524978
    12 1.719564 0.000002 -0.000001 0.000000 0.005516 -0.429610
    13 1.209171 0.000000 0.000000 0.000000 0.003084 -0.321418
    14 3.859869 -0.137947 1.332466 0.278754 0.054296 -0.570611
    15 1.719429 0.000006 -0.000001 0.000000 0.004074 -0.426380
    16 1.099661 0.000002 -0.000001 0.000000 0.002596 -0.418758
    17 0.806059 -0.348927 1.321258 -2.024805 -0.477533 -0.548765
    18 1.789782 0.000000 0.000000 0.000000 -0.050080 0.071578
    19 1.207006 -0.000001 0.000002 0.000000 0.000000 0.432494
    20 2.033356 1.000772 -1.937610 -1.668474 1.286518 2.942953
    21 15.176861 -6.765832 12.058962 -0.330477 1.076630 -3.164570
    22 11.692557 0.000001 0.000006 0.000000 0.000000 -0.060372
    23 11.481705 0.007814 -0.007812 -1.836817 0.542673 0.059936
    24 3.859680 -0.132569 1.193109 0.410308 0.177652 -1.525986
    25 1.312561 -0.000006 0.000001 -0.028200 -0.208100 -0.323985
    26 0.729364 0.000004 -0.000003 0.000000 0.000000 -0.975912
    27 3.942307 0.050328 0.431044 0.299837 -0.002993 -1.243628
    28 1.539099 0.000002 0.000001 -0.166094 0.026628 -0.917897
    29 1.196323 0.000010 0.000000 0.000000 0.000000 -1.092562
    30 3.883663 -0.050322 -0.431042 0.332615 -0.177134 -1.074793
    31 1.719578 0.000002 0.000000 -0.473398 0.044296 -1.502183
    32 1.209185 -0.000004 0.000000 -0.000004 0.073087 -0.732230
    33 3.859844 -0.148934 -1.331282 0.154669 -0.478784 0.095030
    34 1.719419 0.000004 -0.000001 -0.000003 -0.006608 -1.391681
    35 1.103516 -0.002300 -0.001109 0.004092 0.021864 -0.613414
    36 0.806023 -0.359839 -1.318334 1.133167 0.410187 -0.912229
    37 1.789783 0.000002 -0.000004 0.067605 0.379342 0.532083
    38 1.206999 0.000003 0.000002 0.000000 0.000000 0.554574
    39 -2.685071 -14.149931 -4.173350 -1.535130 0.970446 -1.570887
    40 -2.596353 -11.334415 -2.659107 1.590911 0.018779 -1.600131
    41 -2.504733 -11.625133 -7.542090 1.638271 -1.267275 -1.665086
    42 -2.678109 -14.141620 -3.467412 1.590941 0.023958 -1.600191
    43 5.070313 0.786133 -0.015732 0.000000 0.000000 0.007777
    44 0.719727 0.786621 0.374268 0.000000 -1.570796 0.007777
  time 11
    0 0.000000 -0.000006 0.000000 -1.570717 -1.391887 -1.570864
    1 2.033349 1.000767 1.937660 1.596637 -1.286515 2.942961
    2 17.559743 -4.382946 -7.726798 -0.383551 -0.660413 -2.893800
    3 11.692551 0.000001 0.000001 0.000000 0.000000 -0.060372
    4 11.505107 0.000001 0.003882 1.010312 -0.854227 0.282207
    5 3.844087 -0.173656 -1.191975 -0.509625 0.429665 -0.529609
    6 1.328175 -0.031251 0.000002 0.005824 -0.019055 -0.436449
    7 0.752802 -0.015627 -0.003908 0.011385 -0.016958 -0.162854
    8 3.934526 0.038954 -0.431443 -0.132485 0.273157 -0.606122
    9 1.539093 -0.007813 0.000000 -0.002613 0.002613 -0.296196
    10 1.196321 0.003901 0.000000 -0.002277 0.001846 -0.375851
    11 3.860261 -0.062387 0.431443 0.090684 0.066688 -0.458632
    12 1.719564 0.000002 -0.000001 -0.002337 0.001262 -0.362876
    13 1.213078 0.023438 0.000000 -0.001186 -0.001818 -0.254559
    14 3.832524 -0.137947 1.332466 0.278539 0.045130 -0.510654
    15 1.719429 0.000006 -0.000001 -0.009995 0.010018 -0.366625
    16 1.099661 0.000002 -0.000001 -0.007862 0.005832 -0.358534
    17 0.802153 -0.325488 1.301726 -2.070881 -0.480372 -0.501026
    18 1.789782 0.003906 0.003906 0.016023 0.003462 0.020162
    19 1.203100 0.003905 0.000002 0.031978 0.043120 0.379634
    20 2.033356 1.000772 -1.937610 -1.668474 1.286518 2.942953
    21 15.415150 -6.519730 11.828486 -0.312763 1.060721 -3.141474
    22 11.692557 0.000001 0.000006 0.000000 0.000000 -0.060372
    23 11.469986 0.000001 0.000001 -1.854915 0.559223 0.039131
    24 3.859680 -0.132569 1.193109 0.410308 0.177652 -1.525986
    25 1.312561 -0.000006 0.000001 -0.028212 -0.208100 -0.323985
    26 0.729364 0.000004 -0.000003 0.000000 0.000000 -0.975912
    27 3.942307 0.050328 0.431044 0.299837 -0.002993 -1.243628
    28 1.539099 0.000002 0.000001 -0.166094 0.026628 -0.917897
    29 1.196323 0.000010 0.000000 0.000000 0.000000 -1.092562
    30 3.883663 -0.050322 -0.431042 0.332615 -0.177134 -1.074793
    31 1.719578 0.000002 0.000000 -0.473398 0.044296 -1.502183
    32 1.209185 -0.000004 0.000000 -0.000004 0.073087 -0.732230
    33 3.859844 -0.148934 -1.331282 0.154669 -0.478784 0.095030
    34 1.719419 0.000004 -0.000001 -0.000003 -0.006608 -1.391681
    35 1.103516 -0.002300 -0.001109 0.004092 0.021864 -0.613414
    36 0.806023 -0.359839 -1.318334 1.133167 0.410187 -0.912229
    37 1.789783 0.000002 -0.000004 0.067605 0.379342 0.532083
    38 1.206999 0.000003 0.000002 0.000000 0.000000 0.554574
    39 -2.571787 -14.157744 -4.103035 -1.557565 0.956606 -1.588714
    40 -2.467443 -11.330509 -2.627856 1.578385 0.004560 -1.599613
    41 -2.438325 -11.687635 -7.503026 1.597557 -1.281868 -1.625396
    42 -2.557011 -14.153339 -3.401004 1.578362 0.009941 -1.599673
    43 5.070313 0.786133 -0.015732 0.000000 0.000000 0.007777
    44 0.719727 0.786621 0.374268 0.000000 -1.570796 0.007777
  time 12
    0 0.000000 -0.000006 0.000000 -1.570717 -1.391887 -1.570864
    1 2.033349 1.000767 1.937660 1.596637 -1.286515 2.942961
    2 17.719904 -4.324351 -7.679922 -0.388844 -0.653898 -2.887695
    3 11.692551 0.000001 0.000001 0.000000 0.000000 -0.060372
    4 11.481668 0.000001 -0.000025 1.042410 -0.858543 0.203136
    5 3.812836 -0.286941 -1.176350 -0.442422 0.470287 -0.330316
    6 1.382864 -0.105472 -0.019530 0.013051 -0.062248 -0.257031
    7 0.811397 -0.070317 -0.015627 0.031459 -0.057238 0.015743
    8 3.887650 -0.015735 -0.415817 -0.097502 0.291709 -0.481429
    9 1.542999 -0.027345 0.000000 -0.007562 0.008941 -0.175387
    10 1.196321 0.011713 0.000000 -0.006987 0.006352 -0.254941
    11 3.797759 -0.113170 0.423630 0.088335 0.045260 -0.312866
    12 1.719564 0.023440 -0.000001 -0.008449 -0.007535 -0.215852
    13 1.228703 0.093753 0.000000 -0.005045 -0.012220 -0.107587
    14 3.773929 -0.184824 1.324653 0.276010 0.024971 -0.378434
    15 1.711616 -0.003901 -0.000001 -0.030489 0.025562 -0.235760
    16 1.095755 0.011721 -0.000001 -0.024401 0.014581 -0.226267
    17 0.778714 -0.262986 1.227505 -2.170692 -0.479581 -0.393949
    18 1.774156 0.023438 0.027345 0.041670 0.123911 -0.090618
    19 1.175756 0.031250 0.015627 0.094262 0.144043 0.268266
    20 2.033356 1.000772 -1.937610 -1.668474 1.286518 2.942953
    21 16.063607 -5.867367 11.312845 -0.273001 1.022262 -3.087424
    22 11.692557 0.000001 0.000006 0.000000 0.000000 -0.060372
    23 11.434828 -0.007812 0.015626 -1.898269 0.583725 -0.024140
    24 3.859680 -0.132569 1.193109 0.410308 0.177652 -1.525986
    25 1.312561 -0.000006 0.000001 -0.028212 -0.208100 -0.323985
    26 0.729364 0.000004 -0.000003 0.000000 0.000000 -0.975912
    27 3.942307 0.050328 0.431044 0.299837 -0.002993 -1.243628
    28 1.539099 0.000002 0.000001 -0.166094 0.026628 -0.917897
    29 1.196323 0.000010 0.000000 0.000000 0.000000 -1.092562
    30 3.883663 -0.050322 -0.431042 0.332615 -0.177134 -1.074793
    31 1.719578 0.000002 0.000000 -0.473398 0.044296 -1.502183
    32 1.209185 -0.000004 0.000000 -0.000004 0.073087 -0.732230
    33 3.859844 -0.148934 -1.331282 0.154669 -0.478784 0.095030
    34 1.719419 0.000004 -0.000001 -0.000003 -0.006608 -1.391681
    35 1.103516 -0.002300 -0.001109 0.004092 0.021864 -0.613414
    36 0.806023 -0.359839 -1.318334 1.133167 0.410187 -0.912229
    37 1.789783 0.000002 -0.000004 0.067605 0.379342 0.532083
    38 1.206999 0.000003 0.000002 0.000000 0.000000 0.554574
    39 -2.345217 -14.095242 -3.880372 -1.596587 0.913058 -1.604019
    40 -2.248687 -11.213318 -2.534103 1.555024 -0.038705 -1.582932
    41 -2.332853 -11.777481 -7.393648 1.506188 -1.324848 -1.520474
    42 -2.310910 -14.055680 -3.186154 1.554981 -0.033271 -1.583035
    43 5.070313 0.786133 -0.015732 0.000000 0.000000 0.007777
    44 0.719727 0.786621 0.374268 0.000000 -1.570796 0.007777
  time 13
    0 0.000000 -0.000006 0.000000 -1.570717 -1.391887 -1.570864
    1 2.033349 1.000767 1.937660 1.596637 -1.286515 2.942961
    2 17.848814 -4.281381 -7.625233 -0.391719 -0.646592 -2.884228
    3 11.692551 0.000001 0.000001 0.000000 0.000000 -0.060372
    4 11.462137 0.000001 -0.015650 1.106249 -0.895132 0.102053
    5 3.801117 -0.396320 -1.160724 -0.358680 0.500065 -0.124106
    6 1.453179 -0.160161 -0.031249 0.012512 -0.106088 -0.077233
    7 0.881712 -0.105474 -0.031253 0.044031 -0.100491 0.194234
    8 3.852492 -0.062611 -0.411911 -0.058072 0.307469 -0.355636
    9 1.550812 -0.046876 0.000000 -0.011457 0.016023 -0.054577
    10 1.200228 0.023432 0.000000 -0.011146 0.011361 -0.134000
    11 3.743070 -0.175672 0.411911 0.082930 0.024371 -0.167194
    12 1.711752 0.042972 -0.000001 -0.015820 -0.015349 -0.068715
    13 1.232610 0.164068 0.007813 -0.010367 -0.022024 0.039503
    14 3.715333 -0.231700 1.312934 0.270869 0.005313 -0.246214
    15 1.695991 -0.015620 -0.000001 -0.048130 0.043911 -0.105085
    16 1.072316 0.031253 -0.000001 -0.039585 0.025415 -0.094248
    17 0.743557 -0.208297 1.149378 -2.266822 -0.469477 -0.285978
    18 1.766343 0.042970 0.046876 0.054075 0.246410 -0.200738
    19 1.152317 0.058595 0.042972 0.145640 0.251964 0.161785
    20 2.033356 1.000772 -1.937610 -1.668474 1.286518 2.942953
    21 16.801911 -4.976715 10.640950 -0.226512 0.974614 -3.023408
    22 11.692557 0.000001 0.000006 0.000000 0.000000 -0.060372
    23 11.380139 0.000001 0.027346 -1.923816 0.592284 -0.106221
    24 3.859680 -0.132569 1.193109 0.410308 0.177652 -1.525986
    25 1.312561 -0.000006 0.000001 -0.028212 -0.208100 -0.323985
    26 0.729364 0.000004 -0.000003 0.000000 0.000000 -0.975912
    27 3.942307 0.050328 0.431044 0.299802 -0.002981 -1.243588
    28 1.539099 0.000002 0.000001 -0.166094 0.026628 -0.917897
    29 1.196323 0.000010 0.000000 0.000000 0.000000 -1.092562
    30 3.883663 -0.050322 -0.431042 0.332615 -0.177134 -1.074793
    31 1.719578 0.000002 0.000000 -0.473398 0.044296 -1.502183
    32 1.209185 -0.000004 0.000000 -0.000004 0.073087 -0.732230
    33 3.859844 -0.148934 -1.331282 0.154669 -0.478784 0.095030
    34 1.719419 0.000004 -0.000001 -0.000003 -0.006608 -1.391681
    35 1.103516 -0.002300 -0.001109 0.004092 0.021864 -0.613414
    36 0.806023 -0.359839 -1.318334 1.133167 0.410187 -0.912229
    37 1.789783 0.000002 -0.000004 0.067605 0.379342 0.532083
    38 1.206999 0.000003 0.000002 0.000000 0.000000 0.554574
    39 -2.020989 -13.978051 -3.591301 -1.595916 0.859920 -1.559147
    40 -2.057274 -11.018000 -2.409099 1.554201 -0.091690 -1.538594
    41 -2.110190 -11.847796 -7.217861 1.484493 -1.377789 -1.455242
    42 -1.994494 -13.899425 -2.904895 1.554206 -0.086467 -1.538810
    43 5.070313 0.786133 -0.015732 0.000000 0.000000 0.007777
    44 0.719727 0.786621 0.374268 0.000000 -1.570796 0.007777
  time 14
    0 0.000000 -0.000006 0.000000 -1.570717 -1.391887 -1.570864
    1 2.033349 1.000767 1.937660 1.596637 -1.286515 2.942961
    2 17.493335 -4.242317 -8.746361 -0.463402 -0.761301 -2.818577
    3 11.692551 0.000001 0.000001 0.000000 0.000000 -0.060372
    4 11.466043 -0.027344 -0.050808 1.293308 -0.783398 -0.119495
    5 3.805023 -0.447102 -1.152911 -0.315828 0.508792 -0.028454
    6 1.488336 -0.183599 -0.031249 0.009624 -0.125790 0.004773
    7 0.912963 -0.125006 -0.039066 0.047159 -0.120721 0.275430
    8 3.836867 -0.089956 -0.400192 -0.038789 0.313497 -0.298104
    9 1.558625 -0.058596 0.000000 -0.012836 0.019475 0.000380
    10 1.200228 0.031245 0.000000 -0.012812 0.013818 -0.078956
    11 3.723538 -0.203016 0.404098 0.079430 0.015226 -0.100974
    12 1.707845 0.046878 -0.000001 -0.019535 -0.018537 -0.001783
    13 1.224797 0.195318 0.003906 -0.013243 -0.026146 0.106451
    14 3.687989 -0.259045 1.309028 0.267681 -0.003366 -0.186037
    15 1.695991 -0.019526 -0.000001 -0.055129 0.053103 -0.045679
    16 1.064504 0.031253 -0.000001 -0.046057 0.030988 -0.034130
    17 0.724025 -0.188765 1.122033 -2.308788 -0.461886 -0.236917
    18 1.762437 0.054689 0.058596 0.055189 0.302334 -0.251437
    19 1.148411 0.074220 0.054691 0.165410 0.302958 0.114488
    20 2.033356 1.000772 -1.937610 -1.668474 1.286518 2.942953
    21 17.430836 -4.015748 9.937803 -0.180546 0.927735 -2.961212
    22 11.692557 0.000001 0.000006 0.000000 0.000000 -0.060372
    23 11.344982 0.000001 0.023439 -1.911188 0.564733 -0.158382
    24 3.859680 -0.132569 1.193109 0.410308 0.177652 -1.525986
    25 1.312561 -0.000006 0.000001 -0.028212 -0.208100 -0.323985
    26 0.729364 0.000004 -0.000003 0.000000 0.000000 -0.975912
    27 3.942307 0.050328 0.431044 0.299802 -0.002981 -1.243601
    28 1.539099 0.000002 0.000001 -0.166094 0.026628 -0.917897
    29 1.196323 0.000010 0.000000 0.000000 0.000000 -1.092562
    30 3.883663 -0.050322 -0.431042 0.332615 -0.177134 -1.074793
    31 1.719578 0.000002 0.000000 -0.473398 0.044296 -1.502183
    32 1.209185 -0.000004 0.000000 -0.000004 0.073087 -0.732230
    33 3.859844 -0.148934 -1.331282 0.154669 -0.478784 0.095030
    34 1.719419 0.000004 -0.000001 -0.000003 -0.006608 -1.391681
    35 1.103516 -0.002300 -0.001109 0.004092 0.021864 -0.613414
    36 0.806023 -0.359839 -1.318334 1.133167 0.410187 -0.912229
    37 1.789783 0.000002 -0.000004 0.067605 0.379342 0.532083
    38 1.206999 0.000003 0.000002 0.000000 0.000000 0.554574
    39 -1.563943 -13.853047 -3.423327 -1.573289 0.835008 -1.458271
    40 -1.865862 -10.885183 -2.303627 1.569150 -0.116906 -1.456486
    41 -1.766430 -11.824358 -7.100670 1.560474 -1.403510 -1.446126
    42 -1.553074 -13.750983 -2.725202 1.569064 -0.111483 -1.456395
    43 5.070313 0.786133 -0.015732 0.000000 0.000000 0.007777
    44 0.719727 0.786621 0.374268 0.000000 -1.570796 0.007777
  time 15
    0 0.000000 -0.000006 0.000000 -1.570717 -1.391887 -1.570864
    1 2.033349 1.000767 1.937660 1.596637 -1.286515 2.942961
    2 16.669091 -4.207160 -10.566729 -0.675444 -0.951163 -2.628635
    3 11.692551 0.000001 0.000001 0.000000 0.000000 -0.060372
    4 11.481668 -0.058595 -0.085965 1.422858 -0.544535 -0.315658
    5 3.801117 -0.451009 -1.152911 -0.315828 0.508776 -0.028489
    6 1.488336 -0.187506 -0.031249 0.009624 -0.125790 0.004735
    7 0.912963 -0.125006 -0.039066 0.047159 -0.120721 0.275430
    8 3.840773 -0.089956 -0.400192 -0.038789 0.313485 -0.298104
    9 1.558625 -0.062502 0.003906 -0.012836 0.019475 0.000380
    10 1.200228 0.027339 0.000000 -0.012812 0.013818 -0.078956
    11 3.723538 -0.203016 0.411911 0.079430 0.015226 -0.100974
    12 1.707845 0.046878 -0.000001 -0.019535 -0.018525 -0.001783
    13 1.228703 0.195318 0.007813 -0.013231 -0.026146 0.106451
    14 3.691895 -0.259045 1.309028 0.267681 -0.003366 -0.186037
    15 1.692084 -0.019526 -0.000001 -0.055129 0.053127 -0.045711
    16 1.060597 0.031253 -0.000001 -0.046057 0.030988 -0.034130
    17 0.724025 -0.188765 1.118127 -2.308855 -0.461886 -0.236954
    18 1.762437 0.054689 0.058596 0.055201 0.302312 -0.251437
    19 1.160130 0.074220 0.054691 0.165369 0.302934 0.114488
    20 2.033356 1.000772 -1.937610 -1.668474 1.286518 2.942953
    21 17.891788 -3.129002 9.273721 -0.138915 0.886928 -2.908599
    22 11.692557 0.000001 0.000006 0.000000 0.000000 -0.060372
    23 11.387952 0.007814 0.000001 -1.856428 0.480107 -0.119154
    24 3.859680 -0.132569 1.193109 0.410308 0.177652 -1.525986
    25 1.312561 -0.000006 0.000001 -0.028212 -0.208100 -0.323985
    26 0.729364 0.000004 -0.000003 0.000000 0.000000 -0.975912
    27 3.942307 0.050328 0.431044 0.299837 -0.002993 -1.243628
    28 1.539099 0.000002 0.000001 -0.166094 0.026628 -0.917897
    29 1.196323 0.000010 0.000000 0.000000 0.000000 -1.092562
    30 3.883663 -0.050322 -0.431042 0.332615 -0.177134 -1.074793
    31 1.719578 0.000002 0.000000 -0.473398 0.044296 -1.502183
    32 1.209185 -0.000004 0.000000 -0.000004 0.073087 -0.732230
    33 3.859844 -0.148934 -1.331282 0.154669 -0.478784 0.095030
    34 1.719419 0.000004 -0.000001 -0.000003 -0.006608 -1.391681
    35 1.103516 -0.002300 -0.001109 0.004092 0.021864 -0.613414
    36 0.806023 -0.359839 -1.318334 1.133167 0.410208 -0.912229
    37 1.789783 0.000002 -0.000004 0.067605 0.379342 0.532083
    38 1.206999 0.000003 0.000002 0.000000 0.000000 0.554574
    39 -0.825640 -13.790545 -3.657709 -1.564276 0.889355 -1.316262
    40 -1.522102 -10.955498 -2.377848 1.574865 -0.062760 -1.321484
    41 -1.332823 -11.613414 -7.213955 1.589624 -1.349336 -1.339590
    42 -0.826490 -13.735357 -2.955678 1.574898 -0.057475 -1.321566
    43 5.070313 0.786133 -0.015732 0.000000 0.000000 0.007777
    44 0.719727 0.786621 0.374268 0.000000 -1.570796 0.007777
  time 16
    0 0.000000 -0.000006 0.000000 -1.570717 -1.391887 -1.570864
    1 2.033349 1.000767 1.937660 1.596637 -1.286515 2.942961
    2 17.508960 -3.668081 -11.140965 -0.899379 -0.937389 -2.437110
    3 11.692551 0.000001 0.000001 0.000000 0.000000 -0.060372
    4 11.407447 -0.031250 -0.097684 1.451033 -0.538205 -0.476773
    5 3.805023 -0.447102 -1.152911 -0.315828 0.508792 -0.028489
    6 1.488336 -0.187506 -0.031249 0.009624 -0.125790 0.004773
    7 0.912963 -0.125006 -0.039066 0.047159 -0.120721 0.275430
    8 3.840773 -0.086049 -0.396286 -0.038789 0.313473 -0.298104
    9 1.558625 -0.062502 0.000000 -0.012836 0.019487 0.000380
    10 1.196321 0.031245 0.000000 -0.012812 0.013818 -0.078956
    11 3.727445 -0.203016 0.411911 0.079430 0.015226 -0.100974
    12 1.707845 0.046878 -0.000001 -0.019535 -0.018561 -0.001783
    13 1.228703 0.195318 0.007813 -0.013231 -0.026146 0.106451
    14 3.691895 -0.259045 1.312934 0.267681 -0.003366 -0.186037
    15 1.692084 -0.019526 -0.000001 -0.055165 0.053091 -0.045711
    16 1.068410 0.031253 -0.000001 -0.046057 0.030988 -0.034130
    17 0.724025 -0.188765 1.122033 -2.308855 -0.461886 -0.236954
    18 1.766343 0.054689 0.058596 0.055189 0.302312 -0.251437
    19 1.152317 0.074220 0.054691 0.165410 0.302958 0.114467
    20 2.033356 1.000772 -1.937610 -1.668474 1.286518 2.942953
    21 18.231642 -2.445387 8.683859 -0.106253 0.852720 -2.870649
    22 11.692557 0.000001 0.000006 0.000000 0.000000 -0.060372
    23 11.501237 0.019533 -0.027344 -1.808011 0.336979 0.005565
    24 3.859680 -0.132569 1.193109 0.410308 0.177652 -1.525986
    25 1.312561 -0.000006 0.000001 -0.028212 -0.208100 -0.323985
    26 0.729364 0.000004 -0.000003 0.000000 0.000000 -0.975912
    27 3.942307 0.050328 0.431044 0.299802 -0.002981 -1.243588
    28 1.539099 0.000002 0.000001 -0.166094 0.026628 -0.917897
    29 1.196323 0.000010 0.000000 0.000000 0.000000 -1.092562
    30 3.883663 -0.050322 -0.431042 0.332615 -0.177134 -1.074793
    31 1.719578 0.000002 0.000000 -0.473398 0.044296 -1.502183
    32 1.209185 -0.000004 0.000000 -0.000004 0.073087 -0.732230
    33 3.859844 -0.148934 -1.331282 0.154669 -0.478784 0.095030
    34 1.719419 0.000004 -0.000001 -0.000003 -0.006608 -1.391681
    35 1.103516 -0.002300 -0.001109 0.004092 0.021864 -0.613414
    36 0.806023 -0.359839 -1.318334 1.133167 0.410187 -0.912229
    37 1.789783 0.000002 -0.000004 0.067605 0.379342 0.532083
    38 1.206999 0.000003 0.000002 0.000000 0.000000 0.554574
    39 0.186110 -13.649916 -4.364762 -1.593615 1.027092 -1.163557
    40 -0.893176 -11.146910 -2.694264 1.558864 0.075304 -1.144650
    41 -0.938279 -11.179807 -7.585060 1.536676 -1.211102 -1.111610
    42 0.224324 -13.668949 -3.662731 1.558855 0.080607 -1.144925
    43 5.070313 0.786133 -0.015732 0.000000 0.000000 0.007777
    44 0.719727 0.786621 0.374268 0.000000 -1.570796 0.007777
  time 17
    0 0.000000 -0.000006 0.000000 -1.570717 -1.391887 -1.570864
    1 2.033349 1.000767 1.937660 1.596637 -1.286515 2.942961
    2 18.794156 -3.007905 -9.883114 -0.968513 -0.751761 -2.387137
    3 11.692551 0.000001 0.000001 0.000000 0.000000 -0.060372
    4 11.298069 0.050784 -0.085965 1.391117 -0.752563 -0.585174
    5 3.808930 -0.454915 -1.152911 -0.315828 0.508776 -0.028489
    6 1.488336 -0.187506 -0.031249 0.009624 -0.125790 0.004773
    7 0.916869 -0.125006 -0.039066 0.047159 -0.120721 0.275430
    8 3.840773 -0.093862 -0.396286 -0.038789 0.313473 -0.298104
    9 1.558625 -0.062502 0.000000 -0.012836 0.019475 0.000380
    10 1.204134 0.031245 0.000000 -0.012812 0.013818 -0.078956
    11 3.727445 -0.203016 0.411911 0.079430 0.015226 -0.100974
    12 1.707845 0.050785 -0.000001 -0.019535 -0.018549 -0.001783
    13 1.224797 0.195318 0.007813 -0.013243 -0.026146 0.106451
    14 3.691895 -0.262951 1.312934 0.267681 -0.003352 -0.186037
    15 1.695991 -0.019526 -0.000001 -0.055129 0.053103 -0.045711
    16 1.068410 0.039066 -0.000001 -0.046057 0.030988 -0.034130
    17 0.724025 -0.192672 1.125940 -2.308788 -0.461886 -0.236917
    18 1.770250 0.054689 0.058596 0.055177 0.302312 -0.251437
    19 1.152317 0.074220 0.054691 0.165369 0.302934 0.114488
    20 2.033356 1.000772 -1.937610 -1.668474 1.286518 2.942953
    21 18.583215 -2.027406 8.027589 -0.086596 0.818634 -2.849183
    22 11.692557 0.000001 0.000006 0.000000 0.000000 -0.060372
    23 11.688742 0.039065 -0.007812 -1.827215 0.168625 0.172044
    24 3.859680 -0.132569 1.193109 0.410308 0.177652 -1.525986
    25 1.312561 -0.000006 0.000001 -0.028212 -0.208100 -0.323985
    26 0.729364 0.000004 -0.000003 0.000000 0.000000 -0.975912
    27 3.942307 0.050328 0.431044 0.299837 -0.002993 -1.243628
    28 1.539099 0.000002 0.000001 -0.166094 0.026628 -0.917897
    29 1.196323 0.000010 0.000000 0.000000 0.000000 -1.092562
    30 3.883663 -0.050322 -0.431042 0.332615 -0.177134 -1.074793
    31 1.719578 0.000002 0.000000 -0.473398 0.044296 -1.502183
    32 1.209185 -0.000004 0.000000 -0.000004 0.073087 -0.732230
    33 3.859844 -0.148934 -1.331282 0.154669 -0.478784 0.095030
    34 1.719419 0.000004 -0.000001 -0.000003 -0.006608 -1.391681
    35 1.103516 -0.002300 -0.001109 0.004092 0.021864 -0.613414
    36 0.806023 -0.359839 -1.318334 1.133167 0.410187 -0.912229
    37 1.789783 0.000002 -0.000004 0.067605 0.379342 0.532083
    38 1.206999 0.000003 0.000002 0.000000 0.000000 0.554574
    39 1.264268 -13.204590 -5.431201 -1.730526 1.208728 -1.090161
    40 -0.010337 -11.201599 -3.303658 1.512463 0.260463 -0.955630
    41 -0.750774 -10.640728 -8.116326 1.462511 -1.022992 -0.847548
    42 1.404047 -13.301750 -4.764327 1.512322 0.265907 -0.956043
    43 5.070313 0.786133 -0.015732 0.000000 0.000000 0.007777
    44 0.719727 0.786621 0.374268 0.000000 -1.570796 0.007777
  time 18
    0 0.000000 -0.000006 0.000000 -1.570717 -1.391887 -1.570864
    1 2.033349 1.000767 1.937660 1.596637 -1.286515 2.942961
    2 17.919129 -3.086032 -7.726798 -0.983085 -0.585678 -2.342742
    3 11.692551 0.000001 0.000001 0.000000 0.000000 -0.060372
    4 11.251193 0.179694 -0.015650 1.096263 -0.897434 -0.466882
    5 3.801117 -0.447102 -1.152911 -0.315828 0.508776 -0.028489
    6 1.488336 -0.187506 -0.031249 0.009624 -0.125790 0.004735
    7 0.912963 -0.125006 -0.039066 0.047159 -0.120721 0.275430
    8 3.836867 -0.089956 -0.400192 -0.038789 0.313485 -0.298104
    9 1.554718 -0.058596 0.000000 -0.012836 0.019463 0.000380
    10 1.196321 0.027339 0.000000 -0.012812 0.013818 -0.078956
    11 3.723538 -0.203016 0.408005 0.079430 0.015226 -0.100974
    12 1.707845 0.046878 -0.000001 -0.019535 -0.018537 -0.001783
    13 1.224797 0.195318 0.000000 -0.013219 -0.026146 0.106451
    14 3.687989 -0.262951 1.309028 0.267681 -0.003352 -0.186037
    15 1.692084 -0.019526 -0.000001 -0.055141 0.053127 -0.045679
    16 1.064504 0.035159 -0.000001 -0.046057 0.030988 -0.034130
    17 0.724025 -0.192672 1.122033 -2.308855 -0.461886 -0.236917
    18 1.766343 0.054689 0.058596 0.055189 0.302312 -0.251437
    19 1.152317 0.074220 0.054691 0.165369 0.302934 0.114488
    20 2.033356 1.000772 -1.937610 -1.668474 1.286518 2.942953
    21 19.716062 -1.804743 6.508011 -0.112307 0.739530 -2.843816
    22 11.692557 0.000001 0.000006 0.000000 0.000000 -0.060372
    23 11.860623 0.082035 0.031252 -1.880753 0.053458 0.363080
    24 3.859680 -0.132569 1.193109 0.410308 0.177652 -1.525986
    25 1.312561 -0.000006 0.000001 -0.028212 -0.208100 -0.323985
    26 0.729364 0.000004 -0.000003 0.000000 0.000000 -0.975912
    27 3.942307 0.050328 0.431044 0.299837 -0.002993 -1.243628
    28 1.539099 0.000002 0.000001 -0.166094 0.026628 -0.917897
    29 1.196323 0.000010 0.000000 0.000000 0.000000 -1.092562
    30 3.883663 -0.050322 -0.431042 0.332615 -0.177134 -1.074793
    31 1.719578 0.000002 0.000000 -0.473398 0.044296 -1.502183
    32 1.209185 -0.000004 0.000000 -0.000004 0.073087 -0.732230
    33 3.859844 -0.148934 -1.331282 0.154669 -0.478784 0.095030
    34 1.719419 0.000004 -0.000001 -0.000003 -0.006608 -1.391681
    35 1.103516 -0.002300 -0.001109 0.004092 0.021864 -0.613414
    36 0.806023 -0.359839 -1.318334 1.133167 0.410187 -0.912229
    37 1.789783 0.000002 -0.000004 0.067605 0.379342 0.532083
    38 1.206999 0.000003 0.000002 0.000000 0.000000 0.554574
    39 2.053355 -12.513162 -6.825775 -2.221891 1.372313 -1.368874
    40 0.860783 -10.994561 -4.288063 1.437307 0.456707 -0.786402
    41 -0.860152 -10.187589 -8.803847 1.395036 -0.818657 -0.597919
    42 2.337669 -12.637668 -6.201871 1.436939 0.461944 -0.787333
    43 5.070313 0.786133 -0.015732 0.000000 0.000000 0.007777
    44 0.719727 0.786621 0.374268 0.000000 -1.570796 0.007777
  time 19
    0 0.000000 -0.000006 0.000000 -1.570717 -1.391887 -1.570864
    1 2.033349 1.000767 1.937660 1.596637 -1.286515 2.942961
    2 14.344801 -4.140752 -7.566637 -0.990730 -0.596520 -2.260132
    3 11.692551 0.000001 0.000001 0.000000 0.000000 -0.060372
    4 11.368384 0.292978 0.105447 0.660446 -0.732901 -0.139506
    5 3.801117 -0.447102 -1.152911 -0.315828 0.508776 -0.028489
    6 1.488336 -0.187506 -0.031249 0.009624 -0.125790 0.004735
    7 0.916869 -0.125006 -0.039066 0.047159 -0.120721 0.275430
    8 3.836867 -0.089956 -0.400192 -0.038789 0.313497 -0.298104
    9 1.558625 -0.062502 0.000000 -0.012836 0.019475 0.000380
    10 1.196321 0.031245 0.000000 -0.012812 0.013818 -0.078956
    11 3.723538 -0.203016 0.404098 0.079430 0.015226 -0.100974
    12 1.707845 0.046878 -0.000001 -0.019535 -0.018537 -0.001783
    13 1.224797 0.195318 0.007813 -0.013243 -0.026146 0.106451
    14 3.687989 -0.255138 1.309028 0.267681 -0.003352 -0.186037
    15 1.692084 -0.019526 -0.000001 -0.055129 0.053103 -0.045679
    16 1.060597 0.031253 -0.000001 -0.046057 0.030988 -0.034130
    17 0.724025 -0.188765 1.122033 -2.308788 -0.461886 -0.236917
    18 1.762437 0.054689 0.058596 0.055177 0.302312 -0.251437
    19 1.152317 0.074220 0.054691 0.165369 0.302934 0.114488
    20 2.033356 1.000772 -1.937610 -1.668474 1.286518 2.942953
    21 19.473867 -1.175817 5.820490 -0.021945 0.715200 -2.772324
    22 11.692557 0.000001 0.000006 0.000000 0.000000 -0.060372
    23 11.973907 0.105473 0.171881 -2.055915 -0.034080 0.478555
    24 3.859680 -0.132569 1.193109 0.410308 0.177652 -1.525986
    25 1.312561 -0.000006 0.000001 -0.028200 -0.208100 -0.323985
    26 0.729364 0.000004 -0.000003 0.000000 0.000000 -0.975912
    27 3.942307 0.050328 0.431044 0.299802 -0.002981 -1.243588
    28 1.539099 0.000002 0.000001 -0.166094 0.026628 -0.917897
    29 1.196323 0.000010 0.000000 0.000000 0.000000 -1.092562
    30 3.883663 -0.050322 -0.431042 0.332615 -0.177134 -1.074793
    31 1.719578 0.000002 0.000000 -0.473398 0.044296 -1.502183
    32 1.209185 -0.000004 0.000000 -0.000004 0.073087 -0.732230
    33 3.859844 -0.148934 -1.331282 0.154669 -0.478784 0.095030
    34 1.719419 0.000004 -0.000001 -0.000003 -0.006608 -1.391681
    35 1.103516 -0.002300 -0.001109 0.004092 0.021864 -0.613414
    36 0.806023 -0.359839 -1.318334 1.133167 0.410187 -0.912229
    37 1.789783 0.000002 -0.000004 0.067605 0.379342 0.532083
    38 1.206999 0.000003 0.000002 0.000000 0.000000 0.554574
    39 2.658842 -11.821735 -8.446918 -3.269912 1.385295 -2.229450
    40 1.727997 -10.631269 -5.639667 1.342585 0.630230 -0.663932
    41 -0.914841 -9.964926 -9.710125 1.342375 -0.631180 -0.391303
    42 3.068160 -11.914989 -7.893329 1.341640 0.635432 -0.665607
    43 5.070313 0.786133 -0.015732 0.000000 0.000000 0.007777
    44 0.719727 0.786621 0.374268 0.000000 -1.570796 0.007777
  time 20
    0 0.000000 -0.000006 0.000000 -1.570717 -1.391887 -1.570864
    1 2.033349 1.000767 1.937660 1.596637 -1.286515 2.942961
    2 8.000857 -5.953307 -11.043306 -1.155463 -0.829335 -2.018634
    3 11.692551 0.000001 0.000001 0.000000 0.000000 -0.060372
    4 11.669174 0.343761 0.195294 0.494875 -0.232926 0.067177
    5 3.801117 -0.451009 -1.152911 -0.315828 0.508776 -0.028489
    6 1.484430 -0.187506 -0.027343 0.009624 -0.125790 0.004735
    7 0.912963 -0.125006 -0.039066 0.047159 -0.120721 0.275430
    8 3.836867 -0.089956 -0.400192 -0.038789 0.313473 -0.298104
    9 1.558625 -0.062502 0.000000 -0.012836 0.019475 0.000346
    10 1.200228 0.031245 0.000000 -0.012812 0.013818 -0.078956
    11 3.723538 -0.206923 0.400192 0.079430 0.015226 -0.100974
    12 1.707845 0.050785 -0.000001 -0.019523 -0.018561 -0.001783
    13 1.224797 0.199225 0.003906 -0.013219 -0.026146 0.106451
    14 3.691895 -0.262951 1.309028 0.267681 -0.003366 -0.186068
    15 1.695991 -0.019526 -0.000001 -0.055141 0.053103 -0.045711
    16 1.068410 0.031253 -0.000001 -0.046057 0.030988 -0.034130
    17 0.724025 -0.188765 1.122033 -2.308788 -0.461886 -0.236917
    18 1.766343 0.054689 0.058596 0.055189 0.302312 -0.251437
    19 1.148411 0.074220 0.054691 0.165410 0.302958 0.114467
    20 2.033356 1.000772 -1.937610 -1.668474 1.286518 2.942953
    21 18.825410 -0.082034 4.324351 0.121110 0.652776 -2.646399
    22 11.692557 0.000001 0.000006 0.000000 0.000000 -0.060372
    23 11.993439 0.093754 0.292979 -2.216936 -0.014540 0.503692
    24 3.859680 -0.132569 1.193109 0.410308 0.177652 -1.525986
    25 1.312561 -0.000006 0.000001 -0.028212 -0.208100 -0.323985
    26 0.729364 0.000004 -0.000003 0.000000 0.000000 -0.975912
    27 3.942307 0.050328 0.431044 0.299802 -0.002981 -1.243588
    28 1.539099 0.000002 0.000001 -0.166094 0.026628 -0.917897
    29 1.196323 0.000010 0.000000 0.000000 0.000000 -1.092562
    30 3.883663 -0.050322 -0.431042 0.332615 -0.177134 -1.074793
    31 1.719578 0.000002 0.000000 -0.473398 0.044296 -1.502183
    32 1.209185 -0.000004 0.000000 -0.000004 0.073087 -0.732230
    33 3.859844 -0.148934 -1.331282 0.154669 -0.478784 0.095030
    34 1.719419 0.000004 -0.000001 -0.000003 -0.006608 -1.391681
    35 1.103516 -0.002300 -0.001109 0.004092 0.021864 -0.613414
    36 0.806023 -0.359839 -1.318334 1.133167 0.410187 -0.912229
    37 1.789783 0.000002 -0.000004 0.067605 0.379342 0.532083
    38 1.206999 0.000003 0.000002 0.000000 0.000000 0.554574
    39 3.475273 -11.431098 -10.325882 -3.734528 1.291378 -2.560166
    40 2.810062 -10.373449 -7.385814 1.252343 0.751899 -0.599456
    41 -0.434358 -10.015709 -11.022665 1.308160 -0.494179 -0.251059
    42 3.966625 -11.477476 -9.834794 1.250807 0.756943 -0.601899
    43 5.070313 0.786133 -0.015732 0.000000 0.000000 0.007777
    44 0.719727 0.786621 0.374268 0.000000 -1.570796 0.007777
  time 21
    0 0.000000 -0.000006 0.000000 -1.570717 -1.391887 -1.570864
    1 2.033349 1.000767 1.937660 1.596637 -1.286515 2.942961
    2 7.911011 -5.918150 -11.035493 -1.232112 -0.828916 -1.943788
    3 11.692551 0.000001 0.000001 0.000000 0.000000 -0.060372
    4 11.817616 0.355480 0.179668 0.496391 0.013993 0.057972
    5 3.805023 -0.451009 -1.152911 -0.315828 0.508776 -0.028489
    6 1.488336 -0.183599 -0.027343 0.009624 -0.125790 0.004773
    7 0.916869 -0.125006 -0.039066 0.047159 -0.120721 0.275430
    8 3.836867 -0.089956 -0.400192 -0.038789 0.313497 -0.298104
    9 1.558625 -0.058596 0.000000 -0.012836 0.019475 0.000380
    10 1.196321 0.027339 0.000000 -0.012812 0.013818 -0.078956
    11 3.727445 -0.203016 0.408005 0.079430 0.015226 -0.100974
    12 1.707845 0.046878 -0.000001 -0.019535 -0.018537 -0.001783
    13 1.224797 0.195318 0.007813 -0.013231 -0.026146 0.106451
    14 3.691895 -0.262951 1.309028 0.267681 -0.003338 -0.186037
    15 1.692084 -0.019526 -0.000001 -0.055129 0.053115 -0.045711
    16 1.068410 0.039066 -0.000001 -0.046057 0.030988 -0.034130
    17 0.724025 -0.188765 1.118127 -2.308855 -0.461886 -0.236954
    18 1.762437 0.058596 0.054689 0.055189 0.302312 -0.251437
    19 1.148411 0.074220 0.054691 0.165369 0.302934 0.114509
    20 2.033356 1.000772 -1.937610 -1.668474 1.286518 2.942953
    21 17.614435 0.894558 2.105533 0.249067 0.560880 -2.505524
    22 11.692557 0.000001 0.000006 0.000000 0.000000 -0.060372
    23 11.942656 0.054690 0.335949 -2.283684 0.053146 0.420646
    24 3.859680 -0.132569 1.193109 0.410308 0.177652 -1.525986
    25 1.312561 -0.000006 0.000001 -0.028212 -0.208100 -0.323985
    26 0.729364 0.000004 -0.000003 0.000000 0.000000 -0.975912
    27 3.942307 0.050328 0.431044 0.299825 -0.002993 -1.243628
    28 1.539099 0.000002 0.000001 -0.166094 0.026628 -0.917897
    29 1.196323 0.000010 0.000000 0.000000 0.000000 -1.092562
    30 3.883663 -0.050322 -0.431042 0.332615 -0.177146 -1.074793
    31 1.719578 0.000002 0.000000 -0.473398 0.044296 -1.502183
    32 1.209185 -0.000004 0.000000 -0.000004 0.073087 -0.732230
    33 3.859844 -0.148934 -1.331282 0.154669 -0.478784 0.095030
    34 1.719419 0.000004 -0.000001 -0.000003 -0.006608 -1.391681
    35 1.103516 -0.002300 -0.001109 0.004092 0.021864 -0.613414
    36 0.806023 -0.359839 -1.318334 1.133156 0.410187 -0.912229
    37 1.789783 0.000002 -0.000004 0.067605 0.379342 0.532083
    38 1.206999 0.000003 0.000002 0.000000 0.000000 0.554574
    39 4.697966 -11.497506 -12.208752 -3.834335 1.245686 -2.608951
    40 4.146040 -10.482827 -9.237433 1.211382 0.797805 -0.581738
    41 0.702396 -10.261810 -12.690685 1.295831 -0.440938 -0.198835
    42 5.220570 -11.524352 -11.752822 1.209424 0.802593 -0.584572
    43 5.070313 0.786133 -0.015732 0.000000 0.000000 0.007777
    44 0.719727 0.786621 0.374268 0.000000 -1.570796 0.007777
  time 22
    0 0.000000 -0.000006 0.000000 -1.570717 -1.391887 -1.570864
    1 2.033349 1.000767 1.937660 1.596637 -1.286515 2.942961
    2 7.762569 -5.863460 -11.004242 -1.364630 -0.820912 -1.819195
    3 11.692551 0.000001 0.000001 0.000000 0.000000 -0.060372
    4 11.919182 0.324229 0.140604 0.554791 0.175360 0.045508
    5 3.801117 -0.454915 -1.152911 -0.315828 0.508776 -0.028454
    6 1.484430 -0.187506 -0.027343 0.009624 -0.125790 0.004773
    7 0.916869 -0.125006 -0.039066 0.047159 -0.120721 0.275430
    8 3.840773 -0.086049 -0.400192 -0.038789 0.313485 -0.298104
    9 1.558625 -0.062502 0.000000 -0.012836 0.019475 0.000380
    10 1.200228 0.027339 0.000000 -0.012812 0.013818 -0.078956
    11 3.727445 -0.199110 0.408005 0.079430 0.015226 -0.100974
    12 1.707845 0.046878 -0.000001 -0.019535 -0.018525 -0.001783
    13 1.228703 0.195318 0.000000 -0.013231 -0.026146 0.106451
    14 3.691895 -0.259045 1.309028 0.267681 -0.003352 -0.186037
    15 1.695991 -0.019526 -0.000001 -0.055141 0.053103 -0.045711
    16 1.064504 0.035159 -0.000001 -0.046057 0.030988 -0.034130
    17 0.724025 -0.192672 1.122033 -2.308855 -0.461886 -0.236954
    18 1.770250 0.054689 0.058596 0.055189 0.302312 -0.251437
    19 1.152317 0.074220 0.050785 0.165369 0.302934 0.114488
    20 2.033356 1.000772 -1.937610 -1.668474 1.286518 2.942953
    21 15.922978 1.375042 -0.261727 0.316932 0.467365 -2.382474
    22 11.692557 0.000001 0.000006 0.000000 0.000000 -0.060372
    23 11.852810 0.000001 0.320323 -2.273093 0.112214 0.292452
    24 3.859680 -0.132569 1.193109 0.410308 0.177652 -1.525986
    25 1.312561 -0.000006 0.000001 -0.028212 -0.208088 -0.323985
    26 0.729364 0.000004 -0.000003 0.000000 0.000000 -0.975912
    27 3.942307 0.050328 0.431044 0.299837 -0.002993 -1.243628
    28 1.539099 0.000002 0.000001 -0.166094 0.026628 -0.917897
    29 1.196323 0.000010 0.000000 0.000000 0.000000 -1.092562
    30 3.883663 -0.050322 -0.431042 0.332615 -0.177134 -1.074793
    31 1.719578 0.000002 0.000000 -0.473398 0.044296 -1.502183
    32 1.209185 -0.000004 0.000000 -0.000004 0.073087 -0.732230
    33 3.859844 -0.148934 -1.331282 0.154669 -0.478784 0.095030
    34 1.719419 0.000004 -0.000001 -0.000003 -0.006608 -1.391681
    35 1.103516 -0.002300 -0.001109 0.004092 0.021864 -0.613414
    36 0.806023 -0.359839 -1.318334 1.133167 0.410187 -0.912229
    37 1.789783 0.000002 -0.000004 0.067605 0.379342 0.532083
    38 1.206999 0.000003 0.000002 0.000000 0.000000 0.554574
    39 6.162855 -11.810016 -13.993962 -3.834335 1.245686 -2.608951
    40 5.610928 -10.791430 -11.010924 1.211382 0.797805 -0.581738
    41 2.167284 -10.578226 -14.479802 1.295831 -0.440938 -0.198835
    42 6.685458 -11.832955 -13.534126 1.209424 0.802593 -0.584572
    43 5.070313 0.786133 -0.015732 0.000000 0.000000 0.007777
    44 0.719727 0.786621 0.374268 0.000000 -1.570796 0.007777
  time 23
    0 0.000000 -0.000006 0.000000 -1.570717 -1.391887 -1.570864
    1 2.033349 1.000767 1.937660 1.596637 -1.286515 2.942961
    2 7.625846 -5.820490 -10.957366 -1.489503 -0.801088 -1.706134
    3 11.692551 0.000001 0.000001 0.000000 0.000000 -0.060372
    4 11.954339 0.292978 0.117166 0.596518 0.250505 0.023782
    5 3.805023 -0.451009 -1.152911 -0.315828 0.508792 -0.028454
    6 1.488336 -0.187506 -0.031249 0.009624 -0.125790 0.004773
    7 0.912963 -0.125006 -0.039066 0.047159 -0.120721 0.275430
    8 3.836867 -0.089956 -0.400192 -0.038789 0.313497 -0.298104
    9 1.554718 -0.058596 0.000000 -0.012836 0.019475 0.000380
    10 1.200228 0.031245 0.000000 -0.012812 0.013818 -0.078956
    11 3.723538 -0.206923 0.408005 0.079430 0.015226 -0.100974
    12 1.707845 0.054691 -0.000001 -0.019535 -0.018537 -0.001783
    13 1.224797 0.195318 0.003906 -0.013243 -0.026146 0.106451
    14 3.687989 -0.259045 1.309028 0.267681 -0.003338 -0.186037
    15 1.692084 -0.015620 -0.000001 -0.055153 0.053127 -0.045711
    16 1.068410 0.039066 -0.000001 -0.046057 0.030988 -0.034130
    17 0.724025 -0.188765 1.122033 -2.308788 -0.461886 -0.236917
    18 1.762437 0.054689 0.058596 0.055177 0.302312 -0.251437
    19 1.152317 0.074220 0.054691 0.165369 0.302934 0.114488
    20 2.033356 1.000772 -1.937610 -1.668474 1.286518 2.942953
    21 15.622187 1.429731 -5.847835 0.119391 0.232807 -2.338679
    22 11.692557 0.000001 0.000006 0.000000 0.000000 -0.060372
    23 11.743431 0.000001 0.101567 -2.015296 0.284300 0.251851
    24 3.859680 -0.132569 1.193109 0.410308 0.177652 -1.525986
    25 1.312561 -0.000006 0.000001 -0.028212 -0.208100 -0.323985
    26 0.729364 0.000004 -0.000003 0.000000 0.000000 -0.975912
    27 3.942307 0.050328 0.431044 0.299825 -0.003005 -1.243628
    28 1.539099 0.000002 0.000001 -0.166094 0.026628 -0.917897
    29 1.196323 0.000010 0.000000 0.000000 0.000000 -1.092562
    30 3.883663 -0.050322 -0.431042 0.332615 -0.177134 -1.074793
    31 1.719578 0.000002 0.000000 -0.473398 0.044296 -1.502183
    32 1.209185 -0.000004 0.000000 -0.000004 0.073087 -0.732230
    33 3.859844 -0.148934 -1.331282 0.154669 -0.478784 0.095030
    34 1.719419 0.000004 -0.000001 -0.000003 -0.006608 -1.391681
    35 1.103516 -0.002300 -0.001109 0.004092 0.021864 -0.613414
    36 0.806023 -0.359839 -1.318334 1.133167 0.410187 -0.912229
    37 1.789783 0.000002 -0.000004 0.067605 0.379342 0.532083
    38 1.206999 0.000003 0.000002 0.000000 0.000000 0.554574
    39 7.530084 -12.075649 -15.642450 -3.834335 1.245686 -2.608951
    40 6.978158 -11.060970 -12.671131 1.211382 0.797805 -0.581738
    41 3.530607 -10.851672 -16.128290 1.295831 -0.440938 -0.198835
    42 8.052688 -12.106401 -15.182614 1.209424 0.802593 -0.584572
    43 5.070313 0.786133 -0.015732 0.000000 0.000000 0.007777
    44 0.719727 0.786621 0.374268 0.000000 -1.570796 0.007777
  time 24
    0 0.000000 -0.000006 0.000000 -1.570717 -1.391887 -1.570864
    1 2.033349 1.000767 1.937660 1.596637 -1.286515 2.942961
    2 7.543812 -5.789239 -10.918302 -1.577195 -0.783405 -1.630911
    3 11.692551 0.000001 0.000001 0.000000 0.000000 -0.060372
    4 11.981684 0.265634 0.093728 0.629864 0.304263 0.012976
    5 3.805023 -0.451009 -1.156818 -0.315828 0.508776 -0.028489
    6 1.488336 -0.183599 -0.031249 0.009624 -0.125790 0.004697
    7 0.920776 -0.125006 -0.039066 0.047159 -0.120721 0.275430
    8 3.840773 -0.093862 -0.404098 -0.038789 0.313497 -0.298104
    9 1.558625 -0.054689 0.000000 -0.012836 0.019475 0.000346
    10 1.204134 0.027339 0.000000 -0.012812 0.013818 -0.078956
    11 3.723538 -0.206923 0.411911 0.079430 0.015226 -0.101005
    12 1.707845 0.050785 -0.000001 -0.019535 -0.018537 -0.001783
    13 1.228703 0.195318 0.000000 -0.013219 -0.026146 0.106451
    14 3.691895 -0.259045 1.309028 0.267681 -0.003324 -0.186068
    15 1.695991 -0.019526 -0.000001 -0.055117 0.053103 -0.045711
    16 1.064504 0.031253 -0.000001 -0.046057 0.030988 -0.034165
    17 0.724025 -0.188765 1.122033 -2.308855 -0.461886 -0.236954
    18 1.770250 0.054689 0.058596 0.055201 0.302312 -0.251437
    19 1.156224 0.074220 0.050785 0.165410 0.302958 0.114488
    20 2.033356 1.000772 -1.937610 -1.668474 1.286518 2.942953
    21 16.657375 -0.960967 -10.859706 -0.164850 0.028289 -2.424449
    22 11.692557 0.000001 0.000006 0.000000 0.000000 -0.060372
    23 11.719993 0.121099 -0.105471 -1.676552 0.400776 0.457858
    24 3.859680 -0.132569 1.193109 0.410308 0.177652 -1.525986
    25 1.312561 -0.000006 0.000001 -0.028212 -0.208100 -0.323985
    26 0.729364 0.000004 -0.000003 0.000000 0.000000 -0.975912
    27 3.942307 0.050328 0.431044 0.299837 -0.002993 -1.243628
    28 1.539099 0.000002 0.000001 -0.166094 0.026628 -0.917897
    29 1.196323 0.000010 0.000000 0.000000 0.000000 -1.092562
    30 3.883663 -0.050322 -0.431042 0.332615 -0.177134 -1.074793
    31 1.719578 0.000002 0.000000 -0.473398 0.044296 -1.502183
    32 1.209185 -0.000004 0.000000 -0.000004 0.073087 -0.732230
    33 3.859844 -0.148934 -1.331282 0.154669 -0.478784 0.095030
    34 1.719419 0.000004 -0.000001 -0.000003 -0.006608 -1.391681
    35 1.103516 -0.002300 -0.001109 0.004092 0.021864 -0.613414
    36 0.806023 -0.359839 -1.318334 1.133167 0.410187 -0.912229
    37 1.789783 0.000002 -0.000004 0.067605 0.379342 0.532083
    38 1.206999 0.000003 0.000002 0.000000 0.000000 0.554574
    39 8.541834 -12.278780 -16.861237 -3.834335 1.245686 -2.608951
    40 7.989907 -11.252382 -13.882106 1.211382 0.797805 -0.581738
    41 4.542357 -11.046990 -17.339264 1.295831 -0.440938 -0.198835
    42 9.064437 -12.301720 -16.389682 1.209424 0.802593 -0.584572
    43 5.070313 0.786133 -0.015732 0.000000 0.000000 0.007777
    44 0.719727 0.786621 0.374268 0.000000 -1.570796 0.007777
  time 25
    0 0.000000 -0.000006 0.000000 -1.570717 -1.391887 -1.570864
    1 2.033349 1.000767 1.937660 1.596637 -1.286515 2.942961
    2 7.508655 -5.785333 -10.910489 -1.610129 -0.775866 -1.603399
    3 11.692551 0.000001 0.000001 0.000000 0.000000 -0.060372
    4 11.993403 0.261727 0.082009 0.643149 0.324595 0.010289
    5 3.805023 -0.451009 -1.152911 -0.315828 0.508776 -0.028454
    6 1.488336 -0.187506 -0.031249 0.009624 -0.125790 0.004773
    7 0.912963 -0.125006 -0.039066 0.047159 -0.120721 0.275430
    8 3.840773 -0.086049 -0.400192 -0.038789 0.313485 -0.298104
    9 1.554718 -0.058596 0.000000 -0.012836 0.019463 0.000380
    10 1.200228 0.031245 0.000000 -0.012812 0.013818 -0.078956
    11 3.727445 -0.203016 0.411911 0.079430 0.015226 -0.100974
    12 1.707845 0.046878 -0.000001 -0.019535 -0.018525 -0.001783
    13 1.228703 0.195318 0.003906 -0.013231 -0.026146 0.106451
    14 3.691895 -0.259045 1.309028 0.267681 -0.003338 -0.186037
    15 1.695991 -0.019526 -0.000001 -0.055129 0.053103 -0.045679
    16 1.068410 0.035159 -0.000001 -0.046057 0.030988 -0.034130
    17 0.724025 -0.188765 1.122033 -2.308855 -0.461886 -0.236917
    18 1.766343 0.054689 0.058596 0.055189 0.302312 -0.251437
    19 1.156224 0.074220 0.050785 0.165369 0.302934 0.114488
    20 2.033356 1.000772 -1.937610 -1.668474 1.286518 2.942953
    21 17.606623 -3.011811 -11.906613 -0.248112 -0.011992 -2.508304
    22 11.692557 0.000001 0.000006 0.000000 0.000000 -0.060372
    23 11.755151 0.191413 -0.156254 -1.585887 0.384167 0.582899
    24 3.859680 -0.132569 1.193109 0.410308 0.177652 -1.525986
    25 1.312561 -0.000006 0.000001 -0.028212 -0.208088 -0.323985
    26 0.729364 0.000004 -0.000003 0.000000 0.000000 -0.975912
    27 3.942307 0.050328 0.431044 0.299802 -0.002981 -1.243588
    28 1.539099 0.000002 0.000001 -0.166094 0.026628 -0.917897
    29 1.196323 0.000010 0.000000 0.000000 0.000000 -1.092562
    30 3.883663 -0.050322 -0.431042 0.332615 -0.177134 -1.074793
    31 1.719578 0.000002 0.000000 -0.473398 0.044296 -1.502183
    32 1.209185 -0.000004 0.000000 -0.000004 0.073087 -0.732230
    33 3.859844 -0.148934 -1.331282 0.154669 -0.478784 0.095030
    34 1.719419 0.000004 -0.000001 -0.000003 -0.006608 -1.391681
    35 1.103516 -0.002300 -0.001109 0.004092 0.021864 -0.613414
    36 0.806023 -0.359839 -1.318334 1.133167 0.410187 -0.912229
    37 1.789783 0.000002 -0.000004 0.067605 0.379342 0.532083
    38 1.206999 0.000003 0.000002 0.000000 0.000000 0.554574
    39 8.936377 -12.349095 -17.330002 -3.834335 1.245686 -2.608951
    40 8.384450 -11.334415 -14.350870 1.211382 0.797805 -0.581738
    41 4.936900 -11.121211 -17.811935 1.295831 -0.440938 -0.198835
    42 9.455074 -12.375941 -16.862352 1.209424 0.802593 -0.584572
    43 5.070313 0.786133 -0.015732 0.000000 0.000000 0.007777
    44 0.719727 0.786621 0.374268 0.000000 -1.570796 0.007777
end
