"Mount"
{
	deps
	{
		hl2	1
	}

	340
	{
		"head"	"1"
		"lostcoast"
		{
			vpk		lostcoast_pak
		}
	}
	
	"|content_path|"
	{
		"head"	"1"
		"lostcoast_extra"
		{
			"path_id"
			{
				"scenes"	"1"
			}
		}
	}
}