"VertexLitGeneric"
{
	"$baseTexture" "models/HL_PS2/player/gordon_sleeve_c"
	"$blendtintbybasealpha" "1"
 	"$blendtintcoloroverbase" "0"
	
	Proxies
	{
		PlayerColor
		{
			resultVar	$color2 // pass the player color value to Gmod
			default		0.23 0.35 0.41 // unused for now.
		}
		Clamp // clamp the chosen color between 1% and 125% (usually)
		{
			min 0.01
			max 1.25
			srcVar1 "$color2"
			resultVar "$color2"
		}
	}
}