"vertexlitgeneric"
{
	// original shader: basetimeslightmapselfillum
	"$detail" "detail/detail_noise1"
	"$detailscale" 2.5
	"$basetexture" "halflife/lab1_map2"
	"$envmap" "environment maps/envmap001a"
	"$basealphaenvmapmask" "1"
	"$envmapcontrast" 1
	"$envmaptint" "[ .8 .8 .8 ]"
	"$surfaceprop" "computer"
}
