EyeRefract
{
	"$Iris"               "models/humans/eye-iris-green"		  // Iris color in RGB with cornea noise in A
	"$AmbientOcclTexture" "models/humans/eye_ao"              // Ambient occlusion in RGB, A unused
	"$Envmap"             "models/humans/eye-reflection-cubemap-"    // Reflection environment map
   //"$Envmap"             "env_cubemap"
	"$CorneaTexture"      "models/humans/eye-cornea"                 // Special texture that has 2D cornea normal in RG and other data in BA
//	"$lightwarptexture"   "models/humans/eye_lightwarp"        	      // This enables TF NPR lighting

	"$EyeballRadius" "0.5"				// Default 0.5
	 //"$AmbientOcclColor" "[0.2 0.2 0.2]"	// Default 0.33, 0.33, 0.33
	 "$AmbientOcclColor" "[0.10 0.10 0.10]"	// Default 0.33, 0.33, 0.33	 
	"$Dilation" "0.6"					// Default 0.5
	"$ParallaxStrength" "0.20"          // Default 0.25
	"$CorneaBumpStrength" "0.5"			// Default 1.0

	"$halflambert" "1"
	"$nodecal" "1"

	// These effects are only available in ps.2.0b and later
	"$RaytraceSphere" "0"				// Default 1 - Enables raytracing in the pixel shader to make the eyeball look round
	"$SphereTexkillCombo" "0"			// Default 1 - Enables killing pixels that don't ray-intersect the sphere

	// DX8 ps.1.1 fallbacks, original HL2 eyes
	"Eyes_dx8"
	{
		"$basetexture" "models/humans/eyeball_r"
		"$iris"        "models/humans/pupil_r"
	}

}
