// Created by Crowbar 0.58
version 1
nodes
  0 "ValveBiped.Bip01_Pelvis" -1
  1 "ValveBiped.Bip01_Spine" 0
  2 "ValveBiped.Bip01_Spine1" 1
  3 "ValveBiped.Bip01_Spine2" 2
  4 "ValveBiped.Bip01_Spine4" 3
  5 "ValveBiped.Bip01_Neck1" 4
  6 "ValveBiped.Bip01_Head1" 5
  7 "ValveBiped.forward" 6
  8 "ValveBiped.Bip01_R_Clavicle" 4
  9 "ValveBiped.Bip01_R_UpperArm" 8
  10 "ValveBiped.Bip01_R_Forearm" 9
  11 "ValveBiped.Bip01_R_Hand" 10
  12 "ValveBiped.Anim_Attachment_RH" 11
  13 "ValveBiped.Bip01_L_Clavicle" 4
  14 "ValveBiped.Bip01_L_UpperArm" 13
  15 "ValveBiped.Bip01_L_Forearm" 14
  16 "ValveBiped.Bip01_L_Hand" 15
  17 "ValveBiped.Anim_Attachment_LH" 16
  18 "ValveBiped.Bip01_R_Thigh" 0
  19 "ValveBiped.Bip01_R_Calf" 18
  20 "ValveBiped.Bip01_R_Foot" 19
  21 "ValveBiped.Bip01_R_Toe0" 20
  22 "ValveBiped.Bip01_L_Thigh" 0
  23 "ValveBiped.Bip01_L_Calf" 22
  24 "ValveBiped.Bip01_L_Foot" 23
  25 "ValveBiped.Bip01_L_Toe0" 24
  26 "ValveBiped.Bip01_L_Finger4" 16
  27 "ValveBiped.Bip01_L_Finger41" 26
  28 "ValveBiped.Bip01_L_Finger42" 27
  29 "ValveBiped.Bip01_L_Finger3" 16
  30 "ValveBiped.Bip01_L_Finger31" 29
  31 "ValveBiped.Bip01_L_Finger32" 30
  32 "ValveBiped.Bip01_L_Finger2" 16
  33 "ValveBiped.Bip01_L_Finger21" 32
  34 "ValveBiped.Bip01_L_Finger22" 33
  35 "ValveBiped.Bip01_L_Finger1" 16
  36 "ValveBiped.Bip01_L_Finger11" 35
  37 "ValveBiped.Bip01_L_Finger12" 36
  38 "ValveBiped.Bip01_L_Finger0" 16
  39 "ValveBiped.Bip01_L_Finger01" 38
  40 "ValveBiped.Bip01_L_Finger02" 39
  41 "ValveBiped.Bip01_R_Finger4" 11
  42 "ValveBiped.Bip01_R_Finger41" 41
  43 "ValveBiped.Bip01_R_Finger42" 42
  44 "ValveBiped.Bip01_R_Finger3" 11
  45 "ValveBiped.Bip01_R_Finger31" 44
  46 "ValveBiped.Bip01_R_Finger32" 45
  47 "ValveBiped.Bip01_R_Finger2" 11
  48 "ValveBiped.Bip01_R_Finger21" 47
  49 "ValveBiped.Bip01_R_Finger22" 48
  50 "ValveBiped.Bip01_R_Finger1" 11
  51 "ValveBiped.Bip01_R_Finger11" 50
  52 "ValveBiped.Bip01_R_Finger12" 51
  53 "ValveBiped.Bip01_R_Finger0" 11
  54 "ValveBiped.Bip01_R_Finger01" 53
  55 "ValveBiped.Bip01_R_Finger02" 54
end
skeleton
  time 0
    0 0.075779 -3.748437 17.796752 1.667505 0.000000 0.000000
    1 0.000005 3.415442 -2.942837 1.592320 0.362743 1.573061
    2 4.018326 0.000000 0.000000 0.011397 0.000479 0.125167
    3 3.518562 0.000000 0.000000 0.021632 0.006448 0.201335
    4 8.942642 0.000000 0.000000 0.000000 0.000000 0.190544
    5 3.307270 -0.000001 0.000000 3.134318 0.004067 0.400464
    6 3.593716 0.000004 0.000000 0.070337 0.090988 0.211355
    7 1.999992 -2.996094 0.000000 -1.570796 0.000000 -1.326450
    8 2.033352 1.000772 -1.937610 -1.668474 1.286518 2.942953
    9 6.028145 0.000000 0.000000 1.585928 0.254775 -0.960729
    10 11.696457 0.000000 0.000008 0.000000 0.000000 -1.592560
    11 11.458261 0.000000 0.000000 -2.273410 0.572748 -0.188447
    12 2.691714 -1.704628 0.000000 -1.570796 0.000000 -1.570796
    13 2.033344 1.000767 1.937660 1.596637 -1.286515 2.942961
    14 6.032049 0.000000 0.000000 -1.596350 -0.481666 -0.722405
    15 11.653491 0.000000 0.000008 -0.000036 0.000048 -1.399589
    16 11.509017 0.000000 -0.000031 2.369501 -0.276859 -0.604855
    17 2.679994 -1.720253 0.000000 1.570797 0.000000 1.570797
    18 -3.890452 0.000004 0.000007 -1.546733 -0.586586 -1.609593
    19 17.848169 0.000000 0.000000 0.000000 0.000000 2.324476
    20 16.525249 0.000000 0.000000 -0.000219 0.012843 -2.348095
    21 6.879454 0.000000 0.000000 -0.064195 0.015685 -1.151109
    22 3.890452 -0.000004 -0.000003 -4.638955 -1.417102 1.502412
    23 17.848175 0.000000 0.000000 0.000000 0.000000 2.115288
    24 16.525249 0.000000 0.000000 -0.010130 -0.030882 -1.515715
    25 6.879452 0.000000 0.000000 -0.007299 -0.002950 -0.584373
    26 3.863612 -0.142403 -1.184162 -0.040920 -0.004250 -1.171563
    27 1.320374 0.000000 0.000000 0.000000 0.009665 -1.321130
    28 0.729362 0.000002 -0.000001 0.015232 0.001495 -1.125524
    29 3.950137 0.046776 -0.431443 -0.171349 0.000558 -1.245843
    30 1.546906 0.000002 0.000000 0.000000 0.004460 -1.188835
    31 1.196323 0.000000 0.000000 0.000000 0.007361 -1.371839
    32 3.891502 -0.046768 0.431443 0.052741 0.071266 -1.272516
    33 1.727387 0.000000 0.000000 0.000000 0.005516 -1.332909
    34 1.209183 -0.000002 0.000000 0.000000 0.003084 -1.182827
    35 3.863769 -0.137951 1.324654 0.343375 -0.099401 -0.375965
    36 1.727242 -0.000004 0.000000 0.000000 0.004074 -0.363009
    37 1.103573 -0.000002 0.000000 0.000000 0.002596 -0.244331
    38 0.806048 -0.348923 1.313446 -1.206854 -0.679513 -0.789308
    39 1.801504 -0.000002 0.000004 0.000000 0.007387 0.228543
    40 1.214810 0.000000 -0.000002 0.000000 0.011267 0.362884
    41 3.883109 -0.132568 1.193108 0.368572 -0.350090 -0.447904
    42 1.320374 0.000000 -0.000001 0.000000 -0.011932 -0.281273
    43 0.729362 0.000001 -0.000001 0.000000 -0.006133 -0.289717
    44 3.965731 0.050331 0.431043 0.124606 -0.121718 -0.509586
    45 1.543003 0.000002 0.000000 0.000000 -0.005854 -0.247771
    46 1.196323 -0.000002 0.000000 0.000000 -0.009663 -0.430761
    47 3.907094 -0.050323 -0.431043 -0.089668 0.005859 -0.225141
    48 1.723480 -0.000008 0.000000 0.000000 -0.007974 -0.384595
    49 1.209183 0.000000 0.000000 0.000000 -0.004461 -0.562848
    50 3.883265 -0.148933 -1.331282 -0.342674 0.100063 -0.362792
    51 1.719427 0.000000 0.000000 0.000000 -0.006613 -0.281750
    52 1.099667 0.000002 -0.000001 0.000000 -0.004211 -0.498655
    53 0.809923 -0.359837 -1.318334 1.204200 0.673618 -0.793956
    54 1.778064 0.000001 -0.000002 0.000000 -0.006301 0.228580
    55 1.199188 0.000001 0.000002 0.000000 -0.009618 0.362905
  time 1
    0 0.077716 -3.685472 18.062385 1.667304 0.000000 0.000000
    1 0.000005 3.415442 -2.942837 1.592284 0.362520 1.572702
    2 4.018326 0.000000 0.000000 0.011373 0.000599 0.124880
    3 3.518562 0.000000 0.000000 0.021644 0.006615 0.200637
    4 8.942642 0.000000 0.000000 0.000000 0.000000 0.190544
    5 3.307270 -0.000001 0.000000 3.134318 0.004067 0.400464
    6 3.593716 0.000004 0.000000 0.069899 0.089853 0.213598
    7 1.999992 -2.996094 0.000000 -1.570796 0.000000 -1.326450
    8 2.033352 1.000772 -1.937610 -1.668474 1.286518 2.942953
    9 6.028145 0.000000 0.000000 1.578073 0.169409 -0.968224
    10 11.692551 0.000000 0.000008 0.000000 0.000000 -1.671143
    11 11.458261 0.000000 0.000000 -2.181710 0.610193 -0.120688
    12 2.691714 -1.704628 0.000000 -1.570796 0.000000 -1.570796
    13 2.033344 1.000767 1.937660 1.596637 -1.286515 2.942961
    14 6.032049 0.000000 0.000000 -1.595850 -0.467652 -0.721836
    15 11.657397 0.000000 0.000008 -0.000048 0.000048 -1.422373
    16 11.509017 0.000000 -0.000031 2.383501 -0.270283 -0.564932
    17 2.679994 -1.716347 0.000000 1.570797 0.000000 1.570797
    18 -3.890452 0.000004 0.000007 -1.547443 -0.599257 -1.608240
    19 17.848169 0.000000 0.000000 0.000000 0.000000 2.313988
    20 16.525249 0.000000 0.000000 0.000092 0.014233 -2.324720
    21 6.879454 0.000000 0.000000 -0.064423 0.015446 -1.143886
    22 3.890452 -0.000004 -0.000003 -4.613401 -1.453434 1.476775
    23 17.848175 0.000000 0.000000 0.000000 0.000000 2.126425
    24 16.525249 0.000000 0.000000 -0.008416 -0.030499 -1.563104
    25 6.879452 0.000000 0.000000 -0.007299 -0.002950 -0.584373
    26 3.867519 -0.142403 -1.188069 -0.040719 -0.003783 -1.158604
    27 1.320374 0.000000 0.000000 0.000000 0.009665 -1.308151
    28 0.729362 0.000002 -0.000001 0.015017 0.001472 -1.112552
    29 3.950137 0.046776 -0.431443 -0.170414 0.000582 -1.233570
    30 1.546906 0.000002 0.000000 0.000000 0.004460 -1.175876
    31 1.196323 0.000000 0.000000 0.000000 0.007361 -1.358885
    32 3.891502 -0.046768 0.431443 0.053196 0.070260 -1.259568
    33 1.727387 0.000000 0.000000 0.000000 0.005516 -1.319929
    34 1.209183 -0.000002 0.000000 0.000000 0.003084 -1.169837
    35 3.867675 -0.137951 1.324654 0.342512 -0.104555 -0.361696
    36 1.727242 -0.000004 0.000000 0.000000 0.004074 -0.347895
    37 1.103573 -0.000002 0.000000 0.000000 0.002596 -0.229224
    38 0.806048 -0.348923 1.313446 -1.206854 -0.679513 -0.789308
    39 1.801504 -0.000002 0.000004 0.000000 0.007387 0.228543
    40 1.214810 0.000000 -0.000002 0.000000 0.011267 0.362884
    41 3.883109 -0.132568 1.193108 0.368572 -0.350090 -0.447904
    42 1.320374 0.000000 -0.000001 0.000000 -0.011932 -0.281273
    43 0.729362 0.000001 -0.000001 0.000000 -0.006133 -0.289717
    44 3.965731 0.050331 0.431043 0.124606 -0.121718 -0.509586
    45 1.543003 0.000002 0.000000 0.000000 -0.005854 -0.247771
    46 1.196323 -0.000002 0.000000 0.000000 -0.009663 -0.430761
    47 3.907094 -0.050323 -0.431043 -0.089668 0.005859 -0.225141
    48 1.727387 -0.000008 0.000000 0.000000 -0.007974 -0.384595
    49 1.209183 0.000000 0.000000 0.000000 -0.004461 -0.562848
    50 3.883265 -0.148933 -1.331282 -0.342674 0.100063 -0.362792
    51 1.719427 0.000000 0.000000 0.000000 -0.006613 -0.281750
    52 1.099667 0.000002 -0.000001 0.000000 -0.004211 -0.498655
    53 0.809923 -0.359837 -1.318334 1.204200 0.673618 -0.793926
    54 1.778064 0.000001 -0.000002 0.000000 -0.006301 0.228555
    55 1.203094 0.000001 0.000002 0.000000 -0.009618 0.362905
  time 2
    0 0.075746 -3.555809 18.808502 1.666700 0.000000 0.000000
    1 0.000005 3.415442 -2.942837 1.592189 0.361906 1.571695
    2 4.018326 0.000000 0.000000 0.011325 0.000935 0.124065
    3 3.518562 0.000000 0.000000 0.021656 0.007119 0.198698
    4 8.942642 0.000000 0.000000 0.000000 0.000000 0.190544
    5 3.307270 -0.000001 0.000000 3.134318 0.004067 0.400464
    6 3.593716 0.000004 0.000000 0.068586 0.086671 0.219893
    7 1.999992 -2.996094 0.000000 -1.570796 0.000000 -1.326450
    8 2.033352 1.000772 -1.937610 -1.668474 1.286518 2.942953
    9 6.028145 0.000000 0.000000 1.564661 0.075550 -0.976616
    10 11.688644 0.000000 0.000008 0.000000 0.000000 -1.723084
    11 11.458261 0.000000 0.000000 -2.064970 0.648690 -0.054058
    12 2.695620 -1.704628 0.000000 -1.570796 0.000000 -1.570796
    13 2.033344 1.000767 1.937660 1.596637 -1.286515 2.942961
    14 6.032049 0.000000 0.000000 -1.581226 -0.416596 -0.737542
    15 11.661304 0.000000 0.000008 -0.000048 0.000048 -1.462169
    16 11.509017 0.000000 -0.000031 2.430801 -0.256628 -0.488998
    17 2.679994 -1.716347 0.000000 1.570797 0.000000 1.570797
    18 -3.890452 0.000004 0.000007 -1.549336 -0.629264 -1.605111
    19 17.848169 0.000000 0.000000 0.000000 0.000000 2.281608
    20 16.525249 0.000000 0.000000 0.000967 0.017505 -2.262178
    21 6.879454 0.000000 0.000000 -0.065034 0.014775 -1.123574
    22 3.890452 -0.000004 -0.000003 -3.807176 -1.554832 0.670445
    23 17.848175 0.000000 0.000000 0.000000 0.000000 2.143975
    24 16.525249 0.000000 0.000000 -0.004090 -0.029396 -1.686956
    25 6.879452 0.000000 0.000000 -0.007299 -0.002950 -0.584373
    26 3.863612 -0.142403 -1.188069 -0.040159 -0.002463 -1.122166
    27 1.316467 0.000000 0.000000 0.000000 0.009665 -1.271683
    28 0.729362 0.000002 -0.000001 0.014441 0.001364 -1.076066
    29 3.946231 0.046776 -0.431443 -0.167778 0.000641 -1.199007
    30 1.546906 0.000002 0.000000 0.000000 0.004460 -1.139391
    31 1.196323 0.000000 0.000000 0.000000 0.007361 -1.322376
    32 3.887595 -0.046768 0.431443 0.054466 0.067443 -1.223158
    33 1.723480 0.000000 0.000000 0.000000 0.005516 -1.283433
    34 1.209183 -0.000002 0.000000 0.000000 0.003084 -1.133372
    35 3.863769 -0.137951 1.328560 0.341769 -0.109217 -0.348703
    36 1.727242 -0.000004 0.000000 0.000000 0.004074 -0.334160
    37 1.103573 -0.000002 0.000000 0.000000 0.002596 -0.215464
    38 0.806048 -0.348923 1.317352 -1.206854 -0.679513 -0.789308
    39 1.805411 -0.000002 0.000004 0.000000 0.007387 0.228543
    40 1.214810 0.000000 -0.000002 0.000000 0.011267 0.362884
    41 3.887015 -0.132568 1.193108 0.368572 -0.350090 -0.447904
    42 1.320374 0.000000 -0.000001 0.000000 -0.011932 -0.281273
    43 0.729362 0.000001 -0.000001 0.000000 -0.006133 -0.289717
    44 3.969638 0.050331 0.431043 0.124606 -0.121718 -0.509586
    45 1.543003 0.000002 0.000000 0.000000 -0.005854 -0.247771
    46 1.196323 -0.000002 0.000000 0.000000 -0.009663 -0.430761
    47 3.911000 -0.050323 -0.431043 -0.089668 0.005859 -0.225141
    48 1.727387 -0.000008 0.000000 0.000000 -0.007974 -0.384595
    49 1.209183 0.000000 0.000000 0.000000 -0.004461 -0.562848
    50 3.887172 -0.148933 -1.331282 -0.342674 0.100063 -0.362792
    51 1.723333 0.000000 0.000000 0.000000 -0.006613 -0.281750
    52 1.099667 0.000002 -0.000001 0.000000 -0.004211 -0.498655
    53 0.809923 -0.359837 -1.318334 1.204200 0.673618 -0.793926
    54 1.778064 0.000001 -0.000002 0.000000 -0.006301 0.228555
    55 1.203094 0.000001 0.000002 0.000000 -0.009618 0.362905
  time 3
    0 0.073777 -3.372787 19.956975 1.665743 0.000000 0.000000
    1 0.000005 3.415442 -2.942837 1.592021 0.360939 1.570137
    2 4.018326 0.000000 0.000000 0.011242 0.001474 0.122771
    3 3.518562 0.000000 0.000000 0.021680 0.007886 0.195673
    4 8.942642 0.000000 0.000000 0.000000 0.000000 0.190544
    5 3.307270 -0.000001 0.000000 3.134318 0.004067 0.400464
    6 3.593716 0.000004 0.000000 0.066434 0.081741 0.229637
    7 1.999992 -2.996094 0.000000 -1.570796 0.000000 -1.326450
    8 2.033352 1.000772 -1.937610 -1.668474 1.286518 2.942953
    9 6.028145 0.000000 0.000000 1.545597 -0.021769 -0.983541
    10 11.680832 0.000000 0.000008 0.000000 0.000000 -1.746374
    11 11.458261 0.000000 0.000000 -1.923190 0.676700 0.016206
    12 2.695620 -1.704628 0.000000 -1.570796 0.000000 -1.570796
    13 2.033344 1.000767 1.937660 1.596637 -1.286515 2.942961
    14 6.032049 0.000000 0.000000 -1.555202 -0.335014 -0.763411
    15 11.669116 0.000000 0.000008 -0.000048 0.000048 -1.509124
    16 11.509017 0.000000 -0.000031 2.496657 -0.252721 -0.382493
    17 2.676087 -1.712440 0.000000 1.570797 0.000000 1.570797
    18 -3.890452 0.000004 0.000007 -1.551545 -0.667322 -1.601221
    19 17.848169 0.000000 0.000000 0.000000 0.000000 2.228182
    20 16.525249 0.000000 0.000000 0.002537 0.021352 -2.169386
    21 6.879454 0.000000 0.000000 -0.065981 0.013744 -1.092169
    22 3.890452 -0.000004 -0.000003 -1.660757 -1.412150 -1.476320
    23 17.848175 0.000000 0.000000 0.000000 0.000000 2.137279
    24 16.525249 0.000000 0.000000 0.000812 -0.027575 -1.847150
    25 6.879452 0.000000 0.000000 -0.007299 -0.002950 -0.584373
    26 3.863612 -0.142403 -1.188069 -0.039283 -0.000427 -1.065786
    27 1.316467 0.000000 0.000000 0.000000 0.009665 -1.215278
    28 0.729362 0.000002 -0.000001 0.013555 0.001220 -1.019709
    29 3.946231 0.046776 -0.431443 -0.163703 0.000725 -1.145587
    30 1.542999 0.000002 0.000000 0.000000 0.004460 -1.082990
    31 1.196323 0.000000 0.000000 0.000000 0.007361 -1.265993
    32 3.887595 -0.046768 0.431443 0.056444 0.063081 -1.166921
    33 1.723480 0.000000 0.000000 0.000000 0.005516 -1.227090
    34 1.209183 -0.000002 0.000000 0.000000 0.003084 -1.076998
    35 3.863769 -0.137951 1.328560 0.341122 -0.113399 -0.336962
    36 1.727242 -0.000004 0.000000 0.000000 0.004074 -0.321758
    37 1.103573 -0.000002 0.000000 0.000000 0.002596 -0.203052
    38 0.806048 -0.348923 1.317352 -1.206854 -0.679488 -0.789308
    39 1.805411 -0.000002 0.000004 0.000000 0.007387 0.228543
    40 1.214810 0.000000 -0.000002 0.000000 0.011267 0.362884
    41 3.890922 -0.132568 1.193108 0.368572 -0.350090 -0.447904
    42 1.316467 0.000000 -0.000001 0.000000 -0.011932 -0.281273
    43 0.729362 0.000001 -0.000001 0.000000 -0.006133 -0.289717
    44 3.973544 0.050331 0.431043 0.124606 -0.121718 -0.509586
    45 1.543003 0.000002 0.000000 0.000000 -0.005854 -0.247771
    46 1.196323 -0.000002 0.000000 0.000000 -0.009663 -0.430761
    47 3.914907 -0.050323 -0.431043 -0.089668 0.005859 -0.225141
    48 1.727387 -0.000008 0.000000 0.000000 -0.007974 -0.384595
    49 1.209183 0.000000 0.000000 0.000000 -0.004461 -0.562848
    50 3.891078 -0.148933 -1.331282 -0.342674 0.100063 -0.362792
    51 1.723333 0.000000 0.000000 0.000000 -0.006613 -0.281750
    52 1.099667 0.000002 -0.000001 0.000000 -0.004211 -0.498655
    53 0.809923 -0.359837 -1.318334 1.204200 0.673618 -0.793926
    54 1.778064 0.000001 -0.000002 0.000000 -0.006301 0.228555
    55 1.203094 0.000001 0.000002 0.000000 -0.009618 0.362905
  time 4
    0 0.071808 -3.136406 21.441395 1.664534 0.000000 -0.000048
    1 0.000005 3.415442 -2.942837 1.591829 0.359675 1.568111
    2 4.018326 0.000000 0.000000 0.011134 0.002181 0.121081
    3 3.518562 0.000000 0.000000 0.021704 0.008893 0.191757
    4 8.942642 0.000000 0.000000 0.000000 0.000000 0.190544
    5 3.307270 -0.000001 0.000000 3.134318 0.004067 0.400464
    6 3.593716 0.000004 0.000000 0.063442 0.075395 0.242141
    7 1.999992 -2.996094 0.000000 -1.570796 0.000000 -1.326450
    8 2.033352 1.000772 -1.937610 -1.668474 1.286518 2.942953
    9 6.028145 0.000000 0.000000 1.520498 -0.115448 -0.986637
    10 11.676925 0.000000 0.000008 0.000000 0.000000 -1.739253
    11 11.458261 0.000000 0.000000 -1.763121 0.683229 0.089660
    12 2.699527 -1.704628 0.000000 -1.570796 0.000000 -1.570796
    13 2.033344 1.000767 1.937660 1.596637 -1.286515 2.942961
    14 6.032049 0.000000 0.000000 -1.519836 -0.231018 -0.792193
    15 11.680835 0.000000 0.000008 -0.000048 0.000048 -1.550768
    16 11.509017 0.000000 -0.000031 2.558868 -0.276627 -0.253704
    17 2.676087 -1.712440 0.000000 1.570797 0.000000 1.570797
    18 -3.890452 0.000004 0.000007 -1.553675 -0.703276 -1.597415
    19 17.848169 0.000000 0.000000 0.000000 0.000000 2.153076
    20 16.525249 0.000000 0.000000 0.004778 0.024947 -2.057226
    21 6.879454 0.000000 0.000000 -0.067203 0.012414 -1.051704
    22 3.890452 -0.000004 -0.000003 -1.617439 -1.209404 -1.520472
    23 17.848175 0.000000 0.000000 0.000000 0.000000 2.082443
    24 16.525249 0.000000 0.000000 0.004767 -0.025022 -1.994039
    25 6.879452 0.000000 0.000000 -0.007299 -0.002950 -0.584373
    26 3.859706 -0.142403 -1.191975 -0.038163 0.002200 -0.993183
    27 1.312561 0.000000 0.000000 0.000000 0.009665 -1.142637
    28 0.729362 0.000002 -0.000001 0.012404 0.001028 -0.947084
    29 3.942325 0.046776 -0.431443 -0.158466 0.000845 -1.076738
    30 1.539093 0.000002 0.000000 0.000000 0.004460 -1.010368
    31 1.196323 0.000000 0.000000 0.000000 0.007361 -1.193368
    32 3.883689 -0.046768 0.431443 0.058985 0.057472 -1.094415
    33 1.719574 0.000000 0.000000 0.000000 0.005516 -1.154428
    34 1.209183 -0.000002 0.000000 0.000000 0.003084 -1.004323
    35 3.859862 -0.137951 1.332466 0.340547 -0.117126 -0.326449
    36 1.723335 -0.000004 0.000000 0.000000 0.004074 -0.310645
    37 1.099667 -0.000002 0.000000 0.000000 0.002596 -0.191947
    38 0.806048 -0.348923 1.321259 -1.206854 -0.679488 -0.789308
    39 1.805411 -0.000002 0.000004 0.000000 0.007387 0.228543
    40 1.214810 0.000000 -0.000002 0.000000 0.011267 0.362860
    41 3.890922 -0.132568 1.193108 0.368572 -0.350090 -0.447904
    42 1.316467 0.000000 -0.000001 0.000000 -0.011932 -0.281273
    43 0.729362 0.000001 -0.000001 0.000000 -0.006133 -0.289717
    44 3.973544 0.050331 0.431043 0.124606 -0.121718 -0.509586
    45 1.543003 0.000002 0.000000 0.000000 -0.005854 -0.247771
    46 1.196323 -0.000002 0.000000 0.000000 -0.009663 -0.430761
    47 3.914907 -0.050323 -0.431043 -0.089668 0.005859 -0.225141
    48 1.727387 -0.000008 0.000000 0.000000 -0.007974 -0.384595
    49 1.209183 0.000000 0.000000 0.000000 -0.004461 -0.562848
    50 3.891078 -0.148933 -1.331282 -0.342674 0.100063 -0.362792
    51 1.723333 0.000000 0.000000 0.000000 -0.006613 -0.281750
    52 1.099667 0.000002 -0.000001 0.000000 -0.004211 -0.498655
    53 0.809923 -0.359837 -1.318334 1.204200 0.673618 -0.793926
    54 1.778064 0.000001 -0.000002 0.000000 -0.006301 0.228555
    55 1.203094 0.000001 0.000002 0.000000 -0.009618 0.362905
  time 5
    0 0.069838 -2.860006 23.183635 1.663073 0.000000 -0.000048
    1 0.000005 3.415442 -2.942837 1.591589 0.358169 1.565715
    2 4.018326 0.000000 0.000000 0.010990 0.003020 0.119043
    3 3.518562 0.000000 0.000000 0.021716 0.010067 0.187155
    4 8.942642 0.000000 0.000000 0.000000 0.000000 0.190544
    5 3.307270 -0.000001 0.000000 3.134318 0.004067 0.400464
    6 3.593716 0.000004 0.000000 0.059666 0.067934 0.256886
    7 1.999992 -2.996094 0.000000 -1.570796 0.000000 -1.326450
    8 2.033352 1.000772 -1.937610 -1.668474 1.286518 2.942953
    9 6.028145 0.000000 0.000000 1.488214 -0.197535 -0.984519
    10 11.673019 0.000000 0.000008 0.000000 0.000000 -1.700799
    11 11.458261 0.000000 0.000000 -1.599036 0.660947 0.159580
    12 2.695620 -1.704628 0.000000 -1.570796 0.000000 -1.570796
    13 2.033344 1.000767 1.937660 1.596637 -1.286515 2.942961
    14 6.032049 0.000000 0.000000 -1.475518 -0.114674 -0.817493
    15 11.692554 0.000000 0.000008 -0.000048 0.000048 -1.574630
    16 11.505111 0.000000 -0.000031 2.586453 -0.336935 -0.111321
    17 2.672181 -1.712440 0.000000 1.570797 0.000000 1.570797
    18 -3.890452 0.000004 0.000007 -1.555648 -0.729395 -1.593948
    19 17.848169 0.000000 0.000000 0.000000 0.000000 2.057345
    20 16.525249 0.000000 0.000000 0.007786 0.027991 -1.933948
    21 6.879454 0.000000 0.000000 -0.068642 0.010844 -1.004177
    22 3.890452 -0.000004 -0.000003 -1.606799 -1.007883 -1.532436
    23 17.848175 0.000000 0.000000 0.000000 0.000000 1.974322
    24 16.525249 0.000000 0.000000 0.006661 -0.022002 -2.086066
    25 6.879452 0.000000 0.000000 -0.007299 -0.002950 -0.584373
    26 3.851893 -0.142403 -1.191975 -0.036828 0.005294 -0.907896
    27 1.312561 0.000000 0.000000 0.000000 0.009665 -1.057314
    28 0.729362 0.000002 -0.000001 0.011050 0.000800 -0.861746
    29 3.934512 0.046776 -0.431443 -0.152317 0.000977 -0.995893
    30 1.539093 0.000002 0.000000 0.000000 0.004460 -0.925048
    31 1.196323 0.000000 0.000000 0.000000 0.007361 -1.108033
    32 3.875876 -0.046768 0.431443 0.061969 0.050881 -1.009276
    33 1.719574 0.000000 0.000000 0.000000 0.005516 -1.069115
    34 1.209183 -0.000002 0.000000 0.000000 0.003084 -0.918998
    35 3.852050 -0.137951 1.332466 0.340008 -0.120410 -0.317047
    36 1.719429 -0.000004 0.000000 0.000000 0.004074 -0.300733
    37 1.099667 -0.000002 0.000000 0.000000 0.002596 -0.182066
    38 0.806048 -0.348923 1.321259 -1.206854 -0.679488 -0.789308
    39 1.801504 -0.000002 0.000004 0.000000 0.007387 0.228543
    40 1.214810 0.000000 -0.000002 0.000000 0.011267 0.362860
    41 3.890922 -0.132568 1.193108 0.368572 -0.350090 -0.447904
    42 1.316467 0.000000 -0.000001 0.000000 -0.011932 -0.281273
    43 0.729362 0.000001 -0.000001 0.000000 -0.006133 -0.289717
    44 3.973544 0.050331 0.431043 0.124606 -0.121718 -0.509586
    45 1.539097 0.000002 0.000000 0.000000 -0.005854 -0.247771
    46 1.196323 -0.000002 0.000000 0.000000 -0.009663 -0.430761
    47 3.914907 -0.050323 -0.431043 -0.089668 0.005859 -0.225141
    48 1.727387 -0.000008 0.000000 0.000000 -0.007974 -0.384595
    49 1.209183 0.000000 0.000000 0.000000 -0.004461 -0.562848
    50 3.891078 -0.148933 -1.331282 -0.342674 0.100063 -0.362792
    51 1.723333 0.000000 0.000000 0.000000 -0.006613 -0.281750
    52 1.099667 0.000002 -0.000001 0.000000 -0.004211 -0.498699
    53 0.809923 -0.359837 -1.318334 1.204200 0.673618 -0.793926
    54 1.781971 0.000001 -0.000002 0.000000 -0.006301 0.228555
    55 1.203094 0.000001 0.000002 0.000000 -0.009618 0.362905
  time 6
    0 0.063963 -2.556927 25.109475 1.661511 0.000000 0.000000
    1 0.000005 3.415442 -2.942837 1.591350 0.356459 1.563042
    2 4.018326 0.000000 0.000000 0.010834 0.003967 0.116730
    3 3.518562 0.000000 0.000000 0.021716 0.011385 0.182037
    4 8.942642 0.000000 0.000000 0.000000 0.000000 0.190544
    5 3.307270 -0.000001 0.000000 3.134318 0.004067 0.400464
    6 3.593716 0.000004 0.000000 0.055124 0.059672 0.273185
    7 1.999992 -2.996094 0.000000 -1.570796 0.000000 -1.326450
    8 2.033352 1.000772 -1.937610 -1.668474 1.286518 2.942953
    9 6.028145 0.000000 0.000000 1.447787 -0.261066 -0.976535
    10 11.669112 0.000000 0.000008 0.000000 0.000000 -1.631684
    11 11.462167 0.000000 0.000000 -1.447855 0.609224 0.216340
    12 2.695620 -1.704628 0.000000 -1.570796 0.000000 -1.570796
    13 2.033344 1.000767 1.937660 1.596637 -1.286515 2.942961
    14 6.032049 0.000000 0.000000 -1.420913 0.001560 -0.834762
    15 11.700367 0.000000 0.000008 -0.000060 0.000048 -1.569781
    16 11.505111 0.000000 -0.000031 2.544206 -0.423857 0.041938
    17 2.664368 -1.712440 0.000000 1.570797 0.000000 1.570797
    18 -3.890452 0.000004 0.000007 -1.557384 -0.740922 -1.590989
    19 17.848169 0.000000 0.000000 0.000000 0.000000 1.942327
    20 16.525249 0.000000 0.000000 0.011334 0.030424 -1.805877
    21 6.879454 0.000000 0.000000 -0.070235 0.009118 -0.951622
    22 3.890452 -0.000004 -0.000003 -1.602999 -0.836616 -1.537848
    23 17.848175 0.000000 0.000000 0.000000 0.000000 1.825884
    24 16.525249 0.000000 0.000000 0.007368 -0.019389 -2.107338
    25 6.879452 0.000000 0.000000 -0.007299 -0.002950 -0.584373
    26 3.840174 -0.142403 -1.195881 -0.035377 0.008705 -0.813614
    27 1.312561 0.000000 0.000000 0.000000 0.009665 -0.962960
    28 0.729362 0.000002 -0.000001 0.009564 0.000549 -0.767385
    29 3.922793 0.046776 -0.431443 -0.145498 0.001133 -0.906483
    30 1.539093 0.000002 0.000000 0.000000 0.004460 -0.830684
    31 1.196323 0.000000 0.000000 0.000000 0.007361 -1.013669
    32 3.864157 -0.046768 0.431443 0.065265 0.043594 -0.915112
    33 1.719574 0.000000 0.000000 0.000000 0.005516 -0.974724
    34 1.209183 -0.000002 0.000000 0.000000 0.003084 -0.824630
    35 3.840330 -0.137951 1.336373 0.339492 -0.123286 -0.308779
    36 1.719429 -0.000004 0.000000 0.000000 0.004074 -0.292065
    37 1.099667 -0.000002 0.000000 0.000000 0.002596 -0.173369
    38 0.802142 -0.348923 1.325165 -1.206854 -0.679464 -0.789308
    39 1.801504 -0.000002 0.000004 0.000000 0.007387 0.228523
    40 1.210903 0.000000 -0.000002 0.000000 0.011267 0.362860
    41 3.887015 -0.132568 1.193108 0.368572 -0.350077 -0.447904
    42 1.312561 0.000000 -0.000001 0.000000 -0.011932 -0.281273
    43 0.729362 0.000001 -0.000001 0.000000 -0.006133 -0.289717
    44 3.969638 0.050331 0.431043 0.124606 -0.121718 -0.509586
    45 1.539097 0.000002 0.000000 0.000000 -0.005854 -0.247771
    46 1.196323 -0.000002 0.000000 0.000000 -0.009663 -0.430761
    47 3.911000 -0.050323 -0.431043 -0.089668 0.005859 -0.225141
    48 1.727387 -0.000008 0.000000 0.000000 -0.007974 -0.384595
    49 1.209183 0.000000 0.000000 0.000000 -0.004461 -0.562848
    50 3.887172 -0.148933 -1.331282 -0.342674 0.100063 -0.362792
    51 1.723333 0.000000 0.000000 0.000000 -0.006613 -0.281750
    52 1.099667 0.000002 -0.000001 0.000000 -0.004211 -0.498699
    53 0.809923 -0.359837 -1.318334 1.204200 0.673618 -0.793926
    54 1.781971 0.000001 -0.000002 0.000000 -0.006301 0.228555
    55 1.203094 0.000001 0.000002 0.000000 -0.009618 0.362905
  time 7
    0 0.060056 -2.236776 27.144694 1.659849 0.000000 -0.000048
    1 0.000005 3.415442 -2.942837 1.591098 0.354599 1.560214
    2 4.018326 0.000000 0.000000 0.010654 0.004986 0.114226
    3 3.518562 0.000000 0.000000 0.021680 0.012788 0.176595
    4 8.942642 0.000000 0.000000 0.000000 0.000000 0.190544
    5 3.307270 -0.000001 0.000000 3.134318 0.004067 0.400464
    6 3.593716 0.000004 0.000000 0.049816 0.050946 0.290388
    7 1.999992 -3.000000 0.000000 -1.570796 0.000000 -1.326450
    8 2.033352 1.000772 -1.937610 -1.668474 1.286518 2.942953
    9 6.028145 0.000000 0.000000 1.398259 -0.301413 -0.963662
    10 11.665206 0.000000 0.000008 0.000000 0.000000 -1.534419
    11 11.462167 0.000000 0.000000 -1.320689 0.533829 0.253559
    12 2.691714 -1.704628 0.000000 -1.570796 0.000000 -1.570796
    13 2.033344 1.000767 1.937660 1.596637 -1.286515 2.942961
    14 6.032049 0.000000 0.000000 -1.353963 0.103963 -0.842082
    15 11.708180 0.000000 0.000008 -0.000048 0.000048 -1.528984
    16 11.505111 0.000000 -0.000031 2.403962 -0.506408 0.209854
    17 2.660462 -1.712440 0.000000 1.570797 0.000000 1.570797
    18 -3.890452 0.000004 0.000007 -1.558883 -0.736256 -1.588283
    19 17.848169 0.000000 0.000000 0.000000 0.000000 1.810416
    20 16.525249 0.000000 0.000000 0.015468 0.032330 -1.677021
    21 6.879454 0.000000 0.000000 -0.071913 0.007296 -0.896034
    22 3.890452 -0.000004 -0.000003 -1.599960 -0.711536 -1.542311
    23 17.848175 0.000000 0.000000 0.000000 0.000000 1.657570
    24 16.525249 0.000000 0.000000 0.006469 -0.018754 -2.062618
    25 6.879452 0.000000 0.000000 -0.007299 -0.002950 -0.584373
    26 3.836268 -0.142403 -1.199788 -0.033826 0.012322 -0.713843
    27 1.312561 0.000000 0.000000 0.000000 0.009665 -0.863178
    28 0.729362 0.000002 -0.000001 0.007982 0.000285 -0.667601
    29 3.914980 0.046776 -0.431443 -0.138308 0.001289 -0.811937
    30 1.539093 0.000002 0.000000 0.000000 0.004460 -0.730883
    31 1.196323 0.000000 0.000000 0.000000 0.007361 -0.913858
    32 3.856344 -0.046768 0.431443 0.068764 0.035888 -0.815508
    33 1.719574 0.000000 0.000000 0.000000 0.005516 -0.874925
    34 1.209183 -0.000002 0.000000 0.000000 0.003084 -0.724872
    35 3.836424 -0.137951 1.340279 0.338977 -0.125779 -0.301573
    36 1.715523 -0.000004 0.000000 0.000000 0.004074 -0.284463
    37 1.099667 -0.000002 0.000000 0.000000 0.002596 -0.165816
    38 0.802142 -0.348923 1.329071 -1.206854 -0.679464 -0.789308
    39 1.797598 -0.000002 0.000004 0.000000 0.007387 0.228523
    40 1.206997 0.000000 -0.000002 0.000000 0.011267 0.362860
    41 3.883109 -0.132568 1.193108 0.368572 -0.350077 -0.447904
    42 1.312561 0.000000 -0.000001 0.000000 -0.011932 -0.281273
    43 0.729362 0.000001 -0.000001 0.000000 -0.006133 -0.289717
    44 3.965731 0.050331 0.431043 0.124606 -0.121718 -0.509586
    45 1.539097 0.000002 0.000000 0.000000 -0.005854 -0.247771
    46 1.192417 -0.000002 0.000000 0.000000 -0.009663 -0.430761
    47 3.907094 -0.050323 -0.431043 -0.089668 0.005859 -0.225141
    48 1.723480 -0.000008 0.000000 0.000000 -0.007974 -0.384595
    49 1.209183 0.000000 0.000000 0.000000 -0.004461 -0.562895
    50 3.883265 -0.148933 -1.331282 -0.342662 0.100063 -0.362792
    51 1.719427 0.000000 0.000000 0.000000 -0.006613 -0.281750
    52 1.099667 0.000002 -0.000001 0.000000 -0.004211 -0.498699
    53 0.809923 -0.359837 -1.318334 1.204200 0.673618 -0.793956
    54 1.781971 0.000001 -0.000002 0.000000 -0.006301 0.228555
    55 1.203094 0.000001 0.000002 0.000000 -0.009618 0.362905
  time 8
    0 0.056150 -1.916624 29.218976 1.658137 0.000000 0.000000
    1 0.000005 3.415442 -2.942837 1.590846 0.352684 1.557301
    2 4.018326 0.000000 0.000000 0.010463 0.006052 0.111589
    3 3.518562 0.000000 0.000000 0.021620 0.014226 0.171025
    4 8.942642 0.000000 0.000000 0.000000 0.000000 0.190544
    5 3.307270 -0.000001 0.000000 3.134318 0.004067 0.400464
    6 3.593716 0.000004 0.000000 0.043778 0.042070 0.307936
    7 1.999992 -3.000000 0.000000 -1.570796 0.000000 -1.326450
    8 2.033352 1.000772 -1.937610 -1.668474 1.286518 2.942953
    9 6.028145 0.000000 0.000000 1.339344 -0.316689 -0.948100
    10 11.665206 0.000000 0.000008 0.000000 0.000000 -1.412022
    11 11.462167 0.000000 0.000000 -1.219931 0.444156 0.270302
    12 2.687807 -1.708534 0.000000 -1.570796 0.000000 -1.570796
    13 2.033344 1.000767 1.937660 1.596637 -1.286515 2.942961
    14 6.032049 0.000000 0.000000 -1.273223 0.180475 -0.840874
    15 11.715993 0.000000 0.000008 -0.000048 0.000048 -1.449315
    16 11.501204 0.000000 -0.000031 2.165224 -0.541764 0.384401
    17 2.660462 -1.712440 0.000000 1.570797 0.000000 1.570797
    18 -3.890452 0.000004 0.000007 -1.559908 -0.712058 -1.586253
    19 17.848169 0.000000 0.000000 0.000000 0.000000 1.658443
    20 16.525249 0.000000 0.000000 0.019315 0.033588 -1.569104
    21 6.879454 0.000000 0.000000 -0.073627 0.005427 -0.839448
    22 3.890452 -0.000004 -0.000003 -1.595780 -0.641862 -1.547438
    23 17.848175 0.000000 0.000000 0.000000 0.000000 1.487917
    24 16.525249 0.000000 0.000000 0.004000 -0.021103 -1.960777
    25 6.879452 0.000000 0.000000 -0.007299 -0.002950 -0.584373
    26 3.832361 -0.142403 -1.199788 -0.032247 0.015994 -0.612304
    27 1.312561 0.000000 0.000000 0.000000 0.009665 -0.761570
    28 0.729362 0.000002 -0.000001 0.006376 0.000009 -0.565995
    29 3.914980 0.046776 -0.435350 -0.130973 0.001456 -0.715711
    30 1.539093 0.000002 0.000000 0.000000 0.004460 -0.629256
    31 1.196323 0.000000 0.000000 0.000000 0.007361 -0.812232
    32 3.856344 -0.046768 0.435350 0.072323 0.028050 -0.714125
    33 1.719574 0.000000 0.000000 0.000000 0.005516 -0.773339
    34 1.209183 -0.000002 0.000000 0.000000 0.003084 -0.623245
    35 3.832518 -0.137951 1.344186 0.338450 -0.127889 -0.295384
    36 1.715523 -0.000004 0.000000 0.000000 0.004074 -0.277974
    37 1.099667 -0.000002 0.000000 0.000000 0.002596 -0.159324
    38 0.802142 -0.348923 1.332978 -1.206854 -0.679488 -0.789308
    39 1.797598 -0.000002 0.000004 0.000000 0.007387 0.228523
    40 1.206997 0.000000 -0.000002 0.000000 0.011267 0.362860
    41 3.875296 -0.132568 1.193108 0.368572 -0.350077 -0.447904
    42 1.312561 0.000000 -0.000001 0.000000 -0.011932 -0.281273
    43 0.729362 0.000001 -0.000001 0.000000 -0.006133 -0.289717
    44 3.961825 0.050331 0.431043 0.124606 -0.121718 -0.509586
    45 1.539097 0.000002 0.000000 0.000000 -0.005854 -0.247771
    46 1.192417 -0.000002 0.000000 0.000000 -0.009663 -0.430761
    47 3.899281 -0.050323 -0.431043 -0.089668 0.005859 -0.225141
    48 1.723480 -0.000008 0.000000 0.000000 -0.007974 -0.384595
    49 1.209183 0.000000 0.000000 0.000000 -0.004461 -0.562895
    50 3.875453 -0.148933 -1.331282 -0.342662 0.100063 -0.362792
    51 1.719427 0.000000 0.000000 0.000000 -0.006613 -0.281788
    52 1.099667 0.000002 -0.000001 0.000000 -0.004211 -0.498699
    53 0.809923 -0.359837 -1.318334 1.204200 0.673618 -0.793956
    54 1.781971 0.000001 -0.000002 0.000000 -0.006301 0.228555
    55 1.203094 0.000001 0.000002 0.000000 -0.009618 0.362905
  time 9
    0 0.056150 -1.609812 31.258101 1.656424 0.000000 0.000000
    1 0.000005 3.415442 -2.942837 1.590607 0.350751 1.554425
    2 4.018326 0.000000 0.000000 0.010271 0.007119 0.108940
    3 3.518562 0.000000 0.000000 0.021548 0.015652 0.165531
    4 8.942642 0.000000 0.000000 0.000000 0.000000 0.190544
    5 3.307270 -0.000001 0.000000 3.134318 0.004067 0.400464
    6 3.593716 0.000004 0.000000 0.037029 0.033343 0.325140
    7 1.999992 -3.000000 0.000000 -1.570796 0.000000 -1.326450
    8 2.033352 1.000772 -1.937610 -1.668474 1.286518 2.942953
    9 6.028145 0.000000 0.000000 1.271423 -0.307389 -0.933191
    10 11.665206 0.000000 0.000008 0.000000 0.000000 -1.268094
    11 11.466074 0.000000 0.000000 -1.141135 0.349765 0.268633
    12 2.683901 -1.708534 0.000000 -1.570796 0.000000 -1.570796
    13 2.033344 1.000767 1.937660 1.596637 -1.286515 2.942961
    14 6.032049 0.000000 0.000000 -1.179860 0.223602 -0.836681
    15 11.719899 0.000000 0.000008 -0.000036 0.000048 -1.332081
    16 11.501204 0.000000 -0.000031 1.871150 -0.501611 0.523203
    17 2.660462 -1.708534 0.000000 1.570797 0.000000 1.570797
    18 -3.890452 0.000004 0.000007 -1.560224 -0.666590 -1.584731
    19 17.848169 0.000000 0.000000 0.000000 0.000000 1.483664
    20 16.525249 0.000000 0.000000 0.022144 0.034211 -1.494658
    21 6.879454 0.000000 0.000000 -0.075305 0.003605 -0.783861
    22 3.890452 -0.000004 -0.000003 -1.591505 -0.594595 -1.552091
    23 17.848175 0.000000 0.000000 0.000000 0.000000 1.313541
    24 16.525249 0.000000 0.000000 0.000405 -0.024171 -1.831956
    25 6.879452 0.000000 0.000000 -0.007299 -0.002950 -0.584373
    26 3.840174 -0.142403 -1.199788 -0.030710 0.019611 -0.512563
    27 1.312561 0.000000 0.000000 0.000000 0.009665 -0.661787
    28 0.729362 0.000002 -0.000001 0.004794 -0.000254 -0.466254
    29 3.922793 0.046776 -0.435350 -0.123758 0.001612 -0.621165
    30 1.539093 0.000002 0.000000 0.000000 0.004460 -0.529499
    31 1.196323 0.000000 0.000000 0.000000 0.007361 -0.712470
    32 3.864157 -0.046768 0.435350 0.075811 0.020356 -0.614573
    33 1.719574 0.000000 0.000000 0.000000 0.005516 -0.673540
    34 1.209183 -0.000002 0.000000 0.000000 0.003084 -0.523444
    35 3.840330 -0.137951 1.344186 0.337862 -0.129638 -0.290163
    36 1.715523 -0.000004 0.000000 0.000000 0.004074 -0.272551
    37 1.099667 -0.000002 0.000000 0.000000 0.002596 -0.153853
    38 0.802142 -0.348923 1.332978 -1.206854 -0.679488 -0.789308
    39 1.797598 -0.000002 0.000004 0.000000 0.007387 0.228523
    40 1.206997 0.000000 -0.000002 0.000000 0.011267 0.362860
    41 3.871390 -0.132568 1.193108 0.368572 -0.350077 -0.447904
    42 1.312561 0.000000 -0.000001 0.000000 -0.011932 -0.281273
    43 0.729362 0.000001 -0.000001 0.000000 -0.006133 -0.289717
    44 3.954012 0.050331 0.431043 0.124606 -0.121718 -0.509586
    45 1.539097 0.000002 0.000000 0.000000 -0.005854 -0.247771
    46 1.192417 -0.000002 0.000000 0.000000 -0.009663 -0.430761
    47 3.895375 -0.050323 -0.431043 -0.089668 0.005859 -0.225141
    48 1.719574 -0.000008 0.000000 0.000000 -0.007974 -0.384595
    49 1.209183 0.000000 0.000000 0.000000 -0.004461 -0.562895
    50 3.871546 -0.148933 -1.331282 -0.342662 0.100063 -0.362792
    51 1.719427 0.000000 0.000000 0.000000 -0.006613 -0.281788
    52 1.099667 0.000002 -0.000001 0.000000 -0.004211 -0.498699
    53 0.806017 -0.359837 -1.318334 1.204200 0.673618 -0.793956
    54 1.778064 0.000001 -0.000002 0.000000 -0.006301 0.228555
    55 1.203094 0.000001 0.000002 0.000000 -0.009618 0.362905
  time 10
    0 0.052243 -1.316340 33.183941 1.654863 0.000000 -0.000048
    1 0.000005 3.415442 -2.942837 1.590391 0.348892 1.551693
    2 4.018326 0.000000 0.000000 0.010067 0.008150 0.106364
    3 3.518562 0.000000 0.000000 0.021440 0.017006 0.160322
    4 8.942642 0.000000 0.000000 0.000000 0.000000 0.190544
    5 3.307270 -0.000001 0.000000 3.134318 0.004067 0.400464
    6 3.593716 0.000004 0.000000 0.029605 0.025100 0.341438
    7 1.999992 -3.000000 0.000000 -1.570796 0.000000 -1.326450
    8 2.033352 1.000772 -1.937610 -1.668474 1.286518 2.942953
    9 6.028145 0.000000 0.000000 1.195455 -0.275848 -0.923414
    10 11.665206 0.000000 0.000008 0.000000 0.000000 -1.106321
    11 11.466074 0.000000 0.000000 -1.077040 0.258491 0.250269
    12 2.679995 -1.712440 0.000000 -1.570796 0.000000 -1.570796
    13 2.033344 1.000767 1.937660 1.596637 -1.286515 2.942961
    14 6.032049 0.000000 0.000000 -1.077934 0.232147 -0.837960
    15 11.719899 0.000000 0.000008 -0.000036 0.000048 -1.181364
    16 11.497298 0.000000 -0.000031 1.577408 -0.397397 0.575726
    17 2.668275 -1.704628 0.000000 1.570797 0.000000 1.570797
    18 -3.890452 0.000004 0.000007 -1.560145 -0.601681 -1.583463
    19 17.848169 0.000000 0.000000 0.000000 0.000000 1.287345
    20 16.525249 0.000000 0.000000 0.024025 0.034355 -1.441780
    21 6.879454 0.000000 0.000000 -0.076899 0.001879 -0.731305
    22 3.890452 -0.000004 -0.000003 -1.588465 -0.533502 -1.555604
    23 17.848175 0.000000 0.000000 0.000000 0.000000 1.124858
    24 16.525249 0.000000 0.000000 -0.003610 -0.026352 -1.703053
    25 6.879452 0.000000 0.000000 -0.007299 -0.002950 -0.584373
    26 3.847987 -0.142403 -1.199788 -0.029245 0.023022 -0.418251
    27 1.312561 0.000000 0.000000 0.000000 0.009665 -0.567384
    28 0.729362 0.000002 -0.000001 0.003308 -0.000506 -0.371893
    29 3.930606 0.046776 -0.431443 -0.116939 0.001768 -0.531755
    30 1.539093 0.000002 0.000000 0.000000 0.004460 -0.435091
    31 1.196323 0.000000 0.000000 0.000000 0.007361 -0.618107
    32 3.871970 -0.046768 0.431443 0.079107 0.013057 -0.520435
    33 1.719574 0.000000 0.000000 0.000000 0.005516 -0.579197
    34 1.209183 -0.000002 0.000000 0.000000 0.003084 -0.429077
    35 3.848143 -0.137951 1.340279 0.337191 -0.131064 -0.285887
    36 1.719429 -0.000004 0.000000 0.000000 0.004074 -0.268061
    37 1.099667 -0.000002 0.000000 0.000000 0.002596 -0.149402
    38 0.806048 -0.348923 1.329071 -1.206854 -0.679488 -0.789308
    39 1.797598 -0.000002 0.000004 0.000000 0.007387 0.228523
    40 1.206997 0.000000 -0.000002 0.000000 0.011267 0.362860
    41 3.863577 -0.132568 1.193108 0.368572 -0.350077 -0.447904
    42 1.312561 0.000000 -0.000001 0.000000 -0.011932 -0.281273
    43 0.729362 0.000001 -0.000001 0.000000 -0.006133 -0.289717
    44 3.950106 0.050331 0.431043 0.124606 -0.121718 -0.509586
    45 1.539097 0.000002 0.000000 0.000000 -0.005854 -0.247771
    46 1.192417 -0.000002 0.000000 0.000000 -0.009663 -0.430761
    47 3.887562 -0.050323 -0.431043 -0.089668 0.005859 -0.225141
    48 1.719574 -0.000008 0.000000 0.000000 -0.007974 -0.384595
    49 1.209183 0.000000 0.000000 0.000000 -0.004461 -0.562848
    50 3.863733 -0.148933 -1.331282 -0.342662 0.100063 -0.362792
    51 1.719427 0.000000 0.000000 0.000000 -0.006613 -0.281788
    52 1.099667 0.000002 -0.000001 0.000000 -0.004211 -0.498699
    53 0.806017 -0.359837 -1.318334 1.204200 0.673618 -0.793956
    54 1.778064 0.000001 -0.000002 0.000000 -0.006301 0.228555
    55 1.203094 0.000001 0.000002 0.000000 -0.009618 0.362905
  time 11
    0 0.048337 -1.049547 34.926181 1.653452 0.000000 0.000000
    1 0.000005 3.415442 -2.942837 1.590199 0.347162 1.549212
    2 4.018326 0.000000 0.000000 0.009887 0.009096 0.103979
    3 3.518562 0.000000 0.000000 0.021333 0.018229 0.155579
    4 8.942642 0.000000 0.000000 0.000000 0.000000 0.190544
    5 3.307270 -0.000001 0.000000 3.134318 0.004067 0.400464
    6 3.593716 0.000004 0.000000 0.021524 0.017639 0.356184
    7 1.999992 -3.000000 0.000000 -1.570796 0.000000 -1.326450
    8 2.033352 1.000772 -1.937610 -1.668474 1.286518 2.942953
    9 6.028145 0.000000 0.000000 1.113835 -0.226245 -0.923414
    10 11.669112 0.000000 0.000008 0.000000 0.000000 -0.930223
    11 11.469980 0.000000 0.000000 -1.020721 0.175851 0.215555
    12 2.676088 -1.712440 0.000000 -1.570796 0.000000 -1.570796
    13 2.033344 1.000767 1.937660 1.596637 -1.286515 2.942961
    14 6.032049 0.000000 0.000000 -0.974006 0.211109 -0.853809
    15 11.715993 0.000000 0.000008 -0.000024 0.000036 -1.002935
    16 11.493391 0.000000 -0.000031 1.309842 -0.270206 0.528044
    17 2.672181 -1.708534 0.000000 1.570797 0.000000 1.570797
    18 -3.890452 0.000004 0.000007 -1.559829 -0.519253 -1.582194
    19 17.848169 0.000000 0.000000 0.000000 0.000000 1.070332
    20 16.525249 0.000000 0.000000 0.025691 0.034067 -1.397544
    21 6.879454 0.000000 0.000000 -0.078337 0.000309 -0.683778
    22 3.890452 -0.000004 -0.000003 -1.586185 -0.460003 -1.558453
    23 17.848175 0.000000 0.000000 0.000000 0.000000 0.923487
    24 16.525249 0.000000 0.000000 -0.008081 -0.027910 -1.573739
    25 6.879452 0.000000 0.000000 -0.007299 -0.002950 -0.584373
    26 3.851893 -0.142403 -1.195881 -0.027910 0.026116 -0.332963
    27 1.312561 0.000000 0.000000 0.000000 0.009665 -0.482061
    28 0.729362 0.000002 -0.000001 0.001953 -0.000734 -0.286556
    29 3.934512 0.046776 -0.431443 -0.110779 0.001900 -0.450910
    30 1.539093 0.000002 0.000000 0.000000 0.004460 -0.349772
    31 1.196323 0.000000 0.000000 0.000000 0.007361 -0.532772
    32 3.875876 -0.046768 0.431443 0.082091 0.006478 -0.435295
    33 1.719574 0.000000 0.000000 0.000000 0.005516 -0.493837
    34 1.209183 -0.000002 0.000000 0.000000 0.003084 -0.343751
    35 3.852050 -0.137951 1.340279 0.336412 -0.132179 -0.282462
    36 1.719429 -0.000004 0.000000 0.000000 0.004074 -0.264505
    37 1.099667 -0.000002 0.000000 0.000000 0.002596 -0.145850
    38 0.806048 -0.348923 1.329071 -1.206854 -0.679488 -0.789308
    39 1.797598 -0.000002 0.000004 0.000000 0.007387 0.228523
    40 1.210903 0.000000 -0.000002 0.000000 0.011267 0.362860
    41 3.863577 -0.132568 1.193108 0.368572 -0.350090 -0.447904
    42 1.312561 0.000000 -0.000001 0.000000 -0.011932 -0.281273
    43 0.729362 0.000001 -0.000001 0.000000 -0.006133 -0.289717
    44 3.946200 0.050331 0.431043 0.124606 -0.121718 -0.509586
    45 1.539097 0.000002 0.000000 0.000000 -0.005854 -0.247771
    46 1.196323 -0.000002 0.000000 0.000000 -0.009663 -0.430761
    47 3.887562 -0.050323 -0.431043 -0.089668 0.005859 -0.225141
    48 1.719574 -0.000008 0.000000 0.000000 -0.007974 -0.384595
    49 1.209183 0.000000 0.000000 0.000000 -0.004461 -0.562848
    50 3.863733 -0.148933 -1.331282 -0.342674 0.100063 -0.362792
    51 1.719427 0.000000 0.000000 0.000000 -0.006613 -0.281788
    52 1.099667 0.000002 -0.000001 0.000000 -0.004211 -0.498699
    53 0.806017 -0.359837 -1.318334 1.204200 0.673618 -0.793956
    54 1.778064 0.000001 -0.000002 0.000000 -0.006301 0.228555
    55 1.203094 0.000001 0.000002 0.000000 -0.009618 0.362905
  time 12
    0 0.044431 -0.822772 36.410602 1.652193 0.000000 -0.000048
    1 0.000005 3.415442 -2.942837 1.590043 0.345675 1.547079
    2 4.018326 0.000000 0.000000 0.009731 0.009923 0.101893
    3 3.518562 0.000000 0.000000 0.021225 0.019283 0.151533
    4 8.942642 0.000000 0.000000 0.000000 0.000000 0.190544
    5 3.307270 -0.000001 0.000000 3.134318 0.004067 0.400464
    6 3.593716 0.000004 0.000000 0.012805 0.011275 0.368688
    7 1.999992 -3.000000 0.000000 -1.570796 0.000000 -1.326450
    8 2.033352 1.000772 -1.937610 -1.668474 1.286518 2.942953
    9 6.028145 0.000000 0.000000 1.030394 -0.164242 -0.937101
    10 11.676925 0.000000 0.000008 0.000000 0.000000 -0.743988
    11 11.477793 0.000000 0.000000 -0.967393 0.105890 0.164146
    12 2.676088 -1.712440 0.000000 -1.570796 0.000000 -1.570796
    13 2.033344 1.000767 1.937660 1.596637 -1.286515 2.942961
    14 6.032049 0.000000 0.000000 -0.876417 0.169721 -0.890124
    15 11.712086 0.000000 0.000008 -0.000012 0.000036 -0.803569
    16 11.489485 0.000000 -0.000031 1.073589 -0.161544 0.402306
    17 2.676087 -1.708534 0.000000 1.570797 0.000000 1.570797
    18 -3.890452 0.000004 0.000007 -1.559277 -0.420814 -1.580926
    19 17.848169 0.000000 0.000000 0.000000 0.000000 0.832695
    20 16.525249 0.000000 0.000000 0.027657 0.033444 -1.349027
    21 6.879454 0.000000 0.000000 -0.079559 -0.001021 -0.643314
    22 3.890452 -0.000004 -0.000003 -1.584570 -0.374982 -1.560637
    23 17.848175 0.000000 0.000000 0.000000 0.000000 0.710064
    24 16.525249 0.000000 0.000000 -0.012838 -0.029013 -1.444097
    25 6.879452 0.000000 0.000000 -0.007299 -0.002950 -0.584373
    26 3.855800 -0.142403 -1.195881 -0.026790 0.028743 -0.260331
    27 1.312561 0.000000 0.000000 0.000000 0.009665 -0.409470
    28 0.729362 0.000002 -0.000001 0.000803 -0.000925 -0.213973
    29 3.938418 0.046776 -0.431443 -0.105530 0.002020 -0.382062
    30 1.539093 0.000002 0.000000 0.000000 0.004460 -0.277106
    31 1.196323 0.000000 0.000000 0.000000 0.007361 -0.460098
    32 3.879783 -0.046768 0.431443 0.084632 0.000857 -0.362789
    33 1.719574 0.000000 0.000000 0.000000 0.005516 -0.421174
    34 1.209183 -0.000002 0.000000 0.000000 0.003084 -0.271118
    35 3.855956 -0.137951 1.336373 0.335501 -0.133018 -0.279887
    36 1.719429 -0.000004 0.000000 0.000000 0.004074 -0.261838
    37 1.099667 -0.000002 0.000000 0.000000 0.002596 -0.143155
    38 0.806048 -0.348923 1.325165 -1.206854 -0.679488 -0.789308
    39 1.797598 -0.000002 0.000004 0.000000 0.007387 0.228523
    40 1.210903 0.000000 -0.000002 0.000000 0.011267 0.362860
    41 3.859671 -0.132568 1.193108 0.368572 -0.350090 -0.447904
    42 1.312561 0.000000 -0.000001 0.000000 -0.011932 -0.281273
    43 0.729362 0.000001 -0.000001 0.000000 -0.006133 -0.289717
    44 3.942293 0.050331 0.431043 0.124606 -0.121718 -0.509586
    45 1.539097 0.000002 0.000000 0.000000 -0.005854 -0.247771
    46 1.196323 -0.000002 0.000000 0.000000 -0.009663 -0.430761
    47 3.883656 -0.050323 -0.431043 -0.089668 0.005859 -0.225141
    48 1.719574 -0.000008 0.000000 0.000000 -0.007974 -0.384595
    49 1.209183 0.000000 0.000000 0.000000 -0.004461 -0.562848
    50 3.859827 -0.148933 -1.331282 -0.342674 0.100063 -0.362792
    51 1.719427 0.000000 0.000000 0.000000 -0.006613 -0.281788
    52 1.099667 0.000002 -0.000001 0.000000 -0.004211 -0.498699
    53 0.806017 -0.359837 -1.318334 1.204200 0.673618 -0.793956
    54 1.778064 0.000001 -0.000002 0.000000 -0.006301 0.228555
    55 1.203094 0.000001 0.000002 0.000000 -0.009618 0.362905
  time 13
    0 0.044431 -0.649357 37.559074 1.651286 0.000000 -0.000048
    1 0.000005 3.415442 -2.942837 1.589923 0.344504 1.545425
    2 4.018326 0.000000 0.000000 0.009600 0.010558 0.100264
    3 3.518562 0.000000 0.000000 0.021141 0.020098 0.148392
    4 8.942642 0.000000 0.000000 0.000000 0.000000 0.190544
    5 3.307270 -0.000001 0.000000 3.134318 0.004067 0.400464
    6 3.593716 0.000004 0.000000 0.003484 0.006344 0.378432
    7 1.999992 -3.000000 0.000000 -1.570796 0.000000 -1.326450
    8 2.033352 1.000772 -1.937610 -1.668474 1.286518 2.942953
    9 6.028145 0.000000 0.000000 0.950403 -0.096937 -0.965128
    10 11.680832 0.000000 0.000008 0.000000 0.000000 -0.554486
    11 11.481699 0.000000 0.000000 -0.915689 0.051892 0.097418
    12 2.676088 -1.712440 0.000000 -1.570796 0.000000 -1.570796
    13 2.033344 1.000767 1.937660 1.596637 -1.286515 2.942961
    14 6.032049 0.000000 0.000000 -0.794676 0.118483 -0.946765
    15 11.704274 0.000000 0.000008 0.000000 0.000024 -0.593118
    16 11.481672 0.000000 -0.000031 0.879335 -0.093886 0.237773
    17 2.676087 -1.712440 0.000000 1.570797 0.000000 1.570797
    18 -3.890452 0.000004 0.000007 -1.558567 -0.307601 -1.579573
    19 17.848169 0.000000 0.000000 0.000000 0.000000 0.575066
    20 16.525249 0.000000 0.000000 0.030317 0.032593 -1.283734
    21 6.879454 0.000000 0.000000 -0.080506 -0.002052 -0.611909
    22 3.890452 -0.000004 -0.000003 -1.583430 -0.279370 -1.562536
    23 17.848175 0.000000 0.000000 0.000000 0.000000 0.485434
    24 16.525249 0.000000 0.000000 -0.017932 -0.029756 -1.314127
    25 6.879452 0.000000 0.000000 -0.007299 -0.002950 -0.584373
    26 3.859706 -0.142403 -1.191975 -0.025914 0.030792 -0.203981
    27 1.312561 0.000000 0.000000 0.000000 0.009665 -0.353064
    28 0.729362 0.000002 -0.000001 -0.000084 -0.001081 -0.157574
    29 3.942325 0.046776 -0.431443 -0.101455 0.002104 -0.328664
    30 1.539093 0.000002 0.000000 0.000000 0.004460 -0.220792
    31 1.196323 0.000000 0.000000 0.000000 0.007361 -0.403764
    32 3.883689 -0.046768 0.431443 0.086585 -0.003493 -0.306526
    33 1.719574 0.000000 0.000000 0.000000 0.005516 -0.364832
    34 1.209183 -0.000002 0.000000 0.000000 0.003084 -0.214787
    35 3.859862 -0.137951 1.332466 0.334447 -0.133581 -0.278115
    36 1.719429 -0.000004 0.000000 0.000000 0.004074 -0.260015
    37 1.099667 -0.000002 0.000000 0.000000 0.002596 -0.141318
    38 0.806048 -0.348923 1.321259 -1.206854 -0.679488 -0.789308
    39 1.797598 -0.000002 0.000004 0.000000 0.007387 0.228523
    40 1.210903 0.000000 -0.000002 0.000000 0.011267 0.362860
    41 3.859671 -0.132568 1.193108 0.368572 -0.350090 -0.447904
    42 1.312561 0.000000 -0.000001 0.000000 -0.011932 -0.281273
    43 0.729362 0.000001 -0.000001 0.000000 -0.006133 -0.289717
    44 3.942293 0.050331 0.431043 0.124606 -0.121718 -0.509586
    45 1.539097 0.000002 0.000000 0.000000 -0.005854 -0.247771
    46 1.196323 -0.000002 0.000000 0.000000 -0.009663 -0.430761
    47 3.883656 -0.050323 -0.431043 -0.089668 0.005859 -0.225141
    48 1.719574 -0.000008 0.000000 0.000000 -0.007974 -0.384595
    49 1.209183 0.000000 0.000000 0.000000 -0.004461 -0.562848
    50 3.859827 -0.148933 -1.331282 -0.342674 0.100063 -0.362792
    51 1.719427 0.000000 0.000000 0.000000 -0.006613 -0.281788
    52 1.099667 0.000002 -0.000001 0.000000 -0.004211 -0.498655
    53 0.806017 -0.359837 -1.318334 1.204200 0.673618 -0.793956
    54 1.778064 0.000001 -0.000002 0.000000 -0.006301 0.228555
    55 1.203094 0.000001 0.000002 0.000000 -0.009618 0.362905
  time 14
    0 0.040524 -0.529300 38.305191 1.650632 0.000000 0.000000
    1 0.000005 3.415442 -2.942837 1.589852 0.343741 1.544346
    2 4.018326 0.000000 0.000000 0.009516 0.010990 0.099185
    3 3.518562 0.000000 0.000000 0.021069 0.020637 0.146350
    4 8.942642 0.000000 0.000000 0.000000 0.000000 0.190544
    5 3.307270 -0.000001 0.000000 3.134318 0.004067 0.400464
    6 3.593716 0.000004 0.000000 -0.006421 0.003162 0.384727
    7 1.999992 -3.000000 0.000000 -1.570796 0.000000 -1.326450
    8 2.033352 1.000772 -1.937610 -1.668474 1.286518 2.942953
    9 6.028145 0.000000 0.000000 0.880758 -0.034214 -1.001303
    10 11.688644 0.000000 0.000008 0.000000 0.000000 -0.379728
    11 11.481699 0.000000 0.000000 -0.866463 0.017353 0.023767
    12 2.676088 -1.712440 0.000000 -1.570796 0.000000 -1.570796
    13 2.033344 1.000767 1.937660 1.596637 -1.286515 2.942961
    14 6.028143 0.000000 0.000000 -0.738792 0.067861 -1.012787
    15 11.696461 0.000000 0.000008 0.000000 0.000012 -0.394753
    16 11.481672 0.000000 -0.000031 0.747126 -0.066537 0.081662
    17 2.676087 -1.712440 0.000000 1.570797 0.000000 1.570797
    18 -3.890452 0.000004 0.000007 -1.557936 -0.180894 -1.577881
    19 17.848169 0.000000 0.000000 0.000000 0.000000 0.298503
    20 16.525249 0.000000 0.000000 0.034080 0.031766 -1.189881
    21 6.879454 0.000000 0.000000 -0.081117 -0.002723 -0.591578
    22 3.890452 -0.000004 -0.000003 -1.582670 -0.173952 -1.564150
    23 17.848175 0.000000 0.000000 0.000000 0.000000 0.250584
    24 16.525249 0.000000 0.000000 -0.023073 -0.030187 -1.184156
    25 6.879452 0.000000 0.000000 -0.007299 -0.002950 -0.584373
    26 3.859706 -0.142403 -1.191975 -0.025339 0.032113 -0.167512
    27 1.312561 0.000000 0.000000 0.000000 0.009665 -0.316596
    28 0.729362 0.000002 -0.000001 -0.000659 -0.001177 -0.121087
    29 3.942325 0.046776 -0.431443 -0.098818 0.002164 -0.294102
    30 1.539093 0.000002 0.000000 0.000000 0.004460 -0.184307
    31 1.196323 0.000000 0.000000 0.000000 0.007361 -0.367304
    32 3.883689 -0.046768 0.431443 0.087867 -0.006310 -0.270116
    33 1.719574 0.000000 0.000000 0.000000 0.005516 -0.328383
    34 1.209183 -0.000002 0.000000 0.000000 0.003084 -0.178279
    35 3.859862 -0.137951 1.332466 0.333212 -0.133905 -0.277075
    36 1.719429 -0.000004 0.000000 0.000000 0.004074 -0.258948
    37 1.099667 -0.000002 0.000000 0.000000 0.002596 -0.140256
    38 0.806048 -0.348923 1.321259 -1.206854 -0.679488 -0.789308
    39 1.801504 -0.000002 0.000004 0.000000 0.007387 0.228523
    40 1.210903 0.000000 -0.000002 0.000000 0.011267 0.362860
    41 3.859671 -0.132568 1.193108 0.368572 -0.350090 -0.447904
    42 1.312561 0.000000 -0.000001 0.000000 -0.011932 -0.281273
    43 0.729362 0.000001 -0.000001 0.000000 -0.006133 -0.289717
    44 3.942293 0.050331 0.431043 0.124606 -0.121718 -0.509586
    45 1.539097 0.000002 0.000000 0.000000 -0.005854 -0.247771
    46 1.196323 -0.000002 0.000000 0.000000 -0.009663 -0.430761
    47 3.883656 -0.050323 -0.431043 -0.089668 0.005859 -0.225141
    48 1.719574 -0.000008 0.000000 0.000000 -0.007974 -0.384595
    49 1.209183 0.000000 0.000000 0.000000 -0.004461 -0.562848
    50 3.859827 -0.148933 -1.331282 -0.342674 0.100063 -0.362792
    51 1.719427 0.000000 0.000000 0.000000 -0.006613 -0.281788
    52 1.099667 0.000002 -0.000001 0.000000 -0.004211 -0.498655
    53 0.806017 -0.359837 -1.318334 1.204200 0.673618 -0.793956
    54 1.778064 0.000001 -0.000002 0.000000 -0.006301 0.228555
    55 1.203094 0.000001 0.000002 0.000000 -0.009618 0.362905
  time 15
    0 0.040524 -0.489281 38.566917 1.650430 0.000000 0.000000
    1 0.000005 3.415442 -2.942837 1.589828 0.343463 1.543963
    2 4.018326 0.000000 0.000000 0.009480 0.011134 0.098801
    3 3.518562 0.000000 0.000000 0.021045 0.020829 0.145626
    4 8.942642 0.000000 0.000000 0.000000 0.000000 0.190544
    5 3.307270 -0.000001 0.000000 3.134318 0.004067 0.400464
    6 3.593716 0.000004 0.000000 -0.016891 0.002027 0.386969
    7 1.999992 -3.000000 0.000000 -1.570796 0.000000 -1.326450
    8 2.033352 1.000772 -1.937610 -1.668474 1.286518 2.942953
    9 6.028145 0.000000 0.000000 0.828452 0.001775 -1.020612
    10 11.688644 0.000000 0.000008 0.000000 0.000000 -0.282463
    11 11.481699 0.000000 0.000000 -0.821596 0.006360 -0.024401
    12 2.676088 -1.712440 0.000000 -1.570796 0.000000 -1.570796
    13 2.033344 1.000767 1.937660 1.596637 -1.286515 2.942961
    14 6.028143 0.000000 0.000000 -0.718273 0.040740 -1.050310
    15 11.696461 0.000000 0.000008 0.000000 0.000012 -0.291452
    16 11.481672 0.000000 -0.000031 0.698086 -0.065918 0.001485
    17 2.676087 -1.712440 0.000000 1.570797 0.000000 1.570797
    18 -3.890452 0.000004 0.000007 -1.557462 -0.055879 -1.576106
    19 17.848169 0.000000 0.000000 0.000000 0.000000 0.034187
    20 16.525249 0.000000 0.000000 0.038599 0.031826 -1.071986
    21 6.879454 0.000000 0.000000 -0.081333 -0.002951 -0.584373
    22 3.890452 -0.000004 -0.000003 -1.582385 -0.075006 -1.565384
    23 17.848175 0.000000 0.000000 0.000000 0.000000 0.039557
    24 16.525249 0.000000 0.000000 -0.027579 -0.030331 -1.071843
    25 6.879452 0.000000 0.000000 -0.007299 -0.002950 -0.584373
    26 3.859706 -0.142403 -1.191975 -0.025138 0.032580 -0.154553
    27 1.312561 0.000000 0.000000 0.000000 0.009665 -0.303617
    28 0.729362 0.000002 -0.000001 -0.000863 -0.001213 -0.108159
    29 3.942325 0.046776 -0.431443 -0.097883 0.002188 -0.281806
    30 1.539093 0.000002 0.000000 0.000000 0.004460 -0.171348
    31 1.196323 0.000000 0.000000 0.000000 0.007361 -0.354349
    32 3.883689 -0.046768 0.431443 0.088323 -0.007317 -0.257195
    33 1.719574 0.000000 0.000000 0.000000 0.005516 -0.315402
    34 1.209183 -0.000002 0.000000 0.000000 0.003084 -0.165332
    35 3.859862 -0.137951 1.332466 0.331798 -0.134013 -0.276745
    36 1.719429 -0.000004 0.000000 0.000000 0.004074 -0.258593
    37 1.099667 -0.000002 0.000000 0.000000 0.002596 -0.139930
    38 0.806048 -0.348923 1.321259 -1.206854 -0.679488 -0.789308
    39 1.801504 -0.000002 0.000004 0.000000 0.007387 0.228523
    40 1.210903 0.000000 -0.000002 0.000000 0.011267 0.362860
    41 3.859671 -0.132568 1.193108 0.368572 -0.350090 -0.447904
    42 1.312561 0.000000 -0.000001 0.000000 -0.011932 -0.281273
    43 0.729362 0.000001 -0.000001 0.000000 -0.006133 -0.289717
    44 3.942293 0.050331 0.431043 0.124606 -0.121718 -0.509586
    45 1.539097 0.000002 0.000000 0.000000 -0.005854 -0.247771
    46 1.196323 -0.000002 0.000000 0.000000 -0.009663 -0.430761
    47 3.883656 -0.050323 -0.431043 -0.089668 0.005859 -0.225141
    48 1.719574 -0.000008 0.000000 0.000000 -0.007974 -0.384595
    49 1.209183 0.000000 0.000000 0.000000 -0.004461 -0.562848
    50 3.859827 -0.148933 -1.331282 -0.342674 0.100063 -0.362792
    51 1.719427 0.000000 0.000000 0.000000 -0.006613 -0.281788
    52 1.099667 0.000002 -0.000001 0.000000 -0.004211 -0.498655
    53 0.806017 -0.359837 -1.318334 1.204200 0.673618 -0.793956
    54 1.778064 0.000001 -0.000002 0.000000 -0.006301 0.228555
    55 1.203094 0.000001 0.000002 0.000000 -0.009618 0.362905
end
