// Created by Crowbar 0.51.0.0
version 1
nodes
  0 "ValveBiped.Bip01_Pelvis" -1
  1 "ValveBiped.Bip01_Spine" 0
  2 "ValveBiped.Bip01_Spine1" 1
  3 "ValveBiped.Bip01_Spine2" 2
  4 "ValveBiped.Bip01_Spine4" 3
  5 "ValveBiped.Bip01_Neck1" 4
  6 "ValveBiped.Bip01_Head1" 5
  7 "ValveBiped.Bip01_R_Clavicle" 4
  8 "ValveBiped.Bip01_R_UpperArm" 7
  9 "ValveBiped.Bip01_R_Forearm" 8
  10 "ValveBiped.Bip01_R_Ulna" 9
  11 "ValveBiped.Bip01_L_Clavicle" 4
  12 "ValveBiped.Bip01_L_UpperArm" 11
  13 "ValveBiped.Bip01_L_Forearm" 12
  14 "ValveBiped.Bip01_L_Ulna" 13
  15 "ValveBiped.Bip01_R_Thigh" 0
  16 "ValveBiped.Bip01_R_Calf" 15
  17 "ValveBiped.Bip01_R_Foot" 16
  18 "ValveBiped.Bip01_R_Toe0" 17
  19 "ValveBiped.Bip01_L_Thigh" 0
  20 "ValveBiped.Bip01_L_Calf" 19
  21 "ValveBiped.Bip01_L_Foot" 20
  22 "ValveBiped.Bip01_L_Toe0" 21
  23 "ValveBiped.Bip01_R_Hand" 9
  24 "ValveBiped.Bip01_R_Finger4" 23
  25 "ValveBiped.Bip01_R_Finger41" 24
  26 "ValveBiped.Bip01_R_Finger42" 25
  27 "ValveBiped.Bip01_R_Finger3" 23
  28 "ValveBiped.Bip01_R_Finger31" 27
  29 "ValveBiped.Bip01_R_Finger32" 28
  30 "ValveBiped.Bip01_R_Finger2" 23
  31 "ValveBiped.Bip01_R_Finger21" 30
  32 "ValveBiped.Bip01_R_Finger22" 31
  33 "ValveBiped.Bip01_R_Finger1" 23
  34 "ValveBiped.Bip01_R_Finger11" 33
  35 "ValveBiped.Bip01_R_Finger12" 34
  36 "ValveBiped.Bip01_R_Finger0" 23
  37 "ValveBiped.Bip01_R_Finger01" 36
  38 "ValveBiped.Bip01_R_Finger02" 37
  39 "ValveBiped.Bip01_L_Hand" 13
  40 "ValveBiped.Bip01_L_Finger4" 39
  41 "ValveBiped.Bip01_L_Finger41" 40
  42 "ValveBiped.Bip01_L_Finger42" 41
  43 "ValveBiped.Bip01_L_Finger3" 39
  44 "ValveBiped.Bip01_L_Finger31" 43
  45 "ValveBiped.Bip01_L_Finger32" 44
  46 "ValveBiped.Bip01_L_Finger2" 39
  47 "ValveBiped.Bip01_L_Finger21" 46
  48 "ValveBiped.Bip01_L_Finger22" 47
  49 "ValveBiped.Bip01_L_Finger1" 39
  50 "ValveBiped.Bip01_L_Finger11" 49
  51 "ValveBiped.Bip01_L_Finger12" 50
  52 "ValveBiped.Bip01_L_Finger0" 39
  53 "ValveBiped.Bip01_L_Finger01" 52
  54 "ValveBiped.Bip01_L_Finger02" 53
end
skeleton
  time 0
    0 -0.000005 38.562500 0.533203 6.283180 0.000003 -0.000003   # pos: raw   rot: raw64 (0.499998807907673, 0.499998807907673, 0.499999761581535, 0.500002622593343)
    1 0.000005 3.345127 -1.981901 1.570796 0.086295 1.570796   # pos: desc_bone   rot: desc_bone
    2 4.018337 0.000012 0.000000 0.000000 0.000000 -0.029232   # pos: desc_bone   rot: desc_bone
    3 3.518555 -0.000036 0.000000 0.000000 0.000000 0.100336   # pos: desc_bone   rot: desc_bone
    4 8.942642 -0.000080 0.000000 0.000000 0.000000 0.194087   # pos: desc_bone   rot: desc_bone
    5 3.307278 -0.000002 0.000000 3.141590 0.000000 0.400470   # pos: desc_bone   rot: desc_bone
    6 3.593697 -0.000023 0.000001 0.000000 -0.000001 0.406588   # pos: desc_bone   rot: desc_bone
    7 1.434082 1.109140 -1.937610 -1.668476 1.286527 2.942952   # pos: desc_bone   rot: desc_bone
    8 6.337657 -1.056381 -0.081618 1.638357 0.035959 -0.306312   # pos: desc_bone   rot: desc_bone
    9 10.383041 0.079161 0.000011 -0.051084 -0.156117 -0.481685   # pos: desc_bone   rot: desc_bone
    10 5.740853 0.000034 -0.000008 0.000094 0.000002 0.000000   # pos: desc_bone   rot: desc_bone
    11 1.434063 1.109133 1.937660 1.596628 -1.286523 2.942972   # pos: desc_bone   rot: desc_bone
    12 6.337666 -1.059536 0.005611 -1.569870 -0.014234 -0.308038   # pos: desc_bone   rot: desc_bone
    13 10.383045 0.079152 0.000004 0.051074 0.156115 -0.481694   # pos: desc_bone   rot: desc_bone
    14 5.740856 0.000093 -0.000008 0.000691 0.000000 0.000009   # pos: desc_bone   rot: desc_bone
    15 -3.890452 0.000015 0.000007 -1.570796 0.051846 -1.576021   # pos: desc_bone   rot: desc_bone
    16 19.845461 -0.103663 0.010451 0.000000 0.000000 0.034189   # pos: desc_bone   rot: desc_bone
    17 14.532678 0.171840 -0.010447 -0.034395 0.088831 -1.076364   # pos: desc_bone   rot: desc_bone
    18 6.879455 0.000001 0.000001 -0.081332 -0.002950 -0.584372   # pos: desc_bone   rot: desc_bone
    19 3.890451 -0.000008 -0.000003 -1.570796 0.051846 -1.565574   # pos: desc_bone   rot: desc_bone
    20 19.845467 -0.103771 -0.010445 -0.000001 0.000000 0.034198   # pos: desc_bone   rot: desc_bone
    21 14.532664 0.171828 0.010446 -0.076403 -0.113439 -1.067445   # pos: desc_bone   rot: desc_bone
    22 6.879449 0.000000 -0.000001 -0.007300 -0.002951 -0.584371   # pos: desc_bone   rot: desc_bone
    23 11.481698 -0.000041 -0.000023 -1.564933 0.106604 0.044194   # pos: bone   rot: raw64 (-0.704692504552601, 0.0222177399550724, 0.0531997426987921, 0.707166623530448)
    24 3.859674 -0.132561 1.193104 0.479138 -0.158546 -0.879039   # pos: bone   rot: raw64 (0.181323918664971, -0.170265116565172, -0.395049860453672, 0.884345540134941)
    25 1.312548 0.000008 -0.000013 0.000000 -0.011932 -0.439671   # pos: bone   rot: raw64 (-0.00130081114730303, -0.0058221789254289, -0.21806515785925, 0.975915978479059)
    26 0.729004 0.000005 -0.000001 0.000002 -0.006134 -0.244270   # pos: raw   rot: raw64 (-0.000372886479908714, -0.0030441269664159, -0.12183088215309, 0.992546135149639)
    27 3.942297 0.050323 0.431047 0.154998 -0.079304 -0.810204   # pos: bone   rot: raw64 (0.0555228922257937, -0.0668124834001144, -0.389799885845239, 0.916792969811522)
    28 1.539095 0.000011 0.000005 0.000000 -0.005853 -0.247769   # pos: bone   rot: raw64 (-0.000361442393568805, -0.00290393690875201, -0.123567522255172, 0.99233185172781)
    29 1.196289 0.000000 0.000001 0.000001 -0.009662 -0.430760   # pos: raw   rot: raw64 (-0.00103187511831516, -0.00471973194135096, -0.213716405050085, 0.976883799423765)
    30 3.883663 -0.050323 -0.431043 -0.085905 -0.026403 -0.587693   # pos: bone   rot: raw64 (-0.0449151778625594, -0.000187873750746846, -0.289886336380798, 0.956006539455012)
    31 1.719576 -0.000042 -0.000008 0.000001 -0.007972 -0.366435   # pos: bone   rot: raw64 (-0.000725745808722587, -0.00391959957141897, -0.182192715552943, 0.983254760696161)
    32 1.208984 -0.000004 -0.000001 0.000001 -0.004461 -0.216374   # pos: raw   rot: raw64 (-0.000240325813138097, -0.00221729172835744, -0.107975908290907, 0.994151009198124)
    33 3.859835 -0.148933 -1.331284 -0.354417 0.038566 -0.532000   # pos: bone   rot: raw64 (-0.16506187197596, 0.0646438290387015, -0.255430099759054, 0.950437382431945)
    34 1.719429 -0.000008 -0.000007 0.000001 -0.006612 -0.362968   # pos: bone   rot: raw64 (-0.000596046163536947, -0.00325202786825759, -0.180488500362158, 0.983571537957832)
    35 1.099609 0.000002 0.000000 0.000002 -0.004210 -0.244311   # pos: raw   rot: raw64 (-0.000255584594924643, -0.00208949943089512, -0.121851862978047, 0.992546065509013)
    36 0.806019 -0.359848 -1.318332 1.204198 0.673615 -0.793956   # pos: bone   rot: raw64 (0.598285389764123, 0.044505098102046, -0.473356974908364, 0.644986095155021)
    37 1.789768 -0.000004 -0.000004 -0.000001 -0.006299 0.228554   # pos: bone   rot: raw64 (0.000358581371983828, -0.00312900394010356, 0.114027922616996, 0.993472553026703)
    38 1.206055 -0.000003 0.000008 0.000000 -0.009617 0.362904   # pos: raw   rot: raw64 (0.000867843214109796, -0.00472926867996756, 0.180456075450861, 0.983571291619871)
    39 11.481682 -0.000016 -0.000046 1.573180 -0.106612 0.044193   # pos: bone   rot: raw64 (0.707602163504523, -0.0220012559884758, 0.0532932027372347, 0.704254895247918)
    40 3.859701 -0.142395 -1.191961 -0.479143 0.152189 -0.879872   # pos: bone   rot: raw64 (-0.182619007769104, 0.167581478318463, -0.396199991130833, 0.884077096838253)
    41 1.312553 0.000000 0.000008 0.000000 0.009664 -0.439719   # pos: bone   rot: raw64 (0.00105380961713332, 0.00471591724590433, -0.218089953379653, 0.975916708456557)
    42 0.729004 0.000012 0.000002 -0.000001 0.004969 -0.244298   # pos: raw   rot: raw64 (0.00030231461414594, 0.00246620060625047, -0.121845187261015, 0.992546007398031)
    43 3.942320 0.046757 -0.431436 -0.155013 0.073328 -0.810646   # pos: bone   rot: raw64 (-0.0566968647494961, 0.0640954665682475, -0.390259556646558, 0.916719540066103)
    44 1.539106 0.000004 0.000012 -0.000002 0.004459 -0.247796   # pos: bone   rot: raw64 (0.000274658072157825, 0.00221252335904915, -0.123580873689235, 0.992331999363889)
    45 1.196289 0.000004 0.000001 -0.000002 0.007360 -0.430801   # pos: raw   rot: raw64 (0.000785827262007112, 0.00359535045845487, -0.213737385875041, 0.976884223339644)
    46 3.883686 -0.046783 0.431453 0.085900 0.021830 -0.587865   # pos: bone   rot: raw64 (0.0442523745287063, -0.00200176143562248, -0.289882521685352, 0.956036528549546)
    47 1.719570 -0.000015 0.000002 -0.000002 0.005515 -0.366476   # pos: bone   rot: raw64 (0.000501632451232695, 0.00271129478869687, -0.182213696377899, 0.983255086993073)
    48 1.208984 -0.000004 0.000003 -0.000001 0.003083 -0.216399   # pos: raw   rot: raw64 (0.000165939251928686, 0.0015325538956862, -0.107988306051108, 0.994150969168634)
    49 3.859848 -0.137939 1.332478 0.354448 -0.042749 -0.531717   # pos: bone   rot: raw64 (0.164537351352047, -0.0666083971937193, -0.25492751363396, 0.950527613605067)
    50 1.719435 0.000015 0.000001 -0.000001 0.004072 -0.363008   # pos: bone   rot: raw64 (0.00036716443673876, 0.00200271510948414, -0.180508527513252, 0.983571312014266)
    51 1.099609 0.000000 -0.000002 -0.000002 0.002596 -0.244330   # pos: raw   rot: raw64 (0.000157356187173754, 0.00128841338710147, -0.121861399716664, 0.992546278260651)
    52 0.806047 -0.348946 1.321254 -1.206851 -0.679485 -0.789308   # pos: bone   rot: raw64 (-0.599403095529988, -0.0475864183490666, -0.473059428663526, 0.643945835307842)
    53 1.789799 0.000008 -0.000008 0.000001 0.007386 0.228522   # pos: bone   rot: raw64 (-0.00042057017299167, 0.00366878334580262, 0.114011710161347, 0.993472542698376)
    54 1.206055 0.000000 -0.000015 0.000002 0.011266 0.362860   # pos: raw   rot: raw64 (-0.00101566266266696, 0.00554084513623946, 0.180433187278181, 0.983571112016395)
  time 1
    0 -0.000005 38.562500 0.533203 6.283180 0.000003 -0.000003   # pos: raw   rot: raw64 (0.499998807907673, 0.499998807907673, 0.499999761581535, 0.500002622593343)
    1 0.000005 3.345127 -1.981901 1.570796 0.086295 1.570796   # pos: desc_bone   rot: desc_bone
    2 4.018337 0.000012 0.000000 0.000000 0.000000 -0.029232   # pos: desc_bone   rot: desc_bone
    3 3.518555 -0.000036 0.000000 0.000000 0.000000 0.100336   # pos: desc_bone   rot: desc_bone
    4 8.942642 -0.000080 0.000000 0.000000 0.000000 0.194087   # pos: desc_bone   rot: desc_bone
    5 3.307278 -0.000002 0.000000 3.141590 0.000000 0.400470   # pos: desc_bone   rot: desc_bone
    6 3.593697 -0.000023 0.000001 0.000000 -0.000001 0.406588   # pos: desc_bone   rot: desc_bone
    7 1.434082 1.109140 -1.937610 -1.668476 1.286527 2.942952   # pos: desc_bone   rot: desc_bone
    8 6.337657 -1.056381 -0.081618 1.638357 0.035959 -0.306312   # pos: desc_bone   rot: desc_bone
    9 10.383041 0.079161 0.000011 -0.051084 -0.156117 -0.481685   # pos: desc_bone   rot: desc_bone
    10 5.740853 0.000034 -0.000008 0.000094 0.000002 0.000000   # pos: desc_bone   rot: desc_bone
    11 1.434063 1.109133 1.937660 1.596628 -1.286523 2.942972   # pos: desc_bone   rot: desc_bone
    12 6.337666 -1.059536 0.005611 -1.569870 -0.014234 -0.308038   # pos: desc_bone   rot: desc_bone
    13 10.383045 0.079152 0.000004 0.051074 0.156115 -0.481694   # pos: desc_bone   rot: desc_bone
    14 5.740856 0.000093 -0.000008 0.000691 0.000000 0.000009   # pos: desc_bone   rot: desc_bone
    15 -3.890452 0.000015 0.000007 -1.570796 0.051846 -1.576021   # pos: desc_bone   rot: desc_bone
    16 19.845461 -0.103663 0.010451 0.000000 0.000000 0.034189   # pos: desc_bone   rot: desc_bone
    17 14.532678 0.171840 -0.010447 -0.034395 0.088831 -1.076364   # pos: desc_bone   rot: desc_bone
    18 6.879455 0.000001 0.000001 -0.081332 -0.002950 -0.584372   # pos: desc_bone   rot: desc_bone
    19 3.890451 -0.000008 -0.000003 -1.570796 0.051846 -1.565574   # pos: desc_bone   rot: desc_bone
    20 19.845467 -0.103771 -0.010445 -0.000001 0.000000 0.034198   # pos: desc_bone   rot: desc_bone
    21 14.532664 0.171828 0.010446 -0.076403 -0.113439 -1.067445   # pos: desc_bone   rot: desc_bone
    22 6.879449 0.000000 -0.000001 -0.007300 -0.002951 -0.584371   # pos: desc_bone   rot: desc_bone
    23 11.481698 -0.000041 -0.000023 -1.564933 0.106604 0.044194   # pos: bone   rot: raw64 (-0.704692504552601, 0.0222177399550724, 0.0531997426987921, 0.707166623530448)
    24 3.859674 -0.132561 1.193104 0.479138 -0.158546 -0.879039   # pos: bone   rot: raw64 (0.181323918664971, -0.170265116565172, -0.395049860453672, 0.884345540134941)
    25 1.312548 0.000008 -0.000013 0.000000 -0.011932 -0.439671   # pos: bone   rot: raw64 (-0.00130081114730303, -0.0058221789254289, -0.21806515785925, 0.975915978479059)
    26 0.729004 0.000005 -0.000001 0.000002 -0.006134 -0.244270   # pos: raw   rot: raw64 (-0.000372886479908714, -0.0030441269664159, -0.12183088215309, 0.992546135149639)
    27 3.942297 0.050323 0.431047 0.154998 -0.079304 -0.810204   # pos: bone   rot: raw64 (0.0555228922257937, -0.0668124834001144, -0.389799885845239, 0.916792969811522)
    28 1.539095 0.000011 0.000005 0.000000 -0.005853 -0.247769   # pos: bone   rot: raw64 (-0.000361442393568805, -0.00290393690875201, -0.123567522255172, 0.99233185172781)
    29 1.196289 0.000000 0.000001 0.000001 -0.009662 -0.430760   # pos: raw   rot: raw64 (-0.00103187511831516, -0.00471973194135096, -0.213716405050085, 0.976883799423765)
    30 3.883663 -0.050323 -0.431043 -0.085905 -0.026403 -0.587693   # pos: bone   rot: raw64 (-0.0449151778625594, -0.000187873750746846, -0.289886336380798, 0.956006539455012)
    31 1.719576 -0.000042 -0.000008 0.000001 -0.007972 -0.366435   # pos: bone   rot: raw64 (-0.000725745808722587, -0.00391959957141897, -0.182192715552943, 0.983254760696161)
    32 1.208984 -0.000004 -0.000001 0.000001 -0.004461 -0.216374   # pos: raw   rot: raw64 (-0.000240325813138097, -0.00221729172835744, -0.107975908290907, 0.994151009198124)
    33 3.859835 -0.148933 -1.331284 -0.354417 0.038566 -0.532000   # pos: bone   rot: raw64 (-0.16506187197596, 0.0646438290387015, -0.255430099759054, 0.950437382431945)
    34 1.719429 -0.000008 -0.000007 0.000001 -0.006612 -0.362968   # pos: bone   rot: raw64 (-0.000596046163536947, -0.00325202786825759, -0.180488500362158, 0.983571537957832)
    35 1.099609 0.000002 0.000000 0.000002 -0.004210 -0.244311   # pos: raw   rot: raw64 (-0.000255584594924643, -0.00208949943089512, -0.121851862978047, 0.992546065509013)
    36 0.806019 -0.359848 -1.318332 1.204198 0.673615 -0.793956   # pos: bone   rot: raw64 (0.598285389764123, 0.044505098102046, -0.473356974908364, 0.644986095155021)
    37 1.789768 -0.000004 -0.000004 -0.000001 -0.006299 0.228554   # pos: bone   rot: raw64 (0.000358581371983828, -0.00312900394010356, 0.114027922616996, 0.993472553026703)
    38 1.206055 -0.000003 0.000008 0.000000 -0.009617 0.362904   # pos: raw   rot: raw64 (0.000867843214109796, -0.00472926867996756, 0.180456075450861, 0.983571291619871)
    39 11.481682 -0.000016 -0.000046 1.573180 -0.106612 0.044193   # pos: bone   rot: raw64 (0.707602163504523, -0.0220012559884758, 0.0532932027372347, 0.704254895247918)
    40 3.859701 -0.142395 -1.191961 -0.479143 0.152189 -0.879872   # pos: bone   rot: raw64 (-0.182619007769104, 0.167581478318463, -0.396199991130833, 0.884077096838253)
    41 1.312553 0.000000 0.000008 0.000000 0.009664 -0.439719   # pos: bone   rot: raw64 (0.00105380961713332, 0.00471591724590433, -0.218089953379653, 0.975916708456557)
    42 0.729004 0.000012 0.000002 -0.000001 0.004969 -0.244298   # pos: raw   rot: raw64 (0.00030231461414594, 0.00246620060625047, -0.121845187261015, 0.992546007398031)
    43 3.942320 0.046757 -0.431436 -0.155013 0.073328 -0.810646   # pos: bone   rot: raw64 (-0.0566968647494961, 0.0640954665682475, -0.390259556646558, 0.916719540066103)
    44 1.539106 0.000004 0.000012 -0.000002 0.004459 -0.247796   # pos: bone   rot: raw64 (0.000274658072157825, 0.00221252335904915, -0.123580873689235, 0.992331999363889)
    45 1.196289 0.000004 0.000001 -0.000002 0.007360 -0.430801   # pos: raw   rot: raw64 (0.000785827262007112, 0.00359535045845487, -0.213737385875041, 0.976884223339644)
    46 3.883686 -0.046783 0.431453 0.085900 0.021830 -0.587865   # pos: bone   rot: raw64 (0.0442523745287063, -0.00200176143562248, -0.289882521685352, 0.956036528549546)
    47 1.719570 -0.000015 0.000002 -0.000002 0.005515 -0.366476   # pos: bone   rot: raw64 (0.000501632451232695, 0.00271129478869687, -0.182213696377899, 0.983255086993073)
    48 1.208984 -0.000004 0.000003 -0.000001 0.003083 -0.216399   # pos: raw   rot: raw64 (0.000165939251928686, 0.0015325538956862, -0.107988306051108, 0.994150969168634)
    49 3.859848 -0.137939 1.332478 0.354448 -0.042749 -0.531717   # pos: bone   rot: raw64 (0.164537351352047, -0.0666083971937193, -0.25492751363396, 0.950527613605067)
    50 1.719435 0.000015 0.000001 -0.000001 0.004072 -0.363008   # pos: bone   rot: raw64 (0.00036716443673876, 0.00200271510948414, -0.180508527513252, 0.983571312014266)
    51 1.099609 0.000000 -0.000002 -0.000002 0.002596 -0.244330   # pos: raw   rot: raw64 (0.000157356187173754, 0.00128841338710147, -0.121861399716664, 0.992546278260651)
    52 0.806047 -0.348946 1.321254 -1.206851 -0.679485 -0.789308   # pos: bone   rot: raw64 (-0.599403095529988, -0.0475864183490666, -0.473059428663526, 0.643945835307842)
    53 1.789799 0.000008 -0.000008 0.000001 0.007386 0.228522   # pos: bone   rot: raw64 (-0.00042057017299167, 0.00366878334580262, 0.114011710161347, 0.993472542698376)
    54 1.206055 0.000000 -0.000015 0.000002 0.011266 0.362860   # pos: raw   rot: raw64 (-0.00101566266266696, 0.00554084513623946, 0.180433187278181, 0.983571112016395)
end
