// Created by Crowbar 0.58
version 1
nodes
  0 "ar2_weapon" -1
  1 "ar2_mag" 0
  2 "ar2_big_hammer" 0
  3 "ar2_vent" 0
  4 "ar2_arm1" 0
  5 "ar2_arm1_tip" 4
  6 "ar2_arm2" 0
  7 "ar2_arm2_tip" 6
  8 "ar2_mag_loader2" -1
  9 "ar2_mag_loader1" 8
  10 "l_wrist" -1
  11 "l_thumb_low" 10
  12 "l_thumb_mid" 11
  13 "l_thumb_tip" 12
  14 "l_index_low" 10
  15 "l_index_mid" 14
  16 "l_index_tip" 15
  17 "l_middle_low" 10
  18 "l_middle_mid" 17
  19 "l_middle_tip" 18
  20 "l_ring_low" 10
  21 "l_ring_mid" 20
  22 "l_ring_tip" 21
  23 "l_pinky_low" 10
  24 "l_pinky_mid" 23
  25 "l_pinky_tip" 24
  26 "l_upperarm" -1
  27 "l_forearm" 26
  28 "r_wrist" -1
  29 "r_thumb_low" 28
  30 "r_thumb_mid" 29
  31 "r_thumb_tip" 30
  32 "r_index_low" 28
  33 "r_index_mid" 32
  34 "r_index_tip" 33
  35 "r_middle_low" 28
  36 "r_middle_mid" 35
  37 "r_middle_tip" 36
  38 "r_ring_low" 28
  39 "r_ring_mid" 38
  40 "r_ring_tip" 39
  41 "r_pinky_low" 28
  42 "r_pinky_mid" 41
  43 "r_pinky_tip" 42
  44 "r_upperarm" -1
  45 "r_forearm" 44
  46 "ar2_core" 0
  47 "ar2_mag_core" 9
  48 "ValveBiped.Bip01_L_UpperArm" 26
  49 "ValveBiped.Bip01_L_Forearm" 27
  50 "ValveBiped.Bip01_L_Hand" 10
  51 "ValveBiped.Bip01_L_Finger0" 11
  52 "ValveBiped.Bip01_L_Finger01" 12
  53 "ValveBiped.Bip01_L_Finger02" 13
  54 "ValveBiped.Bip01_L_Finger1" 14
  55 "ValveBiped.Bip01_L_Finger11" 15
  56 "ValveBiped.Bip01_L_Finger12" 16
  57 "ValveBiped.Bip01_L_Finger2" 17
  58 "ValveBiped.Bip01_L_Finger21" 18
  59 "ValveBiped.Bip01_L_Finger22" 19
  60 "ValveBiped.Bip01_L_Finger3" 20
  61 "ValveBiped.Bip01_L_Finger31" 21
  62 "ValveBiped.Bip01_L_Finger32" 22
  63 "ValveBiped.Bip01_L_Finger4" 23
  64 "ValveBiped.Bip01_L_Finger41" 24
  65 "ValveBiped.Bip01_L_Finger42" 25
  66 "ValveBiped.Bip01_R_UpperArm" 44
  67 "ValveBiped.Bip01_R_Forearm" 45
  68 "ValveBiped.Bip01_R_Hand" 28
  69 "ValveBiped.Bip01_R_Finger0" 29
  70 "ValveBiped.Bip01_R_Finger01" 30
  71 "ValveBiped.Bip01_R_Finger02" 31
  72 "ValveBiped.Bip01_R_Finger1" 32
  73 "ValveBiped.Bip01_R_Finger11" 33
  74 "ValveBiped.Bip01_R_Finger12" 34
  75 "ValveBiped.Bip01_R_Finger2" 35
  76 "ValveBiped.Bip01_R_Finger21" 36
  77 "ValveBiped.Bip01_R_Finger22" 37
  78 "ValveBiped.Bip01_R_Finger3" 38
  79 "ValveBiped.Bip01_R_Finger31" 39
  80 "ValveBiped.Bip01_R_Finger32" 40
  81 "ValveBiped.Bip01_R_Finger4" 41
  82 "ValveBiped.Bip01_R_Finger41" 42
  83 "ValveBiped.Bip01_R_Finger42" 43
end
skeleton
  time 0
    0 -5.185570 -15.196336 -7.274400 -1.930700 0.218562 -1.387365
    1 9.243773 6.139962 1.326173 -0.000001 0.000001 -1.570796
    2 3.442229 -1.240687 -0.005672 -0.000002 -0.000003 0.000000
    3 17.667896 -1.384574 1.233112 0.000000 -0.000003 -3.141592
    4 13.081079 -1.084008 0.792839 1.570797 -0.879478 3.141593
    5 0.758734 0.000005 -0.000001 -1.570796 0.000000 -1.124720
    6 12.977262 -1.858502 0.676013 0.518314 -0.428322 -2.516408
    7 0.562690 -0.000008 -0.000004 -0.013014 -0.008068 -0.959463
    8 -2.759993 -23.412538 -11.435115 -2.858161 -0.683716 0.001475
    9 2.341381 0.000021 0.000003 1.570767 1.242312 -0.000021
    10 0.023337 -18.145055 -14.396030 2.682971 0.189565 -1.496785
    11 1.473660 0.639422 -1.295233 1.873628 0.766132 0.332935
    12 1.832607 0.000002 0.000000 3.135033 0.005416 0.847649
    13 1.003330 0.000000 0.000001 -3.096730 0.121107 0.034165
    14 3.823887 -0.419591 -1.411516 0.069811 0.155294 0.207678
    15 2.187963 0.000000 0.000000 -0.165877 -0.079984 1.419170
    16 1.100956 -0.000003 0.000000 0.087804 -0.052684 -0.184209
    17 3.987879 -0.577436 -0.474708 0.200564 0.169209 0.195927
    18 1.890101 -0.000004 0.000000 -0.153915 -0.042691 1.467087
    19 1.310921 0.000004 0.000000 -0.029744 0.074259 -0.259852
    20 4.117973 -0.654517 0.453699 0.085606 0.094079 0.260908
    21 1.655287 -0.000002 0.000000 -0.029298 -0.049157 1.283729
    22 0.869586 0.000010 0.000000 0.062968 -0.019305 0.011268
    23 4.150644 -0.581580 1.354867 -0.178491 0.129551 0.002327
    24 1.157243 -0.000004 0.000000 0.194856 -0.267831 1.185120
    25 1.019837 -0.000002 0.000000 -1.675160 0.086221 0.371324
    26 3.429456 -5.007721 -5.116617 -0.853099 1.404018 -0.912561
    27 12.695427 0.000001 0.000003 -0.271040 0.292630 -1.748204
    28 -7.890964 -10.228708 -9.270873 2.712891 0.229343 -1.379179
    29 1.474217 -0.497913 -1.376119 1.283317 0.486372 -0.349539
    30 1.832175 -0.000001 0.000001 -2.584602 -0.154291 0.716805
    31 1.042029 0.000000 -0.000003 -2.947217 -0.173397 -0.033767
    32 3.823319 0.664870 -1.331676 0.158623 0.157851 -0.009984
    33 2.152370 0.000002 0.000000 0.024740 -0.002671 0.007910
    34 1.056622 0.000000 0.000000 0.270433 0.003320 -0.009344
    35 3.985126 0.881823 -0.368987 0.187095 0.205044 -0.528378
    36 1.830173 0.000000 0.000000 0.310001 -0.029018 -1.518098
    37 1.561352 0.000004 0.000000 0.027387 0.000717 -1.353520
    38 4.116523 0.711290 0.551868 0.372901 0.175501 -0.950874
    39 1.752731 0.000000 0.000000 0.065651 0.077355 -1.199522
    40 0.869359 -0.000002 0.000000 0.010554 -0.055954 -0.881584
    41 4.118825 0.331243 1.419828 0.091712 0.246088 -1.081349
    42 1.176323 -0.000002 0.000000 0.019563 0.360413 -0.780546
    43 0.970202 -0.000002 0.000000 1.685083 0.078276 -1.123286
    44 -9.258431 -0.998731 -5.116617 -3.588383 1.062680 -2.917799
    45 12.706341 0.000001 0.000000 -0.423559 0.216976 -2.341305
    46 11.809021 -1.206475 0.191726 -0.000002 -0.000003 0.000000
    47 0.598399 -0.643255 -0.162013 0.000000 -1.570796 -0.835635
    48 0.000001 0.000000 0.000002 0.000000 0.000000 0.000000
    49 1.200000 0.000000 0.000000 0.000000 0.000000 0.000000
    50 0.000002 -0.300000 0.000000 3.141593 0.000000 -0.174533
    51 0.000000 0.000000 0.000000 0.000000 0.000000 0.000000
    52 -0.000001 0.000000 0.000000 3.141593 0.000000 0.000000
    53 0.000002 0.000000 0.000000 0.000000 0.000000 0.349066
    54 0.000000 0.000000 0.000000 3.141593 0.000000 0.000000
    55 0.000000 -0.000001 0.000000 3.141593 0.000000 0.000000
    56 0.000001 0.000000 0.000000 3.141593 0.000000 0.000000
    57 0.000000 -0.000001 0.000000 3.141593 0.000000 0.000000
    58 -0.000002 0.000004 0.000000 3.141593 0.000000 0.000000
    59 0.000000 0.000000 0.000000 3.141593 0.000000 0.000000
    60 0.000001 0.000000 0.000000 3.141593 0.000000 0.000000
    61 0.000000 0.000002 0.000000 3.141593 0.000000 0.000000
    62 0.000000 -0.000002 0.000000 3.141593 0.000000 0.000000
    63 0.000001 0.000000 0.000000 3.141593 0.000000 0.000000
    64 0.000000 0.000000 0.000000 3.141593 0.000000 0.000000
    65 0.000000 0.000000 0.000000 -1.570796 0.000000 0.000000
    66 0.000000 0.000000 0.000000 0.000000 0.000000 0.000000
    67 1.200001 0.000000 0.000000 0.000000 0.000000 0.000000
    68 0.000000 0.300000 0.000000 0.000000 0.000000 0.174533
    69 0.000000 0.000000 -0.000001 0.000000 0.000000 0.000000
    70 0.000001 0.000000 0.000000 3.141593 0.000000 0.000000
    71 0.000000 0.000000 0.000000 0.000000 0.000000 0.349066
    72 0.000000 0.000000 0.000000 0.000000 0.000000 0.000000
    73 -0.000001 0.000000 0.000000 0.000000 0.000000 0.000000
    74 0.000001 0.000000 0.000000 0.000000 0.000000 0.000000
    75 0.000000 0.000000 0.000000 0.000000 0.000000 0.000000
    76 0.000000 0.000000 0.000000 0.000000 0.000000 0.000000
    77 0.000000 0.000000 0.000000 0.000000 0.000000 0.000000
    78 -0.000002 -0.000004 0.000000 0.000000 0.000000 0.000000
    79 0.000000 0.000000 0.000000 0.000000 0.000000 0.000000
    80 0.000000 0.000000 0.000000 0.000000 0.000000 0.000000
    81 0.000000 -0.000002 0.000000 0.000000 0.000000 0.000000
    82 -0.000002 -0.000004 0.000000 0.000000 0.000000 0.000000
    83 0.000000 0.000000 0.000002 -1.570796 0.000000 0.000000
  time 1
    0 -5.189477 -15.192429 -7.254868 -1.925911 0.221904 -1.392179
    1 9.243773 6.139962 1.326173 -0.000001 0.000001 -1.570796
    2 3.442229 -1.240687 -0.005672 -0.000002 -0.000003 0.000000
    3 17.667896 -1.384574 1.233112 0.000000 -0.000003 -3.141592
    4 13.081079 -1.084008 0.792839 1.570797 -0.879478 3.141593
    5 0.758734 0.000005 -0.000001 -1.570796 0.000000 -1.124720
    6 12.977262 -1.858502 0.676013 0.518314 -0.428322 -2.516408
    7 0.562690 -0.000008 -0.000004 -0.013014 -0.008068 -0.959463
    8 -2.795150 -23.408632 -11.446834 -2.852997 -0.687687 -0.007655
    9 2.341381 0.000021 0.000003 1.570767 1.242312 -0.000021
    10 0.031150 -18.145055 -14.372592 2.687300 0.193373 -1.501855
    11 1.473660 0.639422 -1.295233 1.875416 0.772136 0.335538
    12 1.832607 0.000002 0.000000 3.135033 0.005416 0.847649
    13 1.003330 0.000000 0.000001 -3.096730 0.121107 0.034165
    14 3.823887 -0.419591 -1.411516 0.069811 0.155294 0.207678
    15 2.187963 0.000000 0.000000 -0.165877 -0.079984 1.419170
    16 1.100956 -0.000003 0.000000 0.087804 -0.052684 -0.184209
    17 3.987879 -0.577436 -0.474708 0.200564 0.169198 0.195927
    18 1.890101 -0.000004 0.000000 -0.153915 -0.042691 1.467087
    19 1.310921 0.000004 0.000000 -0.029744 0.074259 -0.259852
    20 4.117973 -0.654517 0.453699 0.085606 0.094079 0.260908
    21 1.655287 -0.000002 0.000000 -0.029298 -0.049157 1.283729
    22 0.869586 0.000010 0.000000 0.062968 -0.019305 0.011268
    23 4.150644 -0.581580 1.354867 -0.178491 0.129551 0.002327
    24 1.157243 -0.000004 0.000000 0.194856 -0.267831 1.185120
    25 1.019837 -0.000002 0.000000 -1.675160 0.086221 0.371324
    26 3.429456 -5.007721 -5.116617 -0.856772 1.404018 -0.915119
    27 12.695427 0.000001 0.000003 -0.271513 0.292546 -1.749742
    28 -7.855806 -10.197457 -9.243528 2.717737 0.232621 -1.383869
    29 1.474217 -0.497913 -1.376119 1.283317 0.486372 -0.349539
    30 1.832175 -0.000001 0.000001 -2.584602 -0.154291 0.716805
    31 1.042029 0.000000 -0.000003 -2.947217 -0.173397 -0.033767
    32 3.823319 0.664870 -1.331676 0.158252 0.160021 -0.014469
    33 2.152370 0.000002 0.000000 0.024848 -0.006590 0.005961
    34 1.056622 0.000000 0.000000 0.270153 0.002219 -0.017373
    35 3.985126 0.881823 -0.368987 0.187095 0.205044 -0.528378
    36 1.830173 0.000000 0.000000 0.310001 -0.029018 -1.518098
    37 1.561352 0.000004 0.000000 0.027387 0.000717 -1.353520
    38 4.116523 0.711290 0.551868 0.372901 0.175501 -0.950874
    39 1.752731 0.000000 0.000000 0.065651 0.077355 -1.199522
    40 0.869359 -0.000002 0.000000 0.010554 -0.055954 -0.881584
    41 4.118825 0.331243 1.419828 0.091712 0.246088 -1.081349
    42 1.176323 -0.000002 0.000000 0.019563 0.360413 -0.780546
    43 0.970202 -0.000002 0.000000 1.685083 0.078276 -1.123286
    44 -9.258431 -0.998731 -5.116617 -3.587521 1.062273 -2.913466
    45 12.706341 0.000001 0.000000 -0.424052 0.216521 -2.343679
    46 11.809021 -1.206475 0.191726 -0.000002 -0.000003 0.000000
    47 0.598399 -0.643255 -0.162013 0.000000 -1.570796 -0.835635
    48 0.000001 0.000000 0.000002 0.000000 0.000000 0.000000
    49 1.200000 0.000000 0.000000 0.000000 0.000000 0.000000
    50 0.000002 -0.300000 0.000000 3.141593 0.000000 -0.174533
    51 0.000000 0.000000 0.000000 0.000000 0.000000 0.000000
    52 -0.000001 0.000000 0.000000 3.141593 0.000000 0.000000
    53 0.000002 0.000000 0.000000 0.000000 0.000000 0.349066
    54 0.000000 0.000000 0.000000 3.141593 0.000000 0.000000
    55 0.000000 -0.000001 0.000000 3.141593 0.000000 0.000000
    56 0.000001 0.000000 0.000000 3.141593 0.000000 0.000000
    57 0.000000 -0.000001 0.000000 3.141593 0.000000 0.000000
    58 -0.000002 0.000004 0.000000 3.141593 0.000000 0.000000
    59 0.000000 0.000000 0.000000 3.141593 0.000000 0.000000
    60 0.000001 0.000000 0.000000 3.141593 0.000000 0.000000
    61 0.000000 0.000002 0.000000 3.141593 0.000000 0.000000
    62 0.000000 -0.000002 0.000000 3.141593 0.000000 0.000000
    63 0.000001 0.000000 0.000000 3.141593 0.000000 0.000000
    64 0.000000 0.000000 0.000000 3.141593 0.000000 0.000000
    65 0.000000 0.000000 0.000000 -1.570796 0.000000 0.000000
    66 0.000000 0.000000 0.000000 0.000000 0.000000 0.000000
    67 1.200001 0.000000 0.000000 0.000000 0.000000 0.000000
    68 0.000000 0.300000 0.000000 0.000000 0.000000 0.174533
    69 0.000000 0.000000 -0.000001 0.000000 0.000000 0.000000
    70 0.000001 0.000000 0.000000 3.141593 0.000000 0.000000
    71 0.000000 0.000000 0.000000 0.000000 0.000000 0.349066
    72 0.000000 0.000000 0.000000 0.000000 0.000000 0.000000
    73 -0.000001 0.000000 0.000000 0.000000 0.000000 0.000000
    74 0.000001 0.000000 0.000000 0.000000 0.000000 0.000000
    75 0.000000 0.000000 0.000000 0.000000 0.000000 0.000000
    76 0.000000 0.000000 0.000000 0.000000 0.000000 0.000000
    77 0.000000 0.000000 0.000000 0.000000 0.000000 0.000000
    78 -0.000002 -0.000004 0.000000 0.000000 0.000000 0.000000
    79 0.000000 0.000000 0.000000 0.000000 0.000000 0.000000
    80 0.000000 0.000000 0.000000 0.000000 0.000000 0.000000
    81 0.000000 -0.000002 0.000000 0.000000 0.000000 0.000000
    82 -0.000002 -0.000004 0.000000 0.000000 0.000000 0.000000
    83 0.000000 0.000000 0.000002 -1.570796 0.000000 0.000000
  time 2
    0 -5.201196 -15.192429 -7.200179 -1.910316 0.228008 -1.405606
    1 9.243773 6.139962 1.326173 -0.000001 0.000001 -1.570796
    2 3.442229 -1.240687 -0.005672 -0.000002 -0.000003 0.000000
    3 17.667896 -1.384574 1.233112 0.000000 -0.000003 -3.141592
    4 13.081079 -1.084008 0.792839 1.570797 -0.879478 3.141593
    5 0.758734 0.000005 -0.000001 -1.570796 0.000000 -1.124720
    6 12.977262 -1.858502 0.676013 0.518314 -0.428322 -2.516408
    7 0.562690 -0.000008 -0.000004 -0.013014 -0.008068 -0.959463
    8 -2.884997 -23.412538 -11.427302 -2.841235 -0.701483 -0.032128
    9 2.341381 0.000021 0.000003 1.570767 1.242312 -0.000021
    10 0.070214 -18.176306 -14.274933 2.702008 0.201109 -1.515813
    11 1.473660 0.639422 -1.295233 1.881011 0.789898 0.343495
    12 1.832607 0.000002 0.000000 3.135033 0.005416 0.847649
    13 1.003330 0.000000 0.000001 -3.096730 0.121107 0.034165
    14 3.823887 -0.419591 -1.411516 0.069811 0.155294 0.207678
    15 2.187963 0.000000 0.000000 -0.165877 -0.079984 1.419170
    16 1.100956 -0.000003 0.000000 0.087804 -0.052684 -0.184209
    17 3.987879 -0.577436 -0.474708 0.200564 0.169209 0.195927
    18 1.890101 -0.000004 0.000000 -0.153915 -0.042691 1.467087
    19 1.310921 0.000004 0.000000 -0.029744 0.074259 -0.259852
    20 4.117973 -0.654517 0.453699 0.085606 0.094079 0.260908
    21 1.655287 -0.000002 0.000000 -0.029298 -0.049157 1.283729
    22 0.869586 0.000010 0.000000 0.062968 -0.019305 0.011268
    23 4.150644 -0.581580 1.354867 -0.178491 0.129551 0.002327
    24 1.157243 -0.000004 0.000000 0.194856 -0.267831 1.185120
    25 1.019837 -0.000002 0.000000 -1.675160 0.086221 0.371324
    26 3.429456 -5.007721 -5.116617 -0.883585 1.404234 -0.936038
    27 12.695427 0.000001 0.000003 -0.272788 0.292318 -1.754223
    28 -7.754241 -10.146675 -9.184933 2.733418 0.238632 -1.397051
    29 1.474217 -0.497913 -1.376119 1.283317 0.486372 -0.349539
    30 1.832175 -0.000001 0.000001 -2.584602 -0.154291 0.716805
    31 1.042029 0.000000 -0.000003 -2.947217 -0.173397 -0.033767
    32 3.823319 0.664870 -1.331676 0.157065 0.166444 -0.028052
    33 2.152370 0.000002 0.000000 0.025256 -0.018443 0.000116
    34 1.056622 0.000000 0.000000 0.269494 -0.001100 -0.041632
    35 3.985126 0.881823 -0.368987 0.187095 0.205044 -0.528378
    36 1.830173 0.000000 0.000000 0.310001 -0.029018 -1.518098
    37 1.561352 0.000004 0.000000 0.027387 0.000717 -1.353520
    38 4.116523 0.711290 0.551868 0.372901 0.175501 -0.950874
    39 1.752731 0.000000 0.000000 0.065651 0.077355 -1.199522
    40 0.869359 -0.000002 0.000000 0.010554 -0.055954 -0.881584
    41 4.118825 0.331243 1.419828 0.091712 0.246088 -1.081349
    42 1.176323 -0.000002 0.000000 0.019563 0.360413 -0.780546
    43 0.970202 -0.000002 0.000000 1.685083 0.078276 -1.123286
    44 -9.258431 -0.998731 -5.116617 -3.585606 1.060011 -2.900556
    45 12.706341 0.000001 0.000000 -0.425235 0.215370 -2.349193
    46 11.809021 -1.206475 0.191726 -0.000002 -0.000003 0.000000
    47 0.598399 -0.643255 -0.162013 0.000000 -1.570796 -0.835635
    48 0.000001 0.000000 0.000002 0.000000 0.000000 0.000000
    49 1.200000 0.000000 0.000000 0.000000 0.000000 0.000000
    50 0.000002 -0.300000 0.000000 3.141593 0.000000 -0.174533
    51 0.000000 0.000000 0.000000 0.000000 0.000000 0.000000
    52 -0.000001 0.000000 0.000000 3.141593 0.000000 0.000000
    53 0.000002 0.000000 0.000000 0.000000 0.000000 0.349066
    54 0.000000 0.000000 0.000000 3.141593 0.000000 0.000000
    55 0.000000 -0.000001 0.000000 3.141593 0.000000 0.000000
    56 0.000001 0.000000 0.000000 3.141593 0.000000 0.000000
    57 0.000000 -0.000001 0.000000 3.141593 0.000000 0.000000
    58 -0.000002 0.000004 0.000000 3.141593 0.000000 0.000000
    59 0.000000 0.000000 0.000000 3.141593 0.000000 0.000000
    60 0.000001 0.000000 0.000000 3.141593 0.000000 0.000000
    61 0.000000 0.000002 0.000000 3.141593 0.000000 0.000000
    62 0.000000 -0.000002 0.000000 3.141593 0.000000 0.000000
    63 0.000001 0.000000 0.000000 3.141593 0.000000 0.000000
    64 0.000000 0.000000 0.000000 3.141593 0.000000 0.000000
    65 0.000000 0.000000 0.000000 -1.570796 0.000000 0.000000
    66 0.000000 0.000000 0.000000 0.000000 0.000000 0.000000
    67 1.200001 0.000000 0.000000 0.000000 0.000000 0.000000
    68 0.000000 0.300000 0.000000 0.000000 0.000000 0.174533
    69 0.000000 0.000000 -0.000001 0.000000 0.000000 0.000000
    70 0.000001 0.000000 0.000000 3.141593 0.000000 0.000000
    71 0.000000 0.000000 0.000000 0.000000 0.000000 0.349066
    72 0.000000 0.000000 0.000000 0.000000 0.000000 0.000000
    73 -0.000001 0.000000 0.000000 0.000000 0.000000 0.000000
    74 0.000001 0.000000 0.000000 0.000000 0.000000 0.000000
    75 0.000000 0.000000 0.000000 0.000000 0.000000 0.000000
    76 0.000000 0.000000 0.000000 0.000000 0.000000 0.000000
    77 0.000000 0.000000 0.000000 0.000000 0.000000 0.000000
    78 -0.000002 -0.000004 0.000000 0.000000 0.000000 0.000000
    79 0.000000 0.000000 0.000000 0.000000 0.000000 0.000000
    80 0.000000 0.000000 0.000000 0.000000 0.000000 0.000000
    81 0.000000 -0.000002 0.000000 0.000000 0.000000 0.000000
    82 -0.000002 -0.000004 0.000000 0.000000 0.000000 0.000000
    83 0.000000 0.000000 0.000002 -1.570796 0.000000 0.000000
  time 3
    0 -5.212915 -15.192429 -7.137677 -1.889072 0.228272 -1.420363
    1 9.243773 6.139962 1.326173 -0.000001 0.000001 -1.570796
    2 3.442229 -1.240687 -0.005672 -0.000002 -0.000003 0.000000
    3 17.667896 -1.384574 1.233112 0.000000 -0.000003 -3.141592
    4 13.081079 -1.084008 0.792839 1.570797 -0.879478 3.141593
    5 0.758734 0.000005 -0.000001 -1.570796 0.000000 -1.124720
    6 12.977262 -1.858502 0.676013 0.518314 -0.428322 -2.516408
    7 0.562690 -0.000008 -0.000004 -0.013014 -0.008068 -0.959463
    8 -2.967031 -23.439883 -11.345268 -2.835402 -0.721667 -0.055376
    9 2.341381 0.000021 0.000003 1.570767 1.242312 -0.000021
    10 0.148341 -18.254433 -14.106959 2.723000 0.203659 -1.531142
    11 1.473660 0.639422 -1.295233 1.890163 0.816935 0.356142
    12 1.832607 0.000002 0.000000 3.135033 0.005416 0.847649
    13 1.003330 0.000000 0.000001 -3.096730 0.121107 0.034165
    14 3.823887 -0.419591 -1.411516 0.069811 0.155294 0.207678
    15 2.187963 0.000000 0.000000 -0.165877 -0.079984 1.419170
    16 1.100956 -0.000003 0.000000 0.087804 -0.052684 -0.184209
    17 3.987879 -0.577436 -0.474708 0.200564 0.169209 0.195927
    18 1.890101 -0.000004 0.000000 -0.153915 -0.042691 1.467087
    19 1.310921 0.000004 0.000000 -0.029744 0.074259 -0.259852
    20 4.117973 -0.654517 0.453699 0.085606 0.094079 0.260908
    21 1.655287 -0.000002 0.000000 -0.029298 -0.049157 1.283729
    22 0.869586 0.000010 0.000000 0.062968 -0.019305 0.011268
    23 4.150644 -0.581580 1.354867 -0.178491 0.129551 0.002327
    24 1.157243 -0.000004 0.000000 0.194856 -0.267831 1.185120
    25 1.019837 -0.000002 0.000000 -1.675160 0.086221 0.371324
    26 3.429456 -5.007721 -5.116617 -0.945016 1.403414 -0.985093
    27 12.695427 0.000001 0.000003 -0.274149 0.292091 -1.758971
    28 -7.621424 -10.088079 -9.145869 2.754683 0.238685 -1.411628
    29 1.474217 -0.497913 -1.376119 1.283317 0.486372 -0.349539
    30 1.832175 -0.000001 0.000001 -2.584602 -0.154291 0.716805
    31 1.042029 0.000000 -0.000003 -2.947217 -0.173397 -0.033767
    32 3.823319 0.664870 -1.331676 0.154932 0.177075 -0.050524
    33 2.152370 0.000002 0.000000 0.026035 -0.038038 -0.009554
    34 1.056622 0.000000 0.000000 0.268506 -0.006667 -0.081879
    35 3.985126 0.881823 -0.368987 0.187095 0.205044 -0.528378
    36 1.830173 0.000000 0.000000 0.310001 -0.029018 -1.518098
    37 1.561352 0.000004 0.000000 0.027387 0.000717 -1.353520
    38 4.116523 0.711290 0.551868 0.372901 0.175501 -0.950874
    39 1.752731 0.000000 0.000000 0.065651 0.077355 -1.199522
    40 0.869359 -0.000002 0.000000 0.010554 -0.055954 -0.881584
    41 4.118825 0.331243 1.419828 0.091712 0.246088 -1.081349
    42 1.176323 -0.000002 0.000000 0.019563 0.360413 -0.780546
    43 0.970202 -0.000002 0.000000 1.685083 0.078276 -1.123286
    44 -9.258431 -0.998731 -5.116617 -3.585606 1.055532 -2.884816
    45 12.706341 0.000001 0.000000 -0.426073 0.214579 -2.353099
    46 11.809021 -1.206475 0.191726 -0.000002 -0.000003 0.000000
    47 0.598399 -0.643255 -0.162013 0.000000 -1.570796 -0.835635
    48 0.000001 0.000000 0.000002 0.000000 0.000000 0.000000
    49 1.200000 0.000000 0.000000 0.000000 0.000000 0.000000
    50 0.000002 -0.300000 0.000000 3.141593 0.000000 -0.174533
    51 0.000000 0.000000 0.000000 0.000000 0.000000 0.000000
    52 -0.000001 0.000000 0.000000 3.141593 0.000000 0.000000
    53 0.000002 0.000000 0.000000 0.000000 0.000000 0.349066
    54 0.000000 0.000000 0.000000 3.141593 0.000000 0.000000
    55 0.000000 -0.000001 0.000000 3.141593 0.000000 0.000000
    56 0.000001 0.000000 0.000000 3.141593 0.000000 0.000000
    57 0.000000 -0.000001 0.000000 3.141593 0.000000 0.000000
    58 -0.000002 0.000004 0.000000 3.141593 0.000000 0.000000
    59 0.000000 0.000000 0.000000 3.141593 0.000000 0.000000
    60 0.000001 0.000000 0.000000 3.141593 0.000000 0.000000
    61 0.000000 0.000002 0.000000 3.141593 0.000000 0.000000
    62 0.000000 -0.000002 0.000000 3.141593 0.000000 0.000000
    63 0.000001 0.000000 0.000000 3.141593 0.000000 0.000000
    64 0.000000 0.000000 0.000000 3.141593 0.000000 0.000000
    65 0.000000 0.000000 0.000000 -1.570796 0.000000 0.000000
    66 0.000000 0.000000 0.000000 0.000000 0.000000 0.000000
    67 1.200001 0.000000 0.000000 0.000000 0.000000 0.000000
    68 0.000000 0.300000 0.000000 0.000000 0.000000 0.174533
    69 0.000000 0.000000 -0.000001 0.000000 0.000000 0.000000
    70 0.000001 0.000000 0.000000 3.141593 0.000000 0.000000
    71 0.000000 0.000000 0.000000 0.000000 0.000000 0.349066
    72 0.000000 0.000000 0.000000 0.000000 0.000000 0.000000
    73 -0.000001 0.000000 0.000000 0.000000 0.000000 0.000000
    74 0.000001 0.000000 0.000000 0.000000 0.000000 0.000000
    75 0.000000 0.000000 0.000000 0.000000 0.000000 0.000000
    76 0.000000 0.000000 0.000000 0.000000 0.000000 0.000000
    77 0.000000 0.000000 0.000000 0.000000 0.000000 0.000000
    78 -0.000002 -0.000004 0.000000 0.000000 0.000000 0.000000
    79 0.000000 0.000000 0.000000 0.000000 0.000000 0.000000
    80 0.000000 0.000000 0.000000 0.000000 0.000000 0.000000
    81 0.000000 -0.000002 0.000000 0.000000 0.000000 0.000000
    82 -0.000002 -0.000004 0.000000 0.000000 0.000000 0.000000
    83 0.000000 0.000000 0.000002 -1.570796 0.000000 0.000000
  time 4
    0 -5.212915 -15.192429 -7.051737 -1.865569 0.220321 -1.434994
    1 9.243773 6.139962 1.326173 -0.000001 0.000001 -1.570796
    2 3.442229 -1.240687 -0.005672 -0.000002 -0.000003 0.000000
    3 17.667896 -1.384574 1.233112 0.000000 -0.000003 -3.141592
    4 13.081079 -1.084008 0.792839 1.570797 -0.879478 3.141593
    5 0.758734 0.000005 -0.000001 -1.570796 0.000000 -1.124720
    6 12.977262 -1.858502 0.676013 0.518314 -0.428322 -2.516408
    7 0.562690 -0.000008 -0.000004 -0.013014 -0.008068 -0.959463
    8 -3.037345 -23.502384 -11.169482 -2.839514 -0.745728 -0.072507
    9 2.341381 0.000021 0.000003 1.570767 1.242312 -0.000021
    10 0.242094 -18.387250 -13.880389 2.747250 0.198318 -1.546233
    11 1.473660 0.639422 -1.295233 1.901430 0.847460 0.371417
    12 1.832607 0.000002 0.000000 3.135033 0.005416 0.847649
    13 1.003330 0.000000 0.000001 -3.096730 0.121107 0.034165
    14 3.823887 -0.419591 -1.411516 0.069811 0.155294 0.207678
    15 2.187963 0.000000 0.000000 -0.165877 -0.079984 1.419170
    16 1.100956 -0.000003 0.000000 0.087804 -0.052684 -0.184209
    17 3.987879 -0.577436 -0.474708 0.200564 0.169198 0.195927
    18 1.890101 -0.000004 0.000000 -0.153915 -0.042691 1.467087
    19 1.310921 0.000004 0.000000 -0.029744 0.074259 -0.259852
    20 4.117973 -0.654517 0.453699 0.085606 0.094079 0.260908
    21 1.655287 -0.000002 0.000000 -0.029298 -0.049157 1.283729
    22 0.869586 0.000010 0.000000 0.062968 -0.019305 0.011268
    23 4.150644 -0.581580 1.354867 -0.178491 0.129551 0.002327
    24 1.157243 -0.000004 0.000000 0.194856 -0.267831 1.185120
    25 1.019837 -0.000002 0.000000 -1.675160 0.086221 0.371324
    26 3.429456 -5.007721 -5.116617 -1.034729 1.398968 -1.059360
    27 12.695427 0.000001 0.000003 -0.275023 0.291935 -1.761980
    28 -7.476889 -10.049015 -9.145869 2.778137 0.230577 -1.426014
    29 1.474217 -0.497913 -1.376119 1.283317 0.486372 -0.349539
    30 1.832175 -0.000001 0.000001 -2.584602 -0.154291 0.716805
    31 1.042029 0.000000 -0.000003 -2.947217 -0.173397 -0.033767
    32 3.823319 0.664870 -1.331676 0.151660 0.191300 -0.081010
    33 2.152370 0.000002 0.000000 0.027389 -0.064464 -0.022652
    34 1.056622 0.000000 0.000000 0.267600 -0.014197 -0.136366
    35 3.985126 0.881823 -0.368987 0.187095 0.205044 -0.528378
    36 1.830173 0.000000 0.000000 0.310001 -0.029018 -1.518098
    37 1.561352 0.000004 0.000000 0.027387 0.000717 -1.353520
    38 4.116523 0.711290 0.551868 0.372901 0.175501 -0.950874
    39 1.752731 0.000000 0.000000 0.065651 0.077355 -1.199522
    40 0.869359 -0.000002 0.000000 0.010554 -0.055954 -0.881584
    41 4.118825 0.331243 1.419828 0.091712 0.246088 -1.081349
    42 1.176323 -0.000002 0.000000 0.019563 0.360413 -0.780546
    43 0.970202 -0.000002 0.000000 1.685083 0.078276 -1.123286
    44 -9.258431 -0.998731 -5.116617 -3.585989 1.060689 -2.871730
    45 12.706341 0.000001 0.000000 -0.426270 0.214388 -2.354094
    46 11.809021 -1.206475 0.191726 -0.000002 -0.000003 0.000000
    47 0.598399 -0.643255 -0.162013 0.000000 -1.570796 -0.835635
    48 0.000001 0.000000 0.000002 0.000000 0.000000 0.000000
    49 1.200000 0.000000 0.000000 0.000000 0.000000 0.000000
    50 0.000002 -0.300000 0.000000 3.141593 0.000000 -0.174533
    51 0.000000 0.000000 0.000000 0.000000 0.000000 0.000000
    52 -0.000001 0.000000 0.000000 3.141593 0.000000 0.000000
    53 0.000002 0.000000 0.000000 0.000000 0.000000 0.349066
    54 0.000000 0.000000 0.000000 3.141593 0.000000 0.000000
    55 0.000000 -0.000001 0.000000 3.141593 0.000000 0.000000
    56 0.000001 0.000000 0.000000 3.141593 0.000000 0.000000
    57 0.000000 -0.000001 0.000000 3.141593 0.000000 0.000000
    58 -0.000002 0.000004 0.000000 3.141593 0.000000 0.000000
    59 0.000000 0.000000 0.000000 3.141593 0.000000 0.000000
    60 0.000001 0.000000 0.000000 3.141593 0.000000 0.000000
    61 0.000000 0.000002 0.000000 3.141593 0.000000 0.000000
    62 0.000000 -0.000002 0.000000 3.141593 0.000000 0.000000
    63 0.000001 0.000000 0.000000 3.141593 0.000000 0.000000
    64 0.000000 0.000000 0.000000 3.141593 0.000000 0.000000
    65 0.000000 0.000000 0.000000 -1.570796 0.000000 0.000000
    66 0.000000 0.000000 0.000000 0.000000 0.000000 0.000000
    67 1.200001 0.000000 0.000000 0.000000 0.000000 0.000000
    68 0.000000 0.300000 0.000000 0.000000 0.000000 0.174533
    69 0.000000 0.000000 -0.000001 0.000000 0.000000 0.000000
    70 0.000001 0.000000 0.000000 3.141593 0.000000 0.000000
    71 0.000000 0.000000 0.000000 0.000000 0.000000 0.349066
    72 0.000000 0.000000 0.000000 0.000000 0.000000 0.000000
    73 -0.000001 0.000000 0.000000 0.000000 0.000000 0.000000
    74 0.000001 0.000000 0.000000 0.000000 0.000000 0.000000
    75 0.000000 0.000000 0.000000 0.000000 0.000000 0.000000
    76 0.000000 0.000000 0.000000 0.000000 0.000000 0.000000
    77 0.000000 0.000000 0.000000 0.000000 0.000000 0.000000
    78 -0.000002 -0.000004 0.000000 0.000000 0.000000 0.000000
    79 0.000000 0.000000 0.000000 0.000000 0.000000 0.000000
    80 0.000000 0.000000 0.000000 0.000000 0.000000 0.000000
    81 0.000000 -0.000002 0.000000 0.000000 0.000000 0.000000
    82 -0.000002 -0.000004 0.000000 0.000000 0.000000 0.000000
    83 0.000000 0.000000 0.000002 -1.570796 0.000000 0.000000
  time 5
    0 -5.216821 -15.192429 -6.946265 -1.838075 0.204507 -1.452728
    1 9.243773 6.139962 1.326173 -0.000001 0.000001 -1.570796
    2 3.442229 -1.240687 -0.005672 -0.000002 -0.000003 0.000000
    3 17.667896 -1.384574 1.233112 0.000000 -0.000003 -3.141592
    4 13.081079 -1.084008 0.792839 1.570797 -0.879478 3.141593
    5 0.758734 0.000005 -0.000001 -1.570796 0.000000 -1.124720
    6 12.977262 -1.858502 0.676013 0.518314 -0.428322 -2.516408
    7 0.562690 -0.000008 -0.000004 -0.013014 -0.008068 -0.959463
    8 -3.123285 -23.603950 -10.899942 -2.853284 -0.775282 -0.086531
    9 2.341381 0.000021 0.000003 1.570767 1.242312 -0.000021
    10 0.351472 -18.602100 -13.567880 2.776201 0.185602 -1.564247
    11 1.473660 0.639422 -1.295233 1.912370 0.874305 0.385808
    12 1.832607 0.000002 0.000000 3.135033 0.005416 0.847649
    13 1.003330 0.000000 0.000001 -3.096730 0.121107 0.034165
    14 3.823887 -0.419591 -1.411516 0.069811 0.155294 0.207678
    15 2.187963 0.000000 0.000000 -0.165877 -0.079984 1.419170
    16 1.100956 -0.000003 0.000000 0.087804 -0.052684 -0.184209
    17 3.987879 -0.577436 -0.474708 0.200564 0.169209 0.195927
    18 1.890101 -0.000004 0.000000 -0.153915 -0.042691 1.467087
    19 1.310921 0.000004 0.000000 -0.029744 0.074259 -0.259852
    20 4.117973 -0.654517 0.453699 0.085606 0.094079 0.260908
    21 1.655287 -0.000002 0.000000 -0.029298 -0.049157 1.283729
    22 0.869586 0.000010 0.000000 0.062968 -0.019305 0.011268
    23 4.150644 -0.581580 1.354867 -0.178491 0.129551 0.002327
    24 1.157243 -0.000004 0.000000 0.194856 -0.267831 1.185120
    25 1.019837 -0.000002 0.000000 -1.675160 0.086221 0.371324
    26 3.429456 -5.007721 -5.116617 -1.145195 1.387357 -1.152080
    27 12.695427 0.000001 0.000003 -0.275238 0.291887 -1.762783
    28 -7.297196 -10.025577 -9.165401 2.805527 0.214537 -1.443506
    29 1.474217 -0.497913 -1.376119 1.283317 0.486372 -0.349539
    30 1.832175 -0.000001 0.000001 -2.584602 -0.154291 0.716805
    31 1.042029 0.000000 -0.000003 -2.947217 -0.173397 -0.033767
    32 3.823319 0.664870 -1.331676 0.147142 0.208294 -0.117746
    33 2.152370 0.000002 0.000000 0.029450 -0.096091 -0.038456
    34 1.056622 0.000000 0.000000 0.267007 -0.023335 -0.201867
    35 3.985126 0.881823 -0.368987 0.187095 0.205044 -0.528378
    36 1.830173 0.000000 0.000000 0.310001 -0.029018 -1.518098
    37 1.561352 0.000004 0.000000 0.027387 0.000717 -1.353520
    38 4.116523 0.711290 0.551868 0.372901 0.175501 -0.950874
    39 1.752731 0.000000 0.000000 0.065651 0.077355 -1.199522
    40 0.869359 -0.000002 0.000000 0.010554 -0.055954 -0.881584
    41 4.118825 0.331243 1.419828 0.091712 0.246088 -1.081349
    42 1.176323 -0.000002 0.000000 0.019563 0.360413 -0.780546
    43 0.970202 -0.000002 0.000000 1.685083 0.078276 -1.123286
    44 -9.258431 -0.998731 -5.116617 -3.583116 1.087200 -2.860411
    45 12.706341 0.000001 0.000000 -0.425925 0.214711 -2.352333
    46 11.809021 -1.206475 0.191726 -0.000002 -0.000003 0.000000
    47 0.598399 -0.643255 -0.162013 0.000000 -1.570796 -0.835635
    48 0.000001 0.000000 0.000002 0.000000 0.000000 0.000000
    49 1.200000 0.000000 0.000000 0.000000 0.000000 0.000000
    50 0.000002 -0.300000 0.000000 3.141593 0.000000 -0.174533
    51 0.000000 0.000000 0.000000 0.000000 0.000000 0.000000
    52 -0.000001 0.000000 0.000000 3.141593 0.000000 0.000000
    53 0.000002 0.000000 0.000000 0.000000 0.000000 0.349066
    54 0.000000 0.000000 0.000000 3.141593 0.000000 0.000000
    55 0.000000 -0.000001 0.000000 3.141593 0.000000 0.000000
    56 0.000001 0.000000 0.000000 3.141593 0.000000 0.000000
    57 0.000000 -0.000001 0.000000 3.141593 0.000000 0.000000
    58 -0.000002 0.000004 0.000000 3.141593 0.000000 0.000000
    59 0.000000 0.000000 0.000000 3.141593 0.000000 0.000000
    60 0.000001 0.000000 0.000000 3.141593 0.000000 0.000000
    61 0.000000 0.000002 0.000000 3.141593 0.000000 0.000000
    62 0.000000 -0.000002 0.000000 3.141593 0.000000 0.000000
    63 0.000001 0.000000 0.000000 3.141593 0.000000 0.000000
    64 0.000000 0.000000 0.000000 3.141593 0.000000 0.000000
    65 0.000000 0.000000 0.000000 -1.570796 0.000000 0.000000
    66 0.000000 0.000000 0.000000 0.000000 0.000000 0.000000
    67 1.200001 0.000000 0.000000 0.000000 0.000000 0.000000
    68 0.000000 0.300000 0.000000 0.000000 0.000000 0.174533
    69 0.000000 0.000000 -0.000001 0.000000 0.000000 0.000000
    70 0.000001 0.000000 0.000000 3.141593 0.000000 0.000000
    71 0.000000 0.000000 0.000000 0.000000 0.000000 0.349066
    72 0.000000 0.000000 0.000000 0.000000 0.000000 0.000000
    73 -0.000001 0.000000 0.000000 0.000000 0.000000 0.000000
    74 0.000001 0.000000 0.000000 0.000000 0.000000 0.000000
    75 0.000000 0.000000 0.000000 0.000000 0.000000 0.000000
    76 0.000000 0.000000 0.000000 0.000000 0.000000 0.000000
    77 0.000000 0.000000 0.000000 0.000000 0.000000 0.000000
    78 -0.000002 -0.000004 0.000000 0.000000 0.000000 0.000000
    79 0.000000 0.000000 0.000000 0.000000 0.000000 0.000000
    80 0.000000 0.000000 0.000000 0.000000 0.000000 0.000000
    81 0.000000 -0.000002 0.000000 0.000000 0.000000 0.000000
    82 -0.000002 -0.000004 0.000000 0.000000 0.000000 0.000000
    83 0.000000 0.000000 0.000002 -1.570796 0.000000 0.000000
  time 6
    0 -5.220728 -15.192429 -6.821261 -1.806823 0.181446 -1.473059
    1 9.243773 6.139962 1.326173 -0.000001 0.000001 -1.570796
    2 3.442229 -1.240687 -0.005672 -0.000002 -0.000003 0.000000
    3 17.667896 -1.384574 1.233112 0.000000 -0.000003 -3.141592
    4 13.081079 -1.084008 0.792839 1.570797 -0.879478 3.141593
    5 0.758734 0.000005 -0.000001 -1.570796 0.000000 -1.124720
    6 12.977262 -1.858502 0.676013 0.518314 -0.428322 -2.516408
    7 0.562690 -0.000008 -0.000004 -0.013014 -0.008068 -0.959463
    8 -3.224851 -23.732860 -10.540556 -2.876903 -0.809906 -0.096132
    9 2.341381 0.000021 0.000003 1.570767 1.242312 -0.000021
    10 0.468664 -18.879452 -13.192868 2.809760 0.166080 -1.584706
    11 1.473660 0.639422 -1.295233 1.920022 0.891815 0.395754
    12 1.832607 0.000002 0.000000 3.135033 0.005416 0.847649
    13 1.003330 0.000000 0.000001 -3.096730 0.121107 0.034165
    14 3.823887 -0.419591 -1.411516 0.069811 0.155294 0.207678
    15 2.187963 0.000000 0.000000 -0.165877 -0.079984 1.419170
    16 1.100956 -0.000003 0.000000 0.087804 -0.052684 -0.184209
    17 3.987879 -0.577436 -0.474708 0.200564 0.169209 0.195927
    18 1.890101 -0.000004 0.000000 -0.153915 -0.042691 1.467087
    19 1.310921 0.000004 0.000000 -0.029744 0.074259 -0.259852
    20 4.117973 -0.654517 0.453699 0.085606 0.094079 0.260908
    21 1.655287 -0.000002 0.000000 -0.029298 -0.049157 1.283729
    22 0.869586 0.000010 0.000000 0.062968 -0.019305 0.011268
    23 4.150644 -0.581580 1.354867 -0.178491 0.129551 0.002327
    24 1.157243 -0.000004 0.000000 0.194856 -0.267831 1.185120
    25 1.019837 -0.000002 0.000000 -1.675160 0.086221 0.371324
    26 3.429456 -5.007721 -5.116617 -1.256119 1.367199 -1.244891
    27 12.695427 0.000001 0.000003 -0.274722 0.291995 -1.760910
    28 -7.090158 -10.017764 -9.208371 2.836619 0.191182 -1.463597
    29 1.474217 -0.497913 -1.376119 1.283317 0.486372 -0.349539
    30 1.832175 -0.000001 0.000001 -2.584602 -0.154291 0.716805
    31 1.042029 0.000000 -0.000003 -2.947217 -0.173397 -0.033767
    32 3.823319 0.664870 -1.331676 0.141486 0.226583 -0.158076
    33 2.152370 0.000002 0.000000 0.032314 -0.130595 -0.055848
    34 1.056622 0.000000 0.000000 0.267040 -0.033381 -0.273441
    35 3.985126 0.881823 -0.368987 0.187095 0.205044 -0.528378
    36 1.830173 0.000000 0.000000 0.310001 -0.029018 -1.518098
    37 1.561352 0.000004 0.000000 0.027387 0.000717 -1.353520
    38 4.116523 0.711290 0.551868 0.372901 0.175501 -0.950874
    39 1.752731 0.000000 0.000000 0.065651 0.077355 -1.199522
    40 0.869359 -0.000002 0.000000 0.010554 -0.055954 -0.881584
    41 4.118825 0.331243 1.419828 0.091712 0.246088 -1.081349
    42 1.176323 -0.000002 0.000000 0.019563 0.360413 -0.780546
    43 0.970202 -0.000002 0.000000 1.685083 0.078276 -1.123286
    44 -9.258431 -0.998731 -5.116617 -3.576987 1.135516 -2.852983
    45 12.706341 0.000001 0.000000 -0.424972 0.215634 -2.347891
    46 11.809021 -1.206475 0.191726 -0.000002 -0.000003 0.000000
    47 0.598399 -0.643255 -0.162013 0.000000 -1.570796 -0.835635
    48 0.000001 0.000000 0.000002 0.000000 0.000000 0.000000
    49 1.200000 0.000000 0.000000 0.000000 0.000000 0.000000
    50 0.000002 -0.300000 0.000000 3.141593 0.000000 -0.174533
    51 0.000000 0.000000 0.000000 0.000000 0.000000 0.000000
    52 -0.000001 0.000000 0.000000 3.141593 0.000000 0.000000
    53 0.000002 0.000000 0.000000 0.000000 0.000000 0.349066
    54 0.000000 0.000000 0.000000 3.141593 0.000000 0.000000
    55 0.000000 -0.000001 0.000000 3.141593 0.000000 0.000000
    56 0.000001 0.000000 0.000000 3.141593 0.000000 0.000000
    57 0.000000 -0.000001 0.000000 3.141593 0.000000 0.000000
    58 -0.000002 0.000004 0.000000 3.141593 0.000000 0.000000
    59 0.000000 0.000000 0.000000 3.141593 0.000000 0.000000
    60 0.000001 0.000000 0.000000 3.141593 0.000000 0.000000
    61 0.000000 0.000002 0.000000 3.141593 0.000000 0.000000
    62 0.000000 -0.000002 0.000000 3.141593 0.000000 0.000000
    63 0.000001 0.000000 0.000000 3.141593 0.000000 0.000000
    64 0.000000 0.000000 0.000000 3.141593 0.000000 0.000000
    65 0.000000 0.000000 0.000000 -1.570796 0.000000 0.000000
    66 0.000000 0.000000 0.000000 0.000000 0.000000 0.000000
    67 1.200001 0.000000 0.000000 0.000000 0.000000 0.000000
    68 0.000000 0.300000 0.000000 0.000000 0.000000 0.174533
    69 0.000000 0.000000 -0.000001 0.000000 0.000000 0.000000
    70 0.000001 0.000000 0.000000 3.141593 0.000000 0.000000
    71 0.000000 0.000000 0.000000 0.000000 0.000000 0.349066
    72 0.000000 0.000000 0.000000 0.000000 0.000000 0.000000
    73 -0.000001 0.000000 0.000000 0.000000 0.000000 0.000000
    74 0.000001 0.000000 0.000000 0.000000 0.000000 0.000000
    75 0.000000 0.000000 0.000000 0.000000 0.000000 0.000000
    76 0.000000 0.000000 0.000000 0.000000 0.000000 0.000000
    77 0.000000 0.000000 0.000000 0.000000 0.000000 0.000000
    78 -0.000002 -0.000004 0.000000 0.000000 0.000000 0.000000
    79 0.000000 0.000000 0.000000 0.000000 0.000000 0.000000
    80 0.000000 0.000000 0.000000 0.000000 0.000000 0.000000
    81 0.000000 -0.000002 0.000000 0.000000 0.000000 0.000000
    82 -0.000002 -0.000004 0.000000 0.000000 0.000000 0.000000
    83 0.000000 0.000000 0.000002 -1.570796 0.000000 0.000000
  time 7
    0 -5.224634 -15.188523 -6.688445 -1.772698 0.152879 -1.494974
    1 9.243773 6.139962 1.326173 -0.000001 0.000001 -1.570796
    2 3.442229 -1.240687 -0.005672 -0.000002 -0.000003 0.000000
    3 17.667896 -1.384574 1.233112 0.000000 -0.000003 -3.141592
    4 13.081079 -1.084008 0.792839 1.570797 -0.879478 3.141593
    5 0.758734 0.000005 -0.000001 -1.570796 0.000000 -1.124720
    6 12.977262 -1.858502 0.676013 0.518314 -0.428322 -2.516408
    7 0.562690 -0.000008 -0.000004 -0.013014 -0.008068 -0.959463
    8 -3.338136 -23.873489 -10.114762 -2.909224 -0.848218 -0.099803
    9 2.341381 0.000021 0.000003 1.570767 1.242312 -0.000021
    10 0.585855 -19.195868 -12.755355 2.846717 0.141458 -1.606597
    11 1.473660 0.639422 -1.295233 1.922714 0.897759 0.399192
    12 1.832607 0.000002 0.000000 3.135033 0.005416 0.847649
    13 1.003330 0.000000 0.000001 -3.096730 0.121107 0.034165
    14 3.823887 -0.419591 -1.411516 0.069811 0.155294 0.207678
    15 2.187963 0.000000 0.000000 -0.165877 -0.079984 1.419170
    16 1.100956 -0.000003 0.000000 0.087804 -0.052684 -0.184209
    17 3.987879 -0.577436 -0.474708 0.200564 0.169198 0.195927
    18 1.890101 -0.000004 0.000000 -0.153915 -0.042703 1.467087
    19 1.310921 0.000004 0.000000 -0.029744 0.074259 -0.259852
    20 4.117973 -0.654517 0.453699 0.085606 0.094079 0.260908
    21 1.655287 -0.000002 0.000000 -0.029298 -0.049157 1.283729
    22 0.869586 0.000010 0.000000 0.062968 -0.019305 0.011268
    23 4.150644 -0.581580 1.354867 -0.178491 0.129551 0.002327
    24 1.157243 -0.000004 0.000000 0.194856 -0.267831 1.185120
    25 1.019837 -0.000002 0.000000 -1.675160 0.086221 0.371324
    26 3.429456 -5.007721 -5.116617 -1.349689 1.339315 -1.321899
    27 12.695427 0.000001 0.000003 -0.273490 0.292211 -1.756697
    28 -6.863589 -10.033390 -9.259154 2.870466 0.162275 -1.485271
    29 1.474217 -0.497913 -1.376119 1.283317 0.486372 -0.349539
    30 1.832175 -0.000001 0.000001 -2.584602 -0.154291 0.716805
    31 1.042029 0.000000 -0.000003 -2.947217 -0.173397 -0.033767
    32 3.823319 0.664870 -1.331676 0.135026 0.244656 -0.198680
    33 2.152370 0.000002 0.000000 0.035790 -0.165015 -0.073402
    34 1.056622 0.000000 0.000000 0.267814 -0.043323 -0.345084
    35 3.985126 0.881823 -0.368987 0.187095 0.205044 -0.528378
    36 1.830173 0.000000 0.000000 0.310001 -0.029018 -1.518098
    37 1.561352 0.000004 0.000000 0.027387 0.000717 -1.353520
    38 4.116523 0.711290 0.551868 0.372901 0.175501 -0.950874
    39 1.752731 0.000000 0.000000 0.065651 0.077355 -1.199547
    40 0.869359 -0.000002 0.000000 0.010554 -0.055954 -0.881584
    41 4.118825 0.331243 1.419828 0.091712 0.246088 -1.081349
    42 1.176323 -0.000002 0.000000 0.019563 0.360413 -0.780546
    43 0.970202 -0.000002 0.000000 1.685083 0.078276 -1.123286
    44 -9.258431 -0.998731 -5.116617 -3.567028 1.204598 -2.849181
    45 12.706341 0.000001 0.000000 -0.423378 0.217168 -2.340386
    46 11.809021 -1.206475 0.191726 -0.000002 -0.000003 0.000000
    47 0.598399 -0.643255 -0.162013 0.000000 -1.570796 -0.835635
    48 0.000001 0.000000 0.000002 0.000000 0.000000 0.000000
    49 1.200000 0.000000 0.000000 0.000000 0.000000 0.000000
    50 0.000002 -0.300000 0.000000 3.141593 0.000000 -0.174533
    51 0.000000 0.000000 0.000000 0.000000 0.000000 0.000000
    52 -0.000001 0.000000 0.000000 3.141593 0.000000 0.000000
    53 0.000002 0.000000 0.000000 0.000000 0.000000 0.349066
    54 0.000000 0.000000 0.000000 3.141593 0.000000 0.000000
    55 0.000000 -0.000001 0.000000 3.141593 0.000000 0.000000
    56 0.000001 0.000000 0.000000 3.141593 0.000000 0.000000
    57 0.000000 -0.000001 0.000000 3.141593 0.000000 0.000000
    58 -0.000002 0.000004 0.000000 3.141593 0.000000 0.000000
    59 0.000000 0.000000 0.000000 3.141593 0.000000 0.000000
    60 0.000001 0.000000 0.000000 3.141593 0.000000 0.000000
    61 0.000000 0.000002 0.000000 3.141593 0.000000 0.000000
    62 0.000000 -0.000002 0.000000 3.141593 0.000000 0.000000
    63 0.000001 0.000000 0.000000 3.141593 0.000000 0.000000
    64 0.000000 0.000000 0.000000 3.141593 0.000000 0.000000
    65 0.000000 0.000000 0.000000 -1.570796 0.000000 0.000000
    66 0.000000 0.000000 0.000000 0.000000 0.000000 0.000000
    67 1.200001 0.000000 0.000000 0.000000 0.000000 0.000000
    68 0.000000 0.300000 0.000000 0.000000 0.000000 0.174533
    69 0.000000 0.000000 -0.000001 0.000000 0.000000 0.000000
    70 0.000001 0.000000 0.000000 3.141593 0.000000 0.000000
    71 0.000000 0.000000 0.000000 0.000000 0.000000 0.349066
    72 0.000000 0.000000 0.000000 0.000000 0.000000 0.000000
    73 -0.000001 0.000000 0.000000 0.000000 0.000000 0.000000
    74 0.000001 0.000000 0.000000 0.000000 0.000000 0.000000
    75 0.000000 0.000000 0.000000 0.000000 0.000000 0.000000
    76 0.000000 0.000000 0.000000 0.000000 0.000000 0.000000
    77 0.000000 0.000000 0.000000 0.000000 0.000000 0.000000
    78 -0.000002 -0.000004 0.000000 0.000000 0.000000 0.000000
    79 0.000000 0.000000 0.000000 0.000000 0.000000 0.000000
    80 0.000000 0.000000 0.000000 0.000000 0.000000 0.000000
    81 0.000000 -0.000002 0.000000 0.000000 0.000000 0.000000
    82 -0.000002 -0.000004 0.000000 0.000000 0.000000 0.000000
    83 0.000000 0.000000 0.000002 -1.570796 0.000000 0.000000
  time 8
    0 -5.228540 -15.188523 -6.555628 -1.737443 0.121744 -1.516635
    1 9.243773 6.139962 1.326173 -0.000001 0.000001 -1.570796
    2 3.442229 -1.240687 -0.005672 -0.000002 -0.000003 0.000000
    3 17.667896 -1.384574 1.233112 0.000000 -0.000003 -3.141592
    4 13.081079 -1.084008 0.792839 1.570797 -0.879478 3.141593
    5 0.758734 0.000005 -0.000001 -1.570796 0.000000 -1.124720
    6 12.977262 -1.858502 0.676013 0.518314 -0.428322 -2.516408
    7 0.562690 -0.000008 -0.000004 -0.013014 -0.008068 -0.959463
    8 -3.451420 -24.018025 -9.661623 -2.947952 -0.887770 -0.096791
    9 2.341381 0.000021 0.000003 1.570767 1.242312 -0.000021
    10 0.687420 -19.520097 -12.286591 2.885349 0.114372 -1.628249
    11 1.473660 0.639422 -1.295233 1.917465 0.886158 0.392463
    12 1.832607 0.000002 0.000000 3.135033 0.005416 0.847649
    13 1.003330 0.000000 0.000001 -3.096730 0.121107 0.034165
    14 3.823887 -0.419591 -1.411516 0.069811 0.155294 0.207678
    15 2.187963 0.000000 0.000000 -0.165877 -0.079984 1.419170
    16 1.100956 -0.000003 0.000000 0.087804 -0.052684 -0.184209
    17 3.987879 -0.577436 -0.474708 0.200564 0.169209 0.195927
    18 1.890101 -0.000004 0.000000 -0.153915 -0.042691 1.467087
    19 1.310921 0.000004 0.000000 -0.029744 0.074259 -0.259852
    20 4.117973 -0.654517 0.453699 0.085606 0.094079 0.260908
    21 1.655287 -0.000002 0.000000 -0.029298 -0.049157 1.283729
    22 0.869586 0.000010 0.000000 0.062968 -0.019305 0.011268
    23 4.150644 -0.581580 1.354867 -0.178491 0.129551 0.002327
    24 1.157243 -0.000004 0.000000 0.194856 -0.267831 1.185120
    25 1.019837 -0.000002 0.000000 -1.675160 0.086221 0.371324
    26 3.429456 -5.007721 -5.116617 -1.419568 1.306812 -1.377531
    27 12.695427 0.000001 0.000003 -0.271785 0.292486 -1.750812
    28 -6.629206 -10.068547 -9.337281 2.905469 0.130812 -1.506629
    29 1.474217 -0.497913 -1.376119 1.283317 0.486372 -0.349539
    30 1.832175 -0.000001 0.000001 -2.584602 -0.154291 0.716805
    31 1.042029 0.000000 -0.000003 -2.947217 -0.173397 -0.033767
    32 3.823319 0.664870 -1.331676 0.128398 0.260979 -0.236177
    33 2.152370 0.000002 0.000000 0.039541 -0.196498 -0.089730
    34 1.056622 0.000000 0.000000 0.269148 -0.052417 -0.410722
    35 3.985126 0.881823 -0.368987 0.187095 0.205044 -0.528378
    36 1.830173 0.000000 0.000000 0.310001 -0.029018 -1.518098
    37 1.561352 0.000004 0.000000 0.027387 0.000717 -1.353520
    38 4.116523 0.711290 0.551868 0.372901 0.175501 -0.950874
    39 1.752731 0.000000 0.000000 0.065651 0.077355 -1.199522
    40 0.869359 -0.000002 0.000000 0.010554 -0.055954 -0.881584
    41 4.118825 0.331243 1.419828 0.091712 0.246088 -1.081349
    42 1.176323 -0.000002 0.000000 0.019563 0.360413 -0.780546
    43 0.970202 -0.000002 0.000000 1.685083 0.078276 -1.123286
    44 -9.258431 -0.998731 -5.116617 -3.554483 1.288428 -2.849888
    45 12.706341 0.000001 0.000000 -0.421176 0.219205 -2.330430
    46 11.809021 -1.206475 0.191726 -0.000002 -0.000003 0.000000
    47 0.598399 -0.643255 -0.162013 0.000000 -1.570796 -0.835635
    48 0.000001 0.000000 0.000002 0.000000 0.000000 0.000000
    49 1.200000 0.000000 0.000000 0.000000 0.000000 0.000000
    50 0.000002 -0.300000 0.000000 3.141593 0.000000 -0.174533
    51 0.000000 0.000000 0.000000 0.000000 0.000000 0.000000
    52 -0.000001 0.000000 0.000000 3.141593 0.000000 0.000000
    53 0.000002 0.000000 0.000000 0.000000 0.000000 0.349066
    54 0.000000 0.000000 0.000000 3.141593 0.000000 0.000000
    55 0.000000 -0.000001 0.000000 3.141593 0.000000 0.000000
    56 0.000001 0.000000 0.000000 3.141593 0.000000 0.000000
    57 0.000000 -0.000001 0.000000 3.141593 0.000000 0.000000
    58 -0.000002 0.000004 0.000000 3.141593 0.000000 0.000000
    59 0.000000 0.000000 0.000000 3.141593 0.000000 0.000000
    60 0.000001 0.000000 0.000000 3.141593 0.000000 0.000000
    61 0.000000 0.000002 0.000000 3.141593 0.000000 0.000000
    62 0.000000 -0.000002 0.000000 3.141593 0.000000 0.000000
    63 0.000001 0.000000 0.000000 3.141593 0.000000 0.000000
    64 0.000000 0.000000 0.000000 3.141593 0.000000 0.000000
    65 0.000000 0.000000 0.000000 -1.570796 0.000000 0.000000
    66 0.000000 0.000000 0.000000 0.000000 0.000000 0.000000
    67 1.200001 0.000000 0.000000 0.000000 0.000000 0.000000
    68 0.000000 0.300000 0.000000 0.000000 0.000000 0.174533
    69 0.000000 0.000000 -0.000001 0.000000 0.000000 0.000000
    70 0.000001 0.000000 0.000000 3.141593 0.000000 0.000000
    71 0.000000 0.000000 0.000000 0.000000 0.000000 0.349066
    72 0.000000 0.000000 0.000000 0.000000 0.000000 0.000000
    73 -0.000001 0.000000 0.000000 0.000000 0.000000 0.000000
    74 0.000001 0.000000 0.000000 0.000000 0.000000 0.000000
    75 0.000000 0.000000 0.000000 0.000000 0.000000 0.000000
    76 0.000000 0.000000 0.000000 0.000000 0.000000 0.000000
    77 0.000000 0.000000 0.000000 0.000000 0.000000 0.000000
    78 -0.000002 -0.000004 0.000000 0.000000 0.000000 0.000000
    79 0.000000 0.000000 0.000000 0.000000 0.000000 0.000000
    80 0.000000 0.000000 0.000000 0.000000 0.000000 0.000000
    81 0.000000 -0.000002 0.000000 0.000000 0.000000 0.000000
    82 -0.000002 -0.000004 0.000000 0.000000 0.000000 0.000000
    83 0.000000 0.000000 0.000002 -1.570796 0.000000 0.000000
  time 9
    0 -5.236353 -15.188523 -6.442343 -1.703085 0.091418 -1.536016
    1 9.243773 6.139962 1.326173 -0.000001 0.000001 -1.570796
    2 3.442229 -1.240687 -0.005672 -0.000002 -0.000003 0.000000
    3 17.667896 -1.384574 1.233112 0.000000 -0.000003 -3.141592
    4 13.081079 -1.084008 0.792839 1.570797 -0.879478 3.141593
    5 0.758734 0.000005 -0.000001 -1.570796 0.000000 -1.124720
    6 12.977262 -1.858502 0.676013 0.518314 -0.428322 -2.516408
    7 0.562690 -0.000008 -0.000004 -0.013014 -0.008068 -0.959463
    8 -3.556892 -24.139123 -9.224110 -2.989262 -0.925784 -0.087284
    9 2.341381 0.000021 0.000003 1.570767 1.242312 -0.000021
    10 0.777267 -19.816981 -11.821733 2.922818 0.088027 -1.647456
    11 1.473660 0.639422 -1.295233 1.903737 0.853368 0.374536
    12 1.832607 0.000002 0.000000 3.135033 0.005416 0.847649
    13 1.003330 0.000000 0.000001 -3.096730 0.121107 0.034165
    14 3.823887 -0.419591 -1.411516 0.069811 0.155294 0.207678
    15 2.187963 0.000000 0.000000 -0.165877 -0.079984 1.419170
    16 1.100956 -0.000003 0.000000 0.087804 -0.052684 -0.184209
    17 3.987879 -0.577436 -0.474708 0.200564 0.169209 0.195927
    18 1.890101 -0.000004 0.000000 -0.153915 -0.042691 1.467087
    19 1.310921 0.000004 0.000000 -0.029744 0.074259 -0.259852
    20 4.117973 -0.654517 0.453699 0.085606 0.094079 0.260908
    21 1.655287 -0.000002 0.000000 -0.029298 -0.049157 1.283729
    22 0.869586 0.000010 0.000000 0.062968 -0.019305 0.011268
    23 4.150644 -0.581580 1.354867 -0.178491 0.129551 0.002327
    24 1.157243 -0.000004 0.000000 0.194856 -0.267831 1.185120
    25 1.019837 -0.000002 0.000000 -1.675160 0.086221 0.371324
    26 3.429456 -5.007721 -5.116617 -1.468235 1.274396 -1.414619
    27 12.695427 0.000001 0.000003 -0.270023 0.292822 -1.744593
    28 -6.414356 -10.119330 -9.411502 2.939537 0.100089 -1.525705
    29 1.474217 -0.497913 -1.376119 1.283317 0.486372 -0.349539
    30 1.832175 -0.000001 0.000001 -2.584602 -0.154291 0.716805
    31 1.042029 0.000000 -0.000003 -2.947217 -0.173397 -0.033767
    32 3.823319 0.664870 -1.331676 0.122382 0.274389 -0.267667
    33 2.152370 0.000002 0.000000 0.043113 -0.222732 -0.103495
    34 1.056622 0.000000 0.000000 0.270680 -0.059843 -0.465346
    35 3.985126 0.881823 -0.368987 0.187095 0.205044 -0.528378
    36 1.830173 0.000000 0.000000 0.310001 -0.029018 -1.518098
    37 1.561352 0.000004 0.000000 0.027387 0.000717 -1.353520
    38 4.116523 0.711290 0.551868 0.372901 0.175501 -0.950874
    39 1.752731 0.000000 0.000000 0.065651 0.077355 -1.199522
    40 0.869359 -0.000002 0.000000 0.010554 -0.055954 -0.881584
    41 4.118825 0.331243 1.419828 0.091712 0.246088 -1.081349
    42 1.176323 -0.000002 0.000000 0.019563 0.360413 -0.780546
    43 0.970202 -0.000002 0.000000 1.685083 0.078276 -1.123286
    44 -9.258431 -0.998731 -5.116617 -3.541651 1.374520 -2.854575
    45 12.706341 0.000001 0.000000 -0.418662 0.221518 -2.318866
    46 11.809021 -1.206475 0.191726 -0.000002 -0.000003 0.000000
    47 0.598399 -0.643255 -0.162013 0.000000 -1.570796 -0.835635
    48 0.000001 0.000000 0.000002 0.000000 0.000000 0.000000
    49 1.200000 0.000000 0.000000 0.000000 0.000000 0.000000
    50 0.000002 -0.300000 0.000000 3.141593 0.000000 -0.174533
    51 0.000000 0.000000 0.000000 0.000000 0.000000 0.000000
    52 -0.000001 0.000000 0.000000 3.141593 0.000000 0.000000
    53 0.000002 0.000000 0.000000 0.000000 0.000000 0.349066
    54 0.000000 0.000000 0.000000 3.141593 0.000000 0.000000
    55 0.000000 -0.000001 0.000000 3.141593 0.000000 0.000000
    56 0.000001 0.000000 0.000000 3.141593 0.000000 0.000000
    57 0.000000 -0.000001 0.000000 3.141593 0.000000 0.000000
    58 -0.000002 0.000004 0.000000 3.141593 0.000000 0.000000
    59 0.000000 0.000000 0.000000 3.141593 0.000000 0.000000
    60 0.000001 0.000000 0.000000 3.141593 0.000000 0.000000
    61 0.000000 0.000002 0.000000 3.141593 0.000000 0.000000
    62 0.000000 -0.000002 0.000000 3.141593 0.000000 0.000000
    63 0.000001 0.000000 0.000000 3.141593 0.000000 0.000000
    64 0.000000 0.000000 0.000000 3.141593 0.000000 0.000000
    65 0.000000 0.000000 0.000000 -1.570796 0.000000 0.000000
    66 0.000000 0.000000 0.000000 0.000000 0.000000 0.000000
    67 1.200001 0.000000 0.000000 0.000000 0.000000 0.000000
    68 0.000000 0.300000 0.000000 0.000000 0.000000 0.174533
    69 0.000000 0.000000 -0.000001 0.000000 0.000000 0.000000
    70 0.000001 0.000000 0.000000 3.141593 0.000000 0.000000
    71 0.000000 0.000000 0.000000 0.000000 0.000000 0.349066
    72 0.000000 0.000000 0.000000 0.000000 0.000000 0.000000
    73 -0.000001 0.000000 0.000000 0.000000 0.000000 0.000000
    74 0.000001 0.000000 0.000000 0.000000 0.000000 0.000000
    75 0.000000 0.000000 0.000000 0.000000 0.000000 0.000000
    76 0.000000 0.000000 0.000000 0.000000 0.000000 0.000000
    77 0.000000 0.000000 0.000000 0.000000 0.000000 0.000000
    78 -0.000002 -0.000004 0.000000 0.000000 0.000000 0.000000
    79 0.000000 0.000000 0.000000 0.000000 0.000000 0.000000
    80 0.000000 0.000000 0.000000 0.000000 0.000000 0.000000
    81 0.000000 -0.000002 0.000000 0.000000 0.000000 0.000000
    82 -0.000002 -0.000004 0.000000 0.000000 0.000000 0.000000
    83 0.000000 0.000000 0.000002 -1.570796 0.000000 0.000000
  time 10
    0 -5.244166 -15.188523 -6.352497 -1.671526 0.064733 -1.551406
    1 9.243773 6.139962 1.326173 -0.000001 0.000001 -1.570796
    2 3.442229 -1.240687 -0.005672 -0.000002 -0.000003 0.000000
    3 17.667896 -1.384574 1.233112 0.000000 -0.000003 -3.141592
    4 13.081079 -1.084008 0.792839 1.570797 -0.879478 3.141593
    5 0.758734 0.000005 -0.000001 -1.570796 0.000000 -1.124720
    6 12.977262 -1.858502 0.676013 0.518314 -0.428322 -2.516408
    7 0.562690 -0.000008 -0.000004 -0.013014 -0.008068 -0.959463
    8 -3.638926 -24.236782 -8.853005 -3.028659 -0.959890 -0.073354
    9 2.341381 0.000021 0.000003 1.570767 1.242312 -0.000021
    10 0.855394 -20.059176 -11.419377 2.957168 0.065025 -1.662666
    11 1.473660 0.639422 -1.295233 1.888048 0.811002 0.353318
    12 1.832607 0.000002 0.000000 3.135033 0.005416 0.847649
    13 1.003330 0.000000 0.000001 -3.096730 0.121107 0.034165
    14 3.823887 -0.419591 -1.411516 0.069811 0.155294 0.207678
    15 2.187963 0.000000 0.000000 -0.165877 -0.079984 1.419170
    16 1.100956 -0.000003 0.000000 0.087804 -0.052684 -0.184209
    17 3.987879 -0.577436 -0.474708 0.200564 0.169198 0.195927
    18 1.890101 -0.000004 0.000000 -0.153915 -0.042691 1.467087
    19 1.310921 0.000004 0.000000 -0.029744 0.074259 -0.259852
    20 4.117973 -0.654517 0.453699 0.085606 0.094079 0.260908
    21 1.655287 -0.000002 0.000000 -0.029298 -0.049157 1.283729
    22 0.869586 0.000010 0.000000 0.062968 -0.019305 0.011268
    23 4.150644 -0.581580 1.354867 -0.178491 0.129551 0.002327
    24 1.157243 -0.000004 0.000000 0.194856 -0.267831 1.185120
    25 1.019837 -0.000002 0.000000 -1.675160 0.086221 0.371324
    26 3.429456 -5.007721 -5.116617 -1.501568 1.245778 -1.438461
    27 12.695427 0.000001 0.000003 -0.268504 0.293050 -1.739309
    28 -6.234663 -10.177926 -9.497442 2.970789 0.073103 -1.540852
    29 1.474217 -0.497913 -1.376119 1.283317 0.486372 -0.349539
    30 1.832175 -0.000001 0.000001 -2.584602 -0.154291 0.716805
    31 1.042029 0.000000 -0.000003 -2.947217 -0.173397 -0.033767
    32 3.823319 0.664870 -1.331676 0.117636 0.284181 -0.291078
    33 2.152370 0.000002 0.000000 0.045989 -0.242076 -0.113833
    34 1.056622 0.000000 0.000000 0.272080 -0.065290 -0.505628
    35 3.985126 0.881823 -0.368987 0.187095 0.205044 -0.528378
    36 1.830173 0.000000 0.000000 0.310001 -0.029018 -1.518098
    37 1.561352 0.000004 0.000000 0.027387 0.000717 -1.353520
    38 4.116523 0.711290 0.551868 0.372901 0.175501 -0.950874
    39 1.752731 0.000000 0.000000 0.065651 0.077355 -1.199522
    40 0.869359 -0.000002 0.000000 0.010554 -0.055954 -0.881584
    41 4.118825 0.331243 1.419828 0.091712 0.246088 -1.081349
    42 1.176323 -0.000002 0.000000 0.019563 0.360413 -0.780546
    43 0.970202 -0.000002 0.000000 1.685083 0.078276 -1.123286
    44 -9.258431 -0.998731 -5.116617 -3.532458 1.446587 -2.860676
    45 12.706341 0.000001 0.000000 -0.416098 0.223832 -2.307302
    46 11.809021 -1.206475 0.191726 -0.000002 -0.000003 0.000000
    47 0.598399 -0.643255 -0.162013 0.000000 -1.570796 -0.835635
    48 0.000001 0.000000 0.000002 0.000000 0.000000 0.000000
    49 1.200000 0.000000 0.000000 0.000000 0.000000 0.000000
    50 0.000002 -0.300000 0.000000 3.141593 0.000000 -0.174533
    51 0.000000 0.000000 0.000000 0.000000 0.000000 0.000000
    52 -0.000001 0.000000 0.000000 3.141593 0.000000 0.000000
    53 0.000002 0.000000 0.000000 0.000000 0.000000 0.349066
    54 0.000000 0.000000 0.000000 3.141593 0.000000 0.000000
    55 0.000000 -0.000001 0.000000 3.141593 0.000000 0.000000
    56 0.000001 0.000000 0.000000 3.141593 0.000000 0.000000
    57 0.000000 -0.000001 0.000000 3.141593 0.000000 0.000000
    58 -0.000002 0.000004 0.000000 3.141593 0.000000 0.000000
    59 0.000000 0.000000 0.000000 3.141593 0.000000 0.000000
    60 0.000001 0.000000 0.000000 3.141593 0.000000 0.000000
    61 0.000000 0.000002 0.000000 3.141593 0.000000 0.000000
    62 0.000000 -0.000002 0.000000 3.141593 0.000000 0.000000
    63 0.000001 0.000000 0.000000 3.141593 0.000000 0.000000
    64 0.000000 0.000000 0.000000 3.141593 0.000000 0.000000
    65 0.000000 0.000000 0.000000 -1.570796 0.000000 0.000000
    66 0.000000 0.000000 0.000000 0.000000 0.000000 0.000000
    67 1.200001 0.000000 0.000000 0.000000 0.000000 0.000000
    68 0.000000 0.300000 0.000000 0.000000 0.000000 0.174533
    69 0.000000 0.000000 -0.000001 0.000000 0.000000 0.000000
    70 0.000001 0.000000 0.000000 3.141593 0.000000 0.000000
    71 0.000000 0.000000 0.000000 0.000000 0.000000 0.349066
    72 0.000000 0.000000 0.000000 0.000000 0.000000 0.000000
    73 -0.000001 0.000000 0.000000 0.000000 0.000000 0.000000
    74 0.000001 0.000000 0.000000 0.000000 0.000000 0.000000
    75 0.000000 0.000000 0.000000 0.000000 0.000000 0.000000
    76 0.000000 0.000000 0.000000 0.000000 0.000000 0.000000
    77 0.000000 0.000000 0.000000 0.000000 0.000000 0.000000
    78 -0.000002 -0.000004 0.000000 0.000000 0.000000 0.000000
    79 0.000000 0.000000 0.000000 0.000000 0.000000 0.000000
    80 0.000000 0.000000 0.000000 0.000000 0.000000 0.000000
    81 0.000000 -0.000002 0.000000 0.000000 0.000000 0.000000
    82 -0.000002 -0.000004 0.000000 0.000000 0.000000 0.000000
    83 0.000000 0.000000 0.000002 -1.570796 0.000000 0.000000
  time 11
    0 -5.248072 -15.188523 -6.301714 -1.644081 0.043361 -1.561667
    1 9.243773 6.139962 1.326173 -0.000001 0.000001 -1.570796
    2 3.442229 -1.240687 -0.005672 -0.000002 -0.000003 0.000000
    3 17.667896 -1.384574 1.233112 0.000000 -0.000003 -3.141592
    4 13.081079 -1.084008 0.792839 1.570797 -0.879478 3.141593
    5 0.758734 0.000005 -0.000001 -1.570796 0.000000 -1.124720
    6 12.977262 -1.858502 0.676013 0.518314 -0.428322 -2.516408
    7 0.562690 -0.000008 -0.000004 -0.013014 -0.008068 -0.959463
    8 -3.689709 -24.307096 -8.567840 -3.062797 -0.988926 -0.056788
    9 2.341381 0.000021 0.000003 1.570767 1.242312 -0.000021
    10 0.925709 -20.234962 -11.099054 2.986864 0.046847 -1.672866
    11 1.473660 0.639422 -1.295233 1.877185 0.777925 0.338092
    12 1.832607 0.000002 0.000000 3.135033 0.005416 0.847649
    13 1.003330 0.000000 0.000001 -3.096730 0.121107 0.034165
    14 3.823887 -0.419591 -1.411516 0.069811 0.155294 0.207678
    15 2.187963 0.000000 0.000000 -0.165877 -0.079984 1.419170
    16 1.100956 -0.000003 0.000000 0.087804 -0.052684 -0.184209
    17 3.987879 -0.577436 -0.474708 0.200564 0.169198 0.195927
    18 1.890101 -0.000004 0.000000 -0.153915 -0.042691 1.467087
    19 1.310921 0.000004 0.000000 -0.029744 0.074259 -0.259852
    20 4.117973 -0.654517 0.453699 0.085606 0.094079 0.260908
    21 1.655287 -0.000002 0.000000 -0.029298 -0.049157 1.283729
    22 0.869586 0.000010 0.000000 0.062968 -0.019305 0.011268
    23 4.150644 -0.581580 1.354867 -0.178491 0.129551 0.002327
    24 1.157243 -0.000004 0.000000 0.194856 -0.267831 1.185120
    25 1.019837 -0.000002 0.000000 -1.675160 0.086221 0.371324
    26 3.429456 -5.007721 -5.116617 -1.524340 1.223505 -1.453534
    27 12.695427 0.000001 0.000003 -0.267630 0.293193 -1.736367
    28 -6.094034 -10.236521 -9.567757 2.998019 0.051458 -1.550929
    29 1.474217 -0.497913 -1.376119 1.283317 0.486372 -0.349539
    30 1.832175 -0.000001 0.000001 -2.584602 -0.154291 0.716805
    31 1.042029 0.000000 -0.000003 -2.947217 -0.173397 -0.033767
    32 3.823319 0.664870 -1.331676 0.114628 0.290053 -0.305325
    33 2.152370 0.000002 0.000000 0.047846 -0.253785 -0.120111
    34 1.056622 0.000000 0.000000 0.273068 -0.068580 -0.529955
    35 3.985126 0.881823 -0.368987 0.187095 0.205044 -0.528378
    36 1.830173 0.000000 0.000000 0.310001 -0.029018 -1.518098
    37 1.561352 0.000004 0.000000 0.027387 0.000717 -1.353520
    38 4.116523 0.711290 0.551868 0.372901 0.175501 -0.950874
    39 1.752731 0.000000 0.000000 0.065651 0.077355 -1.199522
    40 0.869359 -0.000002 0.000000 0.010554 -0.055954 -0.881584
    41 4.118825 0.331243 1.419828 0.091712 0.246088 -1.081349
    42 1.176323 -0.000002 0.000000 0.019563 0.360413 -0.780546
    43 0.970202 -0.000002 0.000000 1.685083 0.078276 -1.123286
    44 -9.258431 -0.998731 -5.116617 -3.527574 1.490696 -2.863329
    45 12.706341 0.000001 0.000000 -0.413749 0.225881 -2.296734
    46 11.809021 -1.206475 0.191726 -0.000002 -0.000003 0.000000
    47 0.598399 -0.643255 -0.162013 0.000000 -1.570796 -0.835635
    48 0.000001 0.000000 0.000002 0.000000 0.000000 0.000000
    49 1.200000 0.000000 0.000000 0.000000 0.000000 0.000000
    50 0.000002 -0.300000 0.000000 3.141593 0.000000 -0.174533
    51 0.000000 0.000000 0.000000 0.000000 0.000000 0.000000
    52 -0.000001 0.000000 0.000000 3.141593 0.000000 0.000000
    53 0.000002 0.000000 0.000000 0.000000 0.000000 0.349066
    54 0.000000 0.000000 0.000000 3.141593 0.000000 0.000000
    55 0.000000 -0.000001 0.000000 3.141593 0.000000 0.000000
    56 0.000001 0.000000 0.000000 3.141593 0.000000 0.000000
    57 0.000000 -0.000001 0.000000 3.141593 0.000000 0.000000
    58 -0.000002 0.000004 0.000000 3.141593 0.000000 0.000000
    59 0.000000 0.000000 0.000000 3.141593 0.000000 0.000000
    60 0.000001 0.000000 0.000000 3.141593 0.000000 0.000000
    61 0.000000 0.000002 0.000000 3.141593 0.000000 0.000000
    62 0.000000 -0.000002 0.000000 3.141593 0.000000 0.000000
    63 0.000001 0.000000 0.000000 3.141593 0.000000 0.000000
    64 0.000000 0.000000 0.000000 3.141593 0.000000 0.000000
    65 0.000000 0.000000 0.000000 -1.570796 0.000000 0.000000
    66 0.000000 0.000000 0.000000 0.000000 0.000000 0.000000
    67 1.200001 0.000000 0.000000 0.000000 0.000000 0.000000
    68 0.000000 0.300000 0.000000 0.000000 0.000000 0.174533
    69 0.000000 0.000000 -0.000001 0.000000 0.000000 0.000000
    70 0.000001 0.000000 0.000000 3.141593 0.000000 0.000000
    71 0.000000 0.000000 0.000000 0.000000 0.000000 0.349066
    72 0.000000 0.000000 0.000000 0.000000 0.000000 0.000000
    73 -0.000001 0.000000 0.000000 0.000000 0.000000 0.000000
    74 0.000001 0.000000 0.000000 0.000000 0.000000 0.000000
    75 0.000000 0.000000 0.000000 0.000000 0.000000 0.000000
    76 0.000000 0.000000 0.000000 0.000000 0.000000 0.000000
    77 0.000000 0.000000 0.000000 0.000000 0.000000 0.000000
    78 -0.000002 -0.000004 0.000000 0.000000 0.000000 0.000000
    79 0.000000 0.000000 0.000000 0.000000 0.000000 0.000000
    80 0.000000 0.000000 0.000000 0.000000 0.000000 0.000000
    81 0.000000 -0.000002 0.000000 0.000000 0.000000 0.000000
    82 -0.000002 -0.000004 0.000000 0.000000 0.000000 0.000000
    83 0.000000 0.000000 0.000002 -1.570796 0.000000 0.000000
  time 12
    0 -5.259791 -15.188523 -6.286089 -1.621241 0.027934 -1.566480
    1 9.243773 6.139962 1.326173 -0.000001 0.000001 -1.570796
    2 3.442229 -1.240687 -0.005672 -0.000002 -0.000003 0.000000
    3 17.667896 -1.384574 1.233112 0.000000 -0.000003 -3.141592
    4 13.081079 -1.084008 0.792839 1.570797 -0.879478 3.141593
    5 0.758734 0.000005 -0.000001 -1.570796 0.000000 -1.124720
    6 12.977262 -1.858502 0.676013 0.518314 -0.428322 -2.516408
    7 0.562690 -0.000008 -0.000004 -0.013014 -0.008068 -0.959463
    8 -3.697522 -24.346160 -8.380334 -3.088807 -1.012579 -0.040505
    9 2.341381 0.000021 0.000003 1.570767 1.242312 -0.000021
    10 0.992117 -20.336528 -10.860766 3.011207 0.034045 -1.677399
    11 1.473660 0.639422 -1.295233 1.873628 0.766144 0.332935
    12 1.832607 0.000002 0.000000 3.135033 0.005416 0.847649
    13 1.003330 0.000000 0.000001 -3.096730 0.121107 0.034165
    14 3.823887 -0.419591 -1.411516 0.069811 0.155294 0.207678
    15 2.187963 0.000000 0.000000 -0.165877 -0.079984 1.419170
    16 1.100956 -0.000003 0.000000 0.087804 -0.052684 -0.184209
    17 3.987879 -0.577436 -0.474708 0.200564 0.169209 0.195927
    18 1.890101 -0.000004 0.000000 -0.153915 -0.042691 1.467087
    19 1.310921 0.000004 0.000000 -0.029744 0.074259 -0.259852
    20 4.117973 -0.654517 0.453699 0.085606 0.094079 0.260908
    21 1.655287 -0.000002 0.000000 -0.029298 -0.049157 1.283729
    22 0.869586 0.000010 0.000000 0.062968 -0.019305 0.011268
    23 4.150644 -0.581580 1.354867 -0.178491 0.129551 0.002327
    24 1.157243 -0.000004 0.000000 0.194856 -0.267831 1.185120
    25 1.019837 -0.000002 0.000000 -1.675160 0.086221 0.371324
    26 3.429456 -5.007721 -5.116617 -1.540593 1.208959 -1.462669
    27 12.695427 0.000001 0.000003 -0.267515 0.293205 -1.735966
    28 -6.000281 -10.279491 -9.641978 3.020686 0.035788 -1.555492
    29 1.474217 -0.497913 -1.376119 1.283317 0.486372 -0.349539
    30 1.832175 -0.000001 0.000001 -2.584602 -0.154291 0.716805
    31 1.042029 0.000000 -0.000003 -2.947217 -0.173397 -0.033767
    32 3.823319 0.664870 -1.331676 0.113621 0.292019 -0.310036
    33 2.152370 0.000002 0.000000 0.048470 -0.257668 -0.122240
    34 1.056622 0.000000 0.000000 0.273381 -0.069621 -0.538018
    35 3.985126 0.881823 -0.368987 0.187095 0.205044 -0.528378
    36 1.830173 0.000000 0.000000 0.310001 -0.029018 -1.518098
    37 1.561352 0.000004 0.000000 0.027387 0.000717 -1.353520
    38 4.116523 0.711290 0.551868 0.372901 0.175501 -0.950874
    39 1.752731 0.000000 0.000000 0.065651 0.077355 -1.199522
    40 0.869359 -0.000002 0.000000 0.010554 -0.055954 -0.881584
    41 4.118825 0.331243 1.419828 0.091712 0.246088 -1.081349
    42 1.176323 -0.000002 0.000000 0.019563 0.360413 -0.780546
    43 0.970202 -0.000002 0.000000 1.685083 0.078276 -1.123286
    44 -9.258431 -0.998731 -5.116617 -3.522307 1.499609 -2.854133
    45 12.706341 0.000001 0.000000 -0.411843 0.227535 -2.288080
    46 11.809021 -1.206475 0.191726 -0.000002 -0.000003 0.000000
    47 0.598399 -0.643255 -0.162013 0.000000 -1.570796 -0.835635
    48 0.000001 0.000000 0.000002 0.000000 0.000000 0.000000
    49 1.200000 0.000000 0.000000 0.000000 0.000000 0.000000
    50 0.000002 -0.300000 0.000000 3.141593 0.000000 -0.174533
    51 0.000000 0.000000 0.000000 0.000000 0.000000 0.000000
    52 -0.000001 0.000000 0.000000 3.141593 0.000000 0.000000
    53 0.000002 0.000000 0.000000 0.000000 0.000000 0.349066
    54 0.000000 0.000000 0.000000 3.141593 0.000000 0.000000
    55 0.000000 -0.000001 0.000000 3.141593 0.000000 0.000000
    56 0.000001 0.000000 0.000000 3.141593 0.000000 0.000000
    57 0.000000 -0.000001 0.000000 3.141593 0.000000 0.000000
    58 -0.000002 0.000004 0.000000 3.141593 0.000000 0.000000
    59 0.000000 0.000000 0.000000 3.141593 0.000000 0.000000
    60 0.000001 0.000000 0.000000 3.141593 0.000000 0.000000
    61 0.000000 0.000002 0.000000 3.141593 0.000000 0.000000
    62 0.000000 -0.000002 0.000000 3.141593 0.000000 0.000000
    63 0.000001 0.000000 0.000000 3.141593 0.000000 0.000000
    64 0.000000 0.000000 0.000000 3.141593 0.000000 0.000000
    65 0.000000 0.000000 0.000000 -1.570796 0.000000 0.000000
    66 0.000000 0.000000 0.000000 0.000000 0.000000 0.000000
    67 1.200001 0.000000 0.000000 0.000000 0.000000 0.000000
    68 0.000000 0.300000 0.000000 0.000000 0.000000 0.174533
    69 0.000000 0.000000 -0.000001 0.000000 0.000000 0.000000
    70 0.000001 0.000000 0.000000 3.141593 0.000000 0.000000
    71 0.000000 0.000000 0.000000 0.000000 0.000000 0.349066
    72 0.000000 0.000000 0.000000 0.000000 0.000000 0.000000
    73 -0.000001 0.000000 0.000000 0.000000 0.000000 0.000000
    74 0.000001 0.000000 0.000000 0.000000 0.000000 0.000000
    75 0.000000 0.000000 0.000000 0.000000 0.000000 0.000000
    76 0.000000 0.000000 0.000000 0.000000 0.000000 0.000000
    77 0.000000 0.000000 0.000000 0.000000 0.000000 0.000000
    78 -0.000002 -0.000004 0.000000 0.000000 0.000000 0.000000
    79 0.000000 0.000000 0.000000 0.000000 0.000000 0.000000
    80 0.000000 0.000000 0.000000 0.000000 0.000000 0.000000
    81 0.000000 -0.000002 0.000000 0.000000 0.000000 0.000000
    82 -0.000002 -0.000004 0.000000 0.000000 0.000000 0.000000
    83 0.000000 0.000000 0.000002 -1.570796 0.000000 0.000000
  time 13
    0 -5.275417 -15.188523 -6.282182 -1.602048 0.016500 -1.568380
    1 9.243773 6.139962 1.326173 -0.000001 0.000001 -1.570796
    2 3.442229 -1.240687 -0.005672 -0.000002 -0.000003 0.000000
    3 17.667896 -1.384574 1.233112 0.000000 -0.000003 -3.141592
    4 13.081079 -1.084008 0.792839 1.570797 -0.879478 3.141593
    5 0.758734 0.000005 -0.000001 -1.570796 0.000000 -1.124720
    6 12.977262 -1.858502 0.676013 0.518314 -0.428322 -2.516408
    7 0.562690 -0.000008 -0.000004 -0.013014 -0.008068 -0.959463
    8 -3.697522 -24.377411 -8.243611 -3.109462 -1.032198 -0.025162
    9 2.341381 0.000021 0.000003 1.570767 1.242312 -0.000021
    10 1.054619 -20.402936 -10.681073 3.031547 0.024792 -1.679129
    11 1.473660 0.639422 -1.295233 1.873628 0.766132 0.332935
    12 1.832607 0.000002 0.000000 3.135033 0.005416 0.847649
    13 1.003330 0.000000 0.000001 -3.096730 0.121107 0.034165
    14 3.823887 -0.419591 -1.411516 0.069811 0.155294 0.207678
    15 2.187963 0.000000 0.000000 -0.165877 -0.079984 1.419170
    16 1.100956 -0.000003 0.000000 0.087804 -0.052684 -0.184209
    17 3.987879 -0.577436 -0.474708 0.200564 0.169209 0.195927
    18 1.890101 -0.000004 0.000000 -0.153915 -0.042691 1.467087
    19 1.310921 0.000004 0.000000 -0.029744 0.074259 -0.259852
    20 4.117973 -0.654517 0.453699 0.085606 0.094079 0.260908
    21 1.655287 -0.000002 0.000000 -0.029298 -0.049157 1.283729
    22 0.869586 0.000010 0.000000 0.062968 -0.019305 0.011268
    23 4.150644 -0.581580 1.354867 -0.178491 0.129551 0.002327
    24 1.157243 -0.000004 0.000000 0.194856 -0.267831 1.185120
    25 1.019837 -0.000002 0.000000 -1.675160 0.086221 0.371324
    26 3.429456 -5.007721 -5.116617 -1.552255 1.198686 -1.468698
    27 12.695427 0.000001 0.000003 -0.267759 0.293169 -1.736835
    28 -5.937779 -10.318555 -9.716199 3.039774 0.024137 -1.557330
    29 1.474217 -0.497913 -1.376119 1.283317 0.486372 -0.349539
    30 1.832175 -0.000001 0.000001 -2.584602 -0.154291 0.716805
    31 1.042029 0.000000 -0.000003 -2.947217 -0.173397 -0.033767
    32 3.823319 0.664870 -1.331676 0.113621 0.292019 -0.310036
    33 2.152370 0.000002 0.000000 0.048470 -0.257668 -0.122240
    34 1.056622 0.000000 0.000000 0.273381 -0.069621 -0.538018
    35 3.985126 0.881823 -0.368987 0.187095 0.205044 -0.528378
    36 1.830173 0.000000 0.000000 0.310001 -0.029018 -1.518098
    37 1.561352 0.000004 0.000000 0.027387 0.000717 -1.353520
    38 4.116523 0.711290 0.551868 0.372901 0.175501 -0.950874
    39 1.752731 0.000000 0.000000 0.065651 0.077355 -1.199522
    40 0.869359 -0.000002 0.000000 0.010554 -0.055954 -0.881584
    41 4.118825 0.331243 1.419828 0.091712 0.246088 -1.081349
    42 1.176323 -0.000002 0.000000 0.019563 0.360413 -0.780546
    43 0.970202 -0.000002 0.000000 1.685083 0.078276 -1.123286
    44 -9.258431 -0.998731 -5.116617 -3.516370 1.491601 -2.839631
    45 12.706341 0.000001 0.000000 -0.410249 0.228853 -2.281187
    46 11.809021 -1.206475 0.191726 -0.000002 -0.000003 0.000000
    47 0.598399 -0.643255 -0.162013 0.000000 -1.570796 -0.835635
    48 0.000001 0.000000 0.000002 0.000000 0.000000 0.000000
    49 1.200000 0.000000 0.000000 0.000000 0.000000 0.000000
    50 0.000002 -0.300000 0.000000 3.141593 0.000000 -0.174533
    51 0.000000 0.000000 0.000000 0.000000 0.000000 0.000000
    52 -0.000001 0.000000 0.000000 3.141593 0.000000 0.000000
    53 0.000002 0.000000 0.000000 0.000000 0.000000 0.349066
    54 0.000000 0.000000 0.000000 3.141593 0.000000 0.000000
    55 0.000000 -0.000001 0.000000 3.141593 0.000000 0.000000
    56 0.000001 0.000000 0.000000 3.141593 0.000000 0.000000
    57 0.000000 -0.000001 0.000000 3.141593 0.000000 0.000000
    58 -0.000002 0.000004 0.000000 3.141593 0.000000 0.000000
    59 0.000000 0.000000 0.000000 3.141593 0.000000 0.000000
    60 0.000001 0.000000 0.000000 3.141593 0.000000 0.000000
    61 0.000000 0.000002 0.000000 3.141593 0.000000 0.000000
    62 0.000000 -0.000002 0.000000 3.141593 0.000000 0.000000
    63 0.000001 0.000000 0.000000 3.141593 0.000000 0.000000
    64 0.000000 0.000000 0.000000 3.141593 0.000000 0.000000
    65 0.000000 0.000000 0.000000 -1.570796 0.000000 0.000000
    66 0.000000 0.000000 0.000000 0.000000 0.000000 0.000000
    67 1.200001 0.000000 0.000000 0.000000 0.000000 0.000000
    68 0.000000 0.300000 0.000000 0.000000 0.000000 0.174533
    69 0.000000 0.000000 -0.000001 0.000000 0.000000 0.000000
    70 0.000001 0.000000 0.000000 3.141593 0.000000 0.000000
    71 0.000000 0.000000 0.000000 0.000000 0.000000 0.349066
    72 0.000000 0.000000 0.000000 0.000000 0.000000 0.000000
    73 -0.000001 0.000000 0.000000 0.000000 0.000000 0.000000
    74 0.000001 0.000000 0.000000 0.000000 0.000000 0.000000
    75 0.000000 0.000000 0.000000 0.000000 0.000000 0.000000
    76 0.000000 0.000000 0.000000 0.000000 0.000000 0.000000
    77 0.000000 0.000000 0.000000 0.000000 0.000000 0.000000
    78 -0.000002 -0.000004 0.000000 0.000000 0.000000 0.000000
    79 0.000000 0.000000 0.000000 0.000000 0.000000 0.000000
    80 0.000000 0.000000 0.000000 0.000000 0.000000 0.000000
    81 0.000000 -0.000002 0.000000 0.000000 0.000000 0.000000
    82 -0.000002 -0.000004 0.000000 0.000000 0.000000 0.000000
    83 0.000000 0.000000 0.000002 -1.570796 0.000000 0.000000
  time 14
    0 -5.283230 -15.192429 -6.282182 -1.586686 0.007881 -1.569837
    1 9.243773 6.139962 1.326173 -0.000001 0.000001 -1.570796
    2 3.442229 -1.240687 -0.005672 -0.000002 -0.000003 0.000000
    3 17.667896 -1.384574 1.233112 0.000000 -0.000003 -3.141592
    4 13.081079 -1.084008 0.792839 1.570797 -0.879478 3.141593
    5 0.758734 0.000005 -0.000001 -1.570796 0.000000 -1.124720
    6 12.977262 -1.858502 0.676013 0.518314 -0.428322 -2.516408
    7 0.562690 -0.000008 -0.000004 -0.013014 -0.008068 -0.959463
    8 -3.701428 -24.396943 -8.145952 -3.125814 -1.047705 -0.012644
    9 2.341381 0.000021 0.000003 1.570767 1.242312 -0.000021
    10 1.089776 -20.449813 -10.540444 3.047745 0.017952 -1.680441
    11 1.473660 0.639422 -1.295233 1.873628 0.766144 0.332935
    12 1.832607 0.000002 0.000000 3.135033 0.005416 0.847649
    13 1.003330 0.000000 0.000001 -3.096730 0.121107 0.034165
    14 3.823887 -0.419591 -1.411516 0.069811 0.155294 0.207678
    15 2.187963 0.000000 0.000000 -0.165877 -0.079984 1.419170
    16 1.100956 -0.000003 0.000000 0.087804 -0.052684 -0.184209
    17 3.987879 -0.577436 -0.474708 0.200564 0.169209 0.195927
    18 1.890101 -0.000004 0.000000 -0.153915 -0.042691 1.467087
    19 1.310921 0.000004 0.000000 -0.029744 0.074259 -0.259852
    20 4.117973 -0.654517 0.453699 0.085606 0.094079 0.260908
    21 1.655287 -0.000002 0.000000 -0.029298 -0.049157 1.283729
    22 0.869586 0.000010 0.000000 0.062968 -0.019305 0.011268
    23 4.150644 -0.581580 1.354867 -0.178491 0.129551 0.002327
    24 1.157243 -0.000004 0.000000 0.194856 -0.267831 1.185120
    25 1.019837 -0.000002 0.000000 -1.675160 0.086221 0.371324
    26 3.429456 -5.007721 -5.116617 -1.559601 1.190226 -1.472352
    27 12.695427 0.000001 0.000003 -0.267888 0.293145 -1.737169
    28 -5.898715 -10.353712 -9.766982 3.055025 0.015359 -1.558661
    29 1.474217 -0.497913 -1.376119 1.283317 0.486372 -0.349539
    30 1.832175 -0.000001 0.000001 -2.584602 -0.154291 0.716805
    31 1.042029 0.000000 -0.000003 -2.947217 -0.173397 -0.033767
    32 3.823319 0.664870 -1.331676 0.113621 0.292019 -0.310036
    33 2.152370 0.000002 0.000000 0.048470 -0.257668 -0.122240
    34 1.056622 0.000000 0.000000 0.273381 -0.069621 -0.538018
    35 3.985126 0.881823 -0.368987 0.187095 0.205044 -0.528378
    36 1.830173 0.000000 0.000000 0.310001 -0.029018 -1.518098
    37 1.561352 0.000004 0.000000 0.027387 0.000717 -1.353520
    38 4.116523 0.711290 0.551868 0.372901 0.175501 -0.950874
    39 1.752731 0.000000 0.000000 0.065651 0.077355 -1.199522
    40 0.869359 -0.000002 0.000000 0.010554 -0.055954 -0.881584
    41 4.118825 0.331243 1.419828 0.091712 0.246088 -1.081349
    42 1.176323 -0.000002 0.000000 0.019563 0.360413 -0.780546
    43 0.970202 -0.000002 0.000000 1.685083 0.078276 -1.123286
    44 -9.258431 -0.998731 -5.116617 -3.511103 1.486625 -2.829020
    45 12.706341 0.000001 0.000000 -0.409000 0.229908 -2.275750
    46 11.809021 -1.206475 0.191726 -0.000002 -0.000003 0.000000
    47 0.598399 -0.643255 -0.162013 0.000000 -1.570796 -0.835635
    48 0.000001 0.000000 0.000002 0.000000 0.000000 0.000000
    49 1.200000 0.000000 0.000000 0.000000 0.000000 0.000000
    50 0.000002 -0.300000 0.000000 3.141593 0.000000 -0.174533
    51 0.000000 0.000000 0.000000 0.000000 0.000000 0.000000
    52 -0.000001 0.000000 0.000000 3.141593 0.000000 0.000000
    53 0.000002 0.000000 0.000000 0.000000 0.000000 0.349066
    54 0.000000 0.000000 0.000000 3.141593 0.000000 0.000000
    55 0.000000 -0.000001 0.000000 3.141593 0.000000 0.000000
    56 0.000001 0.000000 0.000000 3.141593 0.000000 0.000000
    57 0.000000 -0.000001 0.000000 3.141593 0.000000 0.000000
    58 -0.000002 0.000004 0.000000 3.141593 0.000000 0.000000
    59 0.000000 0.000000 0.000000 3.141593 0.000000 0.000000
    60 0.000001 0.000000 0.000000 3.141593 0.000000 0.000000
    61 0.000000 0.000002 0.000000 3.141593 0.000000 0.000000
    62 0.000000 -0.000002 0.000000 3.141593 0.000000 0.000000
    63 0.000001 0.000000 0.000000 3.141593 0.000000 0.000000
    64 0.000000 0.000000 0.000000 3.141593 0.000000 0.000000
    65 0.000000 0.000000 0.000000 -1.570796 0.000000 0.000000
    66 0.000000 0.000000 0.000000 0.000000 0.000000 0.000000
    67 1.200001 0.000000 0.000000 0.000000 0.000000 0.000000
    68 0.000000 0.300000 0.000000 0.000000 0.000000 0.174533
    69 0.000000 0.000000 -0.000001 0.000000 0.000000 0.000000
    70 0.000001 0.000000 0.000000 3.141593 0.000000 0.000000
    71 0.000000 0.000000 0.000000 0.000000 0.000000 0.349066
    72 0.000000 0.000000 0.000000 0.000000 0.000000 0.000000
    73 -0.000001 0.000000 0.000000 0.000000 0.000000 0.000000
    74 0.000001 0.000000 0.000000 0.000000 0.000000 0.000000
    75 0.000000 0.000000 0.000000 0.000000 0.000000 0.000000
    76 0.000000 0.000000 0.000000 0.000000 0.000000 0.000000
    77 0.000000 0.000000 0.000000 0.000000 0.000000 0.000000
    78 -0.000002 -0.000004 0.000000 0.000000 0.000000 0.000000
    79 0.000000 0.000000 0.000000 0.000000 0.000000 0.000000
    80 0.000000 0.000000 0.000000 0.000000 0.000000 0.000000
    81 0.000000 -0.000002 0.000000 0.000000 0.000000 0.000000
    82 -0.000002 -0.000004 0.000000 0.000000 0.000000 0.000000
    83 0.000000 0.000000 0.000002 -1.570796 0.000000 0.000000
  time 15
    0 -5.302761 -15.196336 -6.282182 -1.576703 0.002674 -1.570597
    1 9.243773 6.139962 1.326173 -0.000001 0.000001 -1.570796
    2 3.442229 -1.240687 -0.005672 -0.000002 -0.000003 0.000000
    3 17.667896 -1.384574 1.233112 0.000000 -0.000003 -3.141592
    4 13.081079 -1.084008 0.792839 1.570797 -0.879478 3.141593
    5 0.758734 0.000005 -0.000001 -1.570796 0.000000 -1.124720
    6 12.977262 -1.858502 0.676013 0.518314 -0.428322 -2.516408
    7 0.562690 -0.000008 -0.000004 -0.013014 -0.008068 -0.959463
    8 -3.713147 -24.416475 -8.071731 -3.136141 -1.057750 -0.004549
    9 2.341381 0.000021 0.000003 1.570767 1.242312 -0.000021
    10 1.105402 -20.492783 -10.442784 3.058264 0.013868 -1.681157
    11 1.473660 0.639422 -1.295233 1.873628 0.766132 0.332935
    12 1.832607 0.000002 0.000000 3.135033 0.005416 0.847649
    13 1.003330 0.000000 0.000001 -3.096730 0.121107 0.034165
    14 3.823887 -0.419591 -1.411516 0.069811 0.155294 0.207678
    15 2.187963 0.000000 0.000000 -0.165877 -0.079984 1.419170
    16 1.100956 -0.000003 0.000000 0.087804 -0.052684 -0.184209
    17 3.987879 -0.577436 -0.474708 0.200564 0.169209 0.195927
    18 1.890101 -0.000004 0.000000 -0.153915 -0.042691 1.467087
    19 1.310921 0.000004 0.000000 -0.029744 0.074259 -0.259852
    20 4.117973 -0.654517 0.453699 0.085606 0.094079 0.260908
    21 1.655287 -0.000002 0.000000 -0.029298 -0.049157 1.283729
    22 0.869586 0.000010 0.000000 0.062968 -0.019305 0.011268
    23 4.150644 -0.581580 1.354867 -0.178491 0.129551 0.002327
    24 1.157243 -0.000004 0.000000 0.194856 -0.267831 1.185120
    25 1.019837 -0.000002 0.000000 -1.675160 0.086221 0.371324
    26 3.429456 -5.007721 -5.116617 -1.563091 1.184571 -1.474179
    27 12.695427 0.000001 0.000003 -0.267945 0.293133 -1.737437
    28 -5.879184 -10.377150 -9.790420 3.064950 0.010036 -1.559358
    29 1.474217 -0.497913 -1.376119 1.283317 0.486372 -0.349539
    30 1.832175 -0.000001 0.000001 -2.584602 -0.154291 0.716805
    31 1.042029 0.000000 -0.000003 -2.947217 -0.173397 -0.033767
    32 3.823319 0.664870 -1.331676 0.113621 0.292019 -0.310036
    33 2.152370 0.000002 0.000000 0.048470 -0.257668 -0.122240
    34 1.056622 0.000000 0.000000 0.273381 -0.069621 -0.537984
    35 3.985126 0.881823 -0.368987 0.187095 0.205044 -0.528378
    36 1.830173 0.000000 0.000000 0.310001 -0.029018 -1.518098
    37 1.561352 0.000004 0.000000 0.027387 0.000717 -1.353520
    38 4.116523 0.711290 0.551868 0.372901 0.175501 -0.950874
    39 1.752731 0.000000 0.000000 0.065651 0.077355 -1.199522
    40 0.869359 -0.000002 0.000000 0.010554 -0.055954 -0.881584
    41 4.118825 0.331243 1.419828 0.091712 0.246088 -1.081349
    42 1.176323 -0.000002 0.000000 0.019563 0.360413 -0.780546
    43 0.970202 -0.000002 0.000000 1.685083 0.078276 -1.123286
    44 -9.258431 -0.998731 -5.116617 -3.507560 1.484589 -2.823449
    45 12.706341 0.000001 0.000000 -0.408244 0.230531 -2.272457
    46 11.809021 -1.206475 0.191726 -0.000002 -0.000003 0.000000
    47 0.598399 -0.643255 -0.162013 0.000000 -1.570796 -0.835635
    48 0.000001 0.000000 0.000002 0.000000 0.000000 0.000000
    49 1.200000 0.000000 0.000000 0.000000 0.000000 0.000000
    50 0.000002 -0.300000 0.000000 3.141593 0.000000 -0.174533
    51 0.000000 0.000000 0.000000 0.000000 0.000000 0.000000
    52 -0.000001 0.000000 0.000000 3.141593 0.000000 0.000000
    53 0.000002 0.000000 0.000000 0.000000 0.000000 0.349066
    54 0.000000 0.000000 0.000000 3.141593 0.000000 0.000000
    55 0.000000 -0.000001 0.000000 3.141593 0.000000 0.000000
    56 0.000001 0.000000 0.000000 3.141593 0.000000 0.000000
    57 0.000000 -0.000001 0.000000 3.141593 0.000000 0.000000
    58 -0.000002 0.000004 0.000000 3.141593 0.000000 0.000000
    59 0.000000 0.000000 0.000000 3.141593 0.000000 0.000000
    60 0.000001 0.000000 0.000000 3.141593 0.000000 0.000000
    61 0.000000 0.000002 0.000000 3.141593 0.000000 0.000000
    62 0.000000 -0.000002 0.000000 3.141593 0.000000 0.000000
    63 0.000001 0.000000 0.000000 3.141593 0.000000 0.000000
    64 0.000000 0.000000 0.000000 3.141593 0.000000 0.000000
    65 0.000000 0.000000 0.000000 -1.570796 0.000000 0.000000
    66 0.000000 0.000000 0.000000 0.000000 0.000000 0.000000
    67 1.200001 0.000000 0.000000 0.000000 0.000000 0.000000
    68 0.000000 0.300000 0.000000 0.000000 0.000000 0.174533
    69 0.000000 0.000000 -0.000001 0.000000 0.000000 0.000000
    70 0.000001 0.000000 0.000000 3.141593 0.000000 0.000000
    71 0.000000 0.000000 0.000000 0.000000 0.000000 0.349066
    72 0.000000 0.000000 0.000000 0.000000 0.000000 0.000000
    73 -0.000001 0.000000 0.000000 0.000000 0.000000 0.000000
    74 0.000001 0.000000 0.000000 0.000000 0.000000 0.000000
    75 0.000000 0.000000 0.000000 0.000000 0.000000 0.000000
    76 0.000000 0.000000 0.000000 0.000000 0.000000 0.000000
    77 0.000000 0.000000 0.000000 0.000000 0.000000 0.000000
    78 -0.000002 -0.000004 0.000000 0.000000 0.000000 0.000000
    79 0.000000 0.000000 0.000000 0.000000 0.000000 0.000000
    80 0.000000 0.000000 0.000000 0.000000 0.000000 0.000000
    81 0.000000 -0.000002 0.000000 0.000000 0.000000 0.000000
    82 -0.000002 -0.000004 0.000000 0.000000 0.000000 0.000000
    83 0.000000 0.000000 0.000002 -1.570796 0.000000 0.000000
  time 16
    0 -5.318387 -15.204148 -6.282182 -1.571963 0.000475 -1.570914
    1 9.243773 6.139962 1.326173 -0.000001 0.000001 -1.570796
    2 3.442229 -1.240687 -0.005672 -0.000002 -0.000003 0.000000
    3 17.667896 -1.384574 1.233112 0.000000 -0.000003 -3.141592
    4 13.081079 -1.084008 0.792839 1.570797 -0.879478 3.141593
    5 0.758734 0.000005 -0.000001 -1.570796 0.000000 -1.124720
    6 12.977262 -1.858502 0.676013 0.518314 -0.428322 -2.516408
    7 0.562690 -0.000008 -0.000004 -0.013014 -0.008068 -0.959463
    8 -3.720960 -24.424288 -8.052199 -3.140731 -1.062474 -0.000878
    9 2.341381 0.000021 0.000003 1.570767 1.242312 -0.000021
    10 1.109308 -20.508408 -10.403721 3.063291 0.012197 -1.681336
    11 1.473660 0.639422 -1.295233 1.873628 0.766132 0.332935
    12 1.832607 0.000002 0.000000 3.135033 0.005416 0.847649
    13 1.003330 0.000000 0.000001 -3.096730 0.121107 0.034165
    14 3.823887 -0.419591 -1.411516 0.069811 0.155294 0.207678
    15 2.187963 0.000000 0.000000 -0.165877 -0.079984 1.419170
    16 1.100956 -0.000003 0.000000 0.087804 -0.052684 -0.184209
    17 3.987879 -0.577436 -0.474708 0.200564 0.169209 0.195927
    18 1.890101 -0.000004 0.000000 -0.153915 -0.042691 1.467087
    19 1.310921 0.000004 0.000000 -0.029744 0.074259 -0.259852
    20 4.117973 -0.654517 0.453699 0.085606 0.094079 0.260908
    21 1.655287 -0.000002 0.000000 -0.029298 -0.049157 1.283729
    22 0.869586 0.000010 0.000000 0.062968 -0.019305 0.011268
    23 4.150644 -0.581580 1.354867 -0.178491 0.129551 0.002327
    24 1.157243 -0.000004 0.000000 0.194856 -0.267831 1.185120
    25 1.019837 -0.000002 0.000000 -1.675160 0.086221 0.371324
    26 3.429456 -5.007721 -5.116617 -1.563825 1.181852 -1.474818
    27 12.695427 0.000001 0.000003 -0.267931 0.293145 -1.737437
    28 -5.879184 -10.388870 -9.813858 3.069673 0.007780 -1.559548
    29 1.474217 -0.497913 -1.376119 1.283317 0.486372 -0.349539
    30 1.832175 -0.000001 0.000001 -2.584602 -0.154291 0.716805
    31 1.042029 0.000000 -0.000003 -2.947217 -0.173397 -0.033767
    32 3.823319 0.664870 -1.331676 0.113621 0.292019 -0.310036
    33 2.152370 0.000002 0.000000 0.048470 -0.257668 -0.122240
    34 1.056622 0.000000 0.000000 0.273381 -0.069621 -0.538018
    35 3.985126 0.881823 -0.368987 0.187095 0.205044 -0.528378
    36 1.830173 0.000000 0.000000 0.310001 -0.029018 -1.518098
    37 1.561352 0.000004 0.000000 0.027387 0.000717 -1.353520
    38 4.116523 0.711290 0.551868 0.372901 0.175501 -0.950874
    39 1.752731 0.000000 0.000000 0.065651 0.077355 -1.199522
    40 0.869359 -0.000002 0.000000 0.010554 -0.055954 -0.881584
    41 4.118825 0.331243 1.419828 0.091712 0.246088 -1.081349
    42 1.176323 -0.000002 0.000000 0.019563 0.360413 -0.780546
    43 0.970202 -0.000002 0.000000 1.685083 0.078276 -1.123286
    44 -9.258431 -0.998731 -5.116617 -3.506123 1.484318 -2.821946
    45 12.706341 0.000001 0.000000 -0.407932 0.230807 -2.270925
    46 11.809021 -1.206475 0.191726 -0.000002 -0.000003 0.000000
    47 0.598399 -0.643255 -0.162013 0.000000 -1.570796 -0.835635
    48 0.000001 0.000000 0.000002 0.000000 0.000000 0.000000
    49 1.200000 0.000000 0.000000 0.000000 0.000000 0.000000
    50 0.000002 -0.300000 0.000000 3.141593 0.000000 -0.174533
    51 0.000000 0.000000 0.000000 0.000000 0.000000 0.000000
    52 -0.000001 0.000000 0.000000 3.141593 0.000000 0.000000
    53 0.000002 0.000000 0.000000 0.000000 0.000000 0.349066
    54 0.000000 0.000000 0.000000 3.141593 0.000000 0.000000
    55 0.000000 -0.000001 0.000000 3.141593 0.000000 0.000000
    56 0.000001 0.000000 0.000000 3.141593 0.000000 0.000000
    57 0.000000 -0.000001 0.000000 3.141593 0.000000 0.000000
    58 -0.000002 0.000004 0.000000 3.141593 0.000000 0.000000
    59 0.000000 0.000000 0.000000 3.141593 0.000000 0.000000
    60 0.000001 0.000000 0.000000 3.141593 0.000000 0.000000
    61 0.000000 0.000002 0.000000 3.141593 0.000000 0.000000
    62 0.000000 -0.000002 0.000000 3.141593 0.000000 0.000000
    63 0.000001 0.000000 0.000000 3.141593 0.000000 0.000000
    64 0.000000 0.000000 0.000000 3.141593 0.000000 0.000000
    65 0.000000 0.000000 0.000000 -1.570796 0.000000 0.000000
    66 0.000000 0.000000 0.000000 0.000000 0.000000 0.000000
    67 1.200001 0.000000 0.000000 0.000000 0.000000 0.000000
    68 0.000000 0.300000 0.000000 0.000000 0.000000 0.174533
    69 0.000000 0.000000 -0.000001 0.000000 0.000000 0.000000
    70 0.000001 0.000000 0.000000 3.141593 0.000000 0.000000
    71 0.000000 0.000000 0.000000 0.000000 0.000000 0.349066
    72 0.000000 0.000000 0.000000 0.000000 0.000000 0.000000
    73 -0.000001 0.000000 0.000000 0.000000 0.000000 0.000000
    74 0.000001 0.000000 0.000000 0.000000 0.000000 0.000000
    75 0.000000 0.000000 0.000000 0.000000 0.000000 0.000000
    76 0.000000 0.000000 0.000000 0.000000 0.000000 0.000000
    77 0.000000 0.000000 0.000000 0.000000 0.000000 0.000000
    78 -0.000002 -0.000004 0.000000 0.000000 0.000000 0.000000
    79 0.000000 0.000000 0.000000 0.000000 0.000000 0.000000
    80 0.000000 0.000000 0.000000 0.000000 0.000000 0.000000
    81 0.000000 -0.000002 0.000000 0.000000 0.000000 0.000000
    82 -0.000002 -0.000004 0.000000 0.000000 0.000000 0.000000
    83 0.000000 0.000000 0.000002 -1.570796 0.000000 0.000000
  time 17
    0 -5.326200 -15.204148 -6.282182 -1.570796 0.000000 -1.570914
    1 9.243773 6.139962 1.326173 -0.000001 0.000001 -1.570796
    2 3.442229 -1.240687 -0.005672 -0.000002 -0.000003 0.000000
    3 17.667896 -1.384574 1.233112 0.000000 -0.000003 -3.141592
    4 13.081079 -1.084008 0.792839 1.570797 -0.879478 3.141593
    5 0.758734 0.000005 -0.000001 -1.570796 0.000000 -1.124720
    6 12.977262 -1.858502 0.676013 0.518314 -0.428322 -2.516408
    7 0.562690 -0.000008 -0.000004 -0.013014 -0.008068 -0.959463
    8 -3.724866 -24.428194 -8.036573 -3.141592 -1.063636 -0.000031
    9 2.341381 0.000021 0.000003 1.570767 1.242312 -0.000021
    10 1.109308 -20.508408 -10.395908 3.064408 0.011835 -1.681336
    11 1.473660 0.639422 -1.295233 1.873628 0.766132 0.332935
    12 1.832607 0.000002 0.000000 3.135033 0.005416 0.847649
    13 1.003330 0.000000 0.000001 -3.096730 0.121107 0.034165
    14 3.823887 -0.419591 -1.411516 0.069811 0.155294 0.207678
    15 2.187963 0.000000 0.000000 -0.165877 -0.079984 1.419170
    16 1.100956 -0.000003 0.000000 0.087804 -0.052684 -0.184209
    17 3.987879 -0.577436 -0.474708 0.200564 0.169209 0.195927
    18 1.890101 -0.000004 0.000000 -0.153915 -0.042691 1.467087
    19 1.310921 0.000004 0.000000 -0.029744 0.074259 -0.259852
    20 4.117973 -0.654517 0.453699 0.085606 0.094079 0.260908
    21 1.655287 -0.000002 0.000000 -0.029298 -0.049157 1.283729
    22 0.869586 0.000010 0.000000 0.062968 -0.019305 0.011268
    23 4.150644 -0.581580 1.354867 -0.178491 0.129551 0.002327
    24 1.157243 -0.000004 0.000000 0.194856 -0.267831 1.185120
    25 1.019837 -0.000002 0.000000 -1.675160 0.086221 0.371324
    26 3.429456 -5.007721 -5.116617 -1.564101 1.181161 -1.475001
    27 12.695427 0.000001 0.000003 -0.267931 0.293145 -1.737236
    28 -5.879184 -10.392776 -9.813858 3.070817 0.007286 -1.559548
    29 1.474217 -0.497913 -1.376119 1.283317 0.486372 -0.349539
    30 1.832175 -0.000001 0.000001 -2.584602 -0.154291 0.716805
    31 1.042029 0.000000 -0.000003 -2.947217 -0.173397 -0.033767
    32 3.823319 0.664870 -1.331676 0.113621 0.292019 -0.310036
    33 2.152370 0.000002 0.000000 0.048470 -0.257668 -0.122240
    34 1.056622 0.000000 0.000000 0.273381 -0.069621 -0.538018
    35 3.985126 0.881823 -0.368987 0.187095 0.205044 -0.528378
    36 1.830173 0.000000 0.000000 0.310001 -0.029018 -1.518098
    37 1.561352 0.000004 0.000000 0.027387 0.000717 -1.353520
    38 4.116523 0.711290 0.551868 0.372901 0.175501 -0.950874
    39 1.752731 0.000000 0.000000 0.065651 0.077355 -1.199522
    40 0.869359 -0.000002 0.000000 0.010554 -0.055954 -0.881584
    41 4.118825 0.331243 1.419828 0.091712 0.246088 -1.081349
    42 1.176323 -0.000002 0.000000 0.019563 0.360413 -0.780546
    43 0.970202 -0.000002 0.000000 1.685083 0.078276 -1.123286
    44 -9.258431 -0.998731 -5.116617 -3.505836 1.484498 -2.821946
    45 12.706341 0.000001 0.000000 -0.407850 0.230842 -2.270619
    46 11.809021 -1.206475 0.191726 -0.000002 -0.000003 0.000000
    47 0.598399 -0.643255 -0.162013 0.000000 -1.570796 -0.835635
    48 0.000001 0.000000 0.000002 0.000000 0.000000 0.000000
    49 1.200000 0.000000 0.000000 0.000000 0.000000 0.000000
    50 0.000002 -0.300000 0.000000 3.141593 0.000000 -0.174533
    51 0.000000 0.000000 0.000000 0.000000 0.000000 0.000000
    52 -0.000001 0.000000 0.000000 3.141593 0.000000 0.000000
    53 0.000002 0.000000 0.000000 0.000000 0.000000 0.349066
    54 0.000000 0.000000 0.000000 3.141593 0.000000 0.000000
    55 0.000000 -0.000001 0.000000 3.141593 0.000000 0.000000
    56 0.000001 0.000000 0.000000 3.141593 0.000000 0.000000
    57 0.000000 -0.000001 0.000000 3.141593 0.000000 0.000000
    58 -0.000002 0.000004 0.000000 3.141593 0.000000 0.000000
    59 0.000000 0.000000 0.000000 3.141593 0.000000 0.000000
    60 0.000001 0.000000 0.000000 3.141593 0.000000 0.000000
    61 0.000000 0.000002 0.000000 3.141593 0.000000 0.000000
    62 0.000000 -0.000002 0.000000 3.141593 0.000000 0.000000
    63 0.000001 0.000000 0.000000 3.141593 0.000000 0.000000
    64 0.000000 0.000000 0.000000 3.141593 0.000000 0.000000
    65 0.000000 0.000000 0.000000 -1.570796 0.000000 0.000000
    66 0.000000 0.000000 0.000000 0.000000 0.000000 0.000000
    67 1.200001 0.000000 0.000000 0.000000 0.000000 0.000000
    68 0.000000 0.300000 0.000000 0.000000 0.000000 0.174533
    69 0.000000 0.000000 -0.000001 0.000000 0.000000 0.000000
    70 0.000001 0.000000 0.000000 3.141593 0.000000 0.000000
    71 0.000000 0.000000 0.000000 0.000000 0.000000 0.349066
    72 0.000000 0.000000 0.000000 0.000000 0.000000 0.000000
    73 -0.000001 0.000000 0.000000 0.000000 0.000000 0.000000
    74 0.000001 0.000000 0.000000 0.000000 0.000000 0.000000
    75 0.000000 0.000000 0.000000 0.000000 0.000000 0.000000
    76 0.000000 0.000000 0.000000 0.000000 0.000000 0.000000
    77 0.000000 0.000000 0.000000 0.000000 0.000000 0.000000
    78 -0.000002 -0.000004 0.000000 0.000000 0.000000 0.000000
    79 0.000000 0.000000 0.000000 0.000000 0.000000 0.000000
    80 0.000000 0.000000 0.000000 0.000000 0.000000 0.000000
    81 0.000000 -0.000002 0.000000 0.000000 0.000000 0.000000
    82 -0.000002 -0.000004 0.000000 0.000000 0.000000 0.000000
    83 0.000000 0.000000 0.000002 -1.570796 0.000000 0.000000
end
