// Created by Crowbar 0.56
version 1
nodes
  0 "Bip01" -1
  1 "Bip01 Pelvis" 0
  2 "Bip01 L Thigh" 1
  3 "Bip01 L Calf" 2
  4 "Bip01 L Foot" 3
  5 "Bip01 R Thigh" 1
  6 "Bip01 R Calf" 5
  7 "Bip01 R Foot" 6
  8 "Bip01 Spine" 1
  9 "Bip01 Spine1" 8
  10 "Armour Front" 8
  11 "Armour Back" 8
  12 "Holster" 1
  13 "Bip01 Neck" 9
  14 "Bip01 R Clavicle" 13
  15 "Bip01 R UpperArm" 14
  16 "Bip01 R Forearm" 15
  17 "Bip01 R Hand" 16
  18 "Bip01 R Finger0" 17
  19 "Bip01 R Finger01" 18
  20 "Bip01 R Finger1" 17
  21 "Bip01 R Finger11" 20
  22 "Bip01 R Finger12" 21
  23 "Bip01 R Finger2" 17
  24 "Bip01 R Finger21" 23
  25 "Bip01 R Finger22" 24
  26 "Bip01 R Finger4" 17
  27 "Bip01 L Clavicle" 13
  28 "Bip01 L UpperArm" 27
  29 "Bip01 L Forearm" 28
  30 "Bip01 L Hand" 29
  31 "Bip01 L Finger0" 30
  32 "Bip01 L Finger01" 31
  33 "Bip01 L Finger02" 32
  34 "Bip01 L Finger1" 30
  35 "Bip01 L Finger11" 34
  36 "Bip01 L Finger12" 35
  37 "Bip01 L Finger2" 30
  38 "Bip01 L Finger21" 37
  39 "Bip01 L Finger22" 38
  40 "Bip01 L Finger3" 30
  41 "Bip01 L Finger31" 40
  42 "Bip01 L Finger32" 41
  43 "Bip01 L Finger4" 30
  44 "Bip01 L Finger41" 43
  45 "Bip01 L Finger42" 44
  46 "Bip01 R Finger02" 19
  47 "Bip01 R Finger3" 17
  48 "Bip01 R Finger31" 47
  49 "Bip01 R Finger32" 48
  50 "Bip01 R Finger41" 26
  51 "Bip01 R Finger42" 50
  52 "Bip01 Head" 13
  53 "R_eyebrow" 52
  54 "C_eyebrow" 52
  55 "L_eyebrow" 52
  56 "R_eye" 52
  57 "Eyelids" 52
  58 "L_eye" 52
  59 "Mouth" 52
  60 "ID Tag" 9
end
skeleton
  time 0
    0 1.718674 6.767730 38.354307 0.000000 0.000000 -1.701855
    1 0.160488 -0.125004 0.000000 0.000000 -1.570451 -1.570795
    2 -0.000008 0.000008 4.427393 2.970866 0.011365 3.142380
    3 18.465942 0.000000 0.000000 0.000000 0.000000 -0.416541
    4 14.875443 0.000000 -0.000001 0.018432 0.017416 0.402071
    5 0.000008 -0.000004 -4.427393 -3.035557 0.045903 2.779300
    6 18.465942 0.000000 0.000000 0.000000 0.000000 -0.394320
    7 14.875444 0.000000 0.000000 -0.002050 0.005218 0.029357
    8 2.255207 -0.007574 0.000003 0.121998 -0.017390 -0.001288
    9 9.514221 -0.009357 0.000000 -0.008742 0.002352 -0.095833
    10 2.450428 5.076128 0.001325 0.000000 -1.570796 3.140791
    11 6.312405 -4.528058 0.001311 0.000000 -1.570796 3.140791
    12 2.233307 1.152535 -7.309138 -1.140244 -1.535933 -0.884479
    13 11.751816 -0.001633 0.000000 0.000024 0.043598 0.439965
    14 -1.890927 0.850948 -2.731760 -0.942423 1.461392 1.764503
    15 4.640943 0.000000 0.000000 -0.601413 -1.183806 0.506763
    16 10.828049 0.000000 0.000000 0.000000 0.000000 -0.234423
    17 9.393341 0.000000 0.000002 1.569609 -0.034188 0.000012
    18 1.442247 0.107454 1.746179 -1.686403 -0.539234 0.325847
    19 1.063452 0.000000 -0.000002 0.000000 0.000000 0.199055
    20 4.172848 -0.251364 1.312743 -0.008024 -0.095730 0.148652
    21 1.215368 0.000000 0.000002 0.000000 0.000000 0.645746
    22 1.215372 0.000000 0.000000 0.000000 0.000000 0.645745
    23 4.220535 -0.244852 0.431466 -0.001334 -0.026240 0.148333
    24 1.350416 0.000000 -0.000001 0.000000 0.000000 0.863854
    25 1.350410 -0.000002 0.000001 0.000000 0.000000 0.863873
    26 4.262829 -0.232721 -1.392178 0.016839 0.076668 0.253758
    27 -2.121402 0.854842 2.563789 0.697195 -1.395374 2.006496
    28 4.640941 0.000000 0.000000 0.738432 1.089871 0.724751
    29 10.828045 0.000000 -0.000002 0.000000 0.000000 -0.470269
    30 9.393339 0.000000 0.000000 -1.569611 0.034157 0.000140
    31 1.442245 0.107452 -1.746178 1.686425 0.539224 0.325867
    32 1.063452 0.000000 0.000000 0.000000 0.000000 0.199055
    33 1.376307 -0.000002 0.000000 0.000000 0.000000 0.199053
    34 4.172848 -0.251366 -1.312743 0.008014 0.095731 0.148613
    35 1.215372 0.000002 -0.000002 0.000000 0.000000 0.645758
    36 1.215370 -0.000002 -0.000002 0.000000 0.000000 0.645758
    37 4.220537 -0.244856 -0.431465 0.001333 0.026242 0.148333
    38 1.350416 0.000000 0.000001 0.000000 0.000000 0.863827
    39 1.350409 -0.000002 0.000000 0.000000 0.000000 0.863872
    40 4.237637 -0.195358 0.527090 0.000662 0.008837 0.261753
    41 1.215376 0.000002 0.000001 0.000000 0.000000 0.977246
    42 1.215372 -0.000002 -0.000001 0.000000 0.000000 0.977287
    43 4.262829 -0.232719 1.392178 -0.016840 -0.076676 0.253759
    44 1.012810 0.000000 0.000000 0.000000 0.000000 0.968536
    45 1.012806 0.000000 0.000000 0.000000 0.000000 0.968536
    46 1.376305 0.000000 0.000000 0.000000 0.000000 0.199055
    47 4.237637 -0.195356 -0.527091 -0.000662 -0.008837 0.261713
    48 1.215378 0.000000 -0.000002 0.000000 0.000000 0.977292
    49 1.215376 0.000000 0.000000 0.000000 0.000000 0.977316
    50 1.012814 0.000000 0.000000 0.000000 0.000000 0.968606
    51 1.012812 -0.000002 0.000001 0.000000 0.000000 0.968646
    52 2.110538 0.000000 0.000000 0.002417 -0.010494 -0.153547
    53 5.253246 3.139475 -1.673515 0.000000 -1.570796 2.984594
    54 5.253262 3.139473 -0.054760 0.000000 -1.570796 2.984594
    55 5.253254 3.139468 1.574632 0.000000 -1.570796 2.984594
    56 4.598148 4.158443 -1.350299 0.000000 -1.570796 2.984594
    57 4.598141 4.158430 -0.054439 0.000000 -1.570796 2.984594
    58 4.598141 4.158430 1.240876 0.000000 -1.570796 2.984594
    59 0.891926 2.373051 -0.014527 -3.141592 -0.000001 1.413797
    60 7.228123 5.709446 3.726568 0.000000 -1.570796 3.140796
  time 1
    0 1.718674 6.625280 38.244043 0.000000 0.000000 -1.701855
    1 -0.308276 -0.238289 0.000000 0.000000 -1.570451 -1.570795
    2 -0.000008 0.000008 4.427393 2.970866 0.004935 3.111464
    3 18.465942 0.000000 0.000000 0.000000 0.000000 -0.464788
    4 14.875443 0.000000 -0.000001 0.018290 0.016522 0.418702
    5 0.000008 -0.000004 -4.427393 -3.035757 0.043788 2.762443
    6 18.465942 0.000000 0.000000 0.000000 0.000000 -0.407643
    7 14.875444 0.000000 0.000000 -0.001117 0.001368 0.026056
    8 2.255207 -0.007574 0.000003 0.078724 -0.023110 0.031234
    9 9.514221 -0.009357 0.000000 -0.009905 -0.002473 -0.060952
    10 2.450428 5.076128 0.001325 0.000000 -1.570796 3.149552
    11 6.312405 -4.528058 0.001311 0.000000 -1.570796 3.140791
    12 2.233307 1.152535 -7.309138 -1.152511 -1.536136 -0.886012
    13 11.751816 -0.001633 0.000000 0.000024 0.043598 0.439965
    14 -1.890927 0.850948 -2.731760 -0.871055 1.443662 1.837234
    15 4.640943 0.000000 0.000000 -0.517890 -1.174182 0.372099
    16 10.828049 0.000000 0.000000 0.000000 0.000000 -0.241238
    17 9.393341 0.000000 0.000002 1.569609 -0.034188 0.000012
    18 1.442247 0.107454 1.746179 -1.686403 -0.539234 0.325847
    19 1.063452 0.000000 -0.000002 0.000000 0.000000 0.199055
    20 4.172848 -0.251364 1.312743 -0.008024 -0.095730 0.148652
    21 1.215368 0.000000 0.000002 0.000000 0.000000 0.645746
    22 1.215372 0.000000 0.000000 0.000000 0.000000 0.645745
    23 4.220535 -0.244852 0.431466 -0.001334 -0.026240 0.148333
    24 1.350416 0.000000 -0.000001 0.000000 0.000000 0.863854
    25 1.350410 -0.000002 0.000001 0.000000 0.000000 0.863873
    26 4.262829 -0.232721 -1.392178 0.016839 0.076668 0.253758
    27 -2.117496 0.854842 2.567695 0.449485 -1.415469 2.252946
    28 4.640941 0.000000 0.000000 0.493412 1.128760 0.430683
    29 10.828045 0.000000 -0.000002 0.000000 0.000000 -0.769900
    30 9.393339 0.000000 0.000000 -1.293203 0.034883 0.003754
    31 1.442245 0.107452 -1.746178 1.684106 0.504083 0.321215
    32 1.063452 0.000000 0.000000 0.000000 0.000000 0.199055
    33 1.376307 -0.000002 0.000000 0.000000 0.000000 0.199053
    34 4.172848 -0.251366 -1.312743 -0.001250 0.096055 0.051685
    35 1.215372 0.000002 -0.000002 0.000000 0.000000 0.549063
    36 1.215370 -0.000002 -0.000002 0.000000 0.000000 0.549063
    37 4.220537 -0.244856 -0.431465 0.002411 0.026158 0.190770
    38 1.350416 0.000000 0.000001 0.000000 0.000000 0.906259
    39 1.350409 -0.000002 0.000000 0.000000 0.000000 0.906261
    40 4.237637 -0.195358 0.527090 0.000997 0.008789 0.304214
    41 1.215376 0.000002 0.000001 0.000000 0.000000 1.019753
    42 1.215372 -0.000002 -0.000001 0.000000 0.000000 1.019710
    43 4.262829 -0.232719 1.392178 -0.020076 -0.075901 0.296225
    44 1.012810 0.000000 0.000000 0.000000 0.000000 1.010979
    45 1.012806 0.000000 0.000000 0.000000 0.000000 1.010979
    46 1.376305 0.000000 0.000000 0.000000 0.000000 0.199055
    47 4.237637 -0.195356 -0.527091 -0.000662 -0.008825 0.261713
    48 1.215378 0.000000 -0.000002 0.000000 0.000000 0.977292
    49 1.215376 0.000000 0.000000 0.000000 0.000000 0.977316
    50 1.012814 0.000000 0.000000 0.000000 0.000000 0.968606
    51 1.012812 -0.000002 0.000001 0.000000 0.000000 0.968646
    52 2.110538 0.000000 0.000000 0.049411 -0.012869 -0.162078
    53 5.253246 3.139475 -1.673515 0.000000 -1.570796 2.984594
    54 5.253262 3.139473 -0.054760 0.000000 -1.570796 2.984594
    55 5.253254 3.139468 1.574632 0.000000 -1.570796 2.984594
    56 4.598148 4.158443 -1.350299 0.000000 -1.570796 2.984594
    57 4.598141 4.158430 -0.054439 0.000000 -1.570796 2.984594
    58 4.598141 4.158430 1.240876 0.000000 -1.570796 2.984594
    59 0.891926 2.373051 -0.014527 -3.141592 -0.000001 1.413797
    60 7.228123 5.709446 3.726568 0.000000 -1.570796 3.140796
  time 2
    0 1.718674 6.438313 38.118027 0.000000 0.000000 -1.701855
    1 -0.823917 -0.316416 0.000000 0.000000 -1.570451 -1.570795
    2 -0.000008 0.000008 4.427393 2.970772 -0.000222 3.081296
    3 18.465942 0.000000 0.000000 0.000000 0.000000 -0.511207
    4 14.875443 0.000000 -0.000001 0.018290 0.016522 0.434464
    5 0.000008 -0.000004 -4.427393 -3.036157 0.042637 2.744141
    6 18.465942 0.000000 0.000000 0.000000 0.000000 -0.423526
    7 14.875444 0.000000 0.000000 -0.000450 -0.001603 0.023955
    8 2.255207 -0.007574 0.000003 0.034883 -0.027253 0.064318
    9 9.514221 -0.009357 0.000000 -0.010918 -0.007338 -0.023265
    10 2.450428 5.076128 0.001325 0.000000 -1.570796 3.158458
    11 6.312405 -4.528058 0.001311 0.000000 -1.570796 3.140791
    12 2.233307 1.152535 -7.309138 -1.166790 -1.536369 -0.887833
    13 11.751816 -0.001633 0.000000 0.000024 0.043598 0.439965
    14 -1.890927 0.850948 -2.731760 -0.809869 1.424339 1.900132
    15 4.640943 0.000000 0.000000 -0.430544 -1.154446 0.233824
    16 10.828049 0.000000 0.000000 0.000000 0.000000 -0.248247
    17 9.393341 0.000000 0.000002 1.569609 -0.034188 0.000012
    18 1.442247 0.107454 1.746179 -1.686403 -0.539234 0.325847
    19 1.063452 0.000000 -0.000002 0.000000 0.000000 0.199055
    20 4.172848 -0.251364 1.312743 -0.008024 -0.095730 0.148652
    21 1.215368 0.000000 0.000002 0.000000 0.000000 0.645746
    22 1.215372 0.000000 0.000000 0.000000 0.000000 0.645745
    23 4.220535 -0.244852 0.431466 -0.001334 -0.026240 0.148333
    24 1.350416 0.000000 -0.000001 0.000000 0.000000 0.863854
    25 1.350410 -0.000002 0.000001 0.000000 0.000000 0.863873
    26 4.262829 -0.232721 -1.392178 0.016839 0.076668 0.253758
    27 -2.117496 0.850936 2.563789 0.147279 -1.424912 2.553842
    28 4.640941 0.000000 0.000000 0.224615 1.132656 0.111857
    29 10.828045 0.000000 -0.000002 0.000000 0.000000 -1.092411
    30 9.393339 0.000000 0.000000 -1.002975 0.034921 0.009028
    31 1.442245 0.107452 -1.746178 1.681912 0.467227 0.316513
    32 1.063452 0.000000 0.000000 0.000000 0.000000 0.199055
    33 1.376307 -0.000002 0.000000 0.000000 0.000000 0.199053
    34 4.172848 -0.251366 -1.312743 -0.010957 0.095480 -0.050252
    35 1.215372 0.000002 -0.000002 0.000000 0.000000 0.447673
    36 1.215370 -0.000002 -0.000002 0.000000 0.000000 0.447672
    37 4.220537 -0.244856 -0.431465 0.003610 0.026026 0.235248
    38 1.350416 0.000000 0.000001 0.000000 0.000000 0.950795
    39 1.350409 -0.000002 0.000000 0.000000 0.000000 0.950814
    40 4.237637 -0.195358 0.527090 0.001429 0.008753 0.348742
    41 1.215376 0.000002 0.000001 0.000000 0.000000 1.064303
    42 1.215372 -0.000002 -0.000001 0.000000 0.000000 1.064261
    43 4.262829 -0.232719 1.392178 -0.023407 -0.074950 0.340880
    44 1.012810 0.000000 0.000000 0.000000 0.000000 1.055495
    45 1.012806 0.000000 0.000000 0.000000 0.000000 1.055494
    46 1.376305 0.000000 0.000000 0.000000 0.000000 0.199055
    47 4.237637 -0.195356 -0.527091 -0.000662 -0.008825 0.261713
    48 1.215378 0.000000 -0.000002 0.000000 0.000000 0.977292
    49 1.215376 0.000000 0.000000 0.000000 0.000000 0.977316
    50 1.012814 0.000000 0.000000 0.000000 0.000000 0.968648
    51 1.012812 -0.000002 0.000001 0.000000 0.000000 0.968646
    52 2.110538 0.000000 0.000000 0.096148 -0.018973 -0.173630
    53 5.253246 3.139475 -1.673515 0.000000 -1.570796 2.984594
    54 5.253262 3.139473 -0.054760 0.000000 -1.570796 2.984594
    55 5.253254 3.139468 1.574632 0.000000 -1.570796 2.984594
    56 4.598148 4.158443 -1.350299 0.000000 -1.570796 2.984594
    57 4.598141 4.158430 -0.054439 0.000000 -1.570796 2.984594
    58 4.598141 4.158430 1.240876 0.000000 -1.570796 2.984594
    59 0.891926 2.373051 -0.014527 -3.141592 -0.000001 1.413797
    60 7.228123 5.709446 3.726568 0.000000 -1.570796 3.140796
  time 3
    0 1.718674 6.269153 38.007763 0.000000 0.000000 -1.701855
    1 -1.304400 -0.367199 0.000000 0.000000 -1.570451 -1.570795
    2 -0.000008 0.000008 4.427393 2.970678 -0.004140 3.054203
    3 18.465942 0.000000 0.000000 0.000000 0.000000 -0.553020
    4 14.875443 0.000000 -0.000001 0.018361 0.017267 0.448804
    5 0.000008 -0.000004 -4.427393 -3.036607 0.042450 2.726161
    6 18.465942 0.000000 0.000000 0.000000 0.000000 -0.441246
    7 14.875444 0.000000 0.000000 0.000216 -0.003634 0.023692
    8 2.255207 -0.007574 0.000003 -0.008270 -0.030237 0.097039
    9 9.514221 -0.009357 0.000000 -0.012756 -0.012055 0.008875
    10 2.450428 5.076128 0.001325 0.000000 -1.570796 3.140791
    11 6.312405 -4.528058 0.001311 0.000000 -1.570796 3.140791
    12 2.233307 1.152535 -7.309138 -1.181549 -1.536602 -0.889654
    13 11.751816 -0.001633 0.000000 0.000024 0.043598 0.439965
    14 -1.894833 0.850948 -2.731760 -0.776731 1.406931 1.935107
    15 4.640943 0.000000 0.000000 -0.366898 -1.129061 0.119249
    16 10.828049 0.000000 0.000000 0.000000 0.000000 -0.255062
    17 9.393341 0.000000 0.000002 1.569609 -0.034188 0.000012
    18 1.442247 0.107454 1.746179 -1.686403 -0.539234 0.325847
    19 1.063452 0.000000 -0.000002 0.000000 0.000000 0.199055
    20 4.172848 -0.251364 1.312743 -0.008024 -0.095730 0.148652
    21 1.215368 0.000000 0.000002 0.000000 0.000000 0.645746
    22 1.215372 0.000000 0.000000 0.000000 0.000000 0.645745
    23 4.220535 -0.244852 0.431466 -0.001334 -0.026240 0.148333
    24 1.350416 0.000000 -0.000001 0.000000 0.000000 0.863854
    25 1.350410 -0.000002 0.000001 0.000000 0.000000 0.863873
    26 4.262829 -0.232721 -1.392178 0.016839 0.076668 0.253758
    27 -2.121402 0.850936 2.563789 -0.150259 -1.418667 2.849850
    28 4.640941 0.000000 0.000000 -0.030089 1.101776 -0.193507
    29 10.828045 0.000000 -0.000002 0.000000 0.000000 -1.369285
    30 9.393339 0.000000 0.000000 -0.740204 0.033240 0.010738
    31 1.442245 0.107452 -1.746178 1.680126 0.433824 0.312399
    32 1.063452 0.000000 0.000000 0.000000 0.000000 0.199055
    33 1.376307 -0.000002 0.000000 0.000000 0.000000 0.199053
    34 4.172848 -0.251366 -1.312743 -0.019694 0.094065 -0.142492
    35 1.215372 0.000002 -0.000002 0.000000 0.000000 0.355756
    36 1.215370 -0.000002 -0.000002 0.000000 0.000000 0.355755
    37 4.220537 -0.244856 -0.431465 0.004641 0.025858 0.275644
    38 1.350416 0.000000 0.000001 0.000000 0.000000 0.991075
    39 1.350409 -0.000002 0.000000 0.000000 0.000000 0.991120
    40 4.237637 -0.195358 0.527090 0.001740 0.008693 0.389016
    41 1.215376 0.000002 0.000001 0.000000 0.000000 1.104599
    42 1.215372 -0.000002 -0.000001 0.000000 0.000000 1.104557
    43 4.262829 -0.232719 1.392178 -0.026440 -0.073936 0.381356
    44 1.012810 0.000000 0.000000 0.000000 0.000000 1.095865
    45 1.012806 0.000000 0.000000 0.000000 0.000000 1.095865
    46 1.376305 0.000000 0.000000 0.000000 0.000000 0.199055
    47 4.237637 -0.195356 -0.527091 -0.000662 -0.008825 0.261713
    48 1.215378 0.000000 -0.000002 0.000000 0.000000 0.977292
    49 1.215376 0.000000 0.000000 0.000000 0.000000 0.977316
    50 1.012814 0.000000 0.000000 0.000000 0.000000 0.968648
    51 1.012812 -0.000002 0.000001 0.000000 0.000000 0.968646
    52 2.110538 0.000000 0.000000 0.141651 -0.028504 -0.181059
    53 5.253246 3.139475 -1.673515 0.000000 -1.570796 2.984594
    54 5.253262 3.139473 -0.054760 0.000000 -1.570796 2.984594
    55 5.253254 3.139468 1.574632 0.000000 -1.570796 2.984594
    56 4.598148 4.158443 -1.350299 0.000000 -1.570796 2.984594
    57 4.598141 4.158430 -0.054439 0.000000 -1.570796 2.984594
    58 4.598141 4.158430 1.240876 0.000000 -1.570796 2.984594
    59 0.891926 2.373051 -0.014527 -3.141592 -0.000001 1.413797
    60 7.228123 5.709446 3.726568 0.000000 -1.570796 3.140796
  time 4
    0 1.718674 6.135605 37.865995 0.000000 0.000000 -1.701855
    1 -1.722382 -0.410169 0.000000 0.000000 -1.570451 -1.570795
    2 -0.000008 0.000008 4.427393 2.970584 -0.007221 3.031681
    3 18.465942 0.000000 0.000000 0.000000 0.000000 -0.588693
    4 14.875443 0.000000 -0.000001 0.018503 0.018097 0.461761
    5 0.000008 -0.000004 -4.427393 -3.037207 0.042825 2.709385
    6 18.465942 0.000000 0.000000 0.000000 0.000000 -0.460410
    7 14.875444 0.000000 0.000000 0.000616 -0.004907 0.026131
    8 2.255207 -0.007574 0.000003 -0.049761 -0.032536 0.128469
    9 9.514221 -0.009357 0.000000 -0.015945 -0.016489 0.027637
    10 2.450428 5.076128 0.001325 0.000000 -1.570796 3.077435
    11 6.312405 -4.528058 0.001311 0.000000 -1.570796 3.140791
    12 2.233307 1.152535 -7.309138 -1.195445 -1.536835 -0.891187
    13 11.751816 -0.001633 0.000000 0.000024 0.043598 0.439965
    14 -1.890927 0.850948 -2.731760 -0.780619 1.395134 1.932416
    15 4.640943 0.000000 0.000000 -0.342624 -1.106814 0.044618
    16 10.828049 0.000000 0.000000 0.000000 0.000000 -0.261685
    17 9.393341 0.000000 0.000002 1.569609 -0.034188 0.000012
    18 1.442247 0.107454 1.746179 -1.686403 -0.539234 0.325847
    19 1.063452 0.000000 -0.000002 0.000000 0.000000 0.199055
    20 4.172848 -0.251364 1.312743 -0.008024 -0.095730 0.148652
    21 1.215368 0.000000 0.000002 0.000000 0.000000 0.645704
    22 1.215372 0.000000 0.000000 0.000000 0.000000 0.645745
    23 4.220535 -0.244852 0.431466 -0.001334 -0.026240 0.148333
    24 1.350416 0.000000 -0.000001 0.000000 0.000000 0.863854
    25 1.350410 -0.000002 0.000001 0.000000 0.000000 0.863873
    26 4.262829 -0.232721 -1.392178 0.016839 0.076668 0.253758
    27 -2.117496 0.850936 2.563789 -0.369673 -1.398270 3.067543
    28 4.640941 0.000000 0.000000 -0.241898 1.039582 -0.458015
    29 10.828045 0.000000 -0.000002 0.000000 0.000000 -1.531516
    30 9.393339 0.000000 0.000000 -0.545613 0.031253 0.003607
    31 1.442245 0.107452 -1.746178 1.678903 0.409133 0.309485
    32 1.063452 0.000000 0.000000 0.000000 0.000000 0.199055
    33 1.376307 -0.000002 0.000000 0.000000 0.000000 0.199053
    34 4.172848 -0.251366 -1.312743 -0.026034 0.092507 -0.210650
    35 1.215372 0.000002 -0.000002 0.000000 0.000000 0.287931
    36 1.215370 -0.000002 -0.000002 0.000000 0.000000 0.287930
    37 4.220537 -0.244856 -0.431465 0.005420 0.025739 0.305470
    38 1.350416 0.000000 0.000001 0.000000 0.000000 1.020973
    39 1.350409 -0.000002 0.000000 0.000000 0.000000 1.020931
    40 4.237637 -0.195358 0.527090 0.002040 0.008633 0.418795
    41 1.215376 0.000002 0.000001 0.000000 0.000000 1.134383
    42 1.215372 -0.000002 -0.000001 0.000000 0.000000 1.134341
    43 4.262829 -0.232719 1.392178 -0.028645 -0.073110 0.411166
    44 1.012810 0.000000 0.000000 0.000000 0.000000 1.125667
    45 1.012806 0.000000 0.000000 0.000000 0.000000 1.125667
    46 1.376305 0.000000 0.000000 0.000000 0.000000 0.199055
    47 4.237637 -0.195356 -0.527091 -0.000662 -0.008825 0.261713
    48 1.215378 0.000000 -0.000002 0.000000 0.000000 0.977292
    49 1.215376 0.000000 0.000000 0.000000 0.000000 0.977316
    50 1.012814 0.000000 0.000000 0.000000 0.000000 0.968606
    51 1.012812 -0.000002 0.000001 0.000000 0.000000 0.968646
    52 2.110538 0.000000 0.000000 0.185560 -0.040892 -0.177081
    53 5.253246 3.139475 -1.673515 0.000000 -1.570796 2.984594
    54 5.253262 3.139473 -0.054760 0.000000 -1.570796 2.984594
    55 5.253254 3.139468 1.574632 0.000000 -1.570796 2.984594
    56 4.598148 4.158443 -1.350299 0.000000 -1.570796 2.984594
    57 4.598141 4.158430 -0.054439 0.000000 -1.570796 2.984594
    58 4.598141 4.158430 1.240876 0.000000 -1.570796 2.984594
    59 0.891926 2.373051 -0.014527 -3.141592 -0.000001 1.413797
    60 7.228123 5.709446 3.726568 0.000000 -1.570796 3.140796
  time 5
    0 1.718674 5.939735 37.755731 0.000000 0.000000 -1.701855
    1 -2.050517 -0.460952 0.000000 0.000000 -1.570451 -1.570795
    2 -0.000008 0.000008 4.427393 2.970678 -0.010202 3.014228
    3 18.465942 0.000000 0.000000 0.000000 0.000000 -0.617568
    4 14.875443 0.000000 -0.000001 0.018467 0.018161 0.472980
    5 0.000008 -0.000004 -4.427393 -3.037657 0.042825 2.694615
    6 18.465942 0.000000 0.000000 0.000000 0.000000 -0.479705
    7 14.875444 0.000000 0.000000 0.001061 -0.006362 0.030970
    8 2.255207 -0.007574 0.000003 -0.094453 -0.035482 0.162216
    9 9.514221 -0.009357 0.000000 -0.024124 -0.021045 0.017881
    10 2.450428 5.076128 0.001325 0.000000 -1.570796 2.988229
    11 6.312405 -4.528058 0.001311 0.000000 -1.570796 3.140791
    12 2.233307 1.152535 -7.309138 -1.207137 -1.537010 -0.892529
    13 11.751816 -0.001633 0.000000 0.000024 0.043598 0.439965
    14 -1.890927 0.850948 -2.731760 -0.879478 1.392318 1.834358
    15 4.640943 0.000000 0.000000 -0.384291 -1.103118 0.029708
    16 10.828049 0.000000 0.000000 0.000000 0.000000 -0.268693
    17 9.393341 0.000000 0.000002 1.569609 -0.034188 0.000012
    18 1.442247 0.107454 1.746179 -1.686403 -0.539234 0.325847
    19 1.063452 0.000000 -0.000002 0.000000 0.000000 0.199055
    20 4.172848 -0.251364 1.312743 -0.008024 -0.095730 0.148652
    21 1.215368 0.000000 0.000002 0.000000 0.000000 0.645746
    22 1.215372 0.000000 0.000000 0.000000 0.000000 0.645745
    23 4.220535 -0.244852 0.431466 -0.001334 -0.026240 0.148333
    24 1.350416 0.000000 -0.000001 0.000000 0.000000 0.863854
    25 1.350410 -0.000002 0.000001 0.000000 0.000000 0.863873
    26 4.262829 -0.232721 -1.392178 0.016839 0.076668 0.253758
    27 -2.121402 0.854842 2.563789 -0.492194 -1.364098 3.187652
    28 4.640941 0.000000 0.000000 -0.436636 0.932437 -0.715090
    29 10.828045 0.000000 -0.000002 0.000000 0.000000 -1.449272
    30 9.393339 0.000000 0.000000 -0.478538 0.029419 -0.020666
    31 1.442245 0.107452 -1.746178 1.678527 0.400895 0.308488
    32 1.063452 0.000000 0.000000 0.000000 0.000000 0.199055
    33 1.376307 -0.000002 0.000000 0.000000 0.000000 0.199053
    34 4.172848 -0.251366 -1.312743 -0.028131 0.091848 -0.233489
    35 1.215372 0.000002 -0.000002 0.000000 0.000000 0.265186
    36 1.215370 -0.000002 -0.000002 0.000000 0.000000 0.265186
    37 4.220537 -0.244856 -0.431465 0.005635 0.025691 0.315398
    38 1.350416 0.000000 0.000001 0.000000 0.000000 1.030875
    39 1.350409 -0.000002 0.000000 0.000000 0.000000 1.030895
    40 4.237637 -0.195358 0.527090 0.002124 0.008609 0.428774
    41 1.215376 0.000002 0.000001 0.000000 0.000000 1.144311
    42 1.215372 -0.000002 -0.000001 0.000000 0.000000 1.144311
    43 4.262829 -0.232719 1.392178 -0.029364 -0.072798 0.421235
    44 1.012810 0.000000 0.000000 0.000000 0.000000 1.135614
    45 1.012806 0.000000 0.000000 0.000000 0.000000 1.135614
    46 1.376305 0.000000 0.000000 0.000000 0.000000 0.199055
    47 4.237637 -0.195356 -0.527091 -0.000662 -0.008825 0.261713
    48 1.215378 0.000000 -0.000002 0.000000 0.000000 0.977292
    49 1.215376 0.000000 0.000000 0.000000 0.000000 0.977316
    50 1.012814 0.000000 0.000000 0.000000 0.000000 0.968648
    51 1.012812 -0.000002 0.000001 0.000000 0.000000 0.968646
    52 2.110538 0.000000 0.000000 0.235793 -0.058181 -0.143912
    53 5.253246 3.139475 -1.673515 0.000000 -1.570796 2.984594
    54 5.253262 3.139473 -0.054760 0.000000 -1.570796 2.984594
    55 5.253254 3.139468 1.574632 0.000000 -1.570796 2.984594
    56 4.598148 4.158443 -1.350299 0.000000 -1.570796 2.984594
    57 4.598141 4.158430 -0.054439 0.000000 -1.570796 2.984594
    58 4.598141 4.158430 1.240876 0.000000 -1.570796 2.984594
    59 0.891926 2.373051 -0.014527 -3.141592 -0.000001 1.413797
    60 7.228123 5.709446 3.726568 0.000000 -1.570796 3.140796
  time 6
    0 1.718674 5.859607 37.645467 0.000000 0.000000 -1.701855
    1 -2.273180 -0.515641 0.000000 0.000000 -1.570451 -1.570795
    2 -0.000008 0.000008 4.427393 2.971054 -0.012747 3.001928
    3 18.465942 0.000000 0.000000 0.000000 0.000000 -0.639206
    4 14.875443 0.000000 -0.000001 0.018361 0.017416 0.482026
    5 0.000008 -0.000004 -4.427393 -3.037858 0.042236 2.683297
    6 18.465942 0.000000 0.000000 0.000000 0.000000 -0.496835
    7 14.875444 0.000000 0.000000 0.001550 -0.007999 0.036822
    8 2.255207 -0.007574 0.000003 -0.136795 -0.038124 0.194175
    9 9.514221 -0.009357 0.000000 -0.033991 -0.025561 -0.010964
    10 2.450428 5.076128 0.001325 0.000000 -1.570796 2.905541
    11 6.312405 -4.528058 0.001311 0.000000 -1.570796 3.140791
    12 2.233307 1.152535 -7.309138 -1.215283 -1.537185 -0.893391
    13 11.751816 -0.001633 0.000000 0.000024 0.043598 0.439965
    14 -1.890927 0.850948 -2.731760 -1.026842 1.393957 1.686668
    15 4.640943 0.000000 0.000000 -0.464565 -1.113230 0.053015
    16 10.828049 0.000000 0.000000 0.000000 0.000000 -0.275316
    17 9.393341 0.000000 0.000002 1.569609 -0.034188 0.000012
    18 1.442247 0.107454 1.746179 -1.686403 -0.539234 0.325847
    19 1.063452 0.000000 -0.000002 0.000000 0.000000 0.199055
    20 4.172848 -0.251364 1.312743 -0.008024 -0.095730 0.148652
    21 1.215368 0.000000 0.000002 0.000000 0.000000 0.645746
    22 1.215372 0.000000 0.000000 0.000000 0.000000 0.645745
    23 4.220535 -0.244852 0.431466 -0.001334 -0.026240 0.148333
    24 1.350416 0.000000 -0.000001 0.000000 0.000000 0.863854
    25 1.350410 -0.000002 0.000001 0.000000 0.000000 0.863873
    26 4.262829 -0.232721 -1.392178 0.016839 0.076668 0.253758
    27 -2.121402 0.854842 2.567695 -0.542784 -1.325847 3.235006
    28 4.640941 0.000000 0.000000 -0.557066 0.798814 -0.910061
    29 10.828045 0.000000 -0.000002 0.000000 0.000000 -1.203941
    30 9.393339 0.000000 0.000000 -0.508390 0.026974 -0.056760
    31 1.442245 0.107452 -1.746178 1.678715 0.405026 0.308948
    32 1.063452 0.000000 0.000000 0.000000 0.000000 0.199055
    33 1.376307 -0.000002 0.000000 0.000000 0.000000 0.199053
    34 4.172848 -0.251366 -1.312743 -0.027125 0.092208 -0.222070
    35 1.215372 0.000002 -0.000002 0.000000 0.000000 0.276620
    36 1.215370 -0.000002 -0.000002 0.000000 0.000000 0.276619
    37 4.220537 -0.244856 -0.431465 0.005515 0.025715 0.310394
    38 1.350416 0.000000 0.000001 0.000000 0.000000 1.025852
    39 1.350409 -0.000002 0.000000 0.000000 0.000000 1.025913
    40 4.237637 -0.195358 0.527090 0.002076 0.008621 0.423804
    41 1.215376 0.000002 0.000001 0.000000 0.000000 1.139389
    42 1.215372 -0.000002 -0.000001 0.000000 0.000000 1.139347
    43 4.262829 -0.232719 1.392178 -0.028968 -0.072948 0.416101
    44 1.012810 0.000000 0.000000 0.000000 0.000000 1.130682
    45 1.012806 0.000000 0.000000 0.000000 0.000000 1.130682
    46 1.376305 0.000000 0.000000 0.000000 0.000000 0.199055
    47 4.237637 -0.195356 -0.527091 -0.000662 -0.008825 0.261713
    48 1.215378 0.000000 -0.000002 0.000000 0.000000 0.977292
    49 1.215376 0.000000 0.000000 0.000000 0.000000 0.977316
    50 1.012814 0.000000 0.000000 0.000000 0.000000 0.968648
    51 1.012812 -0.000002 0.000001 0.000000 0.000000 0.968646
    52 2.110538 0.000000 0.000000 0.284073 -0.078266 -0.094544
    53 5.253246 3.139475 -1.673515 0.000000 -1.570796 2.984594
    54 5.253262 3.139473 -0.054760 0.000000 -1.570796 2.984594
    55 5.253254 3.139468 1.574632 0.000000 -1.570796 2.984594
    56 4.598148 4.158443 -1.350299 0.000000 -1.570796 2.984594
    57 4.598141 4.158430 -0.054439 0.000000 -1.570796 2.984594
    58 4.598141 4.158430 1.240876 0.000000 -1.570796 2.984594
    59 0.891926 2.373051 -0.014527 -3.141592 -0.000001 1.413797
    60 7.228123 5.709446 3.726568 0.000000 -1.570796 3.140796
  time 7
    0 1.718674 5.770575 37.582459 0.000000 0.000000 -1.701855
    1 -2.382558 -0.546892 0.000000 0.000000 -1.570451 -1.570795
    2 -0.000008 0.000008 4.427393 2.971335 -0.014488 2.995695
    3 18.465942 0.000000 0.000000 0.000000 0.000000 -0.652145
    4 14.875443 0.000000 -0.000001 0.018290 0.016820 0.488504
    5 0.000008 -0.000004 -4.427393 -3.038058 0.042156 2.675992
    6 18.465942 0.000000 0.000000 0.000000 0.000000 -0.510355
    7 14.875444 0.000000 0.000000 0.001861 -0.008878 0.043162
    8 2.255207 -0.007574 0.000003 -0.159688 -0.039093 0.211677
    9 9.514221 -0.009357 0.000000 -0.036467 -0.028517 -0.030672
    10 2.450428 5.076128 0.001325 0.000000 -1.570796 2.861662
    11 6.312405 -4.528058 0.001311 0.000000 -1.570796 3.140791
    12 2.233307 1.152535 -7.309138 -1.218254 -1.537243 -0.893678
    13 11.751816 -0.001633 0.000000 0.000024 0.043598 0.439965
    14 -1.890927 0.850948 -2.731760 -1.074421 1.400606 1.637964
    15 4.640943 0.000000 0.000000 -0.517029 -1.117763 0.067690
    16 10.828049 0.000000 0.000000 0.000000 0.000000 -0.278981
    17 9.393341 0.000000 0.000002 1.569609 -0.034188 0.000012
    18 1.442247 0.107454 1.746179 -1.686403 -0.539234 0.325847
    19 1.063452 0.000000 -0.000002 0.000000 0.000000 0.199055
    20 4.172848 -0.251364 1.312743 -0.008024 -0.095730 0.148652
    21 1.215368 0.000000 0.000002 0.000000 0.000000 0.645746
    22 1.215372 0.000000 0.000000 0.000000 0.000000 0.645745
    23 4.220535 -0.244852 0.431466 -0.001334 -0.026240 0.148333
    24 1.350416 0.000000 -0.000001 0.000000 0.000000 0.863854
    25 1.350410 -0.000002 0.000001 0.000000 0.000000 0.863873
    26 4.262829 -0.232721 -1.392178 0.016839 0.076668 0.253758
    27 -2.117496 0.854842 2.567695 -0.553169 -1.300892 3.242770
    28 4.640941 0.000000 0.000000 -0.572958 0.721684 -0.991422
    29 10.828045 0.000000 -0.000002 0.000000 0.000000 -1.046347
    30 9.393339 0.000000 0.000000 -0.541006 0.026210 -0.087969
    31 1.442245 0.107452 -1.746178 1.678903 0.409133 0.309485
    32 1.063452 0.000000 0.000000 0.000000 0.000000 0.199055
    33 1.376307 -0.000002 0.000000 0.000000 0.000000 0.199053
    34 4.172848 -0.251366 -1.312743 -0.026046 0.092507 -0.210610
    35 1.215372 0.000002 -0.000002 0.000000 0.000000 0.287931
    36 1.215370 -0.000002 -0.000002 0.000000 0.000000 0.287930
    37 4.220537 -0.244856 -0.431465 0.005420 0.025739 0.305470
    38 1.350416 0.000000 0.000001 0.000000 0.000000 1.020973
    39 1.350409 -0.000002 0.000000 0.000000 0.000000 1.020931
    40 4.237637 -0.195358 0.527090 0.002040 0.008633 0.418795
    41 1.215376 0.000002 0.000001 0.000000 0.000000 1.134383
    42 1.215372 -0.000002 -0.000001 0.000000 0.000000 1.134341
    43 4.262829 -0.232719 1.392178 -0.028645 -0.073110 0.411166
    44 1.012810 0.000000 0.000000 0.000000 0.000000 1.125667
    45 1.012806 0.000000 0.000000 0.000000 0.000000 1.125667
    46 1.376305 0.000000 0.000000 0.000000 0.000000 0.199055
    47 4.237637 -0.195356 -0.527091 -0.000662 -0.008837 0.261713
    48 1.215378 0.000000 -0.000002 0.000000 0.000000 0.977292
    49 1.215376 0.000000 0.000000 0.000000 0.000000 0.977316
    50 1.012814 0.000000 0.000000 0.000000 0.000000 0.968648
    51 1.012812 -0.000002 0.000001 0.000000 0.000000 0.968646
    52 2.110538 0.000000 0.000000 0.307210 -0.089301 -0.064779
    53 5.253246 3.139475 -1.673515 0.000000 -1.570796 2.984594
    54 5.253262 3.139473 -0.054760 0.000000 -1.570796 2.984594
    55 5.253254 3.139468 1.574632 0.000000 -1.570796 2.984594
    56 4.598148 4.158443 -1.350299 0.000000 -1.570796 2.984594
    57 4.598141 4.158430 -0.054439 0.000000 -1.570796 2.984594
    58 4.598141 4.158430 1.240876 0.000000 -1.570796 2.984594
    59 0.891926 2.373051 -0.014527 -3.141592 -0.000001 1.413797
    60 7.228123 5.709446 3.726568 0.000000 -1.570796 3.140796
  time 8
    0 1.718674 5.743865 37.582459 0.000000 0.000000 -1.701855
    1 -2.331775 -0.539079 0.000000 0.000000 -1.570451 -1.570795
    2 -0.000008 0.000008 4.427393 2.971241 -0.014087 2.997357
    3 18.465942 0.000000 0.000000 0.000000 0.000000 -0.654338
    4 14.875443 0.000000 -0.000001 0.018290 0.016905 0.492376
    5 0.000008 -0.000004 -4.427393 -3.038258 0.043119 2.674066
    6 18.465942 0.000000 0.000000 0.000000 0.000000 -0.520134
    7 14.875444 0.000000 0.000000 0.001683 -0.008181 0.050703
    8 2.255207 -0.007574 0.000003 -0.150450 -0.038333 0.205358
    9 9.514221 -0.009357 0.000000 -0.023111 -0.028665 -0.025843
    10 2.450428 5.076128 0.001325 0.000000 -1.570796 2.866224
    11 6.312405 -4.528058 0.001311 0.000000 -1.570796 3.140791
    12 2.233307 1.152535 -7.309138 -1.217583 -1.537243 -0.893678
    13 11.751816 -0.001633 0.000000 0.000024 0.043598 0.439965
    14 -1.890927 0.850948 -2.731760 -0.859855 1.419398 1.850871
    15 4.640943 0.000000 0.000000 -0.506422 -1.103745 0.048542
    16 10.828049 0.000000 0.000000 0.000000 0.000000 -0.277502
    17 9.393341 0.000000 0.000002 1.569609 -0.034188 0.000012
    18 1.442247 0.107454 1.746179 -1.686403 -0.539234 0.325847
    19 1.063452 0.000000 -0.000002 0.000000 0.000000 0.199055
    20 4.172848 -0.251364 1.312743 -0.008024 -0.095730 0.148652
    21 1.215368 0.000000 0.000002 0.000000 0.000000 0.645746
    22 1.215372 0.000000 0.000000 0.000000 0.000000 0.645745
    23 4.220535 -0.244852 0.431466 -0.001334 -0.026240 0.148333
    24 1.350416 0.000000 -0.000001 0.000000 0.000000 0.863854
    25 1.350410 -0.000002 0.000001 0.000000 0.000000 0.863873
    26 4.262829 -0.232721 -1.392178 0.016839 0.076668 0.253758
    27 -2.121402 0.854842 2.567695 -0.524968 -1.297795 3.214492
    28 4.640941 0.000000 0.000000 -0.469599 0.758626 -0.930372
    29 10.828045 0.000000 -0.000002 0.000000 0.000000 -1.119012
    30 9.393339 0.000000 0.000000 -0.532253 0.033202 -0.112438
    31 1.442245 0.107452 -1.746178 1.678809 0.407237 0.309230
    32 1.063452 0.000000 0.000000 0.000000 0.000000 0.199055
    33 1.376307 -0.000002 0.000000 0.000000 0.000000 0.199053
    34 4.172848 -0.251366 -1.312743 -0.026525 0.092364 -0.215939
    35 1.215372 0.000002 -0.000002 0.000000 0.000000 0.282663
    36 1.215370 -0.000002 -0.000002 0.000000 0.000000 0.282663
    37 4.220537 -0.244856 -0.431465 0.005443 0.025727 0.307792
    38 1.350416 0.000000 0.000001 0.000000 0.000000 1.023269
    39 1.350409 -0.000002 0.000000 0.000000 0.000000 1.023259
    40 4.237637 -0.195358 0.527090 0.002064 0.008633 0.421061
    41 1.215376 0.000002 0.000001 0.000000 0.000000 1.136677
    42 1.215372 -0.000002 -0.000001 0.000000 0.000000 1.136677
    43 4.262829 -0.232719 1.392178 -0.028789 -0.073035 0.413554
    44 1.012810 0.000000 0.000000 0.000000 0.000000 1.127988
    45 1.012806 0.000000 0.000000 0.000000 0.000000 1.127988
    46 1.376305 0.000000 0.000000 0.000000 0.000000 0.199055
    47 4.237637 -0.195356 -0.527091 -0.000662 -0.008825 0.261713
    48 1.215378 0.000000 -0.000002 0.000000 0.000000 0.977292
    49 1.215376 0.000000 0.000000 0.000000 0.000000 0.977316
    50 1.012814 0.000000 0.000000 0.000000 0.000000 0.968648
    51 1.012812 -0.000002 0.000001 0.000000 0.000000 0.968646
    52 2.110538 0.000000 0.000000 0.286592 -0.079408 -0.073981
    53 5.253246 3.139475 -1.673515 0.000000 -1.570796 2.984594
    54 5.253262 3.139473 -0.054760 0.000000 -1.570796 2.984594
    55 5.253254 3.139468 1.574632 0.000000 -1.570796 2.984594
    56 4.598148 4.158443 -1.350299 0.000000 -1.570796 2.984594
    57 4.598141 4.158430 -0.054439 0.000000 -1.570796 2.984594
    58 4.598141 4.158430 1.240876 0.000000 -1.570796 2.984594
    59 0.891926 2.373051 -0.014527 -3.141592 -0.000001 1.413797
    60 7.228123 5.709446 3.726568 0.000000 -1.570796 3.140796
  time 9
    0 1.718674 5.743865 37.582459 0.000000 0.000000 -1.701855
    1 -2.167708 -0.503922 0.000000 0.000000 -1.570451 -1.570795
    2 -0.000008 0.000008 4.427393 2.971148 -0.012647 3.004837
    3 18.465942 0.000000 0.000000 0.000000 0.000000 -0.648343
    4 14.875443 0.000000 -0.000001 0.018361 0.017054 0.494035
    5 0.000008 -0.000004 -4.427393 -3.038558 0.044350 2.675832
    6 18.465942 0.000000 0.000000 0.000000 0.000000 -0.526762
    7 14.875444 0.000000 0.000000 0.001283 -0.006665 0.059106
    8 2.255207 -0.007574 0.000003 -0.121763 -0.036660 0.184581
    9 9.514221 -0.009357 0.000000 -0.002364 -0.027227 -0.011877
    10 2.450428 5.076128 0.001325 0.000000 -1.570796 2.897865
    11 6.312405 -4.528058 0.001311 0.000000 -1.570796 3.140791
    12 2.233307 1.152535 -7.309138 -1.215570 -1.537214 -0.893391
    13 11.751816 -0.001633 0.000000 0.000024 0.043598 0.439965
    14 -1.890927 0.854855 -2.731760 -0.464231 1.427317 2.242825
    15 4.640943 0.000000 0.000000 -0.472496 -1.084637 0.025156
    16 10.828049 0.000000 0.000000 0.000000 0.000000 -0.273001
    17 9.393341 0.000000 0.000002 1.569609 -0.034188 0.000012
    18 1.442247 0.107454 1.746179 -1.686403 -0.539234 0.325847
    19 1.063452 0.000000 -0.000002 0.000000 0.000000 0.199055
    20 4.172848 -0.251364 1.312743 -0.008024 -0.095730 0.148652
    21 1.215368 0.000000 0.000002 0.000000 0.000000 0.645746
    22 1.215372 0.000000 0.000000 0.000000 0.000000 0.645745
    23 4.220535 -0.244852 0.431466 -0.001334 -0.026240 0.148333
    24 1.350416 0.000000 -0.000001 0.000000 0.000000 0.863854
    25 1.350410 -0.000002 0.000001 0.000000 0.000000 0.863873
    26 4.262829 -0.232721 -1.392178 0.016839 0.076668 0.253758
    27 -2.117496 0.854842 2.567695 -0.464946 -1.307414 3.156115
    28 4.640941 0.000000 0.000000 -0.279952 0.840734 -0.762911
    29 10.828045 0.000000 -0.000002 0.000000 0.000000 -1.279291
    30 9.393339 0.000000 0.000000 -0.526633 0.043097 -0.132316
    31 1.442245 0.107452 -1.746178 1.678715 0.405296 0.309000
    32 1.063452 0.000000 0.000000 0.000000 0.000000 0.199055
    33 1.376307 -0.000002 0.000000 0.000000 0.000000 0.199053
    34 4.172848 -0.251366 -1.312743 -0.027053 0.092220 -0.221268
    35 1.215372 0.000002 -0.000002 0.000000 0.000000 0.277355
    36 1.215370 -0.000002 -0.000002 0.000000 0.000000 0.277354
    37 4.220537 -0.244856 -0.431465 0.005503 0.025715 0.310114
    38 1.350416 0.000000 0.000001 0.000000 0.000000 1.025565
    39 1.350409 -0.000002 0.000000 0.000000 0.000000 1.025587
    40 4.237637 -0.195358 0.527090 0.002076 0.008621 0.423526
    41 1.215376 0.000002 0.000001 0.000000 0.000000 1.139013
    42 1.215372 -0.000002 -0.000001 0.000000 0.000000 1.139013
    43 4.262829 -0.232719 1.392178 -0.028944 -0.072960 0.415902
    44 1.012810 0.000000 0.000000 0.000000 0.000000 1.130350
    45 1.012806 0.000000 0.000000 0.000000 0.000000 1.130350
    46 1.376305 0.000000 0.000000 0.000000 0.000000 0.199055
    47 4.237637 -0.195356 -0.527091 -0.000662 -0.008837 0.261713
    48 1.215378 0.000000 -0.000002 0.000000 0.000000 0.977292
    49 1.215376 0.000000 0.000000 0.000000 0.000000 0.977316
    50 1.012814 0.000000 0.000000 0.000000 0.000000 0.968648
    51 1.012812 -0.000002 0.000001 0.000000 0.000000 0.968646
    52 2.110538 0.000000 0.000000 0.241192 -0.059083 -0.102021
    53 5.253246 3.139475 -1.673515 0.000000 -1.570796 2.984594
    54 5.253262 3.139473 -0.054760 0.000000 -1.570796 2.984594
    55 5.253254 3.139468 1.574632 0.000000 -1.570796 2.984594
    56 4.598148 4.158443 -1.350299 0.000000 -1.570796 2.984594
    57 4.598141 4.158430 -0.054439 0.000000 -1.570796 2.984594
    58 4.598141 4.158430 1.240876 0.000000 -1.570796 2.984594
    59 0.891926 2.373051 -0.014527 -3.141592 -0.000001 1.413797
    60 7.228123 5.709446 3.726568 0.000000 -1.570796 3.140796
  time 10
    0 1.718674 5.770575 37.629715 0.000000 0.000000 -1.701855
    1 -1.972389 -0.484390 0.000000 0.000000 -1.570451 -1.570795
    2 -0.000008 0.000008 4.427393 2.971054 -0.011307 3.013729
    3 18.465942 0.000000 0.000000 0.000000 0.000000 -0.639352
    4 14.875443 0.000000 -0.000001 0.018290 0.016820 0.493956
    5 0.000008 -0.000004 -4.427393 -3.038658 0.045314 2.679364
    6 18.465942 0.000000 0.000000 0.000000 0.000000 -0.530241
    7 14.875444 0.000000 0.000000 0.000928 -0.005483 0.066008
    8 2.255207 -0.007574 0.000003 -0.094899 -0.035349 0.164730
    9 9.514221 -0.009357 0.000000 0.009342 -0.025265 -0.006232
    10 2.450428 5.076128 0.001325 0.000000 -1.570796 2.942975
    11 6.312405 -4.528058 0.001311 0.000000 -1.570796 3.140791
    12 2.233307 1.152535 -7.309138 -1.212408 -1.537098 -0.893008
    13 11.751816 -0.001633 0.000000 0.000024 0.043598 0.439965
    14 -1.890927 0.850948 -2.731760 -0.247814 1.423184 2.456660
    15 4.640943 0.000000 0.000000 -0.453861 -1.079337 0.027432
    16 10.828049 0.000000 0.000000 0.000000 0.000000 -0.268822
    17 9.393341 0.000000 0.000002 1.569609 -0.034188 0.000012
    18 1.442247 0.107454 1.746179 -1.686403 -0.539234 0.325847
    19 1.063452 0.000000 -0.000002 0.000000 0.000000 0.199055
    20 4.172848 -0.251364 1.312743 -0.008024 -0.095730 0.148652
    21 1.215368 0.000000 0.000002 0.000000 0.000000 0.645746
    22 1.215372 0.000000 0.000000 0.000000 0.000000 0.645745
    23 4.220535 -0.244852 0.431466 -0.001334 -0.026240 0.148333
    24 1.350416 0.000000 -0.000001 0.000000 0.000000 0.863854
    25 1.350410 -0.000002 0.000001 0.000000 0.000000 0.863873
    26 4.262829 -0.232721 -1.392178 0.016839 0.076668 0.253758
    27 -2.117496 0.854842 2.567695 -0.401780 -1.320710 3.094671
    28 4.640941 0.000000 0.000000 -0.132021 0.895785 -0.605868
    29 10.828045 0.000000 -0.000002 0.000000 0.000000 -1.346893
    30 9.393339 0.000000 0.000000 -0.561921 0.045848 -0.137883
    31 1.442245 0.107452 -1.746178 1.678903 0.409133 0.309485
    32 1.063452 0.000000 0.000000 0.000000 0.000000 0.199055
    33 1.376307 -0.000002 0.000000 0.000000 0.000000 0.199053
    34 4.172848 -0.251366 -1.312743 -0.026046 0.092507 -0.210610
    35 1.215372 0.000002 -0.000002 0.000000 0.000000 0.287931
    36 1.215370 -0.000002 -0.000002 0.000000 0.000000 0.287930
    37 4.220537 -0.244856 -0.431465 0.005420 0.025739 0.305470
    38 1.350416 0.000000 0.000001 0.000000 0.000000 1.020973
    39 1.350409 -0.000002 0.000000 0.000000 0.000000 1.020931
    40 4.237637 -0.195358 0.527090 0.002040 0.008633 0.418795
    41 1.215376 0.000002 0.000001 0.000000 0.000000 1.134383
    42 1.215372 -0.000002 -0.000001 0.000000 0.000000 1.134341
    43 4.262829 -0.232719 1.392178 -0.028645 -0.073110 0.411166
    44 1.012810 0.000000 0.000000 0.000000 0.000000 1.125667
    45 1.012806 0.000000 0.000000 0.000000 0.000000 1.125667
    46 1.376305 0.000000 0.000000 0.000000 0.000000 0.199055
    47 4.237637 -0.195356 -0.527091 -0.000662 -0.008825 0.261713
    48 1.215378 0.000000 -0.000002 0.000000 0.000000 0.977292
    49 1.215376 0.000000 0.000000 0.000000 0.000000 0.977316
    50 1.012814 0.000000 0.000000 0.000000 0.000000 0.968648
    51 1.012812 -0.000002 0.000001 0.000000 0.000000 0.968646
    52 2.110538 0.000000 0.000000 0.204995 -0.044530 -0.121577
    53 5.253246 3.139475 -1.673515 0.000000 -1.570796 2.984594
    54 5.253262 3.139473 -0.054760 0.000000 -1.570796 2.984594
    55 5.253254 3.139468 1.574632 0.000000 -1.570796 2.984594
    56 4.598148 4.158443 -1.350299 0.000000 -1.570796 2.984594
    57 4.598141 4.158430 -0.054439 0.000000 -1.570796 2.984594
    58 4.598141 4.158430 1.240876 0.000000 -1.570796 2.984594
    59 0.891926 2.373051 -0.014527 -3.141592 -0.000001 1.413797
    60 7.228123 5.709446 3.726568 0.000000 -1.570796 3.140796
  time 11
    0 1.718674 5.832897 37.629715 0.000000 0.000000 -1.701855
    1 -1.800509 -0.472671 0.000000 0.000000 -1.570451 -1.570795
    2 -0.000008 0.000008 4.427393 2.971148 -0.010671 3.022040
    3 18.465942 0.000000 0.000000 0.000000 0.000000 -0.628752
    4 14.875443 0.000000 -0.000001 0.018219 0.016373 0.491823
    5 0.000008 -0.000004 -4.427393 -3.038458 0.045421 2.683939
    6 18.465942 0.000000 0.000000 0.000000 0.000000 -0.528928
    7 14.875444 0.000000 0.000000 0.000705 -0.004816 0.069347
    8 2.255207 -0.007574 0.000003 -0.076139 -0.034912 0.150504
    9 9.514221 -0.009357 0.000000 0.010730 -0.023128 -0.011029
    10 2.450428 5.076128 0.001325 0.000000 -1.570796 2.987795
    11 6.312405 -4.528058 0.001311 0.000000 -1.570796 3.140791
    12 2.233307 1.152535 -7.309138 -1.208383 -1.537039 -0.892624
    13 11.751816 -0.001633 0.000000 0.000024 0.043598 0.439965
    14 -1.890927 0.850948 -2.731760 -0.232911 1.425793 2.471225
    15 4.640943 0.000000 0.000000 -0.456633 -1.087566 0.054271
    16 10.828049 0.000000 0.000000 0.000000 0.000000 -0.265864
    17 9.393341 0.000000 0.000002 1.569609 -0.034188 0.000012
    18 1.442247 0.107454 1.746179 -1.686403 -0.539234 0.325847
    19 1.063452 0.000000 -0.000002 0.000000 0.000000 0.199055
    20 4.172848 -0.251364 1.312743 -0.008024 -0.095730 0.148652
    21 1.215368 0.000000 0.000002 0.000000 0.000000 0.645746
    22 1.215372 0.000000 0.000000 0.000000 0.000000 0.645745
    23 4.220535 -0.244852 0.431466 -0.001334 -0.026240 0.148333
    24 1.350416 0.000000 -0.000001 0.000000 0.000000 0.863854
    25 1.350410 -0.000002 0.000001 0.000000 0.000000 0.863873
    26 4.262829 -0.232721 -1.392178 0.016839 0.076668 0.253758
    27 -2.117496 0.854842 2.563789 -0.345950 -1.332923 3.040607
    28 4.640941 0.000000 0.000000 -0.073171 0.929984 -0.515377
    29 10.828045 0.000000 -0.000002 0.000000 0.000000 -1.302964
    30 9.393339 0.000000 0.000000 -0.632958 0.041607 -0.132316
    31 1.442245 0.107452 -1.746178 1.679342 0.418184 0.310533
    32 1.063452 0.000000 0.000000 0.000000 0.000000 0.199055
    33 1.376307 -0.000002 0.000000 0.000000 0.000000 0.199053
    34 4.172848 -0.251366 -1.312743 -0.023769 0.093131 -0.185767
    35 1.215372 0.000002 -0.000002 0.000000 0.000000 0.312717
    36 1.215370 -0.000002 -0.000002 0.000000 0.000000 0.312717
    37 4.220537 -0.244856 -0.431465 0.005144 0.025799 0.294500
    38 1.350416 0.000000 0.000001 0.000000 0.000000 1.010018
    39 1.350409 -0.000002 0.000000 0.000000 0.000000 1.010068
    40 4.237637 -0.195358 0.527090 0.001932 0.008657 0.407981
    41 1.215376 0.000002 0.000001 0.000000 0.000000 1.123454
    42 1.215372 -0.000002 -0.000001 0.000000 0.000000 1.123453
    43 4.262829 -0.232719 1.392178 -0.027842 -0.073423 0.400261
    44 1.012810 0.000000 0.000000 0.000000 0.000000 1.114766
    45 1.012806 0.000000 0.000000 0.000000 0.000000 1.114766
    46 1.376305 0.000000 0.000000 0.000000 0.000000 0.199055
    47 4.237637 -0.195356 -0.527091 -0.000662 -0.008825 0.261713
    48 1.215378 0.000000 -0.000002 0.000000 0.000000 0.977292
    49 1.215376 0.000000 0.000000 0.000000 0.000000 0.977316
    50 1.012814 0.000000 0.000000 0.000000 0.000000 0.968648
    51 1.012812 -0.000002 0.000001 0.000000 0.000000 0.968646
    52 2.110538 0.000000 0.000000 0.185663 -0.037404 -0.126370
    53 5.253246 3.139475 -1.673515 0.000000 -1.570796 2.984594
    54 5.253262 3.139473 -0.054760 0.000000 -1.570796 2.984594
    55 5.253254 3.139468 1.574632 0.000000 -1.570796 2.984594
    56 4.598148 4.158443 -1.350299 0.000000 -1.570796 2.984594
    57 4.598141 4.158430 -0.054439 0.000000 -1.570796 2.984594
    58 4.598141 4.158430 1.240876 0.000000 -1.570796 2.984594
    59 0.891926 2.373051 -0.014527 -3.141592 -0.000001 1.413797
    60 7.228123 5.709446 3.726568 0.000000 -1.570796 3.140796
  time 12
    0 1.718674 5.886316 37.692723 0.000000 0.000000 -1.701855
    1 -1.628629 -0.453139 0.000000 0.000000 -1.570451 -1.570795
    2 -0.000008 0.000008 4.427393 2.971148 -0.009532 3.031016
    3 18.465942 0.000000 0.000000 0.000000 0.000000 -0.616033
    4 14.875443 0.000000 -0.000001 0.018112 0.015926 0.488149
    5 0.000008 -0.000004 -4.427393 -3.038258 0.045501 2.689879
    6 18.465942 0.000000 0.000000 0.000000 0.000000 -0.524400
    7 14.875444 0.000000 0.000000 0.000394 -0.004240 0.070623
    8 2.255207 -0.007574 0.000003 -0.057622 -0.034361 0.136410
    9 9.514221 -0.009357 0.000000 0.011143 -0.020924 -0.016739
    10 2.450428 5.076128 0.001325 0.000000 -1.570796 3.018133
    11 6.312405 -4.528058 0.001311 0.000000 -1.570796 3.140791
    12 2.233307 1.152535 -7.309138 -1.203591 -1.537010 -0.892145
    13 11.751816 -0.001633 0.000000 0.000024 0.043598 0.439965
    14 -1.894833 0.854855 -2.731760 -0.236983 1.429325 2.467143
    15 4.640943 0.000000 0.000000 -0.461315 -1.096702 0.084327
    16 10.828049 0.000000 0.000000 0.000000 0.000000 -0.262971
    17 9.393341 0.000000 0.000002 1.569609 -0.034188 0.000012
    18 1.442247 0.107454 1.746179 -1.686403 -0.539234 0.325847
    19 1.063452 0.000000 -0.000002 0.000000 0.000000 0.199055
    20 4.172848 -0.251364 1.312743 -0.008024 -0.095730 0.148652
    21 1.215368 0.000000 0.000002 0.000000 0.000000 0.645746
    22 1.215372 0.000000 0.000000 0.000000 0.000000 0.645745
    23 4.220535 -0.244852 0.431466 -0.001334 -0.026240 0.148333
    24 1.350416 0.000000 -0.000001 0.000000 0.000000 0.863812
    25 1.350410 -0.000002 0.000001 0.000000 0.000000 0.863873
    26 4.262829 -0.232721 -1.392178 0.016839 0.076668 0.253758
    27 -2.117496 0.854842 2.563789 -0.284308 -1.344960 2.980408
    28 4.640941 0.000000 0.000000 -0.014942 0.961442 -0.422720
    29 10.828045 0.000000 -0.000002 0.000000 0.000000 -1.248968
    30 9.393339 0.000000 0.000000 -0.708417 0.037175 -0.124696
    31 1.442245 0.107452 -1.746178 1.679781 0.427821 0.311683
    32 1.063452 0.000000 0.000000 0.000000 0.000000 0.199055
    33 1.376307 -0.000002 0.000000 0.000000 0.000000 0.199053
    34 4.172848 -0.251366 -1.312743 -0.021240 0.093682 -0.159120
    35 1.215372 0.000002 -0.000002 0.000000 0.000000 0.339259
    36 1.215370 -0.000002 -0.000002 0.000000 0.000000 0.339259
    37 4.220537 -0.244856 -0.431465 0.004796 0.025858 0.282890
    38 1.350416 0.000000 0.000001 0.000000 0.000000 0.998394
    39 1.350409 -0.000002 0.000000 0.000000 0.000000 0.998389
    40 4.237637 -0.195358 0.527090 0.001812 0.008681 0.396332
    41 1.215376 0.000002 0.000001 0.000000 0.000000 1.111857
    42 1.215372 -0.000002 -0.000001 0.000000 0.000000 1.111815
    43 4.262829 -0.232719 1.392178 -0.026979 -0.073724 0.388520
    44 1.012810 0.000000 0.000000 0.000000 0.000000 1.103119
    45 1.012806 0.000000 0.000000 0.000000 0.000000 1.103119
    46 1.376305 0.000000 0.000000 0.000000 0.000000 0.199055
    47 4.237637 -0.195356 -0.527091 -0.000662 -0.008825 0.261713
    48 1.215378 0.000000 -0.000002 0.000000 0.000000 0.977292
    49 1.215376 0.000000 0.000000 0.000000 0.000000 0.977316
    50 1.012814 0.000000 0.000000 0.000000 0.000000 0.968606
    51 1.012812 -0.000002 0.000001 0.000000 0.000000 0.968646
    52 2.110538 0.000000 0.000000 0.167410 -0.031270 -0.130492
    53 5.253246 3.139475 -1.673515 0.000000 -1.570796 2.984594
    54 5.253262 3.139473 -0.054760 0.000000 -1.570796 2.984594
    55 5.253254 3.139468 1.574632 0.000000 -1.570796 2.984594
    56 4.598148 4.158443 -1.350299 0.000000 -1.570796 2.984594
    57 4.598141 4.158430 -0.054439 0.000000 -1.570796 2.984594
    58 4.598141 4.158430 1.240876 0.000000 -1.570796 2.984594
    59 0.891926 2.373051 -0.014527 -3.141592 -0.000001 1.413797
    60 7.228123 5.709446 3.726568 0.000000 -1.570796 3.140796
  time 13
    0 1.718674 5.939735 37.739979 0.000000 0.000000 -1.701855
    1 -1.448936 -0.441420 0.000000 0.000000 -1.570451 -1.570795
    2 -0.000008 0.000008 4.427393 2.971148 -0.008193 3.040407
    3 18.465942 0.000000 0.000000 0.000000 0.000000 -0.601486
    4 14.875443 0.000000 -0.000001 0.018112 0.015628 0.482935
    5 0.000008 -0.000004 -4.427393 -3.037958 0.045421 2.696702
    6 18.465942 0.000000 0.000000 0.000000 0.000000 -0.517115
    7 14.875444 0.000000 0.000000 0.000216 -0.003664 0.070097
    8 2.255207 -0.007574 0.000003 -0.039267 -0.033620 0.122382
    9 9.514221 -0.009357 0.000000 0.010655 -0.018640 -0.023265
    10 2.450428 5.076128 0.001325 0.000000 -1.570796 3.035584
    11 6.312405 -4.528058 0.001311 0.000000 -1.570796 3.140791
    12 2.233307 1.152535 -7.309138 -1.197937 -1.536923 -0.891570
    13 11.751816 -0.001633 0.000000 0.000024 0.043598 0.439965
    14 -1.890927 0.850948 -2.731760 -0.258459 1.433666 2.445713
    15 4.640943 0.000000 0.000000 -0.468100 -1.106535 0.117444
    16 10.828049 0.000000 0.000000 0.000000 0.000000 -0.260013
    17 9.393341 0.000000 0.000002 1.569609 -0.034188 0.000012
    18 1.442247 0.107454 1.746179 -1.686403 -0.539234 0.325847
    19 1.063452 0.000000 -0.000002 0.000000 0.000000 0.199055
    20 4.172848 -0.251364 1.312743 -0.008024 -0.095730 0.148652
    21 1.215368 0.000000 0.000002 0.000000 0.000000 0.645746
    22 1.215372 0.000000 0.000000 0.000000 0.000000 0.645745
    23 4.220535 -0.244852 0.431466 -0.001334 -0.026240 0.148333
    24 1.350416 0.000000 -0.000001 0.000000 0.000000 0.863854
    25 1.350410 -0.000002 0.000001 0.000000 0.000000 0.863873
    26 4.262829 -0.232721 -1.392178 0.016839 0.076668 0.253758
    27 -2.117496 0.854842 2.567695 -0.216093 -1.356468 2.913404
    28 4.640941 0.000000 0.000000 0.043783 0.990447 -0.327254
    29 10.828045 0.000000 -0.000002 0.000000 0.000000 -1.186431
    30 9.393339 0.000000 0.000000 -0.787654 0.032743 -0.115466
    31 1.442245 0.107452 -1.746178 1.680345 0.438000 0.312910
    32 1.063452 0.000000 0.000000 0.000000 0.000000 0.199055
    33 1.376307 -0.000002 0.000000 0.000000 0.000000 0.199053
    34 4.172848 -0.251366 -1.312743 -0.018640 0.094245 -0.130952
    35 1.215372 0.000002 -0.000002 0.000000 0.000000 0.367312
    36 1.215370 -0.000002 -0.000002 0.000000 0.000000 0.367311
    37 4.220537 -0.244856 -0.431465 0.004521 0.025882 0.270559
    38 1.350416 0.000000 0.000001 0.000000 0.000000 0.986052
    39 1.350409 -0.000002 0.000000 0.000000 0.000000 0.986097
    40 4.237637 -0.195358 0.527090 0.001704 0.008705 0.384007
    41 1.215376 0.000002 0.000001 0.000000 0.000000 1.099468
    42 1.215372 -0.000002 -0.000001 0.000000 0.000000 1.099510
    43 4.262829 -0.232719 1.392178 -0.026044 -0.074074 0.376222
    44 1.012810 0.000000 0.000000 0.000000 0.000000 1.090767
    45 1.012806 0.000000 0.000000 0.000000 0.000000 1.090767
    46 1.376305 0.000000 0.000000 0.000000 0.000000 0.199055
    47 4.237637 -0.195356 -0.527091 -0.000662 -0.008837 0.261713
    48 1.215378 0.000000 -0.000002 0.000000 0.000000 0.977292
    49 1.215376 0.000000 0.000000 0.000000 0.000000 0.977316
    50 1.012814 0.000000 0.000000 0.000000 0.000000 0.968606
    51 1.012812 -0.000002 0.000001 0.000000 0.000000 0.968646
    52 2.110538 0.000000 0.000000 0.149929 -0.026099 -0.133799
    53 5.253246 3.139475 -1.673515 0.000000 -1.570796 2.984594
    54 5.253262 3.139473 -0.054760 0.000000 -1.570796 2.984594
    55 5.253254 3.139468 1.574632 0.000000 -1.570796 2.984594
    56 4.598148 4.158443 -1.350299 0.000000 -1.570796 2.984594
    57 4.598141 4.158430 -0.054439 0.000000 -1.570796 2.984594
    58 4.598141 4.158430 1.240876 0.000000 -1.570796 2.984594
    59 0.891926 2.373051 -0.014527 -3.141592 -0.000001 1.413797
    60 7.228123 5.709446 3.726568 0.000000 -1.570796 3.140796
  time 14
    0 1.718674 6.019864 37.802987 0.000000 0.000000 -1.701855
    1 -1.269243 -0.421888 0.000000 0.000000 -1.570451 -1.570795
    2 -0.000008 0.000008 4.427393 2.971148 -0.006652 3.050297
    3 18.465942 0.000000 0.000000 0.000000 0.000000 -0.585184
    4 14.875443 0.000000 -0.000001 0.018041 0.015394 0.476614
    5 0.000008 -0.000004 -4.427393 -3.037657 0.045314 2.704408
    6 18.465942 0.000000 0.000000 0.000000 0.000000 -0.507401
    7 14.875444 0.000000 0.000000 -0.000050 -0.003058 0.068072
    8 2.255207 -0.007574 0.000003 -0.021074 -0.032689 0.108420
    9 9.514221 -0.009357 0.000000 0.009492 -0.016301 -0.030476
    10 2.450428 5.076128 0.001325 0.000000 -1.570796 3.050717
    11 6.312405 -4.528058 0.001311 0.000000 -1.570796 3.140791
    12 2.233307 1.152535 -7.309138 -1.191803 -1.536777 -0.890804
    13 11.751816 -0.001633 0.000000 0.000024 0.043598 0.439965
    14 -1.890927 0.850948 -2.731760 -0.296503 1.438537 2.407863
    15 4.640943 0.000000 0.000000 -0.476892 -1.116717 0.153543
    16 10.828049 0.000000 0.000000 0.000000 0.000000 -0.257184
    17 9.393341 0.000000 0.000002 1.569609 -0.034188 0.000012
    18 1.442247 0.107454 1.746179 -1.686403 -0.539234 0.325847
    19 1.063452 0.000000 -0.000002 0.000000 0.000000 0.199055
    20 4.172848 -0.251364 1.312743 -0.008024 -0.095730 0.148652
    21 1.215368 0.000000 0.000002 0.000000 0.000000 0.645746
    22 1.215372 0.000000 0.000000 0.000000 0.000000 0.645745
    23 4.220535 -0.244852 0.431466 -0.001334 -0.026240 0.148333
    24 1.350416 0.000000 -0.000001 0.000000 0.000000 0.863854
    25 1.350410 -0.000002 0.000001 0.000000 0.000000 0.863873
    26 4.262829 -0.232721 -1.392178 0.016839 0.076668 0.253758
    27 -2.117496 0.850936 2.567695 -0.140065 -1.367296 2.838731
    28 4.640941 0.000000 0.000000 0.104123 1.016998 -0.228334
    29 10.828045 0.000000 -0.000002 0.000000 0.000000 -1.116511
    30 9.393339 0.000000 0.000000 -0.870300 0.028846 -0.104721
    31 1.442245 0.107452 -1.746178 1.680878 0.448675 0.314187
    32 1.063452 0.000000 0.000000 0.000000 0.000000 0.199055
    33 1.376307 -0.000002 0.000000 0.000000 0.000000 0.199053
    34 4.172848 -0.251366 -1.312743 -0.015835 0.094785 -0.101541
    35 1.215372 0.000002 -0.000002 0.000000 0.000000 0.396549
    36 1.215370 -0.000002 -0.000002 0.000000 0.000000 0.396548
    37 4.220537 -0.244856 -0.431465 0.004149 0.025942 0.257748
    38 1.350416 0.000000 0.000001 0.000000 0.000000 0.973231
    39 1.350409 -0.000002 0.000000 0.000000 0.000000 0.973234
    40 4.237637 -0.195358 0.527090 0.001584 0.008717 0.371086
    41 1.215376 0.000002 0.000001 0.000000 0.000000 1.086662
    42 1.215372 -0.000002 -0.000001 0.000000 0.000000 1.086662
    43 4.262829 -0.232719 1.392178 -0.025085 -0.074374 0.363327
    44 1.012810 0.000000 0.000000 0.000000 0.000000 1.077918
    45 1.012806 0.000000 0.000000 0.000000 0.000000 1.077918
    46 1.376305 0.000000 0.000000 0.000000 0.000000 0.199055
    47 4.237637 -0.195356 -0.527091 -0.000662 -0.008837 0.261713
    48 1.215378 0.000000 -0.000002 0.000000 0.000000 0.977292
    49 1.215376 0.000000 0.000000 0.000000 0.000000 0.977316
    50 1.012814 0.000000 0.000000 0.000000 0.000000 0.968648
    51 1.012812 -0.000002 0.000001 0.000000 0.000000 0.968646
    52 2.110538 0.000000 0.000000 0.132910 -0.021709 -0.136531
    53 5.253246 3.139475 -1.673515 0.000000 -1.570796 2.984594
    54 5.253262 3.139473 -0.054760 0.000000 -1.570796 2.984594
    55 5.253254 3.139468 1.574632 0.000000 -1.570796 2.984594
    56 4.598148 4.158443 -1.350299 0.000000 -1.570796 2.984594
    57 4.598141 4.158430 -0.054439 0.000000 -1.570796 2.984594
    58 4.598141 4.158430 1.240876 0.000000 -1.570796 2.984594
    59 0.891926 2.373051 -0.014527 -3.141592 -0.000001 1.413797
    60 7.228123 5.709446 3.726568 0.000000 -1.570796 3.140796
  time 15
    0 1.718674 6.135605 37.865995 0.000000 0.000000 -1.701855
    1 -1.081737 -0.390637 0.000000 0.000000 -1.570451 -1.570795
    2 -0.000008 0.000008 4.427393 2.971148 -0.005112 3.060519
    3 18.465942 0.000000 0.000000 0.000000 0.000000 -0.567348
    4 14.875443 0.000000 -0.000001 0.018041 0.015245 0.469227
    5 0.000008 -0.000004 -4.427393 -3.037407 0.045126 2.712916
    6 18.465942 0.000000 0.000000 0.000000 0.000000 -0.495653
    7 14.875444 0.000000 0.000000 -0.000272 -0.002300 0.064733
    8 2.255207 -0.007574 0.000003 -0.002962 -0.031586 0.094558
    9 9.514221 -0.009357 0.000000 0.007804 -0.013923 -0.038177
    10 2.450428 5.076128 0.001325 0.000000 -1.570796 3.064329
    11 6.312405 -4.528058 0.001311 0.000000 -1.570796 3.140791
    12 2.233307 1.152535 -7.309138 -1.185286 -1.536719 -0.890037
    13 11.751816 -0.001633 0.000000 0.000024 0.043598 0.439965
    14 -1.890927 0.850948 -2.731760 -0.350191 1.443547 2.354706
    15 4.640943 0.000000 0.000000 -0.487787 -1.127108 0.192467
    16 10.828049 0.000000 0.000000 0.000000 0.000000 -0.254355
    17 9.393341 0.000000 0.000002 1.569609 -0.034188 0.000012
    18 1.442247 0.107454 1.746179 -1.686403 -0.539234 0.325847
    19 1.063452 0.000000 -0.000002 0.000000 0.000000 0.199055
    20 4.172848 -0.251364 1.312743 -0.008024 -0.095730 0.148652
    21 1.215368 0.000000 0.000002 0.000000 0.000000 0.645746
    22 1.215372 0.000000 0.000000 0.000000 0.000000 0.645745
    23 4.220535 -0.244852 0.431466 -0.001334 -0.026240 0.148333
    24 1.350416 0.000000 -0.000001 0.000000 0.000000 0.863854
    25 1.350410 -0.000002 0.000001 0.000000 0.000000 0.863873
    26 4.262829 -0.232721 -1.392178 0.016839 0.076668 0.253758
    27 -2.117496 0.850936 2.563789 -0.055748 -1.376966 2.755910
    28 4.640941 0.000000 0.000000 0.167256 1.041025 -0.125258
    29 10.828045 0.000000 -0.000002 0.000000 0.000000 -1.040795
    30 9.393339 0.000000 0.000000 -0.955341 0.025675 -0.092560
    31 1.442245 0.107452 -1.746178 1.681442 0.459666 0.315567
    32 1.063452 0.000000 0.000000 0.000000 0.000000 0.199055
    33 1.376307 -0.000002 0.000000 0.000000 0.000000 0.199053
    34 4.172848 -0.251366 -1.312743 -0.012983 0.095192 -0.071128
    35 1.215372 0.000002 -0.000002 0.000000 0.000000 0.426766
    36 1.215370 -0.000002 -0.000002 0.000000 0.000000 0.426766
    37 4.220537 -0.244856 -0.431465 0.003838 0.025990 0.244416
    38 1.350416 0.000000 0.000001 0.000000 0.000000 0.959885
    39 1.350409 -0.000002 0.000000 0.000000 0.000000 0.959921
    40 4.237637 -0.195358 0.527090 0.001513 0.008741 0.357807
    41 1.215376 0.000002 0.000001 0.000000 0.000000 1.073397
    42 1.215372 -0.000002 -0.000001 0.000000 0.000000 1.073397
    43 4.262829 -0.232719 1.392178 -0.024127 -0.074737 0.350034
    44 1.012810 0.000000 0.000000 0.000000 0.000000 1.064655
    45 1.012806 0.000000 0.000000 0.000000 0.000000 1.064655
    46 1.376305 0.000000 0.000000 0.000000 0.000000 0.199055
    47 4.237637 -0.195356 -0.527091 -0.000662 -0.008825 0.261713
    48 1.215378 0.000000 -0.000002 0.000000 0.000000 0.977292
    49 1.215376 0.000000 0.000000 0.000000 0.000000 0.977316
    50 1.012814 0.000000 0.000000 0.000000 0.000000 0.968648
    51 1.012812 -0.000002 0.000001 0.000000 0.000000 0.968646
    52 2.110538 0.000000 0.000000 0.116457 -0.018101 -0.138880
    53 5.253246 3.139475 -1.673515 0.000000 -1.570796 2.984594
    54 5.253262 3.139473 -0.054760 0.000000 -1.570796 2.984594
    55 5.253254 3.139468 1.574632 0.000000 -1.570796 2.984594
    56 4.598148 4.158443 -1.350299 0.000000 -1.570796 2.984594
    57 4.598141 4.158430 -0.054439 0.000000 -1.570796 2.984594
    58 4.598141 4.158430 1.240876 0.000000 -1.570796 2.984594
    59 0.891926 2.373051 -0.014527 -3.141592 -0.000001 1.413797
    60 7.228123 5.709446 3.726568 0.000000 -1.570796 3.140796
  time 16
    0 1.718674 6.189024 37.960507 0.000000 0.000000 -1.701855
    1 -0.902044 -0.367199 0.000000 0.000000 -1.570451 -1.570795
    2 -0.000008 0.000008 4.427393 2.971148 -0.003303 3.071074
    3 18.465942 0.000000 0.000000 0.000000 0.000000 -0.548122
    4 14.875443 0.000000 -0.000001 0.018041 0.015245 0.460813
    5 0.000008 -0.000004 -4.427393 -3.037107 0.044939 2.721987
    6 18.465942 0.000000 0.000000 0.000000 0.000000 -0.482330
    7 14.875444 0.000000 0.000000 -0.000450 -0.001633 0.060381
    8 2.255207 -0.007574 0.000003 0.014826 -0.030275 0.080728
    9 9.514221 -0.009357 0.000000 0.005628 -0.011557 -0.046236
    10 2.450428 5.076128 0.001325 0.000000 -1.570796 3.076421
    11 6.312405 -4.528058 0.001311 0.000000 -1.570796 3.140791
    12 2.233307 1.152535 -7.309138 -1.178578 -1.536544 -0.889270
    13 11.751816 -0.001633 0.000000 0.000024 0.043598 0.439965
    14 -1.894833 0.850948 -2.731760 -0.418319 1.448395 2.286984
    15 4.640943 0.000000 0.000000 -0.500688 -1.137499 0.233824
    16 10.828049 0.000000 0.000000 0.000000 0.000000 -0.251526
    17 9.393341 0.000000 0.000002 1.569609 -0.034188 0.000012
    18 1.442247 0.107454 1.746179 -1.686403 -0.539234 0.325847
    19 1.063452 0.000000 -0.000002 0.000000 0.000000 0.199055
    20 4.172848 -0.251364 1.312743 -0.008024 -0.095730 0.148652
    21 1.215368 0.000000 0.000002 0.000000 0.000000 0.645746
    22 1.215372 0.000000 0.000000 0.000000 0.000000 0.645745
    23 4.220535 -0.244852 0.431466 -0.001334 -0.026240 0.148333
    24 1.350416 0.000000 -0.000001 0.000000 0.000000 0.863854
    25 1.350410 -0.000002 0.000001 0.000000 0.000000 0.863873
    26 4.262829 -0.232721 -1.392178 0.016839 0.076668 0.253758
    27 -2.117496 0.850936 2.563789 0.037048 -1.385427 2.663983
    28 4.640941 0.000000 0.000000 0.234486 1.062093 -0.017149
    29 10.828045 0.000000 -0.000002 0.000000 0.000000 -0.960747
    30 9.393339 0.000000 0.000000 -1.042594 0.023421 -0.079568
    31 1.442245 0.107452 -1.746178 1.682100 0.470951 0.316973
    32 1.063452 0.000000 0.000000 0.000000 0.000000 0.199055
    33 1.376307 -0.000002 0.000000 0.000000 0.000000 0.199053
    34 4.172848 -0.251366 -1.312743 -0.010011 0.095588 -0.039954
    35 1.215372 0.000002 -0.000002 0.000000 0.000000 0.457922
    36 1.215370 -0.000002 -0.000002 0.000000 0.000000 0.457922
    37 4.220537 -0.244856 -0.431465 0.003478 0.026038 0.230805
    38 1.350416 0.000000 0.000001 0.000000 0.000000 0.946346
    39 1.350409 -0.000002 0.000000 0.000000 0.000000 0.946322
    40 4.237637 -0.195358 0.527090 0.001393 0.008765 0.344210
    41 1.215376 0.000002 0.000001 0.000000 0.000000 1.059798
    42 1.215372 -0.000002 -0.000001 0.000000 0.000000 1.059756
    43 4.262829 -0.232719 1.392178 -0.023108 -0.075025 0.336343
    44 1.012810 0.000000 0.000000 0.000000 0.000000 1.051060
    45 1.012806 0.000000 0.000000 0.000000 0.000000 1.051060
    46 1.376305 0.000000 0.000000 0.000000 0.000000 0.199055
    47 4.237637 -0.195356 -0.527091 -0.000662 -0.008825 0.261713
    48 1.215378 0.000000 -0.000002 0.000000 0.000000 0.977292
    49 1.215376 0.000000 0.000000 0.000000 0.000000 0.977316
    50 1.012814 0.000000 0.000000 0.000000 0.000000 0.968648
    51 1.012812 -0.000002 0.000001 0.000000 0.000000 0.968646
    52 2.110538 0.000000 0.000000 0.100261 -0.015184 -0.140893
    53 5.253246 3.139475 -1.673515 0.000000 -1.570796 2.984594
    54 5.253262 3.139473 -0.054760 0.000000 -1.570796 2.984594
    55 5.253254 3.139468 1.574632 0.000000 -1.570796 2.984594
    56 4.598148 4.158443 -1.350299 0.000000 -1.570796 2.984594
    57 4.598141 4.158430 -0.054439 0.000000 -1.570796 2.984594
    58 4.598141 4.158430 1.240876 0.000000 -1.570796 2.984594
    59 0.891926 2.373051 -0.014527 -3.141592 -0.000001 1.413797
    60 7.228123 5.709446 3.726568 0.000000 -1.570796 3.140796
  time 17
    0 1.718674 6.295862 38.007763 0.000000 0.000000 -1.701855
    1 -0.722351 -0.335948 0.000000 0.000000 -1.570451 -1.570795
    2 -0.000008 0.000008 4.427393 2.971054 -0.001294 3.082210
    3 18.465942 0.000000 0.000000 0.000000 0.000000 -0.527800
    4 14.875443 0.000000 -0.000001 0.018041 0.015309 0.451806
    5 0.000008 -0.000004 -4.427393 -3.036807 0.044832 2.731298
    6 18.465942 0.000000 0.000000 0.000000 0.000000 -0.467761
    7 14.875444 0.000000 0.000000 -0.000761 -0.000754 0.055242
    8 2.255207 -0.007574 0.000003 0.032776 -0.028755 0.066965
    9 9.514221 -0.009357 0.000000 0.003114 -0.009179 -0.054590
    10 2.450428 5.076128 0.001325 0.000000 -1.570796 3.087499
    11 6.312405 -4.528058 0.001311 0.000000 -1.570796 3.140791
    12 2.233307 1.152535 -7.309138 -1.171582 -1.536515 -0.888600
    13 11.751816 -0.001633 0.000000 0.000024 0.043598 0.439965
    14 -1.890927 0.854855 -2.731760 -0.498573 1.452689 2.207201
    15 4.640943 0.000000 0.000000 -0.515405 -1.147402 0.277535
    16 10.828049 0.000000 0.000000 0.000000 0.000000 -0.248568
    17 9.393341 0.000000 0.000002 1.569609 -0.034188 0.000012
    18 1.442247 0.107454 1.746179 -1.686403 -0.539234 0.325847
    19 1.063452 0.000000 -0.000002 0.000000 0.000000 0.199055
    20 4.172848 -0.251364 1.312743 -0.008024 -0.095730 0.148652
    21 1.215368 0.000000 0.000002 0.000000 0.000000 0.645746
    22 1.215372 0.000000 0.000000 0.000000 0.000000 0.645745
    23 4.220535 -0.244852 0.431466 -0.001334 -0.026240 0.148333
    24 1.350416 0.000000 -0.000001 0.000000 0.000000 0.863854
    25 1.350410 -0.000002 0.000001 0.000000 0.000000 0.863873
    26 4.262829 -0.232721 -1.392178 0.016839 0.076668 0.253758
    27 -2.117496 0.854842 2.563789 0.137752 -1.392352 2.564003
    28 4.640941 0.000000 0.000000 0.306744 1.079842 0.096521
    29 10.828045 0.000000 -0.000002 0.000000 0.000000 -0.877831
    30 9.393339 0.000000 0.000000 -1.130860 0.022198 -0.065893
    31 1.442245 0.107452 -1.746178 1.682790 0.482394 0.318430
    32 1.063452 0.000000 0.000000 0.000000 0.000000 0.199055
    33 1.376307 -0.000002 0.000000 0.000000 0.000000 0.199053
    34 4.172848 -0.251366 -1.312743 -0.006991 0.095815 -0.008299
    35 1.215372 0.000002 -0.000002 0.000000 0.000000 0.489405
    36 1.215370 -0.000002 -0.000002 0.000000 0.000000 0.489405
    37 4.220537 -0.244856 -0.431465 0.003094 0.026086 0.216952
    38 1.350416 0.000000 0.000001 0.000000 0.000000 0.932474
    39 1.350409 -0.000002 0.000000 0.000000 0.000000 0.932478
    40 4.237637 -0.195358 0.527090 0.001273 0.008777 0.330414
    41 1.215376 0.000002 0.000001 0.000000 0.000000 1.045907
    42 1.215372 -0.000002 -0.000001 0.000000 0.000000 1.045907
    43 4.262829 -0.232719 1.392178 -0.022029 -0.075350 0.322532
    44 1.012810 0.000000 0.000000 0.000000 0.000000 1.037216
    45 1.012806 0.000000 0.000000 0.000000 0.000000 1.037216
    46 1.376305 0.000000 0.000000 0.000000 0.000000 0.199055
    47 4.237637 -0.195356 -0.527091 -0.000662 -0.008825 0.261713
    48 1.215378 0.000000 -0.000002 0.000000 0.000000 0.977292
    49 1.215376 0.000000 0.000000 0.000000 0.000000 0.977316
    50 1.012814 0.000000 0.000000 0.000000 0.000000 0.968648
    51 1.012812 -0.000002 0.000001 0.000000 0.000000 0.968646
    52 2.110538 0.000000 0.000000 0.084322 -0.012959 -0.142570
    53 5.253246 3.139475 -1.673515 0.000000 -1.570796 2.984594
    54 5.253262 3.139473 -0.054760 0.000000 -1.570796 2.984594
    55 5.253254 3.139468 1.574632 0.000000 -1.570796 2.984594
    56 4.598148 4.158443 -1.350299 0.000000 -1.570796 2.984594
    57 4.598141 4.158430 -0.054439 0.000000 -1.570796 2.984594
    58 4.598141 4.158430 1.240876 0.000000 -1.570796 2.984594
    59 0.891926 2.373051 -0.014527 -3.141592 -0.000001 1.413797
    60 7.228123 5.709446 3.726568 0.000000 -1.570796 3.140796
  time 18
    0 1.718674 6.375991 38.086523 0.000000 0.000000 -1.701855
    1 -0.538752 -0.304697 0.000000 0.000000 -1.570451 -1.570795
    2 -0.000008 0.000008 4.427393 2.971054 0.000916 3.093679
    3 18.465942 0.000000 0.000000 0.000000 0.000000 -0.506455
    4 14.875443 0.000000 -0.000001 0.018041 0.015522 0.442088
    5 0.000008 -0.000004 -4.427393 -3.036407 0.044752 2.741091
    6 18.465942 0.000000 0.000000 0.000000 0.000000 -0.452469
    7 14.875444 0.000000 0.000000 -0.000939 0.000125 0.049652
    8 2.255207 -0.007574 0.000003 0.050604 -0.027006 0.053268
    9 9.514221 -0.009357 0.000000 0.000488 -0.006813 -0.063106
    10 2.450428 5.076128 0.001325 0.000000 -1.570796 3.097854
    11 6.312405 -4.528058 0.001311 0.000000 -1.570796 3.140791
    12 2.233307 1.152535 -7.309138 -1.164778 -1.536340 -0.887737
    13 11.751816 -0.001633 0.000000 0.000024 0.043598 0.439965
    14 -1.890927 0.854855 -2.731760 -0.587991 1.456152 2.118049
    15 4.640943 0.000000 0.000000 -0.531938 -1.156747 0.322894
    16 10.828049 0.000000 0.000000 0.000000 0.000000 -0.245739
    17 9.393341 0.000000 0.000002 1.569609 -0.034188 0.000012
    18 1.442247 0.107454 1.746179 -1.686403 -0.539234 0.325847
    19 1.063452 0.000000 -0.000002 0.000000 0.000000 0.199055
    20 4.172848 -0.251364 1.312743 -0.008024 -0.095730 0.148652
    21 1.215368 0.000000 0.000002 0.000000 0.000000 0.645746
    22 1.215372 0.000000 0.000000 0.000000 0.000000 0.645745
    23 4.220535 -0.244852 0.431466 -0.001334 -0.026240 0.148333
    24 1.350416 0.000000 -0.000001 0.000000 0.000000 0.863854
    25 1.350410 -0.000002 0.000001 0.000000 0.000000 0.863873
    26 4.262829 -0.232721 -1.392178 0.016839 0.076668 0.253758
    27 -2.117496 0.850936 2.567695 0.245791 -1.397363 2.456451
    28 4.640941 0.000000 0.000000 0.384776 1.093551 0.215928
    29 10.828045 0.000000 -0.000002 0.000000 0.000000 -0.793329
    30 9.393339 0.000000 0.000000 -1.219955 0.022198 -0.051827
    31 1.442245 0.107452 -1.746178 1.683479 0.493972 0.319886
    32 1.063452 0.000000 0.000000 0.000000 0.000000 0.199055
    33 1.376307 -0.000002 0.000000 0.000000 0.000000 0.199053
    34 4.172848 -0.251366 -1.312743 -0.003911 0.095983 0.023556
    35 1.215372 0.000002 -0.000002 0.000000 0.000000 0.521133
    36 1.215370 -0.000002 -0.000002 0.000000 0.000000 0.521133
    37 4.220537 -0.244856 -0.431465 0.002759 0.026122 0.202980
    38 1.350416 0.000000 0.000001 0.000000 0.000000 0.918553
    39 1.350409 -0.000002 0.000000 0.000000 0.000000 0.918512
    40 4.237637 -0.195358 0.527090 0.001105 0.008789 0.316459
    41 1.215376 0.000002 0.000001 0.000000 0.000000 1.031975
    42 1.215372 -0.000002 -0.000001 0.000000 0.000000 1.031974
    43 4.262829 -0.232719 1.392178 -0.021011 -0.075663 0.308563
    44 1.012810 0.000000 0.000000 0.000000 0.000000 1.023248
    45 1.012806 0.000000 0.000000 0.000000 0.000000 1.023248
    46 1.376305 0.000000 0.000000 0.000000 0.000000 0.199055
    47 4.237637 -0.195356 -0.527091 -0.000662 -0.008825 0.261713
    48 1.215378 0.000000 -0.000002 0.000000 0.000000 0.977292
    49 1.215376 0.000000 0.000000 0.000000 0.000000 0.977316
    50 1.012814 0.000000 0.000000 0.000000 0.000000 0.968606
    51 1.012812 -0.000002 0.000001 0.000000 0.000000 0.968646
    52 2.110538 0.000000 0.000000 0.068332 -0.011396 -0.144248
    53 5.253246 3.139475 -1.673515 0.000000 -1.570796 2.984594
    54 5.253262 3.139473 -0.054760 0.000000 -1.570796 2.984594
    55 5.253254 3.139468 1.574632 0.000000 -1.570796 2.984594
    56 4.598148 4.158443 -1.350299 0.000000 -1.570796 2.984594
    57 4.598141 4.158430 -0.054439 0.000000 -1.570796 2.984594
    58 4.598141 4.158430 1.240876 0.000000 -1.570796 2.984594
    59 0.891926 2.373051 -0.014527 -3.141592 -0.000001 1.413797
    60 7.228123 5.709446 3.726568 0.000000 -1.570796 3.140796
  time 19
    0 1.718674 6.518442 38.181035 0.000000 0.000000 -1.701855
    1 -0.359059 -0.261727 0.000000 0.000000 -1.570451 -1.570795
    2 -0.000008 0.000008 4.427393 2.970960 0.003328 3.105480
    3 18.465942 0.000000 0.000000 0.000000 0.000000 -0.484379
    4 14.875443 0.000000 -0.000001 0.018112 0.015777 0.432094
    5 0.000008 -0.000004 -4.427393 -3.036157 0.044752 2.750964
    6 18.465942 0.000000 0.000000 0.000000 0.000000 -0.436914
    7 14.875444 0.000000 0.000000 -0.001117 0.001186 0.043912
    8 2.255207 -0.007574 0.000003 0.068473 -0.025011 0.039571
    9 9.514221 -0.009357 0.000000 -0.002101 -0.004462 -0.071655
    10 2.450428 5.076128 0.001325 0.000000 -1.570796 3.108063
    11 6.312405 -4.528058 0.001311 0.000000 -1.570796 3.140791
    12 2.233307 1.152535 -7.309138 -1.158069 -1.536282 -0.886683
    13 11.751816 -0.001633 0.000000 0.000024 0.043598 0.439965
    14 -1.890927 0.850948 -2.731760 -0.682037 1.458668 2.024352
    15 4.640943 0.000000 0.000000 -0.549235 -1.165116 0.369352
    16 10.828049 0.000000 0.000000 0.000000 0.000000 -0.242910
    17 9.393341 0.000000 0.000002 1.569609 -0.034188 0.000012
    18 1.442247 0.107454 1.746179 -1.686403 -0.539234 0.325847
    19 1.063452 0.000000 -0.000002 0.000000 0.000000 0.199055
    20 4.172848 -0.251364 1.312743 -0.008024 -0.095730 0.148652
    21 1.215368 0.000000 0.000002 0.000000 0.000000 0.645746
    22 1.215372 0.000000 0.000000 0.000000 0.000000 0.645745
    23 4.220535 -0.244852 0.431466 -0.001334 -0.026240 0.148333
    24 1.350416 0.000000 -0.000001 0.000000 0.000000 0.863854
    25 1.350410 -0.000002 0.000001 0.000000 0.000000 0.863873
    26 4.262829 -0.232721 -1.392178 0.016839 0.076668 0.253758
    27 -2.117496 0.854842 2.563789 0.359071 -1.400284 2.343819
    28 4.640941 0.000000 0.000000 0.468394 1.102209 0.340485
    29 10.828045 0.000000 -0.000002 0.000000 0.000000 -0.708888
    30 9.393339 0.000000 0.000000 -1.309143 0.023497 -0.037809
    31 1.442245 0.107452 -1.746178 1.684200 0.505505 0.321394
    32 1.063452 0.000000 0.000000 0.000000 0.000000 0.199055
    33 1.376307 -0.000002 0.000000 0.000000 0.000000 0.199053
    34 4.172848 -0.251366 -1.312743 -0.000890 0.096055 0.055452
    35 1.215372 0.000002 -0.000002 0.000000 0.000000 0.552861
    36 1.215370 -0.000002 -0.000002 0.000000 0.000000 0.552860
    37 4.220537 -0.244856 -0.431465 0.002363 0.026158 0.189048
    38 1.350416 0.000000 0.000001 0.000000 0.000000 0.904632
    39 1.350409 -0.000002 0.000000 0.000000 0.000000 0.904587
    40 4.237637 -0.195358 0.527090 0.000985 0.008801 0.302504
    41 1.215376 0.000002 0.000001 0.000000 0.000000 1.018042
    42 1.215372 -0.000002 -0.000001 0.000000 0.000000 1.018000
    43 4.262829 -0.232719 1.392178 -0.019944 -0.075913 0.294593
    44 1.012810 0.000000 0.000000 0.000000 0.000000 1.009280
    45 1.012806 0.000000 0.000000 0.000000 0.000000 1.009280
    46 1.376305 0.000000 0.000000 0.000000 0.000000 0.199055
    47 4.237637 -0.195356 -0.527091 -0.000662 -0.008825 0.261713
    48 1.215378 0.000000 -0.000002 0.000000 0.000000 0.977292
    49 1.215376 0.000000 0.000000 0.000000 0.000000 0.977316
    50 1.012814 0.000000 0.000000 0.000000 0.000000 0.968648
    51 1.012812 -0.000002 0.000001 0.000000 0.000000 0.968646
    52 2.110538 0.000000 0.000000 0.052393 -0.010343 -0.146069
    53 5.253246 3.139475 -1.673515 0.000000 -1.570796 2.984594
    54 5.253262 3.139473 -0.054760 0.000000 -1.570796 2.984594
    55 5.253254 3.139468 1.574632 0.000000 -1.570796 2.984594
    56 4.598148 4.158443 -1.350299 0.000000 -1.570796 2.984594
    57 4.598141 4.158430 -0.054439 0.000000 -1.570796 2.984594
    58 4.598141 4.158430 1.240876 0.000000 -1.570796 2.984594
    59 0.891926 2.373051 -0.014527 -3.141592 -0.000001 1.413797
    60 7.228123 5.709446 3.726568 0.000000 -1.570796 3.140796
  time 20
    0 1.718674 6.571861 38.228291 0.000000 0.000000 -1.701855
    1 -0.194991 -0.218757 0.000000 0.000000 -1.570451 -1.570795
    2 -0.000008 0.000008 4.427393 2.970960 0.005705 3.117614
    3 18.465942 0.000000 0.000000 0.000000 0.000000 -0.461791
    4 14.875443 0.000000 -0.000001 0.018219 0.016224 0.421902
    5 0.000008 -0.000004 -4.427393 -3.035957 0.044939 2.760918
    6 18.465942 0.000000 0.000000 0.000000 0.000000 -0.421557
    7 14.875444 0.000000 0.000000 -0.001428 0.002429 0.038360
    8 2.255207 -0.007574 0.000003 0.086301 -0.022749 0.025907
    9 9.514221 -0.009357 0.000000 -0.004615 -0.002164 -0.080041
    10 2.450428 5.076128 0.001325 0.000000 -1.570796 3.118417
    11 6.312405 -4.528058 0.001311 0.000000 -1.570796 3.140791
    12 2.233307 1.152535 -7.309138 -1.151553 -1.536107 -0.886012
    13 11.751816 -0.001633 0.000000 0.000024 0.043598 0.439965
    14 -1.890927 0.854855 -2.731760 -0.775713 1.460192 1.930839
    15 4.640943 0.000000 0.000000 -0.567392 -1.172578 0.416124
    16 10.828049 0.000000 0.000000 0.000000 0.000000 -0.240081
    17 9.393341 0.000000 0.000002 1.569609 -0.034188 0.000012
    18 1.442247 0.107454 1.746179 -1.686403 -0.539234 0.325847
    19 1.063452 0.000000 -0.000002 0.000000 0.000000 0.199055
    20 4.172848 -0.251364 1.312743 -0.008024 -0.095730 0.148652
    21 1.215368 0.000000 0.000002 0.000000 0.000000 0.645746
    22 1.215372 0.000000 0.000000 0.000000 0.000000 0.645745
    23 4.220535 -0.244852 0.431466 -0.001334 -0.026240 0.148333
    24 1.350416 0.000000 -0.000001 0.000000 0.000000 0.863854
    25 1.350410 -0.000002 0.000001 0.000000 0.000000 0.863873
    26 4.262829 -0.232721 -1.392178 0.016839 0.076668 0.253758
    27 -2.117496 0.850936 2.567695 0.474161 -1.400939 2.229077
    28 4.640941 0.000000 0.000000 0.556669 1.105167 0.468612
    29 10.828045 0.000000 -0.000002 0.000000 0.000000 -0.625972
    30 9.393339 0.000000 0.000000 -1.397409 0.026057 -0.024330
    31 1.442245 0.107452 -1.746178 1.684921 0.516970 0.322902
    32 1.063452 0.000000 0.000000 0.000000 0.000000 0.199055
    33 1.376307 -0.000002 0.000000 0.000000 0.000000 0.199053
    34 4.172848 -0.251366 -1.312743 0.002154 0.096043 0.087066
    35 1.215372 0.000002 -0.000002 0.000000 0.000000 0.584343
    36 1.215370 -0.000002 -0.000002 0.000000 0.000000 0.584343
    37 4.220537 -0.244856 -0.431465 0.002040 0.026194 0.175196
    38 1.350416 0.000000 0.000001 0.000000 0.000000 0.890712
    39 1.350409 -0.000002 0.000000 0.000000 0.000000 0.890743
    40 4.237637 -0.195358 0.527090 0.000865 0.008801 0.288629
    41 1.215376 0.000002 0.000001 0.000000 0.000000 1.004235
    42 1.215372 -0.000002 -0.000001 0.000000 0.000000 1.004193
    43 4.262829 -0.232719 1.392178 -0.018853 -0.076213 0.280743
    44 1.012810 0.000000 0.000000 0.000000 0.000000 0.995477
    45 1.012806 0.000000 0.000000 0.000000 0.000000 0.995477
    46 1.376305 0.000000 0.000000 0.000000 0.000000 0.199055
    47 4.237637 -0.195356 -0.527091 -0.000662 -0.008837 0.261713
    48 1.215378 0.000000 -0.000002 0.000000 0.000000 0.977292
    49 1.215376 0.000000 0.000000 0.000000 0.000000 0.977316
    50 1.012814 0.000000 0.000000 0.000000 0.000000 0.968648
    51 1.012812 -0.000002 0.000001 0.000000 0.000000 0.968646
    52 2.110538 0.000000 0.000000 0.036197 -0.009862 -0.148226
    53 5.253246 3.139475 -1.673515 0.000000 -1.570796 2.984594
    54 5.253262 3.139473 -0.054760 0.000000 -1.570796 2.984594
    55 5.253254 3.139468 1.574632 0.000000 -1.570796 2.984594
    56 4.598148 4.158443 -1.350299 0.000000 -1.570796 2.984594
    57 4.598141 4.158430 -0.054439 0.000000 -1.570796 2.984594
    58 4.598141 4.158430 1.240876 0.000000 -1.570796 2.984594
    59 0.891926 2.373051 -0.014527 -3.141592 -0.000001 1.413797
    60 7.228123 5.709446 3.726568 0.000000 -1.570796 3.140796
  time 21
    0 1.718674 6.651989 38.291299 0.000000 0.000000 -1.701855
    1 -0.015298 -0.175787 0.000000 0.000000 -1.570451 -1.570795
    2 -0.000008 0.000008 4.427393 2.970960 0.008485 3.129914
    3 18.465942 0.000000 0.000000 0.000000 0.000000 -0.439056
    4 14.875443 0.000000 -0.000001 0.018290 0.016756 0.411789
    5 0.000008 -0.000004 -4.427393 -3.035757 0.045314 2.770390
    6 18.465942 0.000000 0.000000 0.000000 0.000000 -0.407118
    7 14.875444 0.000000 0.000000 -0.001739 0.003702 0.033371
    8 2.255207 -0.007574 0.000003 0.104129 -0.020222 0.012243
    9 9.514221 -0.009357 0.000000 -0.006866 0.000108 -0.088166
    10 2.450428 5.076128 0.001325 0.000000 -1.570796 3.129133
    11 6.312405 -4.528058 0.001311 0.000000 -1.570796 3.140791
    12 2.233307 1.152535 -7.309138 -1.145611 -1.536078 -0.885246
    13 11.751816 -0.001633 0.000000 0.000024 0.043598 0.439965
    14 -1.890927 0.854855 -2.731760 -0.864020 1.461000 1.842615
    15 4.640943 0.000000 0.000000 -0.584880 -1.178715 0.462346
    16 10.828049 0.000000 0.000000 0.000000 0.000000 -0.237252
    17 9.393341 0.000000 0.000002 1.569609 -0.034188 0.000012
    18 1.442247 0.107454 1.746179 -1.686403 -0.539234 0.325847
    19 1.063452 0.000000 -0.000002 0.000000 0.000000 0.199055
    20 4.172848 -0.251364 1.312743 -0.008024 -0.095730 0.148652
    21 1.215368 0.000000 0.000002 0.000000 0.000000 0.645746
    22 1.215372 0.000000 0.000000 0.000000 0.000000 0.645745
    23 4.220535 -0.244852 0.431466 -0.001334 -0.026240 0.148333
    24 1.350416 0.000000 -0.000001 0.000000 0.000000 0.863854
    25 1.350410 -0.000002 0.000001 0.000000 0.000000 0.863873
    26 4.262829 -0.232721 -1.392178 0.016839 0.076668 0.253758
    27 -2.117496 0.850936 2.567695 0.587917 -1.399277 2.115486
    28 4.640941 0.000000 0.000000 0.647550 1.101199 0.597794
    29 10.828045 0.000000 -0.000002 0.000000 0.000000 -0.545924
    30 9.393339 0.000000 0.000000 -1.484754 0.029572 -0.011533
    31 1.442245 0.107452 -1.746178 1.685673 0.528233 0.324384
    32 1.063452 0.000000 0.000000 0.000000 0.000000 0.199055
    33 1.376307 -0.000002 0.000000 0.000000 0.000000 0.199053
    34 4.172848 -0.251366 -1.312743 0.005138 0.095935 0.118200
    35 1.215372 0.000002 -0.000002 0.000000 0.000000 0.615500
    36 1.215370 -0.000002 -0.000002 0.000000 0.000000 0.615500
    37 4.220537 -0.244856 -0.431465 0.001644 0.026230 0.161584
    38 1.350416 0.000000 0.000001 0.000000 0.000000 0.877174
    39 1.350409 -0.000002 0.000000 0.000000 0.000000 0.877144
    40 4.237637 -0.195358 0.527090 0.000758 0.008825 0.275032
    41 1.215376 0.000002 0.000001 0.000000 0.000000 0.990594
    42 1.215372 -0.000002 -0.000001 0.000000 0.000000 0.990552
    43 4.262829 -0.232719 1.392178 -0.017859 -0.076476 0.267092
    44 1.012810 0.000000 0.000000 0.000000 0.000000 0.981882
    45 1.012806 0.000000 0.000000 0.000000 0.000000 0.981882
    46 1.376305 0.000000 0.000000 0.000000 0.000000 0.199055
    47 4.237637 -0.195356 -0.527091 -0.000662 -0.008825 0.261713
    48 1.215378 0.000000 -0.000002 0.000000 0.000000 0.977292
    49 1.215376 0.000000 0.000000 0.000000 0.000000 0.977316
    50 1.012814 0.000000 0.000000 0.000000 0.000000 0.968648
    51 1.012812 -0.000002 0.000001 0.000000 0.000000 0.968646
    52 2.110538 0.000000 0.000000 0.019487 -0.009922 -0.150671
    53 5.253246 3.139475 -1.673515 0.000000 -1.570796 2.984594
    54 5.253262 3.139473 -0.054760 0.000000 -1.570796 2.984594
    55 5.253254 3.139468 1.574632 0.000000 -1.570796 2.984594
    56 4.598148 4.158443 -1.350299 0.000000 -1.570796 2.984594
    57 4.598141 4.158430 -0.054439 0.000000 -1.570796 2.984594
    58 4.598141 4.158430 1.240876 0.000000 -1.570796 2.984594
    59 0.891926 2.373051 -0.014527 -3.141592 -0.000001 1.413797
    60 7.228123 5.709446 3.726568 0.000000 -1.570796 3.140796
  time 22
    0 1.718674 6.767730 38.354307 0.000000 0.000000 -1.701855
    1 0.160488 -0.125004 0.000000 0.000000 -1.570451 -1.570795
    2 -0.000008 0.000008 4.427393 2.970866 0.011365 3.142380
    3 18.465942 0.000000 0.000000 0.000000 0.000000 -0.416541
    4 14.875443 0.000000 -0.000001 0.018432 0.017416 0.402071
    5 0.000008 -0.000004 -4.427393 -3.035557 0.045903 2.779300
    6 18.465942 0.000000 0.000000 0.000000 0.000000 -0.394320
    7 14.875444 0.000000 0.000000 -0.002050 0.005218 0.029357
    8 2.255207 -0.007574 0.000003 0.121998 -0.017390 -0.001288
    9 9.514221 -0.009357 0.000000 -0.008742 0.002352 -0.095833
    10 2.450428 5.076128 0.001325 0.000000 -1.570796 3.140791
    11 6.312405 -4.528058 0.001311 0.000000 -1.570796 3.140791
    12 2.233307 1.152535 -7.309138 -1.140244 -1.535933 -0.884479
    13 11.751816 -0.001633 0.000000 0.000024 0.043598 0.439965
    14 -1.890927 0.850948 -2.731760 -0.942423 1.461392 1.764503
    15 4.640943 0.000000 0.000000 -0.601413 -1.183806 0.506763
    16 10.828049 0.000000 0.000000 0.000000 0.000000 -0.234423
    17 9.393341 0.000000 0.000002 1.569609 -0.034188 0.000012
    18 1.442247 0.107454 1.746179 -1.686403 -0.539234 0.325847
    19 1.063452 0.000000 -0.000002 0.000000 0.000000 0.199055
    20 4.172848 -0.251364 1.312743 -0.008024 -0.095730 0.148652
    21 1.215368 0.000000 0.000002 0.000000 0.000000 0.645746
    22 1.215372 0.000000 0.000000 0.000000 0.000000 0.645745
    23 4.220535 -0.244852 0.431466 -0.001334 -0.026240 0.148333
    24 1.350416 0.000000 -0.000001 0.000000 0.000000 0.863854
    25 1.350410 -0.000002 0.000001 0.000000 0.000000 0.863873
    26 4.262829 -0.232721 -1.392178 0.016839 0.076668 0.253758
    27 -2.121402 0.854842 2.563789 0.697195 -1.395374 2.006496
    28 4.640941 0.000000 0.000000 0.738432 1.089871 0.724751
    29 10.828045 0.000000 -0.000002 0.000000 0.000000 -0.470269
    30 9.393339 0.000000 0.000000 -1.569611 0.034157 0.000140
    31 1.442245 0.107452 -1.746178 1.686425 0.539224 0.325867
    32 1.063452 0.000000 0.000000 0.000000 0.000000 0.199055
    33 1.376307 -0.000002 0.000000 0.000000 0.000000 0.199053
    34 4.172848 -0.251366 -1.312743 0.008014 0.095731 0.148613
    35 1.215372 0.000002 -0.000002 0.000000 0.000000 0.645758
    36 1.215370 -0.000002 -0.000002 0.000000 0.000000 0.645758
    37 4.220537 -0.244856 -0.431465 0.001333 0.026242 0.148333
    38 1.350416 0.000000 0.000001 0.000000 0.000000 0.863827
    39 1.350409 -0.000002 0.000000 0.000000 0.000000 0.863872
    40 4.237637 -0.195358 0.527090 0.000662 0.008837 0.261753
    41 1.215376 0.000002 0.000001 0.000000 0.000000 0.977246
    42 1.215372 -0.000002 -0.000001 0.000000 0.000000 0.977287
    43 4.262829 -0.232719 1.392178 -0.016840 -0.076676 0.253759
    44 1.012810 0.000000 0.000000 0.000000 0.000000 0.968536
    45 1.012806 0.000000 0.000000 0.000000 0.000000 0.968536
    46 1.376305 0.000000 0.000000 0.000000 0.000000 0.199055
    47 4.237637 -0.195356 -0.527091 -0.000662 -0.008837 0.261713
    48 1.215378 0.000000 -0.000002 0.000000 0.000000 0.977292
    49 1.215376 0.000000 0.000000 0.000000 0.000000 0.977316
    50 1.012814 0.000000 0.000000 0.000000 0.000000 0.968606
    51 1.012812 -0.000002 0.000001 0.000000 0.000000 0.968646
    52 2.110538 0.000000 0.000000 0.002417 -0.010494 -0.153547
    53 5.253246 3.139475 -1.673515 0.000000 -1.570796 2.984594
    54 5.253262 3.139473 -0.054760 0.000000 -1.570796 2.984594
    55 5.253254 3.139468 1.574632 0.000000 -1.570796 2.984594
    56 4.598148 4.158443 -1.350299 0.000000 -1.570796 2.984594
    57 4.598141 4.158430 -0.054439 0.000000 -1.570796 2.984594
    58 4.598141 4.158430 1.240876 0.000000 -1.570796 2.984594
    59 0.891926 2.373051 -0.014527 -3.141592 -0.000001 1.413797
    60 7.228123 5.709446 3.726568 0.000000 -1.570796 3.140796
end
