// Created by Crowbar 0.56
version 1
nodes
  0 "Bip01" -1
  1 "Bip01 Pelvis" 0
  2 "Bip01 L Thigh" 1
  3 "Bip01 L Calf" 2
  4 "Bip01 L Foot" 3
  5 "Bip01 R Thigh" 1
  6 "Bip01 R Calf" 5
  7 "Bip01 R Foot" 6
  8 "Bip01 Spine" 1
  9 "Bip01 Spine1" 8
  10 "Armour Front" 8
  11 "Armour Back" 8
  12 "Holster" 1
  13 "Bip01 Neck" 9
  14 "Bip01 R Clavicle" 13
  15 "Bip01 R UpperArm" 14
  16 "Bip01 R Forearm" 15
  17 "Bip01 R Hand" 16
  18 "Bip01 R Finger0" 17
  19 "Bip01 R Finger01" 18
  20 "Bip01 R Finger1" 17
  21 "Bip01 R Finger11" 20
  22 "Bip01 R Finger12" 21
  23 "Bip01 R Finger2" 17
  24 "Bip01 R Finger21" 23
  25 "Bip01 R Finger22" 24
  26 "Bip01 R Finger4" 17
  27 "Bip01 L Clavicle" 13
  28 "Bip01 L UpperArm" 27
  29 "Bip01 L Forearm" 28
  30 "Bip01 L Hand" 29
  31 "Bip01 L Finger0" 30
  32 "Bip01 L Finger01" 31
  33 "Bip01 L Finger02" 32
  34 "Bip01 L Finger1" 30
  35 "Bip01 L Finger11" 34
  36 "Bip01 L Finger12" 35
  37 "Bip01 L Finger2" 30
  38 "Bip01 L Finger21" 37
  39 "Bip01 L Finger22" 38
  40 "Bip01 L Finger3" 30
  41 "Bip01 L Finger31" 40
  42 "Bip01 L Finger32" 41
  43 "Bip01 L Finger4" 30
  44 "Bip01 L Finger41" 43
  45 "Bip01 L Finger42" 44
  46 "Bip01 R Finger02" 19
  47 "Bip01 R Finger3" 17
  48 "Bip01 R Finger31" 47
  49 "Bip01 R Finger32" 48
  50 "Bip01 R Finger41" 26
  51 "Bip01 R Finger42" 50
  52 "Bip01 Head" 13
  53 "R_eyebrow" 52
  54 "C_eyebrow" 52
  55 "L_eyebrow" 52
  56 "R_eye" 52
  57 "Eyelids" 52
  58 "L_eye" 52
  59 "Mouth" 52
  60 "ID Tag" 9
end
skeleton
  time 0
    0 -0.503906 1.042969 6.941406 1.454830 0.498416 -3.216084
    1 -0.245728 1.121094 0.000000 -1.570792 -1.570792 0.000000
    2 -0.000008 0.000008 4.427393 3.102259 0.056000 2.301707
    3 18.465942 0.000000 0.000000 0.000000 0.000000 -1.031121
    4 14.875443 0.000000 -0.000001 -0.506708 0.058472 -0.131383
    5 0.000008 -0.000004 -4.427393 3.140749 -0.061901 3.062972
    6 18.465942 0.000000 0.000000 0.000000 0.000000 -0.242188
    7 14.875444 0.000000 0.000000 -0.471973 -0.329356 -0.408226
    8 2.255207 -0.007574 0.000003 0.000038 0.104677 0.000795
    9 9.514221 -0.009357 0.000000 0.035152 0.000000 0.000000
    10 2.450428 5.076128 0.001325 0.000000 -1.570796 3.140791
    11 6.312405 -4.528058 0.001311 0.000000 -1.570796 3.140791
    12 2.233307 1.152535 -7.309138 -1.282401 -1.439933 -0.506482
    13 11.751816 -0.001633 0.000000 -0.022218 0.013731 0.553177
    14 -1.859375 1.139648 -2.648438 -1.071086 1.170513 1.551685
    15 4.640943 0.000000 0.000000 -1.291480 -1.020268 1.204492
    16 10.828049 0.000000 0.000000 0.000000 0.000000 -1.447837
    17 9.393341 0.000000 0.000002 1.569607 0.288647 0.000011
    18 1.442247 0.107454 1.746179 -1.686403 -0.539234 0.325847
    19 1.063452 0.000000 -0.000002 0.000000 0.000000 0.199055
    20 4.172848 -0.251364 1.312743 0.016243 -0.094713 -0.105507
    21 1.215368 0.000000 0.000002 0.000000 0.000000 0.392677
    22 1.215372 0.000000 0.000000 0.000000 0.000000 0.392677
    23 4.220535 -0.244852 0.431466 0.005270 -0.025761 -0.104768
    24 1.350416 0.000000 -0.000001 0.000000 0.000000 0.610743
    25 1.350410 -0.000002 0.000001 0.000000 0.000000 0.610797
    26 4.262829 -0.232721 -1.392178 -0.002923 0.078441 -0.000004
    27 -1.933594 1.022461 2.648438 -0.415185 -1.286741 2.987792
    28 4.640941 0.000000 0.000000 0.852803 0.996361 0.965053
    29 10.828045 0.000000 -0.000002 0.000000 0.000000 -2.111862
    30 9.393339 0.000000 0.000000 -1.863793 0.815211 0.059143
    31 1.442245 0.107452 -1.746178 1.686432 0.539220 0.325884
    32 1.063452 0.000000 0.000000 0.000000 0.000000 0.199055
    33 1.376307 -0.000002 0.000000 0.000000 0.000000 0.199053
    34 4.172848 -0.251366 -1.312743 -0.016243 0.094713 -0.105507
    35 1.215372 0.000002 -0.000002 0.000000 0.000000 0.392627
    36 1.215370 -0.000002 -0.000002 0.000000 0.000000 0.392627
    37 4.220537 -0.244856 -0.431465 -0.005270 0.025761 -0.104768
    38 1.350416 0.000000 0.000001 0.000000 0.000000 0.610811
    39 1.350409 -0.000002 0.000000 0.000000 0.000000 0.610803
    40 4.237637 -0.195358 0.527090 -0.001555 0.008727 0.008735
    41 1.215376 0.000002 0.000001 0.000000 0.000000 0.724276
    42 1.215372 -0.000002 -0.000001 0.000000 0.000000 0.724258
    43 4.262829 -0.232719 1.392178 0.002923 -0.078441 -0.000004
    44 1.012810 0.000000 0.000000 0.000000 0.000000 0.715519
    45 1.012806 0.000000 0.000000 0.000000 0.000000 0.715519
    46 1.376305 0.000000 0.000000 0.000000 0.000000 0.199055
    47 4.237637 -0.195356 -0.527091 0.001555 -0.008727 0.008735
    48 1.215378 0.000000 -0.000002 0.000000 0.000000 0.724309
    49 1.215376 0.000000 0.000000 0.000000 0.000000 0.724240
    50 1.012814 0.000000 0.000000 0.000000 0.000000 0.715580
    51 1.012812 -0.000002 0.000001 0.000000 0.000000 0.715580
    52 2.110538 0.000000 0.000000 0.004887 0.356901 0.163231
    53 5.253246 3.139475 -1.673515 0.000000 -1.570796 2.984594
    54 5.253262 3.139473 -0.054760 0.000000 -1.570796 2.984594
    55 5.253254 3.139468 1.574632 0.000000 -1.570796 2.984594
    56 4.598148 4.158443 -1.350299 2.801381 -1.570781 0.000000
    57 4.598141 4.158430 -0.054439 0.000000 -1.570796 2.984594
    58 4.598141 4.158430 1.240876 2.801381 -1.570781 0.000000
    59 0.891926 2.373051 -0.014527 -3.141592 -0.000001 1.413797
    60 7.228123 5.709446 3.726568 -0.030172 -0.698283 2.694810
end
