version 1
nodes
  0 "Bip01" -1
  1 "Bip01 Pelvis" 0
  2 "Bip01 L Thigh" 1
  3 "Bip01 L Calf" 2
  4 "Bip01 L Foot" 3
  5 "Bip01 R Thigh" 1
  6 "Bip01 R Calf" 5
  7 "Bip01 R Foot" 6
  8 "Bip01 Spine" 1
  9 "Bip01 Spine1" 8
  10 "Bone16" 8
  11 "Bone01" 8
  12 "Bone03" 1
  13 "Bip01 Neck" 9
  14 "Bip01 R Clavicle" 13
  15 "Bip01 R UpperArm" 14
  16 "Bip01 R Forearm" 15
  17 "Bip01 R Hand" 16
  18 "Bip01 R Finger0" 17
  19 "Bip01 R Finger01" 18
  20 "Bip01 R Finger1" 17
  21 "Bip01 R Finger11" 20
  22 "Bip01 R Finger12" 21
  23 "Bip01 R Finger2" 17
  24 "Bip01 R Finger21" 23
  25 "Bip01 R Finger22" 24
  26 "Bip01 R Finger4" 17
  27 "Bip01 L Clavicle" 13
  28 "Bip01 L UpperArm" 27
  29 "Bip01 L Forearm" 28
  30 "Bip01 L Hand" 29
  31 "Bip01 L Finger0" 30
  32 "Bip01 L Finger01" 31
  33 "Bip01 L Finger02" 32
  34 "Bip01 L Finger1" 30
  35 "Bip01 L Finger11" 34
  36 "Bip01 L Finger12" 35
  37 "Bip01 L Finger2" 30
  38 "Bip01 L Finger21" 37
  39 "Bip01 L Finger22" 38
  40 "Bip01 L Finger3" 30
  41 "Bip01 L Finger31" 40
  42 "Bip01 L Finger32" 41
  43 "Bip01 L Finger4" 30
  44 "Bip01 L Finger41" 43
  45 "Bip01 L Finger42" 44
  46 "Bip01 R Finger02" 19
  47 "Bip01 R Finger3" 17
  48 "Bip01 R Finger31" 47
  49 "Bip01 R Finger32" 48
  50 "Bip01 R Finger41" 26
  51 "Bip01 R Finger42" 50
  52 "Bip01 Head" 13
  53 "R_eyebrow" 52
  54 "C_eyebrow" 52
  55 "L_eyebrow" 52
  56 "R_eye" 52
  57 "Eyelids" 52
  58 "L_eye" 52
  59 "Bone05" 52
  60 "Bone08" 9
end
skeleton
  time 0
    0 1.275236 7.485338 37.845498 -0.033172 0.165038 -1.637428
    1 -2.214584 0.316416 0.000000 -0.000027 -1.518483 -1.570772
    2 -0.000006 0.000008 4.427393 -0.162682 -3.134353 -0.219057
    3 18.465940 0.000000 0.000000 0.000000 0.000000 -0.476864
    4 14.875443 0.000000 -0.000001 0.042472 -0.010381 0.401360
    5 0.000006 -0.000004 -4.427393 0.086124 3.101828 -0.563355
    6 18.465940 0.000000 0.000000 0.000000 0.000000 -0.425900
    7 14.875443 0.000000 0.000000 0.049778 -0.016153 0.026835
    8 2.255207 -0.007574 0.113288 -0.065002 0.013362 0.091089
    9 9.514226 -0.009357 0.000000 -0.005681 -0.105632 0.244991
    10 2.450429 5.076128 0.001325 3.062329 -1.570796 0.000000
    11 6.312407 -4.528058 0.001311 3.140791 -1.570796 0.000000
    12 2.233310 1.152535 -7.309138 -1.130179 -1.544671 -1.060133
    13 11.751820 -0.001633 0.000000 0.024724 0.088565 0.791343
    14 -1.344035 1.425185 -2.809887 0.622989 1.349446 2.949678
    15 4.640942 0.000000 0.000000 0.403851 -0.523515 -1.633983
    16 10.828047 0.000000 0.000000 0.000000 0.000000 -0.662037
    17 9.393338 0.000000 0.000001 2.399403 -0.161555 0.700159
    18 1.442242 0.107453 1.746178 -2.449460 -0.338953 0.923082
    19 1.063451 0.000000 -0.000001 0.000000 0.000000 0.366503
    20 4.172844 -0.251366 1.312745 -0.000488 -0.096055 0.069757
    21 1.215373 0.000000 0.000001 0.000000 0.000000 0.130840
    22 1.215372 0.000000 0.000001 0.000000 0.000000 1.151838
    23 4.220531 -0.244854 0.431466 -0.011400 0.078000 0.147655
    24 1.350417 0.000001 -0.000001 0.000000 0.000000 0.977335
    25 1.350410 -0.000001 0.000001 0.000000 0.000000 1.518389
    26 4.262825 -0.232720 -1.392178 0.021238 -0.052274 0.146778
    27 -1.816706 1.554083 2.462223 -0.111778 -1.315478 2.459327
    28 4.640942 0.000000 -0.000001 -0.444291 0.632407 -1.470891
    29 10.828047 0.000000 -0.000002 0.000000 0.000000 -0.839820
    30 9.393336 -0.000001 0.000000 -2.598043 -0.122241 0.869058
    31 1.442245 0.107453 -1.746177 1.545043 0.350678 0.095007
    32 1.063452 -0.000001 -0.000001 0.000000 0.000000 0.199055
    33 1.376307 -0.000001 0.000000 0.000000 0.000000 0.199027
    34 4.172847 -0.251366 -1.312744 0.008002 -0.043877 0.147534
    35 1.215373 0.000001 0.000000 0.000000 0.000000 0.645758
    36 1.215371 -0.000001 0.000000 0.000000 0.000000 0.881369
    37 4.220535 -0.244855 -0.431465 0.001333 0.026242 0.148336
    38 1.350416 0.000000 0.000000 0.000000 0.000000 0.732991
    39 1.350410 -0.000001 -0.000001 0.000000 0.000000 1.256584
    40 4.237636 -0.195359 0.527090 0.025781 0.128443 0.455451
    41 1.215376 0.000001 0.000001 0.000000 0.000000 0.401393
    42 1.215371 0.000000 0.000000 0.000000 0.000000 1.326390
    43 4.262829 -0.232721 1.392178 0.025466 0.184121 0.480098
    44 1.012811 0.000000 0.000000 0.000000 0.000000 0.584666
    45 1.012809 -0.000001 0.000000 0.000000 0.000000 0.837704
    46 1.376306 -0.000001 0.000000 0.000000 0.000000 0.811538
    47 4.237632 -0.195359 -0.527090 0.000345 -0.008861 0.148285
    48 1.215375 0.000001 -0.000001 0.000000 0.000000 0.977335
    49 1.215371 0.000000 0.000001 0.000000 0.000000 1.518389
    50 1.012810 0.000001 0.000000 0.000000 0.000000 0.977335
    51 1.012810 -0.000001 0.000000 0.000000 0.000000 1.186755
    52 2.110540 0.000000 0.000000 0.075876 0.104718 -0.119755
    53 5.253243 3.139475 -1.673515 2.984594 -1.570796 0.000000
    54 5.253259 3.139473 -0.054760 3.106744 -1.570796 0.000000
    55 5.253252 3.139468 1.574632 2.984594 -1.570796 0.000000
    56 4.598148 4.158443 -1.350299 2.984594 -1.570796 0.000000
    57 4.598139 4.158430 -0.054439 2.984594 -1.570796 0.000000
    58 4.598140 4.158430 1.240876 2.984594 -1.570796 0.000000
    59 0.891927 2.373051 -0.014527 -3.141592 -0.000001 1.413797
    60 7.228122 5.709446 3.726568 3.140796 -1.570796 0.000000
  time 1
    0 1.275236 7.485338 37.868936 -0.033172 0.165038 -1.637428
    1 -2.066142 0.312510 0.000000 -0.000027 -1.518483 -1.570772
    2 -0.000006 0.000008 4.427393 -0.162491 -3.134726 -0.211725
    3 18.465940 0.000000 0.000000 0.000000 0.000000 -0.470284
    4 14.875443 0.000000 -0.000001 0.042330 -0.011318 0.401992
    5 0.000006 -0.000004 -4.427393 0.086124 3.101735 -0.562419
    6 18.465940 0.000000 0.000000 0.000000 0.000000 -0.433644
    7 14.875443 0.000000 0.000000 0.049778 -0.015972 0.035539
    8 2.255207 -0.007574 0.113288 -0.065170 0.012451 0.077127
    9 9.514226 -0.009357 0.000000 -0.005681 -0.105632 0.244991
    10 2.450429 5.076128 0.001325 3.062329 -1.570796 0.000000
    11 6.312407 -4.528058 0.001311 3.140791 -1.570796 0.000000
    12 2.233310 1.152535 -7.309138 -1.130179 -1.544671 -1.060133
    13 11.751820 -0.001633 0.000000 0.024724 0.088565 0.791343
    14 -1.344035 1.425185 -2.809887 0.622989 1.349446 2.949678
    15 4.640942 0.000000 0.000000 0.293007 -0.620244 -1.454385
    16 10.828047 0.000000 0.000000 0.000000 0.000000 -0.998504
    17 9.393338 0.000000 0.000001 2.419641 0.051791 0.706706
    18 1.442242 0.107453 1.746178 -2.449460 -0.338953 0.923082
    19 1.063451 0.000000 -0.000001 0.000000 0.000000 0.366503
    20 4.172844 -0.251366 1.312745 -0.000488 -0.096055 0.069757
    21 1.215373 0.000000 0.000001 0.000000 0.000000 0.130840
    22 1.215372 0.000000 0.000001 0.000000 0.000000 1.151838
    23 4.220531 -0.244854 0.431466 -0.011400 0.078000 0.147655
    24 1.350417 0.000001 -0.000001 0.000000 0.000000 0.977335
    25 1.350410 -0.000001 0.000001 0.000000 0.000000 1.518389
    26 4.262825 -0.232720 -1.392178 0.021238 -0.052274 0.146778
    27 -1.816706 1.554083 2.462223 -0.111778 -1.315478 2.459327
    28 4.640942 0.000000 -0.000001 -0.365846 0.719948 -1.379984
    29 10.828047 0.000000 -0.000002 0.000000 0.000000 -1.033534
    30 9.393336 -0.000001 0.000000 -2.570395 -0.370644 0.846055
    31 1.442245 0.107453 -1.746177 1.545043 0.350678 0.095007
    32 1.063452 -0.000001 -0.000001 0.000000 0.000000 0.199055
    33 1.376307 -0.000001 0.000000 0.000000 0.000000 0.199027
    34 4.172847 -0.251366 -1.312744 0.008002 -0.043877 0.147534
    35 1.215373 0.000001 0.000000 0.000000 0.000000 0.645758
    36 1.215371 -0.000001 0.000000 0.000000 0.000000 0.881369
    37 4.220535 -0.244855 -0.431465 0.001333 0.026242 0.148336
    38 1.350416 0.000000 0.000000 0.000000 0.000000 0.732991
    39 1.350410 -0.000001 -0.000001 0.000000 0.000000 1.256584
    40 4.237636 -0.195359 0.527090 0.025781 0.128443 0.455451
    41 1.215376 0.000001 0.000001 0.000000 0.000000 0.401393
    42 1.215371 0.000000 0.000000 0.000000 0.000000 1.326390
    43 4.262829 -0.232721 1.392178 0.025466 0.184121 0.480098
    44 1.012811 0.000000 0.000000 0.000000 0.000000 0.584666
    45 1.012809 -0.000001 0.000000 0.000000 0.000000 0.837704
    46 1.376306 -0.000001 0.000000 0.000000 0.000000 0.811538
    47 4.237632 -0.195359 -0.527090 0.000345 -0.008861 0.148285
    48 1.215375 0.000001 -0.000001 0.000000 0.000000 0.977335
    49 1.215371 0.000000 0.000001 0.000000 0.000000 1.518389
    50 1.012810 0.000001 0.000000 0.000000 0.000000 0.977335
    51 1.012810 -0.000001 0.000000 0.000000 0.000000 1.186755
    52 2.110540 0.000000 0.000000 0.076543 0.103321 -0.097372
    53 5.253243 3.139475 -1.673515 2.984594 -1.570796 0.000000
    54 5.253259 3.139473 -0.054760 3.106744 -1.570796 0.000000
    55 5.253252 3.139468 1.574632 2.984594 -1.570796 0.000000
    56 4.598148 4.158443 -1.350299 2.984594 -1.570796 0.000000
    57 4.598139 4.158430 -0.054439 2.984594 -1.570796 0.000000
    58 4.598140 4.158430 1.240876 2.984594 -1.570796 0.000000
    59 0.891927 2.373051 -0.014527 -3.141592 -0.000001 1.413797
    60 7.228122 5.709446 3.726568 3.140796 -1.570796 0.000000
  time 2
    0 1.275236 7.485338 37.900187 -0.033172 0.165038 -1.637428
    1 -1.902075 0.304697 0.000000 -0.000027 -1.518483 -1.570772
    2 -0.000006 0.000008 4.427393 -0.162300 -3.135005 -0.203397
    3 18.465940 0.000000 0.000000 0.000000 0.000000 -0.462754
    4 14.875443 0.000000 -0.000001 0.042159 -0.012403 0.402782
    5 0.000006 -0.000004 -4.427393 0.086124 3.101642 -0.561296
    6 18.465940 0.000000 0.000000 0.000000 0.000000 -0.442439
    7 14.875443 0.000000 0.000000 0.049734 -0.015761 0.045481
    8 2.255207 -0.007574 0.113288 -0.065380 0.011384 0.061113
    9 9.514226 -0.009357 0.000000 -0.005681 -0.105632 0.244991
    10 2.450429 5.076128 0.001325 3.062329 -1.570796 0.000000
    11 6.312407 -4.528058 0.001311 3.140791 -1.570796 0.000000
    12 2.233310 1.152535 -7.309138 -1.130179 -1.544671 -1.060133
    13 11.751820 -0.001633 0.000000 0.024724 0.088565 0.791343
    14 -1.344035 1.425185 -2.809887 0.622989 1.349446 2.949678
    15 4.640942 0.000000 0.000000 0.233959 -0.662506 -1.366685
    16 10.828047 0.000000 0.000000 0.000000 0.000000 -1.151724
    17 9.393338 0.000000 0.000001 2.410333 0.172941 0.692594
    18 1.442242 0.107453 1.746178 -2.449460 -0.338953 0.923082
    19 1.063451 0.000000 -0.000001 0.000000 0.000000 0.366503
    20 4.172844 -0.251366 1.312745 -0.000488 -0.096055 0.069757
    21 1.215373 0.000000 0.000001 0.000000 0.000000 0.130840
    22 1.215372 0.000000 0.000001 0.000000 0.000000 1.151838
    23 4.220531 -0.244854 0.431466 -0.011400 0.078000 0.147655
    24 1.350417 0.000001 -0.000001 0.000000 0.000000 0.977335
    25 1.350410 -0.000001 0.000001 0.000000 0.000000 1.518389
    26 4.262825 -0.232720 -1.392178 0.021238 -0.052274 0.146778
    27 -1.816706 1.554083 2.462223 -0.111778 -1.315478 2.459327
    28 4.640942 0.000000 -0.000001 -0.325420 0.764374 -1.332160
    29 10.828047 0.000000 -0.000002 0.000000 0.000000 -1.135059
    30 9.393336 -0.000001 0.000000 -2.526775 -0.509895 0.819730
    31 1.442245 0.107453 -1.746177 1.545043 0.350678 0.095007
    32 1.063452 -0.000001 -0.000001 0.000000 0.000000 0.199055
    33 1.376307 -0.000001 0.000000 0.000000 0.000000 0.199027
    34 4.172847 -0.251366 -1.312744 0.008002 -0.043877 0.147534
    35 1.215373 0.000001 0.000000 0.000000 0.000000 0.645758
    36 1.215371 -0.000001 0.000000 0.000000 0.000000 0.881369
    37 4.220535 -0.244855 -0.431465 0.001333 0.026242 0.148336
    38 1.350416 0.000000 0.000000 0.000000 0.000000 0.732991
    39 1.350410 -0.000001 -0.000001 0.000000 0.000000 1.256584
    40 4.237636 -0.195359 0.527090 0.025781 0.128443 0.455451
    41 1.215376 0.000001 0.000001 0.000000 0.000000 0.401393
    42 1.215371 0.000000 0.000000 0.000000 0.000000 1.326390
    43 4.262829 -0.232721 1.392178 0.025466 0.184121 0.480098
    44 1.012811 0.000000 0.000000 0.000000 0.000000 0.584666
    45 1.012809 -0.000001 0.000000 0.000000 0.000000 0.837704
    46 1.376306 -0.000001 0.000000 0.000000 0.000000 0.811538
    47 4.237632 -0.195359 -0.527090 0.000345 -0.008861 0.148285
    48 1.215375 0.000001 -0.000001 0.000000 0.000000 0.977335
    49 1.215371 0.000000 0.000001 0.000000 0.000000 1.518389
    50 1.012810 0.000001 0.000000 0.000000 0.000000 0.977335
    51 1.012810 -0.000001 0.000000 0.000000 0.000000 1.186755
    52 2.110540 0.000000 0.000000 0.077306 0.101673 -0.071824
    53 5.253243 3.139475 -1.673515 2.984594 -1.570796 0.000000
    54 5.253259 3.139473 -0.054760 3.106744 -1.570796 0.000000
    55 5.253252 3.139468 1.574632 2.984594 -1.570796 0.000000
    56 4.598148 4.158443 -1.350299 2.984594 -1.570796 0.000000
    57 4.598139 4.158430 -0.054439 2.984594 -1.570796 0.000000
    58 4.598140 4.158430 1.240876 2.984594 -1.570796 0.000000
    59 0.891927 2.373051 -0.014527 -3.141592 -0.000001 1.413797
    60 7.228122 5.709446 3.726568 3.140796 -1.570796 0.000000
  time 3
    0 1.275236 7.485338 37.931438 -0.033172 0.165038 -1.637428
    1 -1.726288 0.292978 0.000000 -0.000027 -1.518483 -1.570772
    2 -0.000006 0.000008 4.427393 -0.162109 -3.135284 -0.194769
    3 18.465940 0.000000 0.000000 0.000000 0.000000 -0.455005
    4 14.875443 0.000000 -0.000001 0.041988 -0.013553 0.403612
    5 0.000006 -0.000004 -4.427393 0.086124 3.101642 -0.559985
    6 18.465940 0.000000 0.000000 0.000000 0.000000 -0.451563
    7 14.875443 0.000000 0.000000 0.049689 -0.015550 0.055760
    8 2.255207 -0.007574 0.113288 -0.065548 0.010318 0.044636
    9 9.514226 -0.009357 0.000000 -0.005681 -0.105632 0.244991
    10 2.450429 5.076128 0.001325 3.062329 -1.570796 0.000000
    11 6.312407 -4.528058 0.001311 3.140791 -1.570796 0.000000
    12 2.233310 1.152535 -7.309138 -1.130179 -1.544671 -1.060133
    13 11.751820 -0.001633 0.000000 0.024724 0.088565 0.791343
    14 -1.344035 1.425185 -2.809887 0.622989 1.349446 2.949678
    15 4.640942 0.000000 0.000000 0.223325 -0.661459 -1.335049
    16 10.828047 0.000000 0.000000 0.000000 0.000000 -1.242563
    17 9.393338 0.000000 0.000001 2.408764 0.146232 0.771251
    18 1.442242 0.107453 1.746178 -2.449460 -0.338953 0.923082
    19 1.063451 0.000000 -0.000001 0.000000 0.000000 0.366503
    20 4.172844 -0.251366 1.312745 -0.000488 -0.096055 0.069757
    21 1.215373 0.000000 0.000001 0.000000 0.000000 0.130840
    22 1.215372 0.000000 0.000001 0.000000 0.000000 1.151838
    23 4.220531 -0.244854 0.431466 -0.011400 0.078000 0.147655
    24 1.350417 0.000001 -0.000001 0.000000 0.000000 0.977335
    25 1.350410 -0.000001 0.000001 0.000000 0.000000 1.518389
    26 4.262825 -0.232720 -1.392178 0.021238 -0.052274 0.146778
    27 -1.816706 1.554083 2.462223 -0.111778 -1.315478 2.459327
    28 4.640942 0.000000 -0.000001 -0.315498 0.773879 -1.306873
    29 10.828047 0.000000 -0.000002 0.000000 0.000000 -1.228102
    30 9.393336 -0.000001 0.000000 -2.525389 -0.495871 0.905933
    31 1.442245 0.107453 -1.746177 1.545043 0.350678 0.095007
    32 1.063452 -0.000001 -0.000001 0.000000 0.000000 0.199055
    33 1.376307 -0.000001 0.000000 0.000000 0.000000 0.199027
    34 4.172847 -0.251366 -1.312744 0.008002 -0.043877 0.147534
    35 1.215373 0.000001 0.000000 0.000000 0.000000 0.645758
    36 1.215371 -0.000001 0.000000 0.000000 0.000000 0.881369
    37 4.220535 -0.244855 -0.431465 0.001333 0.026242 0.148336
    38 1.350416 0.000000 0.000000 0.000000 0.000000 0.732991
    39 1.350410 -0.000001 -0.000001 0.000000 0.000000 1.256584
    40 4.237636 -0.195359 0.527090 0.025781 0.128443 0.455451
    41 1.215376 0.000001 0.000001 0.000000 0.000000 0.401393
    42 1.215371 0.000000 0.000000 0.000000 0.000000 1.326390
    43 4.262829 -0.232721 1.392178 0.025466 0.184121 0.480098
    44 1.012811 0.000000 0.000000 0.000000 0.000000 0.584666
    45 1.012809 -0.000001 0.000000 0.000000 0.000000 0.837704
    46 1.376306 -0.000001 0.000000 0.000000 0.000000 0.811538
    47 4.237632 -0.195359 -0.527090 0.000345 -0.008861 0.148285
    48 1.215375 0.000001 -0.000001 0.000000 0.000000 0.977335
    49 1.215371 0.000000 0.000001 0.000000 0.000000 1.518389
    50 1.012810 0.000001 0.000000 0.000000 0.000000 0.977335
    51 1.012810 -0.000001 0.000000 0.000000 0.000000 1.186755
    52 2.110540 0.000000 0.000000 0.078069 0.099997 -0.045414
    53 5.253243 3.139475 -1.673515 2.984594 -1.570796 0.000000
    54 5.253259 3.139473 -0.054760 3.106744 -1.570796 0.000000
    55 5.253252 3.139468 1.574632 2.984594 -1.570796 0.000000
    56 4.598148 4.158443 -1.350299 2.984594 -1.570796 0.000000
    57 4.598139 4.158430 -0.054439 2.984594 -1.570796 0.000000
    58 4.598140 4.158430 1.240876 2.984594 -1.570796 0.000000
    59 0.891927 2.373051 -0.014527 -3.141592 -0.000001 1.413797
    60 7.228122 5.709446 3.726568 3.140796 -1.570796 0.000000
  time 4
    0 1.275236 7.485338 37.954876 -0.033172 0.165038 -1.637428
    1 -1.558314 0.285165 0.000000 -0.000027 -1.518483 -1.570772
    2 -0.000006 0.000008 4.427393 -0.162109 -3.135563 -0.186689
    3 18.465940 0.000000 0.000000 0.000000 0.000000 -0.447695
    4 14.875443 0.000000 -0.000001 0.041789 -0.014617 0.404323
    5 0.000006 -0.000004 -4.427393 0.086124 3.101456 -0.559050
    6 18.465940 0.000000 0.000000 0.000000 0.000000 -0.460095
    7 14.875443 0.000000 0.000000 0.049645 -0.015369 0.065364
    8 2.255207 -0.007574 0.113288 -0.065695 0.009287 0.029118
    9 9.514226 -0.009357 0.000000 -0.005681 -0.105632 0.244991
    10 2.450429 5.076128 0.001325 3.062329 -1.570796 0.000000
    11 6.312407 -4.528058 0.001311 3.140791 -1.570796 0.000000
    12 2.233310 1.152535 -7.309138 -1.130179 -1.544671 -1.060133
    13 11.751820 -0.001633 0.000000 0.024724 0.088565 0.791343
    14 -1.344035 1.425185 -2.809887 0.622989 1.349446 2.949678
    15 4.640942 0.000000 0.000000 0.225383 -0.663342 -1.333509
    16 10.828047 0.000000 0.000000 0.000000 0.000000 -1.250172
    17 9.393338 0.000000 0.000001 2.408764 0.124143 0.794188
    18 1.442242 0.107453 1.746178 -2.449460 -0.338953 0.923082
    19 1.063451 0.000000 -0.000001 0.000000 0.000000 0.366503
    20 4.172844 -0.251366 1.312745 -0.000488 -0.096055 0.069757
    21 1.215373 0.000000 0.000001 0.000000 0.000000 0.130840
    22 1.215372 0.000000 0.000001 0.000000 0.000000 1.151838
    23 4.220531 -0.244854 0.431466 -0.011400 0.078000 0.147655
    24 1.350417 0.000001 -0.000001 0.000000 0.000000 0.977335
    25 1.350410 -0.000001 0.000001 0.000000 0.000000 1.518389
    26 4.262825 -0.232720 -1.392178 0.021238 -0.052274 0.146778
    27 -1.816706 1.554083 2.462223 -0.111778 -1.315478 2.459327
    28 4.640942 0.000000 -0.000001 -0.317905 0.779664 -1.302775
    29 10.828047 0.000000 -0.000002 0.000000 0.000000 -1.242196
    30 9.393336 -0.000001 0.000000 -2.527939 -0.477322 0.932746
    31 1.442245 0.107453 -1.746177 1.545043 0.350678 0.095007
    32 1.063452 -0.000001 -0.000001 0.000000 0.000000 0.199055
    33 1.376307 -0.000001 0.000000 0.000000 0.000000 0.199027
    34 4.172847 -0.251366 -1.312744 0.008002 -0.043877 0.147534
    35 1.215373 0.000001 0.000000 0.000000 0.000000 0.645758
    36 1.215371 -0.000001 0.000000 0.000000 0.000000 0.881369
    37 4.220535 -0.244855 -0.431465 0.001333 0.026242 0.148336
    38 1.350416 0.000000 0.000000 0.000000 0.000000 0.732991
    39 1.350410 -0.000001 -0.000001 0.000000 0.000000 1.256584
    40 4.237636 -0.195359 0.527090 0.025781 0.128443 0.455451
    41 1.215376 0.000001 0.000001 0.000000 0.000000 0.401393
    42 1.215371 0.000000 0.000000 0.000000 0.000000 1.326390
    43 4.262829 -0.232721 1.392178 0.025466 0.184121 0.480098
    44 1.012811 0.000000 0.000000 0.000000 0.000000 0.584666
    45 1.012809 -0.000001 0.000000 0.000000 0.000000 0.837704
    46 1.376306 -0.000001 0.000000 0.000000 0.000000 0.811538
    47 4.237632 -0.195359 -0.527090 0.000345 -0.008861 0.148285
    48 1.215375 0.000001 -0.000001 0.000000 0.000000 0.977335
    49 1.215371 0.000000 0.000001 0.000000 0.000000 1.518389
    50 1.012810 0.000001 0.000000 0.000000 0.000000 0.977335
    51 1.012810 -0.000001 0.000000 0.000000 0.000000 1.186755
    52 2.110540 0.000000 0.000000 0.078785 0.098405 -0.020634
    53 5.253243 3.139475 -1.673515 2.984594 -1.570796 0.000000
    54 5.253259 3.139473 -0.054760 3.106744 -1.570796 0.000000
    55 5.253252 3.139468 1.574632 2.984594 -1.570796 0.000000
    56 4.598148 4.158443 -1.350299 2.984594 -1.570796 0.000000
    57 4.598139 4.158430 -0.054439 2.984594 -1.570796 0.000000
    58 4.598140 4.158430 1.240876 2.984594 -1.570796 0.000000
    59 0.891927 2.373051 -0.014527 -3.141592 -0.000001 1.413797
    60 7.228122 5.709446 3.726568 3.140796 -1.570796 0.000000
  time 5
    0 1.275236 7.485338 37.974408 -0.033172 0.165038 -1.637428
    1 -1.425498 0.273446 0.000000 -0.000027 -1.518483 -1.570772
    2 -0.000006 0.000008 4.427393 -0.161918 -3.135749 -0.179956
    3 18.465940 0.000000 0.000000 0.000000 0.000000 -0.441627
    4 14.875443 0.000000 -0.000001 0.041647 -0.015468 0.404955
    5 0.000006 -0.000004 -4.427393 0.086124 3.101362 -0.558114
    6 18.465940 0.000000 0.000000 0.000000 0.000000 -0.467249
    7 14.875443 0.000000 0.000000 0.049600 -0.015188 0.073430
    8 2.255207 -0.007574 0.113288 -0.065821 0.008436 0.016181
    9 9.514226 -0.009357 0.000000 -0.005681 -0.105632 0.244991
    10 2.450429 5.076128 0.001325 3.062329 -1.570796 0.000000
    11 6.312407 -4.528058 0.001311 3.140791 -1.570796 0.000000
    12 2.233310 1.152535 -7.309138 -1.130179 -1.544671 -1.060133
    13 11.751820 -0.001633 0.000000 0.024724 0.088565 0.791343
    14 -1.344035 1.425185 -2.809887 0.622989 1.349446 2.949678
    15 4.640942 0.000000 0.000000 0.234792 -0.667108 -1.350027
    16 10.828047 0.000000 0.000000 0.000000 0.000000 -1.206204
    17 9.393338 0.000000 0.000001 2.409846 0.104981 0.782453
    18 1.442242 0.107453 1.746178 -2.449460 -0.338953 0.923082
    19 1.063451 0.000000 -0.000001 0.000000 0.000000 0.366503
    20 4.172844 -0.251366 1.312745 -0.000488 -0.096055 0.069757
    21 1.215373 0.000000 0.000001 0.000000 0.000000 0.130840
    22 1.215372 0.000000 0.000001 0.000000 0.000000 1.151838
    23 4.220531 -0.244854 0.431466 -0.011400 0.078000 0.147655
    24 1.350417 0.000001 -0.000001 0.000000 0.000000 0.977335
    25 1.350410 -0.000001 0.000001 0.000000 0.000000 1.518389
    26 4.262825 -0.232720 -1.392178 0.021238 -0.052274 0.146778
    27 -1.816706 1.554083 2.462223 -0.111778 -1.315478 2.459327
    28 4.640942 0.000000 -0.000001 -0.326648 0.782557 -1.310209
    29 10.828047 0.000000 -0.000002 0.000000 0.000000 -1.208151
    30 9.393336 -0.000001 0.000000 -2.533397 -0.454973 0.922783
    31 1.442245 0.107453 -1.746177 1.545043 0.350678 0.095007
    32 1.063452 -0.000001 -0.000001 0.000000 0.000000 0.199055
    33 1.376307 -0.000001 0.000000 0.000000 0.000000 0.199027
    34 4.172847 -0.251366 -1.312744 0.008002 -0.043877 0.147534
    35 1.215373 0.000001 0.000000 0.000000 0.000000 0.645758
    36 1.215371 -0.000001 0.000000 0.000000 0.000000 0.881369
    37 4.220535 -0.244855 -0.431465 0.001333 0.026242 0.148336
    38 1.350416 0.000000 0.000000 0.000000 0.000000 0.732991
    39 1.350410 -0.000001 -0.000001 0.000000 0.000000 1.256584
    40 4.237636 -0.195359 0.527090 0.025781 0.128443 0.455451
    41 1.215376 0.000001 0.000001 0.000000 0.000000 0.401393
    42 1.215371 0.000000 0.000000 0.000000 0.000000 1.326390
    43 4.262829 -0.232721 1.392178 0.025466 0.184121 0.480098
    44 1.012811 0.000000 0.000000 0.000000 0.000000 0.584666
    45 1.012809 -0.000001 0.000000 0.000000 0.000000 0.837704
    46 1.376306 -0.000001 0.000000 0.000000 0.000000 0.811538
    47 4.237632 -0.195359 -0.527090 0.000345 -0.008861 0.148285
    48 1.215375 0.000001 -0.000001 0.000000 0.000000 0.977335
    49 1.215371 0.000000 0.000001 0.000000 0.000000 1.518389
    50 1.012810 0.000001 0.000000 0.000000 0.000000 0.977335
    51 1.012810 -0.000001 0.000000 0.000000 0.000000 1.186755
    52 2.110540 0.000000 0.000000 0.079262 0.097093 0.000120
    53 5.253243 3.139475 -1.673515 2.984594 -1.570796 0.000000
    54 5.253259 3.139473 -0.054760 3.106744 -1.570796 0.000000
    55 5.253252 3.139468 1.574632 2.984594 -1.570796 0.000000
    56 4.598148 4.158443 -1.350299 2.984594 -1.570796 0.000000
    57 4.598139 4.158430 -0.054439 2.984594 -1.570796 0.000000
    58 4.598140 4.158430 1.240876 2.984594 -1.570796 0.000000
    59 0.891927 2.373051 -0.014527 -3.141592 -0.000001 1.413797
    60 7.228122 5.709446 3.726568 3.140796 -1.570796 0.000000
  time 6
    0 1.275236 7.485338 37.990033 -0.033172 0.165038 -1.637428
    1 -1.331745 0.265633 0.000000 -0.000027 -1.518483 -1.570772
    2 -0.000006 0.000008 4.427393 -0.161823 -3.135935 -0.175318
    3 18.465940 0.000000 0.000000 0.000000 0.000000 -0.437460
    4 14.875443 0.000000 -0.000001 0.041533 -0.016107 0.405350
    5 0.000006 -0.000004 -4.427393 0.086124 3.101269 -0.557459
    6 18.465940 0.000000 0.000000 0.000000 0.000000 -0.472172
    7 14.875443 0.000000 0.000000 0.049600 -0.015098 0.078945
    8 2.255207 -0.007574 0.113288 -0.065884 0.007861 0.007281
    9 9.514226 -0.009357 0.000000 -0.005681 -0.105632 0.244991
    10 2.450429 5.076128 0.001325 3.062329 -1.570796 0.000000
    11 6.312407 -4.528058 0.001311 3.140791 -1.570796 0.000000
    12 2.233310 1.152535 -7.309138 -1.130179 -1.544671 -1.060133
    13 11.751820 -0.001633 0.000000 0.024724 0.088565 0.791343
    14 -1.344035 1.425185 -2.809887 0.622989 1.349446 2.949678
    15 4.640942 0.000000 0.000000 0.250326 -0.668991 -1.378514
    16 10.828047 0.000000 0.000000 0.000000 0.000000 -1.134590
    17 9.393338 0.000000 0.000001 2.411470 0.085755 0.754229
    18 1.442242 0.107453 1.746178 -2.449460 -0.338953 0.923082
    19 1.063451 0.000000 -0.000001 0.000000 0.000000 0.366503
    20 4.172844 -0.251366 1.312745 -0.000488 -0.096055 0.069757
    21 1.215373 0.000000 0.000001 0.000000 0.000000 0.130840
    22 1.215372 0.000000 0.000001 0.000000 0.000000 1.151838
    23 4.220531 -0.244854 0.431466 -0.011400 0.078000 0.147655
    24 1.350417 0.000001 -0.000001 0.000000 0.000000 0.977335
    25 1.350410 -0.000001 0.000001 0.000000 0.000000 1.518389
    26 4.262825 -0.232720 -1.392178 0.021238 -0.052274 0.146778
    27 -1.816706 1.554083 2.462223 -0.111778 -1.315478 2.459327
    28 4.640942 0.000000 -0.000001 -0.340107 0.781386 -1.325956
    29 10.828047 0.000000 -0.000002 0.000000 0.000000 -1.149213
    30 9.393336 -0.000001 0.000000 -2.540734 -0.429065 0.895530
    31 1.442245 0.107453 -1.746177 1.545043 0.350678 0.095007
    32 1.063452 -0.000001 -0.000001 0.000000 0.000000 0.199055
    33 1.376307 -0.000001 0.000000 0.000000 0.000000 0.199027
    34 4.172847 -0.251366 -1.312744 0.008002 -0.043877 0.147534
    35 1.215373 0.000001 0.000000 0.000000 0.000000 0.645758
    36 1.215371 -0.000001 0.000000 0.000000 0.000000 0.881369
    37 4.220535 -0.244855 -0.431465 0.001333 0.026242 0.148336
    38 1.350416 0.000000 0.000000 0.000000 0.000000 0.732991
    39 1.350410 -0.000001 -0.000001 0.000000 0.000000 1.256584
    40 4.237636 -0.195359 0.527090 0.025781 0.128443 0.455451
    41 1.215376 0.000001 0.000001 0.000000 0.000000 0.401393
    42 1.215371 0.000000 0.000000 0.000000 0.000000 1.326390
    43 4.262829 -0.232721 1.392178 0.025466 0.184121 0.480098
    44 1.012811 0.000000 0.000000 0.000000 0.000000 0.584666
    45 1.012809 -0.000001 0.000000 0.000000 0.000000 0.837704
    46 1.376306 -0.000001 0.000000 0.000000 0.000000 0.811538
    47 4.237632 -0.195359 -0.527090 0.000345 -0.008861 0.148285
    48 1.215375 0.000001 -0.000001 0.000000 0.000000 0.977335
    49 1.215371 0.000000 0.000001 0.000000 0.000000 1.518389
    50 1.012810 0.000001 0.000000 0.000000 0.000000 0.977335
    51 1.012810 -0.000001 0.000000 0.000000 0.000000 1.186755
    52 2.110540 0.000000 0.000000 0.079596 0.096171 0.014307
    53 5.253243 3.139475 -1.673515 2.984594 -1.570796 0.000000
    54 5.253259 3.139473 -0.054760 3.106744 -1.570796 0.000000
    55 5.253252 3.139468 1.574632 2.984594 -1.570796 0.000000
    56 4.598148 4.158443 -1.350299 2.984594 -1.570796 0.000000
    57 4.598139 4.158430 -0.054439 2.984594 -1.570796 0.000000
    58 4.598140 4.158430 1.240876 2.984594 -1.570796 0.000000
    59 0.891927 2.373051 -0.014527 -3.141592 -0.000001 1.413797
    60 7.228122 5.709446 3.726568 3.140796 -1.570796 0.000000
  time 7
    0 1.275236 7.485338 37.997846 -0.033172 0.165038 -1.637428
    1 -1.292681 0.265633 0.000000 -0.000027 -1.518483 -1.570772
    2 -0.000006 0.000008 4.427393 -0.161632 -3.135935 -0.173623
    3 18.465940 0.000000 0.000000 0.000000 0.000000 -0.435925
    4 14.875443 0.000000 -0.000001 0.041476 -0.016298 0.405508
    5 0.000006 -0.000004 -4.427393 0.086124 3.101269 -0.557178
    6 18.465940 0.000000 0.000000 0.000000 0.000000 -0.474010
    7 14.875443 0.000000 0.000000 0.049600 -0.015037 0.081009
    8 2.255207 -0.007574 0.113288 -0.065926 0.007633 0.003972
    9 9.514226 -0.009357 0.000000 -0.005681 -0.105632 0.244991
    10 2.450429 5.076128 0.001325 3.062329 -1.570796 0.000000
    11 6.312407 -4.528058 0.001311 3.140791 -1.570796 0.000000
    12 2.233310 1.152535 -7.309138 -1.130179 -1.544671 -1.060133
    13 11.751820 -0.001633 0.000000 0.024724 0.088565 0.791343
    14 -1.344035 1.425185 -2.809887 0.622989 1.349446 2.949678
    15 4.640942 0.000000 0.000000 0.269339 -0.665783 -1.411340
    16 10.828047 0.000000 0.000000 0.000000 0.000000 -1.060652
    17 9.393338 0.000000 0.000001 2.413039 0.063503 0.728334
    18 1.442242 0.107453 1.746178 -2.449460 -0.338953 0.923082
    19 1.063451 0.000000 -0.000001 0.000000 0.000000 0.366503
    20 4.172844 -0.251366 1.312745 -0.000488 -0.096055 0.069757
    21 1.215373 0.000000 0.000001 0.000000 0.000000 0.130840
    22 1.215372 0.000000 0.000001 0.000000 0.000000 1.151838
    23 4.220531 -0.244854 0.431466 -0.011400 0.078000 0.147655
    24 1.350417 0.000001 -0.000001 0.000000 0.000000 0.977335
    25 1.350410 -0.000001 0.000001 0.000000 0.000000 1.518389
    26 4.262825 -0.232720 -1.392178 0.021238 -0.052274 0.146778
    27 -1.816706 1.554083 2.462223 -0.111778 -1.315478 2.459327
    28 4.640942 0.000000 -0.000001 -0.355629 0.775050 -1.345214
    29 10.828047 0.000000 -0.000002 0.000000 0.000000 -1.089726
    30 9.393336 -0.000001 0.000000 -2.549189 -0.399568 0.871061
    31 1.442245 0.107453 -1.746177 1.545043 0.350678 0.095007
    32 1.063452 -0.000001 -0.000001 0.000000 0.000000 0.199055
    33 1.376307 -0.000001 0.000000 0.000000 0.000000 0.199027
    34 4.172847 -0.251366 -1.312744 0.008002 -0.043877 0.147534
    35 1.215373 0.000001 0.000000 0.000000 0.000000 0.645758
    36 1.215371 -0.000001 0.000000 0.000000 0.000000 0.881369
    37 4.220535 -0.244855 -0.431465 0.001333 0.026242 0.148336
    38 1.350416 0.000000 0.000000 0.000000 0.000000 0.732991
    39 1.350410 -0.000001 -0.000001 0.000000 0.000000 1.256584
    40 4.237636 -0.195359 0.527090 0.025781 0.128443 0.455451
    41 1.215376 0.000001 0.000001 0.000000 0.000000 0.401393
    42 1.215371 0.000000 0.000000 0.000000 0.000000 1.326390
    43 4.262829 -0.232721 1.392178 0.025466 0.184121 0.480098
    44 1.012811 0.000000 0.000000 0.000000 0.000000 0.584666
    45 1.012809 -0.000001 0.000000 0.000000 0.000000 0.837704
    46 1.376306 -0.000001 0.000000 0.000000 0.000000 0.811538
    47 4.237632 -0.195359 -0.527090 0.000345 -0.008861 0.148285
    48 1.215375 0.000001 -0.000001 0.000000 0.000000 0.977335
    49 1.215371 0.000000 0.000001 0.000000 0.000000 1.518389
    50 1.012810 0.000001 0.000000 0.000000 0.000000 0.977335
    51 1.012810 -0.000001 0.000000 0.000000 0.000000 1.186755
    52 2.110540 0.000000 0.000000 0.079739 0.095836 0.019628
    53 5.253243 3.139475 -1.673515 2.984594 -1.570796 0.000000
    54 5.253259 3.139473 -0.054760 3.106744 -1.570796 0.000000
    55 5.253252 3.139468 1.574632 2.984594 -1.570796 0.000000
    56 4.598148 4.158443 -1.350299 2.984594 -1.570796 0.000000
    57 4.598139 4.158430 -0.054439 2.984594 -1.570796 0.000000
    58 4.598140 4.158430 1.240876 2.984594 -1.570796 0.000000
    59 0.891927 2.373051 -0.014527 -3.141592 -0.000001 1.413797
    60 7.228122 5.709446 3.726568 3.140796 -1.570796 0.000000
  time 8
    0 1.275236 7.485338 37.990033 -0.033172 0.165038 -1.637428
    1 -1.323932 0.265633 0.000000 -0.000027 -1.518483 -1.570772
    2 -0.000006 0.000008 4.427393 -0.161823 -3.135935 -0.174919
    3 18.465940 0.000000 0.000000 0.000000 0.000000 -0.437094
    4 14.875443 0.000000 -0.000001 0.041504 -0.016128 0.405429
    5 0.000006 -0.000004 -4.427393 0.086124 3.101269 -0.557271
    6 18.465940 0.000000 0.000000 0.000000 0.000000 -0.472566
    7 14.875443 0.000000 0.000000 0.049600 -0.015067 0.079433
    8 2.255207 -0.007574 0.113288 -0.065905 0.007813 0.006520
    9 9.514226 -0.009357 0.000000 -0.005681 -0.105632 0.244991
    10 2.450429 5.076128 0.001325 3.062329 -1.570796 0.000000
    11 6.312407 -4.528058 0.001311 3.140791 -1.570796 0.000000
    12 2.233310 1.152535 -7.309138 -1.130179 -1.544671 -1.060133
    13 11.751820 -0.001633 0.000000 0.024724 0.088565 0.791343
    14 -1.344035 1.425185 -2.809887 0.622989 1.349446 2.949678
    15 4.640942 0.000000 0.000000 0.286098 -0.656090 -1.436607
    16 10.828047 0.000000 0.000000 0.000000 0.000000 -1.014012
    17 9.393338 0.000000 0.000001 2.413526 0.035297 0.725182
    18 1.442242 0.107453 1.746178 -2.449460 -0.338953 0.923082
    19 1.063451 0.000000 -0.000001 0.000000 0.000000 0.366503
    20 4.172844 -0.251366 1.312745 -0.000488 -0.096055 0.069757
    21 1.215373 0.000000 0.000001 0.000000 0.000000 0.130840
    22 1.215372 0.000000 0.000001 0.000000 0.000000 1.151838
    23 4.220531 -0.244854 0.431466 -0.011400 0.078000 0.147655
    24 1.350417 0.000001 -0.000001 0.000000 0.000000 0.977335
    25 1.350410 -0.000001 0.000001 0.000000 0.000000 1.518389
    26 4.262825 -0.232720 -1.392178 0.021238 -0.052274 0.146778
    27 -1.816706 1.554083 2.462223 -0.111778 -1.315478 2.459327
    28 4.640942 0.000000 -0.000001 -0.367565 0.764305 -1.359263
    29 10.828047 0.000000 -0.000002 0.000000 0.000000 -1.057695
    30 9.393336 -0.000001 0.000000 -2.557510 -0.366120 0.870719
    31 1.442245 0.107453 -1.746177 1.545043 0.350678 0.095007
    32 1.063452 -0.000001 -0.000001 0.000000 0.000000 0.199055
    33 1.376307 -0.000001 0.000000 0.000000 0.000000 0.199027
    34 4.172847 -0.251366 -1.312744 0.008002 -0.043877 0.147534
    35 1.215373 0.000001 0.000000 0.000000 0.000000 0.645758
    36 1.215371 -0.000001 0.000000 0.000000 0.000000 0.881369
    37 4.220535 -0.244855 -0.431465 0.001333 0.026242 0.148336
    38 1.350416 0.000000 0.000000 0.000000 0.000000 0.732991
    39 1.350410 -0.000001 -0.000001 0.000000 0.000000 1.256584
    40 4.237636 -0.195359 0.527090 0.025781 0.128443 0.455451
    41 1.215376 0.000001 0.000001 0.000000 0.000000 0.401393
    42 1.215371 0.000000 0.000000 0.000000 0.000000 1.326390
    43 4.262829 -0.232721 1.392178 0.025466 0.184121 0.480098
    44 1.012811 0.000000 0.000000 0.000000 0.000000 0.584666
    45 1.012809 -0.000001 0.000000 0.000000 0.000000 0.837704
    46 1.376306 -0.000001 0.000000 0.000000 0.000000 0.811538
    47 4.237632 -0.195359 -0.527090 0.000345 -0.008861 0.148285
    48 1.215375 0.000001 -0.000001 0.000000 0.000000 0.977335
    49 1.215371 0.000000 0.000001 0.000000 0.000000 1.518389
    50 1.012810 0.000001 0.000000 0.000000 0.000000 0.977335
    51 1.012810 -0.000001 0.000000 0.000000 0.000000 1.186755
    52 2.110540 0.000000 0.000000 0.079691 0.096115 0.015554
    53 5.253243 3.139475 -1.673515 2.984594 -1.570796 0.000000
    54 5.253259 3.139473 -0.054760 3.106744 -1.570796 0.000000
    55 5.253252 3.139468 1.574632 2.984594 -1.570796 0.000000
    56 4.598148 4.158443 -1.350299 2.984594 -1.570796 0.000000
    57 4.598139 4.158430 -0.054439 2.984594 -1.570796 0.000000
    58 4.598140 4.158430 1.240876 2.984594 -1.570796 0.000000
    59 0.891927 2.373051 -0.014527 -3.141592 -0.000001 1.413797
    60 7.228122 5.709446 3.726568 3.140796 -1.570796 0.000000
  time 9
    0 1.275236 7.485338 37.978314 -0.033172 0.165038 -1.637428
    1 -1.398153 0.273446 0.000000 -0.000027 -1.518483 -1.570772
    2 -0.000006 0.000008 4.427393 -0.161918 -3.135749 -0.178610
    3 18.465940 0.000000 0.000000 0.000000 0.000000 -0.440384
    4 14.875443 0.000000 -0.000001 0.041618 -0.015681 0.405034
    5 0.000006 -0.000004 -4.427393 0.086124 3.101362 -0.557927
    6 18.465940 0.000000 0.000000 0.000000 0.000000 -0.468759
    7 14.875443 0.000000 0.000000 0.049600 -0.015158 0.075081
    8 2.255207 -0.007574 0.113288 -0.065842 0.008256 0.013534
    9 9.514226 -0.009357 0.000000 -0.005681 -0.105632 0.244991
    10 2.450429 5.076128 0.001325 3.062329 -1.570796 0.000000
    11 6.312407 -4.528058 0.001311 3.140791 -1.570796 0.000000
    12 2.233310 1.152535 -7.309138 -1.130179 -1.544671 -1.060133
    13 11.751820 -0.001633 0.000000 0.024724 0.088565 0.791343
    14 -1.344035 1.425185 -2.809887 0.622989 1.349446 2.949678
    15 4.640942 0.000000 0.000000 0.299916 -0.641863 -1.454665
    16 10.828047 0.000000 0.000000 0.000000 0.000000 -0.990024
    17 9.393338 0.000000 0.000001 2.412714 0.002798 0.739972
    18 1.442242 0.107453 1.746178 -2.449460 -0.338953 0.923082
    19 1.063451 0.000000 -0.000001 0.000000 0.000000 0.366503
    20 4.172844 -0.251366 1.312745 -0.000488 -0.096055 0.069757
    21 1.215373 0.000000 0.000001 0.000000 0.000000 0.130840
    22 1.215372 0.000000 0.000001 0.000000 0.000000 1.151838
    23 4.220531 -0.244854 0.431466 -0.011400 0.078000 0.147655
    24 1.350417 0.000001 -0.000001 0.000000 0.000000 0.977335
    25 1.350410 -0.000001 0.000001 0.000000 0.000000 1.518389
    26 4.262825 -0.232720 -1.392178 0.021238 -0.052274 0.146778
    27 -1.816706 1.554083 2.462223 -0.111778 -1.315478 2.459327
    28 4.640942 0.000000 -0.000001 -0.376112 0.750598 -1.368043
    29 10.828047 0.000000 -0.000002 0.000000 0.000000 -1.047689
    30 9.393336 -0.000001 0.000000 -2.565474 -0.329595 0.889034
    31 1.442245 0.107453 -1.746177 1.545043 0.350678 0.095007
    32 1.063452 -0.000001 -0.000001 0.000000 0.000000 0.199055
    33 1.376307 -0.000001 0.000000 0.000000 0.000000 0.199027
    34 4.172847 -0.251366 -1.312744 0.008002 -0.043877 0.147534
    35 1.215373 0.000001 0.000000 0.000000 0.000000 0.645758
    36 1.215371 -0.000001 0.000000 0.000000 0.000000 0.881369
    37 4.220535 -0.244855 -0.431465 0.001333 0.026242 0.148336
    38 1.350416 0.000000 0.000000 0.000000 0.000000 0.732991
    39 1.350410 -0.000001 -0.000001 0.000000 0.000000 1.256584
    40 4.237636 -0.195359 0.527090 0.025781 0.128443 0.455451
    41 1.215376 0.000001 0.000001 0.000000 0.000000 0.401393
    42 1.215371 0.000000 0.000000 0.000000 0.000000 1.326390
    43 4.262829 -0.232721 1.392178 0.025466 0.184121 0.480098
    44 1.012811 0.000000 0.000000 0.000000 0.000000 0.584666
    45 1.012809 -0.000001 0.000000 0.000000 0.000000 0.837704
    46 1.376306 -0.000001 0.000000 0.000000 0.000000 0.811538
    47 4.237632 -0.195359 -0.527090 0.000345 -0.008861 0.148285
    48 1.215375 0.000001 -0.000001 0.000000 0.000000 0.977335
    49 1.215371 0.000000 0.000001 0.000000 0.000000 1.518389
    50 1.012810 0.000001 0.000000 0.000000 0.000000 0.977335
    51 1.012810 -0.000001 0.000000 0.000000 0.000000 1.186755
    52 2.110540 0.000000 0.000000 0.079405 0.096813 0.004386
    53 5.253243 3.139475 -1.673515 2.984594 -1.570796 0.000000
    54 5.253259 3.139473 -0.054760 3.106744 -1.570796 0.000000
    55 5.253252 3.139468 1.574632 2.984594 -1.570796 0.000000
    56 4.598148 4.158443 -1.350299 2.984594 -1.570796 0.000000
    57 4.598139 4.158430 -0.054439 2.984594 -1.570796 0.000000
    58 4.598140 4.158430 1.240876 2.984594 -1.570796 0.000000
    59 0.891927 2.373051 -0.014527 -3.141592 -0.000001 1.413797
    60 7.228122 5.709446 3.726568 3.140796 -1.570796 0.000000
  time 10
    0 1.275236 7.485338 37.962689 -0.033172 0.165038 -1.637428
    1 -1.503625 0.281259 0.000000 -0.000027 -1.518483 -1.570772
    2 -0.000006 0.000008 4.427393 -0.161918 -3.135656 -0.183946
    3 18.465940 0.000000 0.000000 0.000000 0.000000 -0.445282
    4 14.875443 0.000000 -0.000001 0.041732 -0.014936 0.404560
    5 0.000006 -0.000004 -4.427393 0.086124 3.101362 -0.558582
    6 18.465940 0.000000 0.000000 0.000000 0.000000 -0.462983
    7 14.875443 0.000000 0.000000 0.049645 -0.015309 0.068628
    8 2.255207 -0.007574 0.113288 -0.065758 0.008951 0.023890
    9 9.514226 -0.009357 0.000000 -0.005681 -0.105632 0.244991
    10 2.450429 5.076128 0.001325 3.062329 -1.570796 0.000000
    11 6.312407 -4.528058 0.001311 3.140791 -1.570796 0.000000
    12 2.233310 1.152535 -7.309138 -1.130179 -1.544671 -1.060133
    13 11.751820 -0.001633 0.000000 0.024724 0.088565 0.791343
    14 -1.344035 1.425185 -2.809887 0.622989 1.349446 2.949678
    15 4.640942 0.000000 0.000000 0.314666 -0.625125 -1.474822
    16 10.828047 0.000000 0.000000 0.000000 0.000000 -0.961971
    17 9.393338 0.000000 0.000001 2.411199 -0.029702 0.752726
    18 1.442242 0.107453 1.746178 -2.449460 -0.338953 0.923082
    19 1.063451 0.000000 -0.000001 0.000000 0.000000 0.366503
    20 4.172844 -0.251366 1.312745 -0.000488 -0.096055 0.069757
    21 1.215373 0.000000 0.000001 0.000000 0.000000 0.130840
    22 1.215372 0.000000 0.000001 0.000000 0.000000 1.151838
    23 4.220531 -0.244854 0.431466 -0.011400 0.078000 0.147655
    24 1.350417 0.000001 -0.000001 0.000000 0.000000 0.977335
    25 1.350410 -0.000001 0.000001 0.000000 0.000000 1.518389
    26 4.262825 -0.232720 -1.392178 0.021238 -0.052274 0.146778
    27 -1.816706 1.554083 2.462223 -0.111778 -1.315478 2.459327
    28 4.640942 0.000000 -0.000001 -0.385101 0.733930 -1.378638
    29 10.828047 0.000000 -0.000002 0.000000 0.000000 -1.034449
    30 9.393336 -0.000001 0.000000 -2.572811 -0.292015 0.904907
    31 1.442245 0.107453 -1.746177 1.545043 0.350678 0.095007
    32 1.063452 -0.000001 -0.000001 0.000000 0.000000 0.199055
    33 1.376307 -0.000001 0.000000 0.000000 0.000000 0.199027
    34 4.172847 -0.251366 -1.312744 0.008002 -0.043877 0.147534
    35 1.215373 0.000001 0.000000 0.000000 0.000000 0.645758
    36 1.215371 -0.000001 0.000000 0.000000 0.000000 0.881369
    37 4.220535 -0.244855 -0.431465 0.001333 0.026242 0.148336
    38 1.350416 0.000000 0.000000 0.000000 0.000000 0.732991
    39 1.350410 -0.000001 -0.000001 0.000000 0.000000 1.256584
    40 4.237636 -0.195359 0.527090 0.025781 0.128443 0.455451
    41 1.215376 0.000001 0.000001 0.000000 0.000000 0.401393
    42 1.215371 0.000000 0.000000 0.000000 0.000000 1.326390
    43 4.262829 -0.232721 1.392178 0.025466 0.184121 0.480098
    44 1.012811 0.000000 0.000000 0.000000 0.000000 0.584666
    45 1.012809 -0.000001 0.000000 0.000000 0.000000 0.837704
    46 1.376306 -0.000001 0.000000 0.000000 0.000000 0.811538
    47 4.237632 -0.195359 -0.527090 0.000345 -0.008861 0.148285
    48 1.215375 0.000001 -0.000001 0.000000 0.000000 0.977335
    49 1.215371 0.000000 0.000001 0.000000 0.000000 1.518389
    50 1.012810 0.000001 0.000000 0.000000 0.000000 0.977335
    51 1.012810 -0.000001 0.000000 0.000000 0.000000 1.186755
    52 2.110540 0.000000 0.000000 0.078976 0.097875 -0.012246
    53 5.253243 3.139475 -1.673515 2.984594 -1.570796 0.000000
    54 5.253259 3.139473 -0.054760 3.106744 -1.570796 0.000000
    55 5.253252 3.139468 1.574632 2.984594 -1.570796 0.000000
    56 4.598148 4.158443 -1.350299 2.984594 -1.570796 0.000000
    57 4.598139 4.158430 -0.054439 2.984594 -1.570796 0.000000
    58 4.598140 4.158430 1.240876 2.984594 -1.570796 0.000000
    59 0.891927 2.373051 -0.014527 -3.141592 -0.000001 1.413797
    60 7.228122 5.709446 3.726568 3.140796 -1.570796 0.000000
  time 11
    0 1.275236 7.485338 37.943157 -0.033172 0.165038 -1.637428
    1 -1.640348 0.285165 0.000000 -0.000027 -1.518483 -1.570772
    2 -0.000006 0.000008 4.427393 -0.162109 -3.135377 -0.190629
    3 18.465940 0.000000 0.000000 0.000000 0.000000 -0.451277
    4 14.875443 0.000000 -0.000001 0.041874 -0.014106 0.403928
    5 0.000006 -0.000004 -4.427393 0.086124 3.101456 -0.559518
    6 18.465940 0.000000 0.000000 0.000000 0.000000 -0.455960
    7 14.875443 0.000000 0.000000 0.049645 -0.015459 0.060712
    8 2.255207 -0.007574 0.113288 -0.065632 0.009790 0.036662
    9 9.514226 -0.009357 0.000000 -0.005681 -0.105632 0.244991
    10 2.450429 5.076128 0.001325 3.062329 -1.570796 0.000000
    11 6.312407 -4.528058 0.001311 3.140791 -1.570796 0.000000
    12 2.233310 1.152535 -7.309138 -1.130179 -1.544671 -1.060133
    13 11.751820 -0.001633 0.000000 0.024724 0.088565 0.791343
    14 -1.344035 1.425185 -2.809887 0.622989 1.349446 2.949678
    15 4.640942 0.000000 0.000000 0.330200 -0.606435 -1.497639
    16 10.828047 0.000000 0.000000 0.000000 0.000000 -0.927587
    17 9.393338 0.000000 0.000001 2.409035 -0.061356 0.761310
    18 1.442242 0.107453 1.746178 -2.449460 -0.338953 0.923082
    19 1.063451 0.000000 -0.000001 0.000000 0.000000 0.366503
    20 4.172844 -0.251366 1.312745 -0.000488 -0.096055 0.069757
    21 1.215373 0.000000 0.000001 0.000000 0.000000 0.130840
    22 1.215372 0.000000 0.000001 0.000000 0.000000 1.151838
    23 4.220531 -0.244854 0.431466 -0.011400 0.078000 0.147655
    24 1.350417 0.000001 -0.000001 0.000000 0.000000 0.977335
    25 1.350410 -0.000001 0.000001 0.000000 0.000000 1.518389
    26 4.262825 -0.232720 -1.392178 0.021238 -0.052274 0.146778
    27 -1.816706 1.554083 2.462223 -0.111778 -1.315478 2.459327
    28 4.640942 0.000000 -0.000001 -0.394827 0.715058 -1.391106
    29 10.828047 0.000000 -0.000002 0.000000 0.000000 -1.016024
    30 9.393336 -0.000001 0.000000 -2.579477 -0.254284 0.916189
    31 1.442245 0.107453 -1.746177 1.545043 0.350678 0.095007
    32 1.063452 -0.000001 -0.000001 0.000000 0.000000 0.199055
    33 1.376307 -0.000001 0.000000 0.000000 0.000000 0.199027
    34 4.172847 -0.251366 -1.312744 0.008002 -0.043877 0.147534
    35 1.215373 0.000001 0.000000 0.000000 0.000000 0.645758
    36 1.215371 -0.000001 0.000000 0.000000 0.000000 0.881369
    37 4.220535 -0.244855 -0.431465 0.001333 0.026242 0.148336
    38 1.350416 0.000000 0.000000 0.000000 0.000000 0.732991
    39 1.350410 -0.000001 -0.000001 0.000000 0.000000 1.256584
    40 4.237636 -0.195359 0.527090 0.025781 0.128443 0.455451
    41 1.215376 0.000001 0.000001 0.000000 0.000000 0.401393
    42 1.215371 0.000000 0.000000 0.000000 0.000000 1.326390
    43 4.262829 -0.232721 1.392178 0.025466 0.184121 0.480098
    44 1.012811 0.000000 0.000000 0.000000 0.000000 0.584666
    45 1.012809 -0.000001 0.000000 0.000000 0.000000 0.837704
    46 1.376306 -0.000001 0.000000 0.000000 0.000000 0.811538
    47 4.237632 -0.195359 -0.527090 0.000345 -0.008861 0.148285
    48 1.215375 0.000001 -0.000001 0.000000 0.000000 0.977335
    49 1.215371 0.000000 0.000001 0.000000 0.000000 1.518389
    50 1.012810 0.000001 0.000000 0.000000 0.000000 0.977335
    51 1.012810 -0.000001 0.000000 0.000000 0.000000 1.186755
    52 2.110540 0.000000 0.000000 0.078403 0.099187 -0.032713
    53 5.253243 3.139475 -1.673515 2.984594 -1.570796 0.000000
    54 5.253259 3.139473 -0.054760 3.106744 -1.570796 0.000000
    55 5.253252 3.139468 1.574632 2.984594 -1.570796 0.000000
    56 4.598148 4.158443 -1.350299 2.984594 -1.570796 0.000000
    57 4.598139 4.158430 -0.054439 2.984594 -1.570796 0.000000
    58 4.598140 4.158430 1.240876 2.984594 -1.570796 0.000000
    59 0.891927 2.373051 -0.014527 -3.141592 -0.000001 1.413797
    60 7.228122 5.709446 3.726568 3.140796 -1.570796 0.000000
  time 12
    0 1.275236 7.485338 37.919719 -0.033172 0.165038 -1.637428
    1 -1.788790 0.292978 0.000000 -0.000027 -1.518483 -1.570772
    2 -0.000006 0.000008 4.427393 -0.162300 -3.135191 -0.198010
    3 18.465940 0.000000 0.000000 0.000000 0.000000 -0.457929
    4 14.875443 0.000000 -0.000001 0.042045 -0.013127 0.403256
    5 0.000006 -0.000004 -4.427393 0.086124 3.101642 -0.560453
    6 18.465940 0.000000 0.000000 0.000000 0.000000 -0.448150
    7 14.875443 0.000000 0.000000 0.049689 -0.015640 0.051933
    8 2.255207 -0.007574 0.113288 -0.065485 0.010713 0.050757
    9 9.514226 -0.009357 0.000000 -0.005681 -0.105632 0.244991
    10 2.450429 5.076128 0.001325 3.062329 -1.570796 0.000000
    11 6.312407 -4.528058 0.001311 3.140791 -1.570796 0.000000
    12 2.233310 1.152535 -7.309138 -1.130179 -1.544671 -1.060133
    13 11.751820 -0.001633 0.000000 0.024724 0.088565 0.791343
    14 -1.344035 1.425185 -2.809887 0.622989 1.349446 2.949678
    15 4.640942 0.000000 0.000000 0.346518 -0.586629 -1.523606
    16 10.828047 0.000000 0.000000 0.000000 0.000000 -0.884316
    17 9.393338 0.000000 0.000001 2.406437 -0.091220 0.763395
    18 1.442242 0.107453 1.746178 -2.449460 -0.338953 0.923082
    19 1.063451 0.000000 -0.000001 0.000000 0.000000 0.366503
    20 4.172844 -0.251366 1.312745 -0.000488 -0.096055 0.069757
    21 1.215373 0.000000 0.000001 0.000000 0.000000 0.130840
    22 1.215372 0.000000 0.000001 0.000000 0.000000 1.151838
    23 4.220531 -0.244854 0.431466 -0.011400 0.078000 0.147655
    24 1.350417 0.000001 -0.000001 0.000000 0.000000 0.977335
    25 1.350410 -0.000001 0.000001 0.000000 0.000000 1.518389
    26 4.262825 -0.232720 -1.392178 0.021238 -0.052274 0.146778
    27 -1.816706 1.554083 2.462223 -0.111778 -1.315478 2.459327
    28 4.640942 0.000000 -0.000001 -0.405240 0.694877 -1.405857
    29 10.828047 0.000000 -0.000002 0.000000 0.000000 -0.990032
    30 9.393336 -0.000001 0.000000 -2.585292 -0.217398 0.920731
    31 1.442245 0.107453 -1.746177 1.545043 0.350678 0.095007
    32 1.063452 -0.000001 -0.000001 0.000000 0.000000 0.199055
    33 1.376307 -0.000001 0.000000 0.000000 0.000000 0.199027
    34 4.172847 -0.251366 -1.312744 0.008002 -0.043877 0.147534
    35 1.215373 0.000001 0.000000 0.000000 0.000000 0.645758
    36 1.215371 -0.000001 0.000000 0.000000 0.000000 0.881369
    37 4.220535 -0.244855 -0.431465 0.001333 0.026242 0.148336
    38 1.350416 0.000000 0.000000 0.000000 0.000000 0.732991
    39 1.350410 -0.000001 -0.000001 0.000000 0.000000 1.256584
    40 4.237636 -0.195359 0.527090 0.025781 0.128443 0.455451
    41 1.215376 0.000001 0.000001 0.000000 0.000000 0.401393
    42 1.215371 0.000000 0.000000 0.000000 0.000000 1.326390
    43 4.262829 -0.232721 1.392178 0.025466 0.184121 0.480098
    44 1.012811 0.000000 0.000000 0.000000 0.000000 0.584666
    45 1.012809 -0.000001 0.000000 0.000000 0.000000 0.837704
    46 1.376306 -0.000001 0.000000 0.000000 0.000000 0.811538
    47 4.237632 -0.195359 -0.527090 0.000345 -0.008861 0.148285
    48 1.215375 0.000001 -0.000001 0.000000 0.000000 0.977335
    49 1.215371 0.000000 0.000001 0.000000 0.000000 1.518389
    50 1.012810 0.000001 0.000000 0.000000 0.000000 0.977335
    51 1.012810 -0.000001 0.000000 0.000000 0.000000 1.186755
    52 2.110540 0.000000 0.000000 0.077783 0.100612 -0.055288
    53 5.253243 3.139475 -1.673515 2.984594 -1.570796 0.000000
    54 5.253259 3.139473 -0.054760 3.106744 -1.570796 0.000000
    55 5.253252 3.139468 1.574632 2.984594 -1.570796 0.000000
    56 4.598148 4.158443 -1.350299 2.984594 -1.570796 0.000000
    57 4.598139 4.158430 -0.054439 2.984594 -1.570796 0.000000
    58 4.598140 4.158430 1.240876 2.984594 -1.570796 0.000000
    59 0.891927 2.373051 -0.014527 -3.141592 -0.000001 1.413797
    60 7.228122 5.709446 3.726568 3.140796 -1.570796 0.000000
  time 13
    0 1.275236 7.485338 37.892374 -0.033172 0.165038 -1.637428
    1 -1.945045 0.304697 0.000000 -0.000027 -1.518483 -1.570772
    2 -0.000006 0.000008 4.427393 -0.162491 -3.134912 -0.205541
    3 18.465940 0.000000 0.000000 0.000000 0.000000 -0.464728
    4 14.875443 0.000000 -0.000001 0.042216 -0.012148 0.402624
    5 0.000006 -0.000004 -4.427393 0.086124 3.101642 -0.561483
    6 18.465940 0.000000 0.000000 0.000000 0.000000 -0.440208
    7 14.875443 0.000000 0.000000 0.049734 -0.015821 0.042929
    8 2.255207 -0.007574 0.113288 -0.065317 0.011672 0.065216
    9 9.514226 -0.009357 0.000000 -0.005681 -0.105632 0.244991
    10 2.450429 5.076128 0.001325 3.062329 -1.570796 0.000000
    11 6.312407 -4.528058 0.001311 3.140791 -1.570796 0.000000
    12 2.233310 1.152535 -7.309138 -1.130179 -1.544671 -1.060133
    13 11.751820 -0.001633 0.000000 0.024724 0.088565 0.791343
    14 -1.344035 1.425185 -2.809887 0.622989 1.349446 2.949678
    15 4.640942 0.000000 0.000000 0.363767 -0.566056 -1.553633
    16 10.828047 0.000000 0.000000 0.000000 0.000000 -0.829022
    17 9.393338 0.000000 0.000001 2.403678 -0.118482 0.756412
    18 1.442242 0.107453 1.746178 -2.449460 -0.338953 0.923082
    19 1.063451 0.000000 -0.000001 0.000000 0.000000 0.366503
    20 4.172844 -0.251366 1.312745 -0.000488 -0.096055 0.069757
    21 1.215373 0.000000 0.000001 0.000000 0.000000 0.130840
    22 1.215372 0.000000 0.000001 0.000000 0.000000 1.151838
    23 4.220531 -0.244854 0.431466 -0.011400 0.078000 0.147655
    24 1.350417 0.000001 -0.000001 0.000000 0.000000 0.977335
    25 1.350410 -0.000001 0.000001 0.000000 0.000000 1.518389
    26 4.262825 -0.232720 -1.392178 0.021238 -0.052274 0.146778
    27 -1.816706 1.554083 2.462223 -0.111778 -1.315478 2.459327
    28 4.640942 0.000000 -0.000001 -0.416636 0.673939 -1.423418
    29 10.828047 0.000000 -0.000002 0.000000 0.000000 -0.954218
    30 9.393336 -0.000001 0.000000 -2.590214 -0.182321 0.916238
    31 1.442245 0.107453 -1.746177 1.545043 0.350678 0.095007
    32 1.063452 -0.000001 -0.000001 0.000000 0.000000 0.199055
    33 1.376307 -0.000001 0.000000 0.000000 0.000000 0.199027
    34 4.172847 -0.251366 -1.312744 0.008002 -0.043877 0.147534
    35 1.215373 0.000001 0.000000 0.000000 0.000000 0.645758
    36 1.215371 -0.000001 0.000000 0.000000 0.000000 0.881369
    37 4.220535 -0.244855 -0.431465 0.001333 0.026242 0.148336
    38 1.350416 0.000000 0.000000 0.000000 0.000000 0.732991
    39 1.350410 -0.000001 -0.000001 0.000000 0.000000 1.256584
    40 4.237636 -0.195359 0.527090 0.025781 0.128443 0.455451
    41 1.215376 0.000001 0.000001 0.000000 0.000000 0.401393
    42 1.215371 0.000000 0.000000 0.000000 0.000000 1.326390
    43 4.262829 -0.232721 1.392178 0.025466 0.184121 0.480098
    44 1.012811 0.000000 0.000000 0.000000 0.000000 0.584666
    45 1.012809 -0.000001 0.000000 0.000000 0.000000 0.837704
    46 1.376306 -0.000001 0.000000 0.000000 0.000000 0.811538
    47 4.237632 -0.195359 -0.527090 0.000345 -0.008861 0.148285
    48 1.215375 0.000001 -0.000001 0.000000 0.000000 0.977335
    49 1.215371 0.000000 0.000001 0.000000 0.000000 1.518389
    50 1.012810 0.000001 0.000000 0.000000 0.000000 0.977335
    51 1.012810 -0.000001 0.000000 0.000000 0.000000 1.186755
    52 2.110540 0.000000 0.000000 0.077116 0.102092 -0.078487
    53 5.253243 3.139475 -1.673515 2.984594 -1.570796 0.000000
    54 5.253259 3.139473 -0.054760 3.106744 -1.570796 0.000000
    55 5.253252 3.139468 1.574632 2.984594 -1.570796 0.000000
    56 4.598148 4.158443 -1.350299 2.984594 -1.570796 0.000000
    57 4.598139 4.158430 -0.054439 2.984594 -1.570796 0.000000
    58 4.598140 4.158430 1.240876 2.984594 -1.570796 0.000000
    59 0.891927 2.373051 -0.014527 -3.141592 -0.000001 1.413797
    60 7.228122 5.709446 3.726568 3.140796 -1.570796 0.000000
  time 14
    0 1.275236 7.485338 37.868936 -0.033172 0.165038 -1.637428
    1 -2.085674 0.312510 0.000000 -0.000027 -1.518483 -1.570772
    2 -0.000006 0.000008 4.427393 -0.162682 -3.134726 -0.212773
    3 18.465940 0.000000 0.000000 0.000000 0.000000 -0.471161
    4 14.875443 0.000000 -0.000001 0.042358 -0.011190 0.401913
    5 0.000006 -0.000004 -4.427393 0.086124 3.101735 -0.562419
    6 18.465940 0.000000 0.000000 0.000000 0.000000 -0.432594
    7 14.875443 0.000000 0.000000 0.049778 -0.016002 0.034338
    8 2.255207 -0.007574 0.113288 -0.065149 0.012571 0.079013
    9 9.514226 -0.009357 0.000000 -0.005681 -0.105632 0.244991
    10 2.450429 5.076128 0.001325 3.062329 -1.570796 0.000000
    11 6.312407 -4.528058 0.001311 3.140791 -1.570796 0.000000
    12 2.233310 1.152535 -7.309138 -1.130179 -1.544671 -1.060133
    13 11.751820 -0.001633 0.000000 0.024724 0.088565 0.791343
    14 -1.344035 1.425185 -2.809887 0.622989 1.349446 2.949678
    15 4.640942 0.000000 0.000000 0.382437 -0.545204 -1.589398
    16 10.828047 0.000000 0.000000 0.000000 0.000000 -0.757349
    17 9.393338 0.000000 0.000001 2.401189 -0.142198 0.736966
    18 1.442242 0.107453 1.746178 -2.449460 -0.338953 0.923082
    19 1.063451 0.000000 -0.000001 0.000000 0.000000 0.366503
    20 4.172844 -0.251366 1.312745 -0.000488 -0.096055 0.069757
    21 1.215373 0.000000 0.000001 0.000000 0.000000 0.130840
    22 1.215372 0.000000 0.000001 0.000000 0.000000 1.151838
    23 4.220531 -0.244854 0.431466 -0.011400 0.078000 0.147655
    24 1.350417 0.000001 -0.000001 0.000000 0.000000 0.977335
    25 1.350410 -0.000001 0.000001 0.000000 0.000000 1.518389
    26 4.262825 -0.232720 -1.392178 0.021238 -0.052274 0.146778
    27 -1.816706 1.554083 2.462223 -0.111778 -1.315478 2.459327
    28 4.640942 0.000000 -0.000001 -0.429358 0.653070 -1.444550
    29 10.828047 0.000000 -0.000002 0.000000 0.000000 -0.905592
    30 9.393336 -0.000001 0.000000 -2.594464 -0.150260 0.900170
    31 1.442245 0.107453 -1.746177 1.545043 0.350678 0.095007
    32 1.063452 -0.000001 -0.000001 0.000000 0.000000 0.199055
    33 1.376307 -0.000001 0.000000 0.000000 0.000000 0.199027
    34 4.172847 -0.251366 -1.312744 0.008002 -0.043877 0.147534
    35 1.215373 0.000001 0.000000 0.000000 0.000000 0.645758
    36 1.215371 -0.000001 0.000000 0.000000 0.000000 0.881369
    37 4.220535 -0.244855 -0.431465 0.001333 0.026242 0.148336
    38 1.350416 0.000000 0.000000 0.000000 0.000000 0.732991
    39 1.350410 -0.000001 -0.000001 0.000000 0.000000 1.256584
    40 4.237636 -0.195359 0.527090 0.025781 0.128443 0.455451
    41 1.215376 0.000001 0.000001 0.000000 0.000000 0.401393
    42 1.215371 0.000000 0.000000 0.000000 0.000000 1.326390
    43 4.262829 -0.232721 1.392178 0.025466 0.184121 0.480098
    44 1.012811 0.000000 0.000000 0.000000 0.000000 0.584666
    45 1.012809 -0.000001 0.000000 0.000000 0.000000 0.837704
    46 1.376306 -0.000001 0.000000 0.000000 0.000000 0.811538
    47 4.237632 -0.195359 -0.527090 0.000345 -0.008861 0.148285
    48 1.215375 0.000001 -0.000001 0.000000 0.000000 0.977335
    49 1.215371 0.000000 0.000001 0.000000 0.000000 1.518389
    50 1.012810 0.000001 0.000000 0.000000 0.000000 0.977335
    51 1.012810 -0.000001 0.000000 0.000000 0.000000 1.186755
    52 2.110540 0.000000 0.000000 0.076496 0.103489 -0.100391
    53 5.253243 3.139475 -1.673515 2.984594 -1.570796 0.000000
    54 5.253259 3.139473 -0.054760 3.106744 -1.570796 0.000000
    55 5.253252 3.139468 1.574632 2.984594 -1.570796 0.000000
    56 4.598148 4.158443 -1.350299 2.984594 -1.570796 0.000000
    57 4.598139 4.158430 -0.054439 2.984594 -1.570796 0.000000
    58 4.598140 4.158430 1.240876 2.984594 -1.570796 0.000000
    59 0.891927 2.373051 -0.014527 -3.141592 -0.000001 1.413797
    60 7.228122 5.709446 3.726568 3.140796 -1.570796 0.000000
  time 15
    0 1.275236 7.485338 37.845498 -0.033172 0.165038 -1.637428
    1 -2.214584 0.316416 0.000000 -0.000027 -1.518483 -1.570772
    2 -0.000006 0.000008 4.427393 -0.162682 -3.134353 -0.219057
    3 18.465940 0.000000 0.000000 0.000000 0.000000 -0.476864
    4 14.875443 0.000000 -0.000001 0.042472 -0.010381 0.401360
    5 0.000006 -0.000004 -4.427393 0.086124 3.101828 -0.563355
    6 18.465940 0.000000 0.000000 0.000000 0.000000 -0.425900
    7 14.875443 0.000000 0.000000 0.049778 -0.016153 0.026835
    8 2.255207 -0.007574 0.113288 -0.065002 0.013362 0.091089
    9 9.514226 -0.009357 0.000000 -0.005681 -0.105632 0.244991
    10 2.450429 5.076128 0.001325 3.062329 -1.570796 0.000000
    11 6.312407 -4.528058 0.001311 3.140791 -1.570796 0.000000
    12 2.233310 1.152535 -7.309138 -1.130179 -1.544671 -1.060133
    13 11.751820 -0.001633 0.000000 0.024724 0.088565 0.791343
    14 -1.344035 1.425185 -2.809887 0.622989 1.349446 2.949678
    15 4.640942 0.000000 0.000000 0.403851 -0.523515 -1.633983
    16 10.828047 0.000000 0.000000 0.000000 0.000000 -0.662037
    17 9.393338 0.000000 0.000001 2.399403 -0.161555 0.700159
    18 1.442242 0.107453 1.746178 -2.449460 -0.338953 0.923082
    19 1.063451 0.000000 -0.000001 0.000000 0.000000 0.366503
    20 4.172844 -0.251366 1.312745 -0.000488 -0.096055 0.069757
    21 1.215373 0.000000 0.000001 0.000000 0.000000 0.130840
    22 1.215372 0.000000 0.000001 0.000000 0.000000 1.151838
    23 4.220531 -0.244854 0.431466 -0.011400 0.078000 0.147655
    24 1.350417 0.000001 -0.000001 0.000000 0.000000 0.977335
    25 1.350410 -0.000001 0.000001 0.000000 0.000000 1.518389
    26 4.262825 -0.232720 -1.392178 0.021238 -0.052274 0.146778
    27 -1.816706 1.554083 2.462223 -0.111778 -1.315478 2.459327
    28 4.640942 0.000000 -0.000001 -0.444291 0.632407 -1.470891
    29 10.828047 0.000000 -0.000002 0.000000 0.000000 -0.839820
    30 9.393336 -0.000001 0.000000 -2.598043 -0.122241 0.869058
    31 1.442245 0.107453 -1.746177 1.545043 0.350678 0.095007
    32 1.063452 -0.000001 -0.000001 0.000000 0.000000 0.199055
    33 1.376307 -0.000001 0.000000 0.000000 0.000000 0.199027
    34 4.172847 -0.251366 -1.312744 0.008002 -0.043877 0.147534
    35 1.215373 0.000001 0.000000 0.000000 0.000000 0.645758
    36 1.215371 -0.000001 0.000000 0.000000 0.000000 0.881369
    37 4.220535 -0.244855 -0.431465 0.001333 0.026242 0.148336
    38 1.350416 0.000000 0.000000 0.000000 0.000000 0.732991
    39 1.350410 -0.000001 -0.000001 0.000000 0.000000 1.256584
    40 4.237636 -0.195359 0.527090 0.025781 0.128443 0.455451
    41 1.215376 0.000001 0.000001 0.000000 0.000000 0.401393
    42 1.215371 0.000000 0.000000 0.000000 0.000000 1.326390
    43 4.262829 -0.232721 1.392178 0.025466 0.184121 0.480098
    44 1.012811 0.000000 0.000000 0.000000 0.000000 0.584666
    45 1.012809 -0.000001 0.000000 0.000000 0.000000 0.837704
    46 1.376306 -0.000001 0.000000 0.000000 0.000000 0.811538
    47 4.237632 -0.195359 -0.527090 0.000345 -0.008861 0.148285
    48 1.215375 0.000001 -0.000001 0.000000 0.000000 0.977335
    49 1.215371 0.000000 0.000001 0.000000 0.000000 1.518389
    50 1.012810 0.000001 0.000000 0.000000 0.000000 0.977335
    51 1.012810 -0.000001 0.000000 0.000000 0.000000 1.186755
    52 2.110540 0.000000 0.000000 0.075876 0.104718 -0.119755
    53 5.253243 3.139475 -1.673515 2.984594 -1.570796 0.000000
    54 5.253259 3.139473 -0.054760 3.106744 -1.570796 0.000000
    55 5.253252 3.139468 1.574632 2.984594 -1.570796 0.000000
    56 4.598148 4.158443 -1.350299 2.984594 -1.570796 0.000000
    57 4.598139 4.158430 -0.054439 2.984594 -1.570796 0.000000
    58 4.598140 4.158430 1.240876 2.984594 -1.570796 0.000000
    59 0.891927 2.373051 -0.014527 -3.141592 -0.000001 1.413797
    60 7.228122 5.709446 3.726568 3.140796 -1.570796 0.000000
end
