// Created by Crowbar 0.62
version 1
nodes
  0 "HeadcrabClassic.BodyControl" -1
  1 "HeadcrabClassic.SpineControl" 0
  2 "HeadcrabClassic.HeadControl" 1
  3 "HeadcrabClassic.FangL_Bone1" 2
  4 "HeadcrabClassic.FangL_Bone2" 3
  5 "HeadcrabClassic.FangR_Bone1" 2
  6 "HeadcrabClassic.FangR_Bone2" 5
  7 "HeadcrabClassic.HoleControlL" 1
  8 "HeadcrabClassic.HoleControlR" 1
  9 "HeadcrabClassic.UpperArmL_Bone" 1
  10 "HeadcrabClassic.ForeArmL_Bone" 9
  11 "HeadcrabClassic.UpperArmR_Bone" 1
  12 "HeadcrabClassic.ForeArmR_Bone" 11
  13 "HeadcrabClassic.HipControl" 0
  14 "HeadcrabClassic.ThighR_Bone" 13
  15 "HeadcrabClassic.CalfR_Bone" 14
  16 "HeadcrabClassic.ThighL_Bone" 13
  17 "HeadcrabClassic.CalfL_Bone" 16
end
skeleton
  time 0
    0 0.000000 8.687500 10.679688 -1.570771 -1.413720 1.570768
    1 5.836933 -0.820595 0.000175 0.000000 0.000000 0.000000
    2 3.707160 -1.779552 -0.001620 0.000000 0.000000 0.000000
    3 1.884797 0.225918 -3.244098 -0.856219 -0.128452 -1.738723
    4 3.698876 0.000000 0.000000 0.000000 0.000000 -0.664655
    5 1.884668 0.225917 3.247675 -2.285333 0.128458 -1.738718
    6 3.698876 0.000000 0.000000 0.000000 0.000000 0.664655
    7 -1.562495 -4.663179 -3.756904 0.000000 0.000000 0.000000
    8 -1.562644 -4.663178 3.756911 0.000000 0.000000 0.000000
    9 2.630715 -3.155085 -5.016712 -0.508311 0.381441 -0.283879
    10 8.255675 0.000000 0.000000 0.000000 0.000000 -1.031259
    11 2.630415 -3.155085 5.016869 -3.002152 -0.447737 -0.165376
    12 8.255673 0.000000 0.000000 0.000000 0.000000 1.899166
    13 -0.450924 -0.675699 0.000000 0.000000 0.000000 0.000000
    14 0.000009 0.000000 6.164912 -2.766349 -0.272779 -3.003187
    15 6.098812 0.000000 0.000000 0.000000 0.000000 -0.372540
    16 -0.000009 0.000000 -6.164912 2.756988 0.241901 -2.794055
    17 6.098812 0.000000 0.000000 0.000000 0.000000 -1.107516
  time 1
    0 0.000000 8.687500 10.679688 -1.570771 -1.413720 1.570768
    1 5.836933 -0.820595 0.000175 0.000000 0.000000 0.000000
    2 3.707160 -1.779552 -0.001620 0.000000 0.000000 0.000000
    3 1.884797 0.225918 -3.244098 -0.856219 -0.128452 -1.738723
    4 3.698876 0.000000 0.000000 0.000000 0.000000 -0.664655
    5 1.884668 0.225917 3.247675 -2.285333 0.128458 -1.738718
    6 3.698876 0.000000 0.000000 0.000000 0.000000 0.664655
    7 -1.562495 -4.663179 -3.756904 0.000000 0.000000 0.000000
    8 -1.562644 -4.663178 3.756911 0.000000 0.000000 0.000000
    9 2.630715 -3.155085 -5.016712 -0.508311 0.381441 -0.283879
    10 8.255675 0.000000 0.000000 0.000000 0.000000 -1.031259
    11 2.630415 -3.155085 5.016869 -3.002152 -0.447737 -0.165376
    12 8.255673 0.000000 0.000000 0.000000 0.000000 1.899166
    13 -0.450924 -0.675699 0.000000 0.000000 0.000000 0.000000
    14 0.000009 0.000000 6.164912 -2.766349 -0.272779 -3.003187
    15 6.098812 0.000000 0.000000 0.000000 0.000000 -0.372540
    16 -0.000009 0.000000 -6.164912 2.756988 0.241901 -2.794055
    17 6.098812 0.000000 0.000000 0.000000 0.000000 -1.107516
  time 2
    0 0.000000 8.687500 10.679688 -1.570771 -1.413720 1.570768
    1 5.836933 -0.820595 0.000175 0.000000 0.000000 0.000000
    2 3.707160 -1.779552 -0.001620 0.000000 0.000000 0.000000
    3 1.884797 0.225918 -3.244098 -0.856219 -0.128452 -1.738723
    4 3.698876 0.000000 0.000000 0.000000 0.000000 -0.664655
    5 1.884668 0.225917 3.247675 -2.285333 0.128458 -1.738718
    6 3.698876 0.000000 0.000000 0.000000 0.000000 0.664655
    7 -1.562495 -4.663179 -3.756904 0.000000 0.000000 0.000000
    8 -1.562644 -4.663178 3.756911 0.000000 0.000000 0.000000
    9 2.630715 -3.155085 -5.016712 -0.508311 0.381441 -0.283879
    10 8.255675 0.000000 0.000000 0.000000 0.000000 -1.031259
    11 2.630415 -3.155085 5.016869 -3.002152 -0.447737 -0.165376
    12 8.255673 0.000000 0.000000 0.000000 0.000000 1.899166
    13 -0.450924 -0.675699 0.000000 0.000000 0.000000 0.000000
    14 0.000009 0.000000 6.164912 -2.766349 -0.272779 -3.003187
    15 6.098812 0.000000 0.000000 0.000000 0.000000 -0.372540
    16 -0.000009 0.000000 -6.164912 2.756988 0.241901 -2.794055
    17 6.098812 0.000000 0.000000 0.000000 0.000000 -1.107516
  time 3
    0 0.000000 8.687500 10.679688 -1.570771 -1.413720 1.570768
    1 5.836933 -0.820595 0.000175 0.000000 0.000000 0.000000
    2 3.707160 -1.779552 -0.001620 0.000000 0.000000 0.000000
    3 1.884797 0.225918 -3.244098 -0.856219 -0.128452 -1.738723
    4 3.698876 0.000000 0.000000 0.000000 0.000000 -0.664655
    5 1.884668 0.225917 3.247675 -2.285333 0.128458 -1.738718
    6 3.698876 0.000000 0.000000 0.000000 0.000000 0.664655
    7 -1.562495 -4.663179 -3.756904 0.000000 0.000000 0.000000
    8 -1.562644 -4.663178 3.756911 0.000000 0.000000 0.000000
    9 2.630715 -3.155085 -5.016712 -0.508311 0.381441 -0.283879
    10 8.255675 0.000000 0.000000 0.000000 0.000000 -1.031259
    11 2.630415 -3.155085 5.016869 -3.002152 -0.447737 -0.165376
    12 8.255673 0.000000 0.000000 0.000000 0.000000 1.899166
    13 -0.450924 -0.675699 0.000000 0.000000 0.000000 0.000000
    14 0.000009 0.000000 6.164912 -2.766349 -0.272779 -3.003187
    15 6.098812 0.000000 0.000000 0.000000 0.000000 -0.372540
    16 -0.000009 0.000000 -6.164912 2.756988 0.241901 -2.794055
    17 6.098812 0.000000 0.000000 0.000000 0.000000 -1.107516
  time 4
    0 0.000000 8.687500 10.679688 -1.570771 -1.413720 1.570768
    1 5.836933 -0.820595 0.000175 0.000000 0.000000 0.000000
    2 3.707160 -1.779552 -0.001620 0.000000 0.000000 0.000000
    3 1.884797 0.225918 -3.244098 -0.856219 -0.128452 -1.738723
    4 3.698876 0.000000 0.000000 0.000000 0.000000 -0.664655
    5 1.884668 0.225917 3.247675 -2.285333 0.128458 -1.738718
    6 3.698876 0.000000 0.000000 0.000000 0.000000 0.664655
    7 -1.562495 -4.663179 -3.756904 0.000000 0.000000 0.000000
    8 -1.562644 -4.663178 3.756911 0.000000 0.000000 0.000000
    9 2.630715 -3.155085 -5.016712 -0.508311 0.381441 -0.283879
    10 8.255675 0.000000 0.000000 0.000000 0.000000 -1.031259
    11 2.630415 -3.155085 5.016869 -3.002152 -0.447737 -0.165376
    12 8.255673 0.000000 0.000000 0.000000 0.000000 1.899166
    13 -0.450924 -0.675699 0.000000 0.000000 0.000000 0.000000
    14 0.000009 0.000000 6.164912 -2.766349 -0.272779 -3.003187
    15 6.098812 0.000000 0.000000 0.000000 0.000000 -0.372540
    16 -0.000009 0.000000 -6.164912 2.756988 0.241901 -2.794055
    17 6.098812 0.000000 0.000000 0.000000 0.000000 -1.107516
  time 5
    0 0.000000 8.687500 10.679688 -1.570771 -1.413720 1.570768
    1 5.836933 -0.820595 0.000175 0.000000 0.000000 0.000000
    2 3.707160 -1.779552 -0.001620 0.000000 0.000000 0.000000
    3 1.884797 0.225918 -3.244098 -0.856219 -0.128452 -1.738723
    4 3.698876 0.000000 0.000000 0.000000 0.000000 -0.664655
    5 1.884668 0.225917 3.247675 -2.285333 0.128458 -1.738718
    6 3.698876 0.000000 0.000000 0.000000 0.000000 0.664655
    7 -1.562495 -4.663179 -3.756904 0.000000 0.000000 0.000000
    8 -1.562644 -4.663178 3.756911 0.000000 0.000000 0.000000
    9 2.630715 -3.155085 -5.016712 -0.508311 0.381441 -0.283879
    10 8.255675 0.000000 0.000000 0.000000 0.000000 -1.031259
    11 2.630415 -3.155085 5.016869 -3.002152 -0.447737 -0.165376
    12 8.255673 0.000000 0.000000 0.000000 0.000000 1.899166
    13 -0.450924 -0.675699 0.000000 0.000000 0.000000 0.000000
    14 0.000009 0.000000 6.164912 -2.766349 -0.272779 -3.003187
    15 6.098812 0.000000 0.000000 0.000000 0.000000 -0.372540
    16 -0.000009 0.000000 -6.164912 2.756988 0.241901 -2.794055
    17 6.098812 0.000000 0.000000 0.000000 0.000000 -1.107516
  time 6
    0 0.000000 8.687500 10.679688 -1.570771 -1.413720 1.570768
    1 5.836933 -0.820595 0.000175 0.000000 0.000000 0.000000
    2 3.707160 -1.779552 -0.001620 0.000000 0.000000 0.000000
    3 1.884797 0.225918 -3.244098 -0.856219 -0.128452 -1.738723
    4 3.698876 0.000000 0.000000 0.000000 0.000000 -0.664655
    5 1.884668 0.225917 3.247675 -2.285333 0.128458 -1.738718
    6 3.698876 0.000000 0.000000 0.000000 0.000000 0.664655
    7 -1.562495 -4.663179 -3.756904 0.000000 0.000000 0.000000
    8 -1.562644 -4.663178 3.756911 0.000000 0.000000 0.000000
    9 2.630715 -3.155085 -5.016712 -0.508311 0.381441 -0.283879
    10 8.255675 0.000000 0.000000 0.000000 0.000000 -1.031259
    11 2.630415 -3.155085 5.016869 -3.002152 -0.447737 -0.165376
    12 8.255673 0.000000 0.000000 0.000000 0.000000 1.899166
    13 -0.450924 -0.675699 0.000000 0.000000 0.000000 0.000000
    14 0.000009 0.000000 6.164912 -2.766349 -0.272779 -3.003187
    15 6.098812 0.000000 0.000000 0.000000 0.000000 -0.372540
    16 -0.000009 0.000000 -6.164912 2.756988 0.241901 -2.794055
    17 6.098812 0.000000 0.000000 0.000000 0.000000 -1.107516
  time 7
    0 0.000000 8.687500 10.679688 -1.570771 -1.413720 1.570768
    1 5.836933 -0.820595 0.000175 0.000000 0.000000 0.000000
    2 3.707160 -1.779552 -0.001620 0.000000 0.000000 0.000000
    3 1.884797 0.225918 -3.244098 -0.856219 -0.128452 -1.738723
    4 3.698876 0.000000 0.000000 0.000000 0.000000 -0.664655
    5 1.884668 0.225917 3.247675 -2.285333 0.128458 -1.738718
    6 3.698876 0.000000 0.000000 0.000000 0.000000 0.664655
    7 -1.562495 -4.663179 -3.756904 0.000000 0.000000 0.000000
    8 -1.562644 -4.663178 3.756911 0.000000 0.000000 0.000000
    9 2.630715 -3.155085 -5.016712 -0.508311 0.381441 -0.283879
    10 8.255675 0.000000 0.000000 0.000000 0.000000 -1.031259
    11 2.630415 -3.155085 5.016869 -3.002152 -0.447737 -0.165376
    12 8.255673 0.000000 0.000000 0.000000 0.000000 1.899166
    13 -0.450924 -0.675699 0.000000 0.000000 0.000000 0.000000
    14 0.000009 0.000000 6.164912 -2.766349 -0.272779 -3.003187
    15 6.098812 0.000000 0.000000 0.000000 0.000000 -0.372540
    16 -0.000009 0.000000 -6.164912 2.756988 0.241901 -2.794055
    17 6.098812 0.000000 0.000000 0.000000 0.000000 -1.107516
  time 8
    0 0.000000 8.687500 10.679688 -1.570771 -1.413720 1.570768
    1 5.836933 -0.820595 0.000175 0.000000 0.000000 0.000000
    2 3.707160 -1.779552 -0.001620 0.000000 0.000000 0.000000
    3 1.884797 0.225918 -3.244098 -0.856219 -0.128452 -1.738723
    4 3.698876 0.000000 0.000000 0.000000 0.000000 -0.664655
    5 1.884668 0.225917 3.247675 -2.285333 0.128458 -1.738718
    6 3.698876 0.000000 0.000000 0.000000 0.000000 0.664655
    7 -1.562495 -4.663179 -3.756904 0.000000 0.000000 0.000000
    8 -1.562644 -4.663178 3.756911 0.000000 0.000000 0.000000
    9 2.630715 -3.155085 -5.016712 -0.508311 0.381441 -0.283879
    10 8.255675 0.000000 0.000000 0.000000 0.000000 -1.031259
    11 2.630415 -3.155085 5.016869 -3.002152 -0.447737 -0.165376
    12 8.255673 0.000000 0.000000 0.000000 0.000000 1.899166
    13 -0.450924 -0.675699 0.000000 0.000000 0.000000 0.000000
    14 0.000009 0.000000 6.164912 -2.766349 -0.272779 -3.003187
    15 6.098812 0.000000 0.000000 0.000000 0.000000 -0.372540
    16 -0.000009 0.000000 -6.164912 2.756988 0.241901 -2.794055
    17 6.098812 0.000000 0.000000 0.000000 0.000000 -1.107516
  time 9
    0 0.000000 8.687500 10.679688 -1.570771 -1.413720 1.570768
    1 5.836933 -0.820595 0.000175 0.000000 0.000000 0.000000
    2 3.707160 -1.779552 -0.001620 0.000000 0.000000 0.000000
    3 1.884797 0.225918 -3.244098 -0.856219 -0.128452 -1.738723
    4 3.698876 0.000000 0.000000 0.000000 0.000000 -0.664655
    5 1.884668 0.225917 3.247675 -2.285333 0.128458 -1.738718
    6 3.698876 0.000000 0.000000 0.000000 0.000000 0.664655
    7 -1.562495 -4.663179 -3.756904 0.000000 0.000000 0.000000
    8 -1.562644 -4.663178 3.756911 0.000000 0.000000 0.000000
    9 2.630715 -3.155085 -5.016712 -0.508311 0.381441 -0.283879
    10 8.255675 0.000000 0.000000 0.000000 0.000000 -1.031259
    11 2.630415 -3.155085 5.016869 -3.002152 -0.447737 -0.165376
    12 8.255673 0.000000 0.000000 0.000000 0.000000 1.899166
    13 -0.450924 -0.675699 0.000000 0.000000 0.000000 0.000000
    14 0.000009 0.000000 6.164912 -2.766349 -0.272779 -3.003187
    15 6.098812 0.000000 0.000000 0.000000 0.000000 -0.372540
    16 -0.000009 0.000000 -6.164912 2.756988 0.241901 -2.794055
    17 6.098812 0.000000 0.000000 0.000000 0.000000 -1.107516
  time 10
    0 0.000000 8.687500 10.679688 -1.570771 -1.413720 1.570768
    1 5.836933 -0.820595 0.000175 0.000000 0.000000 0.000000
    2 3.707160 -1.779552 -0.001620 0.000000 0.000000 0.000000
    3 1.884797 0.225918 -3.244098 -0.856219 -0.128452 -1.738723
    4 3.698876 0.000000 0.000000 0.000000 0.000000 -0.664655
    5 1.884668 0.225917 3.247675 -2.285333 0.128458 -1.738718
    6 3.698876 0.000000 0.000000 0.000000 0.000000 0.664655
    7 -1.562495 -4.663179 -3.756904 0.000000 0.000000 0.000000
    8 -1.562644 -4.663178 3.756911 0.000000 0.000000 0.000000
    9 2.630715 -3.155085 -5.016712 -0.508311 0.381441 -0.283879
    10 8.255675 0.000000 0.000000 0.000000 0.000000 -1.031259
    11 2.630415 -3.155085 5.016869 -3.002152 -0.447737 -0.165376
    12 8.255673 0.000000 0.000000 0.000000 0.000000 1.899166
    13 -0.450924 -0.675699 0.000000 0.000000 0.000000 0.000000
    14 0.000009 0.000000 6.164912 -2.766349 -0.272779 -3.003187
    15 6.098812 0.000000 0.000000 0.000000 0.000000 -0.372540
    16 -0.000009 0.000000 -6.164912 2.756988 0.241901 -2.794055
    17 6.098812 0.000000 0.000000 0.000000 0.000000 -1.107516
  time 11
    0 0.000000 8.687500 10.679688 -1.570771 -1.413720 1.570768
    1 5.836933 -0.820595 0.000175 0.000000 0.000000 0.000000
    2 3.707160 -1.779552 -0.001620 0.000000 0.000000 0.000000
    3 1.884797 0.225918 -3.244098 -0.856219 -0.128452 -1.738723
    4 3.698876 0.000000 0.000000 0.000000 0.000000 -0.664655
    5 1.884668 0.225917 3.247675 -2.285333 0.128458 -1.738718
    6 3.698876 0.000000 0.000000 0.000000 0.000000 0.664655
    7 -1.562495 -4.663179 -3.756904 0.000000 0.000000 0.000000
    8 -1.562644 -4.663178 3.756911 0.000000 0.000000 0.000000
    9 2.630715 -3.155085 -5.016712 -0.508311 0.381441 -0.283879
    10 8.255675 0.000000 0.000000 0.000000 0.000000 -1.031259
    11 2.630415 -3.155085 5.016869 -3.002152 -0.447737 -0.165376
    12 8.255673 0.000000 0.000000 0.000000 0.000000 1.899166
    13 -0.450924 -0.675699 0.000000 0.000000 0.000000 0.000000
    14 0.000009 0.000000 6.164912 -2.766349 -0.272779 -3.003187
    15 6.098812 0.000000 0.000000 0.000000 0.000000 -0.372540
    16 -0.000009 0.000000 -6.164912 2.756988 0.241901 -2.794055
    17 6.098812 0.000000 0.000000 0.000000 0.000000 -1.107516
  time 12
    0 0.000000 8.687500 10.679688 -1.570771 -1.413720 1.570768
    1 5.836933 -0.820595 0.000175 0.000000 0.000000 0.000000
    2 3.707160 -1.779552 -0.001620 0.000000 0.000000 0.000000
    3 1.884797 0.225918 -3.244098 -0.856219 -0.128452 -1.738723
    4 3.698876 0.000000 0.000000 0.000000 0.000000 -0.664655
    5 1.884668 0.225917 3.247675 -2.285333 0.128458 -1.738718
    6 3.698876 0.000000 0.000000 0.000000 0.000000 0.664655
    7 -1.562495 -4.663179 -3.756904 0.000000 0.000000 0.000000
    8 -1.562644 -4.663178 3.756911 0.000000 0.000000 0.000000
    9 2.630715 -3.155085 -5.016712 -0.508311 0.381441 -0.283879
    10 8.255675 0.000000 0.000000 0.000000 0.000000 -1.031259
    11 2.630415 -3.155085 5.016869 -3.002152 -0.447737 -0.165376
    12 8.255673 0.000000 0.000000 0.000000 0.000000 1.899166
    13 -0.450924 -0.675699 0.000000 0.000000 0.000000 0.000000
    14 0.000009 0.000000 6.164912 -2.766349 -0.272779 -3.003187
    15 6.098812 0.000000 0.000000 0.000000 0.000000 -0.372540
    16 -0.000009 0.000000 -6.164912 2.756988 0.241901 -2.794055
    17 6.098812 0.000000 0.000000 0.000000 0.000000 -1.107516
  time 13
    0 0.000000 8.687500 10.679688 -1.570771 -1.413720 1.570768
    1 5.836933 -0.820595 0.000175 0.000000 0.000000 0.000000
    2 3.707160 -1.779552 -0.001620 0.000000 0.000000 0.000000
    3 1.884797 0.225918 -3.244098 -0.856219 -0.128452 -1.738723
    4 3.698876 0.000000 0.000000 0.000000 0.000000 -0.664655
    5 1.884668 0.225917 3.247675 -2.285333 0.128458 -1.738718
    6 3.698876 0.000000 0.000000 0.000000 0.000000 0.664655
    7 -1.562495 -4.663179 -3.756904 0.000000 0.000000 0.000000
    8 -1.562644 -4.663178 3.756911 0.000000 0.000000 0.000000
    9 2.630715 -3.155085 -5.016712 -0.508311 0.381441 -0.283879
    10 8.255675 0.000000 0.000000 0.000000 0.000000 -1.031259
    11 2.630415 -3.155085 5.016869 -3.002152 -0.447737 -0.165376
    12 8.255673 0.000000 0.000000 0.000000 0.000000 1.899166
    13 -0.450924 -0.675699 0.000000 0.000000 0.000000 0.000000
    14 0.000009 0.000000 6.164912 -2.766349 -0.272779 -3.003187
    15 6.098812 0.000000 0.000000 0.000000 0.000000 -0.372540
    16 -0.000009 0.000000 -6.164912 2.756988 0.241901 -2.794055
    17 6.098812 0.000000 0.000000 0.000000 0.000000 -1.107516
  time 14
    0 0.000000 8.687500 10.679688 -1.570771 -1.413720 1.570768
    1 5.836933 -0.820595 0.000175 0.000000 0.000000 0.000000
    2 3.707160 -1.779552 -0.001620 0.000000 0.000000 0.000000
    3 1.884797 0.225918 -3.244098 -0.856219 -0.128452 -1.738723
    4 3.698876 0.000000 0.000000 0.000000 0.000000 -0.664655
    5 1.884668 0.225917 3.247675 -2.285333 0.128458 -1.738718
    6 3.698876 0.000000 0.000000 0.000000 0.000000 0.664655
    7 -1.562495 -4.663179 -3.756904 0.000000 0.000000 0.000000
    8 -1.562644 -4.663178 3.756911 0.000000 0.000000 0.000000
    9 2.630715 -3.155085 -5.016712 -0.508311 0.381441 -0.283879
    10 8.255675 0.000000 0.000000 0.000000 0.000000 -1.031259
    11 2.630415 -3.155085 5.016869 -3.002152 -0.447737 -0.165376
    12 8.255673 0.000000 0.000000 0.000000 0.000000 1.899166
    13 -0.450924 -0.675699 0.000000 0.000000 0.000000 0.000000
    14 0.000009 0.000000 6.164912 -2.766349 -0.272779 -3.003187
    15 6.098812 0.000000 0.000000 0.000000 0.000000 -0.372540
    16 -0.000009 0.000000 -6.164912 2.756988 0.241901 -2.794055
    17 6.098812 0.000000 0.000000 0.000000 0.000000 -1.107516
  time 15
    0 0.000000 8.687500 10.679688 -1.570771 -1.413720 1.570768
    1 5.836933 -0.820595 0.000175 0.000000 0.000000 0.000000
    2 3.707160 -1.779552 -0.001620 0.000000 0.000000 0.000000
    3 1.884797 0.225918 -3.244098 -0.856219 -0.128452 -1.738723
    4 3.698876 0.000000 0.000000 0.000000 0.000000 -0.664655
    5 1.884668 0.225917 3.247675 -2.285333 0.128458 -1.738718
    6 3.698876 0.000000 0.000000 0.000000 0.000000 0.664655
    7 -1.562495 -4.663179 -3.756904 0.000000 0.000000 0.000000
    8 -1.562644 -4.663178 3.756911 0.000000 0.000000 0.000000
    9 2.630715 -3.155085 -5.016712 -0.508311 0.381441 -0.283879
    10 8.255675 0.000000 0.000000 0.000000 0.000000 -1.031259
    11 2.630415 -3.155085 5.016869 -3.002152 -0.447737 -0.165376
    12 8.255673 0.000000 0.000000 0.000000 0.000000 1.899166
    13 -0.450924 -0.675699 0.000000 0.000000 0.000000 0.000000
    14 0.000009 0.000000 6.164912 -2.766349 -0.272779 -3.003187
    15 6.098812 0.000000 0.000000 0.000000 0.000000 -0.372540
    16 -0.000009 0.000000 -6.164912 2.756988 0.241901 -2.794055
    17 6.098812 0.000000 0.000000 0.000000 0.000000 -1.107516
  time 16
    0 0.000000 8.687500 10.679688 -1.570771 -1.413720 1.570768
    1 5.836933 -0.820595 0.000175 0.000000 0.000000 0.000000
    2 3.707160 -1.779552 -0.001620 0.000000 0.000000 0.000000
    3 1.884797 0.225918 -3.244098 -0.856219 -0.128452 -1.738723
    4 3.698876 0.000000 0.000000 0.000000 0.000000 -0.664655
    5 1.884668 0.225917 3.247675 -2.285333 0.128458 -1.738718
    6 3.698876 0.000000 0.000000 0.000000 0.000000 0.664655
    7 -1.562495 -4.663179 -3.756904 0.000000 0.000000 0.000000
    8 -1.562644 -4.663178 3.756911 0.000000 0.000000 0.000000
    9 2.630715 -3.155085 -5.016712 -0.508311 0.381441 -0.283879
    10 8.255675 0.000000 0.000000 0.000000 0.000000 -1.031259
    11 2.630415 -3.155085 5.016869 -3.002152 -0.447737 -0.165376
    12 8.255673 0.000000 0.000000 0.000000 0.000000 1.899166
    13 -0.450924 -0.675699 0.000000 0.000000 0.000000 0.000000
    14 0.000009 0.000000 6.164912 -2.766349 -0.272779 -3.003187
    15 6.098812 0.000000 0.000000 0.000000 0.000000 -0.372540
    16 -0.000009 0.000000 -6.164912 2.756988 0.241901 -2.794055
    17 6.098812 0.000000 0.000000 0.000000 0.000000 -1.107516
  time 17
    0 0.000000 8.687500 10.679688 -1.570771 -1.413720 1.570768
    1 5.836933 -0.820595 0.000175 0.000000 0.000000 0.000000
    2 3.707160 -1.779552 -0.001620 0.000000 0.000000 0.000000
    3 1.884797 0.225918 -3.244098 -0.856219 -0.128452 -1.738723
    4 3.698876 0.000000 0.000000 0.000000 0.000000 -0.664655
    5 1.884668 0.225917 3.247675 -2.285333 0.128458 -1.738718
    6 3.698876 0.000000 0.000000 0.000000 0.000000 0.664655
    7 -1.562495 -4.663179 -3.756904 0.000000 0.000000 0.000000
    8 -1.562644 -4.663178 3.756911 0.000000 0.000000 0.000000
    9 2.630715 -3.155085 -5.016712 -0.508311 0.381441 -0.283879
    10 8.255675 0.000000 0.000000 0.000000 0.000000 -1.031259
    11 2.630415 -3.155085 5.016869 -3.002152 -0.447737 -0.165376
    12 8.255673 0.000000 0.000000 0.000000 0.000000 1.899166
    13 -0.450924 -0.675699 0.000000 0.000000 0.000000 0.000000
    14 0.000009 0.000000 6.164912 -2.766349 -0.272779 -3.003187
    15 6.098812 0.000000 0.000000 0.000000 0.000000 -0.372540
    16 -0.000009 0.000000 -6.164912 2.756988 0.241901 -2.794055
    17 6.098812 0.000000 0.000000 0.000000 0.000000 -1.107516
  time 18
    0 0.000000 8.687500 10.679688 -1.570771 -1.413720 1.570768
    1 5.836933 -0.820595 0.000175 0.000000 0.000000 0.000000
    2 3.707160 -1.779552 -0.001620 0.000000 0.000000 0.000000
    3 1.884797 0.225918 -3.244098 -0.856219 -0.128452 -1.738723
    4 3.698876 0.000000 0.000000 0.000000 0.000000 -0.664655
    5 1.884668 0.225917 3.247675 -2.285333 0.128458 -1.738718
    6 3.698876 0.000000 0.000000 0.000000 0.000000 0.664655
    7 -1.562495 -4.663179 -3.756904 0.000000 0.000000 0.000000
    8 -1.562644 -4.663178 3.756911 0.000000 0.000000 0.000000
    9 2.630715 -3.155085 -5.016712 -0.508311 0.381441 -0.283879
    10 8.255675 0.000000 0.000000 0.000000 0.000000 -1.031259
    11 2.630415 -3.155085 5.016869 -3.002152 -0.447737 -0.165376
    12 8.255673 0.000000 0.000000 0.000000 0.000000 1.899166
    13 -0.450924 -0.675699 0.000000 0.000000 0.000000 0.000000
    14 0.000009 0.000000 6.164912 -2.766349 -0.272779 -3.003187
    15 6.098812 0.000000 0.000000 0.000000 0.000000 -0.372540
    16 -0.000009 0.000000 -6.164912 2.756988 0.241901 -2.794055
    17 6.098812 0.000000 0.000000 0.000000 0.000000 -1.107516
  time 19
    0 0.000000 8.687500 10.679688 -1.570771 -1.413720 1.570768
    1 5.836933 -0.820595 0.000175 0.000000 0.000000 0.000000
    2 3.707160 -1.779552 -0.001620 0.000000 0.000000 0.000000
    3 1.884797 0.225918 -3.244098 -0.856219 -0.128452 -1.738723
    4 3.698876 0.000000 0.000000 0.000000 0.000000 -0.664655
    5 1.884668 0.225917 3.247675 -2.285333 0.128458 -1.738718
    6 3.698876 0.000000 0.000000 0.000000 0.000000 0.664655
    7 -1.562495 -4.663179 -3.756904 0.000000 0.000000 0.000000
    8 -1.562644 -4.663178 3.756911 0.000000 0.000000 0.000000
    9 2.630715 -3.155085 -5.016712 -0.508311 0.381441 -0.283879
    10 8.255675 0.000000 0.000000 0.000000 0.000000 -1.031259
    11 2.630415 -3.155085 5.016869 -3.002152 -0.447737 -0.165376
    12 8.255673 0.000000 0.000000 0.000000 0.000000 1.899166
    13 -0.450924 -0.675699 0.000000 0.000000 0.000000 0.000000
    14 0.000009 0.000000 6.164912 -2.766349 -0.272779 -3.003187
    15 6.098812 0.000000 0.000000 0.000000 0.000000 -0.372540
    16 -0.000009 0.000000 -6.164912 2.756988 0.241901 -2.794055
    17 6.098812 0.000000 0.000000 0.000000 0.000000 -1.107516
  time 20
    0 0.000000 8.687500 10.679688 -1.570771 -1.413720 1.570768
    1 5.836933 -0.820595 0.000175 0.000000 0.000000 0.000000
    2 3.707160 -1.779552 -0.001620 0.000000 0.000000 0.000000
    3 1.884797 0.225918 -3.244098 -0.856219 -0.128452 -1.738723
    4 3.698876 0.000000 0.000000 0.000000 0.000000 -0.664655
    5 1.884668 0.225917 3.247675 -2.285333 0.128458 -1.738718
    6 3.698876 0.000000 0.000000 0.000000 0.000000 0.664655
    7 -1.562495 -4.663179 -3.756904 0.000000 0.000000 0.000000
    8 -1.562644 -4.663178 3.756911 0.000000 0.000000 0.000000
    9 2.630715 -3.155085 -5.016712 -0.508311 0.381441 -0.283879
    10 8.255675 0.000000 0.000000 0.000000 0.000000 -1.031259
    11 2.630415 -3.155085 5.016869 -3.002152 -0.447737 -0.165376
    12 8.255673 0.000000 0.000000 0.000000 0.000000 1.899166
    13 -0.450924 -0.675699 0.000000 0.000000 0.000000 0.000000
    14 0.000009 0.000000 6.164912 -2.766349 -0.272779 -3.003187
    15 6.098812 0.000000 0.000000 0.000000 0.000000 -0.372540
    16 -0.000009 0.000000 -6.164912 2.756988 0.241901 -2.794055
    17 6.098812 0.000000 0.000000 0.000000 0.000000 -1.107516
  time 21
    0 0.000000 8.687500 10.679688 -1.570771 -1.413720 1.570768
    1 5.836933 -0.820595 0.000175 0.000000 0.000000 0.000000
    2 3.707160 -1.779552 -0.001620 0.000000 0.000000 0.000000
    3 1.884797 0.225918 -3.244098 -0.856219 -0.128452 -1.738723
    4 3.698876 0.000000 0.000000 0.000000 0.000000 -0.664655
    5 1.884668 0.225917 3.247675 -2.285333 0.128458 -1.738718
    6 3.698876 0.000000 0.000000 0.000000 0.000000 0.664655
    7 -1.562495 -4.663179 -3.756904 0.000000 0.000000 0.000000
    8 -1.562644 -4.663178 3.756911 0.000000 0.000000 0.000000
    9 2.630715 -3.155085 -5.016712 -0.508311 0.381441 -0.283879
    10 8.255675 0.000000 0.000000 0.000000 0.000000 -1.031259
    11 2.630415 -3.155085 5.016869 -3.002152 -0.447737 -0.165376
    12 8.255673 0.000000 0.000000 0.000000 0.000000 1.899166
    13 -0.450924 -0.675699 0.000000 0.000000 0.000000 0.000000
    14 0.000009 0.000000 6.164912 -2.766349 -0.272779 -3.003187
    15 6.098812 0.000000 0.000000 0.000000 0.000000 -0.372540
    16 -0.000009 0.000000 -6.164912 2.756988 0.241901 -2.794055
    17 6.098812 0.000000 0.000000 0.000000 0.000000 -1.107516
  time 22
    0 0.000000 8.687500 10.679688 -1.570771 -1.413720 1.570768
    1 5.836933 -0.820595 0.000175 0.000000 0.000000 0.000000
    2 3.707160 -1.779552 -0.001620 0.000000 0.000000 0.000000
    3 1.884797 0.225918 -3.244098 -0.856219 -0.128452 -1.738723
    4 3.698876 0.000000 0.000000 0.000000 0.000000 -0.664655
    5 1.884668 0.225917 3.247675 -2.285333 0.128458 -1.738718
    6 3.698876 0.000000 0.000000 0.000000 0.000000 0.664655
    7 -1.562495 -4.663179 -3.756904 0.000000 0.000000 0.000000
    8 -1.562644 -4.663178 3.756911 0.000000 0.000000 0.000000
    9 2.630715 -3.155085 -5.016712 -0.508311 0.381441 -0.283879
    10 8.255675 0.000000 0.000000 0.000000 0.000000 -1.031259
    11 2.630415 -3.155085 5.016869 -3.002152 -0.447737 -0.165376
    12 8.255673 0.000000 0.000000 0.000000 0.000000 1.899166
    13 -0.450924 -0.675699 0.000000 0.000000 0.000000 0.000000
    14 0.000009 0.000000 6.164912 -2.766349 -0.272779 -3.003187
    15 6.098812 0.000000 0.000000 0.000000 0.000000 -0.372540
    16 -0.000009 0.000000 -6.164912 2.756988 0.241901 -2.794055
    17 6.098812 0.000000 0.000000 0.000000 0.000000 -1.107516
  time 23
    0 0.000000 8.687500 10.679688 -1.570771 -1.413720 1.570768
    1 5.836933 -0.820595 0.000175 0.000000 0.000000 0.000000
    2 3.707160 -1.779552 -0.001620 0.000000 0.000000 0.000000
    3 1.884797 0.225918 -3.244098 -0.856219 -0.128452 -1.738723
    4 3.698876 0.000000 0.000000 0.000000 0.000000 -0.664655
    5 1.884668 0.225917 3.247675 -2.285333 0.128458 -1.738718
    6 3.698876 0.000000 0.000000 0.000000 0.000000 0.664655
    7 -1.562495 -4.663179 -3.756904 0.000000 0.000000 0.000000
    8 -1.562644 -4.663178 3.756911 0.000000 0.000000 0.000000
    9 2.630715 -3.155085 -5.016712 -0.508311 0.381441 -0.283879
    10 8.255675 0.000000 0.000000 0.000000 0.000000 -1.031259
    11 2.630415 -3.155085 5.016869 -3.002152 -0.447737 -0.165376
    12 8.255673 0.000000 0.000000 0.000000 0.000000 1.899166
    13 -0.450924 -0.675699 0.000000 0.000000 0.000000 0.000000
    14 0.000009 0.000000 6.164912 -2.766349 -0.272779 -3.003187
    15 6.098812 0.000000 0.000000 0.000000 0.000000 -0.372540
    16 -0.000009 0.000000 -6.164912 2.756988 0.241901 -2.794055
    17 6.098812 0.000000 0.000000 0.000000 0.000000 -1.107516
  time 24
    0 0.000000 8.687500 10.679688 -1.570771 -1.413720 1.570768
    1 5.836933 -0.820595 0.000175 0.000000 0.000000 0.000000
    2 3.707160 -1.779552 -0.001620 0.000000 0.000000 0.000000
    3 1.884797 0.225918 -3.244098 -0.856219 -0.128452 -1.738723
    4 3.698876 0.000000 0.000000 0.000000 0.000000 -0.664655
    5 1.884668 0.225917 3.247675 -2.285333 0.128458 -1.738718
    6 3.698876 0.000000 0.000000 0.000000 0.000000 0.664655
    7 -1.562495 -4.663179 -3.756904 0.000000 0.000000 0.000000
    8 -1.562644 -4.663178 3.756911 0.000000 0.000000 0.000000
    9 2.630715 -3.155085 -5.016712 -0.508311 0.381441 -0.283879
    10 8.255675 0.000000 0.000000 0.000000 0.000000 -1.031259
    11 2.630415 -3.155085 5.016869 -3.002152 -0.447737 -0.165376
    12 8.255673 0.000000 0.000000 0.000000 0.000000 1.899166
    13 -0.450924 -0.675699 0.000000 0.000000 0.000000 0.000000
    14 0.000009 0.000000 6.164912 -2.766349 -0.272779 -3.003187
    15 6.098812 0.000000 0.000000 0.000000 0.000000 -0.372540
    16 -0.000009 0.000000 -6.164912 2.756988 0.241901 -2.794055
    17 6.098812 0.000000 0.000000 0.000000 0.000000 -1.107516
  time 25
    0 0.000000 8.687500 10.679688 -1.570771 -1.413720 1.570768
    1 5.836933 -0.820595 0.000175 0.000000 0.000000 0.000000
    2 3.707160 -1.779552 -0.001620 0.000000 0.000000 0.000000
    3 1.884797 0.225918 -3.244098 -0.856219 -0.128452 -1.738723
    4 3.698876 0.000000 0.000000 0.000000 0.000000 -0.664655
    5 1.884668 0.225917 3.247675 -2.285333 0.128458 -1.738718
    6 3.698876 0.000000 0.000000 0.000000 0.000000 0.664655
    7 -1.562495 -4.663179 -3.756904 0.000000 0.000000 0.000000
    8 -1.562644 -4.663178 3.756911 0.000000 0.000000 0.000000
    9 2.630715 -3.155085 -5.016712 -0.508311 0.381441 -0.283879
    10 8.255675 0.000000 0.000000 0.000000 0.000000 -1.031259
    11 2.630415 -3.155085 5.016869 -3.002152 -0.447737 -0.165376
    12 8.255673 0.000000 0.000000 0.000000 0.000000 1.899166
    13 -0.450924 -0.675699 0.000000 0.000000 0.000000 0.000000
    14 0.000009 0.000000 6.164912 -2.766349 -0.272779 -3.003187
    15 6.098812 0.000000 0.000000 0.000000 0.000000 -0.372540
    16 -0.000009 0.000000 -6.164912 2.756988 0.241901 -2.794055
    17 6.098812 0.000000 0.000000 0.000000 0.000000 -1.107516
  time 26
    0 0.000000 8.687500 10.679688 -1.570771 -1.413720 1.570768
    1 5.836933 -0.820595 0.000175 0.000000 0.000000 0.000000
    2 3.707160 -1.779552 -0.001620 0.000000 0.000000 0.000000
    3 1.884797 0.225918 -3.244098 -0.856219 -0.128452 -1.738723
    4 3.698876 0.000000 0.000000 0.000000 0.000000 -0.664655
    5 1.884668 0.225917 3.247675 -2.285333 0.128458 -1.738718
    6 3.698876 0.000000 0.000000 0.000000 0.000000 0.664655
    7 -1.562495 -4.663179 -3.756904 0.000000 0.000000 0.000000
    8 -1.562644 -4.663178 3.756911 0.000000 0.000000 0.000000
    9 2.630715 -3.155085 -5.016712 -0.508311 0.381441 -0.283879
    10 8.255675 0.000000 0.000000 0.000000 0.000000 -1.031259
    11 2.630415 -3.155085 5.016869 -3.002152 -0.447737 -0.165376
    12 8.255673 0.000000 0.000000 0.000000 0.000000 1.899166
    13 -0.450924 -0.675699 0.000000 0.000000 0.000000 0.000000
    14 0.000009 0.000000 6.164912 -2.766349 -0.272779 -3.003187
    15 6.098812 0.000000 0.000000 0.000000 0.000000 -0.372540
    16 -0.000009 0.000000 -6.164912 2.756988 0.241901 -2.794055
    17 6.098812 0.000000 0.000000 0.000000 0.000000 -1.107516
  time 27
    0 0.000000 8.687500 10.679688 -1.570771 -1.413720 1.570768
    1 5.836933 -0.820595 0.000175 0.000000 0.000000 0.000000
    2 3.707160 -1.779552 -0.001620 0.000000 0.000000 0.000000
    3 1.884797 0.225918 -3.244098 -0.856219 -0.128452 -1.738723
    4 3.698876 0.000000 0.000000 0.000000 0.000000 -0.664655
    5 1.884668 0.225917 3.247675 -2.285333 0.128458 -1.738718
    6 3.698876 0.000000 0.000000 0.000000 0.000000 0.664655
    7 -1.562495 -4.663179 -3.756904 0.000000 0.000000 0.000000
    8 -1.562644 -4.663178 3.756911 0.000000 0.000000 0.000000
    9 2.630715 -3.155085 -5.016712 -0.508311 0.381441 -0.283879
    10 8.255675 0.000000 0.000000 0.000000 0.000000 -1.031259
    11 2.630415 -3.155085 5.016869 -3.002152 -0.447737 -0.165376
    12 8.255673 0.000000 0.000000 0.000000 0.000000 1.899166
    13 -0.450924 -0.675699 0.000000 0.000000 0.000000 0.000000
    14 0.000009 0.000000 6.164912 -2.766349 -0.272779 -3.003187
    15 6.098812 0.000000 0.000000 0.000000 0.000000 -0.372540
    16 -0.000009 0.000000 -6.164912 2.756988 0.241901 -2.794055
    17 6.098812 0.000000 0.000000 0.000000 0.000000 -1.107516
  time 28
    0 0.000000 8.687500 10.679688 -1.570771 -1.413720 1.570768
    1 5.836933 -0.820595 0.000175 0.000000 0.000000 0.000000
    2 3.707160 -1.779552 -0.001620 0.000000 0.000000 0.000000
    3 1.884797 0.225918 -3.244098 -0.856219 -0.128452 -1.738723
    4 3.698876 0.000000 0.000000 0.000000 0.000000 -0.664655
    5 1.884668 0.225917 3.247675 -2.285333 0.128458 -1.738718
    6 3.698876 0.000000 0.000000 0.000000 0.000000 0.664655
    7 -1.562495 -4.663179 -3.756904 0.000000 0.000000 0.000000
    8 -1.562644 -4.663178 3.756911 0.000000 0.000000 0.000000
    9 2.630715 -3.155085 -5.016712 -0.508311 0.381441 -0.283879
    10 8.255675 0.000000 0.000000 0.000000 0.000000 -1.031259
    11 2.630415 -3.155085 5.016869 -3.002152 -0.447737 -0.165376
    12 8.255673 0.000000 0.000000 0.000000 0.000000 1.899166
    13 -0.450924 -0.675699 0.000000 0.000000 0.000000 0.000000
    14 0.000009 0.000000 6.164912 -2.766349 -0.272779 -3.003187
    15 6.098812 0.000000 0.000000 0.000000 0.000000 -0.372540
    16 -0.000009 0.000000 -6.164912 2.756988 0.241901 -2.794055
    17 6.098812 0.000000 0.000000 0.000000 0.000000 -1.107516
  time 29
    0 0.000000 8.687500 10.679688 -1.570771 -1.413720 1.570768
    1 5.836933 -0.820595 0.000175 0.000000 0.000000 0.000000
    2 3.707160 -1.779552 -0.001620 0.000000 0.000000 0.000000
    3 1.884797 0.225918 -3.244098 -0.856219 -0.128452 -1.738723
    4 3.698876 0.000000 0.000000 0.000000 0.000000 -0.664655
    5 1.884668 0.225917 3.247675 -2.285333 0.128458 -1.738718
    6 3.698876 0.000000 0.000000 0.000000 0.000000 0.664655
    7 -1.562495 -4.663179 -3.756904 0.000000 0.000000 0.000000
    8 -1.562644 -4.663178 3.756911 0.000000 0.000000 0.000000
    9 2.630715 -3.155085 -5.016712 -0.508311 0.381441 -0.283879
    10 8.255675 0.000000 0.000000 0.000000 0.000000 -1.031259
    11 2.630415 -3.155085 5.016869 -3.002152 -0.447737 -0.165376
    12 8.255673 0.000000 0.000000 0.000000 0.000000 1.899166
    13 -0.450924 -0.675699 0.000000 0.000000 0.000000 0.000000
    14 0.000009 0.000000 6.164912 -2.766349 -0.272779 -3.003187
    15 6.098812 0.000000 0.000000 0.000000 0.000000 -0.372540
    16 -0.000009 0.000000 -6.164912 2.756988 0.241901 -2.794055
    17 6.098812 0.000000 0.000000 0.000000 0.000000 -1.107516
  time 30
    0 0.000000 8.687500 10.679688 -1.570771 -1.413720 1.570768
    1 5.836933 -0.820595 0.000175 0.000000 0.000000 0.000000
    2 3.707160 -1.779552 -0.001620 0.000000 0.000000 0.000000
    3 1.884797 0.225918 -3.244098 -0.856219 -0.128452 -1.738723
    4 3.698876 0.000000 0.000000 0.000000 0.000000 -0.664655
    5 1.884668 0.225917 3.247675 -2.285333 0.128458 -1.738718
    6 3.698876 0.000000 0.000000 0.000000 0.000000 0.664655
    7 -1.562495 -4.663179 -3.756904 0.000000 0.000000 0.000000
    8 -1.562644 -4.663178 3.756911 0.000000 0.000000 0.000000
    9 2.630715 -3.155085 -5.016712 -0.508311 0.381441 -0.283879
    10 8.255675 0.000000 0.000000 0.000000 0.000000 -1.031259
    11 2.630415 -3.155085 5.016869 -3.002152 -0.447737 -0.165376
    12 8.255673 0.000000 0.000000 0.000000 0.000000 1.899166
    13 -0.450924 -0.675699 0.000000 0.000000 0.000000 0.000000
    14 0.000009 0.000000 6.164912 -2.766349 -0.272779 -3.003187
    15 6.098812 0.000000 0.000000 0.000000 0.000000 -0.372540
    16 -0.000009 0.000000 -6.164912 2.756988 0.241901 -2.794055
    17 6.098812 0.000000 0.000000 0.000000 0.000000 -1.107516
  time 31
    0 0.000000 8.687500 10.679688 -1.570771 -1.413720 1.570768
    1 5.836933 -0.820595 0.000175 0.000000 0.000000 0.000000
    2 3.707160 -1.779552 -0.001620 0.000000 0.000000 0.000000
    3 1.884797 0.225918 -3.244098 -0.856219 -0.128452 -1.738723
    4 3.698876 0.000000 0.000000 0.000000 0.000000 -0.664655
    5 1.884668 0.225917 3.247675 -2.285333 0.128458 -1.738718
    6 3.698876 0.000000 0.000000 0.000000 0.000000 0.664655
    7 -1.562495 -4.663179 -3.756904 0.000000 0.000000 0.000000
    8 -1.562644 -4.663178 3.756911 0.000000 0.000000 0.000000
    9 2.630715 -3.155085 -5.016712 -0.508311 0.381441 -0.283879
    10 8.255675 0.000000 0.000000 0.000000 0.000000 -1.031259
    11 2.630415 -3.155085 5.016869 -3.002152 -0.447737 -0.165376
    12 8.255673 0.000000 0.000000 0.000000 0.000000 1.899166
    13 -0.450924 -0.675699 0.000000 0.000000 0.000000 0.000000
    14 0.000009 0.000000 6.164912 -2.766349 -0.272779 -3.003187
    15 6.098812 0.000000 0.000000 0.000000 0.000000 -0.372540
    16 -0.000009 0.000000 -6.164912 2.756988 0.241901 -2.794055
    17 6.098812 0.000000 0.000000 0.000000 0.000000 -1.107516
  time 32
    0 0.000000 8.687500 10.679688 -1.570771 -1.413720 1.570768
    1 5.836933 -0.820595 0.000175 0.000000 0.000000 0.000000
    2 3.707160 -1.779552 -0.001620 0.000000 0.000000 0.000000
    3 1.884797 0.225918 -3.244098 -0.856219 -0.128452 -1.738723
    4 3.698876 0.000000 0.000000 0.000000 0.000000 -0.664655
    5 1.884668 0.225917 3.247675 -2.285333 0.128458 -1.738718
    6 3.698876 0.000000 0.000000 0.000000 0.000000 0.664655
    7 -1.562495 -4.663179 -3.756904 0.000000 0.000000 0.000000
    8 -1.562644 -4.663178 3.756911 0.000000 0.000000 0.000000
    9 2.630715 -3.155085 -5.016712 -0.508311 0.381441 -0.283879
    10 8.255675 0.000000 0.000000 0.000000 0.000000 -1.031259
    11 2.630415 -3.155085 5.016869 -3.002152 -0.447737 -0.165376
    12 8.255673 0.000000 0.000000 0.000000 0.000000 1.899166
    13 -0.450924 -0.675699 0.000000 0.000000 0.000000 0.000000
    14 0.000009 0.000000 6.164912 -2.766349 -0.272779 -3.003187
    15 6.098812 0.000000 0.000000 0.000000 0.000000 -0.372540
    16 -0.000009 0.000000 -6.164912 2.756988 0.241901 -2.794055
    17 6.098812 0.000000 0.000000 0.000000 0.000000 -1.107516
  time 33
    0 0.000000 8.687500 10.679688 -1.570771 -1.413720 1.570768
    1 5.836933 -0.820595 0.000175 0.000000 0.000000 0.000000
    2 3.707160 -1.779552 -0.001620 0.000000 0.000000 0.000000
    3 1.884797 0.225918 -3.244098 -0.856219 -0.128452 -1.738723
    4 3.698876 0.000000 0.000000 0.000000 0.000000 -0.664655
    5 1.884668 0.225917 3.247675 -2.285333 0.128458 -1.738718
    6 3.698876 0.000000 0.000000 0.000000 0.000000 0.664655
    7 -1.562495 -4.663179 -3.756904 0.000000 0.000000 0.000000
    8 -1.562644 -4.663178 3.756911 0.000000 0.000000 0.000000
    9 2.630715 -3.155085 -5.016712 -0.508311 0.381441 -0.283879
    10 8.255675 0.000000 0.000000 0.000000 0.000000 -1.031259
    11 2.630415 -3.155085 5.016869 -3.002152 -0.447737 -0.165376
    12 8.255673 0.000000 0.000000 0.000000 0.000000 1.899166
    13 -0.450924 -0.675699 0.000000 0.000000 0.000000 0.000000
    14 0.000009 0.000000 6.164912 -2.766349 -0.272779 -3.003187
    15 6.098812 0.000000 0.000000 0.000000 0.000000 -0.372540
    16 -0.000009 0.000000 -6.164912 2.756988 0.241901 -2.794055
    17 6.098812 0.000000 0.000000 0.000000 0.000000 -1.107516
  time 34
    0 0.000000 8.687500 10.679688 -1.570771 -1.413720 1.570768
    1 5.836933 -0.820595 0.000175 0.000000 0.000000 0.000000
    2 3.707160 -1.779552 -0.001620 0.000000 0.000000 0.000000
    3 1.884797 0.225918 -3.244098 -0.856219 -0.128452 -1.738723
    4 3.698876 0.000000 0.000000 0.000000 0.000000 -0.664655
    5 1.884668 0.225917 3.247675 -2.285333 0.128458 -1.738718
    6 3.698876 0.000000 0.000000 0.000000 0.000000 0.664655
    7 -1.562495 -4.663179 -3.756904 0.000000 0.000000 0.000000
    8 -1.562644 -4.663178 3.756911 0.000000 0.000000 0.000000
    9 2.630715 -3.155085 -5.016712 -0.508311 0.381441 -0.283879
    10 8.255675 0.000000 0.000000 0.000000 0.000000 -1.031259
    11 2.630415 -3.155085 5.016869 -3.002152 -0.447737 -0.165376
    12 8.255673 0.000000 0.000000 0.000000 0.000000 1.899166
    13 -0.450924 -0.675699 0.000000 0.000000 0.000000 0.000000
    14 0.000009 0.000000 6.164912 -2.766349 -0.272779 -3.003187
    15 6.098812 0.000000 0.000000 0.000000 0.000000 -0.372540
    16 -0.000009 0.000000 -6.164912 2.756988 0.241901 -2.794055
    17 6.098812 0.000000 0.000000 0.000000 0.000000 -1.107516
  time 35
    0 0.000000 8.687500 10.679688 -1.570771 -1.413720 1.570768
    1 5.836933 -0.820595 0.000175 0.000000 0.000000 0.000000
    2 3.707160 -1.779552 -0.001620 0.000000 0.000000 0.000000
    3 1.884797 0.225918 -3.244098 -0.856219 -0.128452 -1.738723
    4 3.698876 0.000000 0.000000 0.000000 0.000000 -0.664655
    5 1.884668 0.225917 3.247675 -2.285333 0.128458 -1.738718
    6 3.698876 0.000000 0.000000 0.000000 0.000000 0.664655
    7 -1.562495 -4.663179 -3.756904 0.000000 0.000000 0.000000
    8 -1.562644 -4.663178 3.756911 0.000000 0.000000 0.000000
    9 2.630715 -3.155085 -5.016712 -0.508311 0.381441 -0.283879
    10 8.255675 0.000000 0.000000 0.000000 0.000000 -1.031259
    11 2.630415 -3.155085 5.016869 -3.002152 -0.447737 -0.165376
    12 8.255673 0.000000 0.000000 0.000000 0.000000 1.899166
    13 -0.450924 -0.675699 0.000000 0.000000 0.000000 0.000000
    14 0.000009 0.000000 6.164912 -2.766349 -0.272779 -3.003187
    15 6.098812 0.000000 0.000000 0.000000 0.000000 -0.372540
    16 -0.000009 0.000000 -6.164912 2.756988 0.241901 -2.794055
    17 6.098812 0.000000 0.000000 0.000000 0.000000 -1.107516
  time 36
    0 0.000000 8.687500 10.679688 -1.570771 -1.413720 1.570768
    1 5.836933 -0.820595 0.000175 0.000000 0.000000 0.000000
    2 3.707160 -1.779552 -0.001620 0.000000 0.000000 0.000000
    3 1.884797 0.225918 -3.244098 -0.856219 -0.128452 -1.738723
    4 3.698876 0.000000 0.000000 0.000000 0.000000 -0.664655
    5 1.884668 0.225917 3.247675 -2.285333 0.128458 -1.738718
    6 3.698876 0.000000 0.000000 0.000000 0.000000 0.664655
    7 -1.562495 -4.663179 -3.756904 0.000000 0.000000 0.000000
    8 -1.562644 -4.663178 3.756911 0.000000 0.000000 0.000000
    9 2.630715 -3.155085 -5.016712 -0.508311 0.381441 -0.283879
    10 8.255675 0.000000 0.000000 0.000000 0.000000 -1.031259
    11 2.630415 -3.155085 5.016869 -3.002152 -0.447737 -0.165376
    12 8.255673 0.000000 0.000000 0.000000 0.000000 1.899166
    13 -0.450924 -0.675699 0.000000 0.000000 0.000000 0.000000
    14 0.000009 0.000000 6.164912 -2.766349 -0.272779 -3.003187
    15 6.098812 0.000000 0.000000 0.000000 0.000000 -0.372540
    16 -0.000009 0.000000 -6.164912 2.756988 0.241901 -2.794055
    17 6.098812 0.000000 0.000000 0.000000 0.000000 -1.107516
  time 37
    0 0.000000 8.687500 10.679688 -1.570771 -1.413720 1.570768
    1 5.836933 -0.820595 0.000175 0.000000 0.000000 0.000000
    2 3.707160 -1.779552 -0.001620 0.000000 0.000000 0.000000
    3 1.884797 0.225918 -3.244098 -0.856219 -0.128452 -1.738723
    4 3.698876 0.000000 0.000000 0.000000 0.000000 -0.664655
    5 1.884668 0.225917 3.247675 -2.285333 0.128458 -1.738718
    6 3.698876 0.000000 0.000000 0.000000 0.000000 0.664655
    7 -1.562495 -4.663179 -3.756904 0.000000 0.000000 0.000000
    8 -1.562644 -4.663178 3.756911 0.000000 0.000000 0.000000
    9 2.630715 -3.155085 -5.016712 -0.508311 0.381441 -0.283879
    10 8.255675 0.000000 0.000000 0.000000 0.000000 -1.031259
    11 2.630415 -3.155085 5.016869 -3.002152 -0.447737 -0.165376
    12 8.255673 0.000000 0.000000 0.000000 0.000000 1.899166
    13 -0.450924 -0.675699 0.000000 0.000000 0.000000 0.000000
    14 0.000009 0.000000 6.164912 -2.766349 -0.272779 -3.003187
    15 6.098812 0.000000 0.000000 0.000000 0.000000 -0.372540
    16 -0.000009 0.000000 -6.164912 2.756988 0.241901 -2.794055
    17 6.098812 0.000000 0.000000 0.000000 0.000000 -1.107516
  time 38
    0 0.000000 8.687500 10.679688 -1.570771 -1.413720 1.570768
    1 5.836933 -0.820595 0.000175 0.000000 0.000000 0.000000
    2 3.707160 -1.779552 -0.001620 0.000000 0.000000 0.000000
    3 1.884797 0.225918 -3.244098 -0.856219 -0.128452 -1.738723
    4 3.698876 0.000000 0.000000 0.000000 0.000000 -0.664655
    5 1.884668 0.225917 3.247675 -2.285333 0.128458 -1.738718
    6 3.698876 0.000000 0.000000 0.000000 0.000000 0.664655
    7 -1.562495 -4.663179 -3.756904 0.000000 0.000000 0.000000
    8 -1.562644 -4.663178 3.756911 0.000000 0.000000 0.000000
    9 2.630715 -3.155085 -5.016712 -0.508311 0.381441 -0.283879
    10 8.255675 0.000000 0.000000 0.000000 0.000000 -1.031259
    11 2.630415 -3.155085 5.016869 -3.002152 -0.447737 -0.165376
    12 8.255673 0.000000 0.000000 0.000000 0.000000 1.899166
    13 -0.450924 -0.675699 0.000000 0.000000 0.000000 0.000000
    14 0.000009 0.000000 6.164912 -2.766349 -0.272779 -3.003187
    15 6.098812 0.000000 0.000000 0.000000 0.000000 -0.372540
    16 -0.000009 0.000000 -6.164912 2.756988 0.241901 -2.794055
    17 6.098812 0.000000 0.000000 0.000000 0.000000 -1.107516
  time 39
    0 0.000000 8.687500 10.679688 -1.570771 -1.413720 1.570768
    1 5.836933 -0.820595 0.000175 0.000000 0.000000 0.000000
    2 3.707160 -1.779552 -0.001620 0.000000 0.000000 0.000000
    3 1.884797 0.225918 -3.244098 -0.856219 -0.128452 -1.738723
    4 3.698876 0.000000 0.000000 0.000000 0.000000 -0.664655
    5 1.884668 0.225917 3.247675 -2.285333 0.128458 -1.738718
    6 3.698876 0.000000 0.000000 0.000000 0.000000 0.664655
    7 -1.562495 -4.663179 -3.756904 0.000000 0.000000 0.000000
    8 -1.562644 -4.663178 3.756911 0.000000 0.000000 0.000000
    9 2.630715 -3.155085 -5.016712 -0.508311 0.381441 -0.283879
    10 8.255675 0.000000 0.000000 0.000000 0.000000 -1.031259
    11 2.630415 -3.155085 5.016869 -3.002152 -0.447737 -0.165376
    12 8.255673 0.000000 0.000000 0.000000 0.000000 1.899166
    13 -0.450924 -0.675699 0.000000 0.000000 0.000000 0.000000
    14 0.000009 0.000000 6.164912 -2.766349 -0.272779 -3.003187
    15 6.098812 0.000000 0.000000 0.000000 0.000000 -0.372540
    16 -0.000009 0.000000 -6.164912 2.756988 0.241901 -2.794055
    17 6.098812 0.000000 0.000000 0.000000 0.000000 -1.107516
  time 40
    0 0.000000 8.687500 10.679688 -1.570771 -1.413720 1.570768
    1 5.836933 -0.820595 0.000175 0.000000 0.000000 0.000000
    2 3.707160 -1.779552 -0.001620 0.000000 0.000000 0.000000
    3 1.884797 0.225918 -3.244098 -0.856219 -0.128452 -1.738723
    4 3.698876 0.000000 0.000000 0.000000 0.000000 -0.664655
    5 1.884668 0.225917 3.247675 -2.285333 0.128458 -1.738718
    6 3.698876 0.000000 0.000000 0.000000 0.000000 0.664655
    7 -1.562495 -4.663179 -3.756904 0.000000 0.000000 0.000000
    8 -1.562644 -4.663178 3.756911 0.000000 0.000000 0.000000
    9 2.630715 -3.155085 -5.016712 -0.508311 0.381441 -0.283879
    10 8.255675 0.000000 0.000000 0.000000 0.000000 -1.031259
    11 2.630415 -3.155085 5.016869 -3.002152 -0.447737 -0.165376
    12 8.255673 0.000000 0.000000 0.000000 0.000000 1.899166
    13 -0.450924 -0.675699 0.000000 0.000000 0.000000 0.000000
    14 0.000009 0.000000 6.164912 -2.766349 -0.272779 -3.003187
    15 6.098812 0.000000 0.000000 0.000000 0.000000 -0.372540
    16 -0.000009 0.000000 -6.164912 2.756988 0.241901 -2.794055
    17 6.098812 0.000000 0.000000 0.000000 0.000000 -1.107516
end
