// Created by Crowbar 0.62
version 1
nodes
  0 "HeadcrabClassic.BodyControl" -1
  1 "HeadcrabClassic.SpineControl" 0
  2 "HeadcrabClassic.HeadControl" 1
  3 "HeadcrabClassic.FangL_Bone1" 2
  4 "HeadcrabClassic.FangL_Bone2" 3
  5 "HeadcrabClassic.FangR_Bone1" 2
  6 "HeadcrabClassic.FangR_Bone2" 5
  7 "HeadcrabClassic.HoleControlL" 1
  8 "HeadcrabClassic.HoleControlR" 1
  9 "HeadcrabClassic.UpperArmL_Bone" 1
  10 "HeadcrabClassic.ForeArmL_Bone" 9
  11 "HeadcrabClassic.UpperArmR_Bone" 1
  12 "HeadcrabClassic.ForeArmR_Bone" 11
  13 "HeadcrabClassic.HipControl" 0
  14 "HeadcrabClassic.ThighR_Bone" 13
  15 "HeadcrabClassic.CalfR_Bone" 14
  16 "HeadcrabClassic.ThighL_Bone" 13
  17 "HeadcrabClassic.CalfL_Bone" 16
end
skeleton
  time 0
    0 0.001311 8.689431 9.818393 1.574056 -0.011786 -1.541889
    1 5.836933 -0.820595 0.000175 -0.014636 -0.103694 0.000734
    2 3.707160 -1.779552 -0.001620 0.000000 0.000000 -0.000062
    3 1.884797 0.225918 -3.244098 -0.856195 -0.128608 -1.738858
    4 3.698876 0.000000 0.000000 0.000000 0.000000 -0.664094
    5 1.884668 0.225917 3.247675 -2.285357 0.128611 -1.738863
    6 3.698876 0.000000 0.000000 0.000000 0.000000 0.664089
    7 -1.945319 -4.612396 -3.643619 0.014609 0.103691 0.000662
    8 -1.172007 -4.717867 3.827226 0.014616 0.103691 0.000666
    9 2.630715 -3.155085 -5.016712 0.100870 0.154900 0.108691
    10 8.255675 0.000000 0.000000 0.000000 0.000000 -1.119785
    11 2.630415 -3.155085 5.016869 3.085999 -0.001728 0.034373
    12 8.255673 0.000000 0.000000 0.000000 0.000000 0.944283
    13 -0.450924 -0.675699 0.000000 -0.003313 -0.029009 -0.011757
    14 0.000009 0.000000 6.164912 -2.926216 -0.292316 -2.150840
    15 6.098812 0.000000 0.000000 0.000000 0.000000 -0.865586
    16 -0.000009 0.000000 -6.164912 2.926118 0.294863 -2.149814
    17 6.098812 0.000000 0.000000 0.000000 0.000000 -0.861656
  time 1
    0 -0.033846 9.443583 9.905944 1.540115 -0.892741 -1.526837
    1 5.836933 -0.820595 0.000175 0.069538 -0.078359 -0.866658
    2 3.707160 -1.779552 -0.001620 0.000000 0.000000 -0.480031
    3 1.884797 0.225918 -3.244098 -0.724796 -0.059283 -1.883170
    4 3.698876 0.000000 0.000000 0.000000 0.000000 -1.387633
    5 1.884668 0.225917 3.247675 -2.375158 0.057287 -1.813387
    6 3.698876 0.000000 0.000000 0.000000 0.000000 1.482939
    7 2.355593 -4.374108 -1.643558 -0.011747 0.108413 0.862204
    8 2.730456 -4.038159 2.178738 0.026079 0.108221 0.865662
    9 2.630715 -3.155085 -5.016712 -2.902893 -0.132855 -1.522440
    10 8.255675 0.000000 0.000000 0.000000 0.000000 -0.000048
    11 2.630415 -3.155085 5.016869 3.729097 0.076018 -1.467209
    12 8.255673 0.000000 0.000000 0.000000 0.000000 0.000047
    13 -0.450924 -0.675699 0.000000 -0.004621 -0.027469 0.038867
    14 0.000009 0.000000 6.164912 -2.830671 0.358729 -3.123922
    15 6.098812 0.000000 0.000000 0.000000 0.000000 -0.319038
    16 -0.000009 0.000000 -6.164912 2.855765 -0.246958 -3.388428
    17 6.098812 0.000000 0.000000 0.000000 0.000000 -0.618288
  time 2
    0 -0.076816 9.683844 9.784346 1.503491 -1.200430 -1.494718
    1 5.836933 -0.820595 0.000175 0.085259 -0.060879 -1.091516
    2 3.707160 -1.779552 -0.001620 0.000012 0.000000 -0.779189
    3 1.884797 0.225918 -3.244098 -0.527901 -0.227142 -2.197119
    4 3.698876 0.000000 0.000000 0.000000 0.000000 -1.394288
    5 1.884668 0.225917 3.247675 -2.485332 0.213070 -2.021841
    6 3.698876 0.000000 0.000000 0.000000 0.000000 1.593196
    7 3.281403 -3.721744 -1.256828 -0.038136 0.113063 1.084657
    8 3.546887 -3.346732 1.866228 0.037560 0.112739 1.091765
    9 2.630715 -3.155085 -5.016712 3.198915 -0.260430 -2.012521
    10 8.255675 0.000000 0.000000 0.000000 0.000000 -0.000048
    11 2.630415 -3.155085 5.016869 0.724009 0.144177 -2.052005
    12 8.255673 0.000000 0.000000 0.000000 0.000000 0.000047
    13 -0.450924 -0.675699 0.000000 -0.005069 -0.027277 0.055685
    14 0.000009 0.000000 6.164912 -2.934400 0.539041 -3.621077
    15 6.098812 0.000000 0.000000 0.000000 0.000000 -0.676182
    16 -0.000009 0.000000 -6.164912 2.948525 -0.452710 -3.712476
    17 6.098812 0.000000 0.000000 0.000000 0.000000 -0.840856
  time 3
    0 -0.119786 9.790626 9.696795 1.443184 -1.362612 -1.436808
    1 5.836933 -0.820595 0.000175 0.083210 -0.063663 -1.058567
    2 3.707160 -1.779552 -0.001620 0.000012 0.000000 -0.846551
    3 1.884797 0.225918 -3.244098 -0.477458 -0.284846 -2.272250
    4 3.698876 0.000000 0.000000 0.000000 0.000000 -1.419763
    5 1.884668 0.225917 3.247675 -2.549414 0.283560 -2.144433
    6 3.698876 0.000000 0.000000 0.000000 0.000000 1.466490
    7 3.144680 -3.842841 -1.643558 0.014577 0.103703 1.056585
    8 3.453134 -3.444391 2.178738 0.014599 0.103703 1.056580
    9 2.630715 -3.155085 -5.016712 -1.758493 -0.257978 -2.266066
    10 8.255675 0.000000 0.000000 0.000000 0.000000 -0.000048
    11 2.630415 -3.155085 5.016869 3.897341 0.174160 -2.250260
    12 8.255673 0.000000 0.000000 0.000000 0.000000 0.000047
    13 -0.450924 -0.675699 0.000000 -0.004820 -0.027431 0.046583
    14 0.000009 0.000000 6.164912 -3.041094 0.577588 -3.882520
    15 6.098812 0.000000 0.000000 0.000000 0.000000 -1.092276
    16 -0.000009 0.000000 -6.164912 2.990354 -0.504738 -3.592278
    17 6.098812 0.000000 0.000000 0.000000 0.000000 -1.235192
  time 4
    0 -0.158850 9.864039 9.623836 1.238296 -1.481098 -1.233166
    1 5.836933 -0.820595 0.000175 0.063788 -0.094803 -0.760857
    2 3.707160 -1.779552 -0.001620 0.000000 0.000000 -0.485303
    3 1.884797 0.225918 -3.244098 -0.544104 -0.263201 -2.190593
    4 3.698876 0.000000 0.000000 0.000000 0.000000 -1.430246
    5 1.884668 0.225917 3.247675 -2.531916 0.267584 -2.132319
    6 3.698876 0.000000 0.000000 0.000000 0.000000 1.359062
    7 1.886829 -4.585052 -1.963880 0.163007 0.085798 0.769648
    8 2.324193 -4.288167 2.401401 -0.043599 0.087715 0.753977
    9 2.630715 -3.155085 -5.016712 -1.029952 -0.287141 -2.463638
    10 8.255675 0.000000 0.000000 0.000000 0.000000 -0.000048
    11 2.630415 -3.155085 5.016869 4.129058 0.232253 -2.412661
    12 8.255673 0.000000 0.000000 0.000000 0.000000 0.000047
    13 -0.450924 -0.675699 0.000000 -0.005317 -0.029445 0.049682
    14 0.000009 0.000000 6.164912 -3.118596 0.626391 -4.060062
    15 6.098812 0.000000 0.000000 0.000000 0.000000 -1.259059
    16 -0.000009 0.000000 -6.164912 3.038374 -0.563689 -3.678691
    17 6.098812 0.000000 0.000000 0.000000 0.000000 -1.364113
  time 5
    0 -0.194007 9.937452 9.526558 -1.017875 -1.510036 -5.261810
    1 5.836933 -0.820595 0.000175 0.023062 -0.121736 -0.345342
    2 3.707160 -1.779552 -0.001620 0.000000 0.000000 0.037961
    3 1.884797 0.225918 -3.244098 -0.665448 -0.171189 -2.005707
    4 3.698876 0.000000 0.000000 0.000000 0.000000 -1.463473
    5 1.884668 0.225917 3.247675 -2.446334 0.191002 -1.993737
    6 3.698876 0.000000 0.000000 0.000000 0.000000 1.360477
    7 -0.089794 -4.948344 -2.483428 0.346480 0.059539 0.363803
    8 0.464761 -4.846777 2.795944 -0.122915 0.065316 0.336222
    9 2.630715 -3.155085 -5.016712 -0.968085 0.202472 -1.941722
    10 8.255675 0.000000 0.000000 0.000000 0.000000 -1.536738
    11 2.630415 -3.155085 5.016869 3.939117 -0.129418 -2.149407
    12 8.255673 0.000000 0.000000 0.000000 0.000000 1.451328
    13 -0.450924 -0.675699 0.000000 -0.006361 -0.031344 0.069639
    14 0.000009 0.000000 6.164912 -3.210295 0.689514 -4.230896
    15 6.098812 0.000000 0.000000 0.000000 0.000000 -1.395073
    16 -0.000009 0.000000 -6.164912 3.085583 -0.612422 -3.822015
    17 6.098812 0.000000 0.000000 0.000000 0.000000 -1.412902
  time 6
    0 -0.217445 9.964148 9.477919 -1.351239 -1.442481 -4.929981
    1 5.836933 -0.820595 0.000175 -0.010078 -0.104234 -0.043098
    2 3.707160 -1.779552 -0.001620 0.000000 0.000000 0.427493
    3 1.884797 0.225918 -3.244098 -0.771512 -0.019512 -1.786128
    4 3.698876 0.000000 0.000000 0.000000 0.000000 -1.447408
    5 1.884668 0.225917 3.247675 -2.323696 0.037704 -1.727040
    6 3.698876 0.000000 0.000000 0.000000 0.000000 1.497548
    7 -1.421866 -4.713962 -3.237357 0.546175 -0.000407 0.064452
    8 -0.996221 -4.760837 3.335023 -0.216881 0.010235 0.034552
    9 2.630715 -3.155085 -5.016712 -0.615719 0.459386 -0.966597
    10 8.255675 0.000000 0.000000 0.000000 0.000000 -2.516563
    11 2.630415 -3.155085 5.016869 3.750222 -0.096689 -1.563844
    12 8.255673 0.000000 0.000000 0.000000 0.000000 2.281359
    13 -0.450924 -0.675699 0.000000 -0.005251 -0.027354 0.062263
    14 0.000009 0.000000 6.164912 -3.291833 0.752250 -4.338874
    15 6.098812 0.000000 0.000000 0.000000 0.000000 -1.493896
    16 -0.000009 0.000000 -6.164912 3.127301 -0.653352 -3.950301
    17 6.098812 0.000000 0.000000 0.000000 0.000000 -1.408876
  time 7
    0 -0.225258 9.984170 9.439007 -1.519982 -1.380291 -4.763155
    1 5.836933 -0.820595 0.000175 -0.009833 -0.027105 0.087145
    2 3.707160 -1.779552 -0.001620 0.000000 0.000000 0.553471
    3 1.884797 0.225918 -3.244098 -0.831591 0.222894 -1.467209
    4 3.698876 0.000000 0.000000 0.000000 0.000000 -1.310721
    5 1.884668 0.225917 3.247675 -2.231858 -0.208799 -1.280575
    6 3.698876 0.000000 0.000000 0.000000 0.000000 1.597299
    7 -1.605465 -4.569426 -4.260826 0.748699 -0.117976 -0.073323
    8 -1.851716 -4.549893 3.956136 -0.315210 -0.102948 -0.093693
    9 2.630715 -3.155085 -5.016712 -0.002975 0.132361 -0.622106
    10 8.255675 0.000000 0.000000 0.000000 0.000000 -0.000048
    11 2.630415 -3.155085 5.016869 3.960814 0.129535 -0.821921
    12 8.255673 0.000000 0.000000 0.000000 0.000000 0.000047
    13 -0.450924 -0.675699 0.000000 -0.001093 -0.009597 0.022925
    14 0.000009 0.000000 6.164912 -3.335115 0.792113 -4.366442
    15 6.098812 0.000000 0.000000 0.000000 0.000000 -1.550641
    16 -0.000009 0.000000 -6.164912 3.151624 -0.680493 -4.021963
    17 6.098812 0.000000 0.000000 0.000000 0.000000 -1.379449
  time 8
    0 -0.225258 10.004191 9.414688 4.647863 -1.322653 -4.648678
    1 5.836933 -0.820595 0.000175 0.008656 0.075812 0.129984
    2 3.707160 -1.779552 -0.001620 0.000000 0.000000 0.545594
    3 1.884797 0.225918 -3.244098 -0.775083 0.405374 -1.119549
    4 3.698876 0.000000 0.000000 0.000000 0.000000 -1.084956
    5 1.884668 0.225917 3.247675 -2.306126 -0.261611 -0.916726
    6 3.698876 0.000000 0.000000 0.000000 0.000000 1.108232
    7 -1.039042 -4.655366 -5.460081 0.943722 -0.259574 -0.129996
    8 -2.527517 -4.378013 4.655376 -0.408877 -0.242089 -0.129978
    9 2.630715 -3.155085 -5.016712 -0.064556 0.002248 -0.453614
    10 8.255675 0.000000 0.000000 0.000000 0.000000 -0.000048
    11 2.630415 -3.155085 5.016869 3.776201 -0.097430 -0.577553
    12 8.255673 0.000000 0.000000 0.000000 0.000000 0.000047
    13 -0.450924 -0.675699 0.000000 0.002733 0.015614 0.001007
    14 0.000009 0.000000 6.164912 -3.323938 0.781664 -4.347879
    15 6.098812 0.000000 0.000000 0.000000 0.000000 -1.560418
    16 -0.000009 0.000000 -6.164912 3.150924 -0.679119 -4.037285
    17 6.098812 0.000000 0.000000 0.000000 0.000000 -1.355965
  time 9
    0 -0.217445 10.024213 9.409824 4.582476 -1.291894 -4.583003
    1 5.836933 -0.820595 0.000175 0.019315 0.160473 0.124326
    2 3.707160 -1.779552 -0.001620 0.000000 0.000000 0.497336
    3 1.884797 0.225918 -3.244098 -0.806555 0.161113 -1.275154
    4 3.698876 0.000000 0.000000 0.000000 0.000000 -0.000013
    5 1.884668 0.225917 3.247675 -2.376380 -0.005870 -1.026380
    6 3.698876 0.000000 0.000000 0.000000 0.000000 0.000032
    7 -0.546839 -4.717868 -5.475706 0.943163 -0.344905 -0.123044
    8 -2.882997 -4.346762 4.475683 -0.409441 -0.327419 -0.123047
    9 2.630715 -3.155085 -5.016712 -0.337651 -0.103004 -0.435368
    10 8.255675 0.000000 0.000000 0.000000 0.000000 -0.000048
    11 2.630415 -3.155085 5.016869 3.427437 -0.209213 -0.463949
    12 8.255673 0.000000 0.000000 0.000000 0.000000 0.000047
    13 -0.450924 -0.675699 0.000000 0.004969 0.035591 -0.013457
    14 0.000009 0.000000 6.164912 -3.245228 0.707549 -4.264530
    15 6.098812 0.000000 0.000000 0.000000 0.000000 -1.507891
    16 -0.000009 0.000000 -6.164912 3.120004 -0.645221 -3.980850
    17 6.098812 0.000000 0.000000 0.000000 0.000000 -1.339000
  time 10
    0 -0.209633 10.050909 9.409824 4.574901 -1.278287 -4.575045
    1 5.836933 -0.820595 0.000175 0.013978 0.183758 0.113012
    2 3.707160 -1.779552 -0.001620 0.000012 0.006425 0.426377
    3 1.884797 0.225918 -3.244098 -0.774160 0.202098 -1.184638
    4 3.698876 0.000000 0.000000 0.000000 0.000000 -0.000013
    5 1.884668 0.225917 3.247675 -2.420124 -0.039609 -0.941826
    6 3.698876 0.000000 0.000000 0.000000 0.000000 0.000032
    7 -0.363240 -4.706149 -5.499145 0.949678 -0.367448 -0.113742
    8 -2.933780 -4.393638 4.393649 -0.402988 -0.349974 -0.113651
    9 2.630715 -3.155085 -5.016712 -0.566091 -0.171265 -0.475567
    10 8.255675 0.000000 0.000000 0.000000 0.000000 -0.000048
    11 2.630415 -3.155085 5.016869 3.275560 -0.233530 -0.434518
    12 8.255673 0.000000 0.000000 0.000000 0.000000 0.000047
    13 -0.450924 -0.675699 0.000000 0.004770 0.039619 -0.029399
    14 0.000009 0.000000 6.164912 -3.128922 0.586064 -4.117313
    15 6.098812 0.000000 0.000000 0.000000 0.000000 -1.400728
    16 -0.000009 0.000000 -6.164912 3.070620 -0.590116 -3.869884
    17 6.098812 0.000000 0.000000 0.000000 0.000000 -1.314461
  time 11
    0 -0.197914 10.084278 9.414688 4.605294 -1.260272 -4.605150
    1 5.836933 -0.820595 0.000175 -0.016287 0.170983 0.059162
    2 3.707160 -1.779552 -0.001620 -0.000863 0.017087 0.317829
    3 1.884797 0.225918 -3.244098 -0.663842 0.418642 -0.851551
    4 3.698876 0.000000 0.000000 0.000000 0.000000 -0.677088
    5 1.884668 0.225917 3.247675 -2.438304 -0.037261 -0.898652
    6 3.698876 0.000000 0.000000 0.000000 0.000000 0.000032
    7 -0.187453 -4.608490 -5.592897 0.970539 -0.352898 -0.068093
    8 -2.640802 -4.631927 4.335054 -0.382250 -0.335425 -0.067604
    9 2.630715 -3.155085 -5.016712 -0.690495 -0.090401 -0.344802
    10 8.255675 0.000000 0.000000 0.000000 0.000000 -0.298396
    11 2.630415 -3.155085 5.016869 3.298779 -0.237234 -0.390418
    12 8.255673 0.000000 0.000000 0.000000 0.000000 0.000047
    13 -0.450924 -0.675699 0.000000 0.003131 0.032922 -0.054338
    14 0.000009 0.000000 6.164912 -3.014730 0.441203 -3.943539
    15 6.098812 0.000000 0.000000 0.000000 0.000000 -1.258963
    16 -0.000009 0.000000 -6.164912 3.017478 -0.522484 -3.732747
    17 6.098812 0.000000 0.000000 0.000000 0.000000 -1.281297
  time 12
    0 -0.186195 10.117648 9.419552 4.700116 -1.229561 -4.700164
    1 5.836933 -0.820595 0.000175 -0.085152 0.085912 -0.085331
    2 3.707160 -1.779552 -0.001620 -0.001942 0.019066 0.216166
    3 1.884797 0.225918 -3.244098 -0.617330 0.439855 -0.733342
    4 3.698876 0.000000 0.000000 0.000000 0.000000 -0.784253
    5 1.884668 0.225917 3.247675 -2.446430 -0.020825 -0.868222
    6 3.698876 0.000000 0.000000 0.000000 0.000000 0.000032
    7 0.027397 -4.331138 -5.811654 1.023021 -0.275274 0.063260
    8 -1.582176 -5.159287 4.253020 -0.329942 -0.257848 0.064706
    9 2.630715 -3.155085 -5.016712 -0.635895 0.106080 -0.094868
    10 8.255675 0.000000 0.000000 0.000000 0.000000 -0.637465
    11 2.630415 -3.155085 5.016869 3.481678 -0.216490 -0.255532
    12 8.255673 0.000000 0.000000 0.000000 0.000000 0.000047
    13 -0.450924 -0.675699 0.000000 0.000364 0.004118 -0.100947
    14 0.000009 0.000000 6.164912 -2.924046 0.304043 -3.755980
    15 6.098812 0.000000 0.000000 0.000000 0.000000 -1.103587
    16 -0.000009 0.000000 -6.164912 2.970158 -0.452545 -3.580192
    17 6.098812 0.000000 0.000000 0.000000 0.000000 -1.241806
  time 13
    0 -0.170569 10.151017 9.429279 -1.478467 -1.222901 -4.805916
    1 5.836933 -0.820595 0.000175 -0.124150 -0.005913 -0.157017
    2 3.707160 -1.779552 -0.001620 0.000000 0.000000 0.165675
    3 1.884797 0.225918 -3.244098 -0.604315 0.373651 -0.680426
    4 3.698876 0.000000 0.000000 0.000000 0.000000 -0.660974
    5 1.884668 0.225917 3.247675 -2.462429 -0.009715 -0.826890
    6 3.698876 0.000000 0.000000 0.000000 0.000000 0.000032
    7 -0.124951 -4.124100 -5.960096 1.068428 -0.195421 0.133571
    8 -0.804809 -5.405388 4.163173 -0.284601 -0.178079 0.135808
    9 2.630715 -3.155085 -5.016712 -0.466836 0.275980 0.111922
    10 8.255675 0.000000 0.000000 0.000000 0.000000 -0.926690
    11 2.630415 -3.155085 5.016869 3.674284 -0.207862 -0.170209
    12 8.255673 0.000000 0.000000 0.000000 0.000000 0.000047
    13 -0.450924 -0.675699 0.000000 -0.000779 -0.032126 -0.110650
    14 0.000009 0.000000 6.164912 -2.868790 0.201057 -3.600125
    15 6.098812 0.000000 0.000000 0.000000 0.000000 -0.973132
    16 -0.000009 0.000000 -6.164912 2.937248 -0.391451 -3.446671
    17 6.098812 0.000000 0.000000 0.000000 0.000000 -1.209599
  time 14
    0 -0.154944 10.184387 9.443871 -1.339542 -1.262763 -4.944362
    1 5.836933 -0.820595 0.000175 -0.130542 -0.065648 -0.066546
    2 3.707160 -1.779552 -0.001620 0.005381 -0.062791 0.197434
    3 1.884797 0.225918 -3.244098 -0.603859 0.221176 -0.697129
    4 3.698876 0.000000 0.000000 0.000000 0.000000 -0.295109
    5 1.884668 0.225917 3.247675 -2.488340 -0.005546 -0.774898
    6 3.698876 0.000000 0.000000 0.000000 0.000000 0.000032
    7 -0.878880 -4.061598 -5.940564 1.078168 -0.125323 0.049853
    8 -0.949344 -5.346793 4.210050 -0.274730 -0.107993 0.052244
    9 2.630715 -3.155085 -5.016712 -0.303227 0.383383 0.166850
    10 8.255675 0.000000 0.000000 0.000000 0.000000 -1.124791
    11 2.630415 -3.155085 5.016869 3.749176 -0.297985 -0.087092
    12 8.255673 0.000000 0.000000 0.000000 0.000000 0.287350
    13 -0.450924 -0.675699 0.000000 -0.004158 -0.070321 -0.078165
    14 0.000009 0.000000 6.164912 -2.843799 0.147184 -3.494078
    15 6.098812 0.000000 0.000000 0.000000 0.000000 -0.902777
    16 -0.000009 0.000000 -6.164912 2.918711 -0.346345 -3.328187
    17 6.098812 0.000000 0.000000 0.000000 0.000000 -1.193688
  time 15
    0 -0.135412 10.204409 9.463327 -1.110301 -1.322222 -5.169289
    1 5.836933 -0.820595 0.000175 -0.128111 -0.116643 0.090168
    2 3.707160 -1.779552 -0.001620 0.006544 -0.156438 0.281605
    3 1.884797 0.225918 -3.244098 -0.587417 0.094372 -0.721204
    4 3.698876 0.000000 0.000000 0.000000 0.000000 -0.000013
    5 1.884668 0.225917 3.247675 -2.514838 0.001225 -0.724068
    6 3.698876 0.000000 0.000000 0.000000 0.000000 0.000032
    7 -1.886724 -3.956126 -5.772590 1.059742 -0.055201 -0.096760
    8 -1.422015 -5.100691 4.381930 -0.292946 -0.037835 -0.094726
    9 2.630715 -3.155085 -5.016712 -0.242508 0.457923 0.079706
    10 8.255675 0.000000 0.000000 0.000000 0.000000 -1.195665
    11 2.630415 -3.155085 5.016869 3.761832 -0.392771 -0.064467
    12 8.255673 0.000000 0.000000 0.000000 0.000000 0.590705
    13 -0.450924 -0.675699 0.000000 -0.011992 -0.109222 -0.032825
    14 0.000009 0.000000 6.164912 -2.838498 0.135960 -3.456033
    15 6.098812 0.000000 0.000000 0.000000 0.000000 -0.889741
    16 -0.000009 0.000000 -6.164912 2.911451 -0.317996 -3.231210
    17 6.098812 0.000000 0.000000 0.000000 0.000000 -1.189662
  time 16
    0 -0.119786 10.211083 9.487647 -0.881826 -1.365151 -5.392298
    1 5.836933 -0.820595 0.000175 -0.104376 -0.135439 0.181502
    2 3.707160 -1.779552 -0.001620 0.000899 -0.239268 0.371917
    3 1.884797 0.225918 -3.244098 -0.576690 0.055017 -0.681372
    4 3.698876 0.000000 0.000000 0.000000 0.000000 -0.000013
    5 1.884668 0.225917 3.247675 -2.540185 0.005564 -0.680459
    6 3.698876 0.000000 0.000000 0.000000 0.000000 0.000032
    7 -2.402364 -3.967845 -5.573366 1.020816 -0.031220 -0.182895
    8 -1.722805 -4.803807 4.600687 -0.331833 -0.013794 -0.181555
    9 2.630715 -3.155085 -5.016712 -0.340711 0.482397 -0.107412
    10 8.255675 0.000000 0.000000 0.000000 0.000000 -1.093026
    11 2.630415 -3.155085 5.016869 3.758977 -0.456965 -0.085558
    12 8.255673 0.000000 0.000000 0.000000 0.000000 0.774541
    13 -0.450924 -0.675699 0.000000 -0.019496 -0.128698 0.002642
    14 0.000009 0.000000 6.164912 -2.843469 0.148538 -3.479742
    15 6.098812 0.000000 0.000000 0.000000 0.000000 -0.901435
    16 -0.000009 0.000000 -6.164912 2.910677 -0.306019 -3.178106
    17 6.098812 0.000000 0.000000 0.000000 0.000000 -1.192346
  time 17
    0 -0.100254 10.224430 9.502238 -0.939352 -1.370900 -5.335923
    1 5.836933 -0.820595 0.000175 -0.014758 -0.080301 0.104591
    2 3.707160 -1.779552 -0.001620 -0.000012 -0.270524 0.418810
    3 1.884797 0.225918 -3.244098 -0.572316 0.025445 -0.656791
    4 3.698876 0.000000 0.000000 0.000000 0.000000 -0.000013
    5 1.884668 0.225917 3.247675 -2.565006 0.003386 -0.644651
    6 3.698876 0.000000 0.000000 0.000000 0.000000 0.000032
    7 -1.761720 -4.565520 -5.350703 0.948789 -0.101857 -0.104970
    8 -1.664210 -4.545987 4.878039 -0.403817 -0.084372 -0.104855
    9 2.630715 -3.155085 -5.016712 -0.549644 0.391899 -0.298142
    10 8.255675 0.000000 0.000000 0.000000 0.000000 -0.849085
    11 2.630415 -3.155085 5.016869 3.719295 -0.529002 -0.073766
    12 8.255673 0.000000 0.000000 0.000000 0.000000 0.881364
    13 -0.450924 -0.675699 0.000000 -0.014676 -0.116574 -0.021853
    14 0.000009 0.000000 6.164912 -2.853219 0.173656 -3.514019
    15 6.098812 0.000000 0.000000 0.000000 0.000000 -0.914375
    16 -0.000009 0.000000 -6.164912 2.913404 -0.305140 -3.142323
    17 6.098812 0.000000 0.000000 0.000000 0.000000 -1.195509
  time 18
    0 -0.080723 10.211083 9.516830 -1.114327 -1.378087 -5.163824
    1 5.836933 -0.820595 0.000175 0.087125 0.020070 -0.023362
    2 3.707160 -1.779552 -0.001620 0.012188 -0.243261 0.416763
    3 1.884797 0.225918 -3.244098 -0.578943 -0.015384 -0.640223
    4 3.698876 0.000000 0.000000 0.000000 0.000000 -0.000013
    5 1.884668 0.225917 3.247675 -2.588352 -0.005767 -0.617128
    6 3.698876 0.000000 0.000000 0.000000 0.000000 0.000032
    7 -0.624966 -5.225696 -4.983504 0.853104 -0.200526 0.041246
    8 -1.566551 -4.264728 5.155391 -0.499210 -0.183113 0.039616
    9 2.630715 -3.155085 -5.016712 -0.735724 0.192235 -0.480793
    10 8.255675 0.000000 0.000000 0.000000 0.000000 -0.513019
    11 2.630415 -3.155085 5.016869 3.695886 -0.570621 -0.155062
    12 8.255673 0.000000 0.000000 0.000000 0.000000 0.882650
    13 -0.450924 -0.675699 0.000000 -0.008398 -0.084114 -0.045366
    14 0.000009 0.000000 6.164912 -2.865824 0.204153 -3.556934
    15 6.098812 0.000000 0.000000 0.000000 0.000000 -0.926931
    16 -0.000009 0.000000 -6.164912 2.916168 -0.311074 -3.140134
    17 6.098812 0.000000 0.000000 0.000000 0.000000 -1.201068
  time 19
    0 -0.061191 10.177713 9.555741 -1.066581 -1.437929 -5.210900
    1 5.836933 -0.820595 0.000175 0.123156 0.056088 -0.047977
    2 3.707160 -1.779552 -0.001620 0.030752 -0.185611 0.398899
    3 1.884797 0.225918 -3.244098 -0.594212 -0.058884 -0.631736
    4 3.698876 0.000000 0.000000 0.000000 0.000000 -0.000013
    5 1.884668 0.225917 3.247675 -2.609936 -0.044322 -0.555299
    6 3.698876 0.000000 0.000000 0.000000 0.000000 0.104983
    7 -0.312457 -5.417108 -4.803811 0.813290 -0.231518 0.078024
    8 -1.621240 -4.120193 5.260863 -0.538810 -0.214177 0.075701
    9 2.630715 -3.155085 -5.016712 -0.782961 -0.048937 -0.782330
    10 8.255675 0.000000 0.000000 0.000000 0.000000 -0.000048
    11 2.630415 -3.155085 5.016869 3.762784 -0.502593 -0.464237
    12 8.255673 0.000000 0.000000 0.000000 0.000000 0.766263
    13 -0.450924 -0.675699 0.000000 -0.006112 -0.063752 -0.049708
    14 0.000009 0.000000 6.164912 -2.875079 0.234844 -3.550042
    15 6.098812 0.000000 0.000000 0.000000 0.000000 -0.943035
    16 -0.000009 0.000000 -6.164912 2.920701 -0.317996 -3.130046
    17 6.098812 0.000000 0.000000 0.000000 0.000000 -1.213433
  time 20
    0 -0.045565 10.104300 9.609245 -0.352203 -1.517654 -5.924031
    1 5.836933 -0.820595 0.000175 0.129931 0.050024 -0.010235
    2 3.707160 -1.779552 -0.001620 0.050227 -0.110665 0.370304
    3 1.884797 0.225918 -3.244098 -0.615520 -0.099660 -0.630789
    4 3.698876 0.000000 0.000000 0.000000 0.000000 -0.000013
    5 1.884668 0.225917 3.247675 -2.641851 -0.164238 -0.355277
    6 3.698876 0.000000 0.000000 0.000000 0.000000 0.579441
    7 -0.523401 -5.424921 -4.776466 0.808453 -0.229960 0.040982
    8 -1.769682 -4.030346 5.280395 -0.543621 -0.212643 0.038583
    9 2.630715 -3.155085 -5.016712 -0.753414 -0.077540 -1.001949
    10 8.255675 0.000000 0.000000 0.000000 0.000000 -0.000048
    11 2.630415 -3.155085 5.016869 3.794282 -0.347448 -0.854899
    12 8.255673 0.000000 0.000000 0.000000 0.000000 0.599541
    13 -0.450924 -0.675699 0.000000 -0.005416 -0.049973 -0.039403
    14 0.000009 0.000000 6.164912 -2.875629 0.253808 -3.468623
    15 6.098812 0.000000 0.000000 0.000000 0.000000 -0.944377
    16 -0.000009 0.000000 -6.164912 2.925049 -0.321567 -3.109776
    17 6.098812 0.000000 0.000000 0.000000 0.000000 -1.225223
  time 21
    0 -0.026033 9.990844 9.677340 1.395246 -1.424897 -1.389541
    1 5.836933 -0.820595 0.000175 0.112451 0.002244 0.122297
    2 3.707160 -1.779552 -0.001620 0.066059 -0.031760 0.334948
    3 1.884797 0.225918 -3.244098 -0.646932 -0.140697 -0.641000
    4 3.698876 0.000000 0.000000 0.000000 0.000000 -0.000013
    5 1.884668 0.225917 3.247675 -2.665952 -0.236923 -0.239711
    6 3.698876 0.000000 0.000000 0.000000 0.000000 0.878166
    7 -1.406240 -5.190539 -4.858500 0.828887 -0.198045 -0.100700
    8 -2.144693 -3.870185 5.260863 -0.523331 -0.180680 -0.102723
    9 2.630715 -3.155085 -5.016712 -0.723389 -0.078057 -1.326389
    10 8.255675 0.000000 0.000000 0.000000 0.000000 -0.000048
    11 2.630415 -3.155085 5.016869 3.703784 -0.171952 -1.255820
    12 8.255673 0.000000 0.000000 0.000000 0.000000 0.497696
    13 -0.450924 -0.675699 0.000000 -0.004257 -0.026135 0.016674
    14 0.000009 0.000000 6.164912 -2.873981 0.257987 -3.180071
    15 6.098812 0.000000 0.000000 0.000000 0.000000 -0.926069
    16 -0.000009 0.000000 -6.164912 2.939791 -0.347115 -3.113773
    17 6.098812 0.000000 0.000000 0.000000 0.000000 -1.279284
  time 22
    0 -0.010408 9.837344 9.750298 1.554113 -1.232100 -1.553107
    1 5.836933 -0.820595 0.000175 0.071557 -0.055527 0.271929
    2 3.707160 -1.779552 -0.001620 0.075071 0.037317 0.295623
    3 1.884797 0.225918 -3.244098 -0.688830 -0.180190 -0.665683
    4 3.698876 0.000000 0.000000 0.000000 0.000000 -0.000013
    5 1.884668 0.225917 3.247675 -2.677385 -0.299314 -0.150990
    6 3.698876 0.000000 0.000000 0.000000 0.000000 1.159346
    7 -2.382833 -4.717868 -4.956159 0.857678 -0.148501 -0.259959
    8 -2.500173 -3.702211 5.221799 -0.494714 -0.131087 -0.261488
    9 2.630715 -3.155085 -5.016712 -0.690208 0.034550 -1.538691
    10 8.255675 0.000000 0.000000 0.000000 0.000000 -0.354416
    11 2.630415 -3.155085 5.016869 3.533065 -0.070062 -1.595289
    12 8.255673 0.000000 0.000000 0.000000 0.000000 0.547360
    13 -0.450924 -0.675699 0.000000 -0.000513 -0.005851 0.100947
    14 0.000009 0.000000 6.164912 -2.901719 0.204888 -2.753491
    15 6.098812 0.000000 0.000000 0.000000 0.000000 -0.858301
    16 -0.000009 0.000000 -6.164912 2.952321 -0.372937 -3.145273
    17 6.098812 0.000000 0.000000 0.000000 0.000000 -1.329990
  time 23
    0 0.001311 9.690518 9.784346 1.586040 -1.112608 -1.592225
    1 5.836933 -0.820595 0.000175 0.039625 -0.088308 0.355576
    2 3.707160 -1.779552 -0.001620 0.075575 0.082569 0.254623
    3 1.884797 0.225918 -3.244098 -0.740843 -0.217030 -0.709910
    4 3.698876 0.000000 0.000000 0.000000 0.000000 -0.000013
    5 1.884668 0.225917 3.247675 -2.646800 -0.340880 -0.162183
    6 3.698876 0.000000 0.000000 0.000000 0.000000 1.313007
    7 -2.910192 -4.366295 -4.999129 0.874130 -0.113985 -0.347285
    8 -2.668147 -3.620177 5.198361 -0.478339 -0.096548 -0.348484
    9 2.630715 -3.155085 -5.016712 -0.598316 0.049777 -1.778647
    10 8.255675 0.000000 0.000000 0.000000 0.000000 -0.442646
    11 2.630415 -3.155085 5.016869 3.355685 -0.043042 -1.857201
    12 8.255673 0.000000 0.000000 0.000000 0.000000 0.599318
    13 -0.450924 -0.675699 0.000000 0.005168 0.008776 0.145188
    14 0.000009 0.000000 6.164912 -2.933851 0.088241 -2.434614
    15 6.098812 0.000000 0.000000 0.000000 0.000000 -0.730051
    16 -0.000009 0.000000 -6.164912 2.929804 -0.326622 -3.105874
    17 6.098812 0.000000 0.000000 0.000000 0.000000 -1.249857
  time 24
    0 0.005218 8.522583 10.042134 1.579041 -0.823173 -1.588294
    1 5.836933 -0.820595 0.000175 0.055254 -0.058030 0.225161
    2 3.707160 -1.779552 -0.001620 0.062056 0.088942 0.197992
    3 1.884797 0.225918 -3.244098 -0.800766 -0.251198 -0.780747
    4 3.698876 0.000000 0.000000 0.000000 0.000000 -0.000013
    5 1.884668 0.225917 3.247675 -2.565101 -0.382208 -0.242522
    6 3.698876 0.000000 0.000000 0.000000 0.000000 1.484035
    7 -2.191420 -4.729587 -5.034287 0.874985 -0.138734 -0.215998
    8 -2.297042 -3.913155 5.163204 -0.477460 -0.121296 -0.217207
    9 2.630715 -3.155085 -5.016712 -0.143539 0.013345 -1.919009
    10 8.255675 0.000000 0.000000 0.000000 0.000000 -0.000048
    11 2.630415 -3.155085 5.016869 3.195529 -0.141707 -1.885578
    12 8.255673 0.000000 0.000000 0.000000 0.000000 0.000047
    13 -0.450924 -0.675699 0.000000 0.006278 0.010970 0.158436
    14 0.000009 0.000000 6.164912 -2.848385 -0.064284 -2.683283
    15 6.098812 0.000000 0.000000 0.000000 0.000000 -0.876226
    16 -0.000009 0.000000 -6.164912 2.827462 -0.057579 -3.032023
    17 6.098812 0.000000 0.000000 0.000000 0.000000 -0.851017
  time 25
    0 0.001311 7.114388 9.954583 1.571947 -0.493060 -1.581582
    1 5.836933 -0.820595 0.000175 0.070868 -0.021127 0.061796
    2 3.707160 -1.779552 -0.001620 0.038027 0.063416 0.123745
    3 1.884797 0.225918 -3.244098 -0.865639 -0.266375 -0.874442
    4 3.698876 0.000000 0.000000 0.000000 0.000000 -0.044674
    5 1.884668 0.225917 3.247675 -2.448312 -0.422038 -0.416669
    6 3.698876 0.000000 0.000000 0.000000 0.000000 1.660087
    7 -1.249985 -5.061629 -5.034287 0.869392 -0.166142 -0.049920
    8 -1.761869 -4.202226 5.143672 -0.483001 -0.148705 -0.051211
    9 2.630715 -3.155085 -5.016712 -0.088174 0.071799 -1.001474
    10 8.255675 0.000000 0.000000 0.000000 0.000000 -0.753344
    11 2.630415 -3.155085 5.016869 3.076578 -0.151992 -0.871485
    12 8.255673 0.000000 0.000000 0.000000 0.000000 0.924149
    13 -0.450924 -0.675699 0.000000 0.005251 0.008724 0.155794
    14 0.000009 0.000000 6.164912 -2.789806 -0.279351 -2.814142
    15 6.098812 0.000000 0.000000 0.000000 0.000000 -0.331403
    16 -0.000009 0.000000 -6.164912 2.789908 0.278876 -2.814659
    17 6.098812 0.000000 0.000000 0.000000 0.000000 -0.332840
  time 26
    0 0.001311 6.800714 8.665643 1.569741 -0.278176 -1.582253
    1 5.836933 -0.820595 0.000175 0.077597 -0.002698 -0.088613
    2 3.707160 -1.779552 -0.001620 0.014885 0.026307 0.051669
    3 1.884797 0.225918 -3.244098 -0.970192 -0.030630 -0.833360
    4 3.698876 0.000000 0.000000 0.000000 0.000000 -0.810070
    5 1.884668 0.225917 3.247675 -2.337934 -0.429048 -0.682203
    6 3.698876 0.000000 0.000000 0.000000 0.000000 1.780602
    7 -0.437461 -5.213977 -5.014755 0.864226 -0.173165 0.102322
    8 -1.148569 -4.397545 5.155391 -0.488161 -0.155740 0.100923
    9 2.630715 -3.155085 -5.016712 -0.019231 0.096833 -0.130125
    10 8.255675 0.000000 0.000000 0.000000 0.000000 -1.350875
    11 2.630415 -3.155085 5.016869 2.985128 -0.092244 -0.027462
    12 8.255673 0.000000 0.000000 0.000000 0.000000 1.424147
    13 -0.450924 -0.675699 0.000000 0.005748 0.010277 0.143200
    14 0.000009 0.000000 6.164912 -2.742926 -0.235927 -2.901168
    15 6.098812 0.000000 0.000000 0.000000 0.000000 -1.006680
    16 -0.000009 0.000000 -6.164912 2.743289 0.235473 -2.901357
    17 6.098812 0.000000 0.000000 0.000000 0.000000 -1.007351
  time 27
    0 0.001311 6.987584 7.644220 1.568303 -0.135303 -1.580336
    1 5.836933 -0.820595 0.000175 0.073942 -0.000777 -0.216697
    2 3.707160 -1.779552 -0.001620 0.000000 0.000000 -0.000062
    3 1.884797 0.225918 -3.244098 -0.999746 0.033579 -0.983825
    4 3.698876 0.000000 0.000000 0.000000 0.000000 -1.058725
    5 1.884668 0.225917 3.247675 -2.282756 -0.392757 -0.953261
    6 3.698876 0.000000 0.000000 0.000000 0.000000 1.823687
    7 0.191465 -5.210071 -5.034287 0.869392 -0.166130 0.229305
    8 -0.539176 -4.526455 5.147578 -0.483001 -0.148705 0.228002
    9 2.630715 -3.155085 -5.016712 0.037281 0.099284 0.407567
    10 8.255675 0.000000 0.000000 0.000000 0.000000 -1.445837
    11 2.630415 -3.155085 5.016869 2.965335 -0.033324 0.481502
    12 8.255673 0.000000 0.000000 0.000000 0.000000 1.456026
    13 -0.450924 -0.675699 0.000000 0.005135 0.008801 0.142416
    14 0.000009 0.000000 6.164912 -2.715079 -0.238752 -2.910908
    15 6.098812 0.000000 0.000000 0.000000 0.000000 -1.384242
    16 -0.000009 0.000000 -6.164912 2.715464 0.238440 -2.911064
    17 6.098812 0.000000 0.000000 0.000000 0.000000 -1.384721
  time 28
    0 0.001311 7.448084 7.936055 1.569262 -0.082408 -1.570269
    1 5.836933 -0.820595 0.000175 0.052364 -0.029328 -0.182884
    2 3.707160 -1.779552 -0.001620 -0.004051 -0.005852 -0.016003
    3 1.884797 0.225918 -3.244098 -0.983999 0.055520 -1.178281
    4 3.698876 0.000000 0.000000 0.000000 0.000000 -1.175423
    5 1.884668 0.225917 3.247675 -2.261388 -0.291079 -1.203338
    6 3.698876 0.000000 0.000000 0.000000 0.000000 1.676181
    7 -0.124951 -5.104599 -5.143665 0.895814 -0.144750 0.189681
    8 -0.566520 -4.612395 5.065545 -0.456689 -0.127288 0.188852
    9 2.630715 -3.155085 -5.016712 0.074956 0.102338 0.421822
    10 8.255675 0.000000 0.000000 0.000000 0.000000 -1.378691
    11 2.630415 -3.155085 5.016869 2.993883 -0.018768 0.453509
    12 8.255673 0.000000 0.000000 0.000000 0.000000 1.342883
    13 -0.450924 -0.675699 0.000000 0.001474 -0.000718 0.086587
    14 0.000009 0.000000 6.164912 -2.752648 -0.256516 -2.725188
    15 6.098812 0.000000 0.000000 0.000000 0.000000 -1.386159
    16 -0.000009 0.000000 -6.164912 2.752760 0.256955 -2.725106
    17 6.098812 0.000000 0.000000 0.000000 0.000000 -1.385775
  time 29
    0 0.001311 8.055410 9.064485 1.571467 -0.029705 -1.556367
    1 5.836933 -0.820595 0.000175 0.020615 -0.068043 -0.091809
    2 3.707160 -1.779552 -0.001620 -0.002037 -0.002917 -0.008002
    3 1.884797 0.225918 -3.244098 -0.934418 0.004371 -1.424098
    4 3.698876 0.000000 0.000000 0.000000 0.000000 -1.065575
    5 1.884668 0.225917 3.247675 -2.259351 -0.127266 -1.449053
    6 3.698876 0.000000 0.000000 0.000000 0.000000 1.317534
    7 -0.773408 -4.920999 -5.264762 0.928060 -0.113614 0.093185
    8 -0.820434 -4.682710 4.960073 -0.424521 -0.096128 0.092893
    9 2.630715 -3.155085 -5.016712 0.106990 0.114984 0.278133
    10 8.255675 0.000000 0.000000 0.000000 0.000000 -1.247068
    11 2.630415 -3.155085 5.016869 3.031091 -0.006261 0.259088
    12 8.255673 0.000000 0.000000 0.000000 0.000000 1.150938
    13 -0.450924 -0.675699 0.000000 -0.001855 -0.014344 0.047132
    14 0.000009 0.000000 6.164912 -2.846380 -0.275790 -2.409802
    15 6.098812 0.000000 0.000000 0.000000 0.000000 -1.104162
    16 -0.000009 0.000000 -6.164912 2.846257 0.277228 -2.409433
    17 6.098812 0.000000 0.000000 0.000000 0.000000 -1.102341
  time 30
    0 0.001311 8.689431 9.818393 1.574056 -0.011786 -1.541889
    1 5.836933 -0.820595 0.000175 -0.014636 -0.103694 0.000734
    2 3.707160 -1.779552 -0.001620 0.000000 0.000000 -0.000062
    3 1.884797 0.225918 -3.244098 -0.859095 -0.102036 -1.715088
    4 3.698876 0.000000 0.000000 0.000000 0.000000 -0.742470
    5 1.884668 0.225917 3.247675 -2.282493 0.102937 -1.715750
    6 3.698876 0.000000 0.000000 0.000000 0.000000 0.740282
    7 -1.402334 -4.674898 -5.358515 0.957048 -0.079566 -0.001953
    8 -1.082161 -4.729586 4.866320 -0.395572 -0.062080 -0.001733
    9 2.630715 -3.155085 -5.016712 0.130704 0.136361 0.106505
    10 8.255675 0.000000 0.000000 0.000000 0.000000 -1.119785
    11 2.630415 -3.155085 5.016869 3.060306 0.011215 0.033510
    12 8.255673 0.000000 0.000000 0.000000 0.000000 0.944283
    13 -0.450924 -0.675699 0.000000 -0.003313 -0.029009 -0.011665
    14 0.000009 0.000000 6.164912 -2.926188 -0.292316 -2.150932
    15 6.098812 0.000000 0.000000 0.000000 0.000000 -0.865586
    16 -0.000009 0.000000 -6.164912 2.926081 0.294863 -2.149814
    17 6.098812 0.000000 0.000000 0.000000 0.000000 -0.861656
end
