"VertexLitGeneric"
{
	"$basetexture" "models/Cremator/crematorhead_sheet_black_eyes"
	//"$selfillum" "1"
	//"$selfillumtint" "[21 13 4]"
	//"$selfillummask" "models/cremator/crematorhead_selfillummask"


	"$phong" 		"1"
	"$phongexponent" 	"50"
	"$phongboost" "3"
	"$phongfresnelranges" "[1 0.75 3]"
	"$phongalbedotint" "1"
}

