"UnlitGeneric" //"Sprite"
{
	$basetexture 	"bloom/halo_baset"

//	$spriteorientation	"vp_parallel"
//	$spriteorigin	"[ 0.50 0.50 ]"
//	$spriterendermode 	9 //5

	$vertexcolor 	1
	$vertexalpha 	1
//	$translucent 	1
	$nofog 		1
	// $nocull 		1
	$additive 		1 //0
	$ignorez		1

	"Proxies"
	{
		"BloomAdd"
		{
		}
	}
}
