"SpriteCard"
{
	$basetexture 		"effects/spectral_square"

//	$splinetype 		0

	$depthblend 		1
	$depthblendscale 		1

	$overbrightfactor 		4
//	$addself 			2
	$additive 			1
//	$addoverblend		1
	$translucent 		1
}
