"UnlitGeneric"
{
	// NOTE: DO NOT change anything in here without talking to Alex or Brian! This has
	//       to match some other materials hidden in source code that are necessary for
	//       the 360's loading screens.
	"$basetexture" "vgui/appchooser/background_hl2"
	"$vertexcolor" 1
	"$vertexalpha" 1
	"$ignorez" 1
	"$no_fullbright" "1"
	"$nolod" "1"
}
