"unlitgeneric"
{
	// original shader: basetimeslightmapselfillum
	"$detail" "detail/detail_noise1"
	"$detailscale" 2.5
	$model 1 	"$basetexture" "halflife/~spotred"
//	"$selfillum" 1
	"$surfaceprop" "glass"
}
