"LightmappedGeneric"
{
	"$basetexture" "Metal/metalwall090a"
	"$surfaceprop" "metal"
	"%keywords" "combine"
	"ldr?$envmaptint" "[ .56 .56 .75 ]"
	"$envmap" "env_cubemap"
	"$envmapcontrast" 1
	"$envmapsaturation" 1
	"hdr?$envmaptint" "[.09 .1 .12]"
	"$phong" "1"

	"$bumpmap" "Metal/metalwall090a_normal"
	"$parallaxmap" "Metal/metalwall090a_height"
	"$parallaxmapscale" ".05"
	"$normalmapalphaenvmapmask" 1

	"LightmappedGeneric_DX8"
	{
		"$bumpmap" "Metal/metalwall090a_normal"
		"$nodiffusebumplighting" 1
		"$normalmapalphaenvmapmask" 1
	}

	"LightmappedGeneric_NoBump_DX8"
	{
		"$basetexture" "Metal/metalwall090a"
		"$basealphaenvmapmask" 1
	}
}
