"VertexLitGeneric"
{
	"$baseTexture" "models/Zombineoutland/combinesoldiersheet_zombie"
	"$bumpmap" "models/Zombineoutland/combinesoldiersheet_zombie_normal"
	"$model" "1"
	"$surfaceprop" "flesh"

	//phong parameters

	"$phong" "1"
	"$phongboost" "1"
	"$phongexponent" "38" 		
	"$phongfresnelranges"	"[0.05 0.5 1]"
}
