// Created by Crowbar 0.42.0.0
version 1
nodes
  0 "sphere_root" -1
  1 "handle_lower" 0
  2 "eyeball_pistons_frontjoint_06" 0
  3 "axel_center_y" 0
  4 "eyeball_pistons_frontjoint_01" 0
  5 "eyeball_pistons_frontjoint_02" 0
  6 "eyeball_pistons_frontjoint_03" 0
  7 "eyeball_pistons_backjoint_04" 0
  8 "axel_center_x" 0
  9 "eyeball_pistons_frontjoint_04" 0
  10 "handle_upper" 0
  11 "eyeball_pistons_backjoint_02" 0
  12 "eyeball_pistons_backjoint_03" 0
  13 "eyeball_pistons_backjoint_06" 0
  14 "eyeball_pistons_backjoint_05" 0
  15 "eyeball_pistons_frontjoint_05" 0
  16 "axel_center_z" 0
  17 "eyeball_pistons_backjoint_01" 0
  18 "bandY_joint" 3
  19 "eyeball_retract" 8
  20 "cog_rotation" 8
  21 "eyeball_eye" 19
  22 "eyelid_rotate" 21
  23 "eyelight_aimjoint" 21
  24 "eyelid_lower_main" 22
  25 "eyelid_lower_compress_01" 22
  26 "eyelid_lower_compress_02" 22
  27 "eyelid_upper_main" 22
  28 "eyelid_upper_compress01" 22
  29 "eyelid_upper_compress02" 22
  30 "inner_aperture" 23
  31 "inner01" 30
  32 "inner03" 30
  33 "inner04" 30
  34 "inner05" 30
  35 "inner06" 30
  36 "inner07" 30
  37 "inner08" 30
  38 "inner09" 30
  39 "inner010" 30
  40 "inner011" 30
  41 "inner012" 30
  42 "inner013" 30
  43 "inner014" 30
  44 "inner015" 30
  45 "inner016" 30
  46 "inner017" 30
  47 "inner018" 30
  48 "inner019" 30
  49 "inner020" 30
  50 "inner021" 30
  51 "inner022" 30
  52 "inner023" 30
  53 "inner024" 30
  54 "inner02" 30
  55 "bandZ_joint" 16
end
skeleton
  time 0
    0 0.000000 0.000000 0.000000 0.000000 0.000000 0.000000   # pos: desc_delta   rot: desc_delta
    1 0.000000 0.000000 0.000000 0.000000 0.000000 0.000000   # pos: desc_delta   rot: desc_delta
    2 0.000000 0.000000 0.000000 0.000000 0.000000 0.000000   # pos: anim   rot: anim
    3 0.000000 0.000000 0.000000 0.000000 0.000000 0.000000   # pos: desc_delta   rot: desc_delta
    4 0.000000 0.000000 0.000000 0.000000 0.000000 0.000000   # pos: anim   rot: anim
    5 0.000000 0.000000 0.000000 0.000000 0.000000 0.000000   # pos: anim   rot: anim
    6 0.000000 0.000000 0.000000 0.000000 0.000000 0.000000   # pos: anim   rot: anim
    7 0.000000 0.000000 0.000000 0.000000 0.000000 0.000000   # pos: anim   rot: anim
    8 0.000000 0.000000 0.000000 0.000000 0.000000 0.000000   # pos: delta   rot: anim
    9 0.000000 0.000000 0.000000 0.000000 0.000000 0.000000   # pos: anim   rot: anim
    10 0.000000 0.000000 0.000000 0.000000 0.000000 0.000000   # pos: desc_delta   rot: desc_delta
    11 0.000000 0.000000 0.000000 0.000000 0.000000 0.000000   # pos: anim   rot: anim
    12 0.000000 0.000000 0.000000 0.000000 0.000000 0.000000   # pos: anim   rot: anim
    13 0.000000 0.000000 0.000000 0.000000 0.000000 0.000000   # pos: anim   rot: anim
    14 0.000000 0.000000 0.000000 0.000000 0.000000 0.000000   # pos: anim   rot: anim
    15 0.000000 0.000000 0.000000 0.000000 0.000000 0.000000   # pos: anim   rot: anim
    16 0.000000 0.000000 0.000000 0.000000 0.000000 0.000000   # pos: desc_delta   rot: desc_delta
    17 0.000000 0.000000 0.000000 0.000000 0.000000 0.000000   # pos: anim   rot: anim
    18 0.000000 0.000000 0.000000 0.000000 0.000000 0.000000   # pos: desc_delta   rot: desc_delta
    19 0.000000 0.000000 0.000000 0.000000 0.000000 0.000000   # pos: desc_delta   rot: desc_delta
    20 0.000000 0.000000 0.000000 0.000000 0.000000 0.000000   # pos: delta   rot: anim
    21 0.000000 0.000000 0.000000 0.000000 0.000000 0.000000   # pos: desc_delta   rot: desc_delta
    22 0.000000 0.000000 0.000000 0.000000 0.000000 0.000000   # pos: desc_delta   rot: desc_delta
    23 0.000000 0.000000 0.000000 0.000000 0.000000 0.000000   # pos: desc_delta   rot: desc_delta
    24 0.000000 0.000000 0.000000 0.000000 0.000000 0.000000   # pos: desc_delta   rot: desc_delta
    25 0.000000 0.000000 0.000000 0.000000 0.000000 0.000000   # pos: desc_delta   rot: desc_delta
    26 0.000000 0.000000 0.000000 0.000000 0.000000 0.000000   # pos: desc_delta   rot: desc_delta
    27 0.000000 0.000000 0.000000 0.000000 0.000000 0.000000   # pos: desc_delta   rot: desc_delta
    28 0.000000 0.000000 0.000000 0.000000 0.000000 0.000000   # pos: desc_delta   rot: desc_delta
    29 0.000000 0.000000 0.000000 0.000000 0.000000 0.000000   # pos: desc_delta   rot: desc_delta
    30 0.000000 0.000000 0.000000 0.000000 0.000000 0.000000   # pos: desc_delta   rot: desc_delta
    31 0.000000 0.000000 0.000000 0.000000 0.000000 0.000000   # pos: desc_delta   rot: desc_delta
    32 0.000000 0.000000 0.000000 0.000000 0.000000 0.000000   # pos: desc_delta   rot: desc_delta
    33 0.000000 0.000000 0.000000 0.000000 0.000000 0.000000   # pos: desc_delta   rot: desc_delta
    34 0.000000 0.000000 0.000000 0.000000 0.000000 0.000000   # pos: desc_delta   rot: desc_delta
    35 0.000000 0.000000 0.000000 0.000000 0.000000 0.000000   # pos: desc_delta   rot: desc_delta
    36 0.000000 0.000000 0.000000 0.000000 0.000000 0.000000   # pos: desc_delta   rot: desc_delta
    37 0.000000 0.000000 0.000000 0.000000 0.000000 0.000000   # pos: desc_delta   rot: desc_delta
    38 0.000000 0.000000 0.000000 0.000000 0.000000 0.000000   # pos: desc_delta   rot: desc_delta
    39 0.000000 0.000000 0.000000 0.000000 0.000000 0.000000   # pos: desc_delta   rot: desc_delta
    40 0.000000 0.000000 0.000000 0.000000 0.000000 0.000000   # pos: desc_delta   rot: desc_delta
    41 0.000000 0.000000 0.000000 0.000000 0.000000 0.000000   # pos: desc_delta   rot: desc_delta
    42 0.000000 0.000000 0.000000 0.000000 0.000000 0.000000   # pos: desc_delta   rot: desc_delta
    43 0.000000 0.000000 0.000000 0.000000 0.000000 0.000000   # pos: desc_delta   rot: desc_delta
    44 0.000000 0.000000 0.000000 0.000000 0.000000 0.000000   # pos: desc_delta   rot: desc_delta
    45 0.000000 0.000000 0.000000 0.000000 0.000000 0.000000   # pos: desc_delta   rot: desc_delta
    46 0.000000 0.000000 0.000000 0.000000 0.000000 0.000000   # pos: desc_delta   rot: desc_delta
    47 0.000000 0.000000 0.000000 0.000000 0.000000 0.000000   # pos: desc_delta   rot: desc_delta
    48 0.000000 0.000000 0.000000 0.000000 0.000000 0.000000   # pos: desc_delta   rot: desc_delta
    49 0.000000 0.000000 0.000000 0.000000 0.000000 0.000000   # pos: desc_delta   rot: desc_delta
    50 0.000000 0.000000 0.000000 0.000000 0.000000 0.000000   # pos: desc_delta   rot: desc_delta
    51 0.000000 0.000000 0.000000 0.000000 0.000000 0.000000   # pos: desc_delta   rot: desc_delta
    52 0.000000 0.000000 0.000000 0.000000 0.000000 0.000000   # pos: desc_delta   rot: desc_delta
    53 0.000000 0.000000 0.000000 0.000000 0.000000 0.000000   # pos: desc_delta   rot: desc_delta
    54 0.000000 0.000000 0.000000 0.000000 0.000000 0.000000   # pos: desc_delta   rot: desc_delta
    55 0.000000 0.000000 0.000000 0.000000 0.000000 0.000000   # pos: desc_delta   rot: desc_delta
  time 1
    0 0.000000 0.000000 0.000000 0.000000 0.000000 0.000000   # pos: desc_delta   rot: desc_delta
    1 0.000000 0.000000 0.000000 0.000000 0.000000 0.000000   # pos: desc_delta   rot: desc_delta
    2 0.000000 1.695364 1.628956 -0.062030 -0.114815 0.055129   # pos: anim   rot: anim
    3 0.000000 0.000000 0.000000 0.000000 0.000000 0.000000   # pos: desc_delta   rot: desc_delta
    4 0.000000 1.214881 -2.011780 -0.037488 0.099304 0.079767   # pos: anim   rot: anim
    5 0.000000 0.589862 -2.289132 -0.002301 0.016960 -0.126170   # pos: anim   rot: anim
    6 0.000000 -2.351634 -0.015625 -0.061551 -0.113669 0.060786   # pos: anim   rot: anim
    7 0.000000 -1.187536 1.984436 0.034227 0.095386 -0.084372   # pos: anim   rot: anim
    8 0.000000 0.000000 0.000000 -0.261743 0.000000 0.000000   # pos: delta   rot: anim
    9 0.000000 -2.257881 0.652364 -0.034228 0.095383 0.084369   # pos: anim   rot: anim
    10 0.000000 0.000000 0.000000 0.000000 0.000000 0.000000   # pos: desc_delta   rot: desc_delta
    11 0.000000 -1.121128 -2.023499 0.002301 0.016960 0.126174   # pos: anim   rot: anim
    12 0.000000 -1.660207 -1.605518 0.061551 -0.113666 -0.060784   # pos: anim   rot: anim
    13 0.000000 2.312571 0.039064 0.062030 -0.114811 -0.055127   # pos: anim   rot: anim
    14 0.000000 -0.558611 2.242256 0.001342 0.012000 0.126745   # pos: anim   rot: anim
    15 0.000000 1.136753 2.058657 -0.001342 0.012000 -0.126749   # pos: anim   rot: anim
    16 0.000000 0.000000 0.000000 0.000000 0.000000 0.000000   # pos: desc_delta   rot: desc_delta
    17 0.000000 2.222724 -0.636738 0.037488 0.099307 -0.079769   # pos: anim   rot: anim
    18 0.000000 0.000000 0.000000 0.000000 0.000000 0.000000   # pos: desc_delta   rot: desc_delta
    19 0.000000 0.000000 0.000000 0.000000 0.000000 0.000000   # pos: desc_delta   rot: desc_delta
    20 0.000000 0.000000 0.000000 0.785326 0.000000 0.000000   # pos: delta   rot: anim
    21 0.000000 0.000000 0.000000 0.000000 0.000000 0.000000   # pos: desc_delta   rot: desc_delta
    22 0.000000 0.000000 0.000000 0.000000 0.000000 0.000000   # pos: desc_delta   rot: desc_delta
    23 0.000000 0.000000 0.000000 0.000000 0.000000 0.000000   # pos: desc_delta   rot: desc_delta
    24 0.000000 0.000000 0.000000 0.000000 0.000000 0.000000   # pos: desc_delta   rot: desc_delta
    25 0.000000 0.000000 0.000000 0.000000 0.000000 0.000000   # pos: desc_delta   rot: desc_delta
    26 0.000000 0.000000 0.000000 0.000000 0.000000 0.000000   # pos: desc_delta   rot: desc_delta
    27 0.000000 0.000000 0.000000 0.000000 0.000000 0.000000   # pos: desc_delta   rot: desc_delta
    28 0.000000 0.000000 0.000000 0.000000 0.000000 0.000000   # pos: desc_delta   rot: desc_delta
    29 0.000000 0.000000 0.000000 0.000000 0.000000 0.000000   # pos: desc_delta   rot: desc_delta
    30 0.000000 0.000000 0.000000 0.000000 0.000000 0.000000   # pos: desc_delta   rot: desc_delta
    31 0.000000 0.000000 0.000000 0.000000 0.000000 0.000000   # pos: desc_delta   rot: desc_delta
    32 0.000000 0.000000 0.000000 0.000000 0.000000 0.000000   # pos: desc_delta   rot: desc_delta
    33 0.000000 0.000000 0.000000 0.000000 0.000000 0.000000   # pos: desc_delta   rot: desc_delta
    34 0.000000 0.000000 0.000000 0.000000 0.000000 0.000000   # pos: desc_delta   rot: desc_delta
    35 0.000000 0.000000 0.000000 0.000000 0.000000 0.000000   # pos: desc_delta   rot: desc_delta
    36 0.000000 0.000000 0.000000 0.000000 0.000000 0.000000   # pos: desc_delta   rot: desc_delta
    37 0.000000 0.000000 0.000000 0.000000 0.000000 0.000000   # pos: desc_delta   rot: desc_delta
    38 0.000000 0.000000 0.000000 0.000000 0.000000 0.000000   # pos: desc_delta   rot: desc_delta
    39 0.000000 0.000000 0.000000 0.000000 0.000000 0.000000   # pos: desc_delta   rot: desc_delta
    40 0.000000 0.000000 0.000000 0.000000 0.000000 0.000000   # pos: desc_delta   rot: desc_delta
    41 0.000000 0.000000 0.000000 0.000000 0.000000 0.000000   # pos: desc_delta   rot: desc_delta
    42 0.000000 0.000000 0.000000 0.000000 0.000000 0.000000   # pos: desc_delta   rot: desc_delta
    43 0.000000 0.000000 0.000000 0.000000 0.000000 0.000000   # pos: desc_delta   rot: desc_delta
    44 0.000000 0.000000 0.000000 0.000000 0.000000 0.000000   # pos: desc_delta   rot: desc_delta
    45 0.000000 0.000000 0.000000 0.000000 0.000000 0.000000   # pos: desc_delta   rot: desc_delta
    46 0.000000 0.000000 0.000000 0.000000 0.000000 0.000000   # pos: desc_delta   rot: desc_delta
    47 0.000000 0.000000 0.000000 0.000000 0.000000 0.000000   # pos: desc_delta   rot: desc_delta
    48 0.000000 0.000000 0.000000 0.000000 0.000000 0.000000   # pos: desc_delta   rot: desc_delta
    49 0.000000 0.000000 0.000000 0.000000 0.000000 0.000000   # pos: desc_delta   rot: desc_delta
    50 0.000000 0.000000 0.000000 0.000000 0.000000 0.000000   # pos: desc_delta   rot: desc_delta
    51 0.000000 0.000000 0.000000 0.000000 0.000000 0.000000   # pos: desc_delta   rot: desc_delta
    52 0.000000 0.000000 0.000000 0.000000 0.000000 0.000000   # pos: desc_delta   rot: desc_delta
    53 0.000000 0.000000 0.000000 0.000000 0.000000 0.000000   # pos: desc_delta   rot: desc_delta
    54 0.000000 0.000000 0.000000 0.000000 0.000000 0.000000   # pos: desc_delta   rot: desc_delta
    55 0.000000 0.000000 0.000000 0.000000 0.000000 0.000000   # pos: desc_delta   rot: desc_delta
  time 2
    0 0.000000 0.000000 0.000000 0.000000 0.000000 0.000000   # pos: desc_delta   rot: desc_delta
    1 0.000000 0.000000 0.000000 0.000000 0.000000 0.000000   # pos: desc_delta   rot: desc_delta
    2 0.000000 1.695364 1.628956 -0.062030 -0.114815 0.055129   # pos: anim   rot: anim
    3 0.000000 0.000000 0.000000 0.000000 0.000000 0.000000   # pos: desc_delta   rot: desc_delta
    4 0.000000 1.214881 -2.011780 -0.037488 0.099304 0.079767   # pos: anim   rot: anim
    5 0.000000 0.589862 -2.289132 -0.002301 0.016960 -0.126170   # pos: anim   rot: anim
    6 0.000000 -2.351634 -0.015625 -0.061551 -0.113669 0.060786   # pos: anim   rot: anim
    7 0.000000 -1.187536 1.984436 0.034227 0.095386 -0.084372   # pos: anim   rot: anim
    8 0.000000 0.000000 0.000000 -0.261743 0.000000 0.000000   # pos: delta   rot: anim
    9 0.000000 -2.257881 0.652364 -0.034228 0.095383 0.084369   # pos: anim   rot: anim
    10 0.000000 0.000000 0.000000 0.000000 0.000000 0.000000   # pos: desc_delta   rot: desc_delta
    11 0.000000 -1.121128 -2.023499 0.002301 0.016960 0.126174   # pos: anim   rot: anim
    12 0.000000 -1.660207 -1.605518 0.061551 -0.113666 -0.060784   # pos: anim   rot: anim
    13 0.000000 2.312571 0.039064 0.062030 -0.114811 -0.055127   # pos: anim   rot: anim
    14 0.000000 -0.558611 2.242256 0.001342 0.012000 0.126745   # pos: anim   rot: anim
    15 0.000000 1.136753 2.058657 -0.001342 0.012000 -0.126749   # pos: anim   rot: anim
    16 0.000000 0.000000 0.000000 0.000000 0.000000 0.000000   # pos: desc_delta   rot: desc_delta
    17 0.000000 2.222724 -0.636738 0.037488 0.099307 -0.079769   # pos: anim   rot: anim
    18 0.000000 0.000000 0.000000 0.000000 0.000000 0.000000   # pos: desc_delta   rot: desc_delta
    19 0.000000 0.000000 0.000000 0.000000 0.000000 0.000000   # pos: desc_delta   rot: desc_delta
    20 0.000000 0.000000 0.000000 0.785326 0.000000 0.000000   # pos: delta   rot: anim
    21 0.000000 0.000000 0.000000 0.000000 0.000000 0.000000   # pos: desc_delta   rot: desc_delta
    22 0.000000 0.000000 0.000000 0.000000 0.000000 0.000000   # pos: desc_delta   rot: desc_delta
    23 0.000000 0.000000 0.000000 0.000000 0.000000 0.000000   # pos: desc_delta   rot: desc_delta
    24 0.000000 0.000000 0.000000 0.000000 0.000000 0.000000   # pos: desc_delta   rot: desc_delta
    25 0.000000 0.000000 0.000000 0.000000 0.000000 0.000000   # pos: desc_delta   rot: desc_delta
    26 0.000000 0.000000 0.000000 0.000000 0.000000 0.000000   # pos: desc_delta   rot: desc_delta
    27 0.000000 0.000000 0.000000 0.000000 0.000000 0.000000   # pos: desc_delta   rot: desc_delta
    28 0.000000 0.000000 0.000000 0.000000 0.000000 0.000000   # pos: desc_delta   rot: desc_delta
    29 0.000000 0.000000 0.000000 0.000000 0.000000 0.000000   # pos: desc_delta   rot: desc_delta
    30 0.000000 0.000000 0.000000 0.000000 0.000000 0.000000   # pos: desc_delta   rot: desc_delta
    31 0.000000 0.000000 0.000000 0.000000 0.000000 0.000000   # pos: desc_delta   rot: desc_delta
    32 0.000000 0.000000 0.000000 0.000000 0.000000 0.000000   # pos: desc_delta   rot: desc_delta
    33 0.000000 0.000000 0.000000 0.000000 0.000000 0.000000   # pos: desc_delta   rot: desc_delta
    34 0.000000 0.000000 0.000000 0.000000 0.000000 0.000000   # pos: desc_delta   rot: desc_delta
    35 0.000000 0.000000 0.000000 0.000000 0.000000 0.000000   # pos: desc_delta   rot: desc_delta
    36 0.000000 0.000000 0.000000 0.000000 0.000000 0.000000   # pos: desc_delta   rot: desc_delta
    37 0.000000 0.000000 0.000000 0.000000 0.000000 0.000000   # pos: desc_delta   rot: desc_delta
    38 0.000000 0.000000 0.000000 0.000000 0.000000 0.000000   # pos: desc_delta   rot: desc_delta
    39 0.000000 0.000000 0.000000 0.000000 0.000000 0.000000   # pos: desc_delta   rot: desc_delta
    40 0.000000 0.000000 0.000000 0.000000 0.000000 0.000000   # pos: desc_delta   rot: desc_delta
    41 0.000000 0.000000 0.000000 0.000000 0.000000 0.000000   # pos: desc_delta   rot: desc_delta
    42 0.000000 0.000000 0.000000 0.000000 0.000000 0.000000   # pos: desc_delta   rot: desc_delta
    43 0.000000 0.000000 0.000000 0.000000 0.000000 0.000000   # pos: desc_delta   rot: desc_delta
    44 0.000000 0.000000 0.000000 0.000000 0.000000 0.000000   # pos: desc_delta   rot: desc_delta
    45 0.000000 0.000000 0.000000 0.000000 0.000000 0.000000   # pos: desc_delta   rot: desc_delta
    46 0.000000 0.000000 0.000000 0.000000 0.000000 0.000000   # pos: desc_delta   rot: desc_delta
    47 0.000000 0.000000 0.000000 0.000000 0.000000 0.000000   # pos: desc_delta   rot: desc_delta
    48 0.000000 0.000000 0.000000 0.000000 0.000000 0.000000   # pos: desc_delta   rot: desc_delta
    49 0.000000 0.000000 0.000000 0.000000 0.000000 0.000000   # pos: desc_delta   rot: desc_delta
    50 0.000000 0.000000 0.000000 0.000000 0.000000 0.000000   # pos: desc_delta   rot: desc_delta
    51 0.000000 0.000000 0.000000 0.000000 0.000000 0.000000   # pos: desc_delta   rot: desc_delta
    52 0.000000 0.000000 0.000000 0.000000 0.000000 0.000000   # pos: desc_delta   rot: desc_delta
    53 0.000000 0.000000 0.000000 0.000000 0.000000 0.000000   # pos: desc_delta   rot: desc_delta
    54 0.000000 0.000000 0.000000 0.000000 0.000000 0.000000   # pos: desc_delta   rot: desc_delta
    55 0.000000 0.000000 0.000000 0.000000 0.000000 0.000000   # pos: desc_delta   rot: desc_delta
  time 3
    0 0.000000 0.000000 0.000000 0.000000 0.000000 0.000000   # pos: desc_delta   rot: desc_delta
    1 0.000000 0.000000 0.000000 0.000000 0.000000 0.000000   # pos: desc_delta   rot: desc_delta
    2 0.000000 1.695364 1.628956 -0.062030 -0.114815 0.055129   # pos: anim   rot: anim
    3 0.000000 0.000000 0.000000 0.000000 0.000000 0.000000   # pos: desc_delta   rot: desc_delta
    4 0.000000 1.214881 -2.011780 -0.037488 0.099304 0.079767   # pos: anim   rot: anim
    5 0.000000 0.589862 -2.289132 -0.002301 0.016960 -0.126170   # pos: anim   rot: anim
    6 0.000000 -2.351634 -0.015625 -0.061551 -0.113669 0.060786   # pos: anim   rot: anim
    7 0.000000 -1.187536 1.984436 0.034227 0.095386 -0.084372   # pos: anim   rot: anim
    8 0.000000 0.000000 0.000000 -0.261743 0.000000 0.000000   # pos: delta   rot: anim
    9 0.000000 -2.257881 0.652364 -0.034228 0.095383 0.084369   # pos: anim   rot: anim
    10 0.000000 0.000000 0.000000 0.000000 0.000000 0.000000   # pos: desc_delta   rot: desc_delta
    11 0.000000 -1.121128 -2.023499 0.002301 0.016960 0.126174   # pos: anim   rot: anim
    12 0.000000 -1.660207 -1.605518 0.061551 -0.113666 -0.060784   # pos: anim   rot: anim
    13 0.000000 2.312571 0.039064 0.062030 -0.114811 -0.055127   # pos: anim   rot: anim
    14 0.000000 -0.558611 2.242256 0.001342 0.012000 0.126745   # pos: anim   rot: anim
    15 0.000000 1.136753 2.058657 -0.001342 0.012000 -0.126749   # pos: anim   rot: anim
    16 0.000000 0.000000 0.000000 0.000000 0.000000 0.000000   # pos: desc_delta   rot: desc_delta
    17 0.000000 2.222724 -0.636738 0.037488 0.099307 -0.079769   # pos: anim   rot: anim
    18 0.000000 0.000000 0.000000 0.000000 0.000000 0.000000   # pos: desc_delta   rot: desc_delta
    19 0.000000 0.000000 0.000000 0.000000 0.000000 0.000000   # pos: desc_delta   rot: desc_delta
    20 0.000000 0.000000 0.000000 0.785326 0.000000 0.000000   # pos: delta   rot: anim
    21 0.000000 0.000000 0.000000 0.000000 0.000000 0.000000   # pos: desc_delta   rot: desc_delta
    22 0.000000 0.000000 0.000000 0.000000 0.000000 0.000000   # pos: desc_delta   rot: desc_delta
    23 0.000000 0.000000 0.000000 0.000000 0.000000 0.000000   # pos: desc_delta   rot: desc_delta
    24 0.000000 0.000000 0.000000 0.000000 0.000000 0.000000   # pos: desc_delta   rot: desc_delta
    25 0.000000 0.000000 0.000000 0.000000 0.000000 0.000000   # pos: desc_delta   rot: desc_delta
    26 0.000000 0.000000 0.000000 0.000000 0.000000 0.000000   # pos: desc_delta   rot: desc_delta
    27 0.000000 0.000000 0.000000 0.000000 0.000000 0.000000   # pos: desc_delta   rot: desc_delta
    28 0.000000 0.000000 0.000000 0.000000 0.000000 0.000000   # pos: desc_delta   rot: desc_delta
    29 0.000000 0.000000 0.000000 0.000000 0.000000 0.000000   # pos: desc_delta   rot: desc_delta
    30 0.000000 0.000000 0.000000 0.000000 0.000000 0.000000   # pos: desc_delta   rot: desc_delta
    31 0.000000 0.000000 0.000000 0.000000 0.000000 0.000000   # pos: desc_delta   rot: desc_delta
    32 0.000000 0.000000 0.000000 0.000000 0.000000 0.000000   # pos: desc_delta   rot: desc_delta
    33 0.000000 0.000000 0.000000 0.000000 0.000000 0.000000   # pos: desc_delta   rot: desc_delta
    34 0.000000 0.000000 0.000000 0.000000 0.000000 0.000000   # pos: desc_delta   rot: desc_delta
    35 0.000000 0.000000 0.000000 0.000000 0.000000 0.000000   # pos: desc_delta   rot: desc_delta
    36 0.000000 0.000000 0.000000 0.000000 0.000000 0.000000   # pos: desc_delta   rot: desc_delta
    37 0.000000 0.000000 0.000000 0.000000 0.000000 0.000000   # pos: desc_delta   rot: desc_delta
    38 0.000000 0.000000 0.000000 0.000000 0.000000 0.000000   # pos: desc_delta   rot: desc_delta
    39 0.000000 0.000000 0.000000 0.000000 0.000000 0.000000   # pos: desc_delta   rot: desc_delta
    40 0.000000 0.000000 0.000000 0.000000 0.000000 0.000000   # pos: desc_delta   rot: desc_delta
    41 0.000000 0.000000 0.000000 0.000000 0.000000 0.000000   # pos: desc_delta   rot: desc_delta
    42 0.000000 0.000000 0.000000 0.000000 0.000000 0.000000   # pos: desc_delta   rot: desc_delta
    43 0.000000 0.000000 0.000000 0.000000 0.000000 0.000000   # pos: desc_delta   rot: desc_delta
    44 0.000000 0.000000 0.000000 0.000000 0.000000 0.000000   # pos: desc_delta   rot: desc_delta
    45 0.000000 0.000000 0.000000 0.000000 0.000000 0.000000   # pos: desc_delta   rot: desc_delta
    46 0.000000 0.000000 0.000000 0.000000 0.000000 0.000000   # pos: desc_delta   rot: desc_delta
    47 0.000000 0.000000 0.000000 0.000000 0.000000 0.000000   # pos: desc_delta   rot: desc_delta
    48 0.000000 0.000000 0.000000 0.000000 0.000000 0.000000   # pos: desc_delta   rot: desc_delta
    49 0.000000 0.000000 0.000000 0.000000 0.000000 0.000000   # pos: desc_delta   rot: desc_delta
    50 0.000000 0.000000 0.000000 0.000000 0.000000 0.000000   # pos: desc_delta   rot: desc_delta
    51 0.000000 0.000000 0.000000 0.000000 0.000000 0.000000   # pos: desc_delta   rot: desc_delta
    52 0.000000 0.000000 0.000000 0.000000 0.000000 0.000000   # pos: desc_delta   rot: desc_delta
    53 0.000000 0.000000 0.000000 0.000000 0.000000 0.000000   # pos: desc_delta   rot: desc_delta
    54 0.000000 0.000000 0.000000 0.000000 0.000000 0.000000   # pos: desc_delta   rot: desc_delta
    55 0.000000 0.000000 0.000000 0.000000 0.000000 0.000000   # pos: desc_delta   rot: desc_delta
  time 4
    0 0.000000 0.000000 0.000000 0.000000 0.000000 0.000000   # pos: desc_delta   rot: desc_delta
    1 0.000000 0.000000 0.000000 0.000000 0.000000 0.000000   # pos: desc_delta   rot: desc_delta
    2 0.000000 1.695364 1.628956 -0.062030 -0.114815 0.055129   # pos: anim   rot: anim
    3 0.000000 0.000000 0.000000 0.000000 0.000000 0.000000   # pos: desc_delta   rot: desc_delta
    4 0.000000 1.214881 -2.011780 -0.037488 0.099304 0.079767   # pos: anim   rot: anim
    5 0.000000 0.589862 -2.289132 -0.002301 0.016960 -0.126170   # pos: anim   rot: anim
    6 0.000000 -2.351634 -0.015625 -0.061551 -0.113669 0.060786   # pos: anim   rot: anim
    7 0.000000 -1.187536 1.984436 0.034227 0.095386 -0.084372   # pos: anim   rot: anim
    8 0.000000 0.000000 0.000000 -0.261743 0.000000 0.000000   # pos: delta   rot: anim
    9 0.000000 -2.257881 0.652364 -0.034228 0.095383 0.084369   # pos: anim   rot: anim
    10 0.000000 0.000000 0.000000 0.000000 0.000000 0.000000   # pos: desc_delta   rot: desc_delta
    11 0.000000 -1.121128 -2.023499 0.002301 0.016960 0.126174   # pos: anim   rot: anim
    12 0.000000 -1.660207 -1.605518 0.061551 -0.113666 -0.060784   # pos: anim   rot: anim
    13 0.000000 2.312571 0.039064 0.062030 -0.114811 -0.055127   # pos: anim   rot: anim
    14 0.000000 -0.558611 2.242256 0.001342 0.012000 0.126745   # pos: anim   rot: anim
    15 0.000000 1.136753 2.058657 -0.001342 0.012000 -0.126749   # pos: anim   rot: anim
    16 0.000000 0.000000 0.000000 0.000000 0.000000 0.000000   # pos: desc_delta   rot: desc_delta
    17 0.000000 2.222724 -0.636738 0.037488 0.099307 -0.079769   # pos: anim   rot: anim
    18 0.000000 0.000000 0.000000 0.000000 0.000000 0.000000   # pos: desc_delta   rot: desc_delta
    19 0.000000 0.000000 0.000000 0.000000 0.000000 0.000000   # pos: desc_delta   rot: desc_delta
    20 0.000000 0.000000 0.000000 0.785326 0.000000 0.000000   # pos: delta   rot: anim
    21 0.000000 0.000000 0.000000 0.000000 0.000000 0.000000   # pos: desc_delta   rot: desc_delta
    22 0.000000 0.000000 0.000000 0.000000 0.000000 0.000000   # pos: desc_delta   rot: desc_delta
    23 0.000000 0.000000 0.000000 0.000000 0.000000 0.000000   # pos: desc_delta   rot: desc_delta
    24 0.000000 0.000000 0.000000 0.000000 0.000000 0.000000   # pos: desc_delta   rot: desc_delta
    25 0.000000 0.000000 0.000000 0.000000 0.000000 0.000000   # pos: desc_delta   rot: desc_delta
    26 0.000000 0.000000 0.000000 0.000000 0.000000 0.000000   # pos: desc_delta   rot: desc_delta
    27 0.000000 0.000000 0.000000 0.000000 0.000000 0.000000   # pos: desc_delta   rot: desc_delta
    28 0.000000 0.000000 0.000000 0.000000 0.000000 0.000000   # pos: desc_delta   rot: desc_delta
    29 0.000000 0.000000 0.000000 0.000000 0.000000 0.000000   # pos: desc_delta   rot: desc_delta
    30 0.000000 0.000000 0.000000 0.000000 0.000000 0.000000   # pos: desc_delta   rot: desc_delta
    31 0.000000 0.000000 0.000000 0.000000 0.000000 0.000000   # pos: desc_delta   rot: desc_delta
    32 0.000000 0.000000 0.000000 0.000000 0.000000 0.000000   # pos: desc_delta   rot: desc_delta
    33 0.000000 0.000000 0.000000 0.000000 0.000000 0.000000   # pos: desc_delta   rot: desc_delta
    34 0.000000 0.000000 0.000000 0.000000 0.000000 0.000000   # pos: desc_delta   rot: desc_delta
    35 0.000000 0.000000 0.000000 0.000000 0.000000 0.000000   # pos: desc_delta   rot: desc_delta
    36 0.000000 0.000000 0.000000 0.000000 0.000000 0.000000   # pos: desc_delta   rot: desc_delta
    37 0.000000 0.000000 0.000000 0.000000 0.000000 0.000000   # pos: desc_delta   rot: desc_delta
    38 0.000000 0.000000 0.000000 0.000000 0.000000 0.000000   # pos: desc_delta   rot: desc_delta
    39 0.000000 0.000000 0.000000 0.000000 0.000000 0.000000   # pos: desc_delta   rot: desc_delta
    40 0.000000 0.000000 0.000000 0.000000 0.000000 0.000000   # pos: desc_delta   rot: desc_delta
    41 0.000000 0.000000 0.000000 0.000000 0.000000 0.000000   # pos: desc_delta   rot: desc_delta
    42 0.000000 0.000000 0.000000 0.000000 0.000000 0.000000   # pos: desc_delta   rot: desc_delta
    43 0.000000 0.000000 0.000000 0.000000 0.000000 0.000000   # pos: desc_delta   rot: desc_delta
    44 0.000000 0.000000 0.000000 0.000000 0.000000 0.000000   # pos: desc_delta   rot: desc_delta
    45 0.000000 0.000000 0.000000 0.000000 0.000000 0.000000   # pos: desc_delta   rot: desc_delta
    46 0.000000 0.000000 0.000000 0.000000 0.000000 0.000000   # pos: desc_delta   rot: desc_delta
    47 0.000000 0.000000 0.000000 0.000000 0.000000 0.000000   # pos: desc_delta   rot: desc_delta
    48 0.000000 0.000000 0.000000 0.000000 0.000000 0.000000   # pos: desc_delta   rot: desc_delta
    49 0.000000 0.000000 0.000000 0.000000 0.000000 0.000000   # pos: desc_delta   rot: desc_delta
    50 0.000000 0.000000 0.000000 0.000000 0.000000 0.000000   # pos: desc_delta   rot: desc_delta
    51 0.000000 0.000000 0.000000 0.000000 0.000000 0.000000   # pos: desc_delta   rot: desc_delta
    52 0.000000 0.000000 0.000000 0.000000 0.000000 0.000000   # pos: desc_delta   rot: desc_delta
    53 0.000000 0.000000 0.000000 0.000000 0.000000 0.000000   # pos: desc_delta   rot: desc_delta
    54 0.000000 0.000000 0.000000 0.000000 0.000000 0.000000   # pos: desc_delta   rot: desc_delta
    55 0.000000 0.000000 0.000000 0.000000 0.000000 0.000000   # pos: desc_delta   rot: desc_delta
  time 5
    0 0.000000 0.000000 0.000000 0.000000 0.000000 0.000000   # pos: desc_delta   rot: desc_delta
    1 0.000000 0.000000 0.000000 0.000000 0.000000 0.000000   # pos: desc_delta   rot: desc_delta
    2 0.000000 1.695364 1.628956 -0.062030 -0.114815 0.055129   # pos: anim   rot: anim
    3 0.000000 0.000000 0.000000 0.000000 0.000000 0.000000   # pos: desc_delta   rot: desc_delta
    4 0.000000 1.214881 -2.011780 -0.037488 0.099304 0.079767   # pos: anim   rot: anim
    5 0.000000 0.589862 -2.289132 -0.002301 0.016960 -0.126170   # pos: anim   rot: anim
    6 0.000000 -2.351634 -0.015625 -0.061551 -0.113669 0.060786   # pos: anim   rot: anim
    7 0.000000 -1.187536 1.984436 0.034227 0.095386 -0.084372   # pos: anim   rot: anim
    8 0.000000 0.000000 0.000000 -0.261743 0.000000 0.000000   # pos: delta   rot: anim
    9 0.000000 -2.257881 0.652364 -0.034228 0.095383 0.084369   # pos: anim   rot: anim
    10 0.000000 0.000000 0.000000 0.000000 0.000000 0.000000   # pos: desc_delta   rot: desc_delta
    11 0.000000 -1.121128 -2.023499 0.002301 0.016960 0.126174   # pos: anim   rot: anim
    12 0.000000 -1.660207 -1.605518 0.061551 -0.113666 -0.060784   # pos: anim   rot: anim
    13 0.000000 2.312571 0.039064 0.062030 -0.114811 -0.055127   # pos: anim   rot: anim
    14 0.000000 -0.558611 2.242256 0.001342 0.012000 0.126745   # pos: anim   rot: anim
    15 0.000000 1.136753 2.058657 -0.001342 0.012000 -0.126749   # pos: anim   rot: anim
    16 0.000000 0.000000 0.000000 0.000000 0.000000 0.000000   # pos: desc_delta   rot: desc_delta
    17 0.000000 2.222724 -0.636738 0.037488 0.099307 -0.079769   # pos: anim   rot: anim
    18 0.000000 0.000000 0.000000 0.000000 0.000000 0.000000   # pos: desc_delta   rot: desc_delta
    19 0.000000 0.000000 0.000000 0.000000 0.000000 0.000000   # pos: desc_delta   rot: desc_delta
    20 0.000000 0.000000 0.000000 0.785326 0.000000 0.000000   # pos: delta   rot: anim
    21 0.000000 0.000000 0.000000 0.000000 0.000000 0.000000   # pos: desc_delta   rot: desc_delta
    22 0.000000 0.000000 0.000000 0.000000 0.000000 0.000000   # pos: desc_delta   rot: desc_delta
    23 0.000000 0.000000 0.000000 0.000000 0.000000 0.000000   # pos: desc_delta   rot: desc_delta
    24 0.000000 0.000000 0.000000 0.000000 0.000000 0.000000   # pos: desc_delta   rot: desc_delta
    25 0.000000 0.000000 0.000000 0.000000 0.000000 0.000000   # pos: desc_delta   rot: desc_delta
    26 0.000000 0.000000 0.000000 0.000000 0.000000 0.000000   # pos: desc_delta   rot: desc_delta
    27 0.000000 0.000000 0.000000 0.000000 0.000000 0.000000   # pos: desc_delta   rot: desc_delta
    28 0.000000 0.000000 0.000000 0.000000 0.000000 0.000000   # pos: desc_delta   rot: desc_delta
    29 0.000000 0.000000 0.000000 0.000000 0.000000 0.000000   # pos: desc_delta   rot: desc_delta
    30 0.000000 0.000000 0.000000 0.000000 0.000000 0.000000   # pos: desc_delta   rot: desc_delta
    31 0.000000 0.000000 0.000000 0.000000 0.000000 0.000000   # pos: desc_delta   rot: desc_delta
    32 0.000000 0.000000 0.000000 0.000000 0.000000 0.000000   # pos: desc_delta   rot: desc_delta
    33 0.000000 0.000000 0.000000 0.000000 0.000000 0.000000   # pos: desc_delta   rot: desc_delta
    34 0.000000 0.000000 0.000000 0.000000 0.000000 0.000000   # pos: desc_delta   rot: desc_delta
    35 0.000000 0.000000 0.000000 0.000000 0.000000 0.000000   # pos: desc_delta   rot: desc_delta
    36 0.000000 0.000000 0.000000 0.000000 0.000000 0.000000   # pos: desc_delta   rot: desc_delta
    37 0.000000 0.000000 0.000000 0.000000 0.000000 0.000000   # pos: desc_delta   rot: desc_delta
    38 0.000000 0.000000 0.000000 0.000000 0.000000 0.000000   # pos: desc_delta   rot: desc_delta
    39 0.000000 0.000000 0.000000 0.000000 0.000000 0.000000   # pos: desc_delta   rot: desc_delta
    40 0.000000 0.000000 0.000000 0.000000 0.000000 0.000000   # pos: desc_delta   rot: desc_delta
    41 0.000000 0.000000 0.000000 0.000000 0.000000 0.000000   # pos: desc_delta   rot: desc_delta
    42 0.000000 0.000000 0.000000 0.000000 0.000000 0.000000   # pos: desc_delta   rot: desc_delta
    43 0.000000 0.000000 0.000000 0.000000 0.000000 0.000000   # pos: desc_delta   rot: desc_delta
    44 0.000000 0.000000 0.000000 0.000000 0.000000 0.000000   # pos: desc_delta   rot: desc_delta
    45 0.000000 0.000000 0.000000 0.000000 0.000000 0.000000   # pos: desc_delta   rot: desc_delta
    46 0.000000 0.000000 0.000000 0.000000 0.000000 0.000000   # pos: desc_delta   rot: desc_delta
    47 0.000000 0.000000 0.000000 0.000000 0.000000 0.000000   # pos: desc_delta   rot: desc_delta
    48 0.000000 0.000000 0.000000 0.000000 0.000000 0.000000   # pos: desc_delta   rot: desc_delta
    49 0.000000 0.000000 0.000000 0.000000 0.000000 0.000000   # pos: desc_delta   rot: desc_delta
    50 0.000000 0.000000 0.000000 0.000000 0.000000 0.000000   # pos: desc_delta   rot: desc_delta
    51 0.000000 0.000000 0.000000 0.000000 0.000000 0.000000   # pos: desc_delta   rot: desc_delta
    52 0.000000 0.000000 0.000000 0.000000 0.000000 0.000000   # pos: desc_delta   rot: desc_delta
    53 0.000000 0.000000 0.000000 0.000000 0.000000 0.000000   # pos: desc_delta   rot: desc_delta
    54 0.000000 0.000000 0.000000 0.000000 0.000000 0.000000   # pos: desc_delta   rot: desc_delta
    55 0.000000 0.000000 0.000000 0.000000 0.000000 0.000000   # pos: desc_delta   rot: desc_delta
  time 6
    0 0.000000 0.000000 0.000000 0.000000 0.000000 0.000000   # pos: desc_delta   rot: desc_delta
    1 0.000000 0.000000 0.000000 0.000000 0.000000 0.000000   # pos: desc_delta   rot: desc_delta
    2 0.000000 1.695364 1.628956 -0.062030 -0.114815 0.055129   # pos: anim   rot: anim
    3 0.000000 0.000000 0.000000 0.000000 0.000000 0.000000   # pos: desc_delta   rot: desc_delta
    4 0.000000 1.214881 -2.011780 -0.037488 0.099304 0.079767   # pos: anim   rot: anim
    5 0.000000 0.589862 -2.289132 -0.002301 0.016960 -0.126170   # pos: anim   rot: anim
    6 0.000000 -2.351634 -0.015625 -0.061551 -0.113669 0.060786   # pos: anim   rot: anim
    7 0.000000 -1.187536 1.984436 0.034227 0.095386 -0.084372   # pos: anim   rot: anim
    8 0.000000 0.000000 0.000000 -0.261743 0.000000 0.000000   # pos: delta   rot: anim
    9 0.000000 -2.257881 0.652364 -0.034228 0.095383 0.084369   # pos: anim   rot: anim
    10 0.000000 0.000000 0.000000 0.000000 0.000000 0.000000   # pos: desc_delta   rot: desc_delta
    11 0.000000 -1.121128 -2.023499 0.002301 0.016960 0.126174   # pos: anim   rot: anim
    12 0.000000 -1.660207 -1.605518 0.061551 -0.113666 -0.060784   # pos: anim   rot: anim
    13 0.000000 2.312571 0.039064 0.062030 -0.114811 -0.055127   # pos: anim   rot: anim
    14 0.000000 -0.558611 2.242256 0.001342 0.012000 0.126745   # pos: anim   rot: anim
    15 0.000000 1.136753 2.058657 -0.001342 0.012000 -0.126749   # pos: anim   rot: anim
    16 0.000000 0.000000 0.000000 0.000000 0.000000 0.000000   # pos: desc_delta   rot: desc_delta
    17 0.000000 2.222724 -0.636738 0.037488 0.099307 -0.079769   # pos: anim   rot: anim
    18 0.000000 0.000000 0.000000 0.000000 0.000000 0.000000   # pos: desc_delta   rot: desc_delta
    19 0.000000 0.000000 0.000000 0.000000 0.000000 0.000000   # pos: desc_delta   rot: desc_delta
    20 0.000000 0.000000 0.000000 0.785326 0.000000 0.000000   # pos: delta   rot: anim
    21 0.000000 0.000000 0.000000 0.000000 0.000000 0.000000   # pos: desc_delta   rot: desc_delta
    22 0.000000 0.000000 0.000000 0.000000 0.000000 0.000000   # pos: desc_delta   rot: desc_delta
    23 0.000000 0.000000 0.000000 0.000000 0.000000 0.000000   # pos: desc_delta   rot: desc_delta
    24 0.000000 0.000000 0.000000 0.000000 0.000000 0.000000   # pos: desc_delta   rot: desc_delta
    25 0.000000 0.000000 0.000000 0.000000 0.000000 0.000000   # pos: desc_delta   rot: desc_delta
    26 0.000000 0.000000 0.000000 0.000000 0.000000 0.000000   # pos: desc_delta   rot: desc_delta
    27 0.000000 0.000000 0.000000 0.000000 0.000000 0.000000   # pos: desc_delta   rot: desc_delta
    28 0.000000 0.000000 0.000000 0.000000 0.000000 0.000000   # pos: desc_delta   rot: desc_delta
    29 0.000000 0.000000 0.000000 0.000000 0.000000 0.000000   # pos: desc_delta   rot: desc_delta
    30 0.000000 0.000000 0.000000 0.000000 0.000000 0.000000   # pos: desc_delta   rot: desc_delta
    31 0.000000 0.000000 0.000000 0.000000 0.000000 0.000000   # pos: desc_delta   rot: desc_delta
    32 0.000000 0.000000 0.000000 0.000000 0.000000 0.000000   # pos: desc_delta   rot: desc_delta
    33 0.000000 0.000000 0.000000 0.000000 0.000000 0.000000   # pos: desc_delta   rot: desc_delta
    34 0.000000 0.000000 0.000000 0.000000 0.000000 0.000000   # pos: desc_delta   rot: desc_delta
    35 0.000000 0.000000 0.000000 0.000000 0.000000 0.000000   # pos: desc_delta   rot: desc_delta
    36 0.000000 0.000000 0.000000 0.000000 0.000000 0.000000   # pos: desc_delta   rot: desc_delta
    37 0.000000 0.000000 0.000000 0.000000 0.000000 0.000000   # pos: desc_delta   rot: desc_delta
    38 0.000000 0.000000 0.000000 0.000000 0.000000 0.000000   # pos: desc_delta   rot: desc_delta
    39 0.000000 0.000000 0.000000 0.000000 0.000000 0.000000   # pos: desc_delta   rot: desc_delta
    40 0.000000 0.000000 0.000000 0.000000 0.000000 0.000000   # pos: desc_delta   rot: desc_delta
    41 0.000000 0.000000 0.000000 0.000000 0.000000 0.000000   # pos: desc_delta   rot: desc_delta
    42 0.000000 0.000000 0.000000 0.000000 0.000000 0.000000   # pos: desc_delta   rot: desc_delta
    43 0.000000 0.000000 0.000000 0.000000 0.000000 0.000000   # pos: desc_delta   rot: desc_delta
    44 0.000000 0.000000 0.000000 0.000000 0.000000 0.000000   # pos: desc_delta   rot: desc_delta
    45 0.000000 0.000000 0.000000 0.000000 0.000000 0.000000   # pos: desc_delta   rot: desc_delta
    46 0.000000 0.000000 0.000000 0.000000 0.000000 0.000000   # pos: desc_delta   rot: desc_delta
    47 0.000000 0.000000 0.000000 0.000000 0.000000 0.000000   # pos: desc_delta   rot: desc_delta
    48 0.000000 0.000000 0.000000 0.000000 0.000000 0.000000   # pos: desc_delta   rot: desc_delta
    49 0.000000 0.000000 0.000000 0.000000 0.000000 0.000000   # pos: desc_delta   rot: desc_delta
    50 0.000000 0.000000 0.000000 0.000000 0.000000 0.000000   # pos: desc_delta   rot: desc_delta
    51 0.000000 0.000000 0.000000 0.000000 0.000000 0.000000   # pos: desc_delta   rot: desc_delta
    52 0.000000 0.000000 0.000000 0.000000 0.000000 0.000000   # pos: desc_delta   rot: desc_delta
    53 0.000000 0.000000 0.000000 0.000000 0.000000 0.000000   # pos: desc_delta   rot: desc_delta
    54 0.000000 0.000000 0.000000 0.000000 0.000000 0.000000   # pos: desc_delta   rot: desc_delta
    55 0.000000 0.000000 0.000000 0.000000 0.000000 0.000000   # pos: desc_delta   rot: desc_delta
  time 7
    0 0.000000 0.000000 0.000000 0.000000 0.000000 0.000000   # pos: desc_delta   rot: desc_delta
    1 0.000000 0.000000 0.000000 0.000000 0.000000 0.000000   # pos: desc_delta   rot: desc_delta
    2 0.000000 1.695364 1.628956 -0.062030 -0.114815 0.055129   # pos: anim   rot: anim
    3 0.000000 0.000000 0.000000 0.000000 0.000000 0.000000   # pos: desc_delta   rot: desc_delta
    4 0.000000 1.214881 -2.011780 -0.037488 0.099304 0.079767   # pos: anim   rot: anim
    5 0.000000 0.589862 -2.289132 -0.002301 0.016960 -0.126170   # pos: anim   rot: anim
    6 0.000000 -2.351634 -0.015625 -0.061551 -0.113669 0.060786   # pos: anim   rot: anim
    7 0.000000 -1.187536 1.984436 0.034227 0.095386 -0.084372   # pos: anim   rot: anim
    8 0.000000 0.000000 0.000000 -0.261743 0.000000 0.000000   # pos: delta   rot: anim
    9 0.000000 -2.257881 0.652364 -0.034228 0.095383 0.084369   # pos: anim   rot: anim
    10 0.000000 0.000000 0.000000 0.000000 0.000000 0.000000   # pos: desc_delta   rot: desc_delta
    11 0.000000 -1.121128 -2.023499 0.002301 0.016960 0.126174   # pos: anim   rot: anim
    12 0.000000 -1.660207 -1.605518 0.061551 -0.113666 -0.060784   # pos: anim   rot: anim
    13 0.000000 2.312571 0.039064 0.062030 -0.114811 -0.055127   # pos: anim   rot: anim
    14 0.000000 -0.558611 2.242256 0.001342 0.012000 0.126745   # pos: anim   rot: anim
    15 0.000000 1.136753 2.058657 -0.001342 0.012000 -0.126749   # pos: anim   rot: anim
    16 0.000000 0.000000 0.000000 0.000000 0.000000 0.000000   # pos: desc_delta   rot: desc_delta
    17 0.000000 2.222724 -0.636738 0.037488 0.099307 -0.079769   # pos: anim   rot: anim
    18 0.000000 0.000000 0.000000 0.000000 0.000000 0.000000   # pos: desc_delta   rot: desc_delta
    19 0.000000 0.000000 0.000000 0.000000 0.000000 0.000000   # pos: desc_delta   rot: desc_delta
    20 0.000000 0.000000 0.000000 0.785326 0.000000 0.000000   # pos: delta   rot: anim
    21 0.000000 0.000000 0.000000 0.000000 0.000000 0.000000   # pos: desc_delta   rot: desc_delta
    22 0.000000 0.000000 0.000000 0.000000 0.000000 0.000000   # pos: desc_delta   rot: desc_delta
    23 0.000000 0.000000 0.000000 0.000000 0.000000 0.000000   # pos: desc_delta   rot: desc_delta
    24 0.000000 0.000000 0.000000 0.000000 0.000000 0.000000   # pos: desc_delta   rot: desc_delta
    25 0.000000 0.000000 0.000000 0.000000 0.000000 0.000000   # pos: desc_delta   rot: desc_delta
    26 0.000000 0.000000 0.000000 0.000000 0.000000 0.000000   # pos: desc_delta   rot: desc_delta
    27 0.000000 0.000000 0.000000 0.000000 0.000000 0.000000   # pos: desc_delta   rot: desc_delta
    28 0.000000 0.000000 0.000000 0.000000 0.000000 0.000000   # pos: desc_delta   rot: desc_delta
    29 0.000000 0.000000 0.000000 0.000000 0.000000 0.000000   # pos: desc_delta   rot: desc_delta
    30 0.000000 0.000000 0.000000 0.000000 0.000000 0.000000   # pos: desc_delta   rot: desc_delta
    31 0.000000 0.000000 0.000000 0.000000 0.000000 0.000000   # pos: desc_delta   rot: desc_delta
    32 0.000000 0.000000 0.000000 0.000000 0.000000 0.000000   # pos: desc_delta   rot: desc_delta
    33 0.000000 0.000000 0.000000 0.000000 0.000000 0.000000   # pos: desc_delta   rot: desc_delta
    34 0.000000 0.000000 0.000000 0.000000 0.000000 0.000000   # pos: desc_delta   rot: desc_delta
    35 0.000000 0.000000 0.000000 0.000000 0.000000 0.000000   # pos: desc_delta   rot: desc_delta
    36 0.000000 0.000000 0.000000 0.000000 0.000000 0.000000   # pos: desc_delta   rot: desc_delta
    37 0.000000 0.000000 0.000000 0.000000 0.000000 0.000000   # pos: desc_delta   rot: desc_delta
    38 0.000000 0.000000 0.000000 0.000000 0.000000 0.000000   # pos: desc_delta   rot: desc_delta
    39 0.000000 0.000000 0.000000 0.000000 0.000000 0.000000   # pos: desc_delta   rot: desc_delta
    40 0.000000 0.000000 0.000000 0.000000 0.000000 0.000000   # pos: desc_delta   rot: desc_delta
    41 0.000000 0.000000 0.000000 0.000000 0.000000 0.000000   # pos: desc_delta   rot: desc_delta
    42 0.000000 0.000000 0.000000 0.000000 0.000000 0.000000   # pos: desc_delta   rot: desc_delta
    43 0.000000 0.000000 0.000000 0.000000 0.000000 0.000000   # pos: desc_delta   rot: desc_delta
    44 0.000000 0.000000 0.000000 0.000000 0.000000 0.000000   # pos: desc_delta   rot: desc_delta
    45 0.000000 0.000000 0.000000 0.000000 0.000000 0.000000   # pos: desc_delta   rot: desc_delta
    46 0.000000 0.000000 0.000000 0.000000 0.000000 0.000000   # pos: desc_delta   rot: desc_delta
    47 0.000000 0.000000 0.000000 0.000000 0.000000 0.000000   # pos: desc_delta   rot: desc_delta
    48 0.000000 0.000000 0.000000 0.000000 0.000000 0.000000   # pos: desc_delta   rot: desc_delta
    49 0.000000 0.000000 0.000000 0.000000 0.000000 0.000000   # pos: desc_delta   rot: desc_delta
    50 0.000000 0.000000 0.000000 0.000000 0.000000 0.000000   # pos: desc_delta   rot: desc_delta
    51 0.000000 0.000000 0.000000 0.000000 0.000000 0.000000   # pos: desc_delta   rot: desc_delta
    52 0.000000 0.000000 0.000000 0.000000 0.000000 0.000000   # pos: desc_delta   rot: desc_delta
    53 0.000000 0.000000 0.000000 0.000000 0.000000 0.000000   # pos: desc_delta   rot: desc_delta
    54 0.000000 0.000000 0.000000 0.000000 0.000000 0.000000   # pos: desc_delta   rot: desc_delta
    55 0.000000 0.000000 0.000000 0.000000 0.000000 0.000000   # pos: desc_delta   rot: desc_delta
  time 8
    0 0.000000 0.000000 0.000000 0.000000 0.000000 0.000000   # pos: desc_delta   rot: desc_delta
    1 0.000000 0.000000 0.000000 0.000000 0.000000 0.000000   # pos: desc_delta   rot: desc_delta
    2 0.000000 1.695364 1.628956 -0.062030 -0.114815 0.055129   # pos: anim   rot: anim
    3 0.000000 0.000000 0.000000 0.000000 0.000000 0.000000   # pos: desc_delta   rot: desc_delta
    4 0.000000 1.214881 -2.011780 -0.037488 0.099304 0.079767   # pos: anim   rot: anim
    5 0.000000 0.589862 -2.289132 -0.002301 0.016960 -0.126170   # pos: anim   rot: anim
    6 0.000000 -2.351634 -0.015625 -0.061551 -0.113669 0.060786   # pos: anim   rot: anim
    7 0.000000 -1.187536 1.984436 0.034227 0.095386 -0.084372   # pos: anim   rot: anim
    8 0.000000 0.000000 0.000000 -0.261743 0.000000 0.000000   # pos: delta   rot: anim
    9 0.000000 -2.257881 0.652364 -0.034228 0.095383 0.084369   # pos: anim   rot: anim
    10 0.000000 0.000000 0.000000 0.000000 0.000000 0.000000   # pos: desc_delta   rot: desc_delta
    11 0.000000 -1.121128 -2.023499 0.002301 0.016960 0.126174   # pos: anim   rot: anim
    12 0.000000 -1.660207 -1.605518 0.061551 -0.113666 -0.060784   # pos: anim   rot: anim
    13 0.000000 2.312571 0.039064 0.062030 -0.114811 -0.055127   # pos: anim   rot: anim
    14 0.000000 -0.558611 2.242256 0.001342 0.012000 0.126745   # pos: anim   rot: anim
    15 0.000000 1.136753 2.058657 -0.001342 0.012000 -0.126749   # pos: anim   rot: anim
    16 0.000000 0.000000 0.000000 0.000000 0.000000 0.000000   # pos: desc_delta   rot: desc_delta
    17 0.000000 2.222724 -0.636738 0.037488 0.099307 -0.079769   # pos: anim   rot: anim
    18 0.000000 0.000000 0.000000 0.000000 0.000000 0.000000   # pos: desc_delta   rot: desc_delta
    19 0.000000 0.000000 0.000000 0.000000 0.000000 0.000000   # pos: desc_delta   rot: desc_delta
    20 0.000000 0.000000 0.000000 0.785326 0.000000 0.000000   # pos: delta   rot: anim
    21 0.000000 0.000000 0.000000 0.000000 0.000000 0.000000   # pos: desc_delta   rot: desc_delta
    22 0.000000 0.000000 0.000000 0.000000 0.000000 0.000000   # pos: desc_delta   rot: desc_delta
    23 0.000000 0.000000 0.000000 0.000000 0.000000 0.000000   # pos: desc_delta   rot: desc_delta
    24 0.000000 0.000000 0.000000 0.000000 0.000000 0.000000   # pos: desc_delta   rot: desc_delta
    25 0.000000 0.000000 0.000000 0.000000 0.000000 0.000000   # pos: desc_delta   rot: desc_delta
    26 0.000000 0.000000 0.000000 0.000000 0.000000 0.000000   # pos: desc_delta   rot: desc_delta
    27 0.000000 0.000000 0.000000 0.000000 0.000000 0.000000   # pos: desc_delta   rot: desc_delta
    28 0.000000 0.000000 0.000000 0.000000 0.000000 0.000000   # pos: desc_delta   rot: desc_delta
    29 0.000000 0.000000 0.000000 0.000000 0.000000 0.000000   # pos: desc_delta   rot: desc_delta
    30 0.000000 0.000000 0.000000 0.000000 0.000000 0.000000   # pos: desc_delta   rot: desc_delta
    31 0.000000 0.000000 0.000000 0.000000 0.000000 0.000000   # pos: desc_delta   rot: desc_delta
    32 0.000000 0.000000 0.000000 0.000000 0.000000 0.000000   # pos: desc_delta   rot: desc_delta
    33 0.000000 0.000000 0.000000 0.000000 0.000000 0.000000   # pos: desc_delta   rot: desc_delta
    34 0.000000 0.000000 0.000000 0.000000 0.000000 0.000000   # pos: desc_delta   rot: desc_delta
    35 0.000000 0.000000 0.000000 0.000000 0.000000 0.000000   # pos: desc_delta   rot: desc_delta
    36 0.000000 0.000000 0.000000 0.000000 0.000000 0.000000   # pos: desc_delta   rot: desc_delta
    37 0.000000 0.000000 0.000000 0.000000 0.000000 0.000000   # pos: desc_delta   rot: desc_delta
    38 0.000000 0.000000 0.000000 0.000000 0.000000 0.000000   # pos: desc_delta   rot: desc_delta
    39 0.000000 0.000000 0.000000 0.000000 0.000000 0.000000   # pos: desc_delta   rot: desc_delta
    40 0.000000 0.000000 0.000000 0.000000 0.000000 0.000000   # pos: desc_delta   rot: desc_delta
    41 0.000000 0.000000 0.000000 0.000000 0.000000 0.000000   # pos: desc_delta   rot: desc_delta
    42 0.000000 0.000000 0.000000 0.000000 0.000000 0.000000   # pos: desc_delta   rot: desc_delta
    43 0.000000 0.000000 0.000000 0.000000 0.000000 0.000000   # pos: desc_delta   rot: desc_delta
    44 0.000000 0.000000 0.000000 0.000000 0.000000 0.000000   # pos: desc_delta   rot: desc_delta
    45 0.000000 0.000000 0.000000 0.000000 0.000000 0.000000   # pos: desc_delta   rot: desc_delta
    46 0.000000 0.000000 0.000000 0.000000 0.000000 0.000000   # pos: desc_delta   rot: desc_delta
    47 0.000000 0.000000 0.000000 0.000000 0.000000 0.000000   # pos: desc_delta   rot: desc_delta
    48 0.000000 0.000000 0.000000 0.000000 0.000000 0.000000   # pos: desc_delta   rot: desc_delta
    49 0.000000 0.000000 0.000000 0.000000 0.000000 0.000000   # pos: desc_delta   rot: desc_delta
    50 0.000000 0.000000 0.000000 0.000000 0.000000 0.000000   # pos: desc_delta   rot: desc_delta
    51 0.000000 0.000000 0.000000 0.000000 0.000000 0.000000   # pos: desc_delta   rot: desc_delta
    52 0.000000 0.000000 0.000000 0.000000 0.000000 0.000000   # pos: desc_delta   rot: desc_delta
    53 0.000000 0.000000 0.000000 0.000000 0.000000 0.000000   # pos: desc_delta   rot: desc_delta
    54 0.000000 0.000000 0.000000 0.000000 0.000000 0.000000   # pos: desc_delta   rot: desc_delta
    55 0.000000 0.000000 0.000000 0.000000 0.000000 0.000000   # pos: desc_delta   rot: desc_delta
  time 9
    0 0.000000 0.000000 0.000000 0.000000 0.000000 0.000000   # pos: desc_delta   rot: desc_delta
    1 0.000000 0.000000 0.000000 0.000000 0.000000 0.000000   # pos: desc_delta   rot: desc_delta
    2 0.000000 1.695364 1.628956 -0.062030 -0.114815 0.055129   # pos: anim   rot: anim
    3 0.000000 0.000000 0.000000 0.000000 0.000000 0.000000   # pos: desc_delta   rot: desc_delta
    4 0.000000 1.214881 -2.011780 -0.037488 0.099304 0.079767   # pos: anim   rot: anim
    5 0.000000 0.589862 -2.289132 -0.002301 0.016960 -0.126170   # pos: anim   rot: anim
    6 0.000000 -2.351634 -0.015625 -0.061551 -0.113669 0.060786   # pos: anim   rot: anim
    7 0.000000 -1.187536 1.984436 0.034227 0.095386 -0.084372   # pos: anim   rot: anim
    8 0.000000 0.000000 0.000000 -0.261743 0.000000 0.000000   # pos: delta   rot: anim
    9 0.000000 -2.257881 0.652364 -0.034228 0.095383 0.084369   # pos: anim   rot: anim
    10 0.000000 0.000000 0.000000 0.000000 0.000000 0.000000   # pos: desc_delta   rot: desc_delta
    11 0.000000 -1.121128 -2.023499 0.002301 0.016960 0.126174   # pos: anim   rot: anim
    12 0.000000 -1.660207 -1.605518 0.061551 -0.113666 -0.060784   # pos: anim   rot: anim
    13 0.000000 2.312571 0.039064 0.062030 -0.114811 -0.055127   # pos: anim   rot: anim
    14 0.000000 -0.558611 2.242256 0.001342 0.012000 0.126745   # pos: anim   rot: anim
    15 0.000000 1.136753 2.058657 -0.001342 0.012000 -0.126749   # pos: anim   rot: anim
    16 0.000000 0.000000 0.000000 0.000000 0.000000 0.000000   # pos: desc_delta   rot: desc_delta
    17 0.000000 2.222724 -0.636738 0.037488 0.099307 -0.079769   # pos: anim   rot: anim
    18 0.000000 0.000000 0.000000 0.000000 0.000000 0.000000   # pos: desc_delta   rot: desc_delta
    19 0.000000 0.000000 0.000000 0.000000 0.000000 0.000000   # pos: desc_delta   rot: desc_delta
    20 0.000000 0.000000 0.000000 0.785326 0.000000 0.000000   # pos: delta   rot: anim
    21 0.000000 0.000000 0.000000 0.000000 0.000000 0.000000   # pos: desc_delta   rot: desc_delta
    22 0.000000 0.000000 0.000000 0.000000 0.000000 0.000000   # pos: desc_delta   rot: desc_delta
    23 0.000000 0.000000 0.000000 0.000000 0.000000 0.000000   # pos: desc_delta   rot: desc_delta
    24 0.000000 0.000000 0.000000 0.000000 0.000000 0.000000   # pos: desc_delta   rot: desc_delta
    25 0.000000 0.000000 0.000000 0.000000 0.000000 0.000000   # pos: desc_delta   rot: desc_delta
    26 0.000000 0.000000 0.000000 0.000000 0.000000 0.000000   # pos: desc_delta   rot: desc_delta
    27 0.000000 0.000000 0.000000 0.000000 0.000000 0.000000   # pos: desc_delta   rot: desc_delta
    28 0.000000 0.000000 0.000000 0.000000 0.000000 0.000000   # pos: desc_delta   rot: desc_delta
    29 0.000000 0.000000 0.000000 0.000000 0.000000 0.000000   # pos: desc_delta   rot: desc_delta
    30 0.000000 0.000000 0.000000 0.000000 0.000000 0.000000   # pos: desc_delta   rot: desc_delta
    31 0.000000 0.000000 0.000000 0.000000 0.000000 0.000000   # pos: desc_delta   rot: desc_delta
    32 0.000000 0.000000 0.000000 0.000000 0.000000 0.000000   # pos: desc_delta   rot: desc_delta
    33 0.000000 0.000000 0.000000 0.000000 0.000000 0.000000   # pos: desc_delta   rot: desc_delta
    34 0.000000 0.000000 0.000000 0.000000 0.000000 0.000000   # pos: desc_delta   rot: desc_delta
    35 0.000000 0.000000 0.000000 0.000000 0.000000 0.000000   # pos: desc_delta   rot: desc_delta
    36 0.000000 0.000000 0.000000 0.000000 0.000000 0.000000   # pos: desc_delta   rot: desc_delta
    37 0.000000 0.000000 0.000000 0.000000 0.000000 0.000000   # pos: desc_delta   rot: desc_delta
    38 0.000000 0.000000 0.000000 0.000000 0.000000 0.000000   # pos: desc_delta   rot: desc_delta
    39 0.000000 0.000000 0.000000 0.000000 0.000000 0.000000   # pos: desc_delta   rot: desc_delta
    40 0.000000 0.000000 0.000000 0.000000 0.000000 0.000000   # pos: desc_delta   rot: desc_delta
    41 0.000000 0.000000 0.000000 0.000000 0.000000 0.000000   # pos: desc_delta   rot: desc_delta
    42 0.000000 0.000000 0.000000 0.000000 0.000000 0.000000   # pos: desc_delta   rot: desc_delta
    43 0.000000 0.000000 0.000000 0.000000 0.000000 0.000000   # pos: desc_delta   rot: desc_delta
    44 0.000000 0.000000 0.000000 0.000000 0.000000 0.000000   # pos: desc_delta   rot: desc_delta
    45 0.000000 0.000000 0.000000 0.000000 0.000000 0.000000   # pos: desc_delta   rot: desc_delta
    46 0.000000 0.000000 0.000000 0.000000 0.000000 0.000000   # pos: desc_delta   rot: desc_delta
    47 0.000000 0.000000 0.000000 0.000000 0.000000 0.000000   # pos: desc_delta   rot: desc_delta
    48 0.000000 0.000000 0.000000 0.000000 0.000000 0.000000   # pos: desc_delta   rot: desc_delta
    49 0.000000 0.000000 0.000000 0.000000 0.000000 0.000000   # pos: desc_delta   rot: desc_delta
    50 0.000000 0.000000 0.000000 0.000000 0.000000 0.000000   # pos: desc_delta   rot: desc_delta
    51 0.000000 0.000000 0.000000 0.000000 0.000000 0.000000   # pos: desc_delta   rot: desc_delta
    52 0.000000 0.000000 0.000000 0.000000 0.000000 0.000000   # pos: desc_delta   rot: desc_delta
    53 0.000000 0.000000 0.000000 0.000000 0.000000 0.000000   # pos: desc_delta   rot: desc_delta
    54 0.000000 0.000000 0.000000 0.000000 0.000000 0.000000   # pos: desc_delta   rot: desc_delta
    55 0.000000 0.000000 0.000000 0.000000 0.000000 0.000000   # pos: desc_delta   rot: desc_delta
  time 10
    0 0.000000 0.000000 0.000000 0.000000 0.000000 0.000000   # pos: desc_delta   rot: desc_delta
    1 0.000000 0.000000 0.000000 0.000000 0.000000 0.000000   # pos: desc_delta   rot: desc_delta
    2 0.000000 1.695364 1.628956 -0.062030 -0.114815 0.055129   # pos: anim   rot: anim
    3 0.000000 0.000000 0.000000 0.000000 0.000000 0.000000   # pos: desc_delta   rot: desc_delta
    4 0.000000 1.214881 -2.011780 -0.037488 0.099304 0.079767   # pos: anim   rot: anim
    5 0.000000 0.589862 -2.289132 -0.002301 0.016960 -0.126170   # pos: anim   rot: anim
    6 0.000000 -2.351634 -0.015625 -0.061551 -0.113669 0.060786   # pos: anim   rot: anim
    7 0.000000 -1.187536 1.984436 0.034227 0.095386 -0.084372   # pos: anim   rot: anim
    8 0.000000 0.000000 0.000000 -0.261743 0.000000 0.000000   # pos: delta   rot: anim
    9 0.000000 -2.257881 0.652364 -0.034228 0.095383 0.084369   # pos: anim   rot: anim
    10 0.000000 0.000000 0.000000 0.000000 0.000000 0.000000   # pos: desc_delta   rot: desc_delta
    11 0.000000 -1.121128 -2.023499 0.002301 0.016960 0.126174   # pos: anim   rot: anim
    12 0.000000 -1.660207 -1.605518 0.061551 -0.113666 -0.060784   # pos: anim   rot: anim
    13 0.000000 2.312571 0.039064 0.062030 -0.114811 -0.055127   # pos: anim   rot: anim
    14 0.000000 -0.558611 2.242256 0.001342 0.012000 0.126745   # pos: anim   rot: anim
    15 0.000000 1.136753 2.058657 -0.001342 0.012000 -0.126749   # pos: anim   rot: anim
    16 0.000000 0.000000 0.000000 0.000000 0.000000 0.000000   # pos: desc_delta   rot: desc_delta
    17 0.000000 2.222724 -0.636738 0.037488 0.099307 -0.079769   # pos: anim   rot: anim
    18 0.000000 0.000000 0.000000 0.000000 0.000000 0.000000   # pos: desc_delta   rot: desc_delta
    19 0.000000 0.000000 0.000000 0.000000 0.000000 0.000000   # pos: desc_delta   rot: desc_delta
    20 0.000000 0.000000 0.000000 0.785326 0.000000 0.000000   # pos: delta   rot: anim
    21 0.000000 0.000000 0.000000 0.000000 0.000000 0.000000   # pos: desc_delta   rot: desc_delta
    22 0.000000 0.000000 0.000000 0.000000 0.000000 0.000000   # pos: desc_delta   rot: desc_delta
    23 0.000000 0.000000 0.000000 0.000000 0.000000 0.000000   # pos: desc_delta   rot: desc_delta
    24 0.000000 0.000000 0.000000 0.000000 0.000000 0.000000   # pos: desc_delta   rot: desc_delta
    25 0.000000 0.000000 0.000000 0.000000 0.000000 0.000000   # pos: desc_delta   rot: desc_delta
    26 0.000000 0.000000 0.000000 0.000000 0.000000 0.000000   # pos: desc_delta   rot: desc_delta
    27 0.000000 0.000000 0.000000 0.000000 0.000000 0.000000   # pos: desc_delta   rot: desc_delta
    28 0.000000 0.000000 0.000000 0.000000 0.000000 0.000000   # pos: desc_delta   rot: desc_delta
    29 0.000000 0.000000 0.000000 0.000000 0.000000 0.000000   # pos: desc_delta   rot: desc_delta
    30 0.000000 0.000000 0.000000 0.000000 0.000000 0.000000   # pos: desc_delta   rot: desc_delta
    31 0.000000 0.000000 0.000000 0.000000 0.000000 0.000000   # pos: desc_delta   rot: desc_delta
    32 0.000000 0.000000 0.000000 0.000000 0.000000 0.000000   # pos: desc_delta   rot: desc_delta
    33 0.000000 0.000000 0.000000 0.000000 0.000000 0.000000   # pos: desc_delta   rot: desc_delta
    34 0.000000 0.000000 0.000000 0.000000 0.000000 0.000000   # pos: desc_delta   rot: desc_delta
    35 0.000000 0.000000 0.000000 0.000000 0.000000 0.000000   # pos: desc_delta   rot: desc_delta
    36 0.000000 0.000000 0.000000 0.000000 0.000000 0.000000   # pos: desc_delta   rot: desc_delta
    37 0.000000 0.000000 0.000000 0.000000 0.000000 0.000000   # pos: desc_delta   rot: desc_delta
    38 0.000000 0.000000 0.000000 0.000000 0.000000 0.000000   # pos: desc_delta   rot: desc_delta
    39 0.000000 0.000000 0.000000 0.000000 0.000000 0.000000   # pos: desc_delta   rot: desc_delta
    40 0.000000 0.000000 0.000000 0.000000 0.000000 0.000000   # pos: desc_delta   rot: desc_delta
    41 0.000000 0.000000 0.000000 0.000000 0.000000 0.000000   # pos: desc_delta   rot: desc_delta
    42 0.000000 0.000000 0.000000 0.000000 0.000000 0.000000   # pos: desc_delta   rot: desc_delta
    43 0.000000 0.000000 0.000000 0.000000 0.000000 0.000000   # pos: desc_delta   rot: desc_delta
    44 0.000000 0.000000 0.000000 0.000000 0.000000 0.000000   # pos: desc_delta   rot: desc_delta
    45 0.000000 0.000000 0.000000 0.000000 0.000000 0.000000   # pos: desc_delta   rot: desc_delta
    46 0.000000 0.000000 0.000000 0.000000 0.000000 0.000000   # pos: desc_delta   rot: desc_delta
    47 0.000000 0.000000 0.000000 0.000000 0.000000 0.000000   # pos: desc_delta   rot: desc_delta
    48 0.000000 0.000000 0.000000 0.000000 0.000000 0.000000   # pos: desc_delta   rot: desc_delta
    49 0.000000 0.000000 0.000000 0.000000 0.000000 0.000000   # pos: desc_delta   rot: desc_delta
    50 0.000000 0.000000 0.000000 0.000000 0.000000 0.000000   # pos: desc_delta   rot: desc_delta
    51 0.000000 0.000000 0.000000 0.000000 0.000000 0.000000   # pos: desc_delta   rot: desc_delta
    52 0.000000 0.000000 0.000000 0.000000 0.000000 0.000000   # pos: desc_delta   rot: desc_delta
    53 0.000000 0.000000 0.000000 0.000000 0.000000 0.000000   # pos: desc_delta   rot: desc_delta
    54 0.000000 0.000000 0.000000 0.000000 0.000000 0.000000   # pos: desc_delta   rot: desc_delta
    55 0.000000 0.000000 0.000000 0.000000 0.000000 0.000000   # pos: desc_delta   rot: desc_delta
  time 11
    0 0.000000 0.000000 0.000000 0.000000 0.000000 0.000000   # pos: desc_delta   rot: desc_delta
    1 0.000000 0.000000 0.000000 0.000000 0.000000 0.000000   # pos: desc_delta   rot: desc_delta
    2 0.000000 0.000000 0.000000 0.000000 0.000000 0.000000   # pos: anim   rot: anim
    3 0.000000 0.000000 0.000000 0.000000 0.000000 0.000000   # pos: desc_delta   rot: desc_delta
    4 0.000000 0.000000 0.000000 0.000000 0.000000 0.000000   # pos: anim   rot: anim
    5 0.000000 0.000000 0.000000 0.000000 0.000000 0.000000   # pos: anim   rot: anim
    6 0.000000 0.000000 0.000000 0.000000 0.000000 0.000000   # pos: anim   rot: anim
    7 0.000000 0.000000 0.000000 0.000000 0.000000 0.000000   # pos: anim   rot: anim
    8 0.000000 0.000000 0.000000 0.000000 0.000000 0.000000   # pos: delta   rot: anim
    9 0.000000 0.000000 0.000000 0.000000 0.000000 0.000000   # pos: anim   rot: anim
    10 0.000000 0.000000 0.000000 0.000000 0.000000 0.000000   # pos: desc_delta   rot: desc_delta
    11 0.000000 0.000000 0.000000 0.000000 0.000000 0.000000   # pos: anim   rot: anim
    12 0.000000 0.000000 0.000000 0.000000 0.000000 0.000000   # pos: anim   rot: anim
    13 0.000000 0.000000 0.000000 0.000000 0.000000 0.000000   # pos: anim   rot: anim
    14 0.000000 0.000000 0.000000 0.000000 0.000000 0.000000   # pos: anim   rot: anim
    15 0.000000 0.000000 0.000000 0.000000 0.000000 0.000000   # pos: anim   rot: anim
    16 0.000000 0.000000 0.000000 0.000000 0.000000 0.000000   # pos: desc_delta   rot: desc_delta
    17 0.000000 0.000000 0.000000 0.000000 0.000000 0.000000   # pos: anim   rot: anim
    18 0.000000 0.000000 0.000000 0.000000 0.000000 0.000000   # pos: desc_delta   rot: desc_delta
    19 0.000000 0.000000 0.000000 0.000000 0.000000 0.000000   # pos: desc_delta   rot: desc_delta
    20 0.000000 0.000000 0.000000 0.000000 0.000000 0.000000   # pos: delta   rot: anim
    21 0.000000 0.000000 0.000000 0.000000 0.000000 0.000000   # pos: desc_delta   rot: desc_delta
    22 0.000000 0.000000 0.000000 0.000000 0.000000 0.000000   # pos: desc_delta   rot: desc_delta
    23 0.000000 0.000000 0.000000 0.000000 0.000000 0.000000   # pos: desc_delta   rot: desc_delta
    24 0.000000 0.000000 0.000000 0.000000 0.000000 0.000000   # pos: desc_delta   rot: desc_delta
    25 0.000000 0.000000 0.000000 0.000000 0.000000 0.000000   # pos: desc_delta   rot: desc_delta
    26 0.000000 0.000000 0.000000 0.000000 0.000000 0.000000   # pos: desc_delta   rot: desc_delta
    27 0.000000 0.000000 0.000000 0.000000 0.000000 0.000000   # pos: desc_delta   rot: desc_delta
    28 0.000000 0.000000 0.000000 0.000000 0.000000 0.000000   # pos: desc_delta   rot: desc_delta
    29 0.000000 0.000000 0.000000 0.000000 0.000000 0.000000   # pos: desc_delta   rot: desc_delta
    30 0.000000 0.000000 0.000000 0.000000 0.000000 0.000000   # pos: desc_delta   rot: desc_delta
    31 0.000000 0.000000 0.000000 0.000000 0.000000 0.000000   # pos: desc_delta   rot: desc_delta
    32 0.000000 0.000000 0.000000 0.000000 0.000000 0.000000   # pos: desc_delta   rot: desc_delta
    33 0.000000 0.000000 0.000000 0.000000 0.000000 0.000000   # pos: desc_delta   rot: desc_delta
    34 0.000000 0.000000 0.000000 0.000000 0.000000 0.000000   # pos: desc_delta   rot: desc_delta
    35 0.000000 0.000000 0.000000 0.000000 0.000000 0.000000   # pos: desc_delta   rot: desc_delta
    36 0.000000 0.000000 0.000000 0.000000 0.000000 0.000000   # pos: desc_delta   rot: desc_delta
    37 0.000000 0.000000 0.000000 0.000000 0.000000 0.000000   # pos: desc_delta   rot: desc_delta
    38 0.000000 0.000000 0.000000 0.000000 0.000000 0.000000   # pos: desc_delta   rot: desc_delta
    39 0.000000 0.000000 0.000000 0.000000 0.000000 0.000000   # pos: desc_delta   rot: desc_delta
    40 0.000000 0.000000 0.000000 0.000000 0.000000 0.000000   # pos: desc_delta   rot: desc_delta
    41 0.000000 0.000000 0.000000 0.000000 0.000000 0.000000   # pos: desc_delta   rot: desc_delta
    42 0.000000 0.000000 0.000000 0.000000 0.000000 0.000000   # pos: desc_delta   rot: desc_delta
    43 0.000000 0.000000 0.000000 0.000000 0.000000 0.000000   # pos: desc_delta   rot: desc_delta
    44 0.000000 0.000000 0.000000 0.000000 0.000000 0.000000   # pos: desc_delta   rot: desc_delta
    45 0.000000 0.000000 0.000000 0.000000 0.000000 0.000000   # pos: desc_delta   rot: desc_delta
    46 0.000000 0.000000 0.000000 0.000000 0.000000 0.000000   # pos: desc_delta   rot: desc_delta
    47 0.000000 0.000000 0.000000 0.000000 0.000000 0.000000   # pos: desc_delta   rot: desc_delta
    48 0.000000 0.000000 0.000000 0.000000 0.000000 0.000000   # pos: desc_delta   rot: desc_delta
    49 0.000000 0.000000 0.000000 0.000000 0.000000 0.000000   # pos: desc_delta   rot: desc_delta
    50 0.000000 0.000000 0.000000 0.000000 0.000000 0.000000   # pos: desc_delta   rot: desc_delta
    51 0.000000 0.000000 0.000000 0.000000 0.000000 0.000000   # pos: desc_delta   rot: desc_delta
    52 0.000000 0.000000 0.000000 0.000000 0.000000 0.000000   # pos: desc_delta   rot: desc_delta
    53 0.000000 0.000000 0.000000 0.000000 0.000000 0.000000   # pos: desc_delta   rot: desc_delta
    54 0.000000 0.000000 0.000000 0.000000 0.000000 0.000000   # pos: desc_delta   rot: desc_delta
    55 0.000000 0.000000 0.000000 0.000000 0.000000 0.000000   # pos: desc_delta   rot: desc_delta
end
