// Created by Crowbar 0.42.0.0
version 1
nodes
  0 "sphere_root" -1
  1 "handle_lower" 0
  2 "eyeball_pistons_frontjoint_06" 0
  3 "axel_center_y" 0
  4 "eyeball_pistons_frontjoint_01" 0
  5 "eyeball_pistons_frontjoint_02" 0
  6 "eyeball_pistons_frontjoint_03" 0
  7 "eyeball_pistons_backjoint_04" 0
  8 "axel_center_x" 0
  9 "eyeball_pistons_frontjoint_04" 0
  10 "handle_upper" 0
  11 "eyeball_pistons_backjoint_02" 0
  12 "eyeball_pistons_backjoint_03" 0
  13 "eyeball_pistons_backjoint_06" 0
  14 "eyeball_pistons_backjoint_05" 0
  15 "eyeball_pistons_frontjoint_05" 0
  16 "axel_center_z" 0
  17 "eyeball_pistons_backjoint_01" 0
  18 "bandY_joint" 3
  19 "eyeball_retract" 8
  20 "cog_rotation" 8
  21 "eyeball_eye" 19
  22 "eyelid_rotate" 21
  23 "eyelight_aimjoint" 21
  24 "eyelid_lower_main" 22
  25 "eyelid_lower_compress_01" 22
  26 "eyelid_lower_compress_02" 22
  27 "eyelid_upper_main" 22
  28 "eyelid_upper_compress01" 22
  29 "eyelid_upper_compress02" 22
  30 "inner_aperture" 23
  31 "inner01" 30
  32 "inner03" 30
  33 "inner04" 30
  34 "inner05" 30
  35 "inner06" 30
  36 "inner07" 30
  37 "inner08" 30
  38 "inner09" 30
  39 "inner010" 30
  40 "inner011" 30
  41 "inner012" 30
  42 "inner013" 30
  43 "inner014" 30
  44 "inner015" 30
  45 "inner016" 30
  46 "inner017" 30
  47 "inner018" 30
  48 "inner019" 30
  49 "inner020" 30
  50 "inner021" 30
  51 "inner022" 30
  52 "inner023" 30
  53 "inner024" 30
  54 "inner02" 30
  55 "bandZ_joint" 16
end
skeleton
  time 0
    0 0.000000 0.000000 0.000000 0.000000 0.341671 -1.570796   # pos: delta   rot: raw64 (0, 0.170005717274801, 0, 0.985443076029194)
    1 0.000000 0.000000 0.000000 0.000000 0.000000 0.000000   # pos: desc_delta   rot: desc_delta
    2 1.121094 0.000000 -2.865234 0.066491 0.162715 -0.051710   # pos: raw   rot: raw64 (0.0352182220372095, 0.0803393934538872, -0.0284528596625997, 0.995738767686093)
    3 0.000000 0.000000 0.000000 0.000000 0.000000 0.000000   # pos: desc_delta   rot: desc_delta
    4 1.121094 0.000000 -2.865234 -0.066491 0.162715 0.051710   # pos: raw   rot: raw64 (-0.0352182220372095, 0.0803393934538872, 0.0284528596625997, 0.995738767686093)
    5 0.529297 0.000000 -2.839844 -0.002476 0.211857 -0.000795   # pos: raw   rot: raw64 (-0.00118923130548892, 0.105730960020561, -0.000264167659679575, 0.994394026549577)
    6 -2.703125 0.000000 -2.353516 0.137217 0.251352 0.069815   # pos: raw   rot: raw64 (0.0636081392249397, 0.127347885442788, 0.0259561414927762, 0.989476022658659)
    7 0.000000 0.000000 0.000000 0.135082 0.252266 0.069024   # pos: delta   rot: raw64 (0.0625829398236562, 0.127747474790824, 0.0256681319865551, 0.989497400364406)
    8 0.000000 0.000000 0.000000 0.000000 0.000000 0.000000   # pos: desc_delta   rot: desc_delta
    9 -2.697266 0.000000 -2.355469 -0.135082 0.252266 -0.069024   # pos: raw   rot: raw64 (-0.0625829398236562, 0.127747474790824, -0.0256681319865551, 0.989497400364406)
    10 0.000000 0.000000 0.000000 0.000000 0.000000 0.000000   # pos: desc_delta   rot: desc_delta
    11 0.000000 0.000000 0.000000 0.002476 0.211857 0.000795   # pos: delta   rot: raw64 (0.00118923130548892, 0.105730960020561, 0.000264167659679575, 0.994394026549577)
    12 0.000000 0.000000 0.000000 -0.137217 0.251352 -0.069815   # pos: delta   rot: raw64 (-0.0636081392249397, 0.127347885442788, -0.0259561414927762, 0.989476022658659)
    13 0.000000 0.000000 0.000000 -0.066493 0.162719 0.051710   # pos: delta   rot: raw64 (-0.0352191757110712, 0.0803413008016106, 0.0284528596625997, 0.995738580062437)
    14 0.000000 0.000000 0.000000 -0.002465 0.210898 -0.000802   # pos: delta   rot: raw64 (-0.00118350926231896, 0.105254123089732, -0.000268936028987871, 0.994444617136545)
    15 0.506836 0.000000 -2.783203 0.002465 0.210898 0.000800   # pos: raw   rot: raw64 (0.00118350926231896, 0.105254123089732, 0.000267982355126212, 0.994444617393998)
    16 0.000000 0.000000 0.000000 0.000000 0.000000 0.000000   # pos: desc_delta   rot: desc_delta
    17 0.000000 0.000000 0.000000 0.066493 0.162717 -0.051710   # pos: delta   rot: raw64 (0.0352191757110712, 0.0803403471277489, -0.0284528596625997, 0.995738657009281)
    18 0.000000 0.000000 0.000000 0.000000 0.265862 0.000000   # pos: delta   rot: raw64 (0, 0.132539685945661, 0, 0.991177699330158)
    19 0.000000 0.000000 0.000000 0.000000 0.000000 0.000000   # pos: desc_delta   rot: desc_delta
    20 0.000000 0.000000 0.000000 0.000000 0.000000 0.000000   # pos: desc_delta   rot: desc_delta
    21 0.000000 0.000000 0.000000 0.000000 0.265862 0.000000   # pos: delta   rot: raw64 (0, 0.132539685945661, 0, 0.991177699330158)
    22 0.000000 0.000000 0.000000 0.000000 0.000000 0.000000   # pos: desc_delta   rot: desc_delta
    23 0.000000 0.000000 0.000000 0.000000 0.232839 0.000000   # pos: delta   rot: raw64 (0, 0.116156522676219, 0, 0.99323092090398)
    24 0.000000 0.000000 0.000000 0.000000 0.000000 0.000000   # pos: desc_delta   rot: desc_delta
    25 0.000000 0.000000 0.000000 0.000000 0.000000 0.000000   # pos: desc_delta   rot: desc_delta
    26 0.000000 0.000000 0.000000 0.000000 0.000000 0.000000   # pos: desc_delta   rot: desc_delta
    27 0.000000 0.000000 0.000000 0.000000 0.000000 0.000000   # pos: desc_delta   rot: desc_delta
    28 0.000000 0.000000 0.000000 0.000000 0.000000 0.000000   # pos: desc_delta   rot: desc_delta
    29 0.000000 0.000000 0.000000 0.000000 0.000000 0.000000   # pos: desc_delta   rot: desc_delta
    30 0.000000 0.000000 0.000000 0.000000 0.000000 0.000000   # pos: desc_delta   rot: desc_delta
    31 0.000000 0.000000 0.000000 0.000000 0.000000 0.000000   # pos: desc_delta   rot: desc_delta
    32 0.000000 0.000000 0.000000 0.000000 0.000000 0.000000   # pos: desc_delta   rot: desc_delta
    33 0.000000 0.000000 0.000000 0.000000 0.000000 0.000000   # pos: desc_delta   rot: desc_delta
    34 0.000000 0.000000 0.000000 0.000000 0.000000 0.000000   # pos: desc_delta   rot: desc_delta
    35 0.000000 0.000000 0.000000 0.000000 0.000000 0.000000   # pos: desc_delta   rot: desc_delta
    36 0.000000 0.000000 0.000000 0.000000 0.000000 0.000000   # pos: desc_delta   rot: desc_delta
    37 0.000000 0.000000 0.000000 0.000000 0.000000 0.000000   # pos: desc_delta   rot: desc_delta
    38 0.000000 0.000000 0.000000 0.000000 0.000000 0.000000   # pos: desc_delta   rot: desc_delta
    39 0.000000 0.000000 0.000000 0.000000 0.000000 0.000000   # pos: desc_delta   rot: desc_delta
    40 0.000000 0.000000 0.000000 0.000000 0.000000 0.000000   # pos: desc_delta   rot: desc_delta
    41 0.000000 0.000000 0.000000 0.000000 0.000000 0.000000   # pos: desc_delta   rot: desc_delta
    42 0.000000 0.000000 0.000000 0.000000 0.000000 0.000000   # pos: desc_delta   rot: desc_delta
    43 0.000000 0.000000 0.000000 0.000000 0.000000 0.000000   # pos: desc_delta   rot: desc_delta
    44 0.000000 0.000000 0.000000 0.000000 0.000000 0.000000   # pos: desc_delta   rot: desc_delta
    45 0.000000 0.000000 0.000000 0.000000 0.000000 0.000000   # pos: desc_delta   rot: desc_delta
    46 0.000000 0.000000 0.000000 0.000000 0.000000 0.000000   # pos: desc_delta   rot: desc_delta
    47 0.000000 0.000000 0.000000 0.000000 0.000000 0.000000   # pos: desc_delta   rot: desc_delta
    48 0.000000 0.000000 0.000000 0.000000 0.000000 0.000000   # pos: desc_delta   rot: desc_delta
    49 0.000000 0.000000 0.000000 0.000000 0.000000 0.000000   # pos: desc_delta   rot: desc_delta
    50 0.000000 0.000000 0.000000 0.000000 0.000000 0.000000   # pos: desc_delta   rot: desc_delta
    51 0.000000 0.000000 0.000000 0.000000 0.000000 0.000000   # pos: desc_delta   rot: desc_delta
    52 0.000000 0.000000 0.000000 0.000000 0.000000 0.000000   # pos: desc_delta   rot: desc_delta
    53 0.000000 0.000000 0.000000 0.000000 0.000000 0.000000   # pos: desc_delta   rot: desc_delta
    54 0.000000 0.000000 0.000000 0.000000 0.000000 0.000000   # pos: desc_delta   rot: desc_delta
    55 0.000000 0.000000 0.000000 0.000000 0.000000 0.000000   # pos: desc_delta   rot: desc_delta
end
