version 1
nodes
  0 "Bip01" -1
  1 "Bip01 Pelvis" 0
  2 "Bip01 L Leg" 1
  3 "Bip01 L Leg1" 2
  4 "Bip01 L Foot" 3
  5 "Bip01 L Toe0" 4
  6 "Bip01 L Toe01" 5
  7 "Bip01 L Toe02" 6
  8 "Bip01 L Toe1" 4
  9 "Bip01 L Toe11" 8
  10 "Bip01 L Toe12" 9
  11 "Bip01 R Leg" 1
  12 "Bip01 R Leg1" 11
  13 "Bip01 R Foot" 12
  14 "Bip01 R Toe0" 13
  15 "Bip01 R Toe01" 14
  16 "Bip01 R Toe02" 15
  17 "Bip01 R Toe1" 13
  18 "Bip01 R Toe11" 17
  19 "Bip01 R Toe12" 18
  20 "Bip01 Spine" 1
  21 "Bip01 Neck" 20
  22 "Bone04" 21
  23 "Bone05" 22
  24 "Bone06" 23
  25 "Bone01" 21
  26 "Bone02" 25
  27 "Bone03" 26
  28 "Bone08" 27
end
skeleton
  time 0
    0 0.075442 6.693289 9.418823 0.000000 0.000000 -1.570939
    1 0.000000 0.000000 0.000000 -1.570795 -1.570796 0.000000
    2 -0.000006 0.000007 4.563451 0.000001 -2.967150 -0.091278
    3 4.656425 0.000000 0.000000 0.000000 0.000000 -0.400611
    4 4.701634 0.000000 0.000000 0.016063 -0.173711 0.307935
    5 0.406872 1.311033 -0.429476 0.000000 0.000000 1.570796
    6 0.135624 0.000000 0.000001 0.000000 0.000000 0.000000
    7 0.135624 0.000000 -0.000001 0.000000 0.000000 0.000000
    8 0.406872 1.311033 0.429477 0.000000 0.000000 1.570796
    9 0.144666 0.000000 0.000000 0.000000 0.000000 0.000000
    10 0.144666 0.000000 0.000000 0.000000 0.000000 0.000000
    11 0.000006 -0.000005 -4.563451 0.000001 2.967147 -0.091278
    12 4.656425 0.000000 0.000000 0.000000 0.000000 -0.400611
    13 4.701634 0.000000 0.000000 -0.016063 0.173711 0.307935
    14 0.406872 1.311032 0.429476 0.000000 0.000000 1.570796
    15 0.135625 0.000000 0.000001 0.000000 0.000000 0.000000
    16 0.135624 0.000000 -0.000001 0.000000 0.000000 0.000000
    17 0.406872 1.311033 -0.429476 0.000000 0.000000 1.570796
    18 0.144666 0.000000 0.000000 0.000000 0.000000 0.000000
    19 0.144666 0.000000 0.000000 0.000000 0.000000 0.000000
    20 0.323097 0.004998 0.000001 -0.000004 0.000002 2.216241
    21 10.437629 -0.000360 0.000000 0.000000 0.000000 0.000000
    22 -1.363172 0.158762 -3.724681 -1.555577 -1.282239 2.470648
    23 -0.779825 -1.655838 0.000000 -0.003241 0.027267 -0.374743
    24 -0.357251 -5.650512 0.000000 -0.024307 -0.036338 0.037755
    25 -1.479081 0.176403 3.393355 -0.168270 -1.488878 1.023173
    26 0.000000 0.000000 0.000000 0.204727 0.155307 0.230584
    27 0.763128 -1.671615 0.000000 -0.174890 -0.096755 -0.083792
    28 0.690450 -5.886988 0.000000 -0.216836 0.116991 -0.109572
  time 1
    0 0.075442 6.798761 9.301632 0.000000 -0.119146 -1.570939
    1 0.000000 0.000000 0.000000 -1.570795 -1.570796 0.000000
    2 -0.000006 0.000007 4.563451 0.000001 -2.967150 -0.091278
    3 4.656425 0.000000 0.000000 0.000000 0.000000 -0.404205
    4 4.701634 0.000000 0.000000 0.016063 -0.173711 0.311465
    5 0.406872 1.311033 -0.429476 0.000000 0.000000 1.570796
    6 0.135624 0.000000 0.000001 0.000000 0.000000 0.000000
    7 0.135624 0.000000 -0.000001 0.000000 0.000000 0.000000
    8 0.406872 1.311033 0.429477 0.000000 0.000000 1.570796
    9 0.144666 0.000000 0.000000 0.000000 0.000000 0.000000
    10 0.144666 0.000000 0.000000 0.000000 0.000000 0.000000
    11 0.000006 -0.000005 -4.563451 0.000001 2.967147 -0.091278
    12 4.656425 0.000000 0.000000 0.000000 0.000000 -0.449243
    13 4.701634 0.000000 0.000000 -0.021988 0.173083 0.322044
    14 0.406872 1.311032 0.429476 0.000000 0.000000 1.570796
    15 0.135625 0.000000 0.000001 0.000000 0.000000 0.000000
    16 0.135624 0.000000 -0.000001 0.000000 0.000000 0.000000
    17 0.406872 1.311033 -0.429476 0.000000 0.000000 1.570796
    18 0.144666 0.000000 0.000000 0.000000 0.000000 0.000000
    19 0.144666 0.000000 0.000000 0.000000 0.000000 0.000000
    20 0.323097 0.004998 0.000001 -0.000004 0.000002 2.216241
    21 10.437629 -0.000360 0.000000 0.000000 0.000000 0.000000
    22 -1.363172 0.158762 -3.724681 1.022439 -1.736006 -0.080297
    23 -0.779825 -1.655838 0.000000 -0.093393 0.017127 -0.300960
    24 -0.357251 -5.650512 0.000000 0.364035 -0.072909 0.043229
    25 -1.479081 0.176403 3.393355 -0.201763 -1.511212 1.069844
    26 0.000000 0.000000 0.000000 0.169417 0.135173 0.195397
    27 0.763128 -1.671615 0.000000 -0.254528 -0.095217 -0.058290
    28 0.690450 -5.886988 0.000000 0.014931 0.139979 -0.102755
  time 2
    0 0.075442 7.087832 9.133658 0.000000 -0.296267 -1.570939
    1 0.000000 0.000000 0.000000 -1.570795 -1.570796 0.000000
    2 -0.000006 0.000007 4.563451 0.000001 -2.967150 -0.091278
    3 4.656425 0.000000 0.000000 0.000000 0.000000 -0.404848
    4 4.701634 0.000000 0.000000 0.016063 -0.173711 0.312204
    5 0.406872 1.311033 -0.429476 0.000000 0.000000 1.570796
    6 0.135624 0.000000 0.000001 0.000000 0.000000 0.000000
    7 0.135624 0.000000 -0.000001 0.000000 0.000000 0.000000
    8 0.406872 1.311033 0.429477 0.000000 0.000000 1.570796
    9 0.144666 0.000000 0.000000 0.000000 0.000000 0.000000
    10 0.144666 0.000000 0.000000 0.000000 0.000000 0.000000
    11 0.000006 -0.000005 -4.563451 0.000001 2.967147 -0.091278
    12 4.656425 0.000000 0.000000 0.000000 0.000000 -0.505096
    13 4.701634 0.000000 0.000000 -0.028923 0.172072 0.337545
    14 0.406872 1.311032 0.429476 0.000000 0.000000 1.570796
    15 0.135625 0.000000 0.000001 0.000000 0.000000 0.000000
    16 0.135624 0.000000 -0.000001 0.000000 0.000000 0.000000
    17 0.406872 1.311033 -0.429476 0.000000 0.000000 1.570796
    18 0.144666 0.000000 0.000000 0.000000 0.000000 0.000000
    19 0.144666 0.000000 0.000000 0.000000 0.000000 0.000000
    20 0.323097 0.004998 0.000001 -0.000004 0.000002 2.216241
    21 10.437629 -0.000360 0.000000 0.000000 0.000000 0.000000
    22 -1.363172 0.158762 -3.724681 -0.488786 -1.865407 1.479214
    23 -0.779825 -1.655838 0.000000 -0.268560 0.017277 -0.148096
    24 -0.357251 -5.650512 0.000000 1.066194 -0.132460 0.020091
    25 -1.479081 0.176403 3.393355 -0.604364 -1.554657 1.499642
    26 0.000000 0.000000 0.000000 0.098583 0.088630 0.125982
    27 0.763128 -1.671615 0.000000 -0.417555 -0.086756 -0.007629
    28 0.690450 -5.886988 0.000000 0.457900 0.174414 -0.074825
  time 3
    0 0.075442 7.490188 8.934433 0.000000 -0.500686 -1.570939
    1 0.000000 0.000000 0.000000 -1.570795 -1.570796 0.000000
    2 -0.000006 0.000007 4.563451 0.000001 -2.967150 -0.091278
    3 4.656425 0.000000 0.000000 0.000000 0.000000 -0.404366
    4 4.701634 0.000000 0.000000 0.016063 -0.173711 0.311629
    5 0.406872 1.311033 -0.429476 0.000000 0.000000 1.570796
    6 0.135624 0.000000 0.000001 0.000000 0.000000 0.000000
    7 0.135624 0.000000 -0.000001 0.000000 0.000000 0.000000
    8 0.406872 1.311033 0.429477 0.000000 0.000000 1.570796
    9 0.144666 0.000000 0.000000 0.000000 0.000000 0.000000
    10 0.144666 0.000000 0.000000 0.000000 0.000000 0.000000
    11 0.000006 -0.000005 -4.563451 0.000001 2.967147 -0.091278
    12 4.656425 0.000000 0.000000 0.000000 0.000000 -0.564847
    13 4.701634 0.000000 0.000000 -0.036329 0.170677 0.353974
    14 0.406872 1.311032 0.429476 0.000000 0.000000 1.570796
    15 0.135625 0.000000 0.000001 0.000000 0.000000 0.000000
    16 0.135624 0.000000 -0.000001 0.000000 0.000000 0.000000
    17 0.406872 1.311033 -0.429476 0.000000 0.000000 1.570796
    18 0.144666 0.000000 0.000000 0.000000 0.000000 0.000000
    19 0.144666 0.000000 0.000000 0.000000 0.000000 0.000000
    20 0.323097 0.004998 0.000001 -0.000004 0.000002 2.216241
    21 10.437629 -0.000360 0.000000 0.000000 0.000000 0.000000
    22 -1.363172 0.158762 -3.724681 2.411326 -1.089722 -1.396979
    23 -0.779825 -1.655838 0.000000 -0.391043 0.035522 -0.028030
    24 -0.357251 -5.650512 0.000000 1.407482 -0.152379 0.001539
    25 -1.479081 0.176403 3.393355 0.364497 -1.593210 0.552805
    26 0.000000 0.000000 0.000000 0.043585 0.045474 0.076546
    27 0.763128 -1.671615 0.000000 -0.565579 -0.079186 0.031138
    28 0.690450 -5.886988 0.000000 0.740409 0.187658 -0.049733
  time 4
    0 0.075442 7.943327 8.727396 0.000000 -0.702367 -1.570939
    1 0.000000 0.000000 0.000000 -1.570795 -1.570796 0.000000
    2 -0.000006 0.000007 4.563451 0.000001 -2.967150 -0.091278
    3 4.656425 0.000000 0.000000 0.000000 0.000000 -0.403615
    4 4.701634 0.000000 0.000000 0.016063 -0.173711 0.310890
    5 0.406872 1.311033 -0.429476 0.000000 0.000000 1.570796
    6 0.135624 0.000000 0.000001 0.000000 0.000000 0.000000
    7 0.135624 0.000000 -0.000001 0.000000 0.000000 0.000000
    8 0.406872 1.311033 0.429477 0.000000 0.000000 1.570796
    9 0.144666 0.000000 0.000000 0.000000 0.000000 0.000000
    10 0.144666 0.000000 0.000000 0.000000 0.000000 0.000000
    11 0.000006 -0.000005 -4.563451 0.000001 2.967147 -0.091278
    12 4.656425 0.000000 0.000000 0.000000 0.000000 -0.628176
    13 4.701634 0.000000 0.000000 -0.044129 0.168829 0.371053
    14 0.406872 1.311032 0.429476 0.000000 0.000000 1.570796
    15 0.135625 0.000000 0.000001 0.000000 0.000000 0.000000
    16 0.135624 0.000000 -0.000001 0.000000 0.000000 0.000000
    17 0.406872 1.311033 -0.429476 0.000000 0.000000 1.570796
    18 0.144666 0.000000 0.000000 0.000000 0.000000 0.000000
    19 0.144666 0.000000 0.000000 0.000000 0.000000 0.000000
    20 0.323097 0.004998 0.000001 -0.000004 0.000002 2.216241
    21 10.437629 -0.000360 0.000000 0.000000 0.000000 0.000000
    22 -1.363172 0.158762 -3.724681 2.327656 -1.161417 -1.340033
    23 -0.779825 -1.655838 0.000000 -0.397327 0.052999 0.018301
    24 -0.357251 -5.650512 0.000000 0.983786 -0.156788 0.060124
    25 -1.479081 0.176403 3.393355 0.269346 -1.600894 0.656365
    26 0.000000 0.000000 0.000000 0.021400 0.022648 0.067270
    27 0.763128 -1.671615 0.000000 -0.663840 -0.087141 0.044901
    28 0.690450 -5.886988 0.000000 0.664217 0.183117 -0.055277
  time 5
    0 0.075442 8.384747 8.543797 0.000000 -0.870997 -1.570939
    1 0.000000 0.000000 0.000000 -1.570795 -1.570796 0.000000
    2 -0.000006 0.000007 4.563451 0.000001 -2.967150 -0.091278
    3 4.656425 0.000000 0.000000 0.000000 0.000000 -0.403776
    4 4.701634 0.000000 0.000000 0.016063 -0.173711 0.310972
    5 0.406872 1.311033 -0.429476 0.000000 0.000000 1.570796
    6 0.135624 0.000000 0.000001 0.000000 0.000000 0.000000
    7 0.135624 0.000000 -0.000001 0.000000 0.000000 0.000000
    8 0.406872 1.311033 0.429477 0.000000 0.000000 1.570796
    9 0.144666 0.000000 0.000000 0.000000 0.000000 0.000000
    10 0.144666 0.000000 0.000000 0.000000 0.000000 0.000000
    11 0.000006 -0.000005 -4.563451 0.000001 2.967147 -0.091278
    12 4.656425 0.000000 0.000000 0.000000 0.000000 -0.696619
    13 4.701634 0.000000 0.000000 -0.052440 0.166475 0.389617
    14 0.406872 1.311032 0.429476 0.000000 0.000000 1.570796
    15 0.135625 0.000000 0.000001 0.000000 0.000000 0.000000
    16 0.135624 0.000000 -0.000001 0.000000 0.000000 0.000000
    17 0.406872 1.311033 -0.429476 0.000000 0.000000 1.570796
    18 0.144666 0.000000 0.000000 0.000000 0.000000 0.000000
    19 0.144666 0.000000 0.000000 0.000000 0.000000 0.000000
    20 0.323097 0.004998 0.000001 -0.000004 0.000002 2.216241
    21 10.437629 -0.000360 0.000000 0.000000 0.000000 0.000000
    22 -1.363172 0.158762 -3.724681 2.183317 -1.358468 -1.247091
    23 -0.779825 -1.655838 0.000000 -0.351599 0.061254 0.033906
    24 -0.357251 -5.650512 0.000000 0.193456 -0.082012 0.120840
    25 -1.479081 0.176403 3.393355 0.312887 -1.597996 0.615871
    26 0.000000 0.000000 0.000000 0.011913 0.008150 0.074820
    27 0.763128 -1.671615 0.000000 -0.747403 -0.103840 0.050070
    28 0.690450 -5.886988 0.000000 0.421774 0.167823 -0.073207
  time 6
    0 0.075442 8.751946 8.418793 0.000000 -0.976356 -1.570939
    1 0.000000 0.000000 0.000000 -1.570795 -1.570796 0.000000
    2 -0.000006 0.000007 4.563451 0.000001 -2.967150 -0.091278
    3 4.656425 0.000000 0.000000 0.000000 0.000000 -0.405868
    4 4.701634 0.000000 0.000000 0.016063 -0.173711 0.313271
    5 0.406872 1.311033 -0.429476 0.000000 0.000000 1.570796
    6 0.135624 0.000000 0.000001 0.000000 0.000000 0.000000
    7 0.135624 0.000000 -0.000001 0.000000 0.000000 0.000000
    8 0.406872 1.311033 0.429477 0.000000 0.000000 1.570796
    9 0.144666 0.000000 0.000000 0.000000 0.000000 0.000000
    10 0.144666 0.000000 0.000000 0.000000 0.000000 0.000000
    11 0.000006 -0.000005 -4.563451 0.000001 2.967147 -0.091278
    12 4.656425 0.000000 0.000000 0.000000 0.000000 -0.772474
    13 4.701634 0.000000 0.000000 -0.061485 0.163354 0.410408
    14 0.406872 1.311032 0.429476 0.000000 0.000000 1.570796
    15 0.135625 0.000000 0.000001 0.000000 0.000000 0.000000
    16 0.135624 0.000000 -0.000001 0.000000 0.000000 0.000000
    17 0.406872 1.311033 -0.429476 0.000000 0.000000 1.570796
    18 0.144666 0.000000 0.000000 0.000000 0.000000 0.000000
    19 0.144666 0.000000 0.000000 0.000000 0.000000 0.000000
    20 0.323097 0.004998 0.000001 -0.000004 0.000002 2.216241
    21 10.437629 -0.000360 0.000000 0.000000 0.000000 0.000000
    22 -1.363172 0.158762 -3.724681 1.325951 -1.506469 -0.439325
    23 -0.779825 -1.655838 0.000000 -0.309902 0.038307 0.031209
    24 -0.357251 -5.650512 0.000000 -0.458791 0.033251 0.045773
    25 -1.479081 0.176403 3.393355 0.370054 -1.595470 0.560812
    26 0.000000 0.000000 0.000000 0.004637 -0.003228 0.082550
    27 0.763128 -1.671615 0.000000 -0.822331 -0.117280 0.055488
    28 0.690450 -5.886988 0.000000 0.216836 0.149407 -0.084374
  time 7
    0 0.075442 9.048830 8.403167 0.000000 -1.007124 -1.570939
    1 0.000000 0.000000 0.000000 -1.570795 -1.570796 0.000000
    2 -0.000006 0.000007 4.563451 0.000001 -2.967150 -0.091278
    3 4.656425 0.000000 0.000000 0.000000 0.000000 -0.412519
    4 4.701634 0.000000 0.000000 0.016063 -0.173711 0.319756
    5 0.406872 1.311033 -0.429476 0.000000 0.000000 1.570796
    6 0.135624 0.000000 0.000001 0.000000 0.000000 0.000000
    7 0.135624 0.000000 -0.000001 0.000000 0.000000 0.000000
    8 0.406872 1.311033 0.429477 0.000000 0.000000 1.570796
    9 0.144666 0.000000 0.000000 0.000000 0.000000 0.000000
    10 0.144666 0.000000 0.000000 0.000000 0.000000 0.000000
    11 0.000006 -0.000005 -4.563451 0.000001 2.967147 -0.091278
    12 4.656425 0.000000 0.000000 0.000000 0.000000 -0.858554
    13 4.701634 0.000000 0.000000 -0.071461 0.159274 0.434449
    14 0.406872 1.311032 0.429476 0.000000 0.000000 1.570796
    15 0.135625 0.000000 0.000001 0.000000 0.000000 0.000000
    16 0.135624 0.000000 -0.000001 0.000000 0.000000 0.000000
    17 0.406872 1.311033 -0.429476 0.000000 0.000000 1.570796
    18 0.144666 0.000000 0.000000 0.000000 0.000000 0.000000
    19 0.144666 0.000000 0.000000 0.000000 0.000000 0.000000
    20 0.323097 0.004998 0.000001 -0.000004 0.000002 2.216241
    21 10.437629 -0.000360 0.000000 0.000000 0.000000 0.000000
    22 -1.363172 0.158762 -3.724681 1.131610 -1.464297 -0.282423
    23 -0.779825 -1.655838 0.000000 -0.299309 -0.145472 -0.060828
    24 -0.357251 -5.650512 0.000000 -0.325690 0.249305 -0.342073
    25 -1.479081 0.176403 3.393355 0.387637 -1.598368 0.543425
    26 0.000000 0.000000 0.000000 0.006420 -0.001641 0.084599
    27 0.763128 -1.671615 0.000000 -0.855259 -0.111734 0.058913
    28 0.690450 -5.886988 0.000000 0.268405 0.137961 -0.077504
  time 8
    0 0.075442 9.314463 8.481295 0.000000 -0.997629 -1.570939
    1 0.000000 0.000000 0.000000 -1.570795 -1.570796 0.000000
    2 -0.000006 0.000007 4.563451 0.000001 -2.967150 -0.091278
    3 4.656425 0.000000 0.000000 0.000000 0.000000 -0.427860
    4 4.701634 0.000000 0.000000 0.016063 -0.173711 0.335107
    5 0.406872 1.311033 -0.429476 0.000000 0.000000 1.570796
    6 0.135624 0.000000 0.000001 0.000000 0.000000 0.000000
    7 0.135624 0.000000 -0.000001 0.000000 0.000000 0.000000
    8 0.406872 1.311033 0.429477 0.000000 0.000000 1.570796
    9 0.144666 0.000000 0.000000 0.000000 0.000000 0.000000
    10 0.144666 0.000000 0.000000 0.000000 0.000000 0.000000
    11 0.000006 -0.000005 -4.563451 0.000001 2.967147 -0.091278
    12 4.656425 0.000000 0.000000 0.000000 0.000000 -0.957414
    13 4.701634 0.000000 0.000000 -0.082472 0.153904 0.462759
    14 0.406872 1.311032 0.429476 0.000000 0.000000 1.570796
    15 0.135625 0.000000 0.000001 0.000000 0.000000 0.000000
    16 0.135624 0.000000 -0.000001 0.000000 0.000000 0.000000
    17 0.406872 1.311033 -0.429476 0.000000 0.000000 1.570796
    18 0.144666 0.000000 0.000000 0.000000 0.000000 0.000000
    19 0.144666 0.000000 0.000000 0.000000 0.000000 0.000000
    20 0.323097 0.004998 0.000001 -0.000004 0.000002 2.216241
    21 10.437629 -0.000360 0.000000 0.000000 0.000000 0.000000
    22 -1.363172 0.158762 -3.724681 1.036690 -1.457032 -0.200650
    23 -0.779825 -1.655838 0.000000 -0.317332 -0.161966 -0.065355
    24 -0.357251 -5.650512 0.000000 -0.100649 0.287692 -0.346334
    25 -1.479081 0.176403 3.393355 0.403166 -1.601479 0.527639
    26 0.000000 0.000000 0.000000 0.009987 0.002033 0.086661
    27 0.763128 -1.671615 0.000000 -0.881776 -0.104042 0.061373
    28 0.690450 -5.886988 0.000000 0.382220 0.126640 -0.067743
  time 9
    0 0.075442 9.564470 8.621924 0.000000 -0.964031 -1.570939
    1 0.000000 0.000000 0.000000 -1.570795 -1.570796 0.000000
    2 -0.000006 0.000007 4.563451 0.000001 -2.967150 -0.091278
    3 4.656425 0.000000 0.000000 0.000000 0.000000 -0.459721
    4 4.701634 0.000000 0.000000 0.016063 -0.173711 0.366959
    5 0.406872 1.311033 -0.429476 0.000000 0.000000 1.570796
    6 0.135624 0.000000 0.000001 0.000000 0.000000 0.000000
    7 0.135624 0.000000 -0.000001 0.000000 0.000000 0.000000
    8 0.406872 1.311033 0.429477 0.000000 0.000000 1.570796
    9 0.144666 0.000000 0.000000 0.000000 0.000000 0.000000
    10 0.144666 0.000000 0.000000 0.000000 0.000000 0.000000
    11 0.000006 -0.000005 -4.563451 0.000001 2.967147 -0.091278
    12 4.656425 0.000000 0.000000 0.000000 0.000000 -1.070654
    13 4.701634 0.000000 0.000000 -0.094388 0.146930 0.496452
    14 0.406872 1.311032 0.429476 0.000000 0.000000 1.570796
    15 0.135625 0.000000 0.000001 0.000000 0.000000 0.000000
    16 0.135624 0.000000 -0.000001 0.000000 0.000000 0.000000
    17 0.406872 1.311033 -0.429476 0.000000 0.000000 1.570796
    18 0.144666 0.000000 0.000000 0.000000 0.000000 0.000000
    19 0.144666 0.000000 0.000000 0.000000 0.000000 0.000000
    20 0.323097 0.004998 0.000001 -0.000004 0.000002 2.216241
    21 10.437629 -0.000360 0.000000 0.000000 0.000000 0.000000
    22 -1.363172 0.158762 -3.724681 0.952603 -1.449278 -0.129398
    23 -0.779825 -1.655838 0.000000 -0.335592 -0.177342 -0.069015
    24 -0.357251 -5.650512 0.000000 0.162780 0.313084 -0.322811
    25 -1.479081 0.176403 3.393355 0.415802 -1.604563 0.514751
    26 0.000000 0.000000 0.000000 0.013625 0.005724 0.088722
    27 0.763128 -1.671615 0.000000 -0.908206 -0.096270 0.063646
    28 0.690450 -5.886988 0.000000 0.515615 0.114625 -0.058672
  time 10
    0 0.075442 9.810572 8.750834 0.000000 -0.907425 -1.570939
    1 0.000000 0.000000 0.000000 -1.570795 -1.570796 0.000000
    2 -0.000006 0.000007 4.563451 0.000001 -2.967150 -0.091278
    3 4.656425 0.000000 0.000000 0.000000 0.000000 -0.521781
    4 4.701634 0.000000 0.000000 0.016063 -0.173711 0.429020
    5 0.406872 1.311033 -0.429476 0.000000 0.000000 1.570796
    6 0.135624 0.000000 0.000001 0.000000 0.000000 0.000000
    7 0.135624 0.000000 -0.000001 0.000000 0.000000 0.000000
    8 0.406872 1.311033 0.429477 0.000000 0.000000 1.570796
    9 0.144666 0.000000 0.000000 0.000000 0.000000 0.000000
    10 0.144666 0.000000 0.000000 0.000000 0.000000 0.000000
    11 0.000006 -0.000005 -4.563451 0.000001 2.967147 -0.091278
    12 4.656425 0.000000 0.000000 0.000000 0.000000 -1.196419
    13 4.701634 0.000000 0.000000 -0.106619 0.138334 0.536272
    14 0.406872 1.311032 0.429476 0.000000 0.000000 1.570796
    15 0.135625 0.000000 0.000001 0.000000 0.000000 0.000000
    16 0.135624 0.000000 -0.000001 0.000000 0.000000 0.000000
    17 0.406872 1.311033 -0.429476 0.000000 0.000000 1.570796
    18 0.144666 0.000000 0.000000 0.000000 0.000000 0.000000
    19 0.144666 0.000000 0.000000 0.000000 0.000000 0.000000
    20 0.323097 0.004998 0.000001 -0.000004 0.000002 2.216241
    21 10.437629 -0.000360 0.000000 0.000000 0.000000 0.000000
    22 -1.363172 0.158762 -3.724681 0.878017 -1.441137 -0.067468
    23 -0.779825 -1.655838 0.000000 -0.354088 -0.191684 -0.071905
    24 -0.357251 -5.650512 0.000000 0.444233 0.318635 -0.280736
    25 -1.479081 0.176403 3.393355 0.426154 -1.607674 0.503999
    26 0.000000 0.000000 0.000000 0.017120 0.009434 0.090795
    27 0.763128 -1.671615 0.000000 -0.934592 -0.088436 0.065670
    28 0.690450 -5.886988 0.000000 0.655156 0.101476 -0.051033
  time 11
    0 0.075442 10.021516 8.563328 0.000000 -0.829090 -1.570939
    1 0.000000 0.000000 0.000000 -1.570795 -1.570796 0.000000
    2 -0.000006 0.000007 4.563451 0.000001 -2.967150 -0.091278
    3 4.656425 0.000000 0.000000 0.000000 0.000000 -0.822373
    4 4.701634 0.000000 0.000000 0.059269 -0.164168 0.474007
    5 0.406872 1.311033 -0.429476 0.000000 0.000000 1.570796
    6 0.135624 0.000000 0.000001 0.000000 0.000000 0.000000
    7 0.135624 0.000000 -0.000001 0.000000 0.000000 0.000000
    8 0.406872 1.311033 0.429477 0.000000 0.000000 1.570796
    9 0.144666 0.000000 0.000000 0.000000 0.000000 0.000000
    10 0.144666 0.000000 0.000000 0.000000 0.000000 0.000000
    11 0.000006 -0.000005 -4.563451 0.000001 2.967147 -0.091278
    12 4.656425 0.000000 0.000000 0.000000 0.000000 -1.327552
    13 4.701634 0.000000 0.000000 -0.117971 0.128832 0.582218
    14 0.406872 1.311032 0.429476 0.000000 0.000000 1.570796
    15 0.135625 0.000000 0.000001 0.000000 0.000000 0.000000
    16 0.135624 0.000000 -0.000001 0.000000 0.000000 0.000000
    17 0.406872 1.311033 -0.429476 0.000000 0.000000 1.570796
    18 0.144666 0.000000 0.000000 0.000000 0.000000 0.000000
    19 0.144666 0.000000 0.000000 0.000000 0.000000 0.000000
    20 0.323097 0.004998 0.000001 -0.000004 0.000002 2.216241
    21 10.437629 -0.000360 0.000000 0.000000 0.000000 0.000000
    22 -1.363172 0.158762 -3.724681 0.811181 -1.432636 -0.013198
    23 -0.779825 -1.655838 0.000000 -0.372862 -0.205059 -0.073928
    24 -0.357251 -5.650512 0.000000 0.720920 0.302684 -0.233010
    25 -1.479081 0.176403 3.393355 0.434984 -1.610784 0.494924
    26 0.000000 0.000000 0.000000 0.020758 0.013179 0.092893
    27 0.763128 -1.671615 0.000000 -0.960847 -0.080542 0.067507
    28 0.690450 -5.886988 0.000000 0.787487 0.087317 -0.045410
  time 12
    0 0.075442 10.072298 7.274227 0.000000 -0.758790 -1.570939
    1 0.000000 0.000000 0.000000 -1.570795 -1.570796 0.000000
    2 -0.000006 0.000007 4.563451 0.000001 -2.967150 -0.091278
    3 4.656425 0.000000 0.000000 0.000000 0.000000 -1.409878
    4 4.701634 0.000000 0.000000 0.128433 -0.118376 0.579741
    5 0.406872 1.311033 -0.429476 0.000000 0.000000 1.570796
    6 0.135624 0.000000 0.000001 0.000000 0.000000 0.000000
    7 0.135624 0.000000 -0.000001 0.000000 0.000000 0.000000
    8 0.406872 1.311033 0.429477 0.000000 0.000000 1.570796
    9 0.144666 0.000000 0.000000 0.000000 0.000000 0.000000
    10 0.144666 0.000000 0.000000 0.000000 0.000000 0.000000
    11 0.000006 -0.000005 -4.563451 0.000001 2.967147 -0.091278
    12 4.656425 0.000000 0.000000 0.000000 0.000000 -1.446607
    13 4.701634 0.000000 0.000000 -0.126478 0.120463 0.632712
    14 0.406872 1.311032 0.429476 0.000000 0.000000 1.570796
    15 0.135625 0.000000 0.000001 0.000000 0.000000 0.000000
    16 0.135624 0.000000 -0.000001 0.000000 0.000000 0.000000
    17 0.406872 1.311033 -0.429476 0.000000 0.000000 1.570796
    18 0.144666 0.000000 0.000000 0.000000 0.000000 0.000000
    19 0.144666 0.000000 0.000000 0.000000 0.000000 0.000000
    20 0.323097 0.004998 0.000001 -0.000004 0.000002 2.216241
    21 10.437629 -0.000360 0.000000 0.000000 0.000000 0.000000
    22 -1.363172 0.158762 -3.724681 0.751179 -1.423929 0.034149
    23 -0.779825 -1.655838 0.000000 -0.391873 -0.217516 -0.075228
    24 -0.357251 -5.650512 0.000000 0.971091 0.270885 -0.190935
    25 -1.479081 0.176403 3.393355 0.442520 -1.613922 0.487069
    26 0.000000 0.000000 0.000000 0.024396 0.016906 0.094990
    27 0.763128 -1.671615 0.000000 -0.987059 -0.072607 0.069126
    28 0.690450 -5.886988 0.000000 0.899293 0.072433 -0.042041
  time 13
    0 0.075442 10.095737 6.262477 0.000000 -0.714053 -1.570939
    1 0.000000 0.000000 0.000000 -1.570795 -1.570796 0.000000
    2 -0.000006 0.000007 4.563451 0.048632 -2.962820 -0.315889
    3 4.656425 0.000000 0.000000 0.000000 0.000000 -1.708700
    4 4.701634 0.000000 0.000000 0.125205 -0.137003 0.700416
    5 0.406872 1.311033 -0.429476 0.000000 0.000000 1.570796
    6 0.135624 0.000000 0.000001 0.000000 0.000000 0.000000
    7 0.135624 0.000000 -0.000001 0.000000 0.000000 0.000000
    8 0.406872 1.311033 0.429477 0.000000 0.000000 1.570796
    9 0.144666 0.000000 0.000000 0.000000 0.000000 0.000000
    10 0.144666 0.000000 0.000000 0.000000 0.000000 0.000000
    11 0.000006 -0.000005 -4.563451 -0.048334 2.962605 -0.311518
    12 4.656425 0.000000 0.000000 0.000000 0.000000 -1.739675
    13 4.701634 0.000000 0.000000 -0.122572 0.139415 0.753193
    14 0.406872 1.311032 0.429476 0.000000 0.000000 1.570796
    15 0.135625 0.000000 0.000001 0.000000 0.000000 0.000000
    16 0.135624 0.000000 -0.000001 0.000000 0.000000 0.000000
    17 0.406872 1.311033 -0.429476 0.000000 0.000000 1.570796
    18 0.144666 0.000000 0.000000 0.000000 0.000000 0.000000
    19 0.144666 0.000000 0.000000 0.000000 0.000000 0.000000
    20 0.323097 0.004998 0.000001 -0.000004 0.000002 2.216241
    21 10.437629 -0.000360 0.000000 0.000000 0.000000 0.000000
    22 -1.363172 0.158762 -3.724681 0.696926 -1.414989 0.076051
    23 -0.779825 -1.655838 0.000000 -0.411120 -0.229140 -0.075902
    24 -0.357251 -5.650512 0.000000 1.175682 0.233977 -0.160015
    25 -1.479081 0.176403 3.393355 0.448990 -1.617033 0.480282
    26 0.000000 0.000000 0.000000 0.028034 0.020615 0.097099
    27 0.763128 -1.671615 0.000000 -1.013227 -0.064612 0.070559
    28 0.690450 -5.886988 0.000000 0.977415 0.057234 -0.040556
  time 14
    0 0.075442 10.185583 6.114035 0.000000 -0.663656 -1.570939
    1 0.000000 0.000000 0.000000 -1.570795 -1.570796 0.000000
    2 -0.000006 0.000007 4.563451 0.061663 -2.969748 -0.403884
    3 4.656425 0.000000 0.000000 0.000000 0.000000 -1.746139
    4 4.701634 0.000000 0.000000 0.117583 -0.139790 0.701565
    5 0.406872 1.311033 -0.429476 0.000000 0.000000 1.570796
    6 0.135624 0.000000 0.000001 0.000000 0.000000 0.000000
    7 0.135624 0.000000 -0.000001 0.000000 0.000000 0.000000
    8 0.406872 1.311033 0.429477 0.000000 0.000000 1.570796
    9 0.144666 0.000000 0.000000 0.000000 0.000000 0.000000
    10 0.144666 0.000000 0.000000 0.000000 0.000000 0.000000
    11 0.000006 -0.000005 -4.563451 -0.061115 2.969628 -0.399566
    12 4.656425 0.000000 0.000000 0.000000 0.000000 -1.777314
    13 4.701634 0.000000 0.000000 -0.114943 0.141943 0.754399
    14 0.406872 1.311032 0.429476 0.000000 0.000000 1.570796
    15 0.135625 0.000000 0.000001 0.000000 0.000000 0.000000
    16 0.135624 0.000000 -0.000001 0.000000 0.000000 0.000000
    17 0.406872 1.311033 -0.429476 0.000000 0.000000 1.570796
    18 0.144666 0.000000 0.000000 0.000000 0.000000 0.000000
    19 0.144666 0.000000 0.000000 0.000000 0.000000 0.000000
    20 0.323097 0.004998 0.000001 -0.000004 0.000002 2.216241
    21 10.437629 -0.000360 0.000000 0.000000 0.000000 0.000000
    22 -1.363172 0.158762 -3.724681 0.647591 -1.405895 0.113154
    23 -0.779825 -1.655838 0.000000 -0.430605 -0.239963 -0.075999
    24 -0.357251 -5.650512 0.000000 1.318618 0.204720 -0.139806
    25 -1.479081 0.176403 3.393355 0.454699 -1.620197 0.474334
    26 0.000000 0.000000 0.000000 0.031672 0.024360 0.099220
    27 0.763128 -1.671615 0.000000 -1.039307 -0.056555 0.071773
    28 0.690450 -5.886988 0.000000 1.008656 0.042098 -0.040211
  time 15
    0 0.075442 9.974639 6.227320 0.000000 -0.613167 -1.570939
    1 0.000000 0.000000 0.000000 -1.570795 -1.570796 0.000000
    2 -0.000006 0.000007 4.563451 0.059448 -2.971913 -0.405602
    3 4.656425 0.000000 0.000000 0.000000 0.000000 -1.724577
    4 4.701634 0.000000 0.000000 0.109941 -0.142366 0.728737
    5 0.406872 1.311033 -0.429476 0.000000 0.000000 1.570796
    6 0.135624 0.000000 0.000001 0.000000 0.000000 0.000000
    7 0.135624 0.000000 -0.000001 0.000000 0.000000 0.000000
    8 0.406872 1.311033 0.429477 0.000000 0.000000 1.570796
    9 0.144666 0.000000 0.000000 0.000000 0.000000 0.000000
    10 0.144666 0.000000 0.000000 0.000000 0.000000 0.000000
    11 0.000006 -0.000005 -4.563451 -0.058708 2.971797 -0.400282
    12 4.656425 0.000000 0.000000 0.000000 0.000000 -1.754756
    13 4.701634 0.000000 0.000000 -0.107300 0.144245 0.781688
    14 0.406872 1.311032 0.429476 0.000000 0.000000 1.570796
    15 0.135625 0.000000 0.000001 0.000000 0.000000 0.000000
    16 0.135624 0.000000 -0.000001 0.000000 0.000000 0.000000
    17 0.406872 1.311033 -0.429476 0.000000 0.000000 1.570796
    18 0.144666 0.000000 0.000000 0.000000 0.000000 0.000000
    19 0.144666 0.000000 0.000000 0.000000 0.000000 0.000000
    20 0.323097 0.004998 0.000001 -0.000004 0.000002 2.216241
    21 10.437629 -0.000360 0.000000 0.000000 0.000000 0.000000
    22 -1.363172 0.158762 -3.724681 0.602506 -1.396699 0.146103
    23 -0.779825 -1.655838 0.000000 -0.450327 -0.250103 -0.075517
    24 -0.357251 -5.650512 0.000000 1.384432 0.195460 -0.127083
    25 -1.479081 0.176403 3.393355 0.459647 -1.623334 0.469072
    26 0.000000 0.000000 0.000000 0.035310 0.028087 0.101378
    27 0.763128 -1.671615 0.000000 -1.065432 -0.048479 0.072707
    28 0.690450 -5.886988 0.000000 1.006332 0.027088 -0.040105
  time 16
    0 0.075442 9.740257 6.434357 0.000000 -0.563135 -1.570939
    1 0.000000 0.000000 0.000000 -1.570795 -1.570796 0.000000
    2 -0.000006 0.000007 4.563451 0.052635 -2.974251 -0.387053
    3 4.656425 0.000000 0.000000 0.000000 0.000000 -1.674800
    4 4.701634 0.000000 0.000000 0.102280 -0.142683 0.747372
    5 0.406872 1.311033 -0.429476 0.000000 0.000000 1.570796
    6 0.135624 0.000000 0.000001 0.000000 0.000000 0.000000
    7 0.135624 0.000000 -0.000001 0.000000 0.000000 0.000000
    8 0.406872 1.311033 0.429477 0.000000 0.000000 1.570796
    9 0.144666 0.000000 0.000000 0.000000 0.000000 0.000000
    10 0.144666 0.000000 0.000000 0.000000 0.000000 0.000000
    11 0.000006 -0.000005 -4.563451 -0.051517 2.974098 -0.381136
    12 4.656425 0.000000 0.000000 0.000000 0.000000 -1.704079
    13 4.701634 0.000000 0.000000 -0.099710 0.144245 0.800067
    14 0.406872 1.311032 0.429476 0.000000 0.000000 1.570796
    15 0.135625 0.000000 0.000001 0.000000 0.000000 0.000000
    16 0.135624 0.000000 -0.000001 0.000000 0.000000 0.000000
    17 0.406872 1.311033 -0.429476 0.000000 0.000000 1.570796
    18 0.144666 0.000000 0.000000 0.000000 0.000000 0.000000
    19 0.144666 0.000000 0.000000 0.000000 0.000000 0.000000
    20 0.323097 0.004998 0.000001 -0.000004 0.000002 2.216241
    21 10.437629 -0.000360 0.000000 0.000000 0.000000 0.000000
    22 -1.363172 0.158762 -3.724681 0.561088 -1.387321 0.175453
    23 -0.779825 -1.655838 0.000000 -0.470208 -0.259575 -0.074602
    24 -0.357251 -5.650512 0.000000 1.393314 0.202541 -0.117378
    25 -1.479081 0.176403 3.393355 0.463986 -1.626445 0.464344
    26 0.000000 0.000000 0.000000 0.039091 0.031814 0.103535
    27 0.763128 -1.671615 0.000000 -1.091382 -0.040382 0.073517
    28 0.690450 -5.886988 0.000000 0.993804 0.011951 -0.039760
  time 17
    0 0.075442 9.478530 6.688271 0.000000 -0.513651 -1.570939
    1 0.000000 0.000000 0.000000 -1.570795 -1.570796 0.000000
    2 -0.000006 0.000007 4.563451 0.043181 -2.976676 -0.357233
    3 4.656425 0.000000 0.000000 0.000000 0.000000 -1.606786
    4 4.701634 0.000000 0.000000 0.094891 -0.141660 0.758537
    5 0.406872 1.311033 -0.429476 0.000000 0.000000 1.570796
    6 0.135624 0.000000 0.000001 0.000000 0.000000 0.000000
    7 0.135624 0.000000 -0.000001 0.000000 0.000000 0.000000
    8 0.406872 1.311033 0.429477 0.000000 0.000000 1.570796
    9 0.144666 0.000000 0.000000 0.000000 0.000000 0.000000
    10 0.144666 0.000000 0.000000 0.000000 0.000000 0.000000
    11 0.000006 -0.000005 -4.563451 -0.041983 2.976723 -0.351084
    12 4.656425 0.000000 0.000000 0.000000 0.000000 -1.635382
    13 4.701634 0.000000 0.000000 -0.092500 0.142937 0.810648
    14 0.406872 1.311032 0.429476 0.000000 0.000000 1.570796
    15 0.135625 0.000000 0.000001 0.000000 0.000000 0.000000
    16 0.135624 0.000000 -0.000001 0.000000 0.000000 0.000000
    17 0.406872 1.311033 -0.429476 0.000000 0.000000 1.570796
    18 0.144666 0.000000 0.000000 0.000000 0.000000 0.000000
    19 0.144666 0.000000 0.000000 0.000000 0.000000 0.000000
    20 0.323097 0.004998 0.000001 -0.000004 0.000002 2.216241
    21 10.437629 -0.000360 0.000000 0.000000 0.000000 0.000000
    22 -1.363172 0.158762 -3.724681 0.522836 -1.377893 0.201757
    23 -0.779825 -1.655838 0.000000 -0.490325 -0.268514 -0.073157
    24 -0.357251 -5.650512 0.000000 1.378366 0.214057 -0.108087
    25 -1.479081 0.176403 3.393355 0.467944 -1.629556 0.460149
    26 0.000000 0.000000 0.000000 0.042729 0.035541 0.105692
    27 0.763128 -1.671615 0.000000 -1.117375 -0.032245 0.074046
    28 0.690450 -5.886988 0.000000 0.972254 -0.003122 -0.039044
  time 18
    0 0.075442 9.205084 6.961717 0.000000 -0.464623 -1.570939
    1 0.000000 0.000000 0.000000 -1.570795 -1.570796 0.000000
    2 -0.000006 0.000007 4.563451 0.032961 -2.979707 -0.321701
    3 4.656425 0.000000 0.000000 0.000000 0.000000 -1.527079
    4 4.701634 0.000000 0.000000 0.088008 -0.139984 0.763216
    5 0.406872 1.311033 -0.429476 0.000000 0.000000 1.570796
    6 0.135624 0.000000 0.000001 0.000000 0.000000 0.000000
    7 0.135624 0.000000 -0.000001 0.000000 0.000000 0.000000
    8 0.406872 1.311033 0.429477 0.000000 0.000000 1.570796
    9 0.144666 0.000000 0.000000 0.000000 0.000000 0.000000
    10 0.144666 0.000000 0.000000 0.000000 0.000000 0.000000
    11 0.000006 -0.000005 -4.563451 -0.031563 2.979731 -0.315419
    12 4.656425 0.000000 0.000000 0.000000 0.000000 -1.554989
    13 4.701634 0.000000 0.000000 -0.085789 0.141002 0.814732
    14 0.406872 1.311032 0.429476 0.000000 0.000000 1.570796
    15 0.135625 0.000000 0.000001 0.000000 0.000000 0.000000
    16 0.135624 0.000000 -0.000001 0.000000 0.000000 0.000000
    17 0.406872 1.311033 -0.429476 0.000000 0.000000 1.570796
    18 0.144666 0.000000 0.000000 0.000000 0.000000 0.000000
    19 0.144666 0.000000 0.000000 0.000000 0.000000 0.000000
    20 0.323097 0.004998 0.000001 -0.000004 0.000002 2.216241
    21 10.437629 -0.000360 0.000000 0.000000 0.000000 0.000000
    22 -1.363172 0.158762 -3.724681 0.487335 -1.368386 0.225200
    23 -0.779825 -1.655838 0.000000 -0.510561 -0.276936 -0.071375
    24 -0.357251 -5.650512 0.000000 1.341971 0.229775 -0.099684
    25 -1.479081 0.176403 3.393355 0.471446 -1.632720 0.456336
    26 0.000000 0.000000 0.000000 0.046438 0.039232 0.107885
    27 0.763128 -1.671615 0.000000 -1.143413 -0.024108 0.074389
    28 0.690450 -5.886988 0.000000 0.942668 -0.018290 -0.037771
  time 19
    0 0.075442 8.919920 7.235163 0.000000 -0.416052 -1.570939
    1 0.000000 0.000000 0.000000 -1.570795 -1.570796 0.000000
    2 -0.000006 0.000007 4.563451 0.022656 -2.982911 -0.283542
    3 4.656425 0.000000 0.000000 0.000000 0.000000 -1.439647
    4 4.701634 0.000000 0.000000 0.081591 -0.137991 0.761984
    5 0.406872 1.311033 -0.429476 0.000000 0.000000 1.570796
    6 0.135624 0.000000 0.000001 0.000000 0.000000 0.000000
    7 0.135624 0.000000 -0.000001 0.000000 0.000000 0.000000
    8 0.406872 1.311033 0.429477 0.000000 0.000000 1.570796
    9 0.144666 0.000000 0.000000 0.000000 0.000000 0.000000
    10 0.144666 0.000000 0.000000 0.000000 0.000000 0.000000
    11 0.000006 -0.000005 -4.563451 -0.021047 2.983135 -0.277286
    12 4.656425 0.000000 0.000000 0.000000 0.000000 -1.467056
    13 4.701634 0.000000 0.000000 -0.079549 0.138770 0.813062
    14 0.406872 1.311032 0.429476 0.000000 0.000000 1.570796
    15 0.135625 0.000000 0.000001 0.000000 0.000000 0.000000
    16 0.135624 0.000000 -0.000001 0.000000 0.000000 0.000000
    17 0.406872 1.311033 -0.429476 0.000000 0.000000 1.570796
    18 0.144666 0.000000 0.000000 0.000000 0.000000 0.000000
    19 0.144666 0.000000 0.000000 0.000000 0.000000 0.000000
    20 0.323097 0.004998 0.000001 -0.000004 0.000002 2.216241
    21 10.437629 -0.000360 0.000000 0.000000 0.000000 0.000000
    22 -1.363172 0.158762 -3.724681 0.454417 -1.358752 0.246428
    23 -0.779825 -1.655838 0.000000 -0.530994 -0.284958 -0.069256
    24 -0.357251 -5.650512 0.000000 1.286859 0.249202 -0.092938
    25 -1.479081 0.176403 3.393355 0.474643 -1.635830 0.452905
    26 0.000000 0.000000 0.000000 0.050219 0.042959 0.110078
    27 0.763128 -1.671615 0.000000 -1.169319 -0.015950 0.074482
    28 0.690450 -5.886988 0.000000 0.906069 -0.033300 -0.035755
  time 20
    0 0.075442 8.626942 7.504702 0.000000 -0.368302 -1.570939
    1 0.000000 0.000000 0.000000 -1.570795 -1.570796 0.000000
    2 -0.000006 0.000007 4.563451 0.012606 -2.986548 -0.244422
    3 4.656425 0.000000 0.000000 0.000000 0.000000 -1.346638
    4 4.701634 0.000000 0.000000 0.075602 -0.135892 0.755499
    5 0.406872 1.311033 -0.429476 0.000000 0.000000 1.570796
    6 0.135624 0.000000 0.000001 0.000000 0.000000 0.000000
    7 0.135624 0.000000 -0.000001 0.000000 0.000000 0.000000
    8 0.406872 1.311033 0.429477 0.000000 0.000000 1.570796
    9 0.144666 0.000000 0.000000 0.000000 0.000000 0.000000
    10 0.144666 0.000000 0.000000 0.000000 0.000000 0.000000
    11 0.000006 -0.000005 -4.563451 -0.010879 2.986922 -0.238357
    12 4.656425 0.000000 0.000000 0.000000 0.000000 -1.373819
    13 4.701634 0.000000 0.000000 -0.073781 0.136486 0.806286
    14 0.406872 1.311032 0.429476 0.000000 0.000000 1.570796
    15 0.135625 0.000000 0.000001 0.000000 0.000000 0.000000
    16 0.135624 0.000000 -0.000001 0.000000 0.000000 0.000000
    17 0.406872 1.311033 -0.429476 0.000000 0.000000 1.570796
    18 0.144666 0.000000 0.000000 0.000000 0.000000 0.000000
    19 0.144666 0.000000 0.000000 0.000000 0.000000 0.000000
    20 0.323097 0.004998 0.000001 -0.000004 0.000002 2.216241
    21 10.437629 -0.000360 0.000000 0.000000 0.000000 0.000000
    22 -1.363172 0.158762 -3.724681 0.423583 -1.349039 0.265164
    23 -0.779825 -1.655838 0.000000 -0.551507 -0.292646 -0.066848
    24 -0.357251 -5.650512 0.000000 1.215283 0.271870 -0.088558
    25 -1.479081 0.176403 3.393355 0.477383 -1.638968 0.449702
    26 0.000000 0.000000 0.000000 0.053928 0.046687 0.112308
    27 0.763128 -1.671615 0.000000 -1.195269 -0.007773 0.074451
    28 0.690450 -5.886988 0.000000 0.863403 -0.048184 -0.032917
  time 21
    0 0.075442 8.337871 7.758616 0.000000 -0.321283 -1.570939
    1 0.000000 0.000000 0.000000 -1.570795 -1.570796 0.000000
    2 -0.000006 0.000007 4.563451 0.002982 -2.990705 -0.205100
    3 4.656425 0.000000 0.000000 0.000000 0.000000 -1.249015
    4 4.701634 0.000000 0.000000 0.070041 -0.133740 0.743924
    5 0.406872 1.311033 -0.429476 0.000000 0.000000 1.570796
    6 0.135624 0.000000 0.000001 0.000000 0.000000 0.000000
    7 0.135624 0.000000 -0.000001 0.000000 0.000000 0.000000
    8 0.406872 1.311033 0.429477 0.000000 0.000000 1.570796
    9 0.144666 0.000000 0.000000 0.000000 0.000000 0.000000
    10 0.144666 0.000000 0.000000 0.000000 0.000000 0.000000
    11 0.000006 -0.000005 -4.563451 -0.001298 2.991068 -0.199348
    12 4.656425 0.000000 0.000000 0.000000 0.000000 -1.276044
    13 4.701634 0.000000 0.000000 -0.068380 0.134202 0.794126
    14 0.406872 1.311032 0.429476 0.000000 0.000000 1.570796
    15 0.135625 0.000000 0.000001 0.000000 0.000000 0.000000
    16 0.135624 0.000000 -0.000001 0.000000 0.000000 0.000000
    17 0.406872 1.311033 -0.429476 0.000000 0.000000 1.570796
    18 0.144666 0.000000 0.000000 0.000000 0.000000 0.000000
    19 0.144666 0.000000 0.000000 0.000000 0.000000 0.000000
    20 0.323097 0.004998 0.000001 -0.000004 0.000002 2.216241
    21 10.437629 -0.000360 0.000000 0.000000 0.000000 0.000000
    22 -1.363172 0.158762 -3.724681 0.394831 -1.339250 0.282146
    23 -0.779825 -1.655838 0.000000 -0.572178 -0.300067 -0.064151
    24 -0.357251 -5.650512 0.000000 1.129625 0.297159 -0.087257
    25 -1.479081 0.176403 3.393355 0.479971 -1.642132 0.446804
    26 0.000000 0.000000 0.000000 0.057709 0.050396 0.114537
    27 0.763128 -1.671615 0.000000 -1.221132 0.000324 0.074108
    28 0.690450 -5.886988 0.000000 0.815852 -0.062847 -0.029177
  time 22
    0 0.075442 8.052706 7.996905 0.000000 -0.275359 -1.570939
    1 0.000000 0.000000 0.000000 -1.570795 -1.570796 0.000000
    2 -0.000006 0.000007 4.563451 -0.005705 -2.995034 -0.165727
    3 4.656425 0.000000 0.000000 0.000000 0.000000 -1.146941
    4 4.701634 0.000000 0.000000 0.064752 -0.131553 0.726849
    5 0.406872 1.311033 -0.429476 0.000000 0.000000 1.570796
    6 0.135624 0.000000 0.000001 0.000000 0.000000 0.000000
    7 0.135624 0.000000 -0.000001 0.000000 0.000000 0.000000
    8 0.406872 1.311033 0.429477 0.000000 0.000000 1.570796
    9 0.144666 0.000000 0.000000 0.000000 0.000000 0.000000
    10 0.144666 0.000000 0.000000 0.000000 0.000000 0.000000
    11 0.000006 -0.000005 -4.563451 0.007635 2.995599 -0.160459
    12 4.656425 0.000000 0.000000 0.000000 0.000000 -1.174244
    13 4.701634 0.000000 0.000000 -0.063294 0.131883 0.776862
    14 0.406872 1.311032 0.429476 0.000000 0.000000 1.570796
    15 0.135625 0.000000 0.000001 0.000000 0.000000 0.000000
    16 0.135624 0.000000 -0.000001 0.000000 0.000000 0.000000
    17 0.406872 1.311033 -0.429476 0.000000 0.000000 1.570796
    18 0.144666 0.000000 0.000000 0.000000 0.000000 0.000000
    19 0.144666 0.000000 0.000000 0.000000 0.000000 0.000000
    20 0.323097 0.004998 0.000001 -0.000004 0.000002 2.216241
    21 10.437629 -0.000360 0.000000 0.000000 0.000000 0.000000
    22 -1.363172 0.158762 -3.724681 0.367830 -1.329383 0.297375
    23 -0.779825 -1.655838 0.000000 -0.592927 -0.307338 -0.061261
    24 -0.357251 -5.650512 0.000000 1.032399 0.324263 -0.089624
    25 -1.479081 0.176403 3.393355 0.482331 -1.645243 0.444135
    26 0.000000 0.000000 0.000000 0.061418 0.054087 0.116778
    27 0.763128 -1.671615 0.000000 -1.247082 0.008502 0.073610
    28 0.690450 -5.886988 0.000000 0.764283 -0.077258 -0.024535
  time 23
    0 0.075442 7.783166 8.219568 0.000000 -0.230805 -1.570939
    1 0.000000 0.000000 0.000000 -1.570795 -1.570796 0.000000
    2 -0.000006 0.000007 4.563451 -0.014052 -2.999797 -0.126001
    3 4.656425 0.000000 0.000000 0.000000 0.000000 -1.039717
    4 4.701634 0.000000 0.000000 0.059755 -0.129295 0.703781
    5 0.406872 1.311033 -0.429476 0.000000 0.000000 1.570796
    6 0.135624 0.000000 0.000001 0.000000 0.000000 0.000000
    7 0.135624 0.000000 -0.000001 0.000000 0.000000 0.000000
    8 0.406872 1.311033 0.429477 0.000000 0.000000 1.570796
    9 0.144666 0.000000 0.000000 0.000000 0.000000 0.000000
    10 0.144666 0.000000 0.000000 0.000000 0.000000 0.000000
    11 0.000006 -0.000005 -4.563451 0.015933 3.000452 -0.121410
    12 4.656425 0.000000 0.000000 0.000000 0.000000 -1.067587
    13 4.701634 0.000000 0.000000 -0.058470 0.129512 0.753750
    14 0.406872 1.311032 0.429476 0.000000 0.000000 1.570796
    15 0.135625 0.000000 0.000001 0.000000 0.000000 0.000000
    16 0.135624 0.000000 -0.000001 0.000000 0.000000 0.000000
    17 0.406872 1.311033 -0.429476 0.000000 0.000000 1.570796
    18 0.144666 0.000000 0.000000 0.000000 0.000000 0.000000
    19 0.144666 0.000000 0.000000 0.000000 0.000000 0.000000
    20 0.323097 0.004998 0.000001 -0.000004 0.000002 2.216241
    21 10.437629 -0.000360 0.000000 0.000000 0.000000 0.000000
    22 -1.363172 0.158762 -3.724681 0.342496 -1.319439 0.310850
    23 -0.779825 -1.655838 0.000000 -0.613756 -0.314492 -0.058227
    24 -0.357251 -5.650512 0.000000 0.925641 0.352223 -0.096015
    25 -1.479081 0.176403 3.393355 0.484462 -1.648407 0.441695
    26 0.000000 0.000000 0.000000 0.065199 0.057779 0.119043
    27 0.763128 -1.671615 0.000000 -1.273032 0.016618 0.072894
    28 0.690450 -5.886988 0.000000 0.709719 -0.091290 -0.018965
  time 24
    0 0.075442 7.525346 8.426605 0.000000 -0.187803 -1.570939
    1 0.000000 0.000000 0.000000 -1.570795 -1.570796 0.000000
    2 -0.000006 0.000007 4.563451 -0.021802 -3.004907 -0.085365
    3 4.656425 0.000000 0.000000 0.000000 0.000000 -0.926110
    4 4.701634 0.000000 0.000000 0.054952 -0.126931 0.673900
    5 0.406872 1.311033 -0.429476 0.000000 0.000000 1.570796
    6 0.135624 0.000000 0.000001 0.000000 0.000000 0.000000
    7 0.135624 0.000000 -0.000001 0.000000 0.000000 0.000000
    8 0.406872 1.311033 0.429477 0.000000 0.000000 1.570796
    9 0.144666 0.000000 0.000000 0.000000 0.000000 0.000000
    10 0.144666 0.000000 0.000000 0.000000 0.000000 0.000000
    11 0.000006 -0.000005 -4.563451 0.023583 3.005702 -0.081765
    12 4.656425 0.000000 0.000000 0.000000 0.000000 -0.955178
    13 4.701634 0.000000 0.000000 -0.053816 0.127036 0.723862
    14 0.406872 1.311032 0.429476 0.000000 0.000000 1.570796
    15 0.135625 0.000000 0.000001 0.000000 0.000000 0.000000
    16 0.135624 0.000000 -0.000001 0.000000 0.000000 0.000000
    17 0.406872 1.311033 -0.429476 0.000000 0.000000 1.570796
    18 0.144666 0.000000 0.000000 0.000000 0.000000 0.000000
    19 0.144666 0.000000 0.000000 0.000000 0.000000 0.000000
    20 0.323097 0.004998 0.000001 -0.000004 0.000002 2.216241
    21 10.437629 -0.000360 0.000000 0.000000 0.000000 0.000000
    22 -1.363172 0.158762 -3.724681 0.318662 -1.309366 0.322756
    23 -0.779825 -1.655838 0.000000 -0.634624 -0.321663 -0.055000
    24 -0.357251 -5.650512 0.000000 0.811994 0.380053 -0.106726
    25 -1.479081 0.176403 3.393355 0.486518 -1.651571 0.439407
    26 0.000000 0.000000 0.000000 0.069051 0.061452 0.121296
    27 0.763128 -1.671615 0.000000 -1.298982 0.024735 0.071960
    28 0.690450 -5.886988 0.000000 0.653304 -0.104976 -0.012493
  time 25
    0 0.075442 7.298776 8.625830 0.000000 -0.146718 -1.570939
    1 0.000000 0.000000 0.000000 -1.570795 -1.570796 0.000000
    2 -0.000006 0.000007 4.563451 -0.028956 -3.010449 -0.042201
    3 4.656425 0.000000 0.000000 0.000000 0.000000 -0.803814
    4 4.701634 0.000000 0.000000 0.050266 -0.124462 0.635645
    5 0.406872 1.311033 -0.429476 0.000000 0.000000 1.570796
    6 0.135624 0.000000 0.000001 0.000000 0.000000 0.000000
    7 0.135624 0.000000 -0.000001 0.000000 0.000000 0.000000
    8 0.406872 1.311033 0.429477 0.000000 0.000000 1.570796
    9 0.144666 0.000000 0.000000 0.000000 0.000000 0.000000
    10 0.144666 0.000000 0.000000 0.000000 0.000000 0.000000
    11 0.000006 -0.000005 -4.563451 0.030614 3.011322 -0.040089
    12 4.656425 0.000000 0.000000 0.000000 0.000000 -0.835100
    13 4.701634 0.000000 0.000000 -0.049281 0.124438 0.686548
    14 0.406872 1.311032 0.429476 0.000000 0.000000 1.570796
    15 0.135625 0.000000 0.000001 0.000000 0.000000 0.000000
    16 0.135624 0.000000 -0.000001 0.000000 0.000000 0.000000
    17 0.406872 1.311033 -0.429476 0.000000 0.000000 1.570796
    18 0.144666 0.000000 0.000000 0.000000 0.000000 0.000000
    19 0.144666 0.000000 0.000000 0.000000 0.000000 0.000000
    20 0.323097 0.004998 0.000001 -0.000004 0.000002 2.216241
    21 10.437629 -0.000360 0.000000 0.000000 0.000000 0.000000
    22 -1.363172 0.158762 -3.724681 0.296161 -1.299242 0.333370
    23 -0.779825 -1.655838 0.000000 -0.655532 -0.328901 -0.051725
    24 -0.357251 -5.650512 0.000000 0.693841 0.406924 -0.121490
    25 -1.479081 0.176403 3.393355 0.488192 -1.654708 0.437272
    26 0.000000 0.000000 0.000000 0.072760 0.065144 0.123585
    27 0.763128 -1.671615 0.000000 -1.324932 0.032812 0.070839
    28 0.690450 -5.886988 0.000000 0.595983 -0.118220 -0.005199
  time 26
    0 0.075442 7.095645 8.813336 0.000000 -0.108281 -1.570939
    1 0.000000 0.000000 0.000000 -1.570795 -1.570796 0.000000
    2 -0.000006 0.000007 4.563451 -0.035770 -3.016511 0.005460
    3 4.656425 0.000000 0.000000 0.000000 0.000000 -0.669288
    4 4.701634 0.000000 0.000000 0.045619 -0.121816 0.587211
    5 0.406872 1.311033 -0.429476 0.000000 0.000000 1.570796
    6 0.135624 0.000000 0.000001 0.000000 0.000000 0.000000
    7 0.135624 0.000000 -0.000001 0.000000 0.000000 0.000000
    8 0.406872 1.311033 0.429477 0.000000 0.000000 1.570796
    9 0.144666 0.000000 0.000000 0.000000 0.000000 0.000000
    10 0.144666 0.000000 0.000000 0.000000 0.000000 0.000000
    11 0.000006 -0.000005 -4.563451 0.037092 3.017351 0.005089
    12 4.656425 0.000000 0.000000 0.000000 0.000000 -0.704671
    13 4.701634 0.000000 0.000000 -0.044771 0.121718 0.639767
    14 0.406872 1.311032 0.429476 0.000000 0.000000 1.570796
    15 0.135625 0.000000 0.000001 0.000000 0.000000 0.000000
    16 0.135624 0.000000 -0.000001 0.000000 0.000000 0.000000
    17 0.406872 1.311033 -0.429476 0.000000 0.000000 1.570796
    18 0.144666 0.000000 0.000000 0.000000 0.000000 0.000000
    19 0.144666 0.000000 0.000000 0.000000 0.000000 0.000000
    20 0.323097 0.004998 0.000001 -0.000004 0.000002 2.216241
    21 10.437629 -0.000360 0.000000 0.000000 0.000000 0.000000
    22 -1.363172 0.158762 -3.724681 0.274910 -1.289041 0.342507
    23 -0.779825 -1.655838 0.000000 -0.676519 -0.336322 -0.048354
    24 -0.357251 -5.650512 0.000000 0.573781 0.431953 -0.139865
    25 -1.479081 0.176403 3.393355 0.489867 -1.657819 0.435289
    26 0.000000 0.000000 0.000000 0.076541 0.068799 0.125886
    27 0.763128 -1.671615 0.000000 -1.350882 0.040848 0.069469
    28 0.690450 -5.886988 0.000000 0.538859 -0.131023 0.002812
  time 27
    0 0.075442 6.927671 8.989123 0.000000 -0.073222 -1.570939
    1 0.000000 0.000000 0.000000 -1.570795 -1.570796 0.000000
    2 -0.000006 0.000007 4.563451 -0.042242 -3.022919 0.061765
    3 4.656425 0.000000 0.000000 0.000000 0.000000 -0.515398
    4 4.701634 0.000000 0.000000 0.040913 -0.119029 0.524739
    5 0.406872 1.311033 -0.429476 0.000000 0.000000 1.570796
    6 0.135624 0.000000 0.000001 0.000000 0.000000 0.000000
    7 0.135624 0.000000 -0.000001 0.000000 0.000000 0.000000
    8 0.406872 1.311033 0.429477 0.000000 0.000000 1.570796
    9 0.144666 0.000000 0.000000 0.000000 0.000000 0.000000
    10 0.144666 0.000000 0.000000 0.000000 0.000000 0.000000
    11 0.000006 -0.000005 -4.563451 0.043142 3.023822 0.057194
    12 4.656425 0.000000 0.000000 0.000000 0.000000 -0.558456
    13 4.701634 0.000000 0.000000 -0.040223 0.118789 0.580826
    14 0.406872 1.311032 0.429476 0.000000 0.000000 1.570796
    15 0.135625 0.000000 0.000001 0.000000 0.000000 0.000000
    16 0.135624 0.000000 -0.000001 0.000000 0.000000 0.000000
    17 0.406872 1.311033 -0.429476 0.000000 0.000000 1.570796
    18 0.144666 0.000000 0.000000 0.000000 0.000000 0.000000
    19 0.144666 0.000000 0.000000 0.000000 0.000000 0.000000
    20 0.323097 0.004998 0.000001 -0.000004 0.000002 2.216241
    21 10.437629 -0.000360 0.000000 0.000000 0.000000 0.000000
    22 -1.363172 0.158762 -3.724681 0.254909 -1.278710 0.350537
    23 -0.779825 -1.655838 0.000000 -0.697466 -0.343994 -0.044838
    24 -0.357251 -5.650512 0.000000 0.454892 0.454492 -0.160932
    25 -1.479081 0.176403 3.393355 0.491389 -1.660983 0.433459
    26 0.000000 0.000000 0.000000 0.080393 0.072437 0.128199
    27 0.763128 -1.671615 0.000000 -1.376919 0.048863 0.067912
    28 0.690450 -5.886988 0.000000 0.482877 -0.143416 0.011485
  time 28
    0 0.075442 6.798761 9.153190 0.000000 -0.042637 -1.570939
    1 0.000000 0.000000 0.000000 -1.570795 -1.570796 0.000000
    2 -0.000006 0.000007 4.563451 -0.049652 -3.030540 0.138640
    3 4.656425 0.000000 0.000000 0.000000 0.000000 -0.320260
    4 4.701634 0.000000 0.000000 0.036130 -0.116118 0.437312
    5 0.406872 1.311033 -0.429476 0.000000 0.000000 1.570796
    6 0.135624 0.000000 0.000001 0.000000 0.000000 0.000000
    7 0.135624 0.000000 -0.000001 0.000000 0.000000 0.000000
    8 0.406872 1.311033 0.429477 0.000000 0.000000 1.570796
    9 0.144666 0.000000 0.000000 0.000000 0.000000 0.000000
    10 0.144666 0.000000 0.000000 0.000000 0.000000 0.000000
    11 0.000006 -0.000005 -4.563451 0.049334 3.030977 0.123270
    12 4.656425 0.000000 0.000000 0.000000 0.000000 -0.384124
    13 4.701634 0.000000 0.000000 -0.035543 0.115755 0.503136
    14 0.406872 1.311032 0.429476 0.000000 0.000000 1.570796
    15 0.135625 0.000000 0.000001 0.000000 0.000000 0.000000
    16 0.135624 0.000000 -0.000001 0.000000 0.000000 0.000000
    17 0.406872 1.311033 -0.429476 0.000000 0.000000 1.570796
    18 0.144666 0.000000 0.000000 0.000000 0.000000 0.000000
    19 0.144666 0.000000 0.000000 0.000000 0.000000 0.000000
    20 0.323097 0.004998 0.000001 -0.000004 0.000002 2.216241
    21 10.437629 -0.000360 0.000000 0.000000 0.000000 0.000000
    22 -1.363172 0.158762 -3.724681 0.235992 -1.268302 0.357367
    23 -0.779825 -1.655838 0.000000 -0.718453 -0.352032 -0.041371
    24 -0.357251 -5.650512 0.000000 0.339988 0.474360 -0.183656
    25 -1.479081 0.176403 3.393355 0.492912 -1.664094 0.431705
    26 0.000000 0.000000 0.000000 0.084245 0.076075 0.130524
    27 0.763128 -1.671615 0.000000 -1.403000 0.056818 0.066137
    28 0.690450 -5.886988 0.000000 0.429141 -0.155462 0.020583
  time 29
    0 0.075442 6.724540 9.301632 0.000000 -0.017347 -1.570939
    1 0.000000 0.000000 0.000000 -1.570795 -1.570796 0.000000
    2 -0.000006 0.000007 4.563451 -0.061661 -3.041624 0.277126
    3 4.656425 0.000000 0.000000 0.000000 0.000000 -0.004274
    4 4.701634 0.000000 0.000000 0.031269 -0.113208 0.285113
    5 0.406872 1.311033 -0.429476 0.000000 0.000000 1.570796
    6 0.135624 0.000000 0.000001 0.000000 0.000000 0.000000
    7 0.135624 0.000000 -0.000001 0.000000 0.000000 0.000000
    8 0.406872 1.311033 0.429477 0.000000 0.000000 1.570796
    9 0.144666 0.000000 0.000000 0.000000 0.000000 0.000000
    10 0.144666 0.000000 0.000000 0.000000 0.000000 0.000000
    11 0.000006 -0.000005 -4.563451 0.060357 3.041476 0.251640
    12 4.656425 0.000000 0.000000 0.000000 0.000000 -0.087669
    13 4.701634 0.000000 0.000000 -0.030863 0.112739 0.360286
    14 0.406872 1.311032 0.429476 0.000000 0.000000 1.570796
    15 0.135625 0.000000 0.000001 0.000000 0.000000 0.000000
    16 0.135624 0.000000 -0.000001 0.000000 0.000000 0.000000
    17 0.406872 1.311033 -0.429476 0.000000 0.000000 1.570796
    18 0.144666 0.000000 0.000000 0.000000 0.000000 0.000000
    19 0.144666 0.000000 0.000000 0.000000 0.000000 0.000000
    20 0.323097 0.004998 0.000001 -0.000004 0.000002 2.216241
    21 10.437629 -0.000360 0.000000 0.000000 0.000000 0.000000
    22 -1.363172 0.158762 -3.724681 0.218075 -1.257740 0.363089
    23 -0.779825 -1.655838 0.000000 -0.739440 -0.360487 -0.037807
    24 -0.357251 -5.650512 0.000000 0.232450 0.491530 -0.206735
    25 -1.479081 0.176403 3.393355 0.494206 -1.667257 0.430103
    26 0.000000 0.000000 0.000000 0.087954 0.079731 0.132873
    27 0.763128 -1.671615 0.000000 -1.429124 0.064733 0.064144
    28 0.690450 -5.886988 0.000000 0.378793 -0.167224 0.030052
  time 30
    0 0.075442 6.693289 9.418823 0.000000 0.000000 -1.570939
    1 0.000000 0.000000 0.000000 -1.570795 -1.570796 0.000000
    2 -0.000006 0.000007 4.563451 0.000001 -2.967150 -0.091278
    3 4.656425 0.000000 0.000000 0.000000 0.000000 -0.400611
    4 4.701634 0.000000 0.000000 0.016063 -0.173711 0.307935
    5 0.406872 1.311033 -0.429476 0.000000 0.000000 1.570796
    6 0.135624 0.000000 0.000001 0.000000 0.000000 0.000000
    7 0.135624 0.000000 -0.000001 0.000000 0.000000 0.000000
    8 0.406872 1.311033 0.429477 0.000000 0.000000 1.570796
    9 0.144666 0.000000 0.000000 0.000000 0.000000 0.000000
    10 0.144666 0.000000 0.000000 0.000000 0.000000 0.000000
    11 0.000006 -0.000005 -4.563451 0.000001 2.967147 -0.091278
    12 4.656425 0.000000 0.000000 0.000000 0.000000 -0.400611
    13 4.701634 0.000000 0.000000 -0.016063 0.173711 0.307935
    14 0.406872 1.311032 0.429476 0.000000 0.000000 1.570796
    15 0.135625 0.000000 0.000001 0.000000 0.000000 0.000000
    16 0.135624 0.000000 -0.000001 0.000000 0.000000 0.000000
    17 0.406872 1.311033 -0.429476 0.000000 0.000000 1.570796
    18 0.144666 0.000000 0.000000 0.000000 0.000000 0.000000
    19 0.144666 0.000000 0.000000 0.000000 0.000000 0.000000
    20 0.323097 0.004998 0.000001 -0.000004 0.000002 2.216241
    21 10.437629 -0.000360 0.000000 0.000000 0.000000 0.000000
    22 -1.363172 0.158762 -3.724681 -1.555577 -1.282239 2.470648
    23 -0.779825 -1.655838 0.000000 -0.003241 0.027267 -0.374743
    24 -0.357251 -5.650512 0.000000 -0.024307 -0.036338 0.037755
    25 -1.479081 0.176403 3.393355 -0.168270 -1.488878 1.023173
    26 0.000000 0.000000 0.000000 0.204727 0.155307 0.230584
    27 0.763128 -1.671615 0.000000 -0.174890 -0.096755 -0.083792
    28 0.690450 -5.886988 0.000000 -0.216836 0.116991 -0.109572
end
