// Created by Crowbar 0.56
version 1
nodes
  0 "Bip01" -1
  1 "Bip01 Pelvis" 0
  2 "Bip01 L Thigh" 1
  3 "Bip01 L Calf" 2
  4 "Bip01 L Foot" 3
  5 "Bip01 R Thigh" 1
  6 "Bip01 R Calf" 5
  7 "Bip01 R Foot" 6
  8 "Bip01 Spine" 1
  9 "Bip01 Spine1" 8
  10 "Armour Front" 8
  11 "Armour Back" 8
  12 "Holster" 1
  13 "Bip01 Neck" 9
  14 "Bip01 R Clavicle" 13
  15 "Bip01 R UpperArm" 14
  16 "Bip01 R Forearm" 15
  17 "Bip01 L Clavicle" 13
  18 "Bip01 L UpperArm" 17
  19 "Bip01 L Forearm" 18
  20 "Bip01 R Hand" 16
  21 "Bip01 R Finger0" 20
  22 "Bip01 R Finger01" 21
  23 "Bip01 R Finger1" 20
  24 "Bip01 R Finger11" 23
  25 "Bip01 R Finger12" 24
  26 "Bip01 R Finger2" 20
  27 "Bip01 R Finger21" 26
  28 "Bip01 R Finger22" 27
  29 "Bip01 L Hand" 19
  30 "Bip01 L Finger0" 29
  31 "Bip01 L Finger01" 30
  32 "Bip01 L Finger02" 31
  33 "Bip01 L Finger1" 29
  34 "Bip01 L Finger11" 33
  35 "Bip01 L Finger12" 34
  36 "Bip01 L Finger2" 29
  37 "Bip01 L Finger21" 36
  38 "Bip01 L Finger22" 37
  39 "Bip01 R Finger02" 22
  40 "Bip01 Head" 13
  41 "R_eyebrow" 40
  42 "C_eyebrow" 40
  43 "L_eyebrow" 40
  44 "R_eye" 40
  45 "Eyelids" 40
  46 "L_eye" 40
  47 "Mouth" 40
  48 "ID Tag" 9
end
skeleton
  time 0
    0 0.430428 4.628259 26.969940 0.000000 0.000000 -1.570987
    1 -6.167830 0.000000 0.000000 0.000000 -1.570451 -1.570795
    2 -0.000007 0.000008 4.427393 2.952198 -0.223110 1.982104
    3 18.465940 0.000000 0.000000 0.000000 0.000000 -1.580921
    4 14.875443 0.000000 -0.000001 -0.096224 0.085722 0.412214
    5 0.000009 -0.000004 -4.427393 -2.976388 0.252384 1.965163
    6 18.465942 0.000000 0.000000 0.000000 0.000000 -1.546979
    7 14.875444 0.000000 0.000000 0.079864 -0.057258 0.358103
    8 2.255209 -0.007574 0.000003 -0.000004 -0.000001 0.489410
    9 9.514224 -0.009357 0.000000 0.000000 0.000000 0.261766
    10 2.450428 5.076128 0.001325 0.000000 -1.570796 3.140791
    11 6.312406 -4.528058 0.001311 0.000000 -1.570796 3.140791
    12 2.233309 1.152535 -7.309138 0.000000 -1.570796 -1.570796
    13 11.751817 -0.001633 0.000000 0.000000 -0.000001 0.478697
    14 -1.969053 0.936888 -2.649726 -0.797443 1.288357 1.884892
    15 4.640942 0.000000 -0.000003 0.927140 -0.737023 -1.203350
    16 10.828047 0.000000 0.000000 0.000000 0.000000 -1.114588
    17 -1.972960 0.929063 2.649729 0.797312 -1.288402 1.884835
    18 4.640942 0.000000 0.000000 -0.983675 0.717798 -1.280709
    19 10.828046 0.000000 -0.000002 0.000000 0.000000 -0.990662
    20 9.393339 0.000001 0.000001 1.085092 -0.320067 -0.046445
    21 1.442242 0.107453 1.746178 -1.585495 0.497010 0.117514
    22 1.063451 0.000002 0.000000 0.000000 0.000000 1.230393
    23 4.172844 -0.251366 1.312745 -0.082618 -0.049003 1.101442
    24 1.215372 0.000000 0.000002 0.000000 0.000000 1.099504
    25 1.215374 0.000001 0.000000 0.000000 0.000000 1.099447
    26 4.220534 -0.244853 0.431466 -0.022090 -0.014185 1.099633
    27 1.350417 0.000001 0.000000 0.000000 0.000000 1.099433
    28 1.350410 -0.000001 0.000000 0.000000 0.000000 1.099431
    29 9.393337 0.000000 0.000000 -1.383773 0.390777 -0.172755
    30 1.442246 0.107454 -1.746177 1.584813 0.393020 0.129826
    31 1.063452 -0.000001 -0.000001 0.000000 0.000000 0.130914
    32 1.376306 -0.000001 -0.000001 0.000000 0.000000 0.034932
    33 4.172850 -0.251366 -1.312744 0.027022 0.092232 0.350185
    34 1.215374 0.000001 0.000001 0.000000 0.000000 0.349041
    35 1.215369 -0.000002 0.000000 0.000000 0.000000 0.776667
    36 4.220536 -0.244855 -0.431465 0.006498 0.025463 0.349071
    37 1.350417 0.000000 0.000000 0.000000 0.000000 0.349013
    38 1.350411 -0.000001 -0.000001 0.000000 0.000000 0.523556
    39 1.376305 -0.000002 0.000000 0.000000 0.000000 1.195455
    40 2.110539 0.000000 0.000000 0.000000 0.000000 -0.671630
    41 5.253239 3.139476 -1.673515 0.000000 -1.570796 2.984594
    42 5.253257 3.139473 -0.054760 0.000000 -1.570796 2.984594
    43 5.253252 3.139468 1.574632 0.000000 -1.570796 2.984594
    44 4.598144 4.158443 -1.350299 0.000000 -1.570796 2.984594
    45 4.598136 4.158431 -0.054439 0.000000 -1.570796 2.984594
    46 4.598139 4.158430 1.240876 0.000000 -1.570796 2.984594
    47 0.891925 2.373051 -0.014527 -3.141592 -0.000001 1.413797
    48 7.228119 5.709446 3.726568 0.000000 -1.570796 3.140796
  time 1
    0 0.430428 4.295504 28.099922 0.000000 0.000000 -1.570987
    1 -6.281114 0.007813 0.000000 0.000000 -1.570451 -1.570795
    2 -0.000007 0.000008 4.427393 2.955671 -0.192226 2.064541
    3 18.465940 0.000000 0.000000 0.000000 0.000000 -1.514986
    4 14.875443 0.000000 -0.000001 -0.084776 0.073722 0.429644
    5 0.000009 -0.000004 -4.427393 -2.980239 0.221781 2.037157
    6 18.465942 0.000000 0.000000 0.000000 0.000000 -1.473362
    7 14.875444 0.000000 0.000000 0.071477 -0.045913 0.357243
    8 2.255209 -0.007574 0.000003 -0.001949 0.000759 0.492090
    9 9.514224 -0.009357 0.000000 0.000113 -0.000054 0.290000
    10 2.450428 5.076128 0.001325 0.000000 -1.570796 3.140791
    11 6.312406 -4.528058 0.001311 0.000000 -1.570796 3.140791
    12 2.233309 1.152535 -7.309138 0.000000 -1.570796 -1.570796
    13 11.751817 -0.001633 0.000000 -0.000012 -0.000737 0.479359
    14 -1.969053 0.936888 -2.649726 -0.770792 1.292262 1.910000
    15 4.640942 0.000000 -0.000003 0.916532 -0.736954 -1.170720
    16 10.828047 0.000000 0.000000 0.000000 0.000000 -1.091634
    17 -1.969053 0.925157 2.649729 0.772906 -1.293388 1.908217
    18 4.640942 0.000000 0.000000 -0.970756 0.717510 -1.247698
    19 10.828046 0.000000 -0.000002 0.000000 0.000000 -0.968117
    20 9.393339 0.000001 0.000001 1.101872 -0.305462 -0.038541
    21 1.442242 0.107453 1.746178 -1.585310 0.458216 0.115339
    22 1.063451 0.000002 0.000000 0.000000 0.000000 1.191438
    23 4.172844 -0.251366 1.312745 -0.080617 -0.052287 1.061255
    24 1.215372 0.000000 0.000002 0.000000 0.000000 1.050611
    25 1.215374 0.000001 0.000000 0.000000 0.000000 1.050638
    26 4.220534 -0.244853 0.431466 -0.021539 -0.015036 1.059256
    27 1.350417 0.000001 0.000000 0.000000 0.000000 1.046975
    28 1.350410 -0.000001 0.000000 0.000000 0.000000 1.046940
    29 9.393337 0.000000 0.000000 -1.387919 0.374539 -0.158006
    30 1.442246 0.107454 -1.746177 1.583463 0.398900 0.126887
    31 1.063452 -0.000001 -0.000001 0.000000 0.000000 0.132575
    32 1.376306 -0.000001 -0.000001 0.000000 0.000000 0.038247
    33 4.172850 -0.251366 -1.312744 0.025823 0.092567 0.337523
    34 1.215374 0.000001 0.000001 0.000000 0.000000 0.327972
    35 1.215369 -0.000002 0.000000 0.000000 0.000000 0.739797
    36 4.220536 -0.244855 -0.431465 0.006199 0.025559 0.336462
    37 1.350417 0.000000 0.000000 0.000000 0.000000 0.324243
    38 1.350411 -0.000001 -0.000001 0.000000 0.000000 0.492278
    39 1.376305 -0.000002 0.000000 0.000000 0.000000 1.155893
    40 2.110539 0.000000 0.000000 -0.000566 0.000000 -0.521703
    41 5.253239 3.139476 -1.673515 0.000000 -1.570796 2.984594
    42 5.253257 3.139473 -0.054760 0.000000 -1.570796 2.984594
    43 5.253252 3.139468 1.574632 0.000000 -1.570796 2.984594
    44 4.598144 4.158443 -1.350299 0.000000 -1.570796 2.984594
    45 4.598136 4.158431 -0.054439 0.000000 -1.570796 2.984594
    46 4.598139 4.158430 1.240876 0.000000 -1.570796 2.984594
    47 0.891925 2.373051 -0.014527 -3.141592 -0.000001 1.413797
    48 7.228119 5.709446 3.726568 0.000000 -1.570796 3.140796
  time 2
    0 0.430428 3.982953 29.190938 0.000000 0.000000 -1.570987
    1 -6.441276 0.027345 0.000000 0.000000 -1.570451 -1.570795
    2 -0.000007 0.000008 4.427393 2.961680 -0.161542 2.145150
    3 18.465940 0.000000 0.000000 0.000000 0.000000 -1.452780
    4 14.875443 0.000000 -0.000001 -0.074324 0.064173 0.449424
    5 0.000009 -0.000004 -4.427393 -2.985991 0.190821 2.108188
    6 18.465942 0.000000 0.000000 0.000000 0.000000 -1.403345
    7 14.875444 0.000000 0.000000 0.064173 -0.037215 0.359594
    8 2.255209 -0.007574 0.000003 -0.005150 0.002108 0.499732
    9 9.514224 -0.009357 0.000000 0.000338 -0.000175 0.324614
    10 2.450428 5.076128 0.001325 0.000000 -1.570796 3.140791
    11 6.312406 -4.528058 0.001311 0.000000 -1.570796 3.140791
    12 2.233309 1.152535 -7.309138 0.000000 -1.570796 -1.570796
    13 11.751817 -0.001633 0.000000 -0.000036 -0.001931 0.480485
    14 -1.976866 0.940795 -2.649726 -0.740499 1.294673 1.938558
    15 4.640942 0.000000 -0.000003 0.908409 -0.728160 -1.140535
    16 10.828047 0.000000 0.000000 0.000000 0.000000 -1.074531
    17 -1.969053 0.936876 2.653635 0.745438 -1.297694 1.933900
    18 4.640942 0.000000 0.000000 -0.959809 0.707120 -1.218550
    19 10.828046 0.000000 -0.000002 0.000000 0.000000 -0.948270
    20 9.393339 0.000001 0.000001 1.115892 -0.292191 -0.029473
    21 1.442242 0.107453 1.746178 -1.584493 0.425301 0.111167
    22 1.063451 0.000002 0.000000 0.000000 0.000000 1.158234
    23 4.172844 -0.251366 1.312745 -0.078675 -0.055152 1.025795
    24 1.215372 0.000000 0.000002 0.000000 0.000000 1.001173
    25 1.215374 0.000001 0.000000 0.000000 0.000000 1.001086
    26 4.220534 -0.244853 0.431466 -0.020975 -0.015791 1.023866
    27 1.350417 0.000001 0.000000 0.000000 0.000000 0.991201
    28 1.350410 -0.000001 0.000000 0.000000 0.000000 0.991143
    29 9.393337 0.000000 0.000000 -1.390867 0.360288 -0.143012
    30 1.442246 0.107454 -1.746177 1.581084 0.403838 0.121827
    31 1.063452 -0.000001 -0.000001 0.000000 0.000000 0.133757
    32 1.376306 -0.000001 -0.000001 0.000000 0.000000 0.040370
    33 4.172850 -0.251366 -1.312744 0.024745 0.092831 0.325463
    34 1.215374 0.000001 0.000001 0.000000 0.000000 0.301840
    35 1.215369 -0.000002 0.000000 0.000000 0.000000 0.700272
    36 4.220536 -0.244855 -0.431465 0.005911 0.025643 0.324453
    37 1.350417 0.000000 0.000000 0.000000 0.000000 0.291843
    38 1.350411 -0.000001 -0.000001 0.000000 0.000000 0.454529
    39 1.376305 -0.000002 0.000000 0.000000 0.000000 1.121730
    40 2.110539 0.000000 0.000000 -0.001851 0.000000 -0.361005
    41 5.253239 3.139476 -1.673515 0.000000 -1.570796 2.984594
    42 5.253257 3.139473 -0.054760 0.000000 -1.570796 2.984594
    43 5.253252 3.139468 1.574632 0.000000 -1.570796 2.984594
    44 4.598144 4.158443 -1.350299 0.000000 -1.570796 2.984594
    45 4.598136 4.158431 -0.054439 0.000000 -1.570796 2.984594
    46 4.598139 4.158430 1.240876 0.000000 -1.570796 2.984594
    47 0.891925 2.373051 -0.014527 -3.141592 -0.000001 1.413797
    48 7.228119 5.709446 3.726568 0.000000 -1.570796 3.140796
  time 3
    0 0.430428 3.660300 30.320920 0.000000 0.000000 -1.570987
    1 -6.488152 0.031251 0.000000 0.000000 -1.570451 -1.570795
    2 -0.000007 0.000008 4.427393 2.970224 -0.131529 2.225759
    3 18.465940 0.000000 0.000000 0.000000 0.000000 -1.390500
    4 14.875443 0.000000 -0.000001 -0.064689 0.056609 0.469139
    5 0.000009 -0.000004 -4.427393 -2.993744 0.160432 2.178898
    6 18.465942 0.000000 0.000000 0.000000 0.000000 -1.333261
    7 14.875444 0.000000 0.000000 0.057391 -0.030503 0.362060
    8 2.255209 -0.007574 0.000003 -0.005839 0.002393 0.497449
    9 9.514224 -0.009357 0.000000 0.000338 -0.000202 0.346469
    10 2.450428 5.076128 0.001325 0.000000 -1.570796 3.140791
    11 6.312406 -4.528058 0.001311 0.000000 -1.570796 3.140791
    12 2.233309 1.152535 -7.309138 0.000000 -1.570796 -1.570796
    13 11.751817 -0.001633 0.000000 -0.000036 -0.002221 0.480684
    14 -1.980772 0.936888 -2.649726 -0.715670 1.299453 1.962420
    15 4.640942 0.000000 -0.000003 0.899713 -0.735837 -1.107314
    16 10.828047 0.000000 0.000000 0.000000 0.000000 -1.045533
    17 -1.969053 0.936876 2.653635 0.720841 -1.302957 1.957378
    18 4.640942 0.000000 0.000000 -0.949117 0.716067 -1.184134
    19 10.828046 0.000000 -0.000002 0.000000 0.000000 -0.923027
    20 9.393339 0.000001 0.000001 1.135873 -0.276611 -0.022102
    21 1.442242 0.107453 1.746178 -1.584151 0.380755 0.110990
    22 1.063451 0.000002 0.000000 0.000000 0.000000 1.113559
    23 4.172844 -0.251366 1.312745 -0.076159 -0.058615 0.980760
    24 1.215372 0.000000 0.000002 0.000000 0.000000 0.953120
    25 1.215374 0.000001 0.000000 0.000000 0.000000 0.953069
    26 4.220534 -0.244853 0.431466 -0.020220 -0.016714 0.978663
    27 1.350417 0.000001 0.000000 0.000000 0.000000 0.941951
    28 1.350410 -0.000001 0.000000 0.000000 0.000000 0.941907
    29 9.393337 0.000000 0.000000 -1.396764 0.342445 -0.128311
    30 1.442246 0.107454 -1.746177 1.580645 0.410544 0.120907
    31 1.063452 -0.000001 -0.000001 0.000000 0.000000 0.135908
    32 1.376306 -0.000001 -0.000001 0.000000 0.000000 0.044904
    33 4.172850 -0.251366 -1.312744 0.023474 0.093191 0.312241
    34 1.215374 0.000001 0.000001 0.000000 0.000000 0.285711
    35 1.215369 -0.000002 0.000000 0.000000 0.000000 0.665933
    36 4.220536 -0.244855 -0.431465 0.005539 0.025715 0.311283
    37 1.350417 0.000000 0.000000 0.000000 0.000000 0.274579
    38 1.350411 -0.000001 -0.000001 0.000000 0.000000 0.429851
    39 1.376305 -0.000002 0.000000 0.000000 0.000000 1.076863
    40 2.110539 0.000000 0.000000 -0.002211 -0.000150 -0.221910
    41 5.253239 3.139476 -1.673515 0.000000 -1.570796 2.984594
    42 5.253257 3.139473 -0.054760 0.000000 -1.570796 2.984594
    43 5.253252 3.139468 1.574632 0.000000 -1.570796 2.984594
    44 4.598144 4.158443 -1.350299 0.000000 -1.570796 2.984594
    45 4.598136 4.158431 -0.054439 0.000000 -1.570796 2.984594
    46 4.598139 4.158430 1.240876 0.000000 -1.570796 2.984594
    47 0.891925 2.373051 -0.014527 -3.141592 -0.000001 1.413797
    48 7.228119 5.709446 3.726568 0.000000 -1.570796 3.140796
  time 4
    0 0.430428 3.327545 31.489867 0.000000 0.000000 -1.570987
    1 -6.222519 0.000000 0.000000 0.000000 -1.570451 -1.570795
    2 -0.000007 0.000008 4.427393 2.981116 -0.102386 2.307698
    3 18.465940 0.000000 0.000000 0.000000 0.000000 -1.324638
    4 14.875443 0.000000 -0.000001 -0.055339 0.050562 0.487091
    5 0.000009 -0.000004 -4.427393 -3.004297 0.131402 2.250090
    6 18.465942 0.000000 0.000000 0.000000 0.000000 -1.259780
    7 14.875444 0.000000 0.000000 0.050770 -0.024988 0.361716
    8 2.255209 -0.007574 0.000003 -0.000004 -0.000001 0.470389
    9 9.514224 -0.009357 0.000000 0.000000 0.000000 0.336336
    10 2.450428 5.076128 0.001325 0.000000 -1.570796 3.140791
    11 6.312406 -4.528058 0.001311 0.000000 -1.570796 3.140791
    12 2.233309 1.152535 -7.309138 0.000000 -1.570796 -1.570796
    13 11.751817 -0.001633 0.000000 0.000000 -0.000001 0.478697
    14 -1.969053 0.932982 -2.649726 -0.704838 1.310719 1.973919
    15 4.640942 0.000000 -0.000003 0.880600 -0.783645 -1.060940
    16 10.828047 0.000000 0.000000 0.000000 0.000000 -0.986315
    17 -1.972960 0.925157 2.649729 0.704762 -1.310713 1.973957
    18 4.640942 0.000000 0.000000 -0.929451 0.772343 -1.129583
    19 10.828046 0.000000 -0.000002 0.000000 0.000000 -0.885003
    20 9.393339 0.000001 0.000001 1.170592 -0.254948 -0.019047
    21 1.442242 0.107453 1.746178 -1.584414 0.306586 0.120443
    22 1.063451 0.000002 0.000000 0.000000 0.000000 1.039994
    23 4.172844 -0.251366 1.312745 -0.071868 -0.063780 0.911324
    24 1.215372 0.000000 0.000002 0.000000 0.000000 0.909011
    25 1.215374 0.000001 0.000000 0.000000 0.000000 0.909067
    26 4.220534 -0.244853 0.431466 -0.019058 -0.018080 0.909210
    27 1.350417 0.000001 0.000000 0.000000 0.000000 0.909066
    28 1.350410 -0.000001 0.000000 0.000000 0.000000 0.909050
    29 9.393337 0.000000 0.000000 -1.408465 0.315510 -0.114196
    30 1.442246 0.107454 -1.746177 1.584948 0.421573 0.130286
    31 1.063452 -0.000001 -0.000001 0.000000 0.000000 0.140424
    32 1.376306 -0.000001 -0.000001 0.000000 0.000000 0.055550
    33 4.172850 -0.251366 -1.312744 0.021964 0.093526 0.296054
    34 1.215374 0.000001 0.000001 0.000000 0.000000 0.295021
    35 1.215369 -0.000002 0.000000 0.000000 0.000000 0.644905
    36 4.220536 -0.244855 -0.431465 0.005156 0.025799 0.295111
    37 1.350417 0.000000 0.000000 0.000000 0.000000 0.295054
    38 1.350411 -0.000001 -0.000001 0.000000 0.000000 0.437876
    39 1.376305 -0.000002 0.000000 0.000000 0.000000 1.005056
    40 2.110539 0.000000 0.000000 0.000000 0.000000 -0.136853
    41 5.253239 3.139476 -1.673515 0.000000 -1.570796 2.984594
    42 5.253257 3.139473 -0.054760 0.000000 -1.570796 2.984594
    43 5.253252 3.139468 1.574632 0.000000 -1.570796 2.984594
    44 4.598144 4.158443 -1.350299 0.000000 -1.570796 2.984594
    45 4.598136 4.158431 -0.054439 0.000000 -1.570796 2.984594
    46 4.598139 4.158430 1.240876 0.000000 -1.570796 2.984594
    47 0.891925 2.373051 -0.014527 -3.141592 -0.000001 1.413797
    48 7.228119 5.709446 3.726568 0.000000 -1.570796 3.140796
  time 5
    0 0.430428 3.004892 32.580883 0.000000 0.000000 -1.570987
    1 -5.648283 -0.058596 0.000000 0.000000 -1.570451 -1.570795
    2 -0.000007 0.000008 4.427393 2.994448 -0.074784 2.392711
    3 18.465940 0.000000 0.000000 0.000000 0.000000 -1.251686
    4 14.875443 0.000000 -0.000001 -0.046202 0.045636 0.500996
    5 0.000009 -0.000004 -4.427393 -3.017351 0.104267 2.322967
    6 18.465942 0.000000 0.000000 0.000000 0.000000 -1.179169
    7 14.875444 0.000000 0.000000 0.043948 -0.019914 0.355752
    8 2.255209 -0.007574 0.000003 0.012152 -0.004467 0.419873
    9 9.514224 -0.009357 0.000000 -0.000788 0.000417 0.296066
    10 2.450428 5.076128 0.001325 0.000000 -1.570796 3.140791
    11 6.312406 -4.528058 0.001311 0.000000 -1.570796 3.140791
    12 2.233309 1.152535 -7.309138 0.000000 -1.570796 -1.570796
    13 11.751817 -0.001633 0.000000 0.000072 0.004535 0.474690
    14 -1.965147 0.929076 -2.657539 -0.708385 1.328152 1.972961
    15 4.640942 0.000000 -0.000003 0.839125 -0.868094 -0.992644
    16 10.828047 0.000000 0.000000 0.000000 0.000000 -0.899128
    17 -1.992491 0.917344 2.641916 0.696914 -1.321012 1.983827
    18 4.640942 0.000000 0.000000 -0.884582 0.870898 -1.043309
    19 10.828046 0.000000 -0.000002 0.000000 0.000000 -0.834389
    20 9.393339 0.000001 0.000001 1.218724 -0.227462 -0.019047
    21 1.442242 0.107453 1.746178 -1.587023 0.204648 0.138683
    22 1.063451 0.000002 0.000000 0.000000 0.000000 0.939201
    23 4.172844 -0.251366 1.312745 -0.065732 -0.070108 0.818929
    24 1.215372 0.000000 0.000002 0.000000 0.000000 0.868848
    25 1.215374 0.000001 0.000000 0.000000 0.000000 0.868781
    26 4.220534 -0.244853 0.431466 -0.017272 -0.019770 0.816834
    27 1.350417 0.000001 0.000000 0.000000 0.000000 0.891650
    28 1.350410 -0.000001 0.000000 0.000000 0.000000 0.891604
    29 9.393337 0.000000 0.000000 -1.426155 0.280360 -0.100081
    30 1.442246 0.107454 -1.746177 1.594094 0.436618 0.149581
    31 1.063452 -0.000001 -0.000001 0.000000 0.000000 0.147198
    32 1.376306 -0.000001 -0.000001 0.000000 0.000000 0.071964
    33 4.172850 -0.251366 -1.312744 0.020191 0.093958 0.276942
    34 1.215374 0.000001 0.000001 0.000000 0.000000 0.328176
    35 1.215369 -0.000002 0.000000 0.000000 0.000000 0.636126
    36 4.220536 -0.244855 -0.431465 0.004641 0.025858 0.276137
    37 1.350417 0.000000 0.000000 0.000000 0.000000 0.351056
    38 1.350411 -0.000001 -0.000001 0.000000 0.000000 0.476747
    39 1.376305 -0.000002 0.000000 0.000000 0.000000 0.907938
    40 2.110539 0.000000 0.000000 0.004319 0.000511 -0.102756
    41 5.253239 3.139476 -1.673515 0.000000 -1.570796 2.984594
    42 5.253257 3.139473 -0.054760 0.000000 -1.570796 2.984594
    43 5.253252 3.139468 1.574632 0.000000 -1.570796 2.984594
    44 4.598144 4.158443 -1.350299 0.000000 -1.570796 2.984594
    45 4.598136 4.158431 -0.054439 0.000000 -1.570796 2.984594
    46 4.598139 4.158430 1.240876 0.000000 -1.570796 2.984594
    47 0.891925 2.373051 -0.014527 -3.141592 -0.000001 1.413797
    48 7.228119 5.709446 3.726568 0.000000 -1.570796 3.140796
  time 6
    0 0.430428 2.702444 33.710865 0.000000 0.000000 -1.570987
    1 -4.906072 -0.113285 0.000000 0.000000 -1.570451 -1.570795
    2 -0.000007 0.000008 4.427393 3.010785 -0.048790 2.482877
    3 18.465940 0.000000 0.000000 0.000000 0.000000 -1.168061
    4 14.875443 0.000000 -0.000001 -0.037172 0.041527 0.508895
    5 0.000009 -0.000004 -4.427393 -3.033356 0.080207 2.398091
    6 18.465942 0.000000 0.000000 0.000000 0.000000 -1.088031
    7 14.875444 0.000000 0.000000 0.036765 -0.014494 0.341186
    8 2.255209 -0.007574 0.000003 0.027387 -0.009141 0.359102
    9 9.514224 -0.009357 0.000000 -0.001876 0.000887 0.242654
    10 2.450428 5.076128 0.001325 0.000000 -1.570796 3.140791
    11 6.312406 -4.528058 0.001311 0.000000 -1.570796 3.140791
    12 2.233309 1.152535 -7.309138 0.000000 -1.570796 -1.570796
    13 11.751817 -0.001633 0.000000 0.000144 0.010096 0.469722
    14 -1.953428 0.917356 -2.669258 -0.720176 1.348295 1.964528
    15 4.640942 0.000000 -0.000003 0.766114 -0.964688 -0.896271
    16 10.828047 0.000000 0.000000 0.000000 0.000000 -0.799403
    17 -2.012023 0.909532 2.630197 0.692894 -1.332495 1.990823
    18 4.640942 0.000000 0.000000 -0.797708 0.982368 -0.916882
    19 10.828046 0.000000 -0.000002 0.000000 0.000000 -0.778637
    20 9.393339 0.000001 0.000001 1.272375 -0.197375 -0.019338
    21 1.442242 0.107453 1.746178 -1.592742 0.090631 0.161051
    22 1.063451 0.000002 0.000000 0.000000 0.000000 0.826617
    23 4.172844 -0.251366 1.312745 -0.058230 -0.076448 0.716558
    24 1.215372 0.000000 0.000002 0.000000 0.000000 0.830069
    25 1.215374 0.000001 0.000000 0.000000 0.000000 0.830131
    26 4.220534 -0.244853 0.431466 -0.015199 -0.021424 0.714525
    27 1.350417 0.000001 0.000000 0.000000 0.000000 0.880969
    28 1.350410 -0.000001 0.000000 0.000000 0.000000 0.880871
    29 9.393337 0.000000 0.000000 -1.446794 0.241733 -0.085478
    30 1.442246 0.107454 -1.746177 1.605772 0.453123 0.173629
    31 1.063452 -0.000001 -0.000001 0.000000 0.000000 0.154955
    32 1.376306 -0.000001 -0.000001 0.000000 0.000000 0.090875
    33 4.172850 -0.251366 -1.312744 0.018297 0.094317 0.256708
    34 1.215374 0.000001 0.000001 0.000000 0.000000 0.371661
    35 1.215369 -0.000002 0.000000 0.000000 0.000000 0.632900
    36 4.220536 -0.244855 -0.431465 0.004101 0.025942 0.255962
    37 1.350417 0.000000 0.000000 0.000000 0.000000 0.422363
    38 1.350411 -0.000001 -0.000001 0.000000 0.000000 0.529035
    39 1.376305 -0.000002 0.000000 0.000000 0.000000 0.799860
    40 2.110539 0.000000 0.000000 0.008484 0.001293 -0.090816
    41 5.253239 3.139476 -1.673515 0.000000 -1.570796 2.984594
    42 5.253257 3.139473 -0.054760 0.000000 -1.570796 2.984594
    43 5.253252 3.139468 1.574632 0.000000 -1.570796 2.984594
    44 4.598144 4.158443 -1.350299 0.000000 -1.570796 2.984594
    45 4.598136 4.158431 -0.054439 0.000000 -1.570796 2.984594
    46 4.598139 4.158430 1.240876 0.000000 -1.570796 2.984594
    47 0.891925 2.373051 -0.014527 -3.141592 -0.000001 1.413797
    48 7.228119 5.709446 3.726568 0.000000 -1.570796 3.140796
  time 7
    0 0.430428 2.359586 34.840847 0.000000 0.000000 -1.570987
    1 -4.011514 -0.167974 0.000000 0.000000 -1.570451 -1.570795
    2 -0.000007 0.000008 4.427393 3.037168 -0.024069 2.582184
    3 18.465940 0.000000 0.000000 0.000000 0.000000 -1.058048
    4 14.875443 0.000000 -0.000001 -0.035181 0.034920 0.499168
    5 0.000009 -0.000004 -4.427393 -3.058864 0.061795 2.481001
    6 18.465942 0.000000 0.000000 0.000000 0.000000 -0.966945
    7 14.875444 0.000000 0.000000 0.033194 -0.002235 0.303854
    8 2.255209 -0.007574 0.000003 0.044972 -0.013303 0.290789
    9 9.514224 -0.009357 0.000000 -0.003114 0.001317 0.179710
    10 2.450428 5.076128 0.001325 0.000000 -1.570796 3.140791
    11 6.312406 -4.528058 0.001311 0.000000 -1.570796 3.140791
    12 2.233309 1.152535 -7.309138 0.000000 -1.570796 -1.570796
    13 11.751817 -0.001633 0.000000 0.000192 0.016381 0.464092
    14 -1.945615 0.901731 -2.680977 -0.740787 1.370252 1.947949
    15 4.640942 0.000000 -0.000003 0.641211 -1.064282 -0.753523
    16 10.828047 0.000000 0.000000 0.000000 0.000000 -0.690869
    17 -2.035462 0.897813 2.622384 0.691650 -1.344708 1.995614
    18 4.640942 0.000000 0.000000 -0.636243 1.093116 -0.720512
    19 10.828046 0.000000 -0.000002 0.000000 0.000000 -0.718967
    20 9.393339 0.000001 0.000001 1.330001 -0.165368 -0.018853
    21 1.442242 0.107453 1.746178 -1.602123 -0.032015 0.186880
    22 1.063451 0.000002 0.000000 0.000000 0.000000 0.705404
    23 4.172844 -0.251366 1.312745 -0.049505 -0.082393 0.606774
    24 1.215372 0.000000 0.000002 0.000000 0.000000 0.792718
    25 1.215374 0.000001 0.000000 0.000000 0.000000 0.792620
    26 4.220534 -0.244853 0.431466 -0.012718 -0.022958 0.604896
    27 1.350417 0.000001 0.000000 0.000000 0.000000 0.875023
    28 1.350410 -0.000001 0.000000 0.000000 0.000000 0.875022
    29 9.393337 0.000000 0.000000 -1.469367 0.200776 -0.070191
    30 1.442246 0.107454 -1.746177 1.619626 0.470589 0.201281
    31 1.063452 -0.000001 -0.000001 0.000000 0.000000 0.163430
    32 1.376306 -0.000001 -0.000001 0.000000 0.000000 0.111593
    33 4.172850 -0.251366 -1.312744 0.016308 0.094713 0.235553
    34 1.215374 0.000001 0.000001 0.000000 0.000000 0.422619
    35 1.215369 -0.000002 0.000000 0.000000 0.000000 0.633431
    36 4.220536 -0.244855 -0.431465 0.003598 0.026026 0.234866
    37 1.350417 0.000000 0.000000 0.000000 0.000000 0.505054
    38 1.350411 -0.000001 -0.000001 0.000000 0.000000 0.591073
    39 1.376305 -0.000002 0.000000 0.000000 0.000000 0.683664
    40 2.110539 0.000000 0.000000 0.011003 0.001774 -0.094939
    41 5.253239 3.139476 -1.673515 0.000000 -1.570796 2.984594
    42 5.253257 3.139473 -0.054760 0.000000 -1.570796 2.984594
    43 5.253252 3.139468 1.574632 0.000000 -1.570796 2.984594
    44 4.598144 4.158443 -1.350299 0.000000 -1.570796 2.984594
    45 4.598136 4.158431 -0.054439 0.000000 -1.570796 2.984594
    46 4.598139 4.158430 1.240876 0.000000 -1.570796 2.984594
    47 0.891925 2.373051 -0.014527 -3.141592 -0.000001 1.413797
    48 7.228119 5.709446 3.726568 0.000000 -1.570796 3.140796
  time 8
    0 0.430428 2.047035 35.931864 0.000000 0.000000 -1.570987
    1 -3.003671 -0.187506 0.000000 0.000000 -1.570451 -1.570795
    2 -0.000007 0.000008 4.427393 3.067119 -0.004541 2.694455
    3 18.465940 0.000000 0.000000 0.000000 0.000000 -0.919380
    4 14.875443 0.000000 -0.000001 -0.033368 0.028196 0.473317
    5 0.000009 -0.000004 -4.427393 -3.087723 0.051141 2.569850
    6 18.465942 0.000000 0.000000 0.000000 0.000000 -0.817743
    7 14.875444 0.000000 0.000000 0.029421 0.013743 0.244042
    8 2.255209 -0.007574 0.000003 0.064056 -0.016438 0.217811
    9 9.514224 -0.009357 0.000000 -0.004540 0.001733 0.110820
    10 2.450428 5.076128 0.001325 0.000000 -1.570796 3.140791
    11 6.312406 -4.528058 0.001311 0.000000 -1.570796 3.140791
    12 2.233309 1.152535 -7.309138 0.000000 -1.570796 -1.570796
    13 11.751817 -0.001633 0.000000 0.000204 0.023197 0.458031
    14 -1.929990 0.886105 -2.692696 -0.771272 1.393468 1.921787
    15 4.640942 0.000000 -0.000003 0.434792 -1.153896 -0.534554
    16 10.828047 0.000000 0.000000 0.000000 0.000000 -0.576613
    17 -2.054993 0.886093 2.610665 0.692320 -1.357450 1.998585
    18 4.640942 0.000000 0.000000 -0.353218 1.181715 -0.408661
    19 10.828046 0.000000 -0.000002 0.000000 0.000000 -0.656856
    20 9.393339 0.000001 0.000001 1.390055 -0.132223 -0.017059
    21 1.442242 0.107453 1.746178 -1.615563 -0.159741 0.216127
    22 1.063451 0.000002 0.000000 0.000000 0.000000 0.578791
    23 4.172844 -0.251366 1.312745 -0.039761 -0.087462 0.492383
    24 1.215372 0.000000 0.000002 0.000000 0.000000 0.755954
    25 1.215374 0.000001 0.000000 0.000000 0.000000 0.755901
    26 4.220534 -0.244853 0.431466 -0.010058 -0.024300 0.490803
    27 1.350417 0.000001 0.000000 0.000000 0.000000 0.872287
    28 1.350410 -0.000001 0.000000 0.000000 0.000000 0.872225
    29 9.393337 0.000000 0.000000 -1.493691 0.158481 -0.054024
    30 1.442246 0.107454 -1.746177 1.635184 0.488478 0.231488
    31 1.063452 -0.000001 -0.000001 0.000000 0.000000 0.172355
    32 1.376306 -0.000001 -0.000001 0.000000 0.000000 0.133474
    33 4.172850 -0.251366 -1.312744 0.014222 0.095012 0.213796
    34 1.215374 0.000001 0.000001 0.000000 0.000000 0.478394
    35 1.215369 -0.000002 0.000000 0.000000 0.000000 0.636453
    36 4.220536 -0.244855 -0.431465 0.003035 0.026098 0.213210
    37 1.350417 0.000000 0.000000 0.000000 0.000000 0.594792
    38 1.350411 -0.000001 -0.000001 0.000000 0.000000 0.659323
    39 1.376305 -0.000002 0.000000 0.000000 0.000000 0.562515
    40 2.110539 0.000000 0.000000 0.011363 0.001323 -0.109649
    41 5.253239 3.139476 -1.673515 0.000000 -1.570796 2.984594
    42 5.253257 3.139473 -0.054760 0.000000 -1.570796 2.984594
    43 5.253252 3.139468 1.574632 0.000000 -1.570796 2.984594
    44 4.598144 4.158443 -1.350299 0.000000 -1.570796 2.984594
    45 4.598136 4.158431 -0.054439 0.000000 -1.570796 2.984594
    46 4.598139 4.158430 1.240876 0.000000 -1.570796 2.984594
    47 0.891925 2.373051 -0.014527 -3.141592 -0.000001 1.413797
    48 7.228119 5.709446 3.726568 0.000000 -1.570796 3.140796
  time 9
    0 0.430428 1.724382 37.061845 0.000000 0.000000 -1.570987
    1 -1.925513 -0.199225 0.000000 0.000000 -1.570451 -1.570795
    2 -0.000007 0.000008 4.427393 3.078292 0.006212 2.820271
    3 18.465940 0.000000 0.000000 0.000000 0.000000 -0.769309
    4 14.875443 0.000000 -0.000001 -0.010010 0.025978 0.448902
    5 0.000009 -0.000004 -4.427393 -3.102278 0.045993 2.652840
    6 18.465942 0.000000 0.000000 0.000000 0.000000 -0.669016
    7 14.875444 0.000000 0.000000 0.011925 0.021968 0.178840
    8 2.255209 -0.007574 0.000003 0.083870 -0.018206 0.142914
    9 9.514224 -0.009357 0.000000 -0.005928 0.002043 0.039524
    10 2.450428 5.076128 0.001325 0.000000 -1.570796 3.140791
    11 6.312406 -4.528058 0.001311 0.000000 -1.570796 3.140791
    12 2.233309 1.152535 -7.309138 0.000000 -1.570796 -1.570796
    13 11.751817 -0.001633 0.000000 0.000180 0.030145 0.451838
    14 -1.918270 0.878293 -2.708321 -0.813548 1.416897 1.884222
    15 4.640942 0.000000 -0.000003 0.120003 -1.214267 -0.213141
    16 10.828047 0.000000 0.000000 0.000000 0.000000 -0.460235
    17 -2.078432 0.874374 2.602853 0.694617 -1.370167 2.000597
    18 4.640942 0.000000 0.000000 0.057541 1.215914 0.023530
    19 10.828046 0.000000 -0.000002 0.000000 0.000000 -0.593589
    20 9.393339 0.000001 0.000001 1.451103 -0.098720 -0.013519
    21 1.442242 0.107453 1.746178 -1.633852 -0.289130 0.249057
    22 1.063451 0.000002 0.000000 0.000000 0.000000 0.450069
    23 4.172844 -0.251366 1.312745 -0.029395 -0.091513 0.376028
    24 1.215372 0.000000 0.000002 0.000000 0.000000 0.719526
    25 1.215374 0.000001 0.000000 0.000000 0.000000 0.719481
    26 4.220534 -0.244853 0.431466 -0.007157 -0.025271 0.374821
    27 1.350417 0.000001 0.000000 0.000000 0.000000 0.870656
    28 1.350410 -0.000001 0.000000 0.000000 0.000000 0.870648
    29 9.393337 0.000000 0.000000 -1.518844 0.115919 -0.036930
    30 1.442246 0.107454 -1.746177 1.651924 0.506117 0.263152
    31 1.063452 -0.000001 -0.000001 0.000000 0.000000 0.181440
    32 1.376306 -0.000001 -0.000001 0.000000 0.000000 0.155757
    33 4.172850 -0.251366 -1.312744 0.012173 0.095336 0.191880
    34 1.215374 0.000001 0.000001 0.000000 0.000000 0.536089
    35 1.215369 -0.000002 0.000000 0.000000 0.000000 0.640576
    36 4.220536 -0.244855 -0.431465 0.002423 0.026158 0.191353
    37 1.350417 0.000000 0.000000 0.000000 0.000000 0.687325
    38 1.350411 -0.000001 -0.000001 0.000000 0.000000 0.729946
    39 1.376305 -0.000002 0.000000 0.000000 0.000000 0.439353
    40 2.110539 0.000000 0.000000 0.009718 -0.000692 -0.128298
    41 5.253239 3.139476 -1.673515 0.000000 -1.570796 2.984594
    42 5.253257 3.139473 -0.054760 0.000000 -1.570796 2.984594
    43 5.253252 3.139468 1.574632 0.000000 -1.570796 2.984594
    44 4.598144 4.158443 -1.350299 0.000000 -1.570796 2.984594
    45 4.598136 4.158431 -0.054439 0.000000 -1.570796 2.984594
    46 4.598139 4.158430 1.240876 0.000000 -1.570796 2.984594
    47 0.891925 2.373051 -0.014527 -3.141592 -0.000001 1.413797
    48 7.228119 5.709446 3.726568 0.000000 -1.570796 3.140796
  time 10
    0 0.430428 1.401729 38.152862 0.000000 0.000000 -1.570987
    1 -0.855168 -0.175787 0.000000 0.000000 -1.570451 -1.570795
    2 -0.000007 0.000008 4.427393 3.036229 0.006279 2.974260
    3 18.465940 0.000000 0.000000 0.000000 0.000000 -0.599428
    4 14.875443 0.000000 -0.000001 0.068525 0.023877 0.433561
    5 0.000009 -0.000004 -4.427393 -3.077570 0.045707 2.719376
    6 18.465942 0.000000 0.000000 0.000000 0.000000 -0.531359
    7 14.875444 0.000000 0.000000 -0.042972 0.015224 0.107157
    8 2.255209 -0.007574 0.000003 0.103481 -0.018491 0.068911
    9 9.514224 -0.009357 0.000000 -0.007391 0.002231 -0.030569
    10 2.450428 5.076128 0.001325 0.000000 -1.570796 3.140791
    11 6.312406 -4.528058 0.001311 0.000000 -1.570796 3.140791
    12 2.233309 1.152535 -7.309138 0.000000 -1.570796 -1.570796
    13 11.751817 -0.001633 0.000000 0.000120 0.037033 0.445745
    14 -1.906551 0.866574 -2.720041 -0.869724 1.439815 1.832569
    15 4.640942 0.000000 -0.000003 -0.264166 -1.224527 0.172521
    16 10.828047 0.000000 0.000000 0.000000 0.000000 -0.345207
    17 -2.094057 0.866562 2.579414 0.696627 -1.383010 2.002705
    18 4.640942 0.000000 0.000000 0.462380 1.177963 0.442200
    19 10.828046 0.000000 -0.000002 0.000000 0.000000 -0.531093
    20 9.393339 0.000001 0.000001 1.511323 -0.065737 -0.007796
    21 1.442242 0.107453 1.746178 -1.657384 -0.416792 0.285538
    22 1.063451 0.000002 0.000000 0.000000 0.000000 0.322401
    23 4.172844 -0.251366 1.312745 -0.018633 -0.094245 0.260555
    24 1.215372 0.000000 0.000002 0.000000 0.000000 0.682804
    25 1.215374 0.000001 0.000000 0.000000 0.000000 0.682862
    26 4.220534 -0.244853 0.431466 -0.004209 -0.025930 0.259763
    27 1.350417 0.000001 0.000000 0.000000 0.000000 0.868499
    28 1.350410 -0.000001 0.000000 0.000000 0.000000 0.868461
    29 9.393337 0.000000 0.000000 -1.544458 0.074159 -0.018811
    30 1.442246 0.107454 -1.746177 1.669254 0.523141 0.295020
    31 1.063452 -0.000001 -0.000001 0.000000 0.000000 0.190393
    32 1.376306 -0.000001 -0.000001 0.000000 0.000000 0.177867
    33 4.172850 -0.251366 -1.312744 0.010088 0.095576 0.170003
    34 1.215374 0.000001 0.000001 0.000000 0.000000 0.592804
    35 1.215369 -0.000002 0.000000 0.000000 0.000000 0.644047
    36 4.220536 -0.244855 -0.431465 0.001848 0.026206 0.169617
    37 1.350417 0.000000 0.000000 0.000000 0.000000 0.778397
    38 1.350411 -0.000001 -0.000001 0.000000 0.000000 0.799318
    39 1.376305 -0.000002 0.000000 0.000000 0.000000 0.317214
    40 2.110539 0.000000 0.000000 0.006427 -0.004781 -0.144977
    41 5.253239 3.139476 -1.673515 0.000000 -1.570796 2.984594
    42 5.253257 3.139473 -0.054760 0.000000 -1.570796 2.984594
    43 5.253252 3.139468 1.574632 0.000000 -1.570796 2.984594
    44 4.598144 4.158443 -1.350299 0.000000 -1.570796 2.984594
    45 4.598136 4.158431 -0.054439 0.000000 -1.570796 2.984594
    46 4.598139 4.158430 1.240876 0.000000 -1.570796 2.984594
    47 0.891925 2.373051 -0.014527 -3.141592 -0.000001 1.413797
    48 7.228119 5.709446 3.726568 0.000000 -1.570796 3.140796
  time 11
    0 0.430428 1.079076 39.243879 0.000000 0.000000 -1.570987
    1 0.164395 -0.125004 0.000000 0.000000 -1.570451 -1.570795
    2 -0.000007 0.000008 4.427393 2.970788 0.011538 3.142541
    3 18.465940 0.000000 0.000000 0.000000 0.000000 -0.416536
    4 14.875443 0.000000 -0.000001 0.170773 0.011083 0.419395
    5 0.000009 -0.000004 -4.427393 -3.035557 0.046065 2.779331
    6 18.465942 0.000000 0.000000 0.000000 0.000000 -0.394245
    7 14.875444 0.000000 0.000000 -0.115445 0.005202 0.029339
    8 2.255209 -0.007574 0.000003 0.122079 -0.017388 -0.001255
    9 9.514224 -0.009357 0.000000 -0.008742 0.002352 -0.095897
    10 2.450428 5.076128 0.001325 0.000000 -1.570796 3.140791
    11 6.312406 -4.528058 0.001311 0.000000 -1.570796 3.140791
    12 2.233309 1.152535 -7.309138 0.000000 -1.570796 -1.570796
    13 11.751817 -0.001633 0.000000 0.000024 0.043608 0.439949
    14 -1.894832 0.850948 -2.731760 -0.942390 1.461409 1.764433
    15 4.640942 0.000000 -0.000003 -0.601413 -1.183837 0.506835
    16 10.828047 0.000000 0.000000 0.000000 0.000000 -0.234294
    17 -2.121402 0.854842 2.563789 0.697201 -1.395374 2.006443
    18 4.640942 0.000000 0.000000 0.738341 1.089870 0.724786
    19 10.828046 0.000000 -0.000002 0.000000 0.000000 -0.470459
    20 9.393339 0.000001 0.000001 1.569611 -0.034186 0.000059
    21 1.442242 0.107453 1.746178 -1.686398 -0.539246 0.325835
    22 1.063451 0.000002 0.000000 0.000000 0.000000 0.199047
    23 4.172844 -0.251366 1.312745 -0.008014 -0.095731 0.148607
    24 1.215372 0.000000 0.000002 0.000000 0.000000 0.645746
    25 1.215374 0.000001 0.000000 0.000000 0.000000 0.645697
    26 4.220534 -0.244853 0.431466 -0.001333 -0.026242 0.148284
    27 1.350417 0.000001 0.000000 0.000000 0.000000 0.863921
    28 1.350410 -0.000001 0.000000 0.000000 0.000000 0.863832
    29 9.393337 0.000000 0.000000 -1.569611 0.034157 0.000139
    30 1.442246 0.107454 -1.746177 1.686432 0.539243 0.325867
    31 1.063452 -0.000001 -0.000001 0.000000 0.000000 0.199053
    32 1.376306 -0.000001 -0.000001 0.000000 0.000000 0.199030
    33 4.172850 -0.251366 -1.312744 0.008014 0.095731 0.148607
    34 1.215374 0.000001 0.000001 0.000000 0.000000 0.645721
    35 1.215369 -0.000002 0.000000 0.000000 0.000000 0.645721
    36 4.220536 -0.244855 -0.431465 0.001333 0.026242 0.148321
    37 1.350417 0.000000 0.000000 0.000000 0.000000 0.863840
    38 1.350411 -0.000001 -0.000001 0.000000 0.000000 0.863815
    39 1.376305 -0.000002 0.000000 0.000000 0.000000 0.199037
    40 2.110539 0.000000 0.000000 0.002417 -0.010494 -0.153655
    41 5.253239 3.139476 -1.673515 0.000000 -1.570796 2.984594
    42 5.253257 3.139473 -0.054760 0.000000 -1.570796 2.984594
    43 5.253252 3.139468 1.574632 0.000000 -1.570796 2.984594
    44 4.598144 4.158443 -1.350299 0.000000 -1.570796 2.984594
    45 4.598136 4.158431 -0.054439 0.000000 -1.570796 2.984594
    46 4.598139 4.158430 1.240876 0.000000 -1.570796 2.984594
    47 0.891925 2.373051 -0.014527 -3.141592 -0.000001 1.413797
    48 7.228119 5.709446 3.726568 0.000000 -1.570796 3.140796
end
