// Created by Crowbar 0.56
version 1
nodes
  0 "Bip01" -1
  1 "Bip01 Pelvis" 0
  2 "Bip01 L Thigh" 1
  3 "Bip01 L Calf" 2
  4 "Bip01 L Foot" 3
  5 "Bip01 R Thigh" 1
  6 "Bip01 R Calf" 5
  7 "Bip01 R Foot" 6
  8 "Bip01 Spine" 1
  9 "Bip01 Spine1" 8
  10 "Armour Front" 8
  11 "Armour Back" 8
  12 "Holster" 1
  13 "Bip01 Neck" 9
  14 "Bip01 R Clavicle" 13
  15 "Bip01 R UpperArm" 14
  16 "Bip01 R Forearm" 15
  17 "Bip01 L Clavicle" 13
  18 "Bip01 L UpperArm" 17
  19 "Bip01 L Forearm" 18
  20 "Bip01 R Hand" 16
  21 "Bip01 R Finger0" 20
  22 "Bip01 R Finger01" 21
  23 "Bip01 R Finger1" 20
  24 "Bip01 R Finger11" 23
  25 "Bip01 R Finger12" 24
  26 "Bip01 R Finger2" 20
  27 "Bip01 R Finger21" 26
  28 "Bip01 R Finger22" 27
  29 "Bip01 L Hand" 19
  30 "Bip01 L Finger0" 29
  31 "Bip01 L Finger01" 30
  32 "Bip01 L Finger02" 31
  33 "Bip01 L Finger1" 29
  34 "Bip01 L Finger11" 33
  35 "Bip01 L Finger12" 34
  36 "Bip01 L Finger2" 29
  37 "Bip01 L Finger21" 36
  38 "Bip01 L Finger22" 37
  39 "Bip01 R Finger02" 22
  40 "Bip01 Head" 13
  41 "R_eyebrow" 40
  42 "C_eyebrow" 40
  43 "L_eyebrow" 40
  44 "R_eye" 40
  45 "Eyelids" 40
  46 "L_eye" 40
  47 "Mouth" 40
  48 "ID Tag" 9
end
skeleton
  time 0
    0 1.244420 12.589024 34.022584 0.018024 0.102860 -1.526406
    1 -1.659880 -1.488327 0.000000 3.141383 -1.523236 -4.712079
    2 -0.000007 0.000008 4.427393 3.020174 -0.083393 2.518777
    3 18.465940 0.000000 0.000000 0.000000 0.000000 -1.195400
    4 14.875443 0.000000 -0.000001 0.172764 0.026141 0.658061
    5 0.000009 -0.000004 -4.427393 -3.040358 0.085856 2.279786
    6 18.465942 0.000000 0.000000 0.000000 0.000000 -0.913770
    7 14.875444 0.000000 0.000000 0.159280 0.021085 0.147644
    8 2.255209 -0.007574 -0.105469 0.125442 -0.041256 0.104837
    9 9.514224 -0.009357 0.000000 -0.016658 -0.124540 0.095247
    10 2.450428 5.076128 0.001325 0.000000 -1.570796 2.835378
    11 6.312406 -4.528058 0.001311 0.000000 -1.570796 3.140791
    12 2.233309 1.152535 -7.309138 1.948708 -1.535933 -4.383431
    13 11.751817 -0.001633 0.000000 0.000024 0.043596 0.701615
    14 -1.597948 1.343151 -2.720041 1.025994 1.337605 3.445788
    15 4.640942 0.000000 -0.000003 0.680775 -0.791671 -0.981177
    16 10.828047 0.000000 0.000000 0.000000 0.000000 -0.848526
    17 -1.832330 1.343139 2.579414 -0.994536 -1.127466 3.398657
    18 4.640942 0.000000 0.000000 -0.383130 0.467370 -0.950362
    19 10.828046 0.000000 -0.000002 0.000000 0.000000 -0.653580
    20 9.393339 0.000001 0.000001 1.569611 -0.034186 0.000059
    21 1.442242 0.107453 1.746178 -1.686398 -0.539246 0.325835
    22 1.063451 0.000002 0.000000 0.000000 0.000000 0.199047
    23 4.172844 -0.251366 1.312745 -0.007978 -0.095731 0.148567
    24 1.215372 0.000000 0.000002 0.000000 0.000000 0.645746
    25 1.215374 0.000001 0.000000 0.000000 0.000000 0.645697
    26 4.220534 -0.244853 0.431466 -0.001333 -0.026242 0.148284
    27 1.350417 0.000001 0.000000 0.000000 0.000000 0.863816
    28 1.350410 -0.000001 0.000000 0.000000 0.000000 0.863731
    29 9.393337 0.000000 0.000000 -1.569611 0.034157 0.000139
    30 1.442246 0.107454 -1.746177 1.686432 0.539224 0.325867
    31 1.063452 -0.000001 -0.000001 0.000000 0.000000 0.199053
    32 1.376306 -0.000001 -0.000001 0.000000 0.000000 0.199045
    33 4.172850 -0.251366 -1.312744 0.007978 0.095731 0.148567
    34 1.215374 0.000001 0.000001 0.000000 0.000000 0.645721
    35 1.215369 -0.000002 0.000000 0.000000 0.000000 0.645721
    36 4.220536 -0.244855 -0.431465 0.001333 0.026242 0.148321
    37 1.350417 0.000000 0.000000 0.000000 0.000000 0.863799
    38 1.350411 -0.000001 -0.000001 0.000000 0.000000 0.863815
    39 1.376305 -0.000002 0.000000 0.000000 0.000000 0.199037
    40 2.110539 0.000000 0.000000 0.454105 -0.483757 -0.077152
    41 5.253239 3.139476 -1.673515 0.000000 -1.570796 2.984594
    42 5.253257 3.139473 -0.054760 0.000000 -1.570796 2.984594
    43 5.253252 3.139468 1.574632 0.000000 -1.570796 2.984594
    44 4.598144 4.158443 -1.350299 0.000000 -1.570796 2.984594
    45 4.598136 4.158431 -0.054439 0.000000 -1.570796 2.984594
    46 4.598139 4.158430 1.240876 0.000000 -1.570796 2.984594
    47 0.891925 2.373051 -0.014527 -3.141592 -0.000001 1.413797
    48 7.228119 5.709446 3.726568 0.000000 -1.570796 3.140796
  time 1
    0 0.497700 11.962670 33.944654 0.003451 0.086707 -1.528515
    1 -2.702880 -1.445357 0.000000 3.141383 -1.505183 -4.712079
    2 -0.000007 0.000008 4.427393 3.055946 -0.132299 2.510965
    3 18.465940 0.000000 0.000000 0.000000 0.000000 -1.206511
    4 14.875443 0.000000 -0.000001 0.168213 0.001674 0.645136
    5 0.000009 -0.000004 -4.427393 -3.010249 0.036483 2.303463
    6 18.465942 0.000000 0.000000 0.000000 0.000000 -0.874042
    7 14.875444 0.000000 0.000000 0.171639 -0.001699 0.117078
    8 2.255209 -0.007574 -0.144533 0.128805 -0.022443 0.164847
    9 9.514224 -0.009357 0.000000 -0.020860 -0.104961 0.196198
    10 2.450428 5.076128 0.001325 0.000000 -1.570796 2.763333
    11 6.312406 -4.528058 0.001311 0.000000 -1.570796 3.140791
    12 2.233309 1.152535 -7.309138 -1.200716 -1.554486 -1.215276
    13 11.751817 -0.001633 0.000000 0.000024 0.043596 0.667072
    14 -1.644825 1.288461 -2.720041 1.182637 1.185550 3.615984
    15 4.640942 0.000000 -0.000003 0.615791 -0.788112 -1.087163
    16 10.828047 0.000000 0.000000 0.000000 0.000000 -1.128026
    17 -1.875300 1.288449 2.579414 -1.091201 -1.039305 3.518444
    18 4.640942 0.000000 0.000000 -0.415462 0.528985 -0.987939
    19 10.828046 0.000000 -0.000002 0.000000 0.000000 -0.743117
    20 9.393339 0.000001 0.000001 1.569832 -0.048986 0.028136
    21 1.442242 0.107453 1.746178 -1.694199 -0.539534 0.324682
    22 1.063451 0.000002 0.000000 0.000000 0.000000 0.221097
    23 4.172844 -0.251366 1.312745 -0.009069 -0.095671 0.159265
    24 1.215372 0.000000 0.000002 0.000000 0.000000 0.717259
    25 1.215374 0.000001 0.000000 0.000000 0.000000 0.717300
    26 4.220534 -0.244853 0.431466 -0.001536 -0.026230 0.158941
    27 1.350417 0.000001 0.000000 0.000000 0.000000 0.959683
    28 1.350410 -0.000001 0.000000 0.000000 0.000000 0.959760
    29 9.393337 0.000000 0.000000 -1.573665 0.031979 -0.000154
    30 1.442246 0.107454 -1.746177 1.692642 0.551713 0.343654
    31 1.063452 -0.000001 -0.000001 0.000000 0.000000 0.200952
    32 1.376306 -0.000001 -0.000001 0.000000 0.000000 0.201010
    33 4.172850 -0.251366 -1.312744 0.008709 0.095671 0.156300
    34 1.215374 0.000001 0.000001 0.000000 0.000000 0.697332
    35 1.215369 -0.000002 0.000000 0.000000 0.000000 0.697332
    36 4.220536 -0.244855 -0.431465 0.001537 0.026230 0.156007
    37 1.350417 0.000000 0.000000 0.000000 0.000000 0.932937
    38 1.350411 -0.000001 -0.000001 0.000000 0.000000 0.932842
    39 1.376305 -0.000002 0.000000 0.000000 0.000000 0.221151
    40 2.110539 0.000000 0.000000 0.359037 -0.417187 -0.164056
    41 5.253239 3.139476 -1.673515 0.000000 -1.570796 2.984594
    42 5.253257 3.139473 -0.054760 0.000000 -1.570796 2.984594
    43 5.253252 3.139468 1.574632 0.000000 -1.570796 2.984594
    44 4.598144 4.158443 -1.350299 0.000000 -1.570796 2.957172
    45 4.598136 4.158431 -0.054439 0.000000 -1.570796 2.984594
    46 4.598139 4.158430 1.240876 0.000000 -1.570796 2.957172
    47 0.891925 2.373051 -0.014527 -3.141592 -0.000001 1.418351
    48 7.228119 5.709446 3.726568 0.366391 -1.562759 2.603618
  time 2
    0 -0.208657 11.023138 33.827760 -0.026749 0.053922 -1.557565
    1 -3.882604 -1.339885 0.000000 3.141383 -1.487703 -4.712079
    2 -0.000007 0.000008 4.427393 3.098572 -0.192427 2.514871
    3 18.465940 0.000000 0.000000 0.000000 0.000000 -1.240209
    4 14.875443 0.000000 -0.000001 0.138527 -0.020085 0.653687
    5 0.000009 -0.000004 -4.427393 -2.976788 -0.032230 2.335488
    6 18.465942 0.000000 0.000000 0.000000 0.000000 -0.838320
    7 14.875444 0.000000 0.000000 0.165098 -0.025838 0.085595
    8 2.255209 -0.007574 -0.187503 0.134680 -0.002547 0.234683
    9 9.514224 -0.009357 0.000000 -0.022886 -0.077549 0.321605
    10 2.450428 5.076128 0.001325 0.000000 -1.570796 2.673476
    11 6.312406 -4.528058 0.001311 0.000000 -1.570796 3.140791
    12 2.233309 1.152535 -7.309138 -1.180399 -1.489856 -1.218246
    13 11.751817 -0.001633 0.000000 0.000024 0.043596 0.633458
    14 -1.691701 1.222053 -2.720041 1.078336 1.204903 3.544398
    15 4.640942 0.000000 -0.000003 0.622194 -0.751122 -1.079068
    16 10.828047 0.000000 0.000000 0.000000 0.000000 -1.323747
    17 -1.918270 1.225948 2.579414 -1.098188 -1.028376 3.557639
    18 4.640942 0.000000 0.000000 -0.512328 0.581365 -1.012405
    19 10.828046 0.000000 -0.000002 0.000000 0.000000 -0.812872
    20 9.393339 0.000001 0.000001 1.569832 -0.041570 0.014122
    21 1.442242 0.107453 1.746178 -1.690035 -0.539310 0.325303
    22 1.063451 0.000002 0.000000 0.000000 0.000000 0.210072
    23 4.172844 -0.251366 1.312745 -0.008529 -0.095683 0.153936
    24 1.215372 0.000000 0.000002 0.000000 0.000000 0.681503
    25 1.215374 0.000001 0.000000 0.000000 0.000000 0.681474
    26 4.220534 -0.244853 0.431466 -0.001477 -0.026230 0.153633
    27 1.350417 0.000001 0.000000 0.000000 0.000000 0.911855
    28 1.350410 -0.000001 0.000000 0.000000 0.000000 0.911847
    29 9.393337 0.000000 0.000000 -1.574310 0.031750 -0.000154
    30 1.442246 0.107454 -1.746177 1.693418 0.553308 0.345851
    31 1.063452 -0.000001 -0.000001 0.000000 0.000000 0.201271
    32 1.376306 -0.000001 -0.000001 0.000000 0.000000 0.201254
    33 4.172850 -0.251366 -1.312744 0.008817 0.095671 0.157342
    34 1.215374 0.000001 0.000001 0.000000 0.000000 0.703702
    35 1.215369 -0.000002 0.000000 0.000000 0.000000 0.703702
    36 4.220536 -0.244855 -0.431465 0.001537 0.026230 0.156967
    37 1.350417 0.000000 0.000000 0.000000 0.000000 0.941611
    38 1.350411 -0.000001 -0.000001 0.000000 0.000000 0.941514
    39 1.376305 -0.000002 0.000000 0.000000 0.000000 0.210062
    40 2.110539 0.000000 0.000000 0.256668 -0.345987 -0.301305
    41 5.253239 3.139476 -1.673515 0.000000 -1.570796 2.984594
    42 5.253257 3.139473 -0.054760 0.000000 -1.570796 2.984594
    43 5.253252 3.139468 1.574632 0.000000 -1.570796 2.984594
    44 4.598144 4.158443 -1.350299 0.000000 -1.570796 2.927803
    45 4.598136 4.158431 -0.054439 0.000000 -1.570796 2.984594
    46 4.598139 4.158430 1.240876 0.000000 -1.570796 2.927803
    47 0.891925 2.373051 -0.014527 -3.141592 -0.000001 1.423540
    48 7.228119 5.709446 3.726568 0.268579 -1.546739 2.505649
  time 3
    0 -0.941923 9.730018 33.477076 -0.050046 0.028759 -1.585464
    1 -4.952949 -1.191443 0.000000 3.141383 -1.471817 -4.712079
    2 -0.000007 0.000008 4.427393 3.134908 -0.242070 2.520771
    3 18.465940 0.000000 0.000000 0.000000 0.000000 -1.299054
    4 14.875443 0.000000 -0.000001 0.109410 -0.040910 0.697360
    5 0.000009 -0.000004 -4.427393 -2.950130 -0.084856 2.339822
    6 18.465942 0.000000 0.000000 0.000000 0.000000 -0.874449
    7 14.875444 0.000000 0.000000 0.155588 -0.044652 0.106355
    8 2.247396 -0.007574 -0.218754 0.142946 0.016246 0.303658
    9 9.514224 -0.009357 0.000000 -0.020635 -0.047475 0.439165
    10 2.450428 5.076128 0.001325 0.000000 -1.570796 2.571310
    11 6.312406 -4.528058 0.001311 0.000000 -1.570796 3.140791
    12 2.233309 1.152535 -7.309138 -1.179632 -1.428051 -1.219013
    13 11.751817 -0.001633 0.000000 0.000024 0.043596 0.599578
    14 -1.726858 1.163458 -2.723947 0.975282 1.242352 3.479904
    15 4.640942 0.000000 -0.000003 0.692625 -0.681887 -1.083790
    16 10.828047 0.000000 0.000000 0.000000 0.000000 -1.366183
    17 -1.961241 1.163446 2.567695 -1.057799 -1.068566 3.557160
    18 4.640942 0.000000 0.000000 -0.634461 0.623139 -1.026101
    19 10.828046 0.000000 -0.000002 0.000000 0.000000 -0.865990
    20 9.393339 0.000001 0.000001 1.569611 -0.034186 0.000059
    21 1.442242 0.107453 1.746178 -1.686398 -0.539246 0.325835
    22 1.063451 0.000002 0.000000 0.000000 0.000000 0.199047
    23 4.172844 -0.251366 1.312745 -0.007978 -0.095731 0.148567
    24 1.215372 0.000000 0.000002 0.000000 0.000000 0.645746
    25 1.215374 0.000001 0.000000 0.000000 0.000000 0.645697
    26 4.220534 -0.244853 0.431466 -0.001333 -0.026242 0.148284
    27 1.350417 0.000001 0.000000 0.000000 0.000000 0.863816
    28 1.350410 -0.000001 0.000000 0.000000 0.000000 0.863731
    29 9.393337 0.000000 0.000000 -1.572744 0.032514 -0.000105
    30 1.442246 0.107454 -1.746177 1.691056 0.548677 0.339181
    31 1.063452 -0.000001 -0.000001 0.000000 0.000000 0.200527
    32 1.376306 -0.000001 -0.000001 0.000000 0.000000 0.200522
    33 4.172850 -0.251366 -1.312744 0.008530 0.095683 0.154417
    34 1.215374 0.000001 0.000001 0.000000 0.000000 0.684470
    35 1.215369 -0.000002 0.000000 0.000000 0.000000 0.684470
    36 4.220536 -0.244855 -0.431465 0.001477 0.026230 0.154085
    37 1.350417 0.000000 0.000000 0.000000 0.000000 0.915590
    38 1.350411 -0.000001 -0.000001 0.000000 0.000000 0.915629
    39 1.376305 -0.000002 0.000000 0.000000 0.000000 0.199037
    40 2.110539 0.000000 0.000000 0.157384 -0.271871 -0.448708
    41 5.253239 3.139476 -1.673515 0.000000 -1.570796 2.984594
    42 5.253257 3.139473 -0.054760 0.000000 -1.570796 2.984594
    43 5.253252 3.139468 1.574632 0.000000 -1.570796 2.984594
    44 4.598144 4.158443 -1.350299 0.000000 -1.570796 2.897676
    45 4.598136 4.158431 -0.054439 0.000000 -1.570796 2.984594
    46 4.598139 4.158430 1.240876 0.000000 -1.570796 2.897676
    47 0.891925 2.373051 -0.014527 -3.141592 -0.000001 1.428454
    48 7.228119 5.709446 3.726568 0.176576 -1.535069 2.413396
  time 4
    0 -1.554099 7.941877 32.541919 -0.042951 0.037051 -1.584889
    1 -5.722504 -1.043001 0.000000 3.141383 -1.458456 -4.712079
    2 -0.000007 0.000008 4.427393 3.155658 -0.265485 2.514871
    3 18.465940 0.000000 0.000000 0.000000 0.000000 -1.380339
    4 14.875443 0.000000 -0.000001 0.106637 -0.065774 0.782356
    5 0.000009 -0.000004 -4.427393 -2.934975 -0.092328 2.288535
    6 18.465942 0.000000 0.000000 0.000000 0.000000 -1.025349
    7 14.875444 0.000000 0.000000 0.160684 -0.057573 0.216344
    8 2.247396 -0.007574 -0.250005 0.151698 0.032417 0.361120
    9 9.514224 -0.009357 0.000000 -0.015120 -0.020103 0.517032
    10 2.450428 5.076128 0.001325 0.000000 -1.570796 2.461468
    11 6.312406 -4.528058 0.001311 0.000000 -1.570796 3.140791
    12 2.233309 1.152535 -7.309138 -1.180878 -1.431313 -1.221217
    13 11.751817 -0.001633 0.000000 0.000024 0.043596 0.564175
    14 -1.769828 1.097049 -2.723947 1.010944 1.267595 3.556089
    15 4.640942 0.000000 -0.000003 0.827084 -0.613769 -1.135644
    16 10.828047 0.000000 0.000000 0.000000 0.000000 -1.139857
    17 -2.000304 1.100944 2.567695 -0.988315 -1.131042 3.531669
    18 4.640942 0.000000 0.000000 -0.738073 0.659935 -1.014219
    19 10.828046 0.000000 -0.000002 0.000000 0.000000 -0.905364
    20 9.393339 0.000001 0.000001 1.569611 -0.034186 0.000059
    21 1.442242 0.107453 1.746178 -1.686398 -0.539246 0.325835
    22 1.063451 0.000002 0.000000 0.000000 0.000000 0.199047
    23 4.172844 -0.251366 1.312745 -0.007978 -0.095731 0.148567
    24 1.215372 0.000000 0.000002 0.000000 0.000000 0.645746
    25 1.215374 0.000001 0.000000 0.000000 0.000000 0.645697
    26 4.220534 -0.244853 0.431466 -0.001333 -0.026242 0.148284
    27 1.350417 0.000001 0.000000 0.000000 0.000000 0.863816
    28 1.350410 -0.000001 0.000000 0.000000 0.000000 0.863731
    29 9.393337 0.000000 0.000000 -1.570256 0.033622 0.000139
    30 1.442246 0.107454 -1.746177 1.687951 0.542394 0.330288
    31 1.063452 -0.000001 -0.000001 0.000000 0.000000 0.199478
    32 1.376306 -0.000001 -0.000001 0.000000 0.000000 0.199532
    33 4.172850 -0.251366 -1.312744 0.008230 0.095719 0.150571
    34 1.215374 0.000001 0.000001 0.000000 0.000000 0.658501
    35 1.215369 -0.000002 0.000000 0.000000 0.000000 0.658501
    36 4.220536 -0.244855 -0.431465 0.001381 0.026242 0.150242
    37 1.350417 0.000000 0.000000 0.000000 0.000000 0.881062
    38 1.350411 -0.000001 -0.000001 0.000000 0.000000 0.881072
    39 1.376305 -0.000002 0.000000 0.000000 0.000000 0.199037
    40 2.110539 0.000000 0.000000 0.067098 -0.193184 -0.562077
    41 5.253239 3.139476 -1.673515 0.000000 -1.570796 2.984594
    42 5.253257 3.139473 -0.054760 0.000000 -1.570796 2.984594
    43 5.253252 3.139468 1.574632 0.000000 -1.570796 2.984594
    44 4.598144 4.158443 -1.350299 0.000000 -1.570796 2.867982
    45 4.598136 4.158431 -0.054439 0.000000 -1.570796 2.984594
    46 4.598139 4.158430 1.240876 0.000000 -1.570796 2.867982
    47 0.891925 2.373051 -0.014527 -3.141592 -0.000001 1.433008
    48 7.228119 5.709446 3.726568 0.109432 -1.539445 2.346416
  time 5
    0 -2.038458 5.497074 30.827464 0.018024 0.102860 -1.526406
    1 -6.050639 -0.917997 0.000000 3.141383 -1.448712 -4.712079
    2 -0.000007 0.000008 4.427393 3.155845 -0.251382 2.486866
    3 18.465940 0.000000 0.000000 0.000000 0.000000 -1.470981
    4 14.875443 0.000000 -0.000001 0.154988 -0.110063 0.904822
    5 0.000009 -0.000004 -4.427393 -2.944028 -0.037986 2.182510
    6 18.465942 0.000000 0.000000 0.000000 0.000000 -1.282734
    7 14.875444 0.000000 0.000000 0.198125 -0.070462 0.429498
    8 2.247396 -0.007574 -0.273443 0.158708 0.044750 0.396418
    9 9.514224 -0.009357 0.000000 -0.009567 -0.000175 0.523267
    10 2.450428 5.076128 0.001325 0.000000 -1.570796 2.275817
    11 6.312406 -4.528058 0.001311 0.000000 -1.570796 3.140791
    12 2.233309 1.152535 -7.309138 -1.274221 -1.486215 -1.246995
    13 11.751817 -0.001633 0.000000 0.000024 0.043596 0.526056
    14 -1.804986 1.022828 -2.723947 1.080254 1.314368 3.671566
    15 4.640942 0.000000 -0.000003 0.959823 -0.584177 -1.141631
    16 10.828047 0.000000 0.000000 0.000000 0.000000 -0.760439
    17 -2.043274 1.026723 2.567695 -0.917873 -1.188507 3.507232
    18 4.640942 0.000000 0.000000 -0.776450 0.707986 -0.952294
    19 10.828046 0.000000 -0.000002 0.000000 0.000000 -0.933946
    20 9.393339 0.000001 0.000001 1.569611 -0.034186 0.000059
    21 1.442242 0.107453 1.746178 -1.686398 -0.539246 0.325835
    22 1.063451 0.000002 0.000000 0.000000 0.000000 0.199047
    23 4.172844 -0.251366 1.312745 -0.007978 -0.095731 0.148567
    24 1.215372 0.000000 0.000002 0.000000 0.000000 0.645746
    25 1.215374 0.000001 0.000000 0.000000 0.000000 0.645697
    26 4.220534 -0.244853 0.431466 -0.001333 -0.026242 0.148284
    27 1.350417 0.000001 0.000000 0.000000 0.000000 0.863816
    28 1.350410 -0.000001 0.000000 0.000000 0.000000 0.863731
    29 9.393337 0.000000 0.000000 -1.569611 0.034157 0.000139
    30 1.442246 0.107454 -1.746177 1.686432 0.539224 0.325867
    31 1.063452 -0.000001 -0.000001 0.000000 0.000000 0.199053
    32 1.376306 -0.000001 -0.000001 0.000000 0.000000 0.199045
    33 4.172850 -0.251366 -1.312744 0.007978 0.095731 0.148567
    34 1.215374 0.000001 0.000001 0.000000 0.000000 0.645721
    35 1.215369 -0.000002 0.000000 0.000000 0.000000 0.645721
    36 4.220536 -0.244855 -0.431465 0.001333 0.026242 0.148321
    37 1.350417 0.000000 0.000000 0.000000 0.000000 0.863799
    38 1.350411 -0.000001 -0.000001 0.000000 0.000000 0.863815
    39 1.376305 -0.000002 0.000000 0.000000 0.000000 0.199037
    40 2.110539 0.000000 0.000000 -0.013677 -0.106439 -0.592973
    41 5.253239 3.139476 -1.673515 0.000000 -1.570796 2.984594
    42 5.253257 3.139473 -0.054760 0.000000 -1.570796 2.984594
    43 5.253252 3.139468 1.574632 0.000000 -1.570796 2.984594
    44 4.598144 4.158443 -1.350299 0.000000 -1.570796 2.839695
    45 4.598136 4.158431 -0.054439 0.000000 -1.570796 2.984594
    46 4.598139 4.158430 1.240876 0.000000 -1.570796 2.839695
    47 0.891925 2.373051 -0.014527 -3.141592 -0.000001 1.438294
    48 7.228119 5.709446 3.726568 0.000000 -1.570796 2.407859
  time 6
    0 -2.428636 2.193558 28.294746 0.141989 0.211615 -1.401770
    1 -5.238114 -0.769555 0.000000 3.141383 -1.442871 -4.712079
    2 -0.000007 0.000008 4.427393 3.156503 -0.258584 2.507891
    3 18.465940 0.000000 0.000000 0.000000 0.000000 -1.567471
    4 14.875443 0.000000 -0.000001 0.206005 -0.151597 1.028137
    5 0.000009 -0.000004 -4.427393 -2.991843 0.047995 2.102570
    6 18.465942 0.000000 0.000000 0.000000 0.000000 -1.608031
    7 14.875444 0.000000 0.000000 0.273608 -0.091986 0.784641
    8 2.247396 -0.007574 -0.281256 0.159883 0.056171 0.375246
    9 9.514224 -0.009357 0.000000 -0.008104 0.007727 0.304467
    10 2.450428 5.076128 0.001325 0.000000 -1.570796 2.315423
    11 6.312406 -4.528058 0.001311 0.000000 -1.570796 3.140791
    12 2.233309 1.152535 -7.309138 -3.044772 -1.566165 0.459503
    13 11.751817 -0.001633 0.000000 0.000024 0.043596 0.483963
    14 -1.851862 0.940795 -2.731760 1.113902 1.348103 3.752256
    15 4.640942 0.000000 -0.000003 0.860436 -0.724112 -0.939441
    16 10.828047 0.000000 0.000000 0.000000 0.000000 -0.506079
    17 -2.086244 0.940783 2.563789 -0.767899 -1.286740 3.411498
    18 4.640942 0.000000 0.000000 -0.579472 0.807551 -0.634882
    19 10.828046 0.000000 -0.000002 0.000000 0.000000 -0.919430
    20 9.393339 0.000001 0.000001 1.569611 -0.034186 0.000059
    21 1.442242 0.107453 1.746178 -1.686398 -0.539246 0.325835
    22 1.063451 0.000002 0.000000 0.000000 0.000000 0.199047
    23 4.172844 -0.251366 1.312745 -0.007978 -0.095731 0.148567
    24 1.215372 0.000000 0.000002 0.000000 0.000000 0.645746
    25 1.215374 0.000001 0.000000 0.000000 0.000000 0.645697
    26 4.220534 -0.244853 0.431466 -0.001333 -0.026242 0.148284
    27 1.350417 0.000001 0.000000 0.000000 0.000000 0.863816
    28 1.350410 -0.000001 0.000000 0.000000 0.000000 0.863731
    29 9.393337 0.000000 0.000000 -1.569611 0.034157 0.000139
    30 1.442246 0.107454 -1.746177 1.686432 0.539224 0.325867
    31 1.063452 -0.000001 -0.000001 0.000000 0.000000 0.199053
    32 1.376306 -0.000001 -0.000001 0.000000 0.000000 0.199045
    33 4.172850 -0.251366 -1.312744 0.007978 0.095731 0.148567
    34 1.215374 0.000001 0.000001 0.000000 0.000000 0.645721
    35 1.215369 -0.000002 0.000000 0.000000 0.000000 0.645721
    36 4.220536 -0.244855 -0.431465 0.001333 0.026242 0.148321
    37 1.350417 0.000000 0.000000 0.000000 0.000000 0.863799
    38 1.350411 -0.000001 -0.000001 0.000000 0.000000 0.863815
    39 1.376305 -0.000002 0.000000 0.000000 0.000000 0.199037
    40 2.110539 0.000000 0.000000 -0.094040 -0.010975 -0.349496
    41 5.253239 3.139476 -1.673515 0.000000 -1.570796 2.984594
    42 5.253257 3.139473 -0.054760 0.000000 -1.570796 2.984594
    43 5.253252 3.139468 1.574632 0.000000 -1.570796 2.984594
    44 4.598144 4.158443 -1.350299 0.000000 -1.570796 2.814112
    45 4.598136 4.158431 -0.054439 0.000000 -1.570796 2.984594
    46 4.598139 4.158430 1.240876 0.000000 -1.570796 2.814112
    47 0.891925 2.373051 -0.014527 -3.141592 -0.000001 1.443207
    48 7.228119 5.709446 3.726568 -2.872272 -1.471293 5.475711
  time 7
    0 -2.670815 -1.887849 25.723063 0.319260 0.322288 -1.224020
    1 -3.191176 -0.542985 0.000000 3.141383 -1.440130 -4.712079
    2 -0.000007 0.000008 4.427393 3.152747 -0.330201 2.699275
    3 18.465940 0.000000 0.000000 0.000000 0.000000 -1.577047
    4 14.875443 0.000000 -0.000001 0.234340 -0.135254 0.831773
    5 0.000009 -0.000004 -4.427393 -2.893562 -0.109202 2.230265
    6 18.465942 0.000000 0.000000 0.000000 0.000000 -1.754924
    7 14.875444 0.000000 0.000000 0.179746 -0.276340 1.224828
    8 2.247396 -0.007574 -0.292975 0.155304 0.067648 0.307561
    9 9.514224 -0.009357 0.000000 -0.009342 0.006275 -0.072765
    10 2.450428 5.076128 0.001325 0.000000 -1.570796 2.435836
    11 6.312406 -4.528058 0.001311 0.000000 -1.570796 3.140791
    12 2.233309 1.152535 -7.309138 -1.242788 -1.422517 -1.246324
    13 11.751817 -0.001633 0.000000 0.000024 0.043596 0.436703
    14 -1.890926 0.843135 -2.731760 1.005767 1.357236 3.691786
    15 4.640942 0.000000 -0.000003 0.438806 -0.817355 -0.377642
    16 10.828047 0.000000 0.000000 0.000000 0.000000 -0.509744
    17 -2.129214 0.839217 2.563789 -0.310701 -1.400939 3.012368
    18 4.640942 0.000000 0.000000 -0.151975 0.829701 -0.102487
    19 10.828046 0.000000 -0.000002 0.000000 0.000000 -0.869908
    20 9.393339 0.000001 0.000001 1.569611 -0.034186 0.000059
    21 1.442242 0.107453 1.746178 -1.686398 -0.539246 0.325835
    22 1.063451 0.000002 0.000000 0.000000 0.000000 0.199047
    23 4.172844 -0.251366 1.312745 -0.007978 -0.095731 0.148567
    24 1.215372 0.000000 0.000002 0.000000 0.000000 0.645746
    25 1.215374 0.000001 0.000000 0.000000 0.000000 0.645697
    26 4.220534 -0.244853 0.431466 -0.001333 -0.026242 0.148284
    27 1.350417 0.000001 0.000000 0.000000 0.000000 0.863816
    28 1.350410 -0.000001 0.000000 0.000000 0.000000 0.863731
    29 9.393337 0.000000 0.000000 -1.569611 0.034157 0.000139
    30 1.442246 0.107454 -1.746177 1.686432 0.539224 0.325867
    31 1.063452 -0.000001 -0.000001 0.000000 0.000000 0.199053
    32 1.376306 -0.000001 -0.000001 0.000000 0.000000 0.199045
    33 4.172850 -0.251366 -1.312744 0.007978 0.095731 0.148567
    34 1.215374 0.000001 0.000001 0.000000 0.000000 0.645721
    35 1.215369 -0.000002 0.000000 0.000000 0.000000 0.645721
    36 4.220536 -0.244855 -0.431465 0.001333 0.026242 0.148321
    37 1.350417 0.000000 0.000000 0.000000 0.000000 0.863799
    38 1.350411 -0.000001 -0.000001 0.000000 0.000000 0.863815
    39 1.376305 -0.000002 0.000000 0.000000 0.000000 0.199037
    40 2.110539 0.000000 0.000000 -0.175277 0.097028 0.094254
    41 5.253239 3.139476 -1.673515 0.000000 -1.570796 2.984594
    42 5.253257 3.139473 -0.054760 0.000000 -1.570796 2.984594
    43 5.253252 3.139468 1.574632 0.000000 -1.570796 2.984594
    44 4.598144 4.158443 -1.350299 0.000000 -1.570796 2.792260
    45 4.598136 4.158431 -0.054439 0.000000 -1.570796 2.984594
    46 4.598139 4.158430 1.240876 0.000000 -1.570796 2.792260
    47 0.891925 2.373051 -0.014527 -3.141592 -0.000001 1.447761
    48 7.228119 5.709446 3.726568 -2.707219 -1.321751 5.679687
  time 8
    0 -2.825541 -6.615816 22.917592 0.551658 0.406168 -0.990951
    1 -1.616910 -0.375011 0.000000 3.141383 -1.439771 -4.712079
    2 -0.000007 0.000008 4.427393 3.127960 -0.394047 2.906947
    3 18.465940 0.000000 0.000000 0.000000 0.000000 -1.526974
    4 14.875443 0.000000 -0.000001 0.269537 -0.069603 0.440154
    5 0.000009 -0.000004 -4.427393 -2.887910 -0.188963 2.443760
    6 18.465942 0.000000 0.000000 0.000000 0.000000 -2.008643
    7 14.875444 0.000000 0.000000 0.151053 -0.030566 1.148673
    8 2.247396 -0.007574 -0.289068 0.149915 0.075173 0.248709
    9 9.514224 -0.009357 0.000000 -0.009492 0.003789 -0.311303
    10 2.450428 5.076128 0.001325 0.000000 -1.570796 2.734298
    11 6.312406 -4.528058 0.001311 0.000000 -1.570796 3.140791
    12 2.233309 1.152535 -7.309138 -1.100952 -1.331237 -1.142734
    13 11.751817 -0.001633 0.000000 0.000024 0.043596 0.382820
    14 -1.933896 0.733757 -2.735666 0.838388 1.348530 3.576693
    15 4.640942 0.000000 -0.000003 0.254080 -0.642245 -0.019045
    16 10.828047 0.000000 0.000000 0.000000 0.000000 -0.638724
    17 -2.160465 0.733745 2.567695 0.170998 -1.432970 2.587075
    18 4.640942 0.000000 0.000000 0.048758 0.728837 0.124203
    19 10.828046 0.000000 -0.000002 0.000000 0.000000 -0.850061
    20 9.393339 0.000001 0.000001 1.569611 -0.034186 0.000059
    21 1.442242 0.107453 1.746178 -1.686398 -0.539246 0.325835
    22 1.063451 0.000002 0.000000 0.000000 0.000000 0.199047
    23 4.172844 -0.251366 1.312745 -0.007978 -0.095731 0.148567
    24 1.215372 0.000000 0.000002 0.000000 0.000000 0.645746
    25 1.215374 0.000001 0.000000 0.000000 0.000000 0.645697
    26 4.220534 -0.244853 0.431466 -0.001333 -0.026242 0.148284
    27 1.350417 0.000001 0.000000 0.000000 0.000000 0.863816
    28 1.350410 -0.000001 0.000000 0.000000 0.000000 0.863731
    29 9.393337 0.000000 0.000000 -1.569611 0.034157 0.000139
    30 1.442246 0.107454 -1.746177 1.686432 0.539224 0.325867
    31 1.063452 -0.000001 -0.000001 0.000000 0.000000 0.199053
    32 1.376306 -0.000001 -0.000001 0.000000 0.000000 0.199045
    33 4.172850 -0.251366 -1.312744 0.007978 0.095731 0.148567
    34 1.215374 0.000001 0.000001 0.000000 0.000000 0.645721
    35 1.215369 -0.000002 0.000000 0.000000 0.000000 0.645721
    36 4.220536 -0.244855 -0.431465 0.001333 0.026242 0.148321
    37 1.350417 0.000000 0.000000 0.000000 0.000000 0.863799
    38 1.350411 -0.000001 -0.000001 0.000000 0.000000 0.863815
    39 1.376305 -0.000002 0.000000 0.000000 0.000000 0.199037
    40 2.110539 0.000000 0.000000 -0.241552 0.210232 0.392078
    41 5.253239 3.139476 -1.673515 0.000000 -1.570796 2.984594
    42 5.253257 3.139473 -0.054760 0.000000 -1.570796 2.984594
    43 5.253252 3.139468 1.574632 0.000000 -1.570796 2.984594
    44 4.598144 4.158443 -1.350299 0.000000 -1.570796 2.775223
    45 4.598136 4.158431 -0.054439 0.000000 -1.570796 2.984594
    46 4.598139 4.158430 1.240876 0.000000 -1.570796 2.775223
    47 0.891925 2.373051 -0.014527 -3.141592 -0.000001 1.453047
    48 7.228119 5.709446 3.726568 -2.655504 -1.195218 5.865176
  time 9
    0 -2.993721 -11.737781 18.709384 0.825186 0.435118 -0.717423
    1 -3.835727 -0.664083 0.000000 3.141383 -1.441077 -4.712079
    2 -0.000007 0.000008 4.427393 3.091531 -0.373044 2.993041
    3 18.465940 0.000000 0.000000 0.000000 0.000000 -1.266086
    4 14.875443 0.000000 -0.000001 0.251014 -0.061899 0.284133
    5 0.000009 -0.000004 -4.427393 -2.927623 -0.221747 2.648185
    6 18.465942 0.000000 0.000000 0.000000 0.000000 -1.690137
    7 14.875444 0.000000 0.000000 0.054944 0.075667 0.139156
    8 2.247396 -0.007574 -0.281256 0.150037 0.072893 0.253142
    9 9.514224 -0.009357 0.000000 -0.008667 0.001062 0.243304
    10 2.450428 5.076128 0.001325 0.000000 -1.570796 2.874623
    11 6.312406 -4.528058 0.001311 0.000000 -1.570796 3.140791
    12 2.233309 1.152535 -7.309138 -1.037413 -1.272228 -1.086963
    13 11.751817 -0.001633 0.000000 0.000012 0.043596 0.300820
    14 -1.988585 0.569690 -2.735666 0.770036 1.328942 3.588001
    15 4.640942 0.000000 -0.000003 0.979604 -0.429795 -0.489361
    16 10.828047 0.000000 0.000000 0.000000 0.000000 -0.770019
    17 -2.215155 0.569678 2.555976 -0.581938 -1.375934 3.417344
    18 4.640942 0.000000 0.000000 -0.759458 0.364269 -0.508690
    19 10.828046 0.000000 -0.000002 0.000000 0.000000 -0.896757
    20 9.393339 0.000001 0.000001 1.569611 -0.034186 0.000059
    21 1.442242 0.107453 1.746178 -1.686398 -0.539246 0.325835
    22 1.063451 0.000002 0.000000 0.000000 0.000000 0.199047
    23 4.172844 -0.251366 1.312745 -0.007978 -0.095731 0.148567
    24 1.215372 0.000000 0.000002 0.000000 0.000000 0.645746
    25 1.215374 0.000001 0.000000 0.000000 0.000000 0.645697
    26 4.220534 -0.244853 0.431466 -0.001333 -0.026242 0.148284
    27 1.350417 0.000001 0.000000 0.000000 0.000000 0.863816
    28 1.350410 -0.000001 0.000000 0.000000 0.000000 0.863731
    29 9.393337 0.000000 0.000000 -1.569611 0.036984 -0.000447
    30 1.442246 0.107454 -1.746177 1.686432 0.539224 0.325867
    31 1.063452 -0.000001 -0.000001 0.000000 0.000000 0.199053
    32 1.376306 -0.000001 -0.000001 0.000000 0.000000 0.199045
    33 4.172850 -0.251366 -1.312744 0.007978 0.095731 0.148567
    34 1.215374 0.000001 0.000001 0.000000 0.000000 0.645721
    35 1.215369 -0.000002 0.000000 0.000000 0.000000 0.645721
    36 4.220536 -0.244855 -0.431465 0.001333 0.026242 0.148321
    37 1.350417 0.000000 0.000000 0.000000 0.000000 0.863799
    38 1.350411 -0.000001 -0.000001 0.000000 0.000000 0.863815
    39 1.376305 -0.000002 0.000000 0.000000 0.000000 0.199037
    40 2.110539 0.000000 0.000000 -0.231063 0.345807 -0.131498
    41 5.253239 3.139476 -1.673515 0.000000 -1.570796 2.984594
    42 5.253257 3.139473 -0.054760 0.000000 -1.570796 2.984594
    43 5.253252 3.139468 1.574632 0.000000 -1.570796 2.984594
    44 4.598144 4.158443 -1.350299 0.000000 -1.570796 2.763865
    45 4.598136 4.158431 -0.054439 0.000000 -1.570796 2.984594
    46 4.598139 4.158430 1.240876 0.000000 -1.570796 2.763865
    47 0.891925 2.373051 -0.014527 -3.141592 -0.000001 1.457960
    48 7.228119 5.709446 3.726568 -2.751316 -1.061035 5.984846
  time 10
    0 -3.074448 -16.930462 15.553228 1.103795 0.392939 -0.437568
    1 -2.956794 -0.449232 0.000000 3.141383 -1.443344 -4.712079
    2 -0.000007 0.000008 4.427393 3.058200 -0.342830 3.060021
    3 18.465940 0.000000 0.000000 0.000000 0.000000 -0.984511
    4 14.875443 0.000000 -0.000001 0.236580 -0.007244 -0.060418
    5 0.000009 -0.000004 -4.427393 -3.023603 -0.243126 3.002537
    6 18.465942 0.000000 0.000000 0.000000 0.000000 -1.203345
    7 14.875444 0.000000 0.000000 -0.039240 0.090888 -0.150154
    8 2.247396 -0.007574 -0.285162 0.153238 0.084504 0.205571
    9 9.514224 -0.009357 0.000000 -0.005853 0.010172 0.136479
    10 2.450428 5.076128 0.001325 0.000000 -1.570796 2.938630
    11 6.312406 -4.528058 0.001311 0.000000 -1.570796 3.140791
    12 2.233309 1.152535 -7.309138 -0.877273 -1.235355 -0.990368
    13 11.751817 -0.001633 0.000000 0.000024 0.043608 0.187556
    14 -2.043274 0.343120 -2.739572 1.068558 1.272374 3.990779
    15 4.640942 0.000000 -0.000003 0.294217 -0.325734 -0.976034
    16 10.828047 0.000000 0.000000 0.000000 0.000000 -0.872959
    17 -2.265937 0.343108 2.555976 -0.938451 -1.225070 3.874452
    18 4.640942 0.000000 0.000000 -0.674429 0.217158 -0.606963
    19 10.828046 0.000000 -0.000002 0.000000 0.000000 -1.016868
    20 9.393339 0.000001 0.000001 1.569611 -0.034186 0.000059
    21 1.442242 0.107453 1.746178 -1.686398 -0.539246 0.325835
    22 1.063451 0.000002 0.000000 0.000000 0.000000 0.199047
    23 4.172844 -0.251366 1.312745 -0.007978 -0.095731 0.148567
    24 1.215372 0.000000 0.000002 0.000000 0.000000 0.645746
    25 1.215374 0.000001 0.000000 0.000000 0.000000 0.645697
    26 4.220534 -0.244853 0.431466 -0.001333 -0.026242 0.148284
    27 1.350417 0.000001 0.000000 0.000000 0.000000 0.863816
    28 1.350410 -0.000001 0.000000 0.000000 0.000000 0.863731
    29 9.393337 0.000000 0.000000 -1.569611 0.034157 0.000139
    30 1.442246 0.107454 -1.746177 1.686432 0.539224 0.325867
    31 1.063452 -0.000001 -0.000001 0.000000 0.000000 0.199053
    32 1.376306 -0.000001 -0.000001 0.000000 0.000000 0.199045
    33 4.172850 -0.251366 -1.312744 0.007978 0.095731 0.148567
    34 1.215374 0.000001 0.000001 0.000000 0.000000 0.645721
    35 1.215369 -0.000002 0.000000 0.000000 0.000000 0.645721
    36 4.220536 -0.244855 -0.431465 0.001333 0.026242 0.148321
    37 1.350417 0.000000 0.000000 0.000000 0.000000 0.863799
    38 1.350411 -0.000001 -0.000001 0.000000 0.000000 0.863815
    39 1.376305 -0.000002 0.000000 0.000000 0.000000 0.199037
    40 2.110539 0.000000 0.000000 -0.228338 0.487966 0.074867
    41 5.253239 3.139476 -1.673515 0.000000 -1.570796 2.984594
    42 5.253257 3.139473 -0.054760 0.000000 -1.570796 2.984594
    43 5.253252 3.139468 1.574632 0.000000 -1.570796 2.984594
    44 4.598144 4.158443 -1.350299 0.000000 -1.570796 2.757428
    45 4.598136 4.158431 -0.054439 0.000000 -1.570796 2.984594
    46 4.598139 4.158430 1.240876 0.000000 -1.570796 2.757428
    47 0.891925 2.373051 -0.014527 -3.141592 -0.000001 1.462706
    48 7.228119 5.709446 3.726568 -2.863986 -0.887793 6.050844
  time 11
    0 -3.168629 -21.951402 12.669827 1.351054 0.286580 -0.189734
    1 -2.085674 -0.441420 0.000000 3.141383 -1.445856 -4.712079
    2 -0.000007 0.000008 4.427393 3.044116 -0.359411 2.783042
    3 18.465940 0.000000 0.000000 0.000000 0.000000 -1.026981
    4 14.875443 0.000000 -0.000001 0.141016 -0.070817 -0.202796
    5 0.000009 -0.000004 -4.427393 -3.048411 -0.179203 2.774997
    6 18.465942 0.000000 0.000000 0.000000 0.000000 -1.432276
    7 14.875444 0.000000 0.000000 -0.034705 0.051780 -0.193450
    8 2.247396 -0.007574 -0.281256 0.143473 0.076333 0.193066
    9 9.514224 -0.009357 0.000000 -0.008254 0.005792 -0.050596
    10 2.450428 5.076128 0.001325 0.000000 -1.570796 2.879184
    11 6.312406 -4.528058 0.001311 0.000000 -1.570796 3.140791
    12 2.233309 1.152535 -7.309138 -0.983075 -1.285131 -1.054094
    13 11.751817 -0.001633 0.000000 0.000024 0.043608 0.069954
    14 -2.066712 0.085300 -2.739572 0.839921 1.159176 3.853549
    15 4.640942 0.000000 -0.000003 0.302531 -0.450733 -1.086151
    16 10.828047 0.000000 0.000000 0.000000 0.000000 -1.000782
    17 -2.289376 0.085288 2.555976 -0.758424 -1.266670 3.815133
    18 4.640942 0.000000 0.000000 -0.353663 0.443272 -0.313022
    19 10.828046 0.000000 -0.000002 0.000000 0.000000 -1.341681
    20 9.393339 0.000001 0.000001 1.560669 -0.013857 0.138650
    21 1.442242 0.107453 1.746178 -1.686398 -0.539246 0.325835
    22 1.063451 0.000002 0.000000 0.000000 0.000000 0.199047
    23 4.172844 -0.251366 1.312745 -0.007978 -0.095731 0.148567
    24 1.215372 0.000000 0.000002 0.000000 0.000000 0.645746
    25 1.215374 0.000001 0.000000 0.000000 0.000000 0.645697
    26 4.220534 -0.244853 0.431466 -0.001333 -0.026242 0.148284
    27 1.350417 0.000001 0.000000 0.000000 0.000000 0.863816
    28 1.350410 -0.000001 0.000000 0.000000 0.000000 0.863731
    29 9.393337 0.000000 0.000000 -1.568413 -0.000535 0.005658
    30 1.442246 0.107454 -1.746177 1.686432 0.539224 0.325867
    31 1.063452 -0.000001 -0.000001 0.000000 0.000000 0.199053
    32 1.376306 -0.000001 -0.000001 0.000000 0.000000 0.199045
    33 4.172850 -0.251366 -1.312744 0.007990 0.095731 0.148567
    34 1.215374 0.000001 0.000001 0.000000 0.000000 0.645721
    35 1.215369 -0.000002 0.000000 0.000000 0.000000 0.645721
    36 4.220536 -0.244855 -0.431465 0.001333 0.026242 0.148321
    37 1.350417 0.000000 0.000000 0.000000 0.000000 0.863799
    38 1.350411 -0.000001 -0.000001 0.000000 0.000000 0.863815
    39 1.376305 -0.000002 0.000000 0.000000 0.000000 0.199037
    40 2.110539 0.000000 0.000000 -0.171318 0.633944 0.358966
    41 5.253239 3.139476 -1.673515 0.000000 -1.570796 2.984594
    42 5.253257 3.139473 -0.054760 0.000000 -1.570796 2.984594
    43 5.253252 3.139468 1.574632 0.000000 -1.570796 2.984594
    44 4.598144 4.158443 -1.350299 0.000000 -1.570796 2.754670
    45 4.598136 4.158431 -0.054439 0.000000 -1.570796 2.984594
    46 4.598139 4.158430 1.240876 0.000000 -1.570796 2.754670
    47 0.891925 2.373051 -0.014527 -3.141592 -0.000001 1.467260
    48 7.228119 5.709446 3.726568 -2.974084 -0.736653 6.067008
  time 12
    0 -3.276264 -26.568241 10.604688 1.548554 0.139431 -6.274171
    1 -3.406027 -1.445357 0.000000 3.141383 -1.447865 -4.712079
    2 -0.000007 0.000008 4.427393 3.009283 -0.374686 2.526090
    3 18.465940 0.000000 0.000000 0.000000 0.000000 -1.100884
    4 14.875443 0.000000 -0.000001 0.005811 -0.127806 -0.236937
    5 0.000009 -0.000004 -4.427393 -3.106029 -0.105270 2.534856
    6 18.465942 0.000000 0.000000 0.000000 0.000000 -1.735909
    7 14.875444 0.000000 0.000000 -0.052242 0.000696 -0.156462
    8 2.247396 -0.007574 -0.273443 0.084437 -0.000210 0.328403
    9 9.514224 -0.009357 0.000000 -0.021010 -0.051493 -0.068962
    10 2.450428 5.076128 0.001325 0.000000 -1.570796 2.733139
    11 6.312406 -4.528058 0.001311 0.000000 -1.570796 3.140791
    12 2.233309 1.152535 -7.309138 -2.298122 -1.386081 0.093825
    13 11.751817 -0.001633 0.000000 0.000024 0.043608 -0.056888
    14 -2.066712 -0.195959 -2.739572 0.676569 1.016893 3.781963
    15 4.640942 0.000000 -0.000003 0.807780 -0.289372 -1.542892
    16 10.828047 0.000000 0.000000 0.000000 0.000000 -0.798953
    17 -2.281563 -0.195971 2.555976 -0.311754 -1.328894 3.504166
    18 4.640942 0.000000 0.000000 -0.343353 0.546878 -0.204272
    19 10.828046 0.000000 -0.000002 0.000000 0.000000 -1.555440
    20 9.393339 0.000001 0.000001 1.565471 -0.069153 0.168910
    21 1.442242 0.107453 1.746178 -1.686398 -0.539246 0.325835
    22 1.063451 0.000002 0.000000 0.000000 0.000000 0.199047
    23 4.172844 -0.251366 1.312745 -0.007978 -0.095731 0.148567
    24 1.215372 0.000000 0.000002 0.000000 0.000000 0.645746
    25 1.215374 0.000001 0.000000 0.000000 0.000000 0.645697
    26 4.220534 -0.244853 0.431466 -0.001333 -0.026242 0.148284
    27 1.350417 0.000001 0.000000 0.000000 0.000000 0.863816
    28 1.350410 -0.000001 0.000000 0.000000 0.000000 0.863731
    29 9.393337 0.000000 0.000000 -1.552105 -0.053375 0.040970
    30 1.442246 0.107454 -1.746177 1.686432 0.539224 0.325867
    31 1.063452 -0.000001 -0.000001 0.000000 0.000000 0.199053
    32 1.376306 -0.000001 -0.000001 0.000000 0.000000 0.199045
    33 4.172850 -0.251366 -1.312744 0.007978 0.095731 0.148567
    34 1.215374 0.000001 0.000001 0.000000 0.000000 0.645721
    35 1.215369 -0.000002 0.000000 0.000000 0.000000 0.645721
    36 4.220536 -0.244855 -0.431465 0.001333 0.026242 0.148321
    37 1.350417 0.000000 0.000000 0.000000 0.000000 0.863799
    38 1.350411 -0.000001 -0.000001 0.000000 0.000000 0.863815
    39 1.376305 -0.000002 0.000000 0.000000 0.000000 0.199037
    40 2.110539 0.000000 0.000000 0.124735 0.844116 0.501446
    41 5.253239 3.139476 -1.673515 0.000000 -1.570796 2.984594
    42 5.253257 3.139473 -0.054760 0.000000 -1.570796 2.984594
    43 5.253252 3.139468 1.574632 0.000000 -1.570796 2.984594
    44 4.598144 4.158443 -1.350299 0.000000 -1.570796 2.754508
    45 4.598136 4.158431 -0.054439 0.000000 -1.570796 2.984594
    46 4.598139 4.158430 1.240876 0.000000 -1.570796 2.754508
    47 0.891925 2.373051 -0.014527 -3.141592 -0.000001 1.472629
    48 7.228119 5.709446 3.726568 -3.077516 -0.668915 6.060042
  time 13
    0 -3.417535 -30.498111 9.201952 1.697158 -0.020802 -6.124799
    1 -4.874822 -2.281320 0.000000 3.141383 -1.448712 -4.712079
    2 -0.000007 0.000008 4.427393 2.957925 -0.348960 2.355731
    3 18.465940 0.000000 0.000000 0.000000 0.000000 -1.154757
    4 14.875443 0.000000 -0.000001 -0.096864 -0.126849 -0.211543
    5 0.000009 -0.000004 -4.427393 -3.159746 -0.060009 2.358442
    6 18.465942 0.000000 0.000000 0.000000 0.000000 -1.965858
    7 14.875444 0.000000 0.000000 -0.076319 -0.049883 -0.112420
    8 2.247396 -0.007574 -0.269536 0.019445 -0.064553 0.468668
    9 9.514224 -0.009357 0.000000 -0.034291 -0.106359 -0.049802
    10 2.450428 5.076128 0.001325 0.000000 -1.570796 2.280306
    11 6.312406 -4.528058 0.001311 0.000000 -1.570796 3.140791
    12 2.233309 1.152535 -7.309138 -2.484904 -1.403090 0.079355
    13 11.751817 -0.001633 0.000000 0.000024 0.043608 -0.170516
    14 -2.019836 -0.438154 -2.739572 0.594892 0.880970 3.776117
    15 4.640942 0.000000 -0.000003 1.207239 0.000617 -1.889600
    16 10.828047 0.000000 0.000000 0.000000 0.000000 -0.572048
    17 -2.246405 -0.442072 2.555976 0.143434 -1.334132 3.170103
    18 4.640942 0.000000 0.000000 -0.367856 0.608565 -0.270704
    19 10.828046 0.000000 -0.000002 0.000000 0.000000 -1.661678
    20 9.393339 0.000001 0.000001 1.570439 -0.040789 0.178172
    21 1.442242 0.107453 1.746178 -1.686398 -0.539246 0.325835
    22 1.063451 0.000002 0.000000 0.000000 0.000000 0.199047
    23 4.172844 -0.251366 1.312745 -0.007978 -0.095731 0.148567
    24 1.215372 0.000000 0.000002 0.000000 0.000000 0.645746
    25 1.215374 0.000001 0.000000 0.000000 0.000000 0.645697
    26 4.220534 -0.244853 0.431466 -0.001333 -0.026242 0.148284
    27 1.350417 0.000001 0.000000 0.000000 0.000000 0.863816
    28 1.350410 -0.000001 0.000000 0.000000 0.000000 0.863731
    29 9.393337 0.000000 0.000000 -1.539298 -0.031559 0.072667
    30 1.442246 0.107454 -1.746177 1.686432 0.539224 0.325867
    31 1.063452 -0.000001 -0.000001 0.000000 0.000000 0.199053
    32 1.376306 -0.000001 -0.000001 0.000000 0.000000 0.199045
    33 4.172850 -0.251366 -1.312744 0.007978 0.095731 0.148567
    34 1.215374 0.000001 0.000001 0.000000 0.000000 0.645721
    35 1.215369 -0.000002 0.000000 0.000000 0.000000 0.645721
    36 4.220536 -0.244855 -0.431465 0.001333 0.026242 0.148321
    37 1.350417 0.000000 0.000000 0.000000 0.000000 0.863799
    38 1.350411 -0.000001 -0.000001 0.000000 0.000000 0.863815
    39 1.376305 -0.000002 0.000000 0.000000 0.000000 0.199037
    40 2.110539 0.000000 0.000000 0.476265 0.915226 0.653404
    41 5.253239 3.139476 -1.673515 0.000000 -1.570796 2.984594
    42 5.253257 3.139473 -0.054760 0.000000 -1.570796 2.984594
    43 5.253252 3.139468 1.574632 0.000000 -1.570796 2.984594
    44 4.598144 4.158443 -1.350299 0.000000 -1.570796 2.755914
    45 4.598136 4.158431 -0.054439 0.000000 -1.570796 2.984594
    46 4.598139 4.158430 1.240876 0.000000 -1.570796 2.755914
    47 0.891925 2.373051 -0.014527 -3.141592 -0.000001 1.477459
    48 7.228119 5.709446 3.726568 3.120755 -0.741938 6.063615
  time 14
    0 -3.659715 -32.619635 11.578810 1.697158 -0.020802 -6.124799
    1 -5.109204 -2.418043 0.000000 3.141383 -1.448712 -4.712079
    2 -0.000007 0.000008 4.427393 2.877649 -0.228068 2.344595
    3 18.465940 0.000000 0.000000 0.000000 0.000000 -1.154611
    4 14.875443 0.000000 -0.000001 -0.084563 -0.042171 -0.160298
    5 0.000009 -0.000004 -4.427393 -3.171850 -0.051965 2.320800
    6 18.465942 0.000000 0.000000 0.000000 0.000000 -2.013261
    7 14.875444 0.000000 0.000000 -0.082298 -0.062237 -0.103875
    8 2.247396 -0.007574 -0.273443 0.006682 -0.075061 0.494009
    9 9.514224 -0.009357 0.000000 -0.036617 -0.116316 -0.049561
    10 2.450428 5.076128 0.001325 0.000000 -1.570796 2.164237
    11 6.312406 -4.528058 0.001311 0.000000 -1.570796 3.140791
    12 2.233309 1.152535 -7.309138 -2.160695 -1.433905 -0.277507
    13 11.751817 -0.001633 0.000000 0.000024 0.043608 -0.181213
    14 -2.015930 -0.457686 -2.739572 0.591729 0.840278 3.769218
    15 4.640942 0.000000 -0.000003 1.268878 0.006829 -2.002836
    16 10.828047 0.000000 0.000000 0.000000 0.000000 -0.549544
    17 -2.238593 -0.461604 2.555976 0.229858 -1.329347 3.096027
    18 4.640942 0.000000 0.000000 -0.226884 0.712243 -0.456305
    19 10.828046 0.000000 -0.000002 0.000000 0.000000 -1.604320
    20 9.393339 0.000001 0.000001 1.570439 0.482183 0.191798
    21 1.442242 0.107453 1.746178 -1.686398 -0.539246 0.325835
    22 1.063451 0.000002 0.000000 0.000000 0.000000 0.199047
    23 4.172844 -0.251366 1.312745 -0.007978 -0.095731 0.148567
    24 1.215372 0.000000 0.000002 0.000000 0.000000 0.645746
    25 1.215374 0.000001 0.000000 0.000000 0.000000 0.645697
    26 4.220534 -0.244853 0.431466 -0.001333 -0.026242 0.148284
    27 1.350417 0.000001 0.000000 0.000000 0.000000 0.863816
    28 1.350410 -0.000001 0.000000 0.000000 0.000000 0.863731
    29 9.393337 0.000000 0.000000 -1.535797 0.149617 0.084584
    30 1.442246 0.107454 -1.746177 1.686432 0.539224 0.325867
    31 1.063452 -0.000001 -0.000001 0.000000 0.000000 0.199053
    32 1.376306 -0.000001 -0.000001 0.000000 0.000000 0.199045
    33 4.172850 -0.251366 -1.312744 0.007978 0.095731 0.148567
    34 1.215374 0.000001 0.000001 0.000000 0.000000 0.645721
    35 1.215369 -0.000002 0.000000 0.000000 0.000000 0.645721
    36 4.220536 -0.244855 -0.431465 0.001333 0.026242 0.148321
    37 1.350417 0.000000 0.000000 0.000000 0.000000 0.863799
    38 1.350411 -0.000001 -0.000001 0.000000 0.000000 0.863815
    39 1.376305 -0.000002 0.000000 0.000000 0.000000 0.199037
    40 2.110539 0.000000 0.000000 0.415389 0.414992 0.467103
    41 5.253239 3.139476 -1.673515 0.000000 -1.570796 2.984594
    42 5.253257 3.139473 -0.054760 0.000000 -1.570796 2.984594
    43 5.253252 3.139468 1.574632 0.000000 -1.570796 2.984594
    44 4.598144 4.158443 -1.350299 0.000000 -1.570796 2.757645
    45 4.598136 4.158431 -0.054439 0.000000 -1.570796 2.984594
    46 4.598139 4.158430 1.240876 0.000000 -1.570796 2.757645
    47 0.891925 2.373051 -0.014527 -3.141592 -0.000001 1.482013
    48 7.228119 5.709446 3.726568 0.147623 -0.957266 2.783303
  time 15
    0 -3.908622 -33.003530 10.526758 1.697158 -0.020802 -6.124799
    1 -4.992013 -2.359447 0.000000 3.141383 -1.448712 -4.712079
    2 -0.000007 0.000008 4.427393 2.795119 -0.062893 2.385647
    3 18.465940 0.000000 0.000000 0.000000 0.000000 -1.133778
    4 14.875443 0.000000 -0.000001 -0.019005 0.081846 -0.110423
    5 0.000009 -0.000004 -4.427393 -3.165798 -0.056005 2.339822
    6 18.465942 0.000000 0.000000 0.000000 0.000000 -1.989559
    7 14.875444 0.000000 0.000000 -0.079329 -0.055966 -0.108234
    8 2.247396 -0.007574 -0.269536 0.013084 -0.069855 0.481305
    9 9.514224 -0.009357 0.000000 -0.035454 -0.111344 -0.049681
    10 2.450428 5.076128 0.001325 0.000000 -1.570796 2.111525
    11 6.312406 -4.528058 0.001311 0.000000 -1.570796 3.140791
    12 2.233309 1.152535 -7.309138 -1.627661 -1.436556 -0.811554
    13 11.751817 -0.001633 0.000000 0.000024 0.043608 -0.177173
    14 -2.019836 -0.449873 -2.739572 0.592687 0.855513 3.771613
    15 4.640942 0.000000 -0.000003 1.242789 -0.000848 -1.965906
    16 10.828047 0.000000 0.000000 0.000000 0.000000 -0.557967
    17 -2.238593 -0.449885 2.555976 0.187364 -1.331966 3.133688
    18 4.640942 0.000000 0.000000 -0.065674 0.856324 -0.706699
    19 10.828046 0.000000 -0.000002 0.000000 0.000000 -1.476116
    20 9.393339 0.000001 0.000001 1.569611 0.286044 0.186464
    21 1.442242 0.107453 1.746178 -1.686398 -0.539246 0.325835
    22 1.063451 0.000002 0.000000 0.000000 0.000000 0.199047
    23 4.172844 -0.251366 1.312745 -0.007978 -0.095731 0.148567
    24 1.215372 0.000000 0.000002 0.000000 0.000000 0.645746
    25 1.215374 0.000001 0.000000 0.000000 0.000000 0.645697
    26 4.220534 -0.244853 0.431466 -0.001333 -0.026242 0.148284
    27 1.350417 0.000001 0.000000 0.000000 0.000000 0.863816
    28 1.350410 -0.000001 0.000000 0.000000 0.000000 0.863731
    29 9.393337 0.000000 0.000000 -1.534507 0.394788 0.089859
    30 1.442246 0.107454 -1.746177 1.686432 0.539224 0.325867
    31 1.063452 -0.000001 -0.000001 0.000000 0.000000 0.199053
    32 1.376306 -0.000001 -0.000001 0.000000 0.000000 0.199045
    33 4.172850 -0.251366 -1.312744 0.007978 0.095731 0.148567
    34 1.215374 0.000001 0.000001 0.000000 0.000000 0.645721
    35 1.215369 -0.000002 0.000000 0.000000 0.000000 0.645721
    36 4.220536 -0.244855 -0.431465 0.001333 0.026242 0.148321
    37 1.350417 0.000000 0.000000 0.000000 0.000000 0.863799
    38 1.350411 -0.000001 -0.000001 0.000000 0.000000 0.863815
    39 1.376305 -0.000002 0.000000 0.000000 0.000000 0.199037
    40 2.110539 0.000000 0.000000 0.421199 0.601020 0.528588
    41 5.253239 3.139476 -1.673515 0.000000 -1.570796 2.984594
    42 5.253257 3.139473 -0.054760 0.000000 -1.570796 2.984594
    43 5.253252 3.139468 1.574632 0.000000 -1.570796 2.984594
    44 4.598144 4.158443 -1.350299 0.000000 -1.570796 2.758672
    45 4.598136 4.158431 -0.054439 0.000000 -1.570796 2.984594
    46 4.598139 4.158430 1.240876 0.000000 -1.570796 2.758672
    47 0.891925 2.373051 -0.014527 -3.141592 -0.000001 1.487382
    48 7.228119 5.709446 3.726568 0.325343 -1.119222 2.575844
  time 16
    0 -3.821168 -33.468245 9.162987 1.697158 -0.020802 -6.124799
    1 -4.874822 -2.285226 0.000000 3.141383 -1.448712 -4.712079
    2 -0.000007 0.000008 4.427393 2.719350 0.105699 2.412739
    3 18.465940 0.000000 0.000000 0.000000 0.000000 -1.112799
    4 14.875443 0.000000 -0.000001 0.050998 0.214245 -0.074127
    5 0.000009 -0.000004 -4.427393 -3.159746 -0.060009 2.358442
    6 18.465942 0.000000 0.000000 0.000000 0.000000 -1.965858
    7 14.875444 0.000000 0.000000 -0.076319 -0.049883 -0.112420
    8 2.247396 -0.007574 -0.273443 0.019445 -0.064553 0.468668
    9 9.514224 -0.009357 0.000000 -0.034291 -0.106359 -0.049802
    10 2.450428 5.076128 0.001325 0.000000 -1.570796 2.058740
    11 6.312406 -4.528058 0.001311 0.000000 -1.570796 3.140791
    12 2.233309 1.152535 -7.309138 -1.195541 -1.404954 -1.245461
    13 11.751817 -0.001633 0.000000 0.000024 0.043608 -0.170516
    14 -2.015930 -0.438154 -2.739572 0.594892 0.880970 3.776117
    15 4.640942 0.000000 -0.000003 1.207430 -0.005664 -1.905788
    16 10.828047 0.000000 0.000000 0.000000 0.000000 -0.572048
    17 -2.242499 -0.442072 2.555976 0.143434 -1.334132 3.170103
    18 4.640942 0.000000 0.000000 0.050158 1.024214 -0.978223
    19 10.828046 0.000000 -0.000002 0.000000 0.000000 -1.347526
    20 9.393339 0.000001 0.000001 1.570439 -0.040789 0.178172
    21 1.442242 0.107453 1.746178 -1.686398 -0.539246 0.325835
    22 1.063451 0.000002 0.000000 0.000000 0.000000 0.199047
    23 4.172844 -0.251366 1.312745 -0.007978 -0.095731 0.148567
    24 1.215372 0.000000 0.000002 0.000000 0.000000 0.645746
    25 1.215374 0.000001 0.000000 0.000000 0.000000 0.645697
    26 4.220534 -0.244853 0.431466 -0.001333 -0.026242 0.148284
    27 1.350417 0.000001 0.000000 0.000000 0.000000 0.863816
    28 1.350410 -0.000001 0.000000 0.000000 0.000000 0.863731
    29 9.393337 0.000000 0.000000 -1.531743 0.639922 0.096306
    30 1.442246 0.107454 -1.746177 1.686432 0.539224 0.325867
    31 1.063452 -0.000001 -0.000001 0.000000 0.000000 0.199053
    32 1.376306 -0.000001 -0.000001 0.000000 0.000000 0.199045
    33 4.172850 -0.251366 -1.312744 0.007978 0.095731 0.148567
    34 1.215374 0.000001 0.000001 0.000000 0.000000 0.645721
    35 1.215369 -0.000002 0.000000 0.000000 0.000000 0.645721
    36 4.220536 -0.244855 -0.431465 0.001333 0.026242 0.148321
    37 1.350417 0.000000 0.000000 0.000000 0.000000 0.863799
    38 1.350411 -0.000001 -0.000001 0.000000 0.000000 0.863815
    39 1.376305 -0.000002 0.000000 0.000000 0.000000 0.199037
    40 2.110539 0.000000 0.000000 0.476265 0.915226 0.653404
    41 5.253239 3.139476 -1.673515 0.000000 -1.570796 2.984594
    42 5.253257 3.139473 -0.054760 0.000000 -1.570796 2.984594
    43 5.253252 3.139468 1.574632 0.000000 -1.570796 2.984594
    44 4.598144 4.158443 -1.350299 0.000000 -1.570796 2.757807
    45 4.598136 4.158431 -0.054439 0.000000 -1.570796 2.984594
    46 4.598139 4.158430 1.240876 0.000000 -1.570796 2.757807
    47 0.891925 2.373051 -0.014527 -3.141592 -0.000001 1.492116
    48 7.228119 5.709446 3.726568 0.226483 -0.683806 2.692657
end
