// Created by Crowbar 0.56
version 1
nodes
  0 "Bip01" -1
  1 "Bip01 Pelvis" 0
  2 "Bip01 L Thigh" 1
  3 "Bip01 L Calf" 2
  4 "Bip01 L Foot" 3
  5 "Bip01 R Thigh" 1
  6 "Bip01 R Calf" 5
  7 "Bip01 R Foot" 6
  8 "Bip01 Spine" 1
  9 "Bip01 Spine1" 8
  10 "Armour Front" 8
  11 "Armour Back" 8
  12 "Holster" 1
  13 "Bip01 Neck" 9
  14 "Bip01 R Clavicle" 13
  15 "Bip01 R UpperArm" 14
  16 "Bip01 R Forearm" 15
  17 "Bip01 L Clavicle" 13
  18 "Bip01 L UpperArm" 17
  19 "Bip01 L Forearm" 18
  20 "Bip01 R Hand" 16
  21 "Bip01 R Finger0" 20
  22 "Bip01 R Finger01" 21
  23 "Bip01 R Finger1" 20
  24 "Bip01 R Finger11" 23
  25 "Bip01 R Finger12" 24
  26 "Bip01 R Finger2" 20
  27 "Bip01 R Finger21" 26
  28 "Bip01 R Finger22" 27
  29 "Bip01 L Hand" 19
  30 "Bip01 L Finger0" 29
  31 "Bip01 L Finger01" 30
  32 "Bip01 L Finger02" 31
  33 "Bip01 L Finger1" 29
  34 "Bip01 L Finger11" 33
  35 "Bip01 L Finger12" 34
  36 "Bip01 L Finger2" 29
  37 "Bip01 L Finger21" 36
  38 "Bip01 L Finger22" 37
  39 "Bip01 R Finger02" 22
  40 "Bip01 Head" 13
  41 "R_eyebrow" 40
  42 "C_eyebrow" 40
  43 "L_eyebrow" 40
  44 "R_eye" 40
  45 "Eyelids" 40
  46 "L_eye" 40
  47 "Mouth" 40
  48 "ID Tag" 9
end
skeleton
  time 0
    0 1.715325 6.759885 38.347687 0.000000 0.000000 -1.701855
    1 0.164395 -0.125004 0.000000 0.000000 -1.570451 -1.570795
    2 -0.000007 0.000008 4.427393 2.970882 0.011371 3.142375
    3 18.465940 0.000000 0.000000 0.000000 0.000000 -0.416536
    4 14.875443 0.000000 -0.000001 0.018432 0.017410 0.402030
    5 0.000009 -0.000004 -4.427393 -3.035557 0.046172 2.779331
    6 18.465942 0.000000 0.000000 0.000000 0.000000 -0.394245
    7 14.875444 0.000000 0.000000 -0.002000 0.005234 0.029396
    8 2.255209 -0.007574 0.000003 0.121998 -0.017388 -0.001222
    9 9.514224 -0.009357 0.000000 -0.008742 0.002352 -0.095848
    10 2.450428 5.076128 0.001325 0.000000 -1.570796 3.140791
    11 6.312406 -4.528058 0.001311 0.000000 -1.570796 3.140791
    12 2.233309 1.152535 -7.309138 -1.140436 -1.553379 -0.884479
    13 11.751817 -0.001633 0.000000 0.000024 0.043596 0.439850
    14 -1.894832 0.854854 -2.731760 -0.942390 1.461409 1.764624
    15 4.640942 0.000000 -0.000003 -0.601413 -1.183768 0.506835
    16 10.828047 0.000000 0.000000 0.000000 0.000000 -0.234487
    17 -2.121402 0.854842 2.567695 0.697106 -1.395374 2.006635
    18 4.640942 0.000000 0.000000 0.738404 1.089870 0.724669
    19 10.828046 0.000000 -0.000002 0.000000 0.000000 -0.470138
    20 9.393339 0.000001 0.000001 1.569611 -0.034186 0.000059
    21 1.442242 0.107453 1.746178 -1.686398 -0.539246 0.325835
    22 1.063451 0.000002 0.000000 0.000000 0.000000 0.199047
    23 4.172844 -0.251366 1.312745 -0.007978 -0.095731 0.148567
    24 1.215372 0.000000 0.000002 0.000000 0.000000 0.645746
    25 1.215374 0.000001 0.000000 0.000000 0.000000 0.645697
    26 4.220534 -0.244853 0.431466 -0.001333 -0.026242 0.148284
    27 1.350417 0.000001 0.000000 0.000000 0.000000 0.863816
    28 1.350410 -0.000001 0.000000 0.000000 0.000000 0.863731
    29 9.393337 0.000000 0.000000 -1.569611 0.034157 0.000139
    30 1.442246 0.107454 -1.746177 1.686432 0.539224 0.325867
    31 1.063452 -0.000001 -0.000001 0.000000 0.000000 0.199053
    32 1.376306 -0.000001 -0.000001 0.000000 0.000000 0.199045
    33 4.172850 -0.251366 -1.312744 0.007978 0.095731 0.148567
    34 1.215374 0.000001 0.000001 0.000000 0.000000 0.645721
    35 1.215369 -0.000002 0.000000 0.000000 0.000000 0.645721
    36 4.220536 -0.244855 -0.431465 0.001333 0.026242 0.148321
    37 1.350417 0.000000 0.000000 0.000000 0.000000 0.863799
    38 1.350411 -0.000001 -0.000001 0.000000 0.000000 0.863815
    39 1.376305 -0.000002 0.000000 0.000000 0.000000 0.199037
    40 2.110539 0.000000 0.000000 0.002417 -0.010494 -0.153409
    41 5.253239 3.139476 -1.673515 0.000000 -1.570796 2.984594
    42 5.253257 3.139473 -0.054760 0.000000 -1.570796 2.984594
    43 5.253252 3.139468 1.574632 0.000000 -1.570796 2.984594
    44 4.598144 4.158443 -1.350299 0.000000 -1.570796 2.984594
    45 4.598136 4.158431 -0.054439 0.000000 -1.570796 2.984594
    46 4.598139 4.158430 1.240876 0.000000 -1.570796 2.984594
    47 0.891925 2.373051 -0.014527 -3.141592 -0.000001 1.413797
    48 7.228119 5.709446 3.726568 0.000000 -1.570796 3.140796
  time 1
    0 1.473145 6.759885 38.425616 0.000000 0.000000 -1.685077
    1 -0.019205 -0.144536 0.000000 0.000000 -1.570795 -1.570795
    2 -0.000007 0.000008 4.427393 2.972384 0.000819 3.135810
    3 18.465940 0.000000 0.000000 0.000000 0.000000 -0.417267
    4 14.875443 0.000000 -0.000001 0.033684 0.008725 0.394523
    5 0.000009 -0.000004 -4.427393 -3.034406 0.040988 2.785672
    6 18.465942 0.000000 0.000000 0.000000 0.000000 -0.376588
    7 14.875444 0.000000 0.000000 0.015497 0.000980 0.018443
    8 2.255209 -0.007574 0.000003 0.113489 -0.018206 0.009364
    9 9.514224 -0.009357 0.000000 -0.008742 0.002137 -0.079914
    10 2.450428 5.076128 0.001325 0.000000 -1.570796 3.140791
    11 6.312406 -4.528058 0.001311 0.000000 -1.570796 3.140791
    12 2.233309 1.152535 -7.309138 -1.152223 -1.550525 -0.857551
    13 11.751817 -0.001633 0.000000 0.000024 0.043596 0.460350
    14 -1.875300 0.897825 -2.731760 -1.135173 1.446301 1.552359
    15 4.640942 0.000000 -0.000003 -0.658943 -1.188095 0.562990
    16 10.828047 0.000000 0.000000 0.000000 0.000000 -0.310165
    17 -2.101870 0.893906 2.567695 0.813295 -1.397741 1.869215
    18 4.640942 0.000000 0.000000 0.762971 1.129335 0.719284
    19 10.828046 0.000000 -0.000002 0.000000 0.000000 -0.475469
    20 9.393339 0.000001 0.000001 1.628672 0.010441 0.026730
    21 1.442242 0.107453 1.746178 -1.688480 -0.534549 0.329164
    22 1.063451 0.000002 0.000000 0.000000 0.000000 0.199047
    23 4.172844 -0.251366 1.312745 -0.008541 -0.095683 0.154497
    24 1.215372 0.000000 0.000002 0.000000 0.000000 0.651411
    25 1.215374 0.000001 0.000000 0.000000 0.000000 0.651446
    26 4.220534 -0.244853 0.431466 -0.001489 -0.026242 0.154196
    27 1.350417 0.000001 0.000000 0.000000 0.000000 0.869761
    28 1.350410 -0.000001 0.000000 0.000000 0.000000 0.869732
    29 9.393337 0.000000 0.000000 -1.604162 0.018454 -0.004451
    30 1.442246 0.107454 -1.746177 1.682213 0.540031 0.317765
    31 1.063452 -0.000001 -0.000001 0.000000 0.000000 0.199053
    32 1.376306 -0.000001 -0.000001 0.000000 0.000000 0.199045
    33 4.172850 -0.251366 -1.312744 0.007978 0.095731 0.148567
    34 1.215374 0.000001 0.000001 0.000000 0.000000 0.645721
    35 1.215369 -0.000002 0.000000 0.000000 0.000000 0.645721
    36 4.220536 -0.244855 -0.431465 0.001333 0.026242 0.148321
    37 1.350417 0.000000 0.000000 0.000000 0.000000 0.863799
    38 1.350411 -0.000001 -0.000001 0.000000 0.000000 0.863815
    39 1.376305 -0.000002 0.000000 0.000000 0.000000 0.199037
    40 2.110539 0.000000 0.000000 0.012803 -0.012027 -0.141961
    41 5.253239 3.139476 -1.673515 0.000000 -1.570796 2.984594
    42 5.253257 3.139473 -0.054760 0.000000 -1.570796 2.975377
    43 5.253252 3.139468 1.574632 0.000000 -1.570796 2.984594
    44 4.598144 4.158443 -1.350299 1.481945 -1.553850 1.542308
    45 4.598136 4.158431 -0.054439 0.000000 -1.570796 2.998637
    46 4.598139 4.158430 1.240876 1.481945 -1.553850 1.542308
    47 0.891925 2.373051 -0.014527 -3.141592 -0.000001 1.413797
    48 7.228119 5.709446 3.726568 0.000000 -1.570796 3.140796
  time 2
    0 1.271329 6.759885 38.464581 0.000000 0.000000 -1.666669
    1 -0.218429 -0.167974 0.000000 -3.141383 -1.569346 1.570489
    2 -0.000007 0.000008 4.427393 2.974168 -0.011307 3.127666
    3 18.465940 0.000000 0.000000 0.000000 0.000000 -0.418729
    4 14.875443 0.000000 -0.000001 0.050927 -0.000357 0.386036
    5 0.000009 -0.000004 -4.427393 -3.032906 0.034374 2.793939
    6 18.465942 0.000000 0.000000 0.000000 0.000000 -0.352547
    7 14.875444 0.000000 0.000000 0.034999 -0.003243 0.003419
    8 2.255209 -0.007574 0.000003 0.103886 -0.017768 0.021637
    9 9.514224 -0.009357 0.000000 -0.008667 0.001922 -0.061789
    10 2.450428 5.076128 0.001325 0.000000 -1.570796 3.140791
    11 6.312406 -4.528058 0.001311 0.000000 -1.570796 3.140791
    12 2.233309 1.152535 -7.309138 -1.158932 -1.547758 -0.836661
    13 11.751817 -0.001633 0.000000 0.000024 0.043596 0.482406
    14 -1.847956 0.936888 -2.731760 -1.293541 1.427140 1.372388
    15 4.640942 0.000000 -0.000003 -0.704336 -1.194516 0.606159
    16 10.828047 0.000000 0.000000 0.000000 0.000000 -0.385907
    17 -2.086244 0.936876 2.563789 0.951881 -1.399554 1.707550
    18 4.640942 0.000000 0.000000 0.766217 1.180344 0.693765
    19 10.828046 0.000000 -0.000002 0.000000 0.000000 -0.465256
    20 9.393339 0.000001 0.000001 1.689278 0.059362 0.054031
    21 1.442242 0.107453 1.746178 -1.692222 -0.525217 0.335821
    22 1.063451 0.000002 0.000000 0.000000 0.000000 0.199047
    23 4.172844 -0.251366 1.312745 -0.009740 -0.095648 0.166357
    24 1.215372 0.000000 0.000002 0.000000 0.000000 0.663204
    25 1.215374 0.000001 0.000000 0.000000 0.000000 0.663239
    26 4.220534 -0.244853 0.431466 -0.001728 -0.026218 0.165979
    27 1.350417 0.000001 0.000000 0.000000 0.000000 0.881390
    28 1.350410 -0.000001 0.000000 0.000000 0.000000 0.881380
    29 9.393337 0.000000 0.000000 -1.638805 0.007756 -0.009629
    30 1.442246 0.107454 -1.746177 1.673945 0.541529 0.301588
    31 1.063452 -0.000001 -0.000001 0.000000 0.000000 0.199053
    32 1.376306 -0.000001 -0.000001 0.000000 0.000000 0.199045
    33 4.172850 -0.251366 -1.312744 0.007978 0.095731 0.148567
    34 1.215374 0.000001 0.000001 0.000000 0.000000 0.645721
    35 1.215369 -0.000002 0.000000 0.000000 0.000000 0.645721
    36 4.220536 -0.244855 -0.431465 0.001333 0.026242 0.148321
    37 1.350417 0.000000 0.000000 0.000000 0.000000 0.863799
    38 1.350411 -0.000001 -0.000001 0.000000 0.000000 0.863815
    39 1.376305 -0.000002 0.000000 0.000000 0.000000 0.199037
    40 2.110539 0.000000 0.000000 0.025451 -0.014763 -0.132237
    41 5.253239 3.139476 -1.673515 0.000000 -1.570796 2.984594
    42 5.253257 3.139473 -0.054760 0.000000 -1.570796 2.965062
    43 5.253252 3.139468 1.574632 0.000000 -1.570796 2.984594
    44 4.598144 4.158443 -1.350299 1.503634 -1.533860 1.563780
    45 4.598136 4.158431 -0.054439 0.000000 -1.570796 3.013400
    46 4.598139 4.158430 1.240876 1.503634 -1.533860 1.563780
    47 0.891925 2.373051 -0.014527 -3.141592 -0.000001 1.413797
    48 7.228119 5.709446 3.726568 0.000000 -1.570796 3.140796
  time 3
    0 1.029149 6.759885 38.542511 0.000000 0.000000 -1.646919
    1 -0.425467 -0.187506 0.000000 -3.141383 -1.567251 1.570489
    2 -0.000007 0.000008 4.427393 2.976140 -0.024538 3.118442
    3 18.465940 0.000000 0.000000 0.000000 0.000000 -0.419606
    4 14.875443 0.000000 -0.000001 0.069023 -0.009556 0.376571
    5 0.000009 -0.000004 -4.427393 -3.031255 0.027081 2.804373
    6 18.465942 0.000000 0.000000 0.000000 0.000000 -0.323413
    7 14.875444 0.000000 0.000000 0.055465 -0.007592 -0.014760
    8 2.255209 -0.007574 -0.007810 0.093635 -0.016590 0.034572
    9 9.514224 -0.009357 0.000000 -0.008667 0.001707 -0.042581
    10 2.450428 5.076128 0.001325 0.000000 -1.570796 3.140791
    11 6.312406 -4.528058 0.001311 0.000000 -1.570796 3.140791
    12 2.233309 1.152535 -7.309138 -1.164011 -1.544728 -0.817400
    13 11.751817 -0.001633 0.000000 0.000024 0.043596 0.505324
    14 -1.828424 0.979858 -2.731760 -1.407332 1.405588 1.236021
    15 4.640942 0.000000 -0.000003 -0.748200 -1.199541 0.647053
    16 10.828047 0.000000 0.000000 0.000000 0.000000 -0.461264
    17 -2.066712 0.979846 2.563789 1.079555 -1.397464 1.555756
    18 4.640942 0.000000 0.000000 0.763098 1.226375 0.663036
    19 10.828046 0.000000 -0.000002 0.000000 0.000000 -0.463137
    20 9.393339 0.000001 0.000001 1.751209 0.103534 0.085260
    21 1.442242 0.107453 1.746178 -1.695306 -0.518059 0.340703
    22 1.063451 0.000002 0.000000 0.000000 0.000000 0.199047
    23 4.172844 -0.251366 1.312745 -0.010591 -0.095552 0.175292
    24 1.215372 0.000000 0.000002 0.000000 0.000000 0.672270
    25 1.215374 0.000001 0.000000 0.000000 0.000000 0.672257
    26 4.220534 -0.244853 0.431466 -0.002028 -0.026194 0.174827
    27 1.350417 0.000001 0.000000 0.000000 0.000000 0.890229
    28 1.350410 -0.000001 0.000000 0.000000 0.000000 0.890281
    29 9.393337 0.000000 0.000000 -1.673264 -0.005502 -0.013585
    30 1.442246 0.107454 -1.746177 1.667651 0.542548 0.289424
    31 1.063452 -0.000001 -0.000001 0.000000 0.000000 0.199053
    32 1.376306 -0.000001 -0.000001 0.000000 0.000000 0.199045
    33 4.172850 -0.251366 -1.312744 0.007978 0.095731 0.148567
    34 1.215374 0.000001 0.000001 0.000000 0.000000 0.645721
    35 1.215369 -0.000002 0.000000 0.000000 0.000000 0.645721
    36 4.220536 -0.244855 -0.431465 0.001333 0.026242 0.148321
    37 1.350417 0.000000 0.000000 0.000000 0.000000 0.863799
    38 1.350411 -0.000001 -0.000001 0.000000 0.000000 0.863815
    39 1.376305 -0.000002 0.000000 0.000000 0.000000 0.199037
    40 2.110539 0.000000 0.000000 0.038922 -0.019003 -0.123558
    41 5.253239 3.139476 -1.673515 0.000000 -1.570796 2.984594
    42 5.253257 3.139473 -0.054760 0.000000 -1.570796 2.954075
    43 5.253252 3.139468 1.574632 0.000000 -1.570796 2.984594
    44 4.598144 4.158443 -1.350299 1.525170 -1.513845 1.585307
    45 4.598136 4.158431 -0.054439 0.000000 -1.570796 3.028539
    46 4.598139 4.158430 1.240876 1.525170 -1.513845 1.585307
    47 0.891925 2.373051 -0.014527 -3.141592 -0.000001 1.413797
    48 7.228119 5.709446 3.726568 0.000000 -1.570796 3.140796
  time 4
    0 0.786970 6.759885 38.581476 0.000000 0.000000 -1.627169
    1 -0.644224 -0.207038 0.000000 -3.141383 -1.565242 1.570489
    2 -0.000007 0.000008 4.427393 2.978393 -0.037401 3.109799
    3 18.465940 0.000000 0.000000 0.000000 0.000000 -0.419460
    4 14.875443 0.000000 -0.000001 0.087261 -0.018497 0.366060
    5 0.000009 -0.000004 -4.427393 -3.029705 0.019430 2.816251
    6 18.465942 0.000000 0.000000 0.000000 0.000000 -0.290544
    7 14.875444 0.000000 0.000000 0.075931 -0.012004 -0.035232
    8 2.255209 -0.007574 -0.007810 0.083586 -0.015298 0.047540
    9 9.514224 -0.009357 0.000000 -0.008667 0.001465 -0.023396
    10 2.450428 5.076128 0.001325 0.000000 -1.570796 3.140791
    11 6.312406 -4.528058 0.001311 0.000000 -1.570796 3.140791
    12 2.233309 1.152535 -7.309138 -1.167940 -1.541204 -0.798522
    13 11.751817 -0.001633 0.000000 0.000024 0.043596 0.528275
    14 -1.808892 1.022828 -2.723947 -1.476834 1.383823 1.143927
    15 4.640942 0.000000 -0.000003 -0.800187 -1.199052 0.695197
    16 10.828047 0.000000 0.000000 0.000000 0.000000 -0.537456
    17 -2.043274 1.026723 2.563789 1.158419 -1.390917 1.453218
    18 4.640942 0.000000 0.000000 0.782382 1.251050 0.655544
    19 10.828046 0.000000 -0.000002 0.000000 0.000000 -0.491912
    20 9.393339 0.000001 0.000001 1.815072 0.133524 0.122696
    21 1.442242 0.107453 1.746178 -1.694304 -0.520552 0.339061
    22 1.063451 0.000002 0.000000 0.000000 0.000000 0.199047
    23 4.172844 -0.251366 1.312745 -0.010231 -0.095588 0.172327
    24 1.215372 0.000000 0.000002 0.000000 0.000000 0.669332
    25 1.215374 0.000001 0.000000 0.000000 0.000000 0.669284
    26 4.220534 -0.244853 0.431466 -0.001944 -0.026218 0.171891
    27 1.350417 0.000001 0.000000 0.000000 0.000000 0.887441
    28 1.350410 -0.000001 0.000000 0.000000 0.000000 0.887382
    29 9.393337 0.000000 0.000000 -1.707262 -0.029381 -0.015050
    30 1.442246 0.107454 -1.746177 1.669692 0.542240 0.293487
    31 1.063452 -0.000001 -0.000001 0.000000 0.000000 0.199053
    32 1.376306 -0.000001 -0.000001 0.000000 0.000000 0.199045
    33 4.172850 -0.251366 -1.312744 0.007978 0.095731 0.148567
    34 1.215374 0.000001 0.000001 0.000000 0.000000 0.645721
    35 1.215369 -0.000002 0.000000 0.000000 0.000000 0.645721
    36 4.220536 -0.244855 -0.431465 0.001333 0.026242 0.148321
    37 1.350417 0.000000 0.000000 0.000000 0.000000 0.863799
    38 1.350411 -0.000001 -0.000001 0.000000 0.000000 0.863815
    39 1.376305 -0.000002 0.000000 0.000000 0.000000 0.199037
    40 2.110539 0.000000 0.000000 0.051879 -0.024445 -0.115004
    41 5.253239 3.139476 -1.673515 0.000000 -1.570796 2.984594
    42 5.253257 3.139473 -0.054760 0.000000 -1.570796 2.942661
    43 5.253252 3.139468 1.574632 0.000000 -1.570796 2.984594
    44 4.598144 4.158443 -1.350299 1.544878 -1.496851 1.604995
    45 4.598136 4.158431 -0.054439 0.000000 -1.570796 3.043662
    46 4.598139 4.158430 1.240876 1.544878 -1.496851 1.604995
    47 0.891925 2.373051 -0.014527 -3.141592 -0.000001 1.413797
    48 7.228119 5.709446 3.726568 0.000000 -1.570796 3.140796
  time 5
    0 0.538063 6.759885 38.620441 0.000000 0.000000 -1.608378
    1 -0.855168 -0.218757 0.000000 3.141383 -1.563850 -4.712079
    2 -0.000007 0.000008 4.427393 2.980928 -0.048790 3.102154
    3 18.465940 0.000000 0.000000 0.000000 0.000000 -0.417048
    4 14.875443 0.000000 -0.000001 0.104504 -0.027112 0.354702
    5 0.000009 -0.000004 -4.427393 -3.028555 0.012316 2.829173
    6 18.465942 0.000000 0.000000 0.000000 0.000000 -0.255773
    7 14.875444 0.000000 0.000000 0.095394 -0.016290 -0.056794
    8 2.255209 -0.007574 -0.007810 0.074024 -0.014462 0.059780
    9 9.514224 -0.009357 0.000000 -0.008667 0.001250 -0.005247
    10 2.450428 5.076128 0.001325 0.000000 -1.570796 3.140791
    11 6.312406 -4.528058 0.001311 0.000000 -1.570796 3.140791
    12 2.233309 1.152535 -7.309138 -1.172828 -1.536602 -0.779069
    13 11.751817 -0.001633 0.000000 0.000024 0.043596 0.550364
    14 -1.785454 1.065798 -2.723947 -1.505401 1.364150 1.093903
    15 4.640942 0.000000 -0.000003 -0.868420 -1.189142 0.757844
    16 10.828047 0.000000 0.000000 0.000000 0.000000 -0.614227
    17 -2.012023 1.065786 2.567695 1.158706 -1.380517 1.430985
    18 4.640942 0.000000 0.000000 0.857164 1.238713 0.703832
    19 10.828046 0.000000 -0.000002 0.000000 0.000000 -0.574962
    20 9.393339 0.000001 0.000001 1.879597 0.139737 0.167164
    21 1.442242 0.107453 1.746178 -1.686398 -0.539246 0.325835
    22 1.063451 0.000002 0.000000 0.000000 0.000000 0.199047
    23 4.172844 -0.251366 1.312745 -0.007978 -0.095731 0.148567
    24 1.215372 0.000000 0.000002 0.000000 0.000000 0.645746
    25 1.215374 0.000001 0.000000 0.000000 0.000000 0.645697
    26 4.220534 -0.244853 0.431466 -0.001333 -0.026242 0.148284
    27 1.350417 0.000001 0.000000 0.000000 0.000000 0.863816
    28 1.350410 -0.000001 0.000000 0.000000 0.000000 0.863731
    29 9.393337 0.000000 0.000000 -1.741076 -0.071332 -0.011094
    30 1.442246 0.107454 -1.746177 1.686432 0.539224 0.325867
    31 1.063452 -0.000001 -0.000001 0.000000 0.000000 0.199053
    32 1.376306 -0.000001 -0.000001 0.000000 0.000000 0.199045
    33 4.172850 -0.251366 -1.312744 0.007978 0.095731 0.148567
    34 1.215374 0.000001 0.000001 0.000000 0.000000 0.645721
    35 1.215369 -0.000002 0.000000 0.000000 0.000000 0.645721
    36 4.220536 -0.244855 -0.431465 0.001333 0.026242 0.148321
    37 1.350417 0.000000 0.000000 0.000000 0.000000 0.863799
    38 1.350411 -0.000001 -0.000001 0.000000 0.000000 0.863815
    39 1.376305 -0.000002 0.000000 0.000000 0.000000 0.199037
    40 2.110539 0.000000 0.000000 0.063139 -0.030970 -0.105587
    41 5.253239 3.139476 -1.673515 0.000000 -1.570796 2.984594
    42 5.253257 3.139473 -0.054760 0.000000 -1.570796 2.931063
    43 5.253252 3.139468 1.574632 0.000000 -1.570796 2.984594
    44 4.598144 4.158443 -1.350299 1.560827 -1.485777 1.621167
    45 4.598136 4.158431 -0.054439 0.000000 -1.570796 3.058425
    46 4.598139 4.158430 1.240876 1.560827 -1.485777 1.621167
    47 0.891925 2.373051 -0.014527 -3.141592 -0.000001 1.413797
    48 7.228119 5.709446 3.726568 0.000000 -1.570796 3.140796
  time 6
    0 0.363156 6.759885 38.698371 0.000000 0.000000 -1.591600
    1 -1.034861 -0.230476 0.000000 3.141383 -1.563735 -4.712079
    2 -0.000007 0.000008 4.427393 2.983087 -0.058371 3.096503
    3 18.465940 0.000000 0.000000 0.000000 0.000000 -0.412077
    4 14.875443 0.000000 -0.000001 0.119969 -0.035120 0.342690
    5 0.000009 -0.000004 -4.427393 -3.027804 0.006703 2.841533
    6 18.465942 0.000000 0.000000 0.000000 0.000000 -0.222496
    7 14.875444 0.000000 0.000000 0.112930 -0.020544 -0.077439
    8 2.255209 -0.007574 -0.007810 0.065515 -0.014785 0.070565
    9 9.514224 -0.009357 0.000000 -0.008667 0.001035 0.010639
    10 2.450428 5.076128 0.001325 0.000000 -1.570796 3.140791
    11 6.312406 -4.528058 0.001311 0.000000 -1.570796 3.140791
    12 2.233309 1.152535 -7.309138 -1.177141 -1.531418 -0.760574
    13 11.751817 -0.001633 0.000000 0.000024 0.043596 0.570831
    14 -1.765922 1.108768 -2.723947 -1.498403 1.344732 1.081349
    15 4.640942 0.000000 -0.000003 -0.970005 -1.161573 0.854724
    16 10.828047 0.000000 0.000000 0.000000 0.000000 -0.694920
    17 -1.988585 1.104850 2.567695 1.058308 -1.362688 1.513782
    18 4.640942 0.000000 0.000000 0.997308 1.160359 0.818669
    19 10.828046 0.000000 -0.000002 0.000000 0.000000 -0.752431
    20 9.393339 0.000001 0.000001 1.944840 0.106104 0.221233
    21 1.442242 0.107453 1.746178 -1.662945 -0.586700 0.290553
    22 1.063451 0.000002 0.000000 0.000000 0.000000 0.199047
    23 4.172844 -0.251366 1.312745 -0.002262 -0.096043 0.088186
    24 1.215372 0.000000 0.000002 0.000000 0.000000 0.585648
    25 1.215374 0.000001 0.000000 0.000000 0.000000 0.585640
    26 4.220534 -0.244853 0.431466 0.000249 -0.026254 0.088161
    27 1.350417 0.000001 0.000000 0.000000 0.000000 0.803569
    28 1.350410 -0.000001 0.000000 0.000000 0.000000 0.803712
    29 9.393337 0.000000 0.000000 -1.775719 -0.144230 0.002386
    30 1.442246 0.107454 -1.746177 1.727235 0.529770 0.406036
    31 1.063452 -0.000001 -0.000001 0.000000 0.000000 0.199053
    32 1.376306 -0.000001 -0.000001 0.000000 0.000000 0.199045
    33 4.172850 -0.251366 -1.312744 0.007978 0.095731 0.148567
    34 1.215374 0.000001 0.000001 0.000000 0.000000 0.645721
    35 1.215369 -0.000002 0.000000 0.000000 0.000000 0.645721
    36 4.220536 -0.244855 -0.431465 0.001333 0.026242 0.148321
    37 1.350417 0.000000 0.000000 0.000000 0.000000 0.863799
    38 1.350411 -0.000001 -0.000001 0.000000 0.000000 0.863815
    39 1.376305 -0.000002 0.000000 0.000000 0.000000 0.199037
    40 2.110539 0.000000 0.000000 0.071571 -0.037855 -0.094447
    41 5.253239 3.139476 -1.673515 0.000000 -1.570796 2.984594
    42 5.253257 3.139473 -0.054760 0.000000 -1.570796 2.919466
    43 5.253252 3.139468 1.574632 0.000000 -1.570796 2.984594
    44 4.598144 4.158443 -1.350299 1.570529 -1.483548 1.632147
    45 4.598136 4.158431 -0.054439 0.000000 -1.570796 3.072484
    46 4.598139 4.158430 1.240876 1.570529 -1.483548 1.632147
    47 0.891925 2.373051 -0.014527 -3.141592 -0.000001 1.413797
    48 7.228119 5.709446 3.726568 0.000000 -1.570796 3.140796
  time 7
    0 0.168067 6.759885 38.737335 0.000000 0.000000 -1.577890
    1 -1.175490 -0.238289 0.000000 -3.141383 -1.565600 1.570489
    2 -0.000007 0.000008 4.427393 2.984871 -0.064534 3.093345
    3 18.465940 0.000000 0.000000 0.000000 0.000000 -0.404036
    4 14.875443 0.000000 -0.000001 0.132590 -0.042334 0.330482
    5 0.000009 -0.000004 -4.427393 -3.027804 0.003163 2.850924
    6 18.465942 0.000000 0.000000 0.000000 0.000000 -0.195807
    7 14.875444 0.000000 0.000000 0.127457 -0.024767 -0.093783
    8 2.255209 -0.007574 -0.007810 0.058586 -0.016894 0.079166
    9 9.514224 -0.009357 0.000000 -0.008667 0.000887 0.023396
    10 2.450428 5.076128 0.001325 0.000000 -1.570796 3.140791
    11 6.312406 -4.528058 0.001311 0.000000 -1.570796 3.140791
    12 2.233309 1.152535 -7.309138 -1.179441 -1.527049 -0.744092
    13 11.751817 -0.001633 0.000000 0.000024 0.043596 0.588881
    14 -1.742484 1.136113 -2.723947 -1.466960 1.326339 1.096395
    15 4.640942 0.000000 -0.000003 -1.085924 -1.115091 0.966696
    16 10.828047 0.000000 0.000000 0.000000 0.000000 -0.778635
    17 -1.972960 1.140007 2.567695 0.902974 -1.333603 1.655610
    18 4.640942 0.000000 0.000000 1.128988 1.018875 0.930697
    19 10.828046 0.000000 -0.000002 0.000000 0.000000 -1.009032
    20 9.393339 0.000001 0.000001 2.006495 0.037471 0.279278
    21 1.442242 0.107453 1.746178 -1.622836 -0.657130 0.232148
    22 1.063451 0.000002 0.000000 0.000000 0.000000 0.199047
    23 4.172844 -0.251366 1.312745 0.006415 -0.095851 -0.003047
    24 1.215372 0.000000 0.000002 0.000000 0.000000 0.494703
    25 1.215374 0.000001 0.000000 0.000000 0.000000 0.494663
    26 4.220534 -0.244853 0.431466 0.002550 -0.026146 -0.002727
    27 1.350417 0.000001 0.000000 0.000000 0.000000 0.712806
    28 1.350410 -0.000001 0.000000 0.000000 0.000000 0.712718
    29 9.393337 0.000000 0.000000 -1.813034 -0.242994 0.026269
    30 1.442246 0.107454 -1.746177 1.786464 0.510287 0.525152
    31 1.063452 -0.000001 -0.000001 0.000000 0.000000 0.199053
    32 1.376306 -0.000001 -0.000001 0.000000 0.000000 0.199045
    33 4.172850 -0.251366 -1.312744 0.007978 0.095731 0.148567
    34 1.215374 0.000001 0.000001 0.000000 0.000000 0.645721
    35 1.215369 -0.000002 0.000000 0.000000 0.000000 0.645721
    36 4.220536 -0.244855 -0.431465 0.001333 0.026242 0.148321
    37 1.350417 0.000000 0.000000 0.000000 0.000000 0.863799
    38 1.350411 -0.000001 -0.000001 0.000000 0.000000 0.863815
    39 1.376305 -0.000002 0.000000 0.000000 0.000000 0.199037
    40 2.110539 0.000000 0.000000 0.075787 -0.044620 -0.081030
    41 5.253239 3.139476 -1.673515 0.000000 -1.570796 2.984594
    42 5.253257 3.139473 -0.054760 0.000000 -1.570796 2.908296
    43 5.253252 3.139468 1.574632 0.000000 -1.570796 2.984594
    44 4.598144 4.158443 -1.350299 1.575507 -1.491182 1.638096
    45 4.598136 4.158431 -0.054439 0.000000 -1.570796 3.085463
    46 4.598139 4.158430 1.240876 1.575507 -1.491182 1.638096
    47 0.891925 2.373051 -0.014527 -3.141592 -0.000001 1.413797
    48 7.228119 5.709446 3.726568 0.000000 -1.570796 3.140796
  time 8
    0 -0.006841 6.759885 38.737335 0.000000 0.000000 -1.567920
    1 -1.269243 -0.242195 0.000000 0.000000 -1.569963 -1.570795
    2 -0.000007 0.000008 4.427393 2.986092 -0.066243 3.093428
    3 18.465940 0.000000 0.000000 0.000000 0.000000 -0.392925
    4 14.875443 0.000000 -0.000001 0.141549 -0.048708 0.318536
    5 0.000009 -0.000004 -4.427393 -3.028455 0.002591 2.854937
    6 18.465942 0.000000 0.000000 0.000000 0.000000 -0.183923
    7 14.875444 0.000000 0.000000 0.138172 -0.028927 -0.101410
    8 2.255209 -0.007574 0.000003 0.053724 -0.021455 0.084889
    9 9.514224 -0.009357 0.000000 -0.008667 0.000793 0.031773
    10 2.450428 5.076128 0.001325 0.000000 -1.570796 3.140791
    11 6.312406 -4.528058 0.001311 0.000000 -1.570796 3.140791
    12 2.233309 1.152535 -7.309138 -1.185957 -1.527224 -0.725118
    13 11.751817 -0.001633 0.000000 0.000024 0.043596 0.603585
    14 -1.726858 1.171270 -2.723947 -1.417014 1.313920 1.134248
    15 4.640942 0.000000 -0.000003 -1.181298 -1.057233 1.055312
    16 10.828047 0.000000 0.000000 0.000000 0.000000 -0.858685
    17 -1.957334 1.175165 2.567695 0.754722 -1.296208 1.794180
    18 4.640942 0.000000 0.000000 1.217262 0.849181 1.006611
    19 10.828046 0.000000 -0.000002 0.000000 0.000000 -1.289462
    20 9.393339 0.000001 0.000001 2.060036 -0.043229 0.332232
    21 1.442242 0.107453 1.746178 -1.570421 -0.730724 0.160918
    22 1.063451 0.000002 0.000000 0.000000 0.000000 0.199047
    23 4.172844 -0.251366 1.312745 0.015823 -0.094821 -0.101812
    24 1.215372 0.000000 0.000002 0.000000 0.000000 0.396372
    25 1.215374 0.000001 0.000000 0.000000 0.000000 0.396351
    26 4.220534 -0.244853 0.431466 0.005175 -0.025834 -0.101055
    27 1.350417 0.000001 0.000000 0.000000 0.000000 0.614517
    28 1.350410 -0.000001 0.000000 0.000000 0.000000 0.614450
    29 9.393337 0.000000 0.000000 -1.853482 -0.347680 0.057087
    30 1.442246 0.107454 -1.746177 1.847466 0.482003 0.653035
    31 1.063452 -0.000001 -0.000001 0.000000 0.000000 0.199053
    32 1.376306 -0.000001 -0.000001 0.000000 0.000000 0.199045
    33 4.172850 -0.251366 -1.312744 0.007978 0.095731 0.148567
    34 1.215374 0.000001 0.000001 0.000000 0.000000 0.645721
    35 1.215369 -0.000002 0.000000 0.000000 0.000000 0.645721
    36 4.220536 -0.244855 -0.431465 0.001333 0.026242 0.148321
    37 1.350417 0.000000 0.000000 0.000000 0.000000 0.863799
    38 1.350411 -0.000001 -0.000001 0.000000 0.000000 0.863815
    39 1.376305 -0.000002 0.000000 0.000000 0.000000 0.199037
    40 2.110539 0.000000 0.000000 0.075170 -0.050303 -0.063366
    41 5.253239 3.139476 -1.673515 0.000000 -1.570796 2.984594
    42 5.253257 3.139473 -0.054760 0.000000 -1.570796 2.897798
    43 5.253252 3.139468 1.574632 0.000000 -1.570796 2.984594
    44 4.598144 4.158443 -1.350299 1.577030 -1.506175 1.641774
    45 4.598136 4.158431 -0.054439 0.000000 -1.570796 3.097002
    46 4.598139 4.158430 1.240876 1.577030 -1.506175 1.641774
    47 0.891925 2.373051 -0.014527 -3.141592 -0.000001 1.413797
    48 7.228119 5.709446 3.726568 0.000000 -1.570796 3.140796
  time 9
    0 -0.175021 6.759885 38.737335 0.000000 0.000000 -1.562551
    1 -1.300494 -0.242195 0.000000 -0.000096 -1.563936 -1.570603
    2 -0.000007 0.000008 4.427393 2.986937 -0.063261 3.097417
    3 18.465940 0.000000 0.000000 0.000000 0.000000 -0.378086
    4 14.875443 0.000000 -0.000001 0.145993 -0.053961 0.307308
    5 0.000009 -0.000004 -4.427393 -3.030005 0.006595 2.849479
    6 18.465942 0.000000 0.000000 0.000000 0.000000 -0.194721
    7 14.875444 0.000000 0.000000 0.144151 -0.032992 -0.095388
    8 2.255209 -0.007574 0.007816 0.051455 -0.029151 0.086940
    9 9.514224 -0.009357 0.000000 -0.008667 0.000753 0.034854
    10 2.450428 5.076128 0.001325 0.000000 -1.570796 3.140791
    11 6.312406 -4.528058 0.001311 0.000000 -1.570796 3.140791
    12 2.233309 1.152535 -7.309138 -1.186916 -1.535933 -0.722243
    13 11.751817 -0.001633 0.000000 0.000024 0.043596 0.614315
    14 -1.715139 1.194709 -2.723947 -1.347033 1.312319 1.195580
    15 4.640942 0.000000 -0.000003 -1.241217 -0.999724 1.101854
    16 10.828047 0.000000 0.000000 0.000000 0.000000 -0.928512
    17 -1.949521 1.190790 2.579414 0.638149 -1.258461 1.904768
    18 4.640942 0.000000 0.000000 1.272760 0.690021 1.051797
    19 10.828046 0.000000 -0.000002 0.000000 0.000000 -1.535850
    20 9.393339 0.000001 0.000001 2.104028 -0.111991 0.374711
    21 1.442242 0.107453 1.746178 -1.517953 -0.789938 0.093592
    22 1.063451 0.000002 0.000000 0.000000 0.000000 0.199047
    23 4.172844 -0.251366 1.312745 0.023565 -0.093191 -0.184310
    24 1.215372 0.000000 0.000002 0.000000 0.000000 0.314115
    25 1.215374 0.000001 0.000000 0.000000 0.000000 0.314094
    26 4.220534 -0.244853 0.431466 0.007200 -0.025247 -0.183256
    27 1.350417 0.000001 0.000000 0.000000 0.000000 0.532067
    28 1.350410 -0.000001 0.000000 0.000000 0.000000 0.532204
    29 9.393337 0.000000 0.000000 -1.893745 -0.439032 0.089273
    30 1.442246 0.107454 -1.746177 1.896571 0.451702 0.762057
    31 1.063452 -0.000001 -0.000001 0.000000 0.000000 0.199053
    32 1.376306 -0.000001 -0.000001 0.000000 0.000000 0.199045
    33 4.172850 -0.251366 -1.312744 0.007978 0.095731 0.148567
    34 1.215374 0.000001 0.000001 0.000000 0.000000 0.645721
    35 1.215369 -0.000002 0.000000 0.000000 0.000000 0.645721
    36 4.220536 -0.244855 -0.431465 0.001333 0.026242 0.148321
    37 1.350417 0.000000 0.000000 0.000000 0.000000 0.863799
    38 1.350411 -0.000001 -0.000001 0.000000 0.000000 0.863815
    39 1.376305 -0.000002 0.000000 0.000000 0.000000 0.199037
    40 2.110539 0.000000 0.000000 0.068692 -0.053971 -0.040963
    41 5.253239 3.139476 -1.673515 0.000000 -1.570796 2.984594
    42 5.253257 3.139473 -0.054760 0.000000 -1.570796 2.888092
    43 5.253252 3.139468 1.574632 0.000000 -1.570796 2.984594
    44 4.598144 4.158443 -1.350299 1.575049 -1.526105 1.644370
    45 4.598136 4.158431 -0.054439 0.000000 -1.570796 3.106740
    46 4.598139 4.158430 1.240876 1.575049 -1.526105 1.644370
    47 0.891925 2.373051 -0.014527 -3.141592 -0.000001 1.413797
    48 7.228119 5.709446 3.726568 0.000000 -1.570796 3.140796
  time 10
    0 -0.094294 6.759885 38.581476 0.000000 0.000000 -1.561879
    1 -1.300494 -0.242195 0.000000 -0.000096 -1.507881 -1.570603
    2 -0.000007 0.000008 4.427393 2.984026 -0.004239 3.110464
    3 18.465940 0.000000 0.000000 0.000000 0.000000 -0.348774
    4 14.875443 0.000000 -0.000001 0.146953 -0.052373 0.290988
    5 0.000009 -0.000004 -4.427393 -3.051362 0.069160 2.770021
    6 18.465942 0.000000 0.000000 0.000000 0.000000 -0.367760
    7 14.875444 0.000000 0.000000 0.144632 -0.031133 -0.001742
    8 2.255209 -0.007574 0.136726 0.046836 -0.085000 0.086841
    9 9.514224 -0.009357 0.000000 -0.008667 0.000753 0.034276
    10 2.450428 5.076128 0.001325 0.000000 -1.570796 3.140791
    11 6.312406 -4.528058 0.001311 0.000000 -1.570796 3.140791
    12 2.233309 1.152535 -7.309138 1.987904 -1.544728 -3.969264
    13 11.751817 -0.001633 0.000000 0.000024 0.043596 0.619416
    14 -1.703420 1.202521 -2.723947 -0.948717 1.376163 1.587050
    15 4.640942 0.000000 -0.000003 -1.121857 -0.985277 0.899748
    16 10.828047 0.000000 0.000000 0.000000 0.000000 -0.927676
    17 -1.937802 1.202509 2.579414 0.457070 -1.228520 2.081573
    18 4.640942 0.000000 0.000000 1.251948 0.601206 1.018200
    19 10.828046 0.000000 -0.000002 0.000000 0.000000 -1.629627
    20 9.393339 0.000001 0.000001 2.104028 -0.111991 0.374711
    21 1.442242 0.107453 1.746178 -1.517953 -0.789938 0.093592
    22 1.063451 0.000002 0.000000 0.000000 0.000000 0.199047
    23 4.172844 -0.251366 1.312745 0.023565 -0.093191 -0.184350
    24 1.215372 0.000000 0.000002 0.000000 0.000000 0.314115
    25 1.215374 0.000001 0.000000 0.000000 0.000000 0.314094
    26 4.220534 -0.244853 0.431466 0.007200 -0.025247 -0.183256
    27 1.350417 0.000001 0.000000 0.000000 0.000000 0.532067
    28 1.350410 -0.000001 0.000000 0.000000 0.000000 0.532204
    29 9.393337 0.000000 0.000000 -1.904617 -0.472157 0.102069
    30 1.442246 0.107454 -1.746177 1.915015 0.438251 0.804888
    31 1.063452 -0.000001 -0.000001 0.000000 0.000000 0.199053
    32 1.376306 -0.000001 -0.000001 0.000000 0.000000 0.199045
    33 4.172850 -0.251366 -1.312744 0.007978 0.095731 0.148567
    34 1.215374 0.000001 0.000001 0.000000 0.000000 0.645721
    35 1.215369 -0.000002 0.000000 0.000000 0.000000 0.645721
    36 4.220536 -0.244855 -0.431465 0.001333 0.026242 0.148321
    37 1.350417 0.000000 0.000000 0.000000 0.000000 0.863799
    38 1.350411 -0.000001 -0.000001 0.000000 0.000000 0.863815
    39 1.376305 -0.000002 0.000000 0.000000 0.000000 0.199037
    40 2.110539 0.000000 0.000000 0.053884 -0.055685 -0.017637
    41 5.253239 3.139476 -1.673515 0.000000 -1.570796 2.984594
    42 5.253257 3.139473 -0.054760 0.000000 -1.570796 2.879608
    43 5.253252 3.139468 1.574632 0.000000 -1.570796 2.984594
    44 4.598144 4.158443 -1.350299 1.566719 -1.548565 1.649508
    45 4.598136 4.158431 -0.054439 0.000000 -1.570796 3.105251
    46 4.598139 4.158430 1.240876 1.566719 -1.548565 1.649508
    47 0.891925 2.373051 -0.014527 -3.141592 -0.000001 1.413797
    48 7.228119 5.709446 3.726568 0.000000 -1.570796 3.140796
  time 11
    0 0.087340 6.759885 38.425616 0.000000 0.000000 -1.564468
    1 -1.280962 -0.242195 0.000000 -0.000096 -1.466162 -1.570603
    2 -0.000007 0.000008 4.427393 2.981679 0.044131 3.111212
    3 18.465940 0.000000 0.000000 0.000000 0.000000 -0.349724
    4 14.875443 0.000000 -0.000001 0.144891 -0.046607 0.293534
    5 0.000009 -0.000004 -4.427393 -3.073419 0.117209 2.719296
    6 18.465942 0.000000 0.000000 0.000000 0.000000 -0.473023
    7 14.875444 0.000000 0.000000 0.140700 -0.025366 0.054112
    8 2.247396 -0.007574 0.230479 0.044283 -0.126539 0.086080
    9 9.514224 -0.009357 0.000000 -0.008667 0.000753 0.032567
    10 2.450428 5.076128 0.001325 0.000000 -1.570796 3.140791
    11 6.312406 -4.528058 0.001311 0.000000 -1.570796 3.140791
    12 2.233309 1.152535 -7.309138 2.001129 -1.483594 -4.026281
    13 11.751817 -0.001633 0.000000 0.000024 0.043596 0.618521
    14 -1.707327 1.202521 -2.723947 -0.320709 1.406719 2.206980
    15 4.640942 0.000000 -0.000003 -1.051043 -0.965176 0.728165
    16 10.828047 0.000000 0.000000 0.000000 0.000000 -0.916617
    17 -1.937802 1.202509 2.579414 0.289580 -1.225750 2.244867
    18 4.640942 0.000000 0.000000 1.226809 0.569244 0.956157
    19 10.828046 0.000000 -0.000002 0.000000 0.000000 -1.651015
    20 9.393339 0.000001 0.000001 2.104028 -0.111991 0.374711
    21 1.442242 0.107453 1.746178 -1.517953 -0.789938 0.093592
    22 1.063451 0.000002 0.000000 0.000000 0.000000 0.199047
    23 4.172844 -0.251366 1.312745 0.023565 -0.093191 -0.184350
    24 1.215372 0.000000 0.000002 0.000000 0.000000 0.314115
    25 1.215374 0.000001 0.000000 0.000000 0.000000 0.314094
    26 4.220534 -0.244853 0.431466 0.007200 -0.025247 -0.183256
    27 1.350417 0.000001 0.000000 0.000000 0.000000 0.532067
    28 1.350410 -0.000001 0.000000 0.000000 0.000000 0.532204
    29 9.393337 0.000000 0.000000 -1.893745 -0.439032 0.089273
    30 1.442246 0.107454 -1.746177 1.896571 0.451702 0.762057
    31 1.063452 -0.000001 -0.000001 0.000000 0.000000 0.199053
    32 1.376306 -0.000001 -0.000001 0.000000 0.000000 0.199045
    33 4.172850 -0.251366 -1.312744 0.007978 0.095731 0.148567
    34 1.215374 0.000001 0.000001 0.000000 0.000000 0.645721
    35 1.215369 -0.000002 0.000000 0.000000 0.000000 0.645721
    36 4.220536 -0.244855 -0.431465 0.001333 0.026242 0.148321
    37 1.350417 0.000000 0.000000 0.000000 0.000000 0.863799
    38 1.350411 -0.000001 -0.000001 0.000000 0.000000 0.863815
    39 1.376305 -0.000002 0.000000 0.000000 0.000000 0.199037
    40 2.110539 0.000000 0.000000 0.031004 -0.056076 0.001996
    41 5.253239 3.139476 -1.673515 0.000000 -1.570796 2.984594
    42 5.253257 3.139473 -0.054760 0.000000 -1.570796 2.872528
    43 5.253252 3.139468 1.574632 0.000000 -1.570796 2.984594
    44 4.598144 4.158443 -1.350299 0.000000 -1.570460 3.209867
    45 4.598136 4.158431 -0.054439 0.000000 -1.570796 3.091813
    46 4.598139 4.158430 1.240876 0.000000 -1.570460 3.209867
    47 0.891925 2.373051 -0.014527 -3.141592 -0.000001 1.413797
    48 7.228119 5.709446 3.726568 0.000000 -1.570796 3.140796
  time 12
    0 0.228612 6.759885 38.386651 0.000000 0.000000 -1.570316
    1 -1.249711 -0.242195 0.000000 -0.000096 -1.554880 -1.570603
    2 -0.000007 0.000008 4.427393 2.985529 -0.048623 3.059024
    3 18.465940 0.000000 0.000000 0.000000 0.000000 -0.476696
    4 14.875443 0.000000 -0.000001 0.139878 -0.042031 0.368411
    5 0.000009 -0.000004 -4.427393 -3.036157 0.034088 2.767934
    6 18.465942 0.000000 0.000000 0.000000 0.000000 -0.374483
    7 14.875444 0.000000 0.000000 0.134399 -0.022750 0.001354
    8 2.255209 -0.007574 0.031254 0.053400 -0.038082 0.083632
    9 9.514224 -0.009357 0.000000 -0.008667 0.000820 0.029895
    10 2.450428 5.076128 0.001325 0.000000 -1.570796 3.140791
    11 6.312406 -4.528058 0.001311 0.000000 -1.570796 3.140791
    12 2.233309 1.152535 -7.309138 -1.153661 -1.562204 -0.827653
    13 11.751817 -0.001633 0.000000 0.000024 0.043596 0.613223
    14 -1.711233 1.190802 -2.723947 -0.230309 1.383653 2.302045
    15 4.640942 0.000000 -0.000003 -1.069583 -0.881006 0.756074
    16 10.828047 0.000000 0.000000 0.000000 0.000000 -1.055692
    17 -1.949521 1.186884 2.567695 0.138840 -1.257605 2.393116
    18 4.640942 0.000000 0.000000 1.252012 0.599763 0.907636
    19 10.828046 0.000000 -0.000002 0.000000 0.000000 -1.582738
    20 9.393339 0.000001 0.000001 2.100716 -0.137557 0.395660
    21 1.442242 0.107453 1.746178 -1.503486 -0.804445 0.075175
    22 1.063451 0.000002 0.000000 0.000000 0.000000 0.199047
    23 4.172844 -0.251366 1.312745 0.025567 -0.092615 -0.205185
    24 1.215372 0.000000 0.000002 0.000000 0.000000 0.293172
    25 1.215374 0.000001 0.000000 0.000000 0.000000 0.293183
    26 4.220534 -0.244853 0.431466 0.007788 -0.025091 -0.204007
    27 1.350417 0.000001 0.000000 0.000000 0.000000 0.511336
    28 1.350410 -0.000001 0.000000 0.000000 0.000000 0.511503
    29 9.393337 0.000000 0.000000 -1.893745 -0.439070 0.089273
    30 1.442246 0.107454 -1.746177 1.896571 0.451702 0.762057
    31 1.063452 -0.000001 -0.000001 0.000000 0.000000 0.199053
    32 1.376306 -0.000001 -0.000001 0.000000 0.000000 0.199045
    33 4.172850 -0.251366 -1.312744 0.007978 0.095731 0.148567
    34 1.215374 0.000001 0.000001 0.000000 0.000000 0.645721
    35 1.215369 -0.000002 0.000000 0.000000 0.000000 0.645721
    36 4.220536 -0.244855 -0.431465 0.001333 0.026242 0.148321
    37 1.350417 0.000000 0.000000 0.000000 0.000000 0.863799
    38 1.350411 -0.000001 -0.000001 0.000000 0.000000 0.863815
    39 1.376305 -0.000002 0.000000 0.000000 0.000000 0.199037
    40 2.110539 0.000000 0.000000 0.003908 -0.055204 0.018552
    41 5.253239 3.139476 -1.673515 0.000000 -1.570796 2.984594
    42 5.253257 3.139473 -0.054760 0.000000 -1.570796 2.867095
    43 5.253252 3.139468 1.574632 0.000000 -1.570796 2.984594
    44 4.598144 4.158443 -1.350299 -1.553158 -1.550530 4.754702
    45 4.598136 4.158431 -0.054439 0.000000 -1.570796 3.079129
    46 4.598139 4.158430 1.240876 -1.553158 -1.550530 4.754702
    47 0.891925 2.373051 -0.014527 -3.141592 -0.000001 1.413797
    48 7.228119 5.709446 3.726568 0.000000 -1.570796 3.140796
  time 13
    0 0.316065 6.759885 38.347687 0.000000 0.000000 -1.578561
    1 -1.206741 -0.238289 0.000000 3.141383 -1.501050 -4.712079
    2 -0.000007 0.000008 4.427393 2.996514 -0.134879 3.020797
    3 18.465940 0.000000 0.000000 0.000000 0.000000 -0.571066
    4 14.875443 0.000000 -0.000001 0.132376 -0.037922 0.425988
    5 0.000009 -0.000004 -4.427393 -3.008248 -0.050928 2.829173
    6 18.465942 0.000000 0.000000 0.000000 0.000000 -0.240833
    7 14.875444 0.000000 0.000000 0.125772 -0.019378 -0.071131
    8 2.255209 -0.007574 -0.156252 0.062314 0.047335 0.081217
    9 9.514224 -0.009357 0.000000 -0.008667 0.000847 0.026237
    10 2.450428 5.076128 0.001325 0.000000 -1.570796 3.140791
    11 6.312406 -4.528058 0.001311 0.000000 -1.570796 3.140791
    12 2.233309 1.152535 -7.309138 -1.175991 -1.483594 -0.751758
    13 11.751817 -0.001633 0.000000 0.000024 0.043596 0.604910
    14 -1.726858 1.171270 -2.723947 -0.263478 1.373709 2.278758
    15 4.640942 0.000000 -0.000003 -1.111249 -0.821194 0.819479
    16 10.828047 0.000000 0.000000 0.000000 0.000000 -1.130791
    17 -1.957334 1.175165 2.567695 0.004657 -1.238920 2.531302
    18 4.640942 0.000000 0.000000 1.237819 0.600773 0.851095
    19 10.828046 0.000000 -0.000002 0.000000 0.000000 -1.524995
    20 9.393339 0.000001 0.000001 2.104028 -0.111991 0.374711
    21 1.442242 0.107453 1.746178 -1.517953 -0.789938 0.093592
    22 1.063451 0.000002 0.000000 0.000000 0.000000 0.199047
    23 4.172844 -0.251366 1.312745 0.023565 -0.093191 -0.184350
    24 1.215372 0.000000 0.000002 0.000000 0.000000 0.314115
    25 1.215374 0.000001 0.000000 0.000000 0.000000 0.314094
    26 4.220534 -0.244853 0.431466 0.007200 -0.025247 -0.183256
    27 1.350417 0.000001 0.000000 0.000000 0.000000 0.532067
    28 1.350410 -0.000001 0.000000 0.000000 0.000000 0.532204
    29 9.393337 0.000000 0.000000 -1.893653 -0.439070 0.089273
    30 1.442246 0.107454 -1.746177 1.896571 0.451702 0.762057
    31 1.063452 -0.000001 -0.000001 0.000000 0.000000 0.199053
    32 1.376306 -0.000001 -0.000001 0.000000 0.000000 0.199045
    33 4.172850 -0.251366 -1.312744 0.007978 0.095731 0.148567
    34 1.215374 0.000001 0.000001 0.000000 0.000000 0.645721
    35 1.215369 -0.000002 0.000000 0.000000 0.000000 0.645721
    36 4.220536 -0.244855 -0.431465 0.001333 0.026242 0.148321
    37 1.350417 0.000000 0.000000 0.000000 0.000000 0.863799
    38 1.350411 -0.000001 -0.000001 0.000000 0.000000 0.863815
    39 1.376305 -0.000002 0.000000 0.000000 0.000000 0.199037
    40 2.110539 0.000000 0.000000 -0.023960 -0.053851 0.033385
    41 5.253239 3.139476 -1.673515 0.000000 -1.570796 2.984594
    42 5.253257 3.139473 -0.054760 0.000000 -1.570796 2.863738
    43 5.253252 3.139468 1.574632 0.000000 -1.570796 2.984594
    44 4.598144 4.158443 -1.350299 -1.564586 -1.535310 4.756812
    45 4.598136 4.158431 -0.054439 0.000000 -1.570796 3.079866
    46 4.598139 4.158430 1.240876 -1.564586 -1.535310 4.756812
    47 0.891925 2.373051 -0.014527 -3.141592 -0.000001 1.413797
    48 7.228119 5.709446 3.726568 0.000000 -1.570796 3.140796
  time 14
    0 0.457337 6.759885 38.308722 0.000000 0.000000 -1.588053
    1 -1.155958 -0.238289 0.000000 3.141383 -1.561453 -4.712079
    2 -0.000007 0.000008 4.427393 2.985716 -0.065204 3.048221
    3 18.465940 0.000000 0.000000 0.000000 0.000000 -0.514634
    4 14.875443 0.000000 -0.000001 0.123382 -0.031992 0.397395
    5 0.000009 -0.000004 -4.427393 -3.027904 0.015211 2.776522
    6 18.465942 0.000000 0.000000 0.000000 0.000000 -0.356826
    7 14.875444 0.000000 0.000000 0.115619 -0.017267 -0.008624
    8 2.255209 -0.007574 -0.019529 0.059802 -0.012733 0.078108
    9 9.514224 -0.009357 0.000000 -0.008667 0.000914 0.021808
    10 2.450428 5.076128 0.001325 0.000000 -1.570796 3.140791
    11 6.312406 -4.528058 0.001311 0.000000 -1.570796 3.140791
    12 2.233309 1.152535 -7.309138 -1.153661 -1.544728 -0.827653
    13 11.751817 -0.001633 0.000000 0.000024 0.043596 0.594676
    14 -1.738577 1.151739 -2.723947 -0.262040 1.371213 2.290353
    15 4.640942 0.000000 -0.000003 -1.085160 -0.856439 0.789294
    16 10.828047 0.000000 0.000000 0.000000 0.000000 -1.063343
    17 -1.969053 1.151727 2.567695 -0.004339 -1.214922 2.550372
    18 4.640942 0.000000 0.000000 1.228400 0.562534 0.847759
    19 10.828046 0.000000 -0.000002 0.000000 0.000000 -1.557945
    20 9.393339 0.000001 0.000001 2.104083 -0.107144 0.371462
    21 1.442242 0.107453 1.746178 -1.520773 -0.787413 0.096610
    22 1.063451 0.000002 0.000000 0.000000 0.000000 0.199047
    23 4.172844 -0.251366 1.312745 0.023302 -0.093275 -0.180784
    24 1.215372 0.000000 0.000002 0.000000 0.000000 0.317724
    25 1.215374 0.000001 0.000000 0.000000 0.000000 0.317712
    26 4.220534 -0.244853 0.431466 0.007116 -0.025271 -0.179717
    27 1.350417 0.000001 0.000000 0.000000 0.000000 0.535803
    28 1.350410 -0.000001 0.000000 0.000000 0.000000 0.535764
    29 9.393337 0.000000 0.000000 -1.893745 -0.439070 0.089273
    30 1.442246 0.107454 -1.746177 1.896571 0.451702 0.762057
    31 1.063452 -0.000001 -0.000001 0.000000 0.000000 0.199053
    32 1.376306 -0.000001 -0.000001 0.000000 0.000000 0.199045
    33 4.172850 -0.251366 -1.312744 0.007978 0.095731 0.148567
    34 1.215374 0.000001 0.000001 0.000000 0.000000 0.645721
    35 1.215369 -0.000002 0.000000 0.000000 0.000000 0.645721
    36 4.220536 -0.244855 -0.431465 0.001333 0.026242 0.148321
    37 1.350417 0.000000 0.000000 0.000000 0.000000 0.863799
    38 1.350411 -0.000001 -0.000001 0.000000 0.000000 0.863815
    39 1.376305 -0.000002 0.000000 0.000000 0.000000 0.199037
    40 2.110539 0.000000 0.000000 -0.049205 -0.052107 0.046248
    41 5.253239 3.139476 -1.673515 0.000000 -1.570796 2.984594
    42 5.253257 3.139473 -0.054760 0.000000 -1.570796 2.862456
    43 5.253252 3.139468 1.574632 0.000000 -1.570796 2.984594
    44 4.598144 4.158443 -1.350299 -1.571088 -1.527172 4.753837
    45 4.598136 4.158431 -0.054439 0.000000 -1.570796 3.106740
    46 4.598139 4.158430 1.240876 -1.571088 -1.527172 4.753837
    47 0.891925 2.373051 -0.014527 -3.141592 -0.000001 1.413797
    48 7.228119 5.709446 3.726568 0.000000 -1.570796 3.140796
  time 15
    0 0.605335 6.759885 38.308722 0.000000 0.000000 -1.599174
    1 -1.097362 -0.230476 0.000000 -0.000096 -1.518486 -1.570603
    2 -0.000007 0.000008 4.427393 2.979050 0.006949 3.080963
    3 18.465940 0.000000 0.000000 0.000000 0.000000 -0.446068
    4 14.875443 0.000000 -0.000001 0.113285 -0.026529 0.362274
    5 0.000009 -0.000004 -4.427393 -3.053613 0.078562 2.735749
    6 18.465942 0.000000 0.000000 0.000000 0.000000 -0.442259
    7 14.875444 0.000000 0.000000 0.104262 -0.014840 0.036909
    8 2.255209 -0.007574 0.113288 0.057938 -0.074168 0.074766
    9 9.514224 -0.009357 0.000000 -0.008667 0.000968 0.016560
    10 2.450428 5.076128 0.001325 0.000000 -1.570796 3.140791
    11 6.312406 -4.528058 0.001311 0.000000 -1.570796 3.140791
    12 2.233309 1.152535 -7.309138 2.001129 -1.535933 -4.026281
    13 11.751817 -0.001633 0.000000 0.000024 0.043596 0.583979
    14 -1.742484 1.128300 -2.723947 -0.249578 1.366113 2.313353
    15 4.640942 0.000000 -0.000003 -1.056682 -0.881495 0.758013
    16 10.828047 0.000000 0.000000 0.000000 0.000000 -1.007919
    17 -1.976866 1.128288 2.567695 0.007146 -1.247104 2.549893
    18 4.640942 0.000000 0.000000 1.268686 0.560081 0.877785
    19 10.828046 0.000000 -0.000002 0.000000 0.000000 -1.593786
    20 9.393339 0.000001 0.000001 2.104083 -0.111991 0.374711
    21 1.442242 0.107453 1.746178 -1.517953 -0.789938 0.093592
    22 1.063451 0.000002 0.000000 0.000000 0.000000 0.199047
    23 4.172844 -0.251366 1.312745 0.023565 -0.093191 -0.184350
    24 1.215372 0.000000 0.000002 0.000000 0.000000 0.314115
    25 1.215374 0.000001 0.000000 0.000000 0.000000 0.314094
    26 4.220534 -0.244853 0.431466 0.007200 -0.025247 -0.183256
    27 1.350417 0.000001 0.000000 0.000000 0.000000 0.532067
    28 1.350410 -0.000001 0.000000 0.000000 0.000000 0.532204
    29 9.393337 0.000000 0.000000 -1.893745 -0.439070 0.089273
    30 1.442246 0.107454 -1.746177 1.896571 0.451702 0.762057
    31 1.063452 -0.000001 -0.000001 0.000000 0.000000 0.199053
    32 1.376306 -0.000001 -0.000001 0.000000 0.000000 0.199045
    33 4.172850 -0.251366 -1.312744 0.007978 0.095731 0.148567
    34 1.215374 0.000001 0.000001 0.000000 0.000000 0.645721
    35 1.215369 -0.000002 0.000000 0.000000 0.000000 0.645721
    36 4.220536 -0.244855 -0.431465 0.001333 0.026242 0.148321
    37 1.350417 0.000000 0.000000 0.000000 0.000000 0.863799
    38 1.350411 -0.000001 -0.000001 0.000000 0.000000 0.863815
    39 1.376305 -0.000002 0.000000 0.000000 0.000000 0.199037
    40 2.110539 0.000000 0.000000 -0.068229 -0.050303 0.058681
    41 5.253239 3.139476 -1.673515 0.000000 -1.570796 2.984594
    42 5.253257 3.139473 -0.054760 0.000000 -1.570796 2.863433
    43 5.253252 3.139468 1.574632 0.000000 -1.570796 2.984594
    44 4.598144 4.158443 -1.350299 -1.576573 -1.524368 4.749780
    45 4.598136 4.158431 -0.054439 0.000000 -1.570796 3.272373
    46 4.598139 4.158430 1.240876 -1.576573 -1.524368 4.749780
    47 0.891925 2.373051 -0.014527 -3.141592 -0.000001 1.413797
    48 7.228119 5.709446 3.726568 0.000000 -1.570796 3.140796
  time 16
    0 0.719698 6.759885 38.308722 0.000000 0.000000 -1.610487
    1 -1.034861 -0.230476 0.000000 -0.000096 -1.566060 -1.570603
    2 -0.000007 0.000008 4.427393 2.981210 -0.037569 3.063096
    3 18.465940 0.000000 0.000000 0.000000 0.000000 -0.496798
    4 14.875443 0.000000 -0.000001 0.102726 -0.021346 0.395763
    5 0.000009 -0.000004 -4.427393 -3.034306 0.033981 2.765205
    6 18.465942 0.000000 0.000000 0.000000 0.000000 -0.381546
    7 14.875444 0.000000 0.000000 0.092464 -0.012792 0.004394
    8 2.255209 -0.007574 0.007816 0.064664 -0.026624 0.070565
    9 9.514224 -0.009357 0.000000 -0.008667 0.001035 0.010639
    10 2.450428 5.076128 0.001325 0.000000 -1.570796 3.140791
    11 6.312406 -4.528058 0.001311 0.000000 -1.570796 3.140791
    12 2.233309 1.152535 -7.309138 -1.147815 -1.562204 -0.851035
    13 11.751817 -0.001633 0.000000 0.000024 0.043596 0.574209
    14 -1.758109 1.120488 -2.723947 -0.227049 1.347570 2.346223
    15 4.640942 0.000000 -0.000003 -1.069870 -0.823846 0.787018
    16 10.828047 0.000000 0.000000 0.000000 0.000000 -1.071766
    17 -1.992491 1.120476 2.567695 0.009347 -1.257529 2.557272
    18 4.640942 0.000000 0.000000 1.282815 0.573140 0.881531
    19 10.828046 0.000000 -0.000002 0.000000 0.000000 -1.565139
    20 9.393339 0.000001 0.000001 2.106898 -0.136647 0.388871
    21 1.442242 0.107453 1.746178 -1.506780 -0.801474 0.078903
    22 1.063451 0.000002 0.000000 0.000000 0.000000 0.199047
    23 4.172844 -0.251366 1.312745 0.025111 -0.092711 -0.201018
    24 1.215372 0.000000 0.000002 0.000000 0.000000 0.297285
    25 1.215374 0.000001 0.000000 0.000000 0.000000 0.297296
    26 4.220534 -0.244853 0.431466 0.007692 -0.025127 -0.199905
    27 1.350417 0.000001 0.000000 0.000000 0.000000 0.515703
    28 1.350410 -0.000001 0.000000 0.000000 0.000000 0.515673
    29 9.393337 0.000000 0.000000 -1.893745 -0.439070 0.089273
    30 1.442246 0.107454 -1.746177 1.896571 0.451702 0.762057
    31 1.063452 -0.000001 -0.000001 0.000000 0.000000 0.199053
    32 1.376306 -0.000001 -0.000001 0.000000 0.000000 0.199045
    33 4.172850 -0.251366 -1.312744 0.007978 0.095731 0.148567
    34 1.215374 0.000001 0.000001 0.000000 0.000000 0.645721
    35 1.215369 -0.000002 0.000000 0.000000 0.000000 0.645721
    36 4.220536 -0.244855 -0.431465 0.001333 0.026242 0.148321
    37 1.350417 0.000000 0.000000 0.000000 0.000000 0.863799
    38 1.350411 -0.000001 -0.000001 0.000000 0.000000 0.863815
    39 1.376305 -0.000002 0.000000 0.000000 0.000000 0.199037
    40 2.110539 0.000000 0.000000 -0.077484 -0.048499 0.070744
    41 5.253239 3.139476 -1.673515 0.000000 -1.570796 2.984594
    42 5.253257 3.139473 -0.054760 0.000000 -1.570796 2.866119
    43 5.253252 3.139468 1.574632 0.000000 -1.570796 2.984594
    44 4.598144 4.158443 -1.350299 -1.582059 -1.522930 4.745129
    45 4.598136 4.158431 -0.054439 0.000000 -1.570796 3.415926
    46 4.598139 4.158430 1.240876 -1.582059 -1.522930 4.745129
    47 0.891925 2.373051 -0.014527 -3.141592 -0.000001 1.413797
    48 7.228119 5.709446 3.726568 0.000000 -1.570796 3.140796
  time 17
    0 0.860969 6.759885 38.308722 0.000000 0.000000 -1.621992
    1 -0.960640 -0.218757 0.000000 3.141383 -1.496256 -4.712079
    2 -0.000007 0.000008 4.427393 2.989190 -0.116388 3.035589
    3 18.465940 0.000000 0.000000 0.000000 0.000000 -0.570189
    4 14.875443 0.000000 -0.000001 0.092025 -0.017003 0.442504
    5 0.000009 -0.000004 -4.427393 -3.008148 -0.046495 2.828852
    6 18.465942 0.000000 0.000000 0.000000 0.000000 -0.243006
    7 14.875444 0.000000 0.000000 0.080666 -0.010397 -0.070099
    8 2.255209 -0.007574 -0.167971 0.073416 0.052636 0.066231
    9 9.514224 -0.009357 0.000000 -0.008667 0.001129 0.004116
    10 2.450428 5.076128 0.001325 0.000000 -1.570796 3.140791
    11 6.312406 -4.528058 0.001311 0.000000 -1.570796 3.140791
    12 2.233309 1.152535 -7.309138 -1.168324 -1.479225 -0.767474
    13 11.751817 -0.001633 0.000000 0.000024 0.043596 0.564837
    14 -1.769828 1.097049 -2.723947 -0.207014 1.327662 2.376122
    15 4.640942 0.000000 -0.000003 -1.090225 -0.749237 0.828248
    16 10.828047 0.000000 0.000000 0.000000 0.000000 -1.163904
    17 -1.996398 1.097037 2.567695 0.009251 -1.242949 2.567143
    18 4.640942 0.000000 0.000000 1.248129 0.565997 0.851388
    19 10.828046 0.000000 -0.000002 0.000000 0.000000 -1.505405
    20 9.393339 0.000001 0.000001 2.108775 -0.155838 0.399830
    21 1.442242 0.107453 1.746178 -1.497030 -0.810517 0.067275
    22 1.063451 0.000002 0.000000 0.000000 0.000000 0.199047
    23 4.172844 -0.251366 1.312745 0.026382 -0.092460 -0.213879
    24 1.215372 0.000000 0.000002 0.000000 0.000000 0.284653
    25 1.215374 0.000001 0.000000 0.000000 0.000000 0.284611
    26 4.220534 -0.244853 0.431466 0.007943 -0.025079 -0.212775
    27 1.350417 0.000001 0.000000 0.000000 0.000000 0.502812
    28 1.350410 -0.000001 0.000000 0.000000 0.000000 0.502754
    29 9.393337 0.000000 0.000000 -1.893745 -0.439070 0.089273
    30 1.442246 0.107454 -1.746177 1.896571 0.451702 0.762057
    31 1.063452 -0.000001 -0.000001 0.000000 0.000000 0.199053
    32 1.376306 -0.000001 -0.000001 0.000000 0.000000 0.199045
    33 4.172850 -0.251366 -1.312744 0.007978 0.095731 0.148567
    34 1.215374 0.000001 0.000001 0.000000 0.000000 0.645721
    35 1.215369 -0.000002 0.000000 0.000000 0.000000 0.645721
    36 4.220536 -0.244855 -0.431465 0.001333 0.026242 0.148321
    37 1.350417 0.000000 0.000000 0.000000 0.000000 0.863799
    38 1.350411 -0.000001 -0.000001 0.000000 0.000000 0.863815
    39 1.376305 -0.000002 0.000000 0.000000 0.000000 0.199037
    40 2.110539 0.000000 0.000000 -0.077227 -0.046394 0.084284
    41 5.253239 3.139476 -1.673515 0.000000 -1.570796 2.984594
    42 5.253257 3.139473 -0.054760 0.000000 -1.570796 2.870330
    43 5.253252 3.139468 1.574632 0.000000 -1.570796 2.984594
    44 4.598144 4.158443 -1.350299 -1.587900 -1.522798 4.740207
    45 4.598136 4.158431 -0.054439 0.000000 -1.570796 3.274566
    46 4.598139 4.158430 1.240876 -1.587900 -1.522798 4.740207
    47 0.891925 2.373051 -0.014527 -3.141592 -0.000001 1.413797
    48 7.228119 5.709446 3.726568 0.000000 -1.570796 3.140796
  time 18
    0 0.968605 6.759885 38.347687 0.000000 0.000000 -1.632538
    1 -0.878606 -0.218757 0.000000 3.141383 -1.448712 -4.712079
    2 -0.000007 0.000008 4.427393 2.994918 -0.161073 3.024204
    3 18.465940 0.000000 0.000000 0.000000 0.000000 -0.604253
    4 14.875443 0.000000 -0.000001 0.081964 -0.013104 0.466658
    5 0.000009 -0.000004 -4.427393 -3.001896 -0.101266 2.912003
    6 18.465942 0.000000 0.000000 0.000000 0.000000 -0.058014
    7 14.875444 0.000000 0.000000 0.069551 -0.008065 -0.171085
    8 2.247396 -0.007574 -0.273443 0.079818 0.100295 0.061732
    9 9.514224 -0.009357 0.000000 -0.008667 0.001196 -0.002840
    10 2.450428 5.076128 0.001325 0.000000 -1.570796 3.140791
    11 6.312406 -4.528058 0.001311 0.000000 -1.570796 3.140791
    12 2.233309 1.152535 -7.309138 -1.201578 -1.422517 -0.682091
    13 11.751817 -0.001633 0.000000 0.000024 0.043596 0.554173
    14 -1.773735 1.073611 -2.723947 -0.202796 1.324461 2.391072
    15 4.640942 0.000000 -0.000003 -1.110198 -0.726485 0.854892
    16 10.828047 0.000000 0.000000 0.000000 0.000000 -1.203704
    17 -2.012023 1.073599 2.567695 0.010304 -1.237661 2.576630
    18 4.640942 0.000000 0.000000 1.241001 0.552289 0.843896
    19 10.828046 0.000000 -0.000002 0.000000 0.000000 -1.488962
    20 9.393339 0.000001 0.000001 2.104028 -0.111991 0.374711
    21 1.442242 0.107453 1.746178 -1.517953 -0.789938 0.093592
    22 1.063451 0.000002 0.000000 0.000000 0.000000 0.199047
    23 4.172844 -0.251366 1.312745 0.023565 -0.093191 -0.184350
    24 1.215372 0.000000 0.000002 0.000000 0.000000 0.314115
    25 1.215374 0.000001 0.000000 0.000000 0.000000 0.314094
    26 4.220534 -0.244853 0.431466 0.007200 -0.025247 -0.183256
    27 1.350417 0.000001 0.000000 0.000000 0.000000 0.532067
    28 1.350410 -0.000001 0.000000 0.000000 0.000000 0.532204
    29 9.393337 0.000000 0.000000 -1.893653 -0.439032 0.089273
    30 1.442246 0.107454 -1.746177 1.896571 0.451702 0.762057
    31 1.063452 -0.000001 -0.000001 0.000000 0.000000 0.199053
    32 1.376306 -0.000001 -0.000001 0.000000 0.000000 0.199045
    33 4.172850 -0.251366 -1.312744 0.007978 0.095731 0.148567
    34 1.215374 0.000001 0.000001 0.000000 0.000000 0.645721
    35 1.215369 -0.000002 0.000000 0.000000 0.000000 0.645721
    36 4.220536 -0.244855 -0.431465 0.001333 0.026242 0.148321
    37 1.350417 0.000000 0.000000 0.000000 0.000000 0.863799
    38 1.350411 -0.000001 -0.000001 0.000000 0.000000 0.863815
    39 1.376305 -0.000002 0.000000 0.000000 0.000000 0.199037
    40 2.110539 0.000000 0.000000 -0.071057 -0.044139 0.100224
    41 5.253239 3.139476 -1.673515 0.000000 -1.570796 2.984594
    42 5.253257 3.139473 -0.054760 0.000000 -1.570796 2.875885
    43 5.253252 3.139468 1.574632 0.000000 -1.570796 2.984594
    44 4.598144 4.158443 -1.350299 -1.593894 -1.523745 4.734582
    45 4.598136 4.158431 -0.054439 0.000000 -1.570796 3.106740
    46 4.598139 4.158430 1.240876 -1.593894 -1.523745 4.734582
    47 0.891925 2.373051 -0.014527 -3.141592 -0.000001 1.413797
    48 7.228119 5.709446 3.726568 0.000000 -1.570796 3.140796
  time 19
    0 0.982059 6.759885 38.542511 0.000000 0.000000 -1.641934
    1 -0.792666 -0.218757 0.000000 3.141383 -1.504594 -4.712079
    2 -0.000007 0.000008 4.427393 2.983087 -0.095385 3.071572
    3 18.465940 0.000000 0.000000 0.000000 0.000000 -0.502938
    4 14.875443 0.000000 -0.000001 0.072969 -0.010093 0.412279
    5 0.000009 -0.000004 -4.427393 -3.013250 -0.043742 2.881182
    6 18.465942 0.000000 0.000000 0.000000 0.000000 -0.131359
    7 14.875444 0.000000 0.000000 0.060281 -0.009042 -0.129566
    8 2.255209 -0.007574 -0.144533 0.079980 0.044750 0.056439
    9 9.514224 -0.009357 0.000000 -0.008667 0.001290 -0.010302
    10 2.450428 5.076128 0.001325 0.000000 -1.570796 3.140791
    11 6.312406 -4.528058 0.001311 0.000000 -1.570796 3.140791
    12 2.233309 1.152535 -7.309138 -1.180878 -1.474972 -0.738534
    13 11.751817 -0.001633 0.000000 0.000024 0.043596 0.542780
    14 -1.793267 1.054079 -2.723947 -0.177487 1.324461 2.426817
    15 4.640942 0.000000 -0.000003 -1.107140 -0.741211 0.838872
    16 10.828047 0.000000 0.000000 0.000000 0.000000 -1.162618
    17 -2.023742 1.057974 2.571602 -0.013049 -1.306155 2.610554
    18 4.640942 0.000000 0.000000 1.333858 0.592115 0.880068
    19 10.828046 0.000000 -0.000002 0.000000 0.000000 -1.489219
    20 9.393339 0.000001 0.000001 2.109934 -0.120350 0.384749
    21 1.442242 0.107453 1.746178 -1.511418 -0.796457 0.085293
    22 1.063451 0.000002 0.000000 0.000000 0.000000 0.199047
    23 4.172844 -0.251366 1.312745 0.024440 -0.092891 -0.193806
    24 1.215372 0.000000 0.000002 0.000000 0.000000 0.304756
    25 1.215374 0.000001 0.000000 0.000000 0.000000 0.304729
    26 4.220534 -0.244853 0.431466 0.007512 -0.025175 -0.192667
    27 1.350417 0.000001 0.000000 0.000000 0.000000 0.522701
    28 1.350410 -0.000001 0.000000 0.000000 0.000000 0.522794
    29 9.393337 0.000000 0.000000 -1.896878 -0.456989 0.096013
    30 1.442246 0.107454 -1.746177 1.902932 0.447167 0.776802
    31 1.063452 -0.000001 -0.000001 0.000000 0.000000 0.199053
    32 1.376306 -0.000001 -0.000001 0.000000 0.000000 0.199045
    33 4.172850 -0.251366 -1.312744 0.007978 0.095731 0.148567
    34 1.215374 0.000001 0.000001 0.000000 0.000000 0.645721
    35 1.215369 -0.000002 0.000000 0.000000 0.000000 0.645721
    36 4.220536 -0.244855 -0.431465 0.001333 0.026242 0.148321
    37 1.350417 0.000000 0.000000 0.000000 0.000000 0.863799
    38 1.350411 -0.000001 -0.000001 0.000000 0.000000 0.863815
    39 1.376305 -0.000002 0.000000 0.000000 0.000000 0.199037
    40 2.110539 0.000000 0.000000 -0.060414 -0.041764 0.116350
    41 5.253239 3.139476 -1.673515 0.000000 -1.570796 2.984594
    42 5.253257 3.139473 -0.054760 0.000000 -1.570796 2.882660
    43 5.253252 3.139468 1.574632 0.000000 -1.570796 2.984594
    44 4.598144 4.158443 -1.350299 -1.600091 -1.525734 4.728794
    45 4.598136 4.158431 -0.054439 0.000000 -1.570796 3.059669
    46 4.598139 4.158430 1.240876 -1.600091 -1.525734 4.728794
    47 0.891925 2.373051 -0.014527 -3.141592 -0.000001 1.413797
    48 7.228119 5.709446 3.726568 0.000000 -1.570796 3.140796
  time 20
    0 1.029149 6.759885 38.737335 0.000000 0.000000 -1.649508
    1 -0.706726 -0.210944 0.000000 0.000000 -1.570451 -1.570795
    2 -0.000007 0.000008 4.427393 2.976233 -0.017069 3.135312
    3 18.465940 0.000000 0.000000 0.000000 0.000000 -0.360908
    4 14.875443 0.000000 -0.000001 0.065681 -0.008552 0.334791
    5 0.000009 -0.000004 -4.427393 -3.030755 0.023148 2.848356
    6 18.465942 0.000000 0.000000 0.000000 0.000000 -0.207013
    7 14.875444 0.000000 0.000000 0.052977 -0.010019 -0.086729
    8 2.255209 -0.007574 0.000003 0.080426 -0.021037 0.051146
    9 9.514224 -0.009357 0.000000 -0.008667 0.001398 -0.018053
    10 2.450428 5.076128 0.001325 0.000000 -1.570796 3.140791
    11 6.312406 -4.528058 0.001311 0.000000 -1.570796 3.140791
    12 2.233309 1.152535 -7.309138 -1.182412 -1.542835 -0.745912
    13 11.751817 -0.001633 0.000000 0.000024 0.043596 0.530759
    14 -1.808892 1.034547 -2.723947 -0.206822 1.333786 2.410238
    15 4.640942 0.000000 -0.000003 -1.092614 -0.780783 0.829344
    16 10.828047 0.000000 0.000000 0.000000 0.000000 -1.092727
    17 -2.035462 1.034535 2.563789 0.013175 -1.245845 2.597137
    18 4.640942 0.000000 0.000000 1.293826 0.503011 0.885511
    19 10.828046 0.000000 -0.000002 0.000000 0.000000 -1.581711
    20 9.393339 0.000001 0.000001 2.104083 -0.111991 0.374711
    21 1.442242 0.107453 1.746178 -1.517953 -0.789938 0.093592
    22 1.063451 0.000002 0.000000 0.000000 0.000000 0.199047
    23 4.172844 -0.251366 1.312745 0.023565 -0.093191 -0.184350
    24 1.215372 0.000000 0.000002 0.000000 0.000000 0.314115
    25 1.215374 0.000001 0.000000 0.000000 0.000000 0.314094
    26 4.220534 -0.244853 0.431466 0.007200 -0.025247 -0.183256
    27 1.350417 0.000001 0.000000 0.000000 0.000000 0.532067
    28 1.350410 -0.000001 0.000000 0.000000 0.000000 0.532204
    29 9.393337 0.000000 0.000000 -1.893745 -0.439070 0.089273
    30 1.442246 0.107454 -1.746177 1.896571 0.451702 0.762057
    31 1.063452 -0.000001 -0.000001 0.000000 0.000000 0.199053
    32 1.376306 -0.000001 -0.000001 0.000000 0.000000 0.199045
    33 4.172850 -0.251366 -1.312744 0.007978 0.095731 0.148567
    34 1.215374 0.000001 0.000001 0.000000 0.000000 0.645721
    35 1.215369 -0.000002 0.000000 0.000000 0.000000 0.645721
    36 4.220536 -0.244855 -0.431465 0.001333 0.026242 0.148321
    37 1.350417 0.000000 0.000000 0.000000 0.000000 0.863799
    38 1.350411 -0.000001 -0.000001 0.000000 0.000000 0.863815
    39 1.376305 -0.000002 0.000000 0.000000 0.000000 0.199037
    40 2.110539 0.000000 0.000000 -0.046840 -0.039058 0.131921
    41 5.253239 3.139476 -1.673515 0.000000 -1.570796 2.984594
    42 5.253257 3.139473 -0.054760 0.000000 -1.570796 2.890412
    43 5.253252 3.139468 1.574632 0.000000 -1.570796 2.984594
    44 4.598144 4.158443 -1.350299 -1.606440 -1.528574 4.722629
    45 4.598136 4.158431 -0.054439 0.000000 -1.570796 3.026542
    46 4.598139 4.158430 1.240876 -1.606440 -1.528574 4.722629
    47 0.891925 2.373051 -0.014527 -3.141592 -0.000001 1.413797
    48 7.228119 5.709446 3.726568 0.000000 -1.570796 3.140796
  time 21
    0 1.049331 6.759885 38.815265 0.000000 0.000000 -1.655356
    1 -0.612973 -0.207038 0.000000 -0.000096 -1.562587 -1.570603
    2 -0.000007 0.000008 4.427393 2.975952 -0.004340 3.151101
    3 18.465940 0.000000 0.000000 0.000000 0.000000 -0.330938
    4 14.875443 0.000000 -0.000001 0.060277 -0.006567 0.321474
    5 0.000009 -0.000004 -4.427393 -3.033056 0.032086 2.845948
    6 18.465942 0.000000 0.000000 0.000000 0.000000 -0.216181
    7 14.875444 0.000000 0.000000 0.046958 -0.009262 -0.080020
    8 2.255209 -0.007574 0.007816 0.084356 -0.029018 0.045721
    9 9.514224 -0.009357 0.000000 -0.008667 0.001492 -0.026092
    10 2.450428 5.076128 0.001325 0.000000 -1.570796 3.140791
    11 6.312406 -4.528058 0.001311 0.000000 -1.570796 3.140791
    12 2.233309 1.152535 -7.309138 -1.185957 -1.554107 -0.748021
    13 11.751817 -0.001633 0.000000 0.000024 0.043596 0.518637
    14 -1.816705 1.015016 -2.723947 -0.371421 1.355102 2.261029
    15 4.640942 0.000000 -0.000003 -1.068532 -0.849250 0.852110
    16 10.828047 0.000000 0.000000 0.000000 0.000000 -1.005990
    17 -2.047181 1.015004 2.563789 0.157025 -1.273016 2.469875
    18 4.640942 0.000000 0.000000 1.244629 0.605030 0.917059
    19 10.828046 0.000000 -0.000002 0.000000 0.000000 -1.405912
    20 9.393339 0.000001 0.000001 2.075215 -0.050222 0.313514
    21 1.442242 0.107453 1.746178 -1.556771 -0.747245 0.143077
    22 1.063451 0.000002 0.000000 0.000000 0.000000 0.199047
    23 4.172844 -0.251366 1.312745 0.017968 -0.094365 -0.124610
    24 1.215372 0.000000 0.000002 0.000000 0.000000 0.373373
    25 1.215374 0.000001 0.000000 0.000000 0.000000 0.373408
    26 4.220534 -0.244853 0.431466 0.005690 -0.025703 -0.123777
    27 1.350417 0.000001 0.000000 0.000000 0.000000 0.591787
    28 1.350410 -0.000001 0.000000 0.000000 0.000000 0.591714
    29 9.393337 0.000000 0.000000 -1.884900 -0.338434 0.053424
    30 1.442246 0.107454 -1.746177 1.859379 0.475278 0.679025
    31 1.063452 -0.000001 -0.000001 0.000000 0.000000 0.199053
    32 1.376306 -0.000001 -0.000001 0.000000 0.000000 0.199045
    33 4.172850 -0.251366 -1.312744 0.007978 0.095731 0.148567
    34 1.215374 0.000001 0.000001 0.000000 0.000000 0.645721
    35 1.215369 -0.000002 0.000000 0.000000 0.000000 0.645721
    36 4.220536 -0.244855 -0.431465 0.001333 0.026242 0.148321
    37 1.350417 0.000000 0.000000 0.000000 0.000000 0.863799
    38 1.350411 -0.000001 -0.000001 0.000000 0.000000 0.863815
    39 1.376305 -0.000002 0.000000 0.000000 0.000000 0.199037
    40 2.110539 0.000000 0.000000 -0.031518 -0.036051 0.144907
    41 5.253239 3.139476 -1.673515 0.000000 -1.570796 2.984594
    42 5.253257 3.139473 -0.054760 0.000000 -1.570796 2.899079
    43 5.253252 3.139468 1.574632 0.000000 -1.570796 2.984594
    44 4.598144 4.158443 -1.350299 -1.612890 -1.532194 4.716300
    45 4.598136 4.158431 -0.054439 0.000000 -1.570796 3.010863
    46 4.598139 4.158430 1.240876 -1.612890 -1.532194 4.716300
    47 0.891925 2.373051 -0.014527 -3.141592 -0.000001 1.413797
    48 7.228119 5.709446 3.726568 0.000000 -1.570796 3.140796
  time 22
    0 1.123330 6.759885 38.815265 0.000000 0.000000 -1.660534
    1 -0.519220 -0.199225 0.000000 -0.000096 -1.557779 -1.570603
    2 -0.000007 0.000008 4.427393 2.975670 0.004671 3.164231
    3 18.465940 0.000000 0.000000 0.000000 0.000000 -0.308204
    4 14.875443 0.000000 -0.000001 0.055762 -0.004630 0.312139
    5 0.000009 -0.000004 -4.427393 -3.034607 0.037842 2.845145
    6 18.465942 0.000000 0.000000 0.000000 0.000000 -0.222972
    7 14.875444 0.000000 0.000000 0.041902 -0.008191 -0.074457
    8 2.255209 -0.007574 0.027348 0.088570 -0.033465 0.040196
    9 9.514224 -0.009357 0.000000 -0.008667 0.001586 -0.034300
    10 2.450428 5.076128 0.001325 0.000000 -1.570796 3.140791
    11 6.312406 -4.528058 0.001311 0.000000 -1.570796 3.140791
    12 2.233309 1.152535 -7.309138 -1.195541 -1.561534 -0.743708
    13 11.751817 -0.001633 0.000000 0.000024 0.043596 0.506450
    14 -1.832330 0.991577 -2.731760 -0.624312 1.370295 2.023656
    15 4.640942 0.000000 -0.000003 -1.042156 -0.926511 0.888366
    16 10.828047 0.000000 0.000000 0.000000 0.000000 -0.912309
    17 -2.066712 0.987659 2.567695 0.367391 -1.302126 2.274862
    18 4.640942 0.000000 0.000000 1.191041 0.730280 0.954226
    19 10.828046 0.000000 -0.000002 0.000000 0.000000 -1.189905
    20 9.393339 0.000001 0.000001 2.037074 0.027388 0.233938
    21 1.442242 0.107453 1.746178 -1.599304 -0.691706 0.200328
    22 1.063451 0.000002 0.000000 0.000000 0.000000 0.199047
    23 4.172844 -0.251366 1.312745 0.010862 -0.095528 -0.048803
    24 1.215372 0.000000 0.000002 0.000000 0.000000 0.449042
    25 1.215374 0.000001 0.000000 0.000000 0.000000 0.449025
    26 4.220534 -0.244853 0.431466 0.003809 -0.025990 -0.048372
    27 1.350417 0.000001 0.000000 0.000000 0.000000 0.667029
    28 1.350410 -0.000001 0.000000 0.000000 0.000000 0.667042
    29 9.393337 0.000000 0.000000 -1.883610 -0.221178 0.013912
    30 1.442246 0.107454 -1.746177 1.813278 0.498988 0.580481
    31 1.063452 -0.000001 -0.000001 0.000000 0.000000 0.199053
    32 1.376306 -0.000001 -0.000001 0.000000 0.000000 0.199045
    33 4.172850 -0.251366 -1.312744 0.007978 0.095731 0.148567
    34 1.215374 0.000001 0.000001 0.000000 0.000000 0.645721
    35 1.215369 -0.000002 0.000000 0.000000 0.000000 0.645721
    36 4.220536 -0.244855 -0.431465 0.001333 0.026242 0.148321
    37 1.350417 0.000000 0.000000 0.000000 0.000000 0.863799
    38 1.350411 -0.000001 -0.000001 0.000000 0.000000 0.863815
    39 1.376305 -0.000002 0.000000 0.000000 0.000000 0.199037
    40 2.110539 0.000000 0.000000 -0.015785 -0.032834 0.154201
    41 5.253239 3.139476 -1.673515 0.000000 -1.570796 2.984594
    42 5.253257 3.139473 -0.054760 0.000000 -1.570796 2.908296
    43 5.253252 3.139468 1.574632 0.000000 -1.570796 2.984594
    44 4.598144 4.158443 -1.350299 -1.618884 -1.536220 4.709594
    45 4.598136 4.158431 -0.054439 0.000000 -1.570796 3.016068
    46 4.598139 4.158430 1.240876 -1.618884 -1.536220 4.709594
    47 0.891925 2.373051 -0.014527 -3.141592 -0.000001 1.413797
    48 7.228119 5.709446 3.726568 0.000000 -1.570796 3.140796
  time 23
    0 1.143512 6.759885 38.815265 0.000000 0.000000 -1.664464
    1 -0.425467 -0.187506 0.000000 -0.000096 -1.555842 -1.570603
    2 -0.000007 0.000008 4.427393 2.975388 0.010332 3.174120
    3 18.465940 0.000000 0.000000 0.000000 0.000000 -0.293073
    4 14.875443 0.000000 -0.000001 0.052029 -0.002809 0.307177
    5 0.000009 -0.000004 -4.427393 -3.035557 0.040881 2.844503
    6 18.465942 0.000000 0.000000 0.000000 0.000000 -0.228609
    7 14.875444 0.000000 0.000000 0.037487 -0.007025 -0.069468
    8 2.255209 -0.007574 0.031254 0.093108 -0.035080 0.034605
    9 9.514224 -0.009357 0.000000 -0.008667 0.001707 -0.042581
    10 2.450428 5.076128 0.001325 0.000000 -1.570796 3.140791
    11 6.312406 -4.528058 0.001311 0.000000 -1.570796 3.140791
    12 2.233309 1.152535 -7.309138 -1.219212 -1.565932 -0.724447
    13 11.751817 -0.001633 0.000000 0.000024 0.043596 0.494660
    14 -1.844049 0.960326 -2.731760 -0.905386 1.371575 1.756096
    15 4.640942 0.000000 -0.000003 -1.015207 -1.002655 0.927404
    16 10.828047 0.000000 0.000000 0.000000 0.000000 -0.815606
    17 -2.070619 0.960314 2.563789 0.620348 -1.320584 2.034425
    18 4.640942 0.000000 0.000000 1.134779 0.857406 0.989286
    19 10.828046 0.000000 -0.000002 0.000000 0.000000 -0.964777
    20 9.393339 0.000001 0.000001 1.987452 0.103111 0.146942
    21 1.442242 0.107453 1.746178 -1.638121 -0.631630 0.254250
    22 1.063451 0.000002 0.000000 0.000000 0.000000 0.199047
    23 4.172844 -0.251366 1.312745 0.003215 -0.096007 0.030289
    24 1.215372 0.000000 0.000002 0.000000 0.000000 0.527900
    25 1.215374 0.000001 0.000000 0.000000 0.000000 0.527862
    26 4.220534 -0.244853 0.431466 0.001675 -0.026218 0.030492
    27 1.350417 0.000001 0.000000 0.000000 0.000000 0.745796
    28 1.350410 -0.000001 0.000000 0.000000 0.000000 0.745931
    29 9.393337 0.000000 0.000000 -1.884900 -0.103731 -0.024525
    30 1.442246 0.107454 -1.746177 1.763852 0.518587 0.479203
    31 1.063452 -0.000001 -0.000001 0.000000 0.000000 0.199053
    32 1.376306 -0.000001 -0.000001 0.000000 0.000000 0.199045
    33 4.172850 -0.251366 -1.312744 0.007978 0.095731 0.148567
    34 1.215374 0.000001 0.000001 0.000000 0.000000 0.645721
    35 1.215369 -0.000002 0.000000 0.000000 0.000000 0.645721
    36 4.220536 -0.244855 -0.431465 0.001333 0.026242 0.148321
    37 1.350417 0.000000 0.000000 0.000000 0.000000 0.863799
    38 1.350411 -0.000001 -0.000001 0.000000 0.000000 0.863815
    39 1.376305 -0.000002 0.000000 0.000000 0.000000 0.199037
    40 2.110539 0.000000 0.000000 -0.001234 -0.029316 0.158509
    41 5.253239 3.139476 -1.673515 0.000000 -1.570796 2.984594
    42 5.253257 3.139473 -0.054760 0.000000 -1.570796 2.918062
    43 5.253252 3.139468 1.574632 0.000000 -1.570796 2.984594
    44 4.598144 4.158443 -1.350299 -1.625589 -1.540775 4.702779
    45 4.598136 4.158431 -0.054439 0.000000 -1.570796 3.045659
    46 4.598139 4.158430 1.240876 -1.625589 -1.540775 4.702779
    47 0.891925 2.373051 -0.014527 -3.141592 -0.000001 1.413797
    48 7.228119 5.709446 3.726568 0.000000 -1.570796 3.140796
  time 24
    0 1.230966 6.759885 38.815265 0.000000 0.000000 -1.668203
    1 -0.323901 -0.175787 0.000000 -0.000096 -1.556157 -1.570603
    2 -0.000007 0.000008 4.427393 2.975107 0.013180 3.180436
    3 18.465940 0.000000 0.000000 0.000000 0.000000 -0.285397
    4 14.875443 0.000000 -0.000001 0.048616 -0.000941 0.306394
    5 0.000009 -0.000004 -4.427393 -3.035557 0.042132 2.844022
    6 18.465942 0.000000 0.000000 0.000000 0.000000 -0.234177
    7 14.875444 0.000000 0.000000 0.033515 -0.005575 -0.064479
    8 2.255209 -0.007574 0.031254 0.097565 -0.034415 0.028981
    9 9.514224 -0.009357 0.000000 -0.008667 0.001801 -0.050861
    10 2.450428 5.076128 0.001325 0.000000 -1.570796 3.140791
    11 6.312406 -4.528058 0.001311 0.000000 -1.570796 3.140791
    12 2.233309 1.152535 -7.309138 -1.269717 -1.568262 -0.679121
    13 11.751817 -0.001633 0.000000 0.000024 0.043596 0.483532
    14 -1.851862 0.940795 -2.731760 -1.133064 1.363083 1.539517
    15 4.640942 0.000000 -0.000003 -0.985582 -1.068539 0.954638
    16 10.828047 0.000000 0.000000 0.000000 0.000000 -0.720446
    17 -2.082338 0.940783 2.567695 0.853493 -1.325016 1.811238
    18 4.640942 0.000000 0.000000 1.075781 0.967361 1.011352
    19 10.828046 0.000000 -0.000002 0.000000 0.000000 -0.762965
    20 9.393339 0.000001 0.000001 1.928612 0.160099 0.064748
    21 1.442242 0.107453 1.746178 -1.668110 -0.577145 0.297743
    22 1.063451 0.000002 0.000000 0.000000 0.000000 0.199047
    23 4.172844 -0.251366 1.312745 -0.003340 -0.096007 0.100206
    24 1.215372 0.000000 0.000002 0.000000 0.000000 0.597525
    25 1.215374 0.000001 0.000000 0.000000 0.000000 0.597483
    26 4.220534 -0.244853 0.431466 0.000010 -0.026266 0.100146
    27 1.350417 0.000001 0.000000 0.000000 0.000000 0.815566
    28 1.350410 -0.000001 0.000000 0.000000 0.000000 0.815665
    29 9.393337 0.000000 0.000000 -1.880938 -0.002369 -0.055832
    30 1.442246 0.107454 -1.746177 1.718814 0.531961 0.389424
    31 1.063452 -0.000001 -0.000001 0.000000 0.000000 0.199053
    32 1.376306 -0.000001 -0.000001 0.000000 0.000000 0.199045
    33 4.172850 -0.251366 -1.312744 0.007978 0.095731 0.148567
    34 1.215374 0.000001 0.000001 0.000000 0.000000 0.645721
    35 1.215369 -0.000002 0.000000 0.000000 0.000000 0.645721
    36 4.220536 -0.244855 -0.431465 0.001333 0.026242 0.148321
    37 1.350417 0.000000 0.000000 0.000000 0.000000 0.863799
    38 1.350411 -0.000001 -0.000001 0.000000 0.000000 0.863815
    39 1.376305 -0.000002 0.000000 0.000000 0.000000 0.199037
    40 2.110539 0.000000 0.000000 0.010592 -0.025437 0.155739
    41 5.253239 3.139476 -1.673515 0.000000 -1.570796 2.984594
    42 5.253257 3.139473 -0.054760 0.000000 -1.570796 2.928073
    43 5.253252 3.139468 1.574632 0.000000 -1.570796 2.984594
    44 4.598144 4.158443 -1.350299 -1.632243 -1.545521 4.695964
    45 4.598136 4.158431 -0.054439 0.000000 -1.570796 3.238837
    46 4.598139 4.158430 1.240876 -1.632243 -1.545521 4.695964
    47 0.891925 2.373051 -0.014527 -3.141592 -0.000001 1.413797
    48 7.228119 5.709446 3.726568 0.000000 -1.570796 3.140796
  time 25
    0 1.271329 6.759885 38.815265 0.000000 0.000000 -1.672038
    1 -0.245774 -0.167974 0.000000 -0.000096 -1.558080 -1.570603
    2 -0.000007 0.000008 4.427393 2.974543 0.013950 3.183760
    3 18.465940 0.000000 0.000000 0.000000 0.000000 -0.284666
    4 14.875443 0.000000 -0.000001 0.045416 0.000997 0.309462
    5 0.000009 -0.000004 -4.427393 -3.035357 0.041774 2.843379
    6 18.465942 0.000000 0.000000 0.000000 0.000000 -0.240289
    7 14.875444 0.000000 0.000000 0.029662 -0.004126 -0.059088
    8 2.255209 -0.007574 0.027348 0.102144 -0.032115 0.023457
    9 9.514224 -0.009357 0.000000 -0.008667 0.001895 -0.059093
    10 2.450428 5.076128 0.001325 0.000000 -1.570796 3.140791
    11 6.312406 -4.528058 0.001311 0.000000 -1.570796 3.140791
    12 2.233309 1.152535 -7.309138 -1.355873 -1.569660 -0.598338
    13 11.751817 -0.001633 0.000000 0.000024 0.043596 0.473398
    14 -1.859675 0.917356 -2.731760 -1.265357 1.357770 1.416375
    15 4.640942 0.000000 -0.000003 -0.947834 -1.118023 0.951181
    16 10.828047 0.000000 0.000000 0.000000 0.000000 -0.630494
    17 -2.097963 0.917344 2.563789 1.000309 -1.324311 1.672572
    18 4.640942 0.000000 0.000000 1.014683 1.043550 1.008250
    19 10.828046 0.000000 -0.000002 0.000000 0.000000 -0.614207
    20 9.393339 0.000001 0.000001 1.867233 0.183876 0.003405
    21 1.442242 0.107453 1.746178 -1.686398 -0.539246 0.325835
    22 1.063451 0.000002 0.000000 0.000000 0.000000 0.199047
    23 4.172844 -0.251366 1.312745 -0.007978 -0.095731 0.148567
    24 1.215372 0.000000 0.000002 0.000000 0.000000 0.645746
    25 1.215374 0.000001 0.000000 0.000000 0.000000 0.645697
    26 4.220534 -0.244853 0.431466 -0.001333 -0.026242 0.148284
    27 1.350417 0.000001 0.000000 0.000000 0.000000 0.863816
    28 1.350410 -0.000001 0.000000 0.000000 0.000000 0.863731
    29 9.393337 0.000000 0.000000 -1.862511 0.067282 -0.072975
    30 1.442246 0.107454 -1.746177 1.686432 0.539224 0.325867
    31 1.063452 -0.000001 -0.000001 0.000000 0.000000 0.199053
    32 1.376306 -0.000001 -0.000001 0.000000 0.000000 0.199045
    33 4.172850 -0.251366 -1.312744 0.007978 0.095731 0.148567
    34 1.215374 0.000001 0.000001 0.000000 0.000000 0.645721
    35 1.215369 -0.000002 0.000000 0.000000 0.000000 0.645721
    36 4.220536 -0.244855 -0.431465 0.001333 0.026242 0.148321
    37 1.350417 0.000000 0.000000 0.000000 0.000000 0.863799
    38 1.350411 -0.000001 -0.000001 0.000000 0.000000 0.863815
    39 1.376305 -0.000002 0.000000 0.000000 0.000000 0.199037
    40 2.110539 0.000000 0.000000 0.018613 -0.021739 0.145092
    41 5.253239 3.139476 -1.673515 0.000000 -1.570796 2.984594
    42 5.253257 3.139473 -0.054760 0.000000 -1.570796 2.938266
    43 5.253252 3.139468 1.574632 0.000000 -1.570796 2.984594
    44 4.598144 4.158443 -1.350299 -1.638897 -1.550302 4.689203
    45 4.598136 4.158431 -0.054439 0.000000 -1.570796 3.407268
    46 4.598139 4.158430 1.240876 -1.638897 -1.550302 4.689203
    47 0.891925 2.373051 -0.014527 -3.141592 -0.000001 1.413797
    48 7.228119 5.709446 3.726568 0.000000 -1.570796 3.140796
  time 26
    0 1.304965 6.759885 38.815265 0.000000 0.000000 -1.675777
    1 -0.163740 -0.164068 0.000000 -0.000096 -1.561065 -1.570603
    2 -0.000007 0.000008 4.427393 2.974168 0.013280 3.184674
    3 18.465940 0.000000 0.000000 0.000000 0.000000 -0.289637
    4 14.875443 0.000000 -0.000001 0.042110 0.003005 0.315533
    5 0.000009 -0.000004 -4.427393 -3.034607 0.040809 2.841614
    6 18.465942 0.000000 0.000000 0.000000 0.000000 -0.247963
    7 14.875444 0.000000 0.000000 0.025649 -0.002581 -0.052895
    8 2.255209 -0.007574 0.019535 0.106520 -0.028752 0.018031
    9 9.514224 -0.009357 0.000000 -0.008742 0.001962 -0.067108
    10 2.450428 5.076128 0.001325 0.000000 -1.570796 3.140791
    11 6.312406 -4.528058 0.001311 0.000000 -1.570796 3.140791
    12 2.233309 1.152535 -7.309138 0.000000 -1.570796 -1.960623
    13 11.751817 -0.001633 0.000000 0.000024 0.043596 0.464787
    14 -1.867488 0.905637 -2.731760 -1.306195 1.366283 1.382546
    15 4.640942 0.000000 -0.000003 -0.895465 -1.148662 0.904217
    16 10.828047 0.000000 0.000000 0.000000 0.000000 -0.547165
    17 -2.097963 0.905625 2.567695 1.042229 -1.330556 1.637978
    18 4.640942 0.000000 0.000000 0.954667 1.081645 0.974361
    19 10.828046 0.000000 -0.000002 0.000000 0.000000 -0.533019
    20 9.393339 0.000001 0.000001 1.807510 0.169434 -0.027533
    21 1.442242 0.107453 1.746178 -1.693935 -0.522405 0.337729
    22 1.063451 0.000002 0.000000 0.000000 0.000000 0.199047
    23 4.172844 -0.251366 1.312745 -0.010076 -0.095612 0.169923
    24 1.215372 0.000000 0.000002 0.000000 0.000000 0.666982
    25 1.215374 0.000001 0.000000 0.000000 0.000000 0.666955
    26 4.220534 -0.244853 0.431466 -0.001812 -0.026218 0.169518
    27 1.350417 0.000001 0.000000 0.000000 0.000000 0.884915
    28 1.350410 -0.000001 0.000000 0.000000 0.000000 0.885093
    29 9.393337 0.000000 0.000000 -1.823169 0.096701 -0.071754
    30 1.442246 0.107454 -1.746177 1.671380 0.541971 0.296758
    31 1.063452 -0.000001 -0.000001 0.000000 0.000000 0.199053
    32 1.376306 -0.000001 -0.000001 0.000000 0.000000 0.199045
    33 4.172850 -0.251366 -1.312744 0.007978 0.095731 0.148567
    34 1.215374 0.000001 0.000001 0.000000 0.000000 0.645721
    35 1.215369 -0.000002 0.000000 0.000000 0.000000 0.645721
    36 4.220536 -0.244855 -0.431465 0.001333 0.026242 0.148321
    37 1.350417 0.000000 0.000000 0.000000 0.000000 0.863799
    38 1.350411 -0.000001 -0.000001 0.000000 0.000000 0.863815
    39 1.376305 -0.000002 0.000000 0.000000 0.000000 0.199037
    40 2.110539 0.000000 0.000000 0.020978 -0.017890 0.114196
    41 5.253239 3.139476 -1.673515 0.000000 -1.570796 2.984594
    42 5.253257 3.139473 -0.054760 0.000000 -1.570796 2.948459
    43 5.253252 3.139468 1.574632 0.000000 -1.570796 2.984594
    44 4.598144 4.158443 -1.350299 -1.645449 -1.555108 4.682388
    45 4.598136 4.158431 -0.054439 0.000000 -1.570796 3.232879
    46 4.598139 4.158430 1.240876 -1.645449 -1.555108 4.682388
    47 0.891925 2.373051 -0.014527 -3.141592 -0.000001 1.413797
    48 7.228119 5.709446 3.726568 0.000000 -1.570796 3.140796
  time 27
    0 1.385691 6.759885 38.737335 0.000000 0.000000 -1.679708
    1 -0.069987 -0.156255 0.000000 -0.000096 -1.564438 -1.570603
    2 -0.000007 0.000008 4.427393 2.973792 0.012409 3.183760
    3 18.465940 0.000000 0.000000 0.000000 0.000000 -0.298555
    4 14.875443 0.000000 -0.000001 0.038448 0.005269 0.324020
    5 0.000009 -0.000004 -4.427393 -3.034056 0.039451 2.839045
    6 18.465942 0.000000 0.000000 0.000000 0.000000 -0.258354
    7 14.875444 0.000000 0.000000 0.021275 -0.001006 -0.045669
    8 2.255209 -0.007574 0.007816 0.110774 -0.025008 0.012772
    9 9.514224 -0.009357 0.000000 -0.008742 0.002083 -0.074907
    10 2.450428 5.076128 0.001325 0.000000 -1.570796 3.140791
    11 6.312406 -4.528058 0.001311 0.000000 -1.570796 3.140791
    12 2.233309 1.152535 -7.309138 -1.132194 -1.564796 -0.841069
    13 11.751817 -0.001633 0.000000 0.000024 0.043596 0.457899
    14 -1.875300 0.886105 -2.731760 -1.283188 1.386469 1.410816
    15 4.640942 0.000000 -0.000003 -0.830003 -1.165552 0.822768
    16 10.828047 0.000000 0.000000 0.000000 0.000000 -0.467308
    17 -2.105776 0.886093 2.567695 1.009880 -1.345388 1.676789
    18 4.640942 0.000000 0.000000 0.897769 1.094920 0.919693
    19 10.828046 0.000000 -0.000002 0.000000 0.000000 -0.497564
    20 9.393339 0.000001 0.000001 1.748063 0.128580 -0.034904
    21 1.442242 0.107453 1.746178 -1.694383 -0.520200 0.339283
    22 1.063451 0.000002 0.000000 0.000000 0.000000 0.199047
    23 4.172844 -0.251366 1.312745 -0.010267 -0.095588 0.172567
    24 1.215372 0.000000 0.000002 0.000000 0.000000 0.669626
    25 1.215374 0.000001 0.000000 0.000000 0.000000 0.669582
    26 4.220534 -0.244853 0.431466 -0.001944 -0.026206 0.172173
    27 1.350417 0.000001 0.000000 0.000000 0.000000 0.887546
    28 1.350410 -0.000001 0.000000 0.000000 0.000000 0.887687
    29 9.393337 0.000000 0.000000 -1.766229 0.095975 -0.057297
    30 1.442246 0.107454 -1.746177 1.669541 0.542240 0.293104
    31 1.063452 -0.000001 -0.000001 0.000000 0.000000 0.199053
    32 1.376306 -0.000001 -0.000001 0.000000 0.000000 0.199045
    33 4.172850 -0.251366 -1.312744 0.007978 0.095731 0.148567
    34 1.215374 0.000001 0.000001 0.000000 0.000000 0.645721
    35 1.215369 -0.000002 0.000000 0.000000 0.000000 0.645721
    36 4.220536 -0.244855 -0.431465 0.001333 0.026242 0.148321
    37 1.350417 0.000000 0.000000 0.000000 0.000000 0.863799
    38 1.350411 -0.000001 -0.000001 0.000000 0.000000 0.863815
    39 1.376305 -0.000002 0.000000 0.000000 0.000000 0.199037
    40 2.110539 0.000000 0.000000 0.018510 -0.014673 0.058742
    41 5.253239 3.139476 -1.673515 0.000000 -1.570796 2.984594
    42 5.253257 3.139473 -0.054760 0.000000 -1.570796 2.958287
    43 5.253252 3.139468 1.574632 0.000000 -1.570796 2.984594
    44 4.598144 4.158443 -1.350299 -1.651950 -1.559710 4.675411
    45 4.598136 4.158431 -0.054439 0.000000 -1.570796 3.019488
    46 4.598139 4.158430 1.240876 -1.651950 -1.559710 4.675411
    47 0.891925 2.373051 -0.014527 -3.141592 -0.000001 1.413797
    48 7.228119 5.709446 3.726568 0.000000 -1.570796 3.140796
  time 28
    0 1.473145 6.759885 38.737335 0.000000 0.000000 -1.684406
    1 0.004234 -0.144536 0.000000 0.000000 -1.567566 -1.570603
    2 -0.000007 0.000008 4.427393 2.973041 0.011170 3.182098
    3 18.465940 0.000000 0.000000 0.000000 0.000000 -0.309885
    4 14.875443 0.000000 -0.000001 0.034146 0.007837 0.333877
    5 0.000009 -0.000004 -4.427393 -3.033256 0.038485 2.834711
    6 18.465942 0.000000 0.000000 0.000000 0.000000 -0.271597
    7 14.875444 0.000000 0.000000 0.016179 0.000538 -0.037125
    8 2.255209 -0.007574 0.000003 0.114826 -0.021436 0.007710
    9 9.514224 -0.009357 0.000000 -0.008742 0.002177 -0.082369
    10 2.450428 5.076128 0.001325 0.000000 -1.570796 3.140791
    11 6.312406 -4.528058 0.001311 0.000000 -1.570796 3.140791
    12 2.233309 1.152535 -7.309138 -1.138998 -1.555738 -0.850269
    13 11.751817 -0.001633 0.000000 0.000024 0.043596 0.451871
    14 -1.883113 0.878293 -2.731760 -1.205442 1.413035 1.493039
    15 4.640942 0.000000 -0.000003 -0.757183 -1.173648 0.721167
    16 10.828047 0.000000 0.000000 0.000000 0.000000 -0.389765
    17 -2.109683 0.878281 2.563789 0.922594 -1.364098 1.769648
    18 4.640942 0.000000 0.000000 0.845454 1.093838 0.855368
    19 10.828046 0.000000 -0.000002 0.000000 0.000000 -0.488572
    20 9.393339 0.000001 0.000001 1.689002 0.073642 -0.026418
    21 1.442242 0.107453 1.746178 -1.692038 -0.526560 0.334800
    22 1.063451 0.000002 0.000000 0.000000 0.000000 0.199047
    23 4.172844 -0.251366 1.312745 -0.009500 -0.095659 0.164554
    24 1.215372 0.000000 0.000002 0.000000 0.000000 0.661652
    25 1.215374 0.000001 0.000000 0.000000 0.000000 0.661604
    26 4.220534 -0.244853 0.431466 -0.001680 -0.026218 0.164250
    27 1.350417 0.000001 0.000000 0.000000 0.000000 0.879601
    28 1.350410 -0.000001 0.000000 0.000000 0.000000 0.879752
    29 9.393337 0.000000 0.000000 -1.700352 0.076566 -0.036833
    30 1.442246 0.107454 -1.746177 1.675126 0.541280 0.304016
    31 1.063452 -0.000001 -0.000001 0.000000 0.000000 0.199053
    32 1.376306 -0.000001 -0.000001 0.000000 0.000000 0.199045
    33 4.172850 -0.251366 -1.312744 0.007978 0.095731 0.148567
    34 1.215374 0.000001 0.000001 0.000000 0.000000 0.645721
    35 1.215369 -0.000002 0.000000 0.000000 0.000000 0.645721
    36 4.220536 -0.244855 -0.431465 0.001333 0.026242 0.148321
    37 1.350417 0.000000 0.000000 0.000000 0.000000 0.863799
    38 1.350411 -0.000001 -0.000001 0.000000 0.000000 0.863815
    39 1.376305 -0.000002 0.000000 0.000000 0.000000 0.199037
    40 2.110539 0.000000 0.000000 0.013060 -0.012418 -0.011544
    41 5.253239 3.139476 -1.673515 0.000000 -1.570796 2.984594
    42 5.253257 3.139473 -0.054760 0.000000 -1.570796 2.967686
    43 5.253252 3.139468 1.574632 0.000000 -1.570796 2.984594
    44 4.598144 4.158443 -1.350299 -1.658249 -1.564013 4.668596
    45 4.598136 4.158431 -0.054439 0.000000 -1.570796 2.975510
    46 4.598139 4.158430 1.240876 -1.658249 -1.564013 4.668596
    47 0.891925 2.373051 -0.014527 -3.141592 -0.000001 1.413797
    48 7.228119 5.709446 3.726568 0.000000 -1.570796 3.140796
  time 29
    0 1.553872 6.759885 38.581476 0.000000 0.000000 -1.692555
    1 0.086267 -0.136723 0.000000 0.000000 -1.569834 -1.570795
    2 -0.000007 0.000008 4.427393 2.972102 0.010332 3.164148
    3 18.465940 0.000000 0.000000 0.000000 0.000000 -0.358496
    4 14.875443 0.000000 -0.000001 0.027000 0.012017 0.365081
    5 0.000009 -0.000004 -4.427393 -3.034056 0.041167 2.809830
    6 18.465942 0.000000 0.000000 0.000000 0.000000 -0.327284
    7 14.875444 0.000000 0.000000 0.007912 0.002713 -0.006445
    8 2.255209 -0.007574 0.000003 0.118554 -0.018681 0.003046
    9 9.514224 -0.009357 0.000000 -0.008742 0.002258 -0.089373
    10 2.450428 5.076128 0.001325 0.000000 -1.570796 3.140791
    11 6.312406 -4.528058 0.001311 0.000000 -1.570796 3.140791
    12 2.233309 1.152535 -7.309138 -1.142161 -1.553816 -0.863876
    13 11.751817 -0.001633 0.000000 0.000024 0.043596 0.446076
    14 -1.887020 0.866574 -2.731760 -1.081105 1.439665 1.621453
    15 4.640942 0.000000 -0.000003 -0.681305 -1.177905 0.613073
    16 10.828047 0.000000 0.000000 0.000000 0.000000 -0.312608
    17 -2.113589 0.866562 2.567695 0.804586 -1.381524 1.893172
    18 4.640942 0.000000 0.000000 0.794729 1.088571 0.789287
    19 10.828046 0.000000 -0.000002 0.000000 0.000000 -0.485746
    20 9.393339 0.000001 0.000001 1.629279 0.016003 -0.011385
    21 1.442242 0.107453 1.746178 -1.687848 -0.535156 0.328853
    22 1.063451 0.000002 0.000000 0.000000 0.000000 0.199047
    23 4.172844 -0.251366 1.312745 -0.008529 -0.095683 0.153896
    24 1.215372 0.000000 0.000002 0.000000 0.000000 0.651076
    25 1.215374 0.000001 0.000000 0.000000 0.000000 0.651049
    26 4.220534 -0.244853 0.431466 -0.001465 -0.026230 0.153593
    27 1.350417 0.000001 0.000000 0.000000 0.000000 0.869130
    28 1.350410 -0.000001 0.000000 0.000000 0.000000 0.869122
    29 9.393337 0.000000 0.000000 -1.632448 0.051388 -0.016369
    30 1.442246 0.107454 -1.746177 1.682686 0.539954 0.318583
    31 1.063452 -0.000001 -0.000001 0.000000 0.000000 0.199053
    32 1.376306 -0.000001 -0.000001 0.000000 0.000000 0.199045
    33 4.172850 -0.251366 -1.312744 0.007978 0.095731 0.148567
    34 1.215374 0.000001 0.000001 0.000000 0.000000 0.645721
    35 1.215369 -0.000002 0.000000 0.000000 0.000000 0.645721
    36 4.220536 -0.244855 -0.431465 0.001333 0.026242 0.148321
    37 1.350417 0.000000 0.000000 0.000000 0.000000 0.863799
    38 1.350411 -0.000001 -0.000001 0.000000 0.000000 0.863815
    39 1.376305 -0.000002 0.000000 0.000000 0.000000 0.199037
    40 2.110539 0.000000 0.000000 0.007044 -0.011125 -0.085277
    41 5.253239 3.139476 -1.673515 0.000000 -1.570796 2.984594
    42 5.253257 3.139473 -0.054760 0.000000 -1.570796 2.976659
    43 5.253252 3.139468 1.574632 0.000000 -1.570796 2.984594
    44 4.598144 4.158443 -1.350299 -1.664395 -1.567764 4.661835
    45 4.598136 4.158431 -0.054439 0.000000 -1.570796 2.980044
    46 4.598139 4.158430 1.240876 -1.664395 -1.567764 4.661835
    47 0.891925 2.373051 -0.014527 -3.141592 -0.000001 1.413797
    48 7.228119 5.709446 3.726568 0.000000 -1.570796 3.140796
  time 30
    0 1.715325 6.759885 38.347687 0.000000 0.000000 -1.701855
    1 0.164395 -0.125004 0.000000 0.000000 -1.570451 -1.570795
    2 -0.000007 0.000008 4.427393 2.970882 0.011103 3.141046
    3 18.465940 0.000000 0.000000 0.000000 0.000000 -0.419752
    4 14.875443 0.000000 -0.000001 0.018432 0.017410 0.403989
    5 0.000009 -0.000004 -4.427393 -3.035557 0.046351 2.777726
    6 18.465942 0.000000 0.000000 0.000000 0.000000 -0.397845
    7 14.875444 0.000000 0.000000 -0.002000 0.005234 0.031403
    8 2.255209 -0.007574 0.000003 0.121998 -0.017388 -0.001222
    9 9.514224 -0.009357 0.000000 -0.008742 0.002352 -0.095848
    10 2.450428 5.076128 0.001325 0.000000 -1.570796 3.140791
    11 6.312406 -4.528058 0.001311 0.000000 -1.570796 3.140791
    12 2.233309 1.152535 -7.309138 -1.145611 -1.553554 -0.878154
    13 11.751817 -0.001633 0.000000 0.000024 0.043596 0.439850
    14 -1.894832 0.854854 -2.731760 -0.942390 1.461409 1.764624
    15 4.640942 0.000000 -0.000003 -0.601413 -1.183768 0.506835
    16 10.828047 0.000000 0.000000 0.000000 0.000000 -0.234487
    17 -2.121402 0.854842 2.567695 0.697106 -1.395374 2.006635
    18 4.640942 0.000000 0.000000 0.738404 1.089870 0.724669
    19 10.828046 0.000000 -0.000002 0.000000 0.000000 -0.470138
    20 9.393339 0.000001 0.000001 1.569611 -0.034186 0.000059
    21 1.442242 0.107453 1.746178 -1.686398 -0.539246 0.325835
    22 1.063451 0.000002 0.000000 0.000000 0.000000 0.199047
    23 4.172844 -0.251366 1.312745 -0.007978 -0.095731 0.148567
    24 1.215372 0.000000 0.000002 0.000000 0.000000 0.645746
    25 1.215374 0.000001 0.000000 0.000000 0.000000 0.645697
    26 4.220534 -0.244853 0.431466 -0.001333 -0.026242 0.148284
    27 1.350417 0.000001 0.000000 0.000000 0.000000 0.863816
    28 1.350410 -0.000001 0.000000 0.000000 0.000000 0.863731
    29 9.393337 0.000000 0.000000 -1.569611 0.034157 0.000139
    30 1.442246 0.107454 -1.746177 1.686432 0.539224 0.325867
    31 1.063452 -0.000001 -0.000001 0.000000 0.000000 0.199053
    32 1.376306 -0.000001 -0.000001 0.000000 0.000000 0.199045
    33 4.172850 -0.251366 -1.312744 0.007978 0.095731 0.148567
    34 1.215374 0.000001 0.000001 0.000000 0.000000 0.645721
    35 1.215369 -0.000002 0.000000 0.000000 0.000000 0.645721
    36 4.220536 -0.244855 -0.431465 0.001333 0.026242 0.148321
    37 1.350417 0.000000 0.000000 0.000000 0.000000 0.863799
    38 1.350411 -0.000001 -0.000001 0.000000 0.000000 0.863815
    39 1.376305 -0.000002 0.000000 0.000000 0.000000 0.199037
    40 2.110539 0.000000 0.000000 0.002417 -0.010494 -0.153409
    41 5.253239 3.139476 -1.673515 0.000000 -1.570796 2.984594
    42 5.253257 3.139473 -0.054760 0.000000 -1.570796 2.984594
    43 5.253252 3.139468 1.574632 0.000000 -1.570796 2.984594
    44 4.598144 4.158443 -1.350299 0.000000 -1.570796 2.984594
    45 4.598136 4.158431 -0.054439 0.000000 -1.570796 2.984594
    46 4.598139 4.158430 1.240876 0.000000 -1.570796 2.984594
    47 0.891925 2.373051 -0.014527 -3.141592 -0.000001 1.413797
    48 7.228119 5.709446 3.726568 0.000000 -1.570796 3.140796
end
