// Created by Crowbar 0.56
version 1
nodes
  0 "Bip01" -1
  1 "Bip01 Pelvis" 0
  2 "Bip01 L Thigh" 1
  3 "Bip01 L Calf" 2
  4 "Bip01 L Foot" 3
  5 "Bip01 R Thigh" 1
  6 "Bip01 R Calf" 5
  7 "Bip01 R Foot" 6
  8 "Bip01 Spine" 1
  9 "Bip01 Spine1" 8
  10 "Armour Front" 8
  11 "Armour Back" 8
  12 "Holster" 1
  13 "Bip01 Neck" 9
  14 "Bip01 R Clavicle" 13
  15 "Bip01 R UpperArm" 14
  16 "Bip01 R Forearm" 15
  17 "Bip01 L Clavicle" 13
  18 "Bip01 L UpperArm" 17
  19 "Bip01 L Forearm" 18
  20 "Bip01 R Hand" 16
  21 "Bip01 R Finger0" 20
  22 "Bip01 R Finger01" 21
  23 "Bip01 R Finger1" 20
  24 "Bip01 R Finger11" 23
  25 "Bip01 R Finger12" 24
  26 "Bip01 R Finger2" 20
  27 "Bip01 R Finger21" 26
  28 "Bip01 R Finger22" 27
  29 "Bip01 L Hand" 19
  30 "Bip01 L Finger0" 29
  31 "Bip01 L Finger01" 30
  32 "Bip01 L Finger02" 31
  33 "Bip01 L Finger1" 29
  34 "Bip01 L Finger11" 33
  35 "Bip01 L Finger12" 34
  36 "Bip01 L Finger2" 29
  37 "Bip01 L Finger21" 36
  38 "Bip01 L Finger22" 37
  39 "Bip01 R Finger02" 22
  40 "Bip01 Head" 13
  41 "R_eyebrow" 40
  42 "C_eyebrow" 40
  43 "L_eyebrow" 40
  44 "R_eye" 40
  45 "Eyelids" 40
  46 "L_eye" 40
  47 "Mouth" 40
  48 "ID Tag" 9
end
skeleton
  time 0
    0 1.715325 6.759885 38.464581 0.000000 0.000000 -1.701855
    1 0.164395 -0.125004 0.000000 0.000000 -1.570451 -1.570795
    2 -0.000007 0.000008 4.427393 2.970882 0.011371 3.142375
    3 18.465940 0.000000 0.000000 0.000000 0.000000 -0.416536
    4 14.875443 0.000000 -0.000001 0.018432 0.017410 0.402030
    5 0.000009 -0.000004 -4.427393 -3.035557 0.046172 2.779331
    6 18.465942 0.000000 0.000000 0.000000 0.000000 -0.394245
    7 14.875444 0.000000 0.000000 -0.002000 0.005234 0.029396
    8 2.255209 -0.007574 0.000003 0.121998 -0.017388 -0.001222
    9 9.514224 -0.009357 0.000000 -0.008742 0.002352 -0.095848
    10 2.450428 5.076128 0.001325 0.000000 -1.570796 3.140791
    11 6.312406 -4.528058 0.001311 0.000000 -1.570796 3.140791
    12 2.233309 1.152535 -7.309138 0.000000 -1.570796 -1.971739
    13 11.751817 -0.001633 0.000000 0.000024 0.043596 0.439850
    14 -1.894832 0.854854 -2.731760 -0.942390 1.461409 1.764624
    15 4.640942 0.000000 -0.000003 -0.601413 -1.183768 0.506835
    16 10.828047 0.000000 0.000000 0.000000 0.000000 -0.234487
    17 -2.121402 0.854842 2.567695 0.697106 -1.395374 2.006635
    18 4.640942 0.000000 0.000000 0.738404 1.089870 0.724669
    19 10.828046 0.000000 -0.000002 0.000000 0.000000 -0.470138
    20 9.393339 0.000001 0.000001 1.569611 -0.034186 0.000059
    21 1.442242 0.107453 1.746178 -1.686398 -0.539246 0.325835
    22 1.063451 0.000002 0.000000 0.000000 0.000000 0.199047
    23 4.172844 -0.251366 1.312745 -0.007978 -0.095731 0.148567
    24 1.215372 0.000000 0.000002 0.000000 0.000000 0.645746
    25 1.215374 0.000001 0.000000 0.000000 0.000000 0.645697
    26 4.220534 -0.244853 0.431466 -0.001333 -0.026242 0.148284
    27 1.350417 0.000001 0.000000 0.000000 0.000000 0.863816
    28 1.350410 -0.000001 0.000000 0.000000 0.000000 0.863731
    29 9.393337 0.000000 0.000000 -1.569611 0.034157 0.000139
    30 1.442246 0.107454 -1.746177 1.686432 0.539224 0.325867
    31 1.063452 -0.000001 -0.000001 0.000000 0.000000 0.199053
    32 1.376306 -0.000001 -0.000001 0.000000 0.000000 0.199045
    33 4.172850 -0.251366 -1.312744 0.007978 0.095731 0.148567
    34 1.215374 0.000001 0.000001 0.000000 0.000000 0.645721
    35 1.215369 -0.000002 0.000000 0.000000 0.000000 0.645721
    36 4.220536 -0.244855 -0.431465 0.001333 0.026242 0.148321
    37 1.350417 0.000000 0.000000 0.000000 0.000000 0.863799
    38 1.350411 -0.000001 -0.000001 0.000000 0.000000 0.863815
    39 1.376305 -0.000002 0.000000 0.000000 0.000000 0.199037
    40 2.110539 0.000000 0.000000 0.002417 -0.010494 -0.153409
    41 5.253239 3.139476 -1.673515 0.000000 -1.570796 2.984594
    42 5.253257 3.139473 -0.054760 0.000000 -1.570796 2.984594
    43 5.253252 3.139468 1.574632 0.000000 -1.570796 2.984594
    44 4.598144 4.158443 -1.350299 0.000000 -1.570796 2.984594
    45 4.598136 4.158431 -0.054439 0.000000 -1.570796 2.984594
    46 4.598139 4.158430 1.240876 0.000000 -1.570796 2.984594
    47 0.891925 2.373051 -0.014527 -3.141592 -0.000001 1.413797
    48 7.228119 5.709446 3.726568 0.000000 -1.570796 3.140796
  time 1
    0 1.715325 7.669110 38.542511 -0.046307 -0.037051 -1.605981
    1 1.148800 0.578143 0.000000 -0.000096 -1.396359 -1.570603
    2 -0.000007 0.000008 4.427393 2.998955 0.159194 3.277915
    3 18.465940 0.000000 0.000000 0.000000 0.000000 -0.173118
    4 14.875443 0.000000 -0.000001 0.105997 0.024600 0.257433
    5 0.000009 -0.000004 -4.427393 -3.100877 0.209805 2.763921
    6 18.465942 0.000000 0.000000 0.000000 0.000000 -0.535909
    7 14.875444 0.000000 0.000000 0.092505 0.048029 0.121207
    8 2.223958 -0.007574 0.386734 0.529251 -0.163006 -0.093156
    9 9.514224 -0.009357 0.000000 0.077511 0.050055 -0.143821
    10 2.450428 5.076128 0.001325 0.000000 -1.570796 3.140791
    11 6.312406 -4.528058 0.001311 0.000000 -1.570796 3.236691
    12 2.233309 1.152535 -7.309138 1.993750 -1.413838 -3.992454
    13 11.751817 -0.001633 0.000000 0.214956 -0.309292 0.383648
    14 -2.754233 0.331401 -2.016894 0.112023 1.197627 2.804583
    15 4.640942 0.000000 -0.000003 -0.881799 -0.423653 1.781021
    16 10.828047 0.000000 0.000000 0.000000 0.000000 -1.662079
    17 -1.156528 1.390015 2.907549 1.679071 -0.936967 1.132476
    18 4.640942 0.000000 0.000000 1.143753 0.470328 0.965347
    19 10.828046 0.000000 -0.000002 0.000000 0.000000 -0.806513
    20 9.393339 0.000001 0.000001 1.569611 -0.034186 0.000059
    21 1.442242 0.107453 1.746178 -1.686398 -0.539246 0.325835
    22 1.063451 0.000002 0.000000 0.000000 0.000000 0.199047
    23 4.172844 -0.251366 1.312745 -0.007978 -0.095731 0.148567
    24 1.215372 0.000000 0.000002 0.000000 0.000000 0.645746
    25 1.215374 0.000001 0.000000 0.000000 0.000000 0.645697
    26 4.220534 -0.244853 0.431466 -0.001333 -0.026242 0.148284
    27 1.350417 0.000001 0.000000 0.000000 0.000000 0.863816
    28 1.350410 -0.000001 0.000000 0.000000 0.000000 0.863731
    29 9.393337 0.000000 0.000000 -1.569611 0.034157 0.000139
    30 1.442246 0.107454 -1.746177 1.686432 0.539224 0.325867
    31 1.063452 -0.000001 -0.000001 0.000000 0.000000 0.199053
    32 1.376306 -0.000001 -0.000001 0.000000 0.000000 0.199045
    33 4.172850 -0.251366 -1.312744 0.007978 0.095731 0.148567
    34 1.215374 0.000001 0.000001 0.000000 0.000000 0.645721
    35 1.215369 -0.000002 0.000000 0.000000 0.000000 0.645721
    36 4.220536 -0.244855 -0.431465 0.001333 0.026242 0.148321
    37 1.350417 0.000000 0.000000 0.000000 0.000000 0.863799
    38 1.350411 -0.000001 -0.000001 0.000000 0.000000 0.863815
    39 1.376305 -0.000002 0.000000 0.000000 0.000000 0.199037
    40 2.110539 0.000000 0.000000 0.040619 0.116271 0.122874
    41 5.253239 3.139476 -1.673515 0.000000 -1.570796 3.037914
    42 5.253257 3.139473 -0.054760 0.000000 -1.570796 3.044961
    43 5.253252 3.139468 1.574632 0.000000 -1.570796 3.037914
    44 4.598144 4.158443 -1.350299 0.000000 -1.570796 2.984594
    45 4.598136 4.158431 -0.054439 0.000000 -1.570796 3.434404
    46 4.598139 4.158430 1.240876 0.000000 -1.570796 2.984594
    47 0.891925 2.373051 -0.014527 -3.141592 -0.000001 1.463521
    48 7.228119 5.709446 3.726568 0.000000 -1.570796 2.617282
  time 2
    0 1.977686 8.275259 38.152862 -0.052443 -0.056654 -1.593710
    1 1.273804 0.632832 0.000000 -0.000096 -1.402975 -1.570603
    2 -0.000007 0.000008 4.427393 2.984026 0.141474 3.188912
    3 18.465940 0.000000 0.000000 0.000000 0.000000 -0.383861
    4 14.875443 0.000000 -0.000001 0.118298 0.035923 0.361621
    5 0.000009 -0.000004 -4.427393 -3.102978 0.211163 2.749795
    6 18.465942 0.000000 0.000000 0.000000 0.000000 -0.577946
    7 14.875444 0.000000 0.000000 0.101935 0.058649 0.128605
    8 2.223958 -0.007574 0.367202 0.536139 -0.153732 -0.103345
    9 9.514224 -0.009357 0.000000 0.047122 0.053011 -0.150392
    10 2.450428 5.076128 0.001325 0.000000 -1.570796 3.140791
    11 6.312406 -4.528058 0.001311 0.000000 -1.570796 3.233058
    12 2.233309 1.152535 -7.309138 1.992983 -1.416925 -4.006445
    13 11.751817 -0.001633 0.000000 0.306230 -0.375760 0.350232
    14 -2.894863 0.143895 -1.841107 0.425500 1.111592 3.111338
    15 4.640942 0.000000 -0.000003 -0.838795 -0.251754 1.788778
    16 10.828047 0.000000 0.000000 0.000000 0.000000 -1.959968
    17 -0.965116 1.616584 2.868486 1.743578 -0.854069 1.081398
    18 4.640942 0.000000 0.000000 1.171438 0.484397 0.975473
    19 10.828046 0.000000 -0.000002 0.000000 0.000000 -0.636109
    20 9.393339 0.000001 0.000001 1.569611 -0.034186 0.000059
    21 1.442242 0.107453 1.746178 -1.686398 -0.539246 0.325835
    22 1.063451 0.000002 0.000000 0.000000 0.000000 0.199047
    23 4.172844 -0.251366 1.312745 -0.007978 -0.095731 0.148567
    24 1.215372 0.000000 0.000002 0.000000 0.000000 0.645746
    25 1.215374 0.000001 0.000000 0.000000 0.000000 0.645697
    26 4.220534 -0.244853 0.431466 -0.001333 -0.026242 0.148284
    27 1.350417 0.000001 0.000000 0.000000 0.000000 0.863816
    28 1.350410 -0.000001 0.000000 0.000000 0.000000 0.863731
    29 9.393337 0.000000 0.000000 -1.569611 0.034157 0.000139
    30 1.442246 0.107454 -1.746177 1.686432 0.539224 0.325867
    31 1.063452 -0.000001 -0.000001 0.000000 0.000000 0.199053
    32 1.376306 -0.000001 -0.000001 0.000000 0.000000 0.199045
    33 4.172850 -0.251366 -1.312744 0.007978 0.095731 0.148567
    34 1.215374 0.000001 0.000001 0.000000 0.000000 0.645721
    35 1.215369 -0.000002 0.000000 0.000000 0.000000 0.645721
    36 4.220536 -0.244855 -0.431465 0.001333 0.026242 0.148321
    37 1.350417 0.000000 0.000000 0.000000 0.000000 0.863799
    38 1.350411 -0.000001 -0.000001 0.000000 0.000000 0.863815
    39 1.376305 -0.000002 0.000000 0.000000 0.000000 0.199037
    40 2.110539 0.000000 0.000000 0.227978 0.141107 0.095670
    41 5.253239 3.139476 -1.673515 0.000000 -1.570796 3.091233
    42 5.253257 3.139473 -0.054760 0.000000 -1.570796 3.105328
    43 5.253252 3.139468 1.574632 0.000000 -1.570796 3.091233
    44 4.598144 4.158443 -1.350299 0.000000 -1.570796 2.984594
    45 4.598136 4.158431 -0.054439 0.000000 -1.570796 3.456107
    46 4.598139 4.158430 1.240876 0.000000 -1.570796 2.984594
    47 0.891925 2.373051 -0.014527 -3.141592 -0.000001 1.512790
    48 7.228119 5.709446 3.726568 0.000000 -1.570796 2.860731
  time 3
    0 2.179502 8.527822 37.880108 -0.046691 -0.063125 -1.604543
    1 1.199583 0.484390 0.000000 -0.000096 -1.420799 -1.570603
    2 -0.000007 0.000008 4.427393 2.976609 0.125463 3.143206
    3 18.465940 0.000000 0.000000 0.000000 0.000000 -0.484883
    4 14.875443 0.000000 -0.000001 0.107988 0.040032 0.410647
    5 0.000009 -0.000004 -4.427393 -3.099977 0.199544 2.730773
    6 18.465942 0.000000 0.000000 0.000000 0.000000 -0.606401
    7 14.875444 0.000000 0.000000 0.089334 0.055687 0.130727
    8 2.235677 -0.007574 0.324232 0.457370 -0.143680 -0.093056
    9 9.514224 -0.009357 0.000000 0.008029 0.045083 -0.145457
    10 2.450428 5.076128 0.001325 0.000000 -1.570796 3.140791
    11 6.312406 -4.528058 0.001311 0.000000 -1.570796 3.223232
    12 2.233309 1.152535 -7.309138 1.992792 -1.422954 -4.006828
    13 11.751817 -0.001633 0.000000 0.309358 -0.344010 0.353180
    14 -2.840174 0.112644 -1.923141 0.578499 1.109287 3.270896
    15 4.640942 0.000000 -0.000003 -0.831150 -0.266480 1.577735
    16 10.828047 0.000000 0.000000 0.000000 0.000000 -1.881461
    17 -1.058869 1.616584 2.825516 1.738697 -0.922185 1.059549
    18 4.640942 0.000000 0.000000 1.162846 0.625881 0.985306
    19 10.828046 0.000000 -0.000002 0.000000 0.000000 -0.375912
    20 9.393339 0.000001 0.000001 1.569611 -0.034186 0.000059
    21 1.442242 0.107453 1.746178 -1.686398 -0.539246 0.325835
    22 1.063451 0.000002 0.000000 0.000000 0.000000 0.199047
    23 4.172844 -0.251366 1.312745 -0.007978 -0.095731 0.148567
    24 1.215372 0.000000 0.000002 0.000000 0.000000 0.645746
    25 1.215374 0.000001 0.000000 0.000000 0.000000 0.645697
    26 4.220534 -0.244853 0.431466 -0.001333 -0.026242 0.148284
    27 1.350417 0.000001 0.000000 0.000000 0.000000 0.863816
    28 1.350410 -0.000001 0.000000 0.000000 0.000000 0.863731
    29 9.393337 0.000000 0.000000 -1.569611 0.034157 0.000139
    30 1.442246 0.107454 -1.746177 1.686432 0.539224 0.325867
    31 1.063452 -0.000001 -0.000001 0.000000 0.000000 0.199053
    32 1.376306 -0.000001 -0.000001 0.000000 0.000000 0.199045
    33 4.172850 -0.251366 -1.312744 0.007978 0.095731 0.148567
    34 1.215374 0.000001 0.000001 0.000000 0.000000 0.645721
    35 1.215369 -0.000002 0.000000 0.000000 0.000000 0.645721
    36 4.220536 -0.244855 -0.431465 0.001333 0.026242 0.148321
    37 1.350417 0.000000 0.000000 0.000000 0.000000 0.863799
    38 1.350411 -0.000001 -0.000001 0.000000 0.000000 0.863815
    39 1.376305 -0.000002 0.000000 0.000000 0.000000 0.199037
    40 2.110539 0.000000 0.000000 0.327622 0.117895 0.026984
    41 5.253239 3.139476 -1.673515 0.000000 -1.570796 3.115490
    42 5.253257 3.139473 -0.054760 0.000000 -1.570796 3.132856
    43 5.253252 3.139468 1.574632 0.000000 -1.570796 3.115490
    44 4.598144 4.158443 -1.350299 0.000000 -1.570796 2.984594
    45 4.598136 4.158431 -0.054439 0.000000 -1.570796 3.403389
    46 4.598139 4.158430 1.240876 0.000000 -1.570796 2.984594
    47 0.891925 2.373051 -0.014527 -3.141592 -0.000001 1.535477
    48 7.228119 5.709446 3.726568 0.000000 -1.570796 3.140796
  time 4
    0 2.139139 8.325772 37.880108 -0.038445 -0.055504 -1.620554
    1 1.055047 0.347667 0.000000 -0.000096 -1.446717 -1.570603
    2 -0.000007 0.000008 4.427393 2.975670 0.104259 3.136059
    3 18.465940 0.000000 0.000000 0.000000 0.000000 -0.492778
    4 14.875443 0.000000 -0.000001 0.092807 0.036274 0.418350
    5 0.000009 -0.000004 -4.427393 -3.088574 0.173768 2.733101
    6 18.465942 0.000000 0.000000 0.000000 0.000000 -0.586639
    7 14.875444 0.000000 0.000000 0.074366 0.046391 0.120060
    8 2.247396 -0.007574 0.273449 0.394486 -0.124145 -0.078401
    9 9.514224 -0.009357 0.000000 -0.000825 0.037612 -0.137538
    10 2.450428 5.076128 0.001325 0.000000 -1.570796 3.140791
    11 6.312406 -4.528058 0.001311 0.000000 -1.570796 3.209057
    12 2.233309 1.152535 -7.309138 1.992313 -1.449983 -3.998683
    13 11.751817 -0.001633 0.000000 0.193359 -0.227659 0.393319
    14 -2.582353 0.350933 -2.235651 0.395686 1.235780 3.100125
    15 4.640942 0.000000 -0.000003 -0.850740 -0.394340 1.418715
    16 10.828047 0.000000 0.000000 0.000000 0.000000 -1.632181
    17 -1.394817 1.331419 2.837235 1.691609 -1.120516 1.065874
    18 4.640942 0.000000 0.000000 1.149163 0.774435 0.954870
    19 10.828046 0.000000 -0.000002 0.000000 0.000000 -0.196709
    20 9.393339 0.000001 0.000001 1.569611 -0.034186 0.000059
    21 1.442242 0.107453 1.746178 -1.686398 -0.539246 0.325835
    22 1.063451 0.000002 0.000000 0.000000 0.000000 0.199047
    23 4.172844 -0.251366 1.312745 -0.007978 -0.095731 0.148567
    24 1.215372 0.000000 0.000002 0.000000 0.000000 0.645746
    25 1.215374 0.000001 0.000000 0.000000 0.000000 0.645697
    26 4.220534 -0.244853 0.431466 -0.001333 -0.026242 0.148284
    27 1.350417 0.000001 0.000000 0.000000 0.000000 0.863816
    28 1.350410 -0.000001 0.000000 0.000000 0.000000 0.863731
    29 9.393337 0.000000 0.000000 -1.569611 0.034157 0.000139
    30 1.442246 0.107454 -1.746177 1.686432 0.539224 0.325867
    31 1.063452 -0.000001 -0.000001 0.000000 0.000000 0.199053
    32 1.376306 -0.000001 -0.000001 0.000000 0.000000 0.199045
    33 4.172850 -0.251366 -1.312744 0.007978 0.095731 0.148567
    34 1.215374 0.000001 0.000001 0.000000 0.000000 0.645721
    35 1.215369 -0.000002 0.000000 0.000000 0.000000 0.645721
    36 4.220536 -0.244855 -0.431465 0.001333 0.026242 0.148321
    37 1.350417 0.000000 0.000000 0.000000 0.000000 0.863799
    38 1.350411 -0.000001 -0.000001 0.000000 0.000000 0.863815
    39 1.376305 -0.000002 0.000000 0.000000 0.000000 0.199037
    40 2.110539 0.000000 0.000000 0.222888 0.064074 0.001442
    41 5.253239 3.139476 -1.673515 0.000000 -1.570796 3.106046
    42 5.253257 3.139473 -0.054760 0.000000 -1.570796 3.122175
    43 5.253252 3.139468 1.574632 0.000000 -1.570796 3.106046
    44 4.598144 4.158443 -1.350299 0.000000 -1.570796 2.984594
    45 4.598136 4.158431 -0.054439 0.000000 -1.570796 3.413995
    46 4.598139 4.158430 1.240876 0.000000 -1.570796 2.984594
    47 0.891925 2.373051 -0.014527 -3.141592 -0.000001 1.527099
    48 7.228119 5.709446 3.726568 0.000000 -1.570796 3.188664
  time 5
    0 2.058412 7.972185 37.997003 -0.029146 -0.043809 -1.640017
    1 0.863635 0.210944 0.000000 -0.000096 -1.477729 -1.570603
    2 -0.000007 0.000008 4.427393 2.974637 0.079437 3.134564
    3 18.465940 0.000000 0.000000 0.000000 0.000000 -0.484225
    4 14.875443 0.000000 -0.000001 0.074889 0.030974 0.419525
    5 0.000009 -0.000004 -4.427393 -3.074569 0.142128 2.740645
    6 18.465942 0.000000 0.000000 0.000000 0.000000 -0.551257
    7 14.875444 0.000000 0.000000 0.056629 0.035392 0.103545
    8 2.247396 -0.007574 0.207041 0.326941 -0.099214 -0.060670
    9 9.514224 -0.009357 0.000000 -0.004840 0.029200 -0.127862
    10 2.450428 5.076128 0.001325 0.000000 -1.570796 3.140791
    11 6.312406 -4.528058 0.001311 0.000000 -1.570796 3.191965
    12 2.233309 1.152535 -7.309138 1.989342 -1.479400 -3.986896
    13 11.751817 -0.001633 0.000000 0.040100 -0.066216 0.426933
    14 -2.183904 0.725944 -2.552067 -0.266162 1.358132 2.448283
    15 4.640942 0.000000 -0.000003 -0.863355 -0.570149 1.248986
    16 10.828047 0.000000 0.000000 0.000000 0.000000 -1.312752
    17 -1.844049 0.936876 2.731763 1.561063 -1.307288 1.161895
    18 4.640942 0.000000 0.000000 1.130070 0.900479 0.998007
    19 10.828046 0.000000 -0.000002 0.000000 0.000000 -0.480094
    20 9.393339 0.000001 0.000001 1.569611 -0.034186 0.000059
    21 1.442242 0.107453 1.746178 -1.686398 -0.539246 0.325835
    22 1.063451 0.000002 0.000000 0.000000 0.000000 0.199047
    23 4.172844 -0.251366 1.312745 -0.007978 -0.095731 0.148567
    24 1.215372 0.000000 0.000002 0.000000 0.000000 0.645746
    25 1.215374 0.000001 0.000000 0.000000 0.000000 0.645697
    26 4.220534 -0.244853 0.431466 -0.001333 -0.026242 0.148284
    27 1.350417 0.000001 0.000000 0.000000 0.000000 0.863816
    28 1.350410 -0.000001 0.000000 0.000000 0.000000 0.863731
    29 9.393337 0.000000 0.000000 -1.569611 0.034157 0.000139
    30 1.442246 0.107454 -1.746177 1.686432 0.539224 0.325867
    31 1.063452 -0.000001 -0.000001 0.000000 0.000000 0.199053
    32 1.376306 -0.000001 -0.000001 0.000000 0.000000 0.199045
    33 4.172850 -0.251366 -1.312744 0.007978 0.095731 0.148567
    34 1.215374 0.000001 0.000001 0.000000 0.000000 0.645721
    35 1.215369 -0.000002 0.000000 0.000000 0.000000 0.645721
    36 4.220536 -0.244855 -0.431465 0.001333 0.026242 0.148321
    37 1.350417 0.000000 0.000000 0.000000 0.000000 0.863799
    38 1.350411 -0.000001 -0.000001 0.000000 0.000000 0.863815
    39 1.376305 -0.000002 0.000000 0.000000 0.000000 0.199037
    40 2.110539 0.000000 0.000000 0.050439 0.001834 -0.039486
    41 5.253239 3.139476 -1.673515 0.000000 -1.570796 3.081981
    42 5.253257 3.139473 -0.054760 0.000000 -1.570796 3.094890
    43 5.253252 3.139468 1.574632 0.000000 -1.570796 3.081981
    44 4.598144 4.158443 -1.350299 0.000000 -1.570796 2.984594
    45 4.598136 4.158431 -0.054439 0.000000 -1.570796 3.427399
    46 4.598139 4.158430 1.240876 0.000000 -1.570796 2.984594
    47 0.891925 2.373051 -0.014527 -3.141592 -0.000001 1.504592
    48 7.228119 5.709446 3.726568 0.000000 -1.570796 3.194648
  time 6
    0 1.937323 7.557982 38.152862 -0.018983 -0.029382 -1.660725
    1 0.640972 0.082034 0.000000 -0.000096 -1.510837 -1.570603
    2 -0.000007 0.000008 4.427393 2.974168 0.053845 3.136309
    3 18.465940 0.000000 0.000000 0.000000 0.000000 -0.465000
    4 14.875443 0.000000 -0.000001 0.055584 0.025417 0.415935
    5 0.000009 -0.000004 -4.427393 -3.059614 0.107914 2.752283
    6 18.465942 0.000000 0.000000 0.000000 0.000000 -0.503923
    7 14.875444 0.000000 0.000000 0.037206 0.024079 0.081925
    8 2.255209 -0.007574 0.132820 0.257411 -0.071280 -0.041052
    9 9.514224 -0.009357 0.000000 -0.006078 0.020237 -0.117223
    10 2.450428 5.076128 0.001325 0.000000 -1.570796 3.140791
    11 6.312406 -4.528058 0.001311 0.000000 -1.570796 3.173798
    12 2.233309 1.152535 -7.309138 1.978321 -1.509952 -3.967060
    13 11.751817 -0.001633 0.000000 -0.066886 0.059399 0.436968
    14 -1.851862 1.034547 -2.700509 -1.023012 1.349149 1.693614
    15 4.640942 0.000000 -0.000003 -0.851123 -0.776247 1.063153
    16 10.828047 0.000000 0.000000 0.000000 0.000000 -0.953202
    17 -2.152653 0.682962 2.579414 0.857704 -1.444579 1.844491
    18 4.640942 0.000000 0.000000 1.034667 0.975586 0.947905
    19 10.828046 0.000000 -0.000002 0.000000 0.000000 -0.509061
    20 9.393339 0.000001 0.000001 1.569611 -0.034186 0.000059
    21 1.442242 0.107453 1.746178 -1.686398 -0.539246 0.325835
    22 1.063451 0.000002 0.000000 0.000000 0.000000 0.199047
    23 4.172844 -0.251366 1.312745 -0.007978 -0.095731 0.148567
    24 1.215372 0.000000 0.000002 0.000000 0.000000 0.645746
    25 1.215374 0.000001 0.000000 0.000000 0.000000 0.645697
    26 4.220534 -0.244853 0.431466 -0.001333 -0.026242 0.148284
    27 1.350417 0.000001 0.000000 0.000000 0.000000 0.863816
    28 1.350410 -0.000001 0.000000 0.000000 0.000000 0.863731
    29 9.393337 0.000000 0.000000 -1.569611 0.034157 0.000139
    30 1.442246 0.107454 -1.746177 1.686432 0.539224 0.325867
    31 1.063452 -0.000001 -0.000001 0.000000 0.000000 0.199053
    32 1.376306 -0.000001 -0.000001 0.000000 0.000000 0.199045
    33 4.172850 -0.251366 -1.312744 0.007978 0.095731 0.148567
    34 1.215374 0.000001 0.000001 0.000000 0.000000 0.645721
    35 1.215369 -0.000002 0.000000 0.000000 0.000000 0.645721
    36 4.220536 -0.244855 -0.431465 0.001333 0.026242 0.148321
    37 1.350417 0.000000 0.000000 0.000000 0.000000 0.863799
    38 1.350411 -0.000001 -0.000001 0.000000 0.000000 0.863815
    39 1.376305 -0.000002 0.000000 0.000000 0.000000 0.199037
    40 2.110539 0.000000 0.000000 -0.068075 -0.033435 -0.095370
    41 5.253239 3.139476 -1.673515 0.000000 -1.570796 3.049515
    42 5.253257 3.139473 -0.054760 0.000000 -1.570796 3.058084
    43 5.253252 3.139468 1.574632 0.000000 -1.570796 3.049515
    44 4.598144 4.158443 -1.350299 0.000000 -1.570796 2.984594
    45 4.598136 4.158431 -0.054439 0.000000 -1.570796 3.388315
    46 4.598139 4.158430 1.240876 0.000000 -1.570796 2.984594
    47 0.891925 2.373051 -0.014527 -3.141592 -0.000001 1.473996
    48 7.228119 5.709446 3.726568 0.000000 -1.570796 3.176519
  time 7
    0 1.796051 7.143780 38.308722 -0.008916 -0.014092 -1.681913
    1 0.406590 -0.031251 0.000000 -0.000096 -1.542854 -1.570603
    2 -0.000007 0.000008 4.427393 2.973041 0.030163 3.140048
    3 18.465940 0.000000 0.000000 0.000000 0.000000 -0.440293
    4 14.875443 0.000000 -0.000001 0.036208 0.020701 0.409211
    5 0.000009 -0.000004 -4.427393 -3.046210 0.074737 2.766088
    6 18.465942 0.000000 0.000000 0.000000 0.000000 -0.449186
    7 14.875444 0.000000 0.000000 0.017182 0.013743 0.056234
    8 2.255209 -0.007574 0.058599 0.188408 -0.043023 -0.020839
    9 9.514224 -0.009357 0.000000 -0.006641 0.011113 -0.106319
    10 2.450428 5.076128 0.001325 0.000000 -1.570796 3.140791
    11 6.312406 -4.528058 0.001311 0.000000 -1.570796 3.156143
    12 2.233309 1.152535 -7.309138 1.935003 -1.540971 -3.914642
    13 11.751817 -0.001633 0.000000 -0.056292 0.073404 0.438988
    14 -1.804986 1.007203 -2.735666 -1.134598 1.383546 1.577371
    15 4.640942 0.000000 -0.000003 -0.785088 -0.990371 0.836933
    16 10.828047 0.000000 0.000000 0.000000 0.000000 -0.583493
    17 -2.191716 0.702494 2.548163 0.557180 -1.431031 2.141850
    18 4.640942 0.000000 0.000000 0.901397 1.037273 0.853026
    19 10.828046 0.000000 -0.000002 0.000000 0.000000 -0.489407
    20 9.393339 0.000001 0.000001 1.569611 -0.034186 0.000059
    21 1.442242 0.107453 1.746178 -1.686398 -0.539246 0.325835
    22 1.063451 0.000002 0.000000 0.000000 0.000000 0.199047
    23 4.172844 -0.251366 1.312745 -0.007978 -0.095731 0.148567
    24 1.215372 0.000000 0.000002 0.000000 0.000000 0.645746
    25 1.215374 0.000001 0.000000 0.000000 0.000000 0.645697
    26 4.220534 -0.244853 0.431466 -0.001333 -0.026242 0.148284
    27 1.350417 0.000001 0.000000 0.000000 0.000000 0.863816
    28 1.350410 -0.000001 0.000000 0.000000 0.000000 0.863731
    29 9.393337 0.000000 0.000000 -1.569611 0.034157 0.000139
    30 1.442246 0.107454 -1.746177 1.686432 0.539224 0.325867
    31 1.063452 -0.000001 -0.000001 0.000000 0.000000 0.199053
    32 1.376306 -0.000001 -0.000001 0.000000 0.000000 0.199045
    33 4.172850 -0.251366 -1.312744 0.007978 0.095731 0.148567
    34 1.215374 0.000001 0.000001 0.000000 0.000000 0.645721
    35 1.215369 -0.000002 0.000000 0.000000 0.000000 0.645721
    36 4.220536 -0.244855 -0.431465 0.001333 0.026242 0.148321
    37 1.350417 0.000000 0.000000 0.000000 0.000000 0.863799
    38 1.350411 -0.000001 -0.000001 0.000000 0.000000 0.863815
    39 1.376305 -0.000002 0.000000 0.000000 0.000000 0.199037
    40 2.110539 0.000000 0.000000 -0.054604 -0.027452 -0.130513
    41 5.253239 3.139476 -1.673515 0.000000 -1.570796 3.014879
    42 5.253257 3.139473 -0.054760 0.000000 -1.570796 3.018898
    43 5.253252 3.139468 1.574632 0.000000 -1.570796 3.014879
    44 4.598144 4.158443 -1.350299 0.000000 -1.570796 2.984594
    45 4.598136 4.158431 -0.054439 0.000000 -1.570796 3.215972
    46 4.598139 4.158430 1.240876 0.000000 -1.570796 2.984594
    47 0.891925 2.373051 -0.014527 -3.141592 -0.000001 1.442117
    48 7.228119 5.709446 3.726568 0.000000 -1.570796 3.152495
  time 8
    0 1.715325 6.759885 38.464581 0.000000 0.000000 -1.701855
    1 0.164395 -0.125004 0.000000 0.000000 -1.570451 -1.570795
    2 -0.000007 0.000008 4.427393 2.970882 0.011371 3.142375
    3 18.465940 0.000000 0.000000 0.000000 0.000000 -0.416536
    4 14.875443 0.000000 -0.000001 0.018432 0.017410 0.402030
    5 0.000009 -0.000004 -4.427393 -3.035557 0.046172 2.779331
    6 18.465942 0.000000 0.000000 0.000000 0.000000 -0.394245
    7 14.875444 0.000000 0.000000 -0.002000 0.005234 0.029396
    8 2.255209 -0.007574 0.000003 0.121998 -0.017388 -0.001222
    9 9.514224 -0.009357 0.000000 -0.008742 0.002352 -0.095848
    10 2.450428 5.076128 0.001325 0.000000 -1.570796 3.140791
    11 6.312406 -4.528058 0.001311 0.000000 -1.570796 3.140791
    12 2.233309 1.152535 -7.309138 0.296609 -1.568029 -2.267367
    13 11.751817 -0.001633 0.000000 0.000024 0.043596 0.439850
    14 -1.894832 0.854854 -2.731760 -0.942390 1.461409 1.764624
    15 4.640942 0.000000 -0.000003 -0.601413 -1.183768 0.506835
    16 10.828047 0.000000 0.000000 0.000000 0.000000 -0.234487
    17 -2.121402 0.854842 2.567695 0.697106 -1.395374 2.006635
    18 4.640942 0.000000 0.000000 0.738404 1.089870 0.724669
    19 10.828046 0.000000 -0.000002 0.000000 0.000000 -0.470138
    20 9.393339 0.000001 0.000001 1.569611 -0.034186 0.000059
    21 1.442242 0.107453 1.746178 -1.686398 -0.539246 0.325835
    22 1.063451 0.000002 0.000000 0.000000 0.000000 0.199047
    23 4.172844 -0.251366 1.312745 -0.007978 -0.095731 0.148567
    24 1.215372 0.000000 0.000002 0.000000 0.000000 0.645746
    25 1.215374 0.000001 0.000000 0.000000 0.000000 0.645697
    26 4.220534 -0.244853 0.431466 -0.001333 -0.026242 0.148284
    27 1.350417 0.000001 0.000000 0.000000 0.000000 0.863816
    28 1.350410 -0.000001 0.000000 0.000000 0.000000 0.863731
    29 9.393337 0.000000 0.000000 -1.569611 0.034157 0.000139
    30 1.442246 0.107454 -1.746177 1.686432 0.539224 0.325867
    31 1.063452 -0.000001 -0.000001 0.000000 0.000000 0.199053
    32 1.376306 -0.000001 -0.000001 0.000000 0.000000 0.199045
    33 4.172850 -0.251366 -1.312744 0.007978 0.095731 0.148567
    34 1.215374 0.000001 0.000001 0.000000 0.000000 0.645721
    35 1.215369 -0.000002 0.000000 0.000000 0.000000 0.645721
    36 4.220536 -0.244855 -0.431465 0.001333 0.026242 0.148321
    37 1.350417 0.000000 0.000000 0.000000 0.000000 0.863799
    38 1.350411 -0.000001 -0.000001 0.000000 0.000000 0.863815
    39 1.376305 -0.000002 0.000000 0.000000 0.000000 0.199037
    40 2.110539 0.000000 0.000000 0.002417 -0.010494 -0.153409
    41 5.253239 3.139476 -1.673515 0.000000 -1.570796 2.984594
    42 5.253257 3.139473 -0.054760 0.000000 -1.570796 2.984594
    43 5.253252 3.139468 1.574632 0.000000 -1.570796 2.984594
    44 4.598144 4.158443 -1.350299 0.000000 -1.570796 2.984594
    45 4.598136 4.158431 -0.054439 0.000000 -1.570796 2.984594
    46 4.598139 4.158430 1.240876 0.000000 -1.570796 2.984594
    47 0.891925 2.373051 -0.014527 -3.141592 -0.000001 1.413797
    48 7.228119 5.709446 3.726568 0.000000 -1.570796 3.140796
end
