// Created by Crowbar 0.56
version 1
nodes
  0 "Bip01" -1
  1 "Bip01 Pelvis" 0
  2 "Bip01 L Thigh" 1
  3 "Bip01 L Calf" 2
  4 "Bip01 L Foot" 3
  5 "Bip01 R Thigh" 1
  6 "Bip01 R Calf" 5
  7 "Bip01 R Foot" 6
  8 "Bip01 Spine" 1
  9 "Bip01 Spine1" 8
  10 "Armour Front" 8
  11 "Armour Back" 8
  12 "Holster" 1
  13 "Bip01 Neck" 9
  14 "Bip01 R Clavicle" 13
  15 "Bip01 R UpperArm" 14
  16 "Bip01 R Forearm" 15
  17 "Bip01 L Clavicle" 13
  18 "Bip01 L UpperArm" 17
  19 "Bip01 L Forearm" 18
  20 "Bip01 R Hand" 16
  21 "Bip01 R Finger0" 20
  22 "Bip01 R Finger01" 21
  23 "Bip01 R Finger1" 20
  24 "Bip01 R Finger11" 23
  25 "Bip01 R Finger12" 24
  26 "Bip01 R Finger2" 20
  27 "Bip01 R Finger21" 26
  28 "Bip01 R Finger22" 27
  29 "Bip01 L Hand" 19
  30 "Bip01 L Finger0" 29
  31 "Bip01 L Finger01" 30
  32 "Bip01 L Finger02" 31
  33 "Bip01 L Finger1" 29
  34 "Bip01 L Finger11" 33
  35 "Bip01 L Finger12" 34
  36 "Bip01 L Finger2" 29
  37 "Bip01 L Finger21" 36
  38 "Bip01 L Finger22" 37
  39 "Bip01 R Finger02" 22
  40 "Bip01 Head" 13
  41 "R_eyebrow" 40
  42 "C_eyebrow" 40
  43 "L_eyebrow" 40
  44 "R_eye" 40
  45 "Eyelids" 40
  46 "L_eye" 40
  47 "Mouth" 40
  48 "ID Tag" 9
end
skeleton
  time 0
    0 -0.000114 0.233674 39.204914 0.000000 0.000000 -1.570892
    1 -0.245774 0.000000 0.000000 0.000000 -1.570795 -1.570795
    2 -0.000007 0.000008 4.427393 3.141292 -0.011240 3.068913
    3 18.465940 0.000000 0.000000 0.000000 0.000000 -0.242123
    4 14.875443 0.000000 -0.000001 0.001118 -0.011190 0.169435
    5 0.000009 -0.000004 -4.427393 -3.141290 0.011243 3.068913
    6 18.465942 0.000000 0.000000 0.000000 0.000000 -0.242123
    7 14.875444 0.000000 0.000000 -0.001117 0.011190 0.169435
    8 2.255209 -0.007574 0.000003 -0.000004 -0.000001 0.000796
    9 9.514224 -0.009357 0.000000 0.000000 0.000000 0.000000
    10 2.450428 5.076128 0.001325 0.000000 -1.570796 3.140791
    11 6.312406 -4.528058 0.001311 0.000000 -1.570796 3.140791
    12 2.233309 1.152535 -7.309138 0.000000 -1.570796 -1.570796
    13 11.751817 -0.001633 0.000000 0.000000 -0.000001 0.239386
    14 -2.133121 0.444686 -2.649726 -0.088046 1.370039 2.815124
    15 4.640942 0.000000 -0.000003 0.049954 -1.052208 -0.032367
    16 10.828047 0.000000 0.000000 0.000000 0.000000 -0.409440
    17 -2.133121 0.444674 2.649729 0.088019 -1.370041 2.815150
    18 4.640942 0.000000 0.000000 -0.049954 1.052208 -0.032367
    19 10.828046 0.000000 -0.000002 0.000000 0.000000 -0.409440
    20 9.393339 0.000001 0.000001 1.569611 0.000000 0.165806
    21 1.442242 0.107453 1.746178 -1.988055 -0.521670 0.891953
    22 1.063451 0.000002 0.000000 0.012404 0.307465 0.258391
    23 4.172844 -0.251366 1.312745 0.001190 -0.096055 0.052246
    24 1.215372 0.000000 0.000002 -0.021285 -0.062811 0.705718
    25 1.215374 0.000001 0.000000 0.000000 0.000000 0.052360
    26 4.220534 -0.244853 0.431466 0.001184 -0.026242 0.052329
    27 1.350417 0.000001 0.000000 -0.028368 -0.063650 0.890387
    28 1.350410 -0.000001 0.000000 0.000000 0.000000 0.052360
    29 9.393337 0.000000 0.000000 -1.569611 0.000000 0.165806
    30 1.442246 0.107454 -1.746177 2.026336 0.503696 0.969750
    31 1.063452 -0.000001 -0.000001 -0.029722 -0.443691 0.307463
    32 1.376306 -0.000001 -0.000001 0.000000 0.000000 0.148353
    33 4.172850 -0.251366 -1.312744 -0.001190 0.096055 0.052246
    34 1.215374 0.000001 0.000001 0.014537 0.052900 0.588925
    35 1.215369 -0.000002 0.000000 0.000000 0.000000 0.052360
    36 4.220536 -0.244855 -0.431465 -0.001184 0.026242 0.052329
    37 1.350417 0.000000 0.000000 0.022399 0.057802 0.792033
    38 1.350411 -0.000001 -0.000001 0.000000 0.000000 0.052360
    39 1.376305 -0.000002 0.000000 0.000000 0.000000 0.148353
    40 2.110539 0.000000 0.000000 0.000000 0.000000 -0.083184
    41 5.253239 3.139476 -1.673515 0.000000 -1.570796 2.984594
    42 5.253257 3.139473 -0.054760 0.000000 -1.570796 2.984594
    43 5.253252 3.139468 1.574632 0.000000 -1.570796 2.984594
    44 4.598144 4.158443 -1.350299 0.000000 -1.570796 2.984594
    45 4.598136 4.158431 -0.054439 0.000000 -1.570796 2.984594
    46 4.598139 4.158430 1.240876 0.000000 -1.570796 2.984594
    47 0.891925 2.373051 -0.014527 -3.141592 -0.000001 1.413797
    48 7.228119 5.709446 3.726568 0.000000 -1.570796 3.140796
  time 1
    0 -0.000114 0.233674 39.204914 0.000000 0.000000 -1.570892
    1 -0.245774 0.000000 0.000000 0.000000 -1.570795 -1.570795
    2 -0.000007 0.000008 4.427393 3.141292 -0.011240 3.068913
    3 18.465940 0.000000 0.000000 0.000000 0.000000 -0.242123
    4 14.875443 0.000000 -0.000001 0.001118 -0.011190 0.169435
    5 0.000009 -0.000004 -4.427393 -3.141290 0.011243 3.068913
    6 18.465942 0.000000 0.000000 0.000000 0.000000 -0.242123
    7 14.875444 0.000000 0.000000 -0.001117 0.011190 0.169435
    8 2.255209 -0.007574 0.000003 -0.000004 -0.000001 0.000796
    9 9.514224 -0.009357 0.000000 0.000000 0.000000 0.000000
    10 2.450428 5.076128 0.001325 0.000000 -1.570796 3.140791
    11 6.312406 -4.528058 0.001311 0.000000 -1.570796 3.140791
    12 2.233309 1.152535 -7.309138 0.000000 -1.570796 -1.570796
    13 11.751817 -0.001633 0.000000 0.000000 -0.000001 0.239386
    14 -2.133121 0.444686 -2.649726 -0.088046 1.370039 2.815124
    15 4.640942 0.000000 -0.000003 0.049954 -1.052208 -0.032367
    16 10.828047 0.000000 0.000000 0.000000 0.000000 -0.409440
    17 -2.133121 0.444674 2.649729 0.088019 -1.370041 2.815150
    18 4.640942 0.000000 0.000000 -0.049954 1.052208 -0.032367
    19 10.828046 0.000000 -0.000002 0.000000 0.000000 -0.409440
    20 9.393339 0.000001 0.000001 1.569611 0.000000 0.165806
    21 1.442242 0.107453 1.746178 -1.988055 -0.521670 0.891953
    22 1.063451 0.000002 0.000000 0.012404 0.307465 0.258391
    23 4.172844 -0.251366 1.312745 0.001190 -0.096055 0.052246
    24 1.215372 0.000000 0.000002 -0.021285 -0.062811 0.705718
    25 1.215374 0.000001 0.000000 0.000000 0.000000 0.052360
    26 4.220534 -0.244853 0.431466 0.001184 -0.026242 0.052329
    27 1.350417 0.000001 0.000000 -0.028368 -0.063650 0.890387
    28 1.350410 -0.000001 0.000000 0.000000 0.000000 0.052360
    29 9.393337 0.000000 0.000000 -1.569611 0.000000 0.165806
    30 1.442246 0.107454 -1.746177 2.026336 0.503696 0.969750
    31 1.063452 -0.000001 -0.000001 -0.029722 -0.443691 0.307463
    32 1.376306 -0.000001 -0.000001 0.000000 0.000000 0.148353
    33 4.172850 -0.251366 -1.312744 -0.001190 0.096055 0.052246
    34 1.215374 0.000001 0.000001 0.014537 0.052900 0.588925
    35 1.215369 -0.000002 0.000000 0.000000 0.000000 0.052360
    36 4.220536 -0.244855 -0.431465 -0.001184 0.026242 0.052329
    37 1.350417 0.000000 0.000000 0.022399 0.057802 0.792033
    38 1.350411 -0.000001 -0.000001 0.000000 0.000000 0.052360
    39 1.376305 -0.000002 0.000000 0.000000 0.000000 0.148353
    40 2.110539 0.000000 0.000000 0.000000 0.000000 -0.083184
    41 5.253239 3.139476 -1.673515 0.000000 -1.570796 2.984594
    42 5.253257 3.139473 -0.054760 0.000000 -1.570796 2.984594
    43 5.253252 3.139468 1.574632 0.000000 -1.570796 2.984594
    44 4.598144 4.158443 -1.350299 0.000000 -1.570796 2.984594
    45 4.598136 4.158431 -0.054439 0.000000 -1.570796 2.984594
    46 4.598139 4.158430 1.240876 0.000000 -1.570796 2.984594
    47 0.891925 2.373051 -0.014527 -3.141592 -0.000001 1.413797
    48 7.228119 5.709446 3.726568 0.000000 -1.570796 3.140796
  time 2
    0 -0.000114 0.233674 39.204914 0.000000 0.000000 -1.570892
    1 -0.245774 0.000000 0.000000 0.000000 -1.570795 -1.570795
    2 -0.000007 0.000008 4.427393 3.141292 -0.011240 3.068913
    3 18.465940 0.000000 0.000000 0.000000 0.000000 -0.242123
    4 14.875443 0.000000 -0.000001 0.001118 -0.011190 0.169435
    5 0.000009 -0.000004 -4.427393 -3.141290 0.011243 3.068913
    6 18.465942 0.000000 0.000000 0.000000 0.000000 -0.242123
    7 14.875444 0.000000 0.000000 -0.001117 0.011190 0.169435
    8 2.255209 -0.007574 0.000003 -0.000004 -0.000001 0.000796
    9 9.514224 -0.009357 0.000000 0.000000 0.000000 0.000000
    10 2.450428 5.076128 0.001325 0.000000 -1.570796 3.140791
    11 6.312406 -4.528058 0.001311 0.000000 -1.570796 3.140791
    12 2.233309 1.152535 -7.309138 0.000000 -1.570796 -1.570796
    13 11.751817 -0.001633 0.000000 0.000000 -0.000001 0.239386
    14 -2.133121 0.444686 -2.649726 -0.088046 1.370039 2.815124
    15 4.640942 0.000000 -0.000003 0.049954 -1.052208 -0.032367
    16 10.828047 0.000000 0.000000 0.000000 0.000000 -0.409440
    17 -2.133121 0.444674 2.649729 0.088019 -1.370041 2.815150
    18 4.640942 0.000000 0.000000 -0.049954 1.052208 -0.032367
    19 10.828046 0.000000 -0.000002 0.000000 0.000000 -0.409440
    20 9.393339 0.000001 0.000001 1.569611 0.000000 0.165806
    21 1.442242 0.107453 1.746178 -1.988055 -0.521670 0.891953
    22 1.063451 0.000002 0.000000 0.012404 0.307465 0.258391
    23 4.172844 -0.251366 1.312745 0.001190 -0.096055 0.052246
    24 1.215372 0.000000 0.000002 -0.021285 -0.062811 0.705718
    25 1.215374 0.000001 0.000000 0.000000 0.000000 0.052360
    26 4.220534 -0.244853 0.431466 0.001184 -0.026242 0.052329
    27 1.350417 0.000001 0.000000 -0.028368 -0.063650 0.890387
    28 1.350410 -0.000001 0.000000 0.000000 0.000000 0.052360
    29 9.393337 0.000000 0.000000 -1.569611 0.000000 0.165806
    30 1.442246 0.107454 -1.746177 2.026336 0.503696 0.969750
    31 1.063452 -0.000001 -0.000001 -0.029722 -0.443677 0.307463
    32 1.376306 -0.000001 -0.000001 0.000000 0.000000 0.148353
    33 4.172850 -0.251366 -1.312744 -0.001190 0.096055 0.052246
    34 1.215374 0.000001 0.000001 0.014537 0.052900 0.588925
    35 1.215369 -0.000002 0.000000 0.000000 0.000000 0.052360
    36 4.220536 -0.244855 -0.431465 -0.001184 0.026242 0.052329
    37 1.350417 0.000000 0.000000 0.022399 0.057802 0.792033
    38 1.350411 -0.000001 -0.000001 0.000000 0.000000 0.052360
    39 1.376305 -0.000002 0.000000 0.000000 0.000000 0.148353
    40 2.110539 0.000000 0.000000 0.000000 0.000000 -0.083184
    41 5.253239 3.139476 -1.673515 0.000000 -1.570796 2.984594
    42 5.253257 3.139473 -0.054760 0.000000 -1.570796 2.984594
    43 5.253252 3.139468 1.574632 0.000000 -1.570796 2.984594
    44 4.598144 4.158443 -1.350299 0.000000 -1.570796 2.984594
    45 4.598136 4.158431 -0.054439 0.000000 -1.570796 2.984594
    46 4.598139 4.158430 1.240876 0.000000 -1.570796 2.984594
    47 0.891925 2.373051 -0.014527 -3.141592 -0.000001 1.413797
    48 7.228119 5.709446 3.726568 0.000000 -1.570796 3.140796
end
