// Created by Crowbar 0.56
version 1
nodes
  0 "Bip01" -1
  1 "Bip01 Pelvis" 0
  2 "Bip01 L Thigh" 1
  3 "Bip01 L Calf" 2
  4 "Bip01 L Foot" 3
  5 "Bip01 R Thigh" 1
  6 "Bip01 R Calf" 5
  7 "Bip01 R Foot" 6
  8 "Bip01 Spine" 1
  9 "Bip01 Spine1" 8
  10 "Armour Front" 8
  11 "Armour Back" 8
  12 "Holster" 1
  13 "Bip01 Neck" 9
  14 "Bip01 R Clavicle" 13
  15 "Bip01 R UpperArm" 14
  16 "Bip01 R Forearm" 15
  17 "Bip01 L Clavicle" 13
  18 "Bip01 L UpperArm" 17
  19 "Bip01 L Forearm" 18
  20 "Bip01 R Hand" 16
  21 "Bip01 R Finger0" 20
  22 "Bip01 R Finger01" 21
  23 "Bip01 R Finger1" 20
  24 "Bip01 R Finger11" 23
  25 "Bip01 R Finger12" 24
  26 "Bip01 R Finger2" 20
  27 "Bip01 R Finger21" 26
  28 "Bip01 R Finger22" 27
  29 "Bip01 L Hand" 19
  30 "Bip01 L Finger0" 29
  31 "Bip01 L Finger01" 30
  32 "Bip01 L Finger02" 31
  33 "Bip01 L Finger1" 29
  34 "Bip01 L Finger11" 33
  35 "Bip01 L Finger12" 34
  36 "Bip01 L Finger2" 29
  37 "Bip01 L Finger21" 36
  38 "Bip01 L Finger22" 37
  39 "Bip01 R Finger02" 22
  40 "Bip01 Head" 13
  41 "R_eyebrow" 40
  42 "C_eyebrow" 40
  43 "L_eyebrow" 40
  44 "R_eye" 40
  45 "Eyelids" 40
  46 "L_eye" 40
  47 "Mouth" 40
  48 "ID Tag" 9
end
skeleton
  time 0
    0 0.410246 -0.402783 40.802474 0.000000 0.000000 -1.570987
    1 1.433965 0.000000 0.000000 0.000000 -1.570451 -1.570795
    2 -0.000007 0.000008 4.427393 2.877179 -0.190417 2.920991
    3 18.465940 0.000000 0.000000 0.000000 0.000000 -0.272240
    4 14.875443 0.000000 -0.000001 -0.186811 -0.121363 0.008061
    5 0.000009 -0.000004 -4.427393 -2.933575 0.097761 3.247012
    6 18.465942 0.000000 0.000000 0.000000 0.000000 -0.200629
    7 14.875444 0.000000 0.000000 0.430192 0.116824 0.283955
    8 2.255209 -0.007574 0.000003 -0.000004 -0.000001 -0.156242
    9 9.514224 -0.009357 0.000000 0.000000 0.000000 0.000000
    10 2.450428 5.076128 0.001325 0.000000 -1.570796 3.140791
    11 6.312406 -4.528058 0.001311 0.000000 -1.570796 3.140791
    12 2.233309 1.152535 -7.309138 0.000000 -1.570796 -1.570796
    13 11.751817 -0.001633 0.000000 0.000000 -0.000001 0.478697
    14 -1.969053 0.932982 -2.649726 0.552999 1.336922 3.202952
    15 4.640942 0.000000 -0.000003 -1.573303 -0.615374 0.645535
    16 10.828047 0.000000 0.000000 0.000000 0.000000 -1.365476
    17 -1.969053 0.929063 2.649729 0.750702 -1.300338 1.929683
    18 4.640942 0.000000 0.000000 1.745635 0.768880 0.156219
    19 10.828046 0.000000 -0.000002 0.000000 0.000000 -1.277387
    20 9.393339 0.000001 0.000001 2.605823 0.309593 0.735397
    21 1.442242 0.107453 1.746178 -1.585943 -0.550079 0.132381
    22 1.063451 0.000002 0.000000 0.000000 0.000000 0.183260
    23 4.172844 -0.251366 1.312745 -0.085051 -0.044617 1.153609
    24 1.215372 0.000000 0.000002 0.000000 0.000000 1.151796
    25 1.215374 0.000001 0.000000 0.000000 0.000000 1.151774
    26 4.220534 -0.244853 0.431466 -0.022785 -0.012975 1.151954
    27 1.350417 0.000001 0.000000 0.000000 0.000000 1.151787
    28 1.350410 -0.000001 0.000000 0.000000 0.000000 1.151769
    29 9.393337 0.000000 0.000000 -3.448906 0.170516 1.009572
    30 1.442246 0.107454 -1.746177 1.585944 0.550080 0.132382
    31 1.063452 -0.000001 -0.000001 0.000000 0.000000 0.183260
    32 1.376306 -0.000001 -0.000001 0.000000 0.000000 0.148353
    33 4.172850 -0.251366 -1.312744 0.088922 0.036312 1.249289
    34 1.215374 0.000001 0.000001 0.000000 0.000000 1.247861
    35 1.215369 -0.000002 0.000000 0.000000 0.000000 1.247861
    36 4.220536 -0.244855 -0.431465 0.023972 0.010770 1.247905
    37 1.350417 0.000000 0.000000 0.000000 0.000000 1.247855
    38 1.350411 -0.000001 -0.000001 0.000000 0.000000 1.247821
    39 1.376305 -0.000002 0.000000 0.000000 0.000000 0.148353
    40 2.110539 0.000000 0.000000 0.000000 0.000000 -1.099132
    41 5.253239 3.139476 -1.673515 0.000000 -1.570796 2.984594
    42 5.253257 3.139473 -0.054760 0.000000 -1.570796 2.984594
    43 5.253252 3.139468 1.574632 0.000000 -1.570796 2.984594
    44 4.598144 4.158443 -1.350299 0.000000 -1.570796 2.984594
    45 4.598136 4.158431 -0.054439 0.000000 -1.570796 2.984594
    46 4.598139 4.158430 1.240876 0.000000 -1.570796 2.984594
    47 0.891925 2.373051 -0.014527 -3.141592 -0.000001 1.413797
    48 7.228119 5.709446 3.726568 0.000000 -1.570796 3.140796
  time 1
    0 0.410246 -0.402783 40.802474 0.000000 0.000000 -1.570987
    1 1.433965 0.000000 0.000000 0.000000 -1.570451 -1.570795
    2 -0.000007 0.000008 4.427393 2.877179 -0.190417 2.920991
    3 18.465940 0.000000 0.000000 0.000000 0.000000 -0.272240
    4 14.875443 0.000000 -0.000001 -0.186811 -0.121363 0.008061
    5 0.000009 -0.000004 -4.427393 -2.933575 0.097761 3.247012
    6 18.465942 0.000000 0.000000 0.000000 0.000000 -0.200629
    7 14.875444 0.000000 0.000000 0.430192 0.116824 0.283955
    8 2.255209 -0.007574 0.000003 -0.000004 -0.000001 -0.156242
    9 9.514224 -0.009357 0.000000 0.000000 0.000000 0.000000
    10 2.450428 5.076128 0.001325 0.000000 -1.570796 3.140791
    11 6.312406 -4.528058 0.001311 0.000000 -1.570796 3.140791
    12 2.233309 1.152535 -7.309138 0.000000 -1.570796 -1.570796
    13 11.751817 -0.001633 0.000000 0.000000 -0.000001 0.478697
    14 -1.969053 0.932982 -2.649726 0.552999 1.336922 3.202952
    15 4.640942 0.000000 -0.000003 -1.573303 -0.615374 0.645535
    16 10.828047 0.000000 0.000000 0.000000 0.000000 -1.365476
    17 -1.969053 0.929063 2.649729 0.750702 -1.300338 1.929683
    18 4.640942 0.000000 0.000000 1.745635 0.768880 0.156219
    19 10.828046 0.000000 -0.000002 0.000000 0.000000 -1.277387
    20 9.393339 0.000001 0.000001 2.605823 0.309593 0.735397
    21 1.442242 0.107453 1.746178 -1.585943 -0.550079 0.132381
    22 1.063451 0.000002 0.000000 0.000000 0.000000 0.183260
    23 4.172844 -0.251366 1.312745 -0.085051 -0.044617 1.153609
    24 1.215372 0.000000 0.000002 0.000000 0.000000 1.151796
    25 1.215374 0.000001 0.000000 0.000000 0.000000 1.151774
    26 4.220534 -0.244853 0.431466 -0.022785 -0.012975 1.151954
    27 1.350417 0.000001 0.000000 0.000000 0.000000 1.151787
    28 1.350410 -0.000001 0.000000 0.000000 0.000000 1.151769
    29 9.393337 0.000000 0.000000 -3.448906 0.170516 1.009572
    30 1.442246 0.107454 -1.746177 1.585944 0.550080 0.132382
    31 1.063452 -0.000001 -0.000001 0.000000 0.000000 0.183260
    32 1.376306 -0.000001 -0.000001 0.000000 0.000000 0.148353
    33 4.172850 -0.251366 -1.312744 0.088922 0.036312 1.249289
    34 1.215374 0.000001 0.000001 0.000000 0.000000 1.247861
    35 1.215369 -0.000002 0.000000 0.000000 0.000000 1.247861
    36 4.220536 -0.244855 -0.431465 0.023972 0.010770 1.247905
    37 1.350417 0.000000 0.000000 0.000000 0.000000 1.247855
    38 1.350411 -0.000001 -0.000001 0.000000 0.000000 1.247821
    39 1.376305 -0.000002 0.000000 0.000000 0.000000 0.148353
    40 2.110539 0.000000 0.000000 0.000000 0.000000 -1.099132
    41 5.253239 3.139476 -1.673515 0.000000 -1.570796 2.984594
    42 5.253257 3.139473 -0.054760 0.000000 -1.570796 2.984594
    43 5.253252 3.139468 1.574632 0.000000 -1.570796 2.984594
    44 4.598144 4.158443 -1.350299 0.000000 -1.570796 2.984594
    45 4.598136 4.158431 -0.054439 0.000000 -1.570796 2.984594
    46 4.598139 4.158430 1.240876 0.000000 -1.570796 2.984594
    47 0.891925 2.373051 -0.014527 -3.141592 -0.000001 1.413797
    48 7.228119 5.709446 3.726568 0.000000 -1.570796 3.140796
end
